%!PS-Adobe-3.0 EPSF-3.0
%%Creator: cairo 1.16.0 (https://cairographics.org)
%%CreationDate: Thu Dec 10 07:54:36 2020
%%Pages: 1
%%DocumentData: Clean7Bit
%%LanguageLevel: 2
%%BoundingBox: 7 0 377 384
%%EndComments
%%BeginProlog
50 dict begin
/q { gsave } bind def
/Q { grestore } bind def
/cm { 6 array astore concat } bind def
/w { setlinewidth } bind def
/J { setlinecap } bind def
/j { setlinejoin } bind def
/M { setmiterlimit } bind def
/d { setdash } bind def
/m { moveto } bind def
/l { lineto } bind def
/c { curveto } bind def
/h { closepath } bind def
/re { exch dup neg 3 1 roll 5 3 roll moveto 0 rlineto
      0 exch rlineto 0 rlineto closepath } bind def
/S { stroke } bind def
/f { fill } bind def
/f* { eofill } bind def
/n { newpath } bind def
/W { clip } bind def
/W* { eoclip } bind def
/BT { } bind def
/ET { } bind def
/BDC { mark 3 1 roll /BDC pdfmark } bind def
/EMC { mark /EMC pdfmark } bind def
/cairo_store_point { /cairo_point_y exch def /cairo_point_x exch def } def
/Tj { show currentpoint cairo_store_point } bind def
/TJ {
  {
    dup
    type /stringtype eq
    { show } { -0.001 mul 0 cairo_font_matrix dtransform rmoveto } ifelse
  } forall
  currentpoint cairo_store_point
} bind def
/cairo_selectfont { cairo_font_matrix aload pop pop pop 0 0 6 array astore
    cairo_font exch selectfont cairo_point_x cairo_point_y moveto } bind def
/Tf { pop /cairo_font exch def /cairo_font_matrix where
      { pop cairo_selectfont } if } bind def
/Td { matrix translate cairo_font_matrix matrix concatmatrix dup
      /cairo_font_matrix exch def dup 4 get exch 5 get cairo_store_point
      /cairo_font where { pop cairo_selectfont } if } bind def
/Tm { 2 copy 8 2 roll 6 array astore /cairo_font_matrix exch def
      cairo_store_point /cairo_font where { pop cairo_selectfont } if } bind def
/g { setgray } bind def
/rg { setrgbcolor } bind def
/d1 { setcachedevice } bind def
/cairo_data_source {
  CairoDataIndex CairoData length lt
    { CairoData CairoDataIndex get /CairoDataIndex CairoDataIndex 1 add def }
    { () } ifelse
} def
/cairo_flush_ascii85_file { cairo_ascii85_file status { cairo_ascii85_file flushfile } if } def
/cairo_image { image cairo_flush_ascii85_file } def
/cairo_imagemask { imagemask cairo_flush_ascii85_file } def
%%EndProlog
%%BeginSetup
%%EndSetup
%%Page: 1 1
%%BeginPageSetup
%%PageBoundingBox: 7 0 377 384
%%EndPageSetup
q 7 0 370 384 rectclip
1 0 0 -1 0 384 cm q
0.25098 0.439216 0.576471 rg
114.496 49.473 m 120.195 36.93 126.852 24.746 134.504 13.266 c 139.012 
6.547 141.027 5.633 148.961 5.633 c 307.602 5.633 l 315.531 5.633 317.551
 6.547 322.039 13.266 c 329.711 24.746 336.344 36.93 342.043 49.473 c 228.281
 54.938 l h
114.496 334.527 m 120.195 347.094 126.852 359.273 134.504 370.754 c 139.012
 377.473 141.027 378.387 148.961 378.387 c 307.602 378.387 l 315.531 378.387
 317.551 377.473 322.039 370.754 c 329.711 359.273 336.344 347.094 342.043
 334.527 c 228.281 323.258 l h
370.555 170.082 m 370.957 177.309 371.172 184.621 371.172 192 c 371.172
 199.398 370.957 206.711 370.555 213.918 c 228.281 219.746 l 86.008 213.918
 l 85.605 206.711 85.395 199.398 85.395 192 c 85.395 184.621 85.605 177.309
 86.008 170.082 c 228.281 167.168 l h
370.555 170.082 m f*
0.717647 0.545098 0.478431 rg
342.043 49.473 m 357.84 84.254 368.023 125.477 370.555 170.082 c 275.691
 170.082 180.852 170.082 86.008 170.082 c 88.539 125.477 98.723 84.254 114.496
 49.473 c h
342.043 49.473 m f*
0.25098 0.439216 0.576471 rg
44.637 260.289 53.277 27.891 re f*
0.211765 0.368627 0.490196 rg
73.359 260.289 m 97.914 260.289 l 97.914 288.18 l 79.715 288.18 l 77.25
 279.145 75.121 269.832 73.359 260.289 c h
73.359 260.289 m f*
0.717647 0.545098 0.478431 rg
342.043 334.527 m 357.84 299.766 368.023 258.523 370.555 213.918 c 275.691
 213.918 180.852 213.918 86.008 213.918 c 88.539 258.523 98.723 299.766 
114.496 334.527 c h
342.043 334.527 m f*
0.211765 0.368627 0.490196 rg
289.402 5.633 m 307.602 5.633 l 315.531 5.633 317.555 6.547 322.039 13.266
 c 329.711 24.746 336.348 36.93 342.043 49.473 c 323.844 49.473 l 318.148
 36.93 311.516 24.746 303.84 13.266 c 299.352 6.547 297.336 5.633 289.402
 5.633 c h
289.402 378.387 m 307.602 378.387 l 315.531 378.387 317.555 377.473 322.039
 370.754 c 329.711 359.273 336.348 347.094 342.043 334.527 c 323.844 334.527
 l 318.148 347.094 311.516 359.273 303.84 370.754 c 299.352 377.473 297.336
 378.387 289.402 378.387 c h
370.555 170.082 m 370.957 177.309 371.172 184.621 371.172 192 c 371.172
 199.398 370.957 206.711 370.555 213.918 c 352.332 213.918 l 352.758 206.711
 352.973 199.398 352.973 192 c 352.973 184.621 352.762 177.309 352.332 170.082
 c h
370.555 170.082 m f*
0.329412 0.564706 0.976471 rg
26.648 309.016 m 38.918 309.016 l 42.105 309.016 44.742 311.629 44.742 
314.84 c 44.742 340.992 l 44.742 344.203 42.105 346.816 38.918 346.816 c
 26.648 346.816 l 23.441 346.816 20.824 344.203 20.824 340.992 c 20.824 
314.84 l 20.824 311.629 23.441 309.016 26.648 309.016 c h
26.648 309.016 m f*
0.615686 0.776471 0.984314 rg
18.68 227.398 m 46.891 227.398 l 50.078 227.398 52.715 230.012 52.715 233.203
 c 52.715 315.246 l 52.715 318.453 50.078 321.07 46.891 321.07 c 18.68 321.07
 l 15.469 321.07 12.852 318.453 12.852 315.246 c 12.852 233.203 l 12.852
 230.012 15.469 227.398 18.68 227.398 c h
18.68 227.398 m f*
0.501961 0.705882 0.984314 rg
28.672 227.398 m 46.891 227.398 l 50.078 227.398 52.715 230.012 52.715 
233.203 c 52.715 315.246 l 52.715 318.453 50.078 321.07 46.891 321.07 c 
28.672 321.07 l 31.883 321.07 34.496 318.453 34.496 315.246 c 34.496 233.203
 l 34.496 230.012 31.883 227.398 28.672 227.398 c h
28.672 227.398 m f*
0.666667 0.478431 0.388235 rg
138.945 49.473 m 157.145 49.473 l 157.145 170.082 l 138.945 170.082 l h
342.043 49.473 m 357.84 84.254 368.023 125.477 370.555 170.082 c 352.332
 170.082 l 349.805 125.477 339.641 84.254 323.848 49.473 c h
281.219 49.473 m 299.418 49.473 l 299.418 170.082 l 281.219 170.082 l h
210.082 49.473 m 228.281 49.473 l 228.281 170.082 l 210.082 170.082 l h
210.082 49.473 m f*
138.945 334.527 m 157.145 334.527 l 157.145 213.918 l 138.945 213.918 l
 h
342.043 334.527 m 357.84 299.766 368.023 258.523 370.555 213.918 c 352.332
 213.918 l 349.805 258.523 339.641 299.766 323.848 334.527 c h
281.219 334.527 m 299.418 334.527 l 299.418 213.918 l 281.219 213.918 l
 h
210.082 334.527 m 228.281 334.527 l 228.281 213.918 l 210.082 213.918 l
 h
210.082 334.527 m f*
0 g
305.031 97.031 m 305.031 100.137 302.523 102.664 299.418 102.664 c 296.312
 102.664 293.785 100.137 293.785 97.031 c 293.785 55.105 l 233.895 55.105
 l 233.895 164.445 l 293.785 164.445 l 293.785 122.523 l 293.785 119.418
 296.312 116.887 299.418 116.887 c 302.523 116.887 305.031 119.418 305.031
 122.523 c 305.031 164.445 l 364.559 164.445 l 363.133 144.953 360.223 126.094
 355.992 108.215 c 351.527 89.312 345.594 71.496 338.41 55.105 c 305.031
 55.105 l h
117.133 241.387 m 114.027 241.387 111.52 238.879 111.52 235.773 c 111.52
 232.672 114.031 230.141 117.133 230.141 c 126.02 230.141 l 129.125 230.141
 131.656 232.672 131.656 235.773 c 131.656 238.879 129.125 241.387 126.02
 241.387 c h
330.543 241.387 m 327.438 241.387 324.91 238.879 324.91 235.773 c 324.91
 232.672 327.438 230.141 330.543 230.141 c 339.43 230.141 l 342.535 230.141
 345.043 232.672 345.043 235.773 c 345.043 238.879 342.531 241.387 339.43
 241.387 c h
259.406 241.387 m 256.301 241.387 253.773 238.879 253.773 235.773 c 253.773
 232.672 256.301 230.141 259.406 230.141 c 268.293 230.141 l 271.398 230.141
 273.906 232.672 273.906 235.773 c 273.906 238.879 271.395 241.387 268.293
 241.387 c h
188.27 241.387 m 185.164 241.387 182.637 238.879 182.637 235.773 c 182.637
 232.672 185.164 230.141 188.27 230.141 c 197.156 230.141 l 200.262 230.141
 202.789 232.672 202.789 235.773 c 202.789 238.879 200.262 241.387 197.156
 241.387 c h
117.133 153.859 m 114.027 153.859 111.52 151.352 111.52 148.246 c 111.52
 145.145 114.031 142.613 117.133 142.613 c 126.02 142.613 l 129.125 142.613
 131.656 145.145 131.656 148.246 c 131.656 151.352 129.125 153.859 126.02
 153.859 c h
330.543 153.859 m 327.438 153.859 324.91 151.352 324.91 148.246 c 324.91
 145.145 327.438 142.613 330.543 142.613 c 339.43 142.613 l 342.535 142.613
 345.043 145.145 345.043 148.246 c 345.043 151.352 342.531 153.859 339.43
 153.859 c h
259.406 153.859 m 256.301 153.859 253.773 151.352 253.773 148.246 c 253.773
 145.145 256.301 142.613 259.406 142.613 c 268.293 142.613 l 271.398 142.613
 273.906 145.145 273.906 148.246 c 273.906 151.352 271.395 153.859 268.293
 153.859 c h
188.27 153.859 m 185.164 153.859 182.637 151.352 182.637 148.246 c 182.637
 145.145 185.164 142.613 188.27 142.613 c 197.156 142.613 l 200.262 142.613
 202.789 145.145 202.789 148.246 c 202.789 151.352 200.262 153.859 197.156
 153.859 c h
38.387 205.117 m 38.387 221.766 l 52.715 221.766 l 55.82 221.766 58.328
 224.273 58.328 227.398 c 58.328 254.652 l 84.859 254.652 l 79.863 224.508
 78.59 193.574 80.84 163.109 c 82.328 143.145 85.305 123.906 89.621 105.664
 c 96.363 77.09 106.758 49.07 121.492 23.602 c 125.828 16.098 130.441 8.992
 135.332 2.32 c 136.375 0.875 138.051 0 139.859 0 c 316.699 0 l 318.719 
0 320.465 1.043 321.461 2.637 c 326.266 9.23 330.797 16.223 335.07 23.602
 c 349.801 49.07 360.199 77.09 366.938 105.664 c 370.934 122.543 373.785
 140.297 375.355 158.664 c 378.758 198.508 376.102 239.539 366.938 278.359
 c 360.199 306.91 349.801 334.934 335.07 360.402 c 330.73 367.906 326.117
 375.031 321.23 381.707 c 320.164 383.152 318.508 384 316.699 384 c 139.859
 384 l 137.84 384 136.078 382.961 135.098 381.387 c 130.293 374.797 125.742
 367.781 121.492 360.402 c 109.438 339.547 100.273 316.945 93.641 293.816
 c 58.328 293.816 l 58.328 321.07 l 58.328 324.176 55.82 326.707 52.715 
326.707 c 50.355 326.707 l 50.355 346.816 l 50.355 349.941 47.848 352.453
 44.746 352.453 c 20.824 352.453 l 17.723 352.453 15.191 349.941 15.191 
346.816 c 15.191 326.707 l 12.852 326.707 l 9.75 326.707 7.219 324.176 7.219
 321.07 c 7.219 286.969 l 7.219 283.867 9.75 281.359 12.852 281.359 c 15.957
 281.359 18.465 283.867 18.465 286.969 c 18.465 315.461 l 47.082 315.461
 l 47.082 287.969 47.082 260.5 47.082 233.012 c 18.465 233.012 l 18.465 
261.5 l 18.465 264.605 15.957 267.113 12.852 267.113 c 9.75 267.113 7.219
 264.605 7.219 261.5 c 7.219 227.398 l 7.219 224.273 9.75 221.766 12.852
 221.766 c 27.18 221.766 l 27.18 205.117 l 12.852 205.117 l 9.75 205.117
 7.219 202.586 7.219 199.484 c 7.219 196.379 9.75 193.871 12.852 193.871
 c 52.715 193.871 l 55.82 193.871 58.328 196.379 58.328 199.484 c 58.328
 202.586 55.82 205.117 52.715 205.117 c h
26.438 326.703 m 26.438 341.203 l 39.109 341.203 l 39.109 326.703 l h
86.922 265.898 m 58.328 265.898 l 58.328 282.566 l 90.645 282.566 l 89.262
 277.039 88.027 271.492 86.922 265.898 c h
233.895 328.914 m 293.785 328.914 l 293.785 219.555 l 233.895 219.555 l
 h
222.648 328.914 m 222.648 219.555 l 162.781 219.555 l 162.781 261.5 l 162.781
 264.602 160.25 267.109 157.145 267.109 c 154.039 267.109 151.512 264.602
 151.512 261.5 c 151.512 219.555 l 92.004 219.555 l 93.406 239.07 96.32 
257.906 100.551 275.809 c 105.016 294.707 110.945 312.523 118.152 328.914
 c 151.512 328.914 l 151.512 286.969 l 151.512 283.863 154.039 281.355 157.145
 281.355 c 160.25 281.355 162.781 283.867 162.781 286.969 c 162.781 328.914
 l h
222.648 55.105 m 162.781 55.105 l 162.781 164.445 l 222.648 164.445 l h
333.18 43.84 m 330.691 38.801 328.078 33.93 325.355 29.234 c 321.719 22.941
 317.871 16.922 313.852 11.246 c 142.711 11.246 l 138.691 16.922 134.844
 22.941 131.207 29.234 c 128.484 33.93 125.871 38.801 123.383 43.84 c h
365.219 175.715 m 273.926 175.715 182.637 175.715 91.344 175.715 c 90.875
 186.516 90.875 197.484 91.344 208.305 c 365.219 208.305 l 365.684 197.484
 365.684 186.535 365.219 175.715 c h
325.355 354.789 m 328.078 350.09 330.691 345.199 333.18 340.16 c 123.383
 340.16 l 125.871 345.199 128.484 350.09 131.207 354.789 c 134.844 361.082
 138.668 367.078 142.711 372.754 c 313.852 372.754 l 317.871 367.078 321.719
 361.082 325.355 354.789 c h
100.551 108.215 m 96.32 126.094 93.406 144.953 92.004 164.445 c 151.512
 164.445 l 151.512 55.105 l 118.156 55.105 l 110.949 71.496 105.016 89.312
 100.551 108.215 c h
338.41 328.914 m 345.594 312.523 351.527 294.707 355.992 275.809 c 360.223
 257.906 363.133 239.07 364.559 219.555 c 305.031 219.555 l 305.031 328.914
 l h
338.41 328.914 m f
Q Q
showpage
%%Trailer
end
%%EOF
