%!PS-Adobe-3.0 EPSF-3.0
%%Creator: cairo 1.16.0 (https://cairographics.org)
%%CreationDate: Thu Dec 10 07:54:36 2020
%%Pages: 1
%%DocumentData: Clean7Bit
%%LanguageLevel: 2
%%BoundingBox: 0 10 384 374
%%EndComments
%%BeginProlog
50 dict begin
/q { gsave } bind def
/Q { grestore } bind def
/cm { 6 array astore concat } bind def
/w { setlinewidth } bind def
/J { setlinecap } bind def
/j { setlinejoin } bind def
/M { setmiterlimit } bind def
/d { setdash } bind def
/m { moveto } bind def
/l { lineto } bind def
/c { curveto } bind def
/h { closepath } bind def
/re { exch dup neg 3 1 roll 5 3 roll moveto 0 rlineto
      0 exch rlineto 0 rlineto closepath } bind def
/S { stroke } bind def
/f { fill } bind def
/f* { eofill } bind def
/n { newpath } bind def
/W { clip } bind def
/W* { eoclip } bind def
/BT { } bind def
/ET { } bind def
/BDC { mark 3 1 roll /BDC pdfmark } bind def
/EMC { mark /EMC pdfmark } bind def
/cairo_store_point { /cairo_point_y exch def /cairo_point_x exch def } def
/Tj { show currentpoint cairo_store_point } bind def
/TJ {
  {
    dup
    type /stringtype eq
    { show } { -0.001 mul 0 cairo_font_matrix dtransform rmoveto } ifelse
  } forall
  currentpoint cairo_store_point
} bind def
/cairo_selectfont { cairo_font_matrix aload pop pop pop 0 0 6 array astore
    cairo_font exch selectfont cairo_point_x cairo_point_y moveto } bind def
/Tf { pop /cairo_font exch def /cairo_font_matrix where
      { pop cairo_selectfont } if } bind def
/Td { matrix translate cairo_font_matrix matrix concatmatrix dup
      /cairo_font_matrix exch def dup 4 get exch 5 get cairo_store_point
      /cairo_font where { pop cairo_selectfont } if } bind def
/Tm { 2 copy 8 2 roll 6 array astore /cairo_font_matrix exch def
      cairo_store_point /cairo_font where { pop cairo_selectfont } if } bind def
/g { setgray } bind def
/rg { setrgbcolor } bind def
/d1 { setcachedevice } bind def
/cairo_data_source {
  CairoDataIndex CairoData length lt
    { CairoData CairoDataIndex get /CairoDataIndex CairoDataIndex 1 add def }
    { () } ifelse
} def
/cairo_flush_ascii85_file { cairo_ascii85_file status { cairo_ascii85_file flushfile } if } def
/cairo_image { image cairo_flush_ascii85_file } def
/cairo_imagemask { imagemask cairo_flush_ascii85_file } def
%%EndProlog
%%BeginSetup
%%EndSetup
%%Page: 1 1
%%BeginPageSetup
%%PageBoundingBox: 0 10 384 374
%%EndPageSetup
q 0 10 384 364 rectclip
1 0 0 -1 0 384 cm q
0.584314 0.839216 0.643137 rg
349.961 80.598 m 349.961 152.691 l 192 159.961 l 34.059 152.691 l 34.059
 80.598 l 34.059 77.41 36.676 74.773 39.887 74.773 c 344.137 74.773 l 347.348
 74.773 349.961 77.406 349.961 80.598 c h
349.961 80.598 m f*
0.470588 0.760784 0.643137 rg
349.961 80.598 m 349.961 152.691 l 331.766 152.691 l 331.766 80.598 l 331.766
 77.41 329.129 74.773 325.938 74.773 c 344.137 74.773 l 347.348 74.773 349.961
 77.406 349.961 80.598 c h
349.961 80.598 m f*
0.352941 0.65098 0.529412 rg
34.059 152.691 m 349.961 152.691 l 378.387 192.723 l 192 203.652 l 5.633
 192.723 l h
34.059 152.691 m f*
0.298039 0.556863 0.447059 rg
331.766 152.691 m 349.961 152.691 l 378.387 192.723 l 360.188 192.723 l
 h
331.766 152.691 m f*
0.717647 0.545098 0.478431 rg
281.379 37.652 m 311.949 37.652 l 316.543 114.633 l 276.785 114.633 l h
72.07 37.652 m 102.625 37.652 l 107.215 114.633 l 67.48 114.633 l h
176.734 37.652 m 207.285 37.652 l 211.879 114.633 l 172.121 114.633 l h
176.734 37.652 m f*
0.666667 0.478431 0.388235 rg
293.73 37.652 m 311.949 37.652 l 316.543 114.633 l 298.344 114.633 l h
84.426 37.652 m 102.625 37.652 l 107.215 114.633 l 89.016 114.633 l h
189.086 37.652 m 207.285 37.652 l 211.879 114.633 l 193.68 114.633 l h
189.086 37.652 m f*
0.854902 0.290196 0.329412 rg
316.543 114.633 m 318.031 139.742 l 319.922 171.312 339.887 159.215 339.887
 192.723 c 253.441 192.723 l 253.441 159.215 273.406 171.312 275.277 139.742
 c 276.785 114.633 l h
211.879 114.633 m 172.121 114.633 l 170.633 139.742 l 168.742 171.312 148.777
 159.215 148.777 192.723 c 235.223 192.723 l 235.223 159.215 215.258 171.312
 213.387 139.742 c h
107.215 114.633 m 67.48 114.633 l 65.973 139.742 l 64.078 171.312 44.113
 159.215 44.113 192.723 c 130.582 192.723 l 130.582 159.215 110.617 171.312
 108.723 139.742 c h
107.215 114.633 m f*
0.847059 0.180392 0.239216 rg
316.543 114.633 m 318.031 139.742 l 319.922 171.312 339.887 159.215 339.887
 192.723 c 321.688 192.723 l 321.688 159.215 301.723 171.312 299.832 139.742
 c 298.344 114.633 l h
211.879 114.633 m 193.68 114.633 l 195.188 139.742 l 197.059 171.312 217.023
 159.215 217.023 192.723 c 235.223 192.723 l 235.223 159.215 215.258 171.312
 213.387 139.742 c h
107.215 114.633 m 89.016 114.633 l 90.527 139.742 l 92.418 171.312 112.383
 159.215 112.383 192.723 c 130.582 192.723 l 130.582 159.215 110.617 171.312
 108.723 139.742 c h
107.215 114.633 m f*
0.701961 0.898039 0.623529 rg
5.633 192.723 m 378.387 192.723 l 378.387 362.355 l 378.387 365.566 375.75
 368.184 372.562 368.184 c 11.461 368.184 l 8.25 368.184 5.633 365.566 5.633
 362.355 c h
5.633 192.723 m f*
0.584314 0.839216 0.643137 rg
360.188 192.723 m 378.387 192.723 l 378.387 362.355 l 378.387 365.566 375.75
 368.184 372.562 368.184 c 354.363 368.184 l 357.551 368.184 360.188 365.566
 360.188 362.355 c h
360.188 192.723 m f*
0.992157 0.701961 0.262745 rg
5.633 192.723 m 53.684 192.723 l 378.387 345.562 l 378.387 362.355 l 378.387
 365.566 375.75 368.184 372.562 368.184 c 330.316 368.184 l 5.633 215.344
 l h
5.633 192.723 m f*
0.905882 0.647059 0.180392 rg
360.188 336.992 m 378.387 345.562 l 378.387 362.355 l 378.387 365.566 375.75
 368.184 372.562 368.184 c 354.363 368.184 l 357.551 368.184 360.188 365.566
 360.188 362.355 c h
360.188 336.992 m f*
0.717647 0.545098 0.478431 rg
192 346.902 m 218.531 346.902 240.176 317.051 240.176 280.441 c 240.176
 243.852 218.531 214.004 192 214.004 c 165.469 214.004 143.824 243.852 143.824
 280.441 c 143.824 317.051 165.469 346.902 192 346.902 c h
192 346.902 m f*
0.666667 0.478431 0.388235 rg
192 214.004 m 218.617 214.004 240.176 243.746 240.176 280.441 c 240.176
 317.156 218.617 346.902 192 346.902 c 188.895 346.902 185.855 346.477 182.902
 345.711 c 205.16 339.844 221.977 312.863 221.977 280.441 c 221.977 248.043
 205.16 221.062 182.902 215.195 c 185.855 214.43 188.895 214.004 192 214.004
 c h
192 214.004 m f*
0.25098 0.439216 0.576471 rg
76.195 15.816 m 98.5 15.816 l 105.004 15.816 110.297 21.113 110.297 27.617
 c 110.297 31.828 l 110.297 35.035 107.684 37.652 104.473 37.652 c 70.223
 37.652 l 67.012 37.652 64.398 35.039 64.398 31.828 c 64.398 27.617 l 64.398
 21.113 69.691 15.816 76.195 15.816 c h
285.5 15.816 m 307.824 15.816 l 314.309 15.816 319.625 21.113 319.625 27.617
 c 319.625 31.828 l 319.625 35.035 316.988 37.652 313.797 37.652 c 279.527
 37.652 l 276.316 37.652 273.703 35.039 273.703 31.828 c 273.703 27.617 
l 273.703 21.113 279.02 15.816 285.5 15.816 c h
180.84 15.816 m 203.16 15.816 l 209.645 15.816 214.961 21.113 214.961 27.617
 c 214.961 31.828 l 214.961 35.035 212.348 37.652 209.137 37.652 c 174.863
 37.652 l 171.676 37.652 169.039 35.039 169.039 31.828 c 169.039 27.617 
l 169.039 21.113 174.355 15.816 180.84 15.816 c h
180.84 15.816 m f*
0.211765 0.368627 0.490196 rg
80.301 15.816 m 98.5 15.816 l 105.004 15.816 110.297 21.113 110.297 27.617
 c 110.297 31.828 l 110.297 35.035 107.684 37.652 104.473 37.652 c 86.273
 37.652 l 89.484 37.652 92.098 35.039 92.098 31.828 c 92.098 27.617 l 92.098
 21.113 86.805 15.816 80.301 15.816 c h
289.625 15.816 m 307.824 15.816 l 314.309 15.816 319.625 21.113 319.625
 27.617 c 319.625 31.828 l 319.625 35.035 316.988 37.652 313.797 37.652 
c 295.602 37.652 l 298.789 37.652 301.426 35.039 301.426 31.828 c 301.426
 27.617 l 301.426 21.113 296.109 15.816 289.625 15.816 c h
184.961 15.816 m 203.16 15.816 l 209.645 15.816 214.961 21.113 214.961 
27.617 c 214.961 31.828 l 214.961 35.035 212.348 37.652 209.137 37.652 c
 190.938 37.652 l 194.148 37.652 196.762 35.039 196.762 31.828 c 196.762
 27.617 l 196.762 21.113 191.449 15.816 184.961 15.816 c h
184.961 15.816 m f*
0.854902 0.290196 0.329412 rg
178.543 261.16 m 205.48 261.16 l 208.668 261.16 211.305 263.773 211.305
 266.984 c 211.305 293.922 l 211.305 297.129 208.668 299.746 205.48 299.746
 c 178.543 299.746 l 175.332 299.746 172.719 297.133 172.719 293.922 c 172.719
 266.984 l 172.719 263.773 175.332 261.16 178.543 261.16 c h
178.543 261.16 m f*
0 g
138.277 283.992 m 83.871 258.375 l 81.066 257.055 79.852 253.695 81.191
 250.914 c 82.512 248.105 85.848 246.895 88.656 248.211 c 138.594 271.727
 l 139.551 261.098 142.23 251.168 146.227 242.492 c 52.449 198.355 l 11.246
 198.355 l 11.246 211.793 l 65.586 237.371 l 68.395 238.688 69.605 242.047
 68.266 244.832 c 66.949 247.641 63.609 248.852 60.805 247.512 c 11.246 
224.188 l 11.246 324.492 l 11.246 327.598 8.738 330.129 5.633 330.129 c 
2.531 330.129 0 327.598 0 324.492 c 0 192.723 l 0 191.363 0.488 190.109 
1.297 189.129 c 28.426 150.926 l 28.426 74.773 l 28.426 71.668 30.953 69.16
 34.059 69.16 c 64.566 69.16 l 66.121 43.285 l 64.398 43.285 l 61.293 43.285
 58.762 40.754 58.762 37.652 c 58.762 27.617 l 58.762 22.812 60.719 18.453
 63.887 15.309 c 67.031 12.141 71.391 10.184 76.195 10.184 c 98.5 10.184
 l 103.305 10.184 107.66 12.141 110.809 15.309 c 113.977 18.453 115.93 22.812
 115.93 27.617 c 115.93 37.652 l 115.93 40.754 113.402 43.285 110.297 43.285
 c 108.594 43.285 l 110.125 69.16 l 169.23 69.16 l 170.762 43.285 l 169.039
 43.285 l 165.934 43.285 163.426 40.754 163.426 37.652 c 163.426 27.617 
l 163.426 22.812 165.383 18.453 168.527 15.309 c 171.695 12.141 176.055 
10.184 180.84 10.184 c 203.16 10.184 l 207.965 10.184 212.324 12.141 215.473
 15.309 c 218.617 18.453 220.594 22.812 220.594 27.617 c 220.594 37.652 
l 220.594 40.754 218.066 43.285 214.961 43.285 c 213.238 43.285 l 214.789
 69.16 l 273.871 69.16 l 275.426 43.285 l 273.703 43.285 l 270.598 43.285
 268.066 40.754 268.066 37.652 c 268.066 27.617 l 268.066 22.812 270.047
 18.453 273.191 15.309 c 276.336 12.141 280.695 10.184 285.5 10.184 c 307.824
 10.184 l 312.609 10.184 316.965 12.141 320.133 15.309 c 323.281 18.453 
325.234 22.812 325.234 27.617 c 325.234 37.652 l 325.234 40.754 322.727 
43.285 319.625 43.285 c 317.902 43.285 l 319.453 69.16 l 349.961 69.16 l
 353.066 69.16 355.574 71.668 355.574 74.773 c 355.574 150.926 l 382.699
 189.129 l 383.508 190.109 384 191.363 384 192.723 c 384 210.922 l 384 214.027
 381.488 216.555 378.387 216.555 c 375.281 216.555 372.754 214.027 372.754
 210.922 c 372.754 198.359 l 274.766 198.359 176.797 198.359 78.809 198.359
 c 151.688 232.652 l 152.242 231.801 152.816 230.973 153.391 230.184 c 163.148
 216.703 176.797 208.395 191.996 208.395 c 207.219 208.395 220.848 216.703
 230.605 230.184 c 239.43 242.324 245.086 258.758 245.742 276.914 c 300.148
 302.531 l 302.953 303.852 304.145 307.211 302.828 309.996 c 301.508 312.801
 298.148 314.012 295.344 312.676 c 245.402 289.184 l 244.445 299.812 241.789
 309.742 237.77 318.414 c 331.551 362.551 l 372.75 362.551 l 372.75 349.113
 l 318.41 323.539 l 315.605 322.219 314.414 318.859 315.73 316.074 c 317.051
 313.27 320.41 312.059 323.195 313.398 c 372.75 336.719 l 372.75 236.41 
l 372.75 233.309 375.281 230.777 378.387 230.777 c 381.488 230.777 383.996
 233.309 383.996 236.41 c 383.996 368.184 l 383.996 371.285 381.488 373.816
 378.387 373.816 c 5.633 373.816 l 2.531 373.816 0 371.285 0 368.184 c 0
 349.984 l 0 346.879 2.531 344.352 5.633 344.352 c 8.738 344.352 11.246 
346.879 11.246 349.984 c 11.246 362.547 l 305.188 362.547 l 232.332 328.258
 l 231.777 329.105 231.203 329.934 230.609 330.723 c 220.852 344.203 207.223
 352.516 192 352.516 c 176.801 352.516 163.152 344.203 153.391 330.723 c
 144.57 318.582 138.914 302.148 138.277 283.992 c h
172.719 255.523 m 211.305 255.523 l 214.41 255.523 216.918 258.055 216.918
 261.16 c 216.918 299.746 l 216.918 302.852 214.406 305.379 211.305 305.379
 c 172.719 305.379 l 169.613 305.379 167.082 302.852 167.082 299.746 c 167.082
 261.16 l 167.082 258.055 169.613 255.523 172.719 255.523 c h
205.672 266.793 m 178.332 266.793 l 178.332 294.113 l 205.672 294.113 l
 h
307.824 21.43 m 285.504 21.43 l 283.801 21.43 282.27 22.133 281.145 23.258
 c 280.016 24.387 279.336 25.918 279.336 27.617 c 279.336 32.02 l 313.992
 32.02 l 313.992 27.617 l 313.992 25.918 313.289 24.387 312.184 23.258 c
 311.055 22.133 309.504 21.43 307.824 21.43 c h
203.16 21.43 m 180.84 21.43 l 179.16 21.43 177.605 22.133 176.504 23.258
 c 175.375 24.387 174.672 25.918 174.672 27.617 c 174.672 32.02 l 209.328
 32.02 l 209.328 27.617 l 209.328 25.918 208.645 24.387 207.52 23.258 c 
206.391 22.133 204.863 21.43 203.16 21.43 c h
98.5 21.43 m 76.195 21.43 l 74.496 21.43 72.965 22.133 71.84 23.258 c 70.711
 24.387 70.008 25.918 70.008 27.617 c 70.008 32.02 l 104.684 32.02 l 104.684
 27.617 l 104.684 25.918 103.98 24.387 102.855 23.258 c 101.75 22.133 100.199
 21.43 98.5 21.43 c h
323.641 139.422 m 323.812 142.379 324.176 144.887 324.684 147.055 c 344.328
 147.055 l 344.328 80.406 l 320.113 80.406 l 321.281 100.07 322.473 119.758
 323.641 139.422 c h
330.426 158.301 m 331.297 159.281 332.211 160.152 333.102 161.047 c 338.738
 166.508 344.242 171.887 345.328 187.09 c 367.5 187.09 l 347.07 158.301 
l h
248 187.09 m 249.082 171.887 254.59 166.508 260.203 161.047 c 261.117 160.152
 262.008 159.281 262.883 158.301 c 225.781 158.301 l 226.656 159.281 227.547
 160.152 228.461 161.047 c 234.074 166.508 239.602 171.887 240.664 187.09
 c h
268.641 147.055 m 269.152 144.887 269.516 142.379 269.684 139.422 c 270.855
 119.758 272.023 100.07 273.215 80.406 c 215.449 80.406 l 218.98 139.422
 l 219.172 142.379 219.512 144.887 220.023 147.055 c h
312.438 140.082 m 311.246 120.246 l 282.078 120.246 l 280.887 140.082 l
 279.848 157.559 273.895 163.363 268.027 169.082 c 264.137 172.887 260.289
 176.629 259.309 187.09 c 334.016 187.09 l 333.02 176.629 329.191 172.887
 325.281 169.082 c 319.434 163.363 313.48 157.559 312.438 140.082 c h
177.418 120.246 m 176.227 140.082 l 175.184 157.559 169.23 163.363 163.383
 169.082 c 159.473 172.887 155.645 176.629 154.645 187.09 c 229.355 187.09
 l 228.375 176.629 224.527 172.887 220.637 169.082 c 214.77 163.363 208.816
 157.559 207.773 140.082 c 206.586 120.246 l h
143.336 187.09 m 144.418 171.887 149.949 166.508 155.559 161.047 c 156.453
 160.152 157.367 159.281 158.238 158.301 c 121.117 158.301 l 121.988 159.281
 122.902 160.152 123.797 161.047 c 129.41 166.508 134.938 171.887 136.023
 187.09 c h
163.98 147.055 m 164.488 144.887 164.852 142.379 165.02 139.422 c 166.508
 114.656 l 166.508 114.633 l 166.508 114.59 166.508 114.527 166.508 114.484
 c 166.508 114.211 l 166.531 114.188 l 166.531 114.145 166.531 114.105 166.531
 114.082 c 166.531 114.062 l 166.551 113.934 l 166.551 113.914 l 168.551
 80.406 l 110.809 80.406 l 112.828 114.297 l 114.336 139.426 l 114.508 142.379
 114.867 144.887 115.359 147.059 c 163.98 147.059 l h
72.754 120.246 m 71.582 140.082 l 70.539 157.559 64.566 163.363 58.719 
169.082 c 54.832 172.887 50.984 176.629 49.984 187.09 c 124.715 187.09 l
 123.715 176.629 119.887 172.887 115.977 169.082 c 110.129 163.363 104.176
 157.559 103.113 140.082 c 101.941 120.246 l h
38.691 187.09 m 39.758 171.887 45.285 166.508 50.898 161.047 c 51.789 160.152
 52.703 159.281 53.574 158.301 c 36.93 158.301 l 16.5 187.09 l h
59.336 147.055 m 59.824 144.887 60.188 142.379 60.379 139.422 c 61.848 
114.656 l 61.848 114.633 l 61.848 114.59 61.848 114.527 61.848 114.484 c
 61.848 114.316 l 61.867 114.211 l 61.867 114.188 l 61.867 114.145 61.867
 114.105 61.867 114.082 c 61.867 114.062 l 61.887 113.934 l 61.887 113.914
 l 63.887 80.406 l 39.672 80.406 l 39.672 147.059 l 59.336 147.059 l h
73.434 109 m 101.262 109 l 99.965 87.102 98.648 65.184 97.352 43.285 c 
77.367 43.285 l 76.047 65.184 74.73 87.102 73.434 109 c h
306.656 43.285 m 286.672 43.285 l 285.352 65.184 284.055 87.102 282.738
 109 c 310.566 109 l 309.27 87.102 307.953 65.184 306.656 43.285 c h
201.992 43.285 m 182.008 43.285 l 180.711 65.184 179.395 87.102 178.098
 109 c 205.926 109 l 204.609 87.102 203.309 65.184 201.992 43.285 c h
221.508 236.773 m 213.855 226.188 203.395 219.637 192 219.637 c 180.605
 219.637 170.164 226.188 162.492 236.773 c 154.434 247.871 149.461 263.305
 149.461 280.441 c 149.461 297.598 154.434 313.035 162.492 324.133 c 170.164
 334.719 180.605 341.266 192 341.266 c 203.395 341.266 213.855 334.719 221.508
 324.133 c 229.566 313.035 234.543 297.598 234.543 280.441 c 234.543 263.305
 229.566 247.871 221.508 236.773 c h
221.508 236.773 m f
Q Q
showpage
%%Trailer
end
%%EOF
