%!PS-Adobe-3.0 EPSF-3.0
%%Creator: cairo 1.16.0 (https://cairographics.org)
%%CreationDate: Thu Dec 10 07:54:38 2020
%%Pages: 1
%%DocumentData: Clean7Bit
%%LanguageLevel: 2
%%BoundingBox: 14 0 370 384
%%EndComments
%%BeginProlog
50 dict begin
/q { gsave } bind def
/Q { grestore } bind def
/cm { 6 array astore concat } bind def
/w { setlinewidth } bind def
/J { setlinecap } bind def
/j { setlinejoin } bind def
/M { setmiterlimit } bind def
/d { setdash } bind def
/m { moveto } bind def
/l { lineto } bind def
/c { curveto } bind def
/h { closepath } bind def
/re { exch dup neg 3 1 roll 5 3 roll moveto 0 rlineto
      0 exch rlineto 0 rlineto closepath } bind def
/S { stroke } bind def
/f { fill } bind def
/f* { eofill } bind def
/n { newpath } bind def
/W { clip } bind def
/W* { eoclip } bind def
/BT { } bind def
/ET { } bind def
/BDC { mark 3 1 roll /BDC pdfmark } bind def
/EMC { mark /EMC pdfmark } bind def
/cairo_store_point { /cairo_point_y exch def /cairo_point_x exch def } def
/Tj { show currentpoint cairo_store_point } bind def
/TJ {
  {
    dup
    type /stringtype eq
    { show } { -0.001 mul 0 cairo_font_matrix dtransform rmoveto } ifelse
  } forall
  currentpoint cairo_store_point
} bind def
/cairo_selectfont { cairo_font_matrix aload pop pop pop 0 0 6 array astore
    cairo_font exch selectfont cairo_point_x cairo_point_y moveto } bind def
/Tf { pop /cairo_font exch def /cairo_font_matrix where
      { pop cairo_selectfont } if } bind def
/Td { matrix translate cairo_font_matrix matrix concatmatrix dup
      /cairo_font_matrix exch def dup 4 get exch 5 get cairo_store_point
      /cairo_font where { pop cairo_selectfont } if } bind def
/Tm { 2 copy 8 2 roll 6 array astore /cairo_font_matrix exch def
      cairo_store_point /cairo_font where { pop cairo_selectfont } if } bind def
/g { setgray } bind def
/rg { setrgbcolor } bind def
/d1 { setcachedevice } bind def
/cairo_data_source {
  CairoDataIndex CairoData length lt
    { CairoData CairoDataIndex get /CairoDataIndex CairoDataIndex 1 add def }
    { () } ifelse
} def
/cairo_flush_ascii85_file { cairo_ascii85_file status { cairo_ascii85_file flushfile } if } def
/cairo_image { image cairo_flush_ascii85_file } def
/cairo_imagemask { imagemask cairo_flush_ascii85_file } def
%%EndProlog
%%BeginSetup
%%EndSetup
%%Page: 1 1
%%BeginPageSetup
%%PageBoundingBox: 14 0 370 384
%%EndPageSetup
q 14 0 356 384 rectclip
1 0 0 -1 0 384 cm q
0.25098 0.439216 0.576471 rg
312.438 162.406 m 324.473 162.406 334.293 172.227 334.293 184.242 c 334.293
 268.707 l 334.293 280.699 324.449 290.539 312.438 290.539 c 267.047 290.539
 l 269.875 319.668 l 312.438 319.668 l 340.523 319.668 363.422 296.77 363.422
 268.707 c 363.422 184.238 l 363.422 156.156 340.523 133.281 312.438 133.281
 c 251.762 133.281 l 254.59 162.406 l h
312.438 162.406 m f*
0.717647 0.545098 0.478431 rg
250.508 83.062 m 190.703 83.062 130.879 83.062 71.051 83.062 c 45.285 348.027
 l 161.152 354.215 l 276.273 348.027 l h
250.508 83.062 m f*
0.666667 0.478431 0.388235 rg
142.59 83.062 18.199 264.965 re f*
205.648 83.062 m 187.449 83.062 l 200.332 348.027 l 218.531 348.027 l h
205.648 83.062 m f*
97.711 83.062 m 115.91 83.062 l 103.027 348.027 l 84.828 348.027 l h
97.711 83.062 m f*
250.508 83.062 m 232.309 83.062 l 258.078 348.027 l 276.273 348.027 l h
250.508 83.062 m f*
1 0.945098 0.886275 rg
106.812 5.633 m 114.188 5.676 121.758 8.25 127.199 13.309 c 131.152 16.965
 131.984 15.691 136.703 14.691 c 142.23 13.543 148.523 13.055 154.156 13.055
 c 168.977 13.098 187.219 16.668 198.805 26.492 c 203.055 30.105 202.695
 30.34 209.156 28.574 c 223.273 24.727 239.348 32.379 245.195 45.773 c 247.895
 51.941 247.129 51.555 253.168 51.941 c 263.5 52.598 273.129 59.168 278.02
 68.223 c 289.098 88.699 274.34 114.316 250.508 114.316 c 241.688 114.254
 232.523 110.445 226.973 103.453 c 224.211 99.965 223.828 100.902 221.426
 104.176 c 216.77 110.512 208.711 115.805 201.289 118.293 c 196.699 119.844
 192.129 120.547 187.281 120.566 c 175.164 120.523 163.258 115.465 155.027
 106.473 c 151.883 103.027 150.012 102.496 145.867 104.645 c 141.613 106.875
 136.406 107.895 131.984 107.895 c 127.562 107.918 124.945 107.598 121.227
 105.918 c 118.207 104.578 116.355 105.109 114.57 108.469 c 110.914 115.445
 103.812 122.203 97.117 126.266 c 89.164 131.09 80.344 133.473 71.051 133.516
 c 43.18 133.516 20.602 110.938 20.602 83.066 c 20.707 56.234 41.543 34.02
 68.371 32.68 c 74.855 32.359 75.578 32.742 77.047 27.469 c 78.918 20.707
 84.211 14.203 90.098 10.484 c 95.18 7.25 100.793 5.676 106.812 5.633 c 
h
106.812 5.633 m f*
0.988235 0.909804 0.776471 rg
207.945 28.914 m 208.328 28.809 208.73 28.703 209.156 28.574 c 223.273 
24.727 239.348 32.379 245.191 45.773 c 247.895 51.938 247.129 51.555 253.164
 51.938 c 263.496 52.598 273.129 59.168 278.02 68.223 c 289.098 88.695 274.34
 114.316 250.508 114.316 c 249.043 114.293 247.555 114.188 246.086 113.977
 c 261.223 106.238 268.535 86.211 259.82 69.5 c 254.93 60.102 245.301 53.297
 234.969 52.598 c 228.93 52.215 229.695 52.598 226.996 46.219 c 223.465 
37.844 216.215 31.637 207.945 28.914 c h
207.945 28.914 m f*
0.615686 0.776471 0.984314 rg
45.285 378.387 m 276.273 378.387 l 284.629 378.387 291.453 371.562 291.453
 363.207 c 291.453 354.852 284.629 348.027 276.273 348.027 c 45.285 348.027
 l 36.93 348.027 30.105 354.852 30.105 363.207 c 30.105 371.562 36.93 378.387
 45.285 378.387 c h
56.68 230.715 m 264.879 230.715 l 273.215 230.715 280.059 223.891 280.059
 215.559 c 280.059 207.199 273.215 200.375 264.879 200.375 c 56.68 200.375
 l 48.348 200.375 41.52 207.199 41.52 215.559 c 41.52 223.891 48.348 230.715
 56.68 230.715 c h
56.68 230.715 m f*
0.501961 0.705882 0.984314 rg
258.078 378.387 m 276.273 378.387 l 284.633 378.387 291.457 371.562 291.457
 363.207 c 291.457 354.852 284.629 348.027 276.273 348.027 c 258.078 348.027
 l 266.434 348.027 273.254 354.852 273.254 363.207 c 273.254 371.562 266.43
 378.387 258.078 378.387 c h
246.68 230.715 m 264.879 230.715 l 273.215 230.715 280.059 223.891 280.059
 215.559 c 280.059 207.199 273.215 200.375 264.879 200.375 c 246.68 200.375
 l 255.016 200.375 261.84 207.199 261.84 215.559 c 261.84 223.891 255.016
 230.715 246.68 230.715 c h
246.68 230.715 m f*
0.211765 0.368627 0.490196 rg
294.238 319.668 m 312.438 319.668 l 340.523 319.668 363.422 296.77 363.422
 268.707 c 363.422 184.238 l 363.422 156.156 340.523 133.281 312.438 133.281
 c 294.238 133.281 l 322.324 133.281 345.199 156.156 345.199 184.238 c 345.199
 268.707 l 345.199 296.77 322.324 319.668 294.238 319.668 c h
294.238 319.668 m f*
0 g
213.004 118.973 m 214.258 144.633 l 214.406 147.715 212.004 150.352 208.922
 150.5 c 205.82 150.648 203.203 148.246 203.055 145.164 c 202.016 123.969
 l 197.359 125.414 192.402 126.199 187.281 126.199 c 179.84 126.199 172.762
 124.543 166.402 121.586 c 166.402 194.742 l 205.457 194.742 l 204.289 170.613
 l 204.141 167.508 206.539 164.895 209.625 164.746 c 212.727 164.598 215.344
 166.977 215.492 170.082 c 216.703 194.742 l 255.738 194.742 l 253.312 169.805
 250.891 144.844 248.465 119.887 c 242.918 119.566 237.664 118.035 233.012
 115.508 c 229.906 113.828 227.059 111.723 224.57 109.258 c 221.254 113.039
 217.34 116.336 213.004 118.973 c h
312.438 156.773 m 320.008 156.773 326.875 159.875 331.848 164.852 c 336.824
 169.824 339.906 176.691 339.906 184.238 c 339.906 268.707 l 339.906 276.254
 336.824 283.121 331.848 288.098 c 326.875 293.07 320.008 296.152 312.438
 296.152 c 276.871 296.152 l 278.613 314.035 l 312.438 314.035 l 324.938
 314.035 336.27 308.953 344.477 300.723 c 352.707 292.52 357.785 281.188
 357.785 268.707 c 357.785 184.238 l 357.785 171.758 352.707 160.43 344.477
 152.203 c 336.273 143.996 324.938 138.914 312.438 138.914 c 261.582 138.914
 l 263.328 156.773 l h
323.898 172.801 m 320.965 169.848 316.902 168.02 312.438 168.02 c 264.41
 168.02 l 267.027 194.871 l 271.895 195.359 276.273 197.57 279.57 200.867
 c 283.332 204.629 285.672 209.816 285.672 215.559 c 285.672 221.277 283.332
 226.484 279.57 230.246 c 277.188 232.605 274.254 234.414 270.961 235.434
 c 275.785 284.906 l 312.438 284.906 l 316.902 284.906 320.941 283.078 323.898
 280.145 c 326.832 277.211 328.66 273.148 328.66 268.707 c 328.66 184.238
 l 328.66 179.797 326.832 175.734 323.898 172.801 c h
260.48 127.668 m 312.438 127.668 l 328.043 127.668 342.18 134.004 352.43
 144.25 c 362.676 154.496 369.031 168.656 369.031 184.238 c 369.031 268.707
 l 369.031 284.289 362.676 298.43 352.43 308.676 c 342.18 318.922 328.043
 325.281 312.438 325.281 c 279.699 325.281 l 281.441 343.055 l 285.098 343.988
 288.371 345.926 290.988 348.516 c 294.75 352.281 297.09 357.488 297.09 
363.207 c 297.09 368.926 294.75 374.137 290.988 377.898 c 287.203 381.664
 282.016 384 276.273 384 c 45.285 384 l 39.566 384 34.355 381.664 30.594
 377.898 c 26.828 374.137 24.492 368.926 24.492 363.207 c 24.492 357.488
 26.828 352.281 30.594 348.516 c 33.188 345.926 36.461 343.988 40.141 343.055
 c 50.598 235.434 l 47.305 234.414 44.371 232.605 41.988 230.246 c 38.227
 226.484 35.887 221.277 35.887 215.559 c 35.887 209.816 38.227 204.629 41.988
 200.867 c 45.285 197.57 49.664 195.359 54.555 194.871 c 60.062 138.062 
l 48.984 135.875 39.078 130.41 31.402 122.715 c 21.238 112.574 14.969 98.539
 14.969 83.062 c 14.969 67.586 21.238 53.555 31.402 43.414 c 42.012 32.805
 56.297 26.914 71.309 26.98 c 73.262 19.984 77.219 13.82 82.512 9.164 c 
89.016 3.465 97.52 0 106.812 0 c 112.211 0 117.336 1.172 121.969 3.273 c
 125.691 4.953 129.09 7.227 132.027 9.973 c 135.172 9.227 138.422 8.633 
141.699 8.227 c 146.227 7.652 150.777 7.398 155.281 7.441 c 158.387 7.484
 160.875 10.012 160.855 13.098 c 160.832 16.199 158.301 18.688 155.199 18.668
 c 151.18 18.602 147.121 18.836 143.102 19.348 c 139.402 19.812 135.703 
20.539 132.066 21.559 c 129.984 22.258 127.582 21.684 126.051 19.941 c 123.648
 17.223 120.691 15.008 117.355 13.5 c 114.168 12.055 110.594 11.246 106.809
 11.246 c 100.324 11.246 94.395 13.648 89.887 17.605 c 85.336 21.621 82.211
 27.215 81.383 33.527 c 81.023 36.504 78.344 38.691 75.324 38.418 c 73.879
 38.289 72.477 38.227 71.051 38.227 c 58.68 38.227 47.453 43.242 39.352 
51.363 c 31.23 59.484 26.211 70.691 26.211 83.062 c 26.211 95.438 31.23 
106.641 39.352 114.762 c 47.453 122.883 58.68 127.902 71.051 127.902 c 79.961
 127.902 88.27 125.309 95.223 120.82 c 101.176 117.016 106.152 111.852 109.723
 105.77 c 110.402 104.492 111.082 103.344 111.699 102.004 c 112.934 98.859
 116.652 97.5 119.629 99.137 c 121.523 100.176 123.52 100.984 125.582 101.496
 c 127.562 102.004 129.707 102.281 131.98 102.281 c 134.895 102.281 137.66
 101.812 140.23 100.941 c 142.848 100.051 145.27 98.754 147.418 97.117 c
 149.969 95.012 153.773 95.52 155.645 98.262 c 159.152 103.387 163.938 107.66
 169.422 110.551 c 174.738 113.359 180.816 114.953 187.281 114.953 c 193.977
 114.953 200.25 113.25 205.691 110.23 c 211.367 107.129 216.152 102.621 
219.617 97.156 c 221.785 93.754 226.805 93.648 229.078 97.094 c 231.395 
100.664 234.582 103.598 238.348 105.617 c 241.941 107.574 246.105 108.68
 250.508 108.68 c 257.586 108.68 264.008 105.809 268.641 101.176 c 273.277
 96.543 276.148 90.141 276.148 83.062 c 276.148 75.984 273.277 69.582 268.641
 64.949 c 264.008 60.312 257.586 57.445 250.508 57.445 c 249.594 57.445 
248.805 57.465 247.871 57.551 c 245.086 57.848 242.473 56 241.832 53.215
 c 240.535 47.453 237.285 42.414 232.816 38.84 c 228.438 35.355 222.867 
33.25 216.832 33.25 c 214.789 33.25 212.875 33.484 211.047 33.887 c 209.156
 34.336 207.328 34.992 205.605 35.82 c 203.332 36.93 200.523 36.398 198.844
 34.379 c 196.781 31.91 194.02 29.637 190.699 27.617 c 187.215 25.492 183.152
 23.684 178.668 22.258 c 175.715 21.324 174.098 18.176 175.031 15.223 c 
175.969 12.289 179.113 10.648 182.047 11.586 c 187.449 13.285 192.336 15.477
 196.547 18.051 c 199.566 19.879 202.246 21.898 204.562 24.109 c 205.859
 23.641 207.176 23.258 208.539 22.961 c 211.238 22.32 214 22.004 216.828
 22.004 c 225.504 22.004 233.496 25.023 239.789 30.062 c 245.02 34.227 249.082
 39.797 251.441 46.199 c 261.262 46.434 270.129 50.516 276.59 56.996 c 283.266
 63.652 287.391 72.879 287.391 83.062 c 287.391 93.246 283.266 102.473 276.59
 109.129 c 271.977 113.742 266.152 117.145 259.625 118.801 c h
259.797 236.348 m 218.723 236.348 l 223.867 342.414 l 270.109 342.414 l
 266.664 307.059 263.223 271.703 259.797 236.348 c h
155.156 114.359 m 153.223 112.699 151.395 110.891 149.734 108.957 c 147.863
 110 145.887 110.871 143.824 111.574 c 140.082 112.848 136.105 113.527 131.984
 113.527 c 128.879 113.527 125.816 113.125 122.82 112.359 c 121.906 112.125
 121.012 111.871 120.141 111.57 c 116.102 194.742 l 155.156 194.742 l h
108.258 124.988 m 106.09 126.922 103.75 128.688 101.305 130.281 c 92.609
 135.852 82.277 139.105 71.223 139.148 c 65.82 194.742 l 104.875 194.742
 l h
45.285 372.754 m 276.273 372.754 l 278.91 372.754 281.293 371.691 283.016
 369.945 c 284.758 368.223 285.84 365.82 285.84 363.207 c 285.84 360.59 
284.758 358.211 283.016 356.469 c 281.293 354.746 278.91 353.66 276.273 
353.66 c 199.293 353.66 122.289 353.66 45.285 353.66 c 42.668 353.66 40.266
 354.746 38.547 356.469 c 36.801 358.211 35.738 360.59 35.738 363.207 c 
35.738 365.82 36.801 368.223 38.547 369.945 c 40.266 371.691 42.668 372.754
 45.285 372.754 c h
212.645 342.414 m 207.477 236.348 l 166.402 236.348 l 166.402 342.414 l
 h
114.082 236.348 m 112.082 277.508 l 111.934 280.59 109.297 282.992 106.215
 282.844 c 103.113 282.695 100.73 280.078 100.879 276.977 c 102.855 236.348
 l 61.781 236.348 l 51.449 342.414 l 97.691 342.414 l 99.625 302.426 l 99.773
 299.344 102.41 296.938 105.492 297.09 c 108.598 297.238 110.977 299.875
 110.828 302.957 c 108.914 342.414 l 155.156 342.414 l 155.156 236.348 l
 h
56.68 225.102 m 264.879 225.102 l 267.496 225.102 269.875 224.016 271.617
 222.297 c 273.34 220.551 274.426 218.172 274.426 215.555 c 274.426 212.918
 273.34 210.539 271.617 208.816 c 269.875 207.074 267.496 206.012 264.879
 206.012 c 56.68 206.012 l 54.066 206.012 51.684 207.074 49.941 208.816 
c 48.219 210.539 47.133 212.918 47.133 215.555 c 47.133 218.172 48.219 220.551
 49.941 222.297 c 51.684 224.016 54.066 225.102 56.68 225.102 c h
56.68 225.102 m f
Q Q
showpage
%%Trailer
end
%%EOF
