%!PS-Adobe-3.0 EPSF-3.0
%%Creator: cairo 1.16.0 (https://cairographics.org)
%%CreationDate: Thu Dec 10 07:54:41 2020
%%Pages: 1
%%DocumentData: Clean7Bit
%%LanguageLevel: 2
%%BoundingBox: 0 48 384 336
%%EndComments
%%BeginProlog
50 dict begin
/q { gsave } bind def
/Q { grestore } bind def
/cm { 6 array astore concat } bind def
/w { setlinewidth } bind def
/J { setlinecap } bind def
/j { setlinejoin } bind def
/M { setmiterlimit } bind def
/d { setdash } bind def
/m { moveto } bind def
/l { lineto } bind def
/c { curveto } bind def
/h { closepath } bind def
/re { exch dup neg 3 1 roll 5 3 roll moveto 0 rlineto
      0 exch rlineto 0 rlineto closepath } bind def
/S { stroke } bind def
/f { fill } bind def
/f* { eofill } bind def
/n { newpath } bind def
/W { clip } bind def
/W* { eoclip } bind def
/BT { } bind def
/ET { } bind def
/BDC { mark 3 1 roll /BDC pdfmark } bind def
/EMC { mark /EMC pdfmark } bind def
/cairo_store_point { /cairo_point_y exch def /cairo_point_x exch def } def
/Tj { show currentpoint cairo_store_point } bind def
/TJ {
  {
    dup
    type /stringtype eq
    { show } { -0.001 mul 0 cairo_font_matrix dtransform rmoveto } ifelse
  } forall
  currentpoint cairo_store_point
} bind def
/cairo_selectfont { cairo_font_matrix aload pop pop pop 0 0 6 array astore
    cairo_font exch selectfont cairo_point_x cairo_point_y moveto } bind def
/Tf { pop /cairo_font exch def /cairo_font_matrix where
      { pop cairo_selectfont } if } bind def
/Td { matrix translate cairo_font_matrix matrix concatmatrix dup
      /cairo_font_matrix exch def dup 4 get exch 5 get cairo_store_point
      /cairo_font where { pop cairo_selectfont } if } bind def
/Tm { 2 copy 8 2 roll 6 array astore /cairo_font_matrix exch def
      cairo_store_point /cairo_font where { pop cairo_selectfont } if } bind def
/g { setgray } bind def
/rg { setrgbcolor } bind def
/d1 { setcachedevice } bind def
/cairo_data_source {
  CairoDataIndex CairoData length lt
    { CairoData CairoDataIndex get /CairoDataIndex CairoDataIndex 1 add def }
    { () } ifelse
} def
/cairo_flush_ascii85_file { cairo_ascii85_file status { cairo_ascii85_file flushfile } if } def
/cairo_image { image cairo_flush_ascii85_file } def
/cairo_imagemask { imagemask cairo_flush_ascii85_file } def
%%EndProlog
%%BeginSetup
%%EndSetup
%%Page: 1 1
%%BeginPageSetup
%%PageBoundingBox: 0 48 384 336
%%EndPageSetup
q 0 48 384 288 rectclip
1 0 0 -1 0 384 cm q
0.796078 0.886275 1 rg
11.461 72.602 m 372.562 72.602 l 375.75 72.602 378.387 75.219 378.387 78.43
 c 378.387 92.246 l 378.387 95.457 375.75 98.074 372.562 98.074 c 11.461
 98.074 l 8.25 98.074 5.633 95.457 5.633 92.246 c 5.633 78.43 l 5.633 75.219
 8.25 72.602 11.461 72.602 c h
11.461 72.602 m f*
0.745098 0.847059 0.984314 rg
354.363 72.602 m 372.562 72.602 l 375.75 72.602 378.387 75.219 378.387 
78.43 c 378.387 92.246 l 378.387 95.457 375.75 98.074 372.562 98.074 c 354.363
 98.074 l 357.555 98.074 360.188 95.457 360.188 92.246 c 360.188 78.43 l
 360.188 75.219 357.555 72.602 354.363 72.602 c h
354.363 72.602 m f*
0.717647 0.545098 0.478431 rg
325.961 132.664 m 325.961 286.266 l 326.023 290.988 325.727 291.668 320.645
 289.773 c 278.211 274 240.09 329.594 192 329.594 c 143.91 329.594 105.832
 274.062 63.375 289.773 c 59.805 291.094 58.02 289.859 58.039 286.266 c 
58.039 132.664 l 58.039 129.453 60.676 126.836 63.867 126.836 c 320.133 
126.836 l 323.344 126.836 325.961 129.453 325.961 132.664 c h
325.961 132.664 m f*
0.666667 0.478431 0.388235 rg
325.961 132.664 m 325.961 286.266 l 326.023 290.988 325.727 291.668 320.645
 289.773 c 316.328 288.16 312.035 287.309 307.762 287.055 c 307.762 286.797
 307.762 286.543 307.762 286.266 c 307.762 132.664 l 307.762 129.453 305.145
 126.836 301.938 126.836 c 320.133 126.836 l 323.344 126.836 325.961 129.453
 325.961 132.664 c h
325.961 132.664 m f*
0.992157 0.701961 0.262745 rg
216.961 193.871 m 216.961 271.727 l 216.961 279.293 210.75 285.5 203.184
 285.5 c 156.324 285.5 l 148.758 285.5 142.547 279.293 142.547 271.727 c
 142.547 193.871 l h
216.961 193.871 m f*
0.905882 0.647059 0.180392 rg
216.961 193.871 m 216.961 271.727 l 216.961 279.293 210.75 285.5 203.184
 285.5 c 184.984 285.5 l 192.555 285.5 198.758 279.293 198.758 271.727 c
 198.758 193.871 l h
216.961 193.871 m f*
1 0.945098 0.886275 rg
147.27 164.469 m 151.223 165.977 151.16 165.68 152.754 161.852 c 156.113
 153.816 164.383 149.223 172.867 149.098 c 180.285 149.16 187.832 152.879
 191.617 159.406 c 193.977 163.488 194.191 162.723 198.461 161.789 c 204.074
 160.535 210.434 162.555 214.727 166.273 c 218.895 169.891 221.531 175.246
 221.531 181.223 c 221.531 186.027 219.809 190.426 216.961 193.871 c 192.148
 193.871 167.359 193.871 142.547 193.871 c 134.172 193.871 127.391 187.09
 127.391 178.711 c 127.391 174.461 129.133 170.633 131.941 167.867 c 136
 163.895 141.934 162.406 147.27 164.469 c h
147.27 164.469 m f*
0.988235 0.909804 0.776471 rg
194.699 162.535 m 195.527 162.555 196.613 162.191 198.465 161.789 c 204.074
 160.535 210.434 162.555 214.727 166.273 c 218.895 169.891 221.531 175.246
 221.531 181.223 c 221.531 186.027 219.809 190.426 216.961 193.871 c 198.762
 193.871 l 201.609 190.148 203.332 185.387 203.332 180.18 c 203.332 173.738
 200.695 167.953 196.527 164.02 c 195.953 163.492 195.336 163 194.699 162.535
 c h
194.699 162.535 m f*
0.25098 0.439216 0.576471 rg
90.801 54.402 m 96.816 54.402 101.73 59.316 101.73 65.312 c 101.73 134.109
 l 101.73 140.125 96.816 145.035 90.801 145.035 c 84.805 145.035 79.895 
140.125 79.895 134.109 c 79.895 65.312 l 79.895 59.316 84.809 54.402 90.801
 54.402 c h
90.801 54.402 m f*
293.199 54.402 m 299.215 54.402 304.125 59.316 304.125 65.312 c 304.125
 134.109 l 304.125 140.125 299.215 145.035 293.199 145.035 c 287.203 145.035
 282.293 140.125 282.293 134.109 c 282.293 65.312 l 282.293 59.316 287.203
 54.402 293.199 54.402 c h
293.199 54.402 m f*
0 g
74.262 103.707 m 5.633 103.707 l 2.531 103.707 0 101.176 0 98.074 c 0 72.602
 l 0 69.5 2.531 66.969 5.633 66.969 c 74.262 66.969 l 74.262 65.312 l 74.262
 60.762 76.109 56.617 79.109 53.637 c 82.105 50.641 86.254 48.77 90.801 
48.77 c 95.371 48.77 99.496 50.641 102.496 53.637 c 105.492 56.617 107.344
 60.762 107.344 65.312 c 107.344 66.969 l 276.656 66.969 l 276.656 65.312
 l 276.656 60.762 278.508 56.617 281.504 53.637 c 284.504 50.641 288.648
 48.77 293.199 48.77 c 297.746 48.77 301.895 50.641 304.891 53.637 c 307.891
 56.617 309.738 60.762 309.738 65.312 c 309.738 66.969 l 378.387 66.969 
l 381.492 66.969 384 69.5 384 72.602 c 384 98.07 l 384 101.176 381.492 103.707
 378.387 103.707 c 309.738 103.707 l 309.738 121.203 l 325.961 121.203 l
 329.066 121.203 331.594 123.734 331.594 126.836 c 331.594 152.328 l 331.594
 155.434 329.066 157.941 325.961 157.941 c 322.855 157.941 320.348 155.434
 320.348 152.328 c 320.348 132.473 l 309.738 132.473 l 309.738 134.109 l
 309.738 138.68 307.891 142.805 304.891 145.801 c 301.895 148.801 297.75
 150.672 293.199 150.672 c 288.648 150.672 284.504 148.801 281.504 145.801
 c 278.508 142.805 276.656 138.68 276.656 134.109 c 276.656 132.473 l 107.344
 132.473 l 107.344 134.109 l 107.344 138.68 105.492 142.805 102.496 145.801
 c 99.496 148.801 95.371 150.672 90.801 150.672 c 86.254 150.672 82.105 
148.801 79.109 145.801 c 76.109 142.805 74.262 138.68 74.262 134.109 c 74.262
 132.473 l 63.676 132.473 l 63.676 246.598 l 63.676 249.699 61.145 252.23
 58.039 252.23 c 54.938 252.23 52.426 249.699 52.426 246.598 c 52.426 126.836
 l 52.426 123.734 54.938 121.203 58.039 121.203 c 74.262 121.203 l h
276.191 211.664 m 273.574 213.324 270.109 212.559 268.453 209.922 c 266.773
 207.309 267.559 203.84 270.176 202.184 c 294.559 186.684 l 297.195 185.004
 300.66 185.793 302.32 188.406 c 303.977 191.043 303.211 194.508 300.598
 196.168 c h
297.578 223.145 m 300.684 223.145 303.211 225.656 303.211 228.758 c 303.211
 231.863 300.684 234.391 297.578 234.391 c 273.191 234.391 l 270.086 234.391
 267.559 231.863 267.559 228.758 c 267.559 225.652 270.086 223.145 273.191
 223.145 c h
270.172 255.355 m 267.559 253.695 266.77 250.211 268.449 247.594 c 270.109
 244.98 273.574 244.191 276.188 245.852 c 300.598 261.352 l 303.211 263.031
 303.977 266.496 302.316 269.109 c 300.66 271.727 297.195 272.512 294.559
 270.855 c h
113.828 202.184 m 116.441 203.84 117.23 207.309 115.57 209.922 c 113.914
 212.559 110.426 213.324 107.809 211.664 c 83.426 196.168 l 80.809 194.508
 80.023 191.043 81.684 188.406 c 83.34 185.793 86.828 185.004 89.441 186.684
 c h
86.422 234.391 m 83.316 234.391 80.809 231.863 80.809 228.758 c 80.809 
225.652 83.32 223.145 86.422 223.145 c 110.828 223.145 l 113.934 223.145
 116.441 225.656 116.441 228.758 c 116.441 231.863 113.934 234.391 110.828
 234.391 c h
107.809 245.852 m 110.426 244.191 113.914 244.98 115.57 247.594 c 117.23
 250.211 116.441 253.695 113.828 255.355 c 89.441 270.852 l 86.824 272.512
 83.34 271.727 81.68 269.109 c 80.023 266.496 80.809 263.027 83.426 261.348
 c h
74.262 78.215 m 11.246 78.215 l 11.246 92.461 l 74.262 92.461 l h
309.738 78.215 m 309.738 92.461 l 372.754 92.461 l 372.754 78.215 l h
276.656 121.203 m 276.656 103.707 l 204.734 103.707 l 201.629 103.707 199.121
 101.176 199.121 98.07 c 199.121 94.969 201.629 92.461 204.734 92.461 c 
276.656 92.461 l 276.656 78.215 l 107.344 78.215 l 107.344 92.461 l 179.266
 92.461 l 182.371 92.461 184.898 94.969 184.898 98.07 c 184.898 101.176 
182.371 103.707 179.266 103.707 c 107.344 103.707 l 107.344 121.203 l h
296.941 61.59 m 295.984 60.613 294.645 60.016 293.199 60.016 c 291.754 
60.016 290.434 60.613 289.457 61.59 c 288.5 62.547 287.906 63.863 287.906
 65.312 c 287.906 134.109 l 287.906 135.574 288.5 136.895 289.457 137.852
 c 290.434 138.805 291.754 139.402 293.199 139.402 c 294.645 139.402 295.984
 138.809 296.941 137.852 c 297.895 136.895 298.492 135.574 298.492 134.109
 c 298.492 111.191 298.492 88.25 298.492 65.312 c 298.492 63.867 297.895
 62.547 296.941 61.59 c h
94.543 61.59 m 93.586 60.613 92.246 60.016 90.801 60.016 c 89.355 60.016
 88.039 60.613 87.082 61.59 c 86.105 62.547 85.508 63.863 85.508 65.312 
c 85.508 134.109 l 85.508 135.574 86.105 136.895 87.082 137.852 c 88.039
 138.805 89.355 139.402 90.801 139.402 c 92.246 139.402 93.586 138.809 94.543
 137.852 c 95.5 136.895 96.094 135.574 96.094 134.109 c 96.094 111.191 96.094
 88.25 96.094 65.312 c 96.094 63.867 95.5 62.547 94.543 61.59 c h
222.594 206.328 m 239.008 206.328 l 243.406 206.328 247.383 208.117 250.273
 211.008 c 253.164 213.898 254.973 217.895 254.973 222.297 c 254.973 250.188
 l 254.973 254.59 253.164 258.586 250.273 261.477 c 247.383 264.348 243.406
 266.156 239.008 266.156 c 222.594 266.156 l 222.594 271.727 l 222.594 277.062
 220.402 281.91 216.895 285.438 c 213.367 288.945 208.52 291.137 203.184
 291.137 c 156.324 291.137 l 150.988 291.137 146.141 288.945 142.613 285.438
 c 139.105 281.91 136.914 277.062 136.914 271.727 c 136.914 198.719 l 133.449
 197.738 130.344 195.891 127.859 193.402 c 124.094 189.641 121.758 184.453
 121.758 178.711 c 121.758 172.973 124.094 167.762 127.859 164.02 c 131.621
 160.258 136.809 157.922 142.547 157.922 c 144.398 157.922 146.227 158.176
 147.969 158.664 c 149.82 155.07 152.434 151.926 155.582 149.457 c 160.344
 145.695 166.34 143.465 172.867 143.465 c 178.672 143.465 184.07 145.227
 188.535 148.27 c 191.68 150.395 194.383 153.16 196.445 156.367 c 198.188
 156.008 199.953 155.816 201.758 155.816 c 208.773 155.816 215.109 158.645
 219.723 163.258 c 224.316 167.848 227.164 174.203 227.164 181.223 c 227.164
 184.219 226.633 187.133 225.633 189.852 c 224.891 191.938 223.848 193.914
 222.594 195.719 c h
222.594 254.91 m 239.008 254.91 l 240.281 254.91 241.473 254.375 242.324
 253.504 c 243.176 252.656 243.703 251.484 243.703 250.188 c 243.703 222.297
 l 243.703 221 243.176 219.828 242.324 218.957 c 241.473 218.105 240.281
 217.574 239.008 217.574 c 222.594 217.574 l h
211.348 199.484 m 148.184 199.484 l 148.184 271.727 l 148.184 273.957 149.098
 276 150.566 277.488 c 152.055 278.953 154.094 279.867 156.328 279.867 c
 203.184 279.867 l 205.414 279.867 207.457 278.953 208.945 277.488 c 210.41
 276 211.348 273.957 211.348 271.727 c 211.348 247.637 211.348 223.57 211.348
 199.484 c h
142.547 169.168 m 139.914 169.168 137.531 170.25 135.809 171.973 c 134.086
 173.695 133.023 176.074 133.023 178.711 c 133.023 181.348 134.086 183.73
 135.809 185.449 c 137.531 187.172 139.914 188.238 142.547 188.238 c 214.066
 188.238 l 215.301 186.066 215.918 183.707 215.918 181.219 c 215.918 177.309
 214.32 173.758 211.773 171.207 c 209.199 168.633 205.668 167.062 201.758
 167.062 c 199.441 167.062 197.867 167.508 195.742 168.359 c 192.871 169.527
 189.598 168.125 188.449 165.254 c 187.195 162.129 185.027 159.449 182.262
 157.578 c 179.582 155.773 176.352 154.711 172.867 154.711 c 168.953 154.711
 165.359 156.047 162.512 158.281 c 159.664 160.535 157.535 163.68 156.621
 167.273 c 156.473 167.996 156.176 168.699 155.75 169.359 c 153.984 171.91
 150.5 172.566 147.949 170.824 c 146.312 169.719 144.527 169.168 142.547
 169.168 c h
162.086 218.852 m 162.086 215.727 164.598 213.219 167.699 213.219 c 170.805
 213.219 173.332 215.727 173.332 218.852 c 173.332 260.523 l 173.332 263.625
 170.805 266.156 167.699 266.156 c 164.594 266.156 162.086 263.625 162.086
 260.523 c h
186.176 218.852 m 186.176 215.727 188.703 213.219 191.809 213.219 c 194.914
 213.219 197.422 215.727 197.422 218.852 c 197.422 260.523 l 197.422 263.625
 194.914 266.156 191.809 266.156 c 188.703 266.156 186.176 263.625 186.176
 260.523 c h
320.348 177.797 m 320.348 174.695 322.855 172.164 325.961 172.164 c 329.062
 172.164 331.594 174.695 331.594 177.797 c 331.594 292.094 l 331.594 296.492
 326.809 299.129 323.109 296.961 c 300.746 285.801 278.676 298.578 255.484
 311.992 c 235.773 323.387 215.32 335.23 192 335.23 c 168.676 335.23 148.246
 323.387 128.539 311.992 c 105.238 298.512 83.062 285.691 60.57 297.109 
c 56.852 298.98 52.43 296.281 52.43 292.094 c 52.43 272.086 l 52.43 268.98
 54.938 266.453 58.039 266.453 c 61.145 266.453 63.676 268.984 63.676 272.086
 c 63.676 283.715 l 88.293 275.742 110.723 288.711 134.152 302.277 c 152.562
 312.93 171.656 323.961 192 323.961 c 212.348 323.961 231.438 312.93 249.852
 302.277 c 273.301 288.711 295.707 275.746 320.348 283.715 c h
320.348 177.797 m f
Q Q
showpage
%%Trailer
end
%%EOF
