%!PS-Adobe-3.0 EPSF-3.0
%%Creator: cairo 1.16.0 (https://cairographics.org)
%%CreationDate: Thu Dec 10 07:54:41 2020
%%Pages: 1
%%DocumentData: Clean7Bit
%%LanguageLevel: 2
%%BoundingBox: 45 0 339 384
%%EndComments
%%BeginProlog
50 dict begin
/q { gsave } bind def
/Q { grestore } bind def
/cm { 6 array astore concat } bind def
/w { setlinewidth } bind def
/J { setlinecap } bind def
/j { setlinejoin } bind def
/M { setmiterlimit } bind def
/d { setdash } bind def
/m { moveto } bind def
/l { lineto } bind def
/c { curveto } bind def
/h { closepath } bind def
/re { exch dup neg 3 1 roll 5 3 roll moveto 0 rlineto
      0 exch rlineto 0 rlineto closepath } bind def
/S { stroke } bind def
/f { fill } bind def
/f* { eofill } bind def
/n { newpath } bind def
/W { clip } bind def
/W* { eoclip } bind def
/BT { } bind def
/ET { } bind def
/BDC { mark 3 1 roll /BDC pdfmark } bind def
/EMC { mark /EMC pdfmark } bind def
/cairo_store_point { /cairo_point_y exch def /cairo_point_x exch def } def
/Tj { show currentpoint cairo_store_point } bind def
/TJ {
  {
    dup
    type /stringtype eq
    { show } { -0.001 mul 0 cairo_font_matrix dtransform rmoveto } ifelse
  } forall
  currentpoint cairo_store_point
} bind def
/cairo_selectfont { cairo_font_matrix aload pop pop pop 0 0 6 array astore
    cairo_font exch selectfont cairo_point_x cairo_point_y moveto } bind def
/Tf { pop /cairo_font exch def /cairo_font_matrix where
      { pop cairo_selectfont } if } bind def
/Td { matrix translate cairo_font_matrix matrix concatmatrix dup
      /cairo_font_matrix exch def dup 4 get exch 5 get cairo_store_point
      /cairo_font where { pop cairo_selectfont } if } bind def
/Tm { 2 copy 8 2 roll 6 array astore /cairo_font_matrix exch def
      cairo_store_point /cairo_font where { pop cairo_selectfont } if } bind def
/g { setgray } bind def
/rg { setrgbcolor } bind def
/d1 { setcachedevice } bind def
/cairo_data_source {
  CairoDataIndex CairoData length lt
    { CairoData CairoDataIndex get /CairoDataIndex CairoDataIndex 1 add def }
    { () } ifelse
} def
/cairo_flush_ascii85_file { cairo_ascii85_file status { cairo_ascii85_file flushfile } if } def
/cairo_image { image cairo_flush_ascii85_file } def
/cairo_imagemask { imagemask cairo_flush_ascii85_file } def
%%EndProlog
%%BeginSetup
%%EndSetup
%%Page: 1 1
%%BeginPageSetup
%%PageBoundingBox: 45 0 339 384
%%EndPageSetup
q 45 0 294 384 rectclip
1 0 0 -1 0 384 cm q
0.945098 0.435294 0.509804 rg
146.621 54.402 m 146.621 27.469 124.789 5.633 97.828 5.633 c 70.895 5.633
 49.059 27.469 49.059 54.402 c 49.059 81.363 70.895 103.195 97.828 103.195
 c h
146.621 54.402 m f*
0.866667 0.388235 0.431373 rg
128.422 54.402 m 146.621 54.402 l 146.621 27.469 124.789 5.633 97.828 5.633
 c 94.727 5.633 91.684 5.93 88.73 6.484 c 111.328 10.734 128.422 30.57 128.422
 54.402 c h
128.422 54.402 m f*
0.866667 0.917647 0.984314 rg
103.656 136.191 m 217.504 136.191 l 220.715 136.191 223.328 133.555 223.328
 130.367 c 223.328 60.23 l 223.328 57.039 220.715 54.402 217.504 54.402 
c 103.656 54.402 l 100.445 54.402 97.828 57.039 97.828 60.23 c 97.828 130.367
 l 97.828 133.555 100.445 136.191 103.656 136.191 c h
103.656 136.191 m f*
0.796078 0.886275 1 rg
199.305 136.191 m 217.504 136.191 l 220.715 136.191 223.328 133.555 223.328
 130.367 c 223.328 60.23 l 223.328 57.039 220.715 54.402 217.504 54.402 
c 199.305 54.402 l 202.516 54.402 205.129 57.039 205.129 60.23 c 205.129
 130.367 l 205.129 133.555 202.516 136.191 199.305 136.191 c h
199.305 136.191 m f*
0.866667 0.917647 0.984314 rg
246.141 191.277 m 301.992 191.277 l 305.625 191.258 307.793 192.934 307.816
 197.145 c 307.816 262.625 l 307.816 287.012 287.77 307.039 263.402 307.039
 c 246.141 307.039 l 246.141 332.531 l 263.402 332.531 l 301.84 332.531 
333.285 301.066 333.285 262.625 c 333.285 191.277 l 333.285 177.266 321.828
 165.809 307.816 165.809 c 246.141 165.809 l h
246.141 191.277 m f*
0.796078 0.886275 1 rg
246.141 332.508 m 246.141 332.527 l 263.402 332.527 l 301.84 332.527 333.285
 301.062 333.285 262.625 c 333.285 191.277 l 333.285 177.266 321.828 165.809
 307.816 165.809 c 289.598 165.809 l 303.629 165.809 315.086 177.266 315.086
 191.277 c 315.086 262.625 l 315.086 300.746 284.152 331.996 246.141 332.508
 c h
246.141 332.508 m f*
0.996078 0.85098 0.643137 rg
97.828 119.93 m 223.328 119.93 l 237.871 119.93 249.777 131.832 249.777
 146.398 c 249.777 351.918 l 249.777 366.48 237.871 378.387 223.328 378.387
 c 97.828 378.387 l 83.289 378.387 71.383 366.48 71.383 351.918 c 71.383
 146.398 l 71.383 131.836 83.289 119.93 97.828 119.93 c h
97.828 119.93 m f*
0.945098 0.796078 0.52549 rg
205.129 119.93 m 223.328 119.93 l 237.871 119.93 249.777 131.832 249.777
 146.398 c 249.777 351.918 l 249.777 366.48 237.871 378.387 223.328 378.387
 c 205.129 378.387 l 219.672 378.387 231.578 366.48 231.578 351.918 c 231.578
 146.398 l 231.578 131.836 219.672 119.93 205.129 119.93 c h
205.129 119.93 m f*
1 0.945098 0.886275 rg
96.957 267.07 m 124.152 254.824 l 127.953 253.125 132.461 254.824 134.184
 258.629 c 146.43 285.82 l 148.133 289.625 146.43 294.156 142.625 295.855
 c 115.434 308.102 l 111.629 309.824 107.121 308.102 105.398 304.297 c 93.152
 277.105 l 91.43 273.297 93.152 268.793 96.957 267.07 c h
96.957 267.07 m f*
221.523 180.797 m 199.324 170.805 l 196.223 169.398 192.523 170.805 191.121
 173.906 c 181.125 196.102 l 179.727 199.227 181.125 202.906 184.23 204.309
 c 206.426 214.301 l 209.551 215.707 213.23 214.301 214.633 211.199 c 224.625
 189.004 l 226.027 185.898 224.625 182.199 221.523 180.797 c h
221.523 180.797 m f*
0.905882 0.647059 0.180392 rg
208.66 256.566 m 230.578 274.766 235.574 306.996 219.375 331.168 c 203.152
 355.363 171.434 362.91 146.238 349.578 c 141.984 347.305 141.648 345.879
 144.496 341.734 c 200.73 257.906 l 203.387 254.27 204.766 253.355 208.66
 256.566 c h
208.66 256.566 m f*
0.92549 0.745098 0.419608 rg
191.543 271.578 m 207.148 282.035 211.316 303.168 200.855 318.754 c 190.395
 334.359 169.266 338.523 153.68 328.066 c h
191.543 271.578 m f*
0.701961 0.898039 0.623529 rg
107.715 225.57 m 122.301 233.988 141.094 229.016 152.766 208.797 c 163.863
 189.598 164.223 167.082 155.742 147.949 c 154.125 144.27 154.68 144.738
 150.598 145.207 c 129.91 147.504 110.734 159.047 99.723 178.16 c 88.027
 198.398 93.133 217.152 107.715 225.57 c h
107.715 225.57 m f*
0.992157 0.701961 0.262745 rg
167.5 257.332 m 174.516 257.332 180.234 251.594 180.234 244.578 c 180.234
 237.559 174.516 231.84 167.5 231.84 c 160.484 231.84 154.766 237.562 154.766
 244.578 c 154.766 251.594 160.484 257.332 167.5 257.332 c h
167.5 257.332 m f*
105.418 355.531 m 112.434 355.531 118.152 349.812 118.152 342.797 c 118.152
 335.781 112.434 330.062 105.418 330.062 c 98.402 330.062 92.684 335.781
 92.684 342.797 c 92.684 349.812 98.402 355.531 105.418 355.531 c h
105.418 355.531 m f*
0 g
192.609 319.984 m 180.742 312.035 l 183.508 326.047 l 186.848 324.664 189.949
 322.621 192.609 319.984 c h
105.418 324.43 m 110.48 324.43 115.07 326.492 118.41 329.809 c 121.727 
333.145 123.789 337.715 123.789 342.797 c 123.789 347.879 121.727 352.473
 118.41 355.789 c 115.07 359.105 110.48 361.168 105.418 361.168 c 100.34
 361.168 95.746 359.105 92.43 355.789 c 89.113 352.473 87.051 347.879 87.051
 342.797 c 87.051 337.738 89.113 333.145 92.43 329.809 c 95.746 326.492 
100.34 324.43 105.418 324.43 c h
110.457 337.758 m 109.16 336.484 107.375 335.676 105.418 335.676 c 103.441
 335.676 101.676 336.484 100.379 337.758 c 99.105 339.055 98.297 340.844
 98.297 342.797 c 98.297 344.754 99.105 346.539 100.379 347.836 c 101.676
 349.113 103.441 349.922 105.418 349.922 c 107.375 349.922 109.16 349.113
 110.457 347.836 c 111.734 346.539 112.543 344.754 112.543 342.797 c 112.543
 340.844 111.734 339.055 110.457 337.758 c h
167.5 226.207 m 172.582 226.207 177.172 228.27 180.488 231.586 c 183.805
 234.926 185.867 239.516 185.867 244.578 c 185.867 249.656 183.805 254.25
 180.488 257.566 c 177.172 260.883 172.582 262.945 167.5 262.945 c 162.438
 262.945 157.848 260.883 154.508 257.566 c 151.191 254.25 149.129 249.656
 149.129 244.578 c 149.129 239.516 151.191 234.926 154.508 231.586 c 157.848
 228.27 162.438 226.207 167.5 226.207 c h
172.539 239.559 m 171.242 238.262 169.477 237.477 167.5 237.477 c 165.543
 237.477 163.758 238.262 162.461 239.559 c 161.184 240.836 160.375 242.621
 160.375 244.578 c 160.375 246.555 161.184 248.316 162.461 249.613 c 163.758
 250.891 165.543 251.699 167.5 251.699 c 169.477 251.699 171.242 250.891
 172.539 249.613 c 173.812 248.316 174.621 246.555 174.621 244.578 c 174.621
 242.621 173.812 240.836 172.539 239.559 c h
92.215 26.469 m 92.215 23.363 94.727 20.836 97.828 20.836 c 100.934 20.836
 103.465 23.363 103.465 26.469 c 103.465 40.84 l 113.625 30.68 l 115.816
 28.488 119.367 28.488 121.578 30.68 c 123.766 32.867 123.766 36.441 121.578
 38.629 c 111.414 48.793 l 140.625 48.793 l 139.371 39.121 134.906 30.445
 128.359 23.898 c 120.535 16.074 109.758 11.246 97.828 11.246 c 87.945 11.246
 78.844 14.562 71.574 20.133 c 64.152 25.832 58.625 33.91 56.141 43.223 
c 55.332 46.219 52.246 48.008 49.25 47.199 c 46.254 46.41 44.465 43.328 
45.273 40.332 c 48.422 28.598 55.395 18.414 64.77 11.227 c 73.934 4.188 
85.414 0 97.828 0 c 112.859 0 126.469 6.102 136.309 15.945 c 144.898 24.535
 150.641 36.016 151.957 48.793 c 223.328 48.793 l 226.434 48.793 228.965
 51.301 228.965 54.402 c 228.965 114.805 l 235.531 115.973 241.441 119.184
 245.992 123.734 c 251.797 129.535 255.41 137.574 255.41 146.395 c 255.41
 160.172 l 307.816 160.172 l 316.363 160.172 324.145 163.68 329.777 169.312
 c 335.41 174.949 338.918 182.73 338.918 191.277 c 338.918 262.625 l 338.918
 283.395 330.414 302.273 316.746 315.965 c 303.055 329.656 284.176 338.141
 263.402 338.141 c 255.41 338.141 l 255.41 351.918 l 255.41 360.742 251.797
 368.777 245.992 374.582 c 240.188 380.406 232.152 384 223.328 384 c 97.828
 384 l 89.008 384 80.992 380.406 75.168 374.582 c 69.363 368.777 65.746 
360.742 65.746 351.918 c 65.746 261.902 l 65.746 258.801 68.277 256.27 71.383
 256.27 c 74.484 256.27 76.996 258.801 76.996 261.902 c 76.996 351.918 l
 76.996 357.637 79.355 362.848 83.117 366.633 c 86.902 370.414 92.109 372.754
 97.828 372.754 c 223.328 372.754 l 229.047 372.754 234.254 370.414 238.039
 366.633 c 241.824 362.848 244.164 357.637 244.164 351.918 c 244.164 146.398
 l 244.164 140.68 241.824 135.469 238.039 131.684 c 234.254 127.902 229.047
 125.562 223.328 125.562 c 97.828 125.562 l 92.109 125.562 86.902 127.902
 83.117 131.684 c 79.355 135.469 76.996 140.68 76.996 146.398 c 76.996 236.414
 l 76.996 239.516 74.484 242.047 71.383 242.047 c 68.277 242.047 65.746 
239.516 65.746 236.414 c 65.746 146.398 l 65.746 137.574 69.363 129.539 
75.168 123.734 c 79.715 119.184 85.625 115.973 92.215 114.805 c 92.215 108.535
 l 81.949 107.469 72.531 103.559 64.77 97.605 c 55.395 90.418 48.422 80.238
 45.273 68.5 c 44.465 65.504 46.254 62.422 49.25 61.613 c 52.246 60.824 
55.332 62.59 56.141 65.586 c 58.625 74.922 64.156 82.977 71.574 88.676 c
 77.441 93.184 84.5 96.203 92.215 97.203 c 92.215 67.988 l 82.055 78.152
 l 79.863 80.34 76.293 80.34 74.102 78.152 c 71.895 75.961 71.895 72.391
 74.102 70.199 c 84.242 60.039 l 69.895 60.039 l 66.789 60.039 64.258 57.508
 64.258 54.402 c 64.258 51.301 66.789 48.793 69.895 48.793 c 84.246 48.793
 l 74.105 38.629 l 71.895 36.438 71.895 32.867 74.105 30.676 c 76.293 28.488
 79.867 28.488 82.055 30.676 c 92.219 40.84 l 92.219 26.469 l h
202.238 92.461 m 205.34 92.461 207.871 94.988 207.871 98.094 c 207.871 
101.199 205.34 103.727 202.238 103.727 c 118.918 103.727 l 115.816 103.727
 113.285 101.199 113.285 98.094 c 113.285 94.988 115.816 92.461 118.918 
92.461 c h
202.238 70.625 m 205.34 70.625 207.871 73.156 207.871 76.262 c 207.871 
79.363 205.34 81.871 202.238 81.871 c 118.918 81.871 l 115.816 81.871 113.285
 79.363 113.285 76.262 c 113.285 73.156 115.816 70.625 118.918 70.625 c 
h
302.184 251.23 m 302.184 248.125 304.711 245.598 307.816 245.598 c 310.922
 245.598 313.43 248.125 313.43 251.23 c 313.43 262.625 l 313.43 276.359 
307.793 288.883 298.715 297.961 c 289.641 307.016 277.137 312.672 263.402
 312.672 c 255.41 312.672 l 255.41 326.895 l 263.402 326.895 l 281.07 326.895
 297.121 319.668 308.773 308.016 c 320.422 296.367 327.672 280.293 327.672
 262.625 c 327.672 191.277 l 327.672 185.836 325.418 180.859 321.824 177.266
 c 318.234 173.652 313.258 171.422 307.816 171.422 c 255.41 171.422 l 255.41
 185.664 l 307.75 185.664 l 310.879 185.664 313.426 188.215 313.426 191.32
 c 313.426 225.738 l 313.426 228.844 310.918 231.375 307.816 231.375 c 304.711
 231.375 302.184 228.844 302.184 225.738 c 302.184 196.91 l 255.41 196.91
 l 255.41 301.406 l 263.402 301.406 l 274.035 301.406 283.727 297.047 290.766
 289.988 c 297.801 282.949 302.184 273.258 302.184 262.625 c h
217.695 114.316 m 217.695 60.039 l 103.465 60.039 l 103.465 114.316 l h
119.664 149.926 m 130.039 143.613 141.859 139.977 153.977 139.273 c 156.211
 139.168 158.359 140.422 159.336 142.422 c 164.781 153.285 167.523 165.316
 167.223 177.395 c 166.883 191.871 161.973 206.965 153.023 218.445 c 147.832
 225.102 141.199 230.48 133.121 233.242 c 123.598 236.477 113.605 235.453
 104.91 230.414 c 95.895 225.227 89.922 216.703 88.18 206.371 c 86.605 197.059
 88.52 186.344 94.852 175.371 c 100.891 164.914 109.309 156.242 119.664 
149.926 c h
112.797 169.824 m 119.344 194.23 l 126.785 181.328 l 121.617 162.086 l 
118.473 164.363 115.52 166.957 112.797 169.824 c h
129.039 199.824 m 153.426 193.297 l 154.57 189.492 155.34 185.645 155.742
 181.773 c 136.48 186.941 l h
147.621 206.48 m 121.09 213.578 l 115.688 222.934 l 120.176 224.25 124.938
 224.168 129.527 222.613 c 136.141 220.359 142.539 215.047 147.621 206.48
 c h
111.395 207.988 m 104.293 181.453 l 99.57 189.832 98.105 197.781 99.254
 204.523 c 100.105 209.562 102.441 213.961 105.992 217.344 c h
131.695 156.219 m 134.738 167.57 l 143.668 152.074 l 139.543 153.051 135.523
 154.434 131.695 156.219 c h
144.43 173.164 m 155.785 170.125 l 155.402 165.914 154.594 161.727 153.383
 157.664 c h
219.223 185.918 m 197.328 176.055 l 196.52 175.758 196.5 175.758 196.094
 176.523 c 186.25 198.422 l 186.121 198.699 186.25 199.059 186.547 199.188
 c 208.426 209.051 l 209.23 209.348 209.254 209.348 209.656 208.582 c 219.5
 186.684 l 219.648 186.41 219.5 186.047 219.223 185.918 c h
201.621 165.68 m 223.84 175.672 l 226.793 177.012 228.941 179.434 230.023
 182.285 c 231.09 185.113 231.09 188.344 229.75 191.297 c 219.758 213.492
 l 218.418 216.469 215.992 218.617 213.145 219.703 c 210.34 220.766 207.105
 220.766 204.129 219.426 c 181.934 209.434 l 178.957 208.094 176.812 205.668
 175.727 202.82 c 174.664 199.992 174.664 196.762 176.004 193.809 c 185.996
 171.609 l 187.336 168.633 189.758 166.488 192.609 165.402 c 195.586 164.277
 198.73 164.406 201.621 165.68 c h
94.664 261.945 m 121.832 249.699 l 125.148 248.211 128.762 248.211 131.93
 249.402 c 135.098 250.613 137.82 253.016 139.309 256.332 c 151.555 283.504
 l 153.043 286.82 153.043 290.434 151.852 293.602 c 150.641 296.77 148.238
 299.492 144.922 300.98 c 117.75 313.227 l 114.434 314.715 110.82 314.715
 107.652 313.523 c 104.484 312.312 101.762 309.91 100.273 306.594 c 88.027
 279.422 l 86.539 276.105 86.539 272.492 87.73 269.324 c 88.941 266.156 
91.344 263.434 94.664 261.945 c h
126.445 259.949 m 99.273 272.195 l 98.277 272.641 97.828 273.809 98.277
 274.809 c 110.523 301.98 l 110.969 302.977 112.137 303.426 113.137 302.977
 c 140.309 290.734 l 141.309 290.285 141.754 289.117 141.309 288.117 c 129.062
 260.945 l 128.613 259.949 127.445 259.5 126.445 259.949 c h
207.488 248.68 m 221.457 258.203 230.32 272.469 233.363 287.863 c 236.254
 302.488 233.258 322.879 223.754 334.699 c 214.227 348.688 199.961 357.531
 184.57 360.57 c 169.051 363.633 152.34 360.762 138.137 351.238 c 135.566
 349.52 134.887 346.031 136.605 343.457 c 157.508 312.289 178.406 281.125
 199.305 249.957 c 201.133 247.211 204.938 246.637 207.488 248.68 c h
222.328 290.008 m 220.16 278.996 214.355 268.727 205.32 261.094 c 199.113
 270.387 l 205.641 276.254 209.871 283.949 211.488 292.18 c 213.441 302.105
 211.613 312.777 205.512 321.879 c 199.496 330.68 190.758 336.633 180.254
 338.695 c 172.07 340.312 163.332 339.332 155.422 335.527 c 149.215 344.797
 l 159.695 350.262 171.41 351.707 182.426 349.539 c 209.891 344.137 227.75
 317.477 222.328 290.008 c h
172.473 328.215 m 169.711 314.203 l 161.758 326.066 l 165.223 327.492 168.859
 328.191 172.473 328.215 c h
184.828 291.688 m 198.816 288.926 l 197.434 285.586 195.414 282.484 192.777
 279.824 c h
201.004 299.957 m 186.996 302.723 l 198.859 310.676 l 200.281 307.207 200.984
 303.574 201.004 299.957 c h
201.004 299.957 m f
Q Q
showpage
%%Trailer
end
%%EOF
