%!PS-Adobe-3.0 EPSF-3.0
%%Creator: cairo 1.16.0 (https://cairographics.org)
%%CreationDate: Thu Dec 10 07:54:43 2020
%%Pages: 1
%%DocumentData: Clean7Bit
%%LanguageLevel: 2
%%BoundingBox: 76 0 308 384
%%EndComments
%%BeginProlog
50 dict begin
/q { gsave } bind def
/Q { grestore } bind def
/cm { 6 array astore concat } bind def
/w { setlinewidth } bind def
/J { setlinecap } bind def
/j { setlinejoin } bind def
/M { setmiterlimit } bind def
/d { setdash } bind def
/m { moveto } bind def
/l { lineto } bind def
/c { curveto } bind def
/h { closepath } bind def
/re { exch dup neg 3 1 roll 5 3 roll moveto 0 rlineto
      0 exch rlineto 0 rlineto closepath } bind def
/S { stroke } bind def
/f { fill } bind def
/f* { eofill } bind def
/n { newpath } bind def
/W { clip } bind def
/W* { eoclip } bind def
/BT { } bind def
/ET { } bind def
/BDC { mark 3 1 roll /BDC pdfmark } bind def
/EMC { mark /EMC pdfmark } bind def
/cairo_store_point { /cairo_point_y exch def /cairo_point_x exch def } def
/Tj { show currentpoint cairo_store_point } bind def
/TJ {
  {
    dup
    type /stringtype eq
    { show } { -0.001 mul 0 cairo_font_matrix dtransform rmoveto } ifelse
  } forall
  currentpoint cairo_store_point
} bind def
/cairo_selectfont { cairo_font_matrix aload pop pop pop 0 0 6 array astore
    cairo_font exch selectfont cairo_point_x cairo_point_y moveto } bind def
/Tf { pop /cairo_font exch def /cairo_font_matrix where
      { pop cairo_selectfont } if } bind def
/Td { matrix translate cairo_font_matrix matrix concatmatrix dup
      /cairo_font_matrix exch def dup 4 get exch 5 get cairo_store_point
      /cairo_font where { pop cairo_selectfont } if } bind def
/Tm { 2 copy 8 2 roll 6 array astore /cairo_font_matrix exch def
      cairo_store_point /cairo_font where { pop cairo_selectfont } if } bind def
/g { setgray } bind def
/rg { setrgbcolor } bind def
/d1 { setcachedevice } bind def
/cairo_data_source {
  CairoDataIndex CairoData length lt
    { CairoData CairoDataIndex get /CairoDataIndex CairoDataIndex 1 add def }
    { () } ifelse
} def
/cairo_flush_ascii85_file { cairo_ascii85_file status { cairo_ascii85_file flushfile } if } def
/cairo_image { image cairo_flush_ascii85_file } def
/cairo_imagemask { imagemask cairo_flush_ascii85_file } def
%%EndProlog
%%BeginSetup
%%EndSetup
%%Page: 1 1
%%BeginPageSetup
%%PageBoundingBox: 76 0 308 384
%%EndPageSetup
q 76 0 232 384 rectclip
1 0 0 -1 0 384 cm q
0.745098 0.847059 0.984314 rg
164.52 113.91 m 191.199 119.547 l 219.496 113.91 l 219.496 36.355 l 219.539
 33.699 220.473 31.57 225.172 29.148 c 229.191 27.066 231.953 22.875 231.953
 18.07 c 231.953 11.227 226.344 5.633 219.496 5.633 c 164.52 5.633 l 157.672
 5.633 152.059 11.227 152.059 18.07 c 152.059 22.875 154.824 27.062 158.82
 29.148 c 163.52 31.57 164.453 33.699 164.52 36.355 c h
164.52 113.91 m f*
0.866667 0.388235 0.431373 rg
129.863 378.387 m 115.918 378.387 85.324 360.23 82.582 327.789 c 79.84 
295.344 106.777 275.277 107.883 227.719 c 108.625 195 118.641 177.246 130.609
 163.895 c 153.613 152.223 l 154.781 139.574 l 165.094 126.648 164.52 116.953
 164.52 113.914 c 219.496 113.914 l 219.496 116.953 218.922 126.648 229.215
 139.574 c 231.977 154.223 l 253.387 163.871 l 265.379 177.246 275.371 194.996
 276.137 227.715 c 277.242 275.277 304.176 295.344 301.434 327.789 c 298.672
 360.23 268.098 378.387 254.129 378.387 c h
129.863 378.387 m f*
0.854902 0.290196 0.329412 rg
201.297 113.91 m 219.496 113.91 l 219.496 116.953 218.922 126.648 229.211
 139.57 c 231.977 154.219 l 253.387 163.871 l 265.375 177.246 275.371 194.996
 276.133 227.715 c 277.238 275.273 304.176 295.344 301.434 327.785 c 298.668
 360.23 268.098 378.387 254.129 378.387 c 235.93 378.387 l 249.879 378.387
 280.473 360.23 283.215 327.785 c 285.977 295.344 259.02 275.273 257.934
 227.715 c 256.828 180.156 236.207 164.211 218.348 147.438 c 200.469 130.664
 201.297 117.547 201.297 113.91 c h
201.297 113.91 m f*
0.615686 0.776471 0.984314 rg
201.297 113.91 m 219.496 113.91 l 219.496 36.355 l 219.539 33.699 220.473
 31.57 225.172 29.148 c 229.191 27.066 231.953 22.875 231.953 18.07 c 231.953
 11.227 226.344 5.633 219.496 5.633 c 201.297 5.633 l 208.145 5.633 213.734
 11.227 213.734 18.07 c 213.734 22.875 210.992 27.062 206.973 29.148 c 202.277
 31.57 201.34 33.699 201.297 36.355 c h
201.297 113.91 m f*
0.992157 0.701961 0.262745 rg
164.52 57.656 54.977 29.129 re f*
143.449 163.766 m 171.195 165.297 170.516 180.137 192.008 180.137 c 213.5
 180.137 212.801 165.297 240.566 163.766 c 245.051 163.512 249.348 163.574
 253.387 163.895 c 247.965 157.836 242.117 152.668 236.547 147.438 c 233.637
 144.719 231.211 142.082 229.215 139.57 c 218.73 143.57 205.891 145.93 192.008
 145.93 c 178.125 145.93 165.285 143.57 154.781 139.57 c 152.785 142.082
 150.383 144.719 147.469 147.438 c 141.898 152.668 136.051 157.836 130.609
 163.895 c 134.648 163.574 138.941 163.512 143.449 163.766 c h
143.449 163.766 m f*
192.008 349.133 m 228.086 349.133 257.531 330 257.531 306.551 c 257.531
 283.078 228.086 263.945 192.008 263.945 c 155.906 263.945 126.484 283.078
 126.484 306.551 c 126.484 330 155.906 349.133 192.008 349.133 c h
192.008 349.133 m f*
0.905882 0.647059 0.180392 rg
192.008 263.945 m 228.191 263.945 257.531 283.016 257.531 306.551 c 257.531
 330.062 228.191 349.133 192.008 349.133 c 188.926 349.133 185.883 348.984
 182.91 348.73 c 214.777 345.84 239.332 328.062 239.332 306.551 c 239.332
 285.035 214.777 267.238 182.91 264.367 c 185.887 264.094 188.926 263.945
 192.008 263.945 c h
192.008 263.945 m f*
0.992157 0.701961 0.262745 rg
192.008 241.387 m 202.637 241.387 211.289 232.715 211.289 222.082 c 211.289
 211.473 202.637 202.801 192.008 202.801 c 181.379 202.801 172.703 211.473
 172.703 222.082 c 172.703 232.715 181.379 241.387 192.008 241.387 c h
192.008 241.387 m f*
0.905882 0.647059 0.180392 rg
192.008 202.801 m 202.66 202.801 211.289 211.434 211.289 222.082 c 211.289
 232.754 202.66 241.387 192.008 241.387 c 188.711 241.387 185.609 240.559
 182.91 239.113 c 188.969 235.859 193.094 229.461 193.094 222.082 c 193.094
 214.727 188.969 208.328 182.91 205.074 c 185.609 203.629 188.711 202.801
 192.008 202.801 c h
192.008 202.801 m f*
218.348 147.438 m 224.027 152.773 229.977 158.027 235.484 164.211 c 237.078
 164.02 238.758 163.852 240.566 163.766 c 245.051 163.512 249.348 163.574
 253.387 163.895 c 247.965 157.836 242.117 152.668 236.547 147.438 c 233.637
 144.719 231.211 142.082 229.215 139.57 c 224.75 141.273 219.859 142.695
 214.629 143.738 c 215.777 144.953 217.008 146.184 218.348 147.438 c h
218.348 147.438 m f*
201.297 57.656 18.199 29.129 re f*
0 g
129.863 384 m 120.617 384 105.246 377.344 93.574 364.867 c 85.027 355.723
 78.266 343.414 76.969 328.254 c 75.547 311.27 81.371 297.895 87.918 282.867
 c 94.426 267.898 101.738 251.145 102.27 227.609 c 103.355 180.691 122.402
 163.043 140.238 146.523 c 150.039 137.445 158.883 128.262 158.883 113.914
 c 158.883 87.699 158.883 61.465 158.883 35.25 c 156.164 34.359 153.719 
32.828 151.742 30.848 c 148.469 27.574 146.426 23.047 146.426 18.07 c 146.426
 13.098 148.469 8.59 151.742 5.316 c 155.016 2.043 159.543 0 164.52 0 c 
219.496 0 l 224.473 0 229 2.043 232.273 5.316 c 235.547 8.59 237.57 13.098
 237.57 18.07 c 237.57 23.047 235.547 27.574 232.273 30.848 c 230.277 32.824
 227.852 34.355 225.133 35.25 c 225.133 113.91 l 225.133 128.41 234.039 
137.512 243.777 146.523 c 261.59 163.043 280.641 180.688 281.727 227.609
 c 282.277 251.145 289.57 267.898 296.098 282.863 c 302.645 297.895 308.469
 311.27 307.023 328.254 c 305.75 343.414 298.969 355.723 290.422 364.867
 c 278.75 377.344 263.398 384 254.129 384 c h
159.648 238.965 m 161.074 241.707 160.012 245.109 157.27 246.531 c 154.527
 247.957 151.145 246.895 149.723 244.152 c 147.957 240.793 146.598 237.199
 145.684 233.457 c 144.77 229.758 144.301 225.953 144.301 222.082 c 144.301
 218.234 144.77 214.43 145.684 210.73 c 146.598 206.969 147.957 203.375 
149.723 200.016 c 151.145 197.273 154.527 196.211 157.27 197.656 c 160.012
 199.082 161.074 202.461 159.648 205.203 c 158.312 207.754 157.27 210.496
 156.566 213.367 c 155.887 216.109 155.547 219.043 155.547 222.086 c 155.547
 225.145 155.887 228.059 156.566 230.82 c 157.27 233.691 158.312 236.41 
159.648 238.965 c h
224.367 205.203 m 222.922 202.461 223.984 199.078 226.727 197.656 c 229.469
 196.211 232.848 197.273 234.293 200.016 c 236.035 203.375 237.418 206.969
 238.332 210.73 c 239.246 214.43 239.715 218.234 239.715 222.082 c 239.715
 225.953 239.246 229.758 238.332 233.457 c 237.418 237.199 236.039 240.793
 234.293 244.152 c 232.848 246.891 229.469 247.957 226.727 246.531 c 223.984
 245.105 222.918 241.707 224.367 238.961 c 225.684 236.41 226.727 233.691
 227.426 230.82 c 228.105 228.055 228.469 225.145 228.469 222.082 c 228.469
 219.043 228.105 216.109 227.426 213.367 c 226.727 210.496 225.684 207.754
 224.367 205.203 c h
192.008 197.164 m 198.875 197.164 205.102 199.973 209.633 204.48 c 214.141
 208.988 216.926 215.215 216.926 222.082 c 216.926 228.969 214.141 235.199
 209.633 239.707 c 205.102 244.215 198.875 247 192.008 247 c 185.121 247
 178.891 244.215 174.383 239.707 c 169.875 235.199 167.09 228.969 167.09
 222.082 c 167.09 215.215 169.875 208.988 174.383 204.48 c 178.891 199.973
 185.121 197.164 192.008 197.164 c h
201.66 212.43 m 199.191 209.945 195.77 208.414 192.008 208.414 c 188.223
 208.414 184.801 209.945 182.336 212.43 c 179.867 214.898 178.336 218.32
 178.336 222.082 c 178.336 225.867 179.867 229.289 182.336 231.758 c 184.801
 234.223 188.223 235.754 192.008 235.754 c 195.77 235.754 199.191 234.223
 201.66 231.758 c 204.148 229.289 205.676 225.867 205.676 222.082 c 205.68
 218.32 204.148 214.898 201.66 212.43 c h
157.629 301.254 m 154.527 301.254 151.996 298.727 151.996 295.621 c 151.996
 292.516 154.527 289.988 157.629 289.988 c 226.387 289.988 l 229.488 289.988
 231.996 292.516 231.996 295.621 c 231.996 298.727 229.488 301.254 226.387
 301.254 c h
169.641 323.09 m 166.539 323.09 164.031 320.559 164.031 317.457 c 164.031
 314.352 166.539 311.844 169.641 311.844 c 214.352 311.844 l 217.477 311.844
 219.984 314.352 219.984 317.457 c 219.984 320.559 217.477 323.09 214.352
 323.09 c h
179.996 342.777 m 183.059 343.16 185.227 345.965 184.844 349.027 c 184.461
 352.109 181.656 354.277 178.594 353.895 c 162.371 351.812 148.105 346.051
 137.879 337.949 c 127.25 329.531 120.852 318.605 120.852 306.551 c 120.852
 292.75 129.164 280.465 142.621 271.727 c 155.355 263.453 172.809 258.332
 192.008 258.332 c 211.184 258.332 228.66 263.453 241.395 271.727 c 254.832
 280.461 263.145 292.75 263.145 306.551 c 263.145 318.605 256.766 329.531
 246.137 337.949 c 235.91 346.051 221.625 351.812 205.426 353.895 c 202.34
 354.277 199.555 352.109 199.152 349.027 c 198.77 345.965 200.938 343.16
 204.02 342.777 c 218.18 340.969 230.512 336.035 239.184 329.172 c 247.137
 322.879 251.898 314.992 251.898 306.551 c 251.898 296.812 245.543 287.797
 235.273 281.121 c 224.301 274 209.016 269.578 192.008 269.578 c 175 269.578
 159.715 274 148.723 281.121 c 138.453 287.797 132.098 296.812 132.098 306.551
 c 132.098 314.992 136.883 322.879 144.812 329.172 c 153.504 336.035 165.836
 340.969 179.996 342.777 c h
179.867 139.68 m 182.949 139.996 185.184 142.781 184.863 145.844 c 184.523
 148.926 181.762 151.18 178.68 150.84 c 174 150.328 169.492 149.586 165.219
 148.586 c 162.203 147.887 159.309 147.078 156.566 146.164 c 154.996 147.906
 153.25 149.715 151.316 151.52 c 150.934 151.902 149.766 152.945 147.832
 154.754 c 146.617 155.879 145.387 157.027 144.152 158.176 c 159.84 159.133
 167.176 163.914 173.895 168.316 c 178.828 171.547 183.375 174.523 192.008
 174.523 c 200.641 174.523 205.168 171.547 210.121 168.316 c 216.84 163.914
 224.152 159.133 239.863 158.176 c 238.633 157.027 237.398 155.879 236.164
 154.754 c 234.211 152.926 233.125 151.945 232.699 151.52 c 230.746 149.715
 229 147.906 227.449 146.164 c 224.684 147.078 221.793 147.887 218.773 148.586
 c 214.504 149.586 209.996 150.328 205.316 150.84 c 202.234 151.18 199.473
 148.926 199.152 145.844 c 198.812 142.781 201.043 139.996 204.125 139.68
 c 208.359 139.23 212.418 138.531 216.266 137.637 c 217.648 137.32 218.988
 136.98 220.305 136.617 c 216.074 129.621 214.629 123.734 214.141 119.523
 c 169.879 119.523 l 169.387 123.734 167.941 129.621 163.711 136.617 c 165.031
 136.977 166.371 137.32 167.73 137.637 c 171.598 138.531 175.66 139.23 179.867
 139.68 c h
250.688 169.336 m 249.434 169.273 248.242 169.23 247.113 169.211 c 245.16
 169.188 243.074 169.23 240.863 169.359 c 227.938 170.082 221.859 174.059
 216.266 177.715 c 209.844 181.922 203.977 185.77 192.008 185.77 c 180.039
 185.77 174.148 181.922 167.73 177.715 c 162.16 174.059 156.078 170.082 
143.133 169.359 c 140.941 169.23 138.859 169.188 136.902 169.211 c 135.754
 169.23 134.562 169.273 133.332 169.336 c 122.742 181.793 114.156 198.461
 113.473 227.824 c 112.879 253.633 105.117 271.449 98.188 287.352 c 92.258
 300.98 86.984 313.098 88.195 327.34 c 89.238 339.652 94.785 349.707 101.805
 357.211 c 111.285 367.352 123.043 372.754 129.867 372.754 c 254.129 372.754
 l 260.953 372.754 272.73 367.352 282.215 357.211 c 289.23 349.707 294.777
 339.652 295.82 327.34 c 297.031 313.098 291.738 300.98 285.809 287.352 
c 278.879 271.449 271.117 253.633 270.523 227.824 c 269.84 198.461 261.273
 181.797 250.688 169.336 c h
170.129 52.023 m 213.863 52.023 l 213.863 30.531 l 213.863 27.426 216.395
 24.895 219.496 24.895 c 221.367 24.895 223.07 24.129 224.301 22.898 c 225.555
 21.664 226.32 19.941 226.32 18.07 c 226.32 16.199 225.555 14.5 224.301 
13.266 c 223.07 12.012 221.367 11.246 219.496 11.246 c 164.52 11.246 l 162.648
 11.246 160.926 12.012 159.691 13.266 c 158.461 14.5 157.695 16.199 157.695
 18.07 c 157.695 19.941 158.461 21.664 159.691 22.898 c 160.926 24.129 162.648
 24.895 164.52 24.895 c 167.621 24.895 170.129 27.426 170.129 30.531 c h
213.863 92.418 m 170.129 92.418 l 170.129 108.277 l 213.863 108.277 l h
213.863 63.27 m 170.129 63.27 l 170.129 81.172 l 213.863 81.172 l h
213.863 63.27 m f
Q Q
showpage
%%Trailer
end
%%EOF
