%!PS-Adobe-3.0 EPSF-3.0
%%Creator: cairo 1.16.0 (https://cairographics.org)
%%CreationDate: Thu Dec 10 07:54:44 2020
%%Pages: 1
%%DocumentData: Clean7Bit
%%LanguageLevel: 2
%%BoundingBox: 0 36 384 348
%%EndComments
%%BeginProlog
50 dict begin
/q { gsave } bind def
/Q { grestore } bind def
/cm { 6 array astore concat } bind def
/w { setlinewidth } bind def
/J { setlinecap } bind def
/j { setlinejoin } bind def
/M { setmiterlimit } bind def
/d { setdash } bind def
/m { moveto } bind def
/l { lineto } bind def
/c { curveto } bind def
/h { closepath } bind def
/re { exch dup neg 3 1 roll 5 3 roll moveto 0 rlineto
      0 exch rlineto 0 rlineto closepath } bind def
/S { stroke } bind def
/f { fill } bind def
/f* { eofill } bind def
/n { newpath } bind def
/W { clip } bind def
/W* { eoclip } bind def
/BT { } bind def
/ET { } bind def
/BDC { mark 3 1 roll /BDC pdfmark } bind def
/EMC { mark /EMC pdfmark } bind def
/cairo_store_point { /cairo_point_y exch def /cairo_point_x exch def } def
/Tj { show currentpoint cairo_store_point } bind def
/TJ {
  {
    dup
    type /stringtype eq
    { show } { -0.001 mul 0 cairo_font_matrix dtransform rmoveto } ifelse
  } forall
  currentpoint cairo_store_point
} bind def
/cairo_selectfont { cairo_font_matrix aload pop pop pop 0 0 6 array astore
    cairo_font exch selectfont cairo_point_x cairo_point_y moveto } bind def
/Tf { pop /cairo_font exch def /cairo_font_matrix where
      { pop cairo_selectfont } if } bind def
/Td { matrix translate cairo_font_matrix matrix concatmatrix dup
      /cairo_font_matrix exch def dup 4 get exch 5 get cairo_store_point
      /cairo_font where { pop cairo_selectfont } if } bind def
/Tm { 2 copy 8 2 roll 6 array astore /cairo_font_matrix exch def
      cairo_store_point /cairo_font where { pop cairo_selectfont } if } bind def
/g { setgray } bind def
/rg { setrgbcolor } bind def
/d1 { setcachedevice } bind def
/cairo_data_source {
  CairoDataIndex CairoData length lt
    { CairoData CairoDataIndex get /CairoDataIndex CairoDataIndex 1 add def }
    { () } ifelse
} def
/cairo_flush_ascii85_file { cairo_ascii85_file status { cairo_ascii85_file flushfile } if } def
/cairo_image { image cairo_flush_ascii85_file } def
/cairo_imagemask { imagemask cairo_flush_ascii85_file } def
%%EndProlog
%%BeginSetup
%%EndSetup
%%Page: 1 1
%%BeginPageSetup
%%PageBoundingBox: 0 36 384 348
%%EndPageSetup
q 0 36 384 312 rectclip
1 0 0 -1 0 384 cm q
0.866667 0.917647 0.984314 rg
155.176 341.555 m 237.539 341.555 304.723 274.371 304.723 192.012 c 304.723
 109.648 237.539 42.469 155.176 42.469 c 72.816 42.469 5.633 109.648 5.633
 192.012 c 5.633 274.371 72.816 341.555 155.176 341.555 c h
155.176 341.555 m f*
0.796078 0.886275 1 rg
155.176 42.469 m 237.773 42.469 304.723 109.414 304.723 192.012 c 304.723
 274.605 237.773 341.555 155.176 341.555 c 152.117 341.555 149.074 341.449
 146.078 341.258 c 224.422 336.559 286.523 271.547 286.523 192.012 c 286.523
 112.477 224.422 47.441 146.078 42.742 c 149.074 42.574 152.117 42.469 155.176
 42.469 c h
155.176 42.469 m f*
0.992157 0.701961 0.262745 rg
359.422 129.188 m 359.422 139.434 359.34 149.449 359.168 159.121 c 346.473
 163.117 l 333.273 159.121 l 333.102 149.449 333.016 139.434 333.016 129.188
 c 333.016 121.895 338.926 115.984 346.219 115.984 c 353.512 115.984 359.422
 121.895 359.422 129.188 c h
359.422 129.188 m f*
0.854902 0.290196 0.329412 rg
359.168 159.121 m 357.957 227.645 352.621 279.219 346.219 279.219 c 339.82
 279.219 334.484 227.641 333.273 159.121 c h
359.168 159.121 m f*
0.470588 0.760784 0.643137 rg
340.035 261.828 m 319.496 269.844 l 315.926 271.227 314.055 274.438 314.055
 277.773 c 314.055 297.504 l 314.055 301.18 316.18 304.156 319.496 305.453
 c 340.797 313.77 l 342.629 314.492 344.414 314.852 346.219 314.852 c 348.027
 314.852 349.812 314.492 351.641 313.77 c 372.945 305.453 l 376.262 304.156
 378.387 301.18 378.387 297.504 c 378.387 277.773 l 378.387 274.438 376.516
 271.227 372.945 269.844 c 352.406 261.828 l h
340.035 261.828 m f*
0.4 0.701961 0.580392 rg
354.234 312.77 m 372.945 305.453 l 376.262 304.156 378.387 301.18 378.387
 297.504 c 378.387 277.773 l 378.387 274.434 376.516 271.227 372.945 269.844
 c 356.277 263.336 l 358.848 265.613 360.188 269.48 360.188 273.457 c 360.188
 301.266 l 360.188 306.453 358.062 310.66 354.746 312.469 c h
354.234 312.77 m f*
0.25098 0.439216 0.576471 rg
116.145 71.891 m 143.527 62.984 171.738 63.961 196.977 72.828 c 220.934
 104.906 l 222.402 104.906 l 257.375 117.75 l 264.965 128.207 271.086 140.008
 275.297 152.977 c 279.508 165.945 281.504 179.086 281.504 192.031 c 268.621
 221.754 l 257.375 266.23 l 242.238 287.105 220.594 303.539 194.211 312.129
 c 154.688 305.113 l 116.164 312.129 l 91.078 303.965 68.797 288.043 52.961
 266.25 c 49.492 222.836 l 28.828 192.008 l 28.828 165.094 37.504 139.113
 52.98 117.77 c 53.129 119.109 l 89.527 105.27 l h
116.145 71.891 m f*
0.992157 0.701961 0.262745 rg
52.98 117.77 m 155.18 192.012 l 116.145 71.891 l 89.762 80.461 68.117 96.895
 52.98 117.77 c h
52.98 117.77 m f*
155.176 192.012 m 28.828 192.012 l 28.828 204.938 30.848 218.074 35.059
 231.043 c 39.27 243.992 45.367 255.812 52.961 266.273 c h
155.176 192.012 m f*
155.176 192.012 m 116.145 312.129 l 140.637 320.125 167.805 320.699 194.211
 312.129 c h
155.176 192.012 m f*
155.176 192.012 m 257.352 266.25 l 272.832 244.906 281.504 218.926 281.504
 192.012 c h
155.176 192.012 m f*
155.176 192.012 m 257.375 117.75 l 241.559 95.957 219.277 80.035 194.211
 71.871 c h
155.176 192.012 m f*
0.854902 0.290196 0.329412 rg
155.176 219.309 m 170.207 219.309 182.477 207.043 182.477 192.012 c 182.477
 176.961 170.207 164.715 155.176 164.715 c 140.125 164.715 127.879 176.961
 127.879 192.012 c 127.879 207.043 140.125 219.309 155.176 219.309 c h
155.176 219.309 m f*
127.434 106.609 m 174.59 91.281 225.25 117.09 240.578 164.266 c 255.887
 211.422 230.078 262.082 182.922 277.414 c 135.746 292.719 85.105 266.91
 69.777 219.754 c 54.449 172.578 80.258 121.938 127.434 106.609 c h
134.215 127.527 m 169.824 115.941 208.094 135.438 219.66 171.047 c 231.227
 206.66 211.73 244.926 176.117 256.492 c 140.508 268.059 102.262 248.562
 90.695 212.953 c 79.109 177.34 98.605 139.094 134.215 127.527 c h
134.215 127.527 m f*
0.470588 0.760784 0.643137 rg
210.027 152.148 m 227.824 139.223 l 216.789 124.062 201.141 112.496 182.922
 106.586 c 176.141 127.508 l 189.875 131.973 201.695 140.711 210.027 152.148
 c h
210.027 231.852 m 227.824 244.777 l 238.602 229.98 244.961 211.738 244.961
 192.012 c 222.977 192.012 l 222.977 206.891 218.172 220.668 210.027 231.852
 c h
134.215 256.516 m 127.414 277.434 l 136.148 280.262 145.484 281.793 155.18
 281.793 c 164.852 281.793 174.184 280.262 182.922 277.434 c 176.141 256.516
 l 169.527 258.641 162.492 259.809 155.18 259.809 c 147.863 259.809 140.805
 258.641 134.215 256.516 c h
87.379 192.012 m 65.375 192.012 l 65.375 211.738 71.73 229.98 82.531 244.777
 c 100.305 231.852 l 92.164 220.668 87.379 206.891 87.379 192.012 c h
134.215 127.508 m 127.414 106.586 l 109.215 112.496 93.543 124.062 82.531
 139.223 c 100.305 152.148 l 108.641 140.711 120.461 131.973 134.215 127.508
 c h
134.215 127.508 m f*
0 g
286.797 133.734 m 285.543 130.887 286.84 127.57 289.691 126.316 c 292.52
 125.082 295.832 126.359 297.086 129.207 c 301.383 138.902 304.742 149.172
 306.996 159.863 c 309.184 170.281 310.332 181.039 310.332 192.008 c 310.332
 234.848 292.965 273.648 264.898 301.734 c 236.816 329.797 198.016 347.164
 155.176 347.164 c 129.156 347.164 104.621 340.766 83.062 329.414 c 60.719
 317.68 41.582 300.629 27.34 279.941 c 25.574 277.391 26.211 273.902 28.766
 272.141 c 31.316 270.375 34.801 271.012 36.566 273.562 c 49.789 292.762
 67.543 308.578 88.293 319.484 c 108.254 329.988 131.004 335.918 155.176
 335.918 c 194.91 335.918 230.883 319.824 256.926 293.762 c 282.992 267.719
 299.086 231.746 299.086 192.008 c 299.086 181.719 298.023 171.75 296.004
 162.16 c 293.922 152.297 290.816 142.793 286.797 133.734 c h
155.176 158.25 m 156.855 158.25 158.492 158.375 160.109 158.609 c 168.977
 131.355 l 160.109 129.336 150.691 129.23 141.379 131.355 c 150.223 158.609
 l 151.84 158.375 153.496 158.25 155.176 158.25 c h
170.805 162.078 m 173.738 163.629 176.438 165.586 178.797 167.902 c 201.992
 151.043 l 195.848 144.047 188.195 138.5 179.648 134.84 c h
185.41 176.98 m 186.855 179.914 187.898 183.082 188.449 186.398 c 217.109
 186.398 l 216.703 181.871 215.789 177.301 214.324 172.793 c 212.855 168.285
 210.922 164.055 208.582 160.141 c h
188.449 197.602 m 187.898 200.941 186.855 204.109 185.41 207.02 c 208.582
 223.859 l 213.348 215.867 216.281 206.895 217.109 197.602 c h
178.797 216.121 m 176.438 218.414 173.738 220.395 170.805 221.922 c 179.648
 249.18 l 188.449 245.418 195.996 239.805 201.973 232.957 c h
160.109 225.391 m 158.496 225.625 156.855 225.75 155.176 225.75 c 153.496
 225.75 151.84 225.621 150.223 225.391 c 141.379 252.645 l 150.246 254.664
 159.641 254.77 168.973 252.645 c h
139.551 221.922 m 136.594 220.395 133.895 218.414 131.559 216.121 c 108.363
 232.957 l 114.484 239.953 122.141 245.5 130.688 249.156 c h
124.945 207.02 m 123.48 204.105 122.438 200.941 121.883 197.602 c 93.227
 197.602 l 94.078 206.848 97.012 215.887 101.75 223.879 c h
121.883 186.398 m 122.438 183.082 123.48 179.914 124.945 176.98 c 101.773
 160.141 l 97.008 168.137 94.078 177.129 93.227 186.398 c h
131.559 167.902 m 133.895 165.586 136.598 163.629 139.551 162.078 c 130.688
 134.84 l 121.883 138.582 114.336 144.195 108.363 151.062 c h
171.082 176.086 m 167.02 172.027 161.387 169.496 155.176 169.496 c 148.949
 169.496 143.336 172.027 139.254 176.086 c 135.191 180.168 132.664 185.781
 132.664 192.012 c 132.664 198.219 135.191 203.852 139.254 207.914 c 143.336
 211.996 148.949 214.504 155.176 214.504 c 161.387 214.504 167.02 211.996
 171.082 207.914 c 175.16 203.852 177.672 198.219 177.672 192.012 c 177.672
 185.781 175.16 180.168 171.082 176.086 c h
112.574 304.922 m 120.398 280.855 l 105.215 274.902 91.758 265.168 81.406
 252.539 c 60.91 267.422 l 71.73 280.941 85.254 291.828 100.391 299.523 
c 104.344 301.543 108.406 303.352 112.574 304.922 c h
123.883 270.141 m 127.199 259.895 l 116.422 255.453 106.809 248.477 99.242
 239.59 c 90.504 245.926 l 99.453 256.641 110.934 264.953 123.883 270.141
 c h
137.895 263.379 m 134.555 273.629 l 147.738 276.965 161.852 277.156 175.777
 273.629 c 172.461 263.359 l 160.77 266.207 148.949 266.059 137.895 263.379
 c h
131.07 284.344 m 123.246 308.41 l 143.547 314 165.512 314.34 187.09 308.391
 c 179.266 284.324 l 162.957 288.594 146.441 288.363 131.07 284.344 c h
172.461 120.641 m 175.777 110.395 l 162.617 107.055 148.5 106.863 134.555
 110.395 c 137.895 120.641 l 149.586 117.812 161.387 117.941 172.461 120.641
 c h
179.266 99.68 m 187.09 75.613 l 166.809 70.02 144.844 69.68 123.266 75.613
 c 131.09 99.699 l 147.375 95.426 163.914 95.66 179.266 99.68 c h
197.762 79.078 m 189.938 103.145 l 192.852 104.293 195.699 105.566 198.484
 106.992 c 210.113 112.902 220.531 121.191 228.949 131.461 c 249.422 116.578
 l 238.625 103.078 225.102 92.195 209.965 84.477 c 206.012 82.457 201.93
 80.652 197.762 79.078 c h
186.473 113.859 m 183.137 124.105 l 193.934 128.57 203.543 135.523 211.113
 144.43 c 219.828 138.074 l 210.898 127.379 199.398 119.047 186.473 113.859
 c h
127.219 124.129 m 123.883 113.859 l 110.531 119.195 99.219 127.637 90.523
 138.098 c 99.242 144.43 l 106.621 135.758 116.082 128.676 127.219 124.129
 c h
120.395 103.164 m 112.57 79.078 l 91.629 86.965 74.07 100.145 60.93 116.602
 c 81.406 131.461 l 91.484 119.195 104.707 109.289 120.395 103.164 c h
183.137 259.895 m 186.473 270.141 l 199.824 264.824 211.133 256.363 219.828
 245.926 c 211.113 239.59 l 203.734 248.266 194.254 255.324 183.137 259.895
 c h
189.938 280.855 m 197.762 304.922 l 218.723 297.035 236.285 283.855 249.402
 267.422 c 228.93 252.539 l 218.871 264.828 205.629 274.734 189.938 280.855
 c h
92.652 153.508 m 83.934 147.195 l 76.516 158.992 72.094 172.473 71.156 
186.398 c 81.957 186.398 l 82.852 174.746 86.527 163.457 92.652 153.508 
c h
74.812 140.562 m 54.34 125.68 l 51.895 129.398 49.664 133.246 47.645 137.223
 c 39.926 152.359 35.398 169.113 34.59 186.398 c 59.91 186.398 l 60.676 
173.152 64.227 160.312 70.16 148.684 c 71.582 145.918 73.133 143.199 74.812
 140.562 c h
217.703 230.492 m 226.422 236.828 l 227.762 234.68 229.016 232.469 230.164
 230.215 c 235.285 220.16 238.41 209.062 239.176 197.602 c 228.398 197.602
 l 227.652 207.359 224.953 216.777 220.594 225.324 c 219.703 227.09 218.723
 228.812 217.703 230.492 c h
235.543 243.438 m 256.016 258.32 l 258.438 254.602 260.691 250.754 262.691
 246.797 c 270.406 231.66 274.957 214.906 275.766 197.602 c 250.445 197.602
 l 249.656 210.867 246.105 223.688 240.195 235.316 c 238.773 238.102 237.219
 240.801 235.543 243.438 c h
81.957 197.602 m 71.156 197.602 l 71.625 204.406 72.922 211.25 75.113 218.012
 c 77.301 224.773 80.277 231.086 83.914 236.848 c 92.629 230.492 l 89.652
 225.645 87.188 220.348 85.359 214.695 c 83.512 209.02 82.383 203.301 81.957
 197.602 c h
59.91 197.602 m 34.59 197.602 l 35.078 208.148 36.973 218.777 40.395 229.301
 c 43.797 239.805 48.516 249.52 54.32 258.344 c 74.793 243.461 l 70.52 236.766
 67.012 229.41 64.438 221.5 c 61.867 213.57 60.379 205.555 59.91 197.602
 c h
228.398 186.398 m 239.176 186.398 l 238.242 172.535 233.84 158.953 226.441
 147.172 c 217.703 153.508 l 220.699 158.375 223.145 163.648 224.996 169.324
 c 226.848 174.98 227.953 180.723 228.398 186.398 c h
250.445 186.398 m 275.766 186.398 l 275.254 175.875 273.363 165.223 269.961
 154.723 c 266.539 144.195 261.816 134.48 256.035 125.68 c 235.543 140.562
 l 239.836 147.258 243.344 154.613 245.918 162.523 c 248.488 170.453 249.953
 178.469 250.445 186.398 c h
114.402 66.535 m 149.055 55.285 184.984 59.133 215.066 74.465 c 245.148
 89.793 269.363 116.578 280.633 151.234 c 291.902 185.887 288.055 221.816
 272.727 251.898 c 257.395 281.984 230.586 306.199 195.934 317.465 c 161.277
 328.734 125.352 324.887 95.289 309.555 c 65.203 294.227 40.969 267.418 
29.723 232.766 c 18.453 198.109 22.301 162.18 37.629 132.121 c 52.961 102.039
 79.746 77.801 114.402 66.535 c h
348.602 320.996 m 347.879 321.312 347.07 321.508 346.219 321.508 c 345.371
 321.508 344.562 321.316 343.84 320.996 c 312.352 308.688 l 310.078 307.961
 308.441 305.836 308.441 303.328 c 308.441 271.949 l 308.441 269.715 309.801
 267.59 312.012 266.719 c 333.805 258.215 l 331.957 245.414 330.402 227.727
 329.297 206.742 c 328.531 192.266 327.957 176.277 327.66 159.355 c 327.469
 149.598 327.383 139.496 327.383 129.188 c 327.383 124 329.488 119.277 332.891
 115.879 c 335.016 113.75 337.652 112.137 340.586 111.223 c 340.586 67.766
 l 340.586 64.66 343.117 62.133 346.223 62.133 c 349.324 62.133 351.855 
64.66 351.855 67.766 c 351.855 111.223 l 354.789 112.137 357.426 113.754
 359.531 115.879 c 362.953 119.277 365.059 124 365.059 129.188 c 365.059
 138.648 364.953 148.66 364.781 159.121 c 364.59 169.156 364.336 178.746
 363.996 187.758 c 363.891 190.863 361.293 193.266 358.191 193.156 c 355.109
 193.051 352.684 190.457 352.789 187.355 c 353.066 180.043 353.281 172.473
 353.449 164.754 c 338.992 164.754 l 339.312 179.594 339.82 193.52 340.504
 206.168 c 341.586 226.578 343.074 243.758 344.859 256.195 c 347.582 256.195
 l 348.262 251.496 348.902 246.16 349.473 240.227 c 350.262 232.191 350.961
 222.945 351.578 212.676 c 351.75 209.594 354.406 207.234 357.512 207.402
 c 360.594 207.594 362.973 210.254 362.785 213.336 c 362.188 223.52 361.465
 232.895 360.637 241.293 c 360.02 247.625 359.34 253.305 358.637 258.215
 c 380.09 266.59 l 382.363 267.312 384 269.438 384 271.945 c 384 303.328
 l 384 305.582 382.641 307.707 380.43 308.559 c h
340.586 307.664 m 340.586 282.855 l 340.586 279.75 343.117 277.242 346.219
 277.242 c 349.324 277.242 351.855 279.75 351.855 282.855 c 351.855 307.664
 l 372.754 299.504 l 372.754 275.797 l 351.367 267.441 l 341.074 267.441
 l 319.688 275.797 l 319.688 299.504 l h
338.801 153.508 m 353.66 153.508 l 353.746 146.09 353.809 137.988 353.809
 129.188 c 353.809 127.102 352.961 125.211 351.578 123.828 c 350.219 122.445
 348.324 121.617 346.219 121.617 c 344.113 121.617 342.223 122.445 340.863
 123.828 c 339.48 125.211 338.629 127.102 338.629 129.188 c 338.633 137.48
 338.695 145.602 338.801 153.508 c h
24.449 252.281 m 25.746 255.109 24.512 258.449 21.707 259.746 c 18.879 
261.043 15.539 259.809 14.242 256.98 c 9.609 246.945 6.016 236.336 3.594
 225.305 c 1.234 214.566 0 203.426 0 192.012 c 0 149.148 17.371 110.371 
45.453 82.289 c 73.539 54.203 112.316 36.832 155.176 36.832 c 181.582 36.832
 206.5 43.465 228.312 55.137 c 250.953 67.277 270.215 84.816 284.352 106.035
 c 286.078 108.629 285.375 112.117 282.801 113.84 c 280.207 115.559 276.723
 114.859 275 112.285 c 261.84 92.535 243.98 76.25 223.039 65.047 c 202.844
 54.227 179.734 48.082 155.18 48.082 c 115.422 48.082 79.449 64.195 53.406
 90.238 c 27.363 116.285 11.246 152.258 11.246 192.012 c 11.246 202.641 
12.395 212.996 14.586 222.945 c 16.816 233.172 20.156 243.016 24.449 252.281
 c h
24.449 252.281 m f
Q Q
showpage
%%Trailer
end
%%EOF
