%!PS-Adobe-3.0 EPSF-3.0
%%Creator: cairo 1.16.0 (https://cairographics.org)
%%CreationDate: Thu Dec 10 07:54:45 2020
%%Pages: 1
%%DocumentData: Clean7Bit
%%LanguageLevel: 2
%%BoundingBox: 0 0 384 384
%%EndComments
%%BeginProlog
50 dict begin
/q { gsave } bind def
/Q { grestore } bind def
/cm { 6 array astore concat } bind def
/w { setlinewidth } bind def
/J { setlinecap } bind def
/j { setlinejoin } bind def
/M { setmiterlimit } bind def
/d { setdash } bind def
/m { moveto } bind def
/l { lineto } bind def
/c { curveto } bind def
/h { closepath } bind def
/re { exch dup neg 3 1 roll 5 3 roll moveto 0 rlineto
      0 exch rlineto 0 rlineto closepath } bind def
/S { stroke } bind def
/f { fill } bind def
/f* { eofill } bind def
/n { newpath } bind def
/W { clip } bind def
/W* { eoclip } bind def
/BT { } bind def
/ET { } bind def
/BDC { mark 3 1 roll /BDC pdfmark } bind def
/EMC { mark /EMC pdfmark } bind def
/cairo_store_point { /cairo_point_y exch def /cairo_point_x exch def } def
/Tj { show currentpoint cairo_store_point } bind def
/TJ {
  {
    dup
    type /stringtype eq
    { show } { -0.001 mul 0 cairo_font_matrix dtransform rmoveto } ifelse
  } forall
  currentpoint cairo_store_point
} bind def
/cairo_selectfont { cairo_font_matrix aload pop pop pop 0 0 6 array astore
    cairo_font exch selectfont cairo_point_x cairo_point_y moveto } bind def
/Tf { pop /cairo_font exch def /cairo_font_matrix where
      { pop cairo_selectfont } if } bind def
/Td { matrix translate cairo_font_matrix matrix concatmatrix dup
      /cairo_font_matrix exch def dup 4 get exch 5 get cairo_store_point
      /cairo_font where { pop cairo_selectfont } if } bind def
/Tm { 2 copy 8 2 roll 6 array astore /cairo_font_matrix exch def
      cairo_store_point /cairo_font where { pop cairo_selectfont } if } bind def
/g { setgray } bind def
/rg { setrgbcolor } bind def
/d1 { setcachedevice } bind def
/cairo_data_source {
  CairoDataIndex CairoData length lt
    { CairoData CairoDataIndex get /CairoDataIndex CairoDataIndex 1 add def }
    { () } ifelse
} def
/cairo_flush_ascii85_file { cairo_ascii85_file status { cairo_ascii85_file flushfile } if } def
/cairo_image { image cairo_flush_ascii85_file } def
/cairo_imagemask { imagemask cairo_flush_ascii85_file } def
%%EndProlog
%%BeginSetup
%%EndSetup
%%Page: 1 1
%%BeginPageSetup
%%PageBoundingBox: 0 0 384 384
%%EndPageSetup
q 0 0 384 384 rectclip
1 0 0 -1 0 384 cm q
0.745098 0.847059 0.984314 rg
66.352 146.504 m 147.055 146.504 l 147.055 168.336 l 66.352 168.336 l h
66.352 215.664 m 147.055 215.664 l 147.055 237.496 l 66.352 237.496 l h
66.352 215.664 m f*
0.615686 0.776471 0.984314 rg
128.859 146.504 m 147.055 146.504 l 147.055 168.336 l 122.266 168.336 l
 123.777 160.789 126.008 153.477 128.859 146.504 c h
128.859 237.496 m 125.988 230.523 123.777 223.23 122.266 215.664 c 147.055
 215.664 l 147.055 237.496 l h
128.859 237.496 m f*
0.854902 0.290196 0.329412 rg
258.246 312.141 m 324.43 312.141 378.387 258.16 378.387 192 c 378.387 125.84
 324.43 71.879 258.246 71.879 c 192.086 71.879 138.125 125.84 138.125 192
 c 138.125 258.16 192.086 312.141 258.246 312.141 c h
258.246 312.141 m f*
0.847059 0.180392 0.239216 rg
258.246 71.879 m 324.598 71.879 378.387 125.668 378.387 192 c 378.387 258.352
 324.598 312.141 258.246 312.141 c 255.184 312.141 252.168 312.012 249.148
 311.781 c 311.246 307.145 360.188 255.293 360.188 192 c 360.188 128.73 
311.246 76.879 249.148 72.223 c 252.168 71.988 255.184 71.879 258.246 71.879
 c h
258.246 71.879 m f*
0.584314 0.839216 0.643137 rg
225.59 113.379 m 228.523 113.379 231.375 113.699 234.074 114.254 c 237.75
 114.977 239.113 114.762 240.305 109.957 c 242.641 100.602 249.742 93.715
 258.246 93.715 c 266.773 93.715 273.895 100.602 276.211 109.98 c 277.57
 115.508 278.02 115.188 282.566 114.211 c 285.227 113.637 288.031 113.383
 290.922 113.383 c 306.402 113.383 319.41 121.758 322.727 133.047 c 323.961
 137.234 323.516 138.809 317.754 138.809 c 198.762 138.809 l 192.977 138.809
 192.723 136.535 193.785 132.984 c 197.207 121.758 210.137 113.379 225.59
 113.379 c h
225.59 270.641 m 228.523 270.641 231.375 270.301 234.074 269.77 c 237.75
 269.023 239.113 269.238 240.305 274.062 c 242.641 283.418 249.742 290.285
 258.246 290.285 c 266.773 290.285 273.895 283.398 276.211 274.02 c 277.57
 268.516 278.02 268.812 282.566 269.789 c 285.227 270.363 288.031 270.641
 290.922 270.641 c 306.402 270.641 319.41 262.242 322.727 250.977 c 323.961
 246.785 323.516 245.191 317.754 245.191 c 198.762 245.191 l 192.977 245.191
 192.723 247.488 193.785 251.016 c 197.207 262.266 210.137 270.641 225.59
 270.641 c h
225.59 270.641 m f*
0.470588 0.760784 0.643137 rg
281.824 114.379 m 282.566 114.211 l 285.227 113.633 288.031 113.379 290.922
 113.379 c 306.402 113.379 319.41 121.758 322.727 133.047 c 323.961 137.234
 323.516 138.809 317.754 138.809 c 299.555 138.809 l 305.316 138.809 305.762
 137.234 304.531 133.047 c 301.895 124.055 293.113 116.91 281.824 114.379
 c h
281.824 269.641 m 282.566 269.789 l 285.227 270.363 288.031 270.641 290.922
 270.641 c 306.402 270.641 319.41 262.242 322.727 250.977 c 323.961 246.785
 323.516 245.191 317.754 245.191 c 299.555 245.191 l 305.316 245.191 305.762
 246.785 304.531 250.977 c 301.895 259.945 293.113 267.09 281.824 269.641
 c h
281.824 269.641 m f*
0.756863 0.615686 0.556863 rg
11.461 5.633 m 68.371 5.633 l 71.582 5.633 74.199 8.25 74.199 11.461 c 
74.199 372.562 l 74.199 375.75 71.582 378.387 68.371 378.387 c 11.461 378.387
 l 8.25 378.387 5.633 375.75 5.633 372.562 c 5.633 11.461 l 5.633 8.25 8.25
 5.633 11.461 5.633 c h
11.461 5.633 m f*
0.717647 0.545098 0.478431 rg
50.176 5.633 m 68.371 5.633 l 71.582 5.633 74.199 8.25 74.199 11.461 c 
74.199 372.562 l 74.199 375.75 71.582 378.387 68.371 378.387 c 50.176 378.387
 l 53.383 378.387 56 375.75 56 372.562 c 56 11.461 l 56 8.25 53.383 5.633
 50.176 5.633 c h
50.176 5.633 m f*
0 g
324.215 198.652 m 342.438 219.363 l 344.477 221.68 344.242 225.25 341.926
 227.293 c 339.586 229.332 336.035 229.121 333.996 226.781 c 310.25 199.801
 l 310.25 223.082 l 310.25 226.188 307.719 228.695 304.613 228.695 c 301.512
 228.695 299.004 226.188 299.004 223.082 c 299.004 160.941 l 299.004 157.855
 301.531 155.285 304.637 155.305 c 321.156 155.305 l 327.258 155.305 332.91
 157.73 337.035 161.641 c 341.203 165.594 343.84 171.059 343.84 177.074 
c 343.84 183.113 341.203 188.578 337.035 192.531 c 333.613 195.785 329.129
 197.996 324.215 198.652 c h
68.586 11.246 m 11.246 11.246 l 11.246 179.266 l 11.246 182.371 8.738 184.898
 5.633 184.898 c 2.531 184.898 0 182.371 0 179.266 c 0 5.633 l 0 2.531 2.531
 0 5.633 0 c 74.199 0 l 77.301 0 79.832 2.531 79.832 5.633 c 79.832 140.871
 l 143.336 140.871 l 149.652 126.711 158.516 113.914 169.336 103.09 c 192.086
 80.32 223.531 66.246 258.246 66.246 c 272.918 66.246 287.035 68.777 300.152
 73.41 c 313.734 78.215 326.258 85.297 337.227 94.184 c 339.652 96.117 340.035
 99.648 338.098 102.07 c 336.145 104.473 332.613 104.855 330.211 102.922
 c 320.199 94.82 308.781 88.379 296.41 84 c 284.504 79.789 271.66 77.492
 258.246 77.492 c 226.633 77.492 198.016 90.312 177.289 111.043 c 156.582
 131.77 143.762 160.387 143.762 192 c 143.762 205.395 146.035 218.234 150.266
 230.164 c 154.625 242.535 161.066 253.953 169.168 263.945 c 171.121 266.367
 170.719 269.898 168.316 271.852 c 165.891 273.789 162.363 273.406 160.43
 270.98 c 153.582 262.543 147.82 253.188 143.355 243.129 c 79.832 243.129
 l 79.832 378.387 l 79.832 381.492 77.301 384 74.199 384 c 5.633 384 l 2.531
 384 0 381.492 0 378.387 c 0 204.734 l 0 201.629 2.531 199.121 5.633 199.121
 c 8.738 199.121 11.246 201.629 11.246 204.734 c 11.246 372.754 l 68.586
 372.754 l 68.586 245.789 68.586 138.234 68.586 11.246 c h
133.789 173.973 m 79.832 173.973 l 79.832 210.051 l 133.789 210.051 l 132.941
 204.141 132.516 198.121 132.516 192 c 132.516 185.875 132.941 179.859 133.789
 173.973 c h
138.957 152.137 m 79.832 152.137 l 79.832 162.723 l 135.938 162.723 l 136.789
 159.133 137.809 155.602 138.957 152.137 c h
135.938 221.297 m 79.832 221.297 l 79.832 231.883 l 138.977 231.883 l 137.809
 228.418 136.809 224.891 135.938 221.297 c h
225.59 265.008 m 227.738 265.008 229.824 264.836 231.797 264.477 c 233.859
 264.113 235.816 263.605 237.645 262.922 c 240.559 261.859 243.77 263.348
 244.852 266.262 c 245.109 266.984 245.215 267.73 245.172 268.453 c 245.34
 273.105 246.934 277.23 249.465 280.23 c 251.785 282.973 254.887 284.672
 258.246 284.672 c 261.629 284.672 264.73 282.973 267.047 280.23 c 269.641
 277.168 271.258 272.895 271.34 268.113 c 271.383 265.008 273.934 262.543
 277.02 262.586 c 277.656 262.605 278.293 262.711 278.867 262.922 c 280.695
 263.605 282.652 264.113 284.715 264.477 c 286.691 264.836 288.777 265.008
 290.922 265.008 c 298.66 265.008 305.613 262.625 310.566 258.777 c 313.414
 256.547 315.605 253.824 316.816 250.828 c 199.695 250.828 l 200.906 253.824
 203.098 256.547 205.945 258.777 c 210.898 262.625 217.852 265.008 225.59
 265.008 c h
225.59 276.254 m 215.301 276.254 205.926 272.957 199.059 267.602 c 191.789
 261.945 187.301 254.035 187.301 245.191 c 187.301 242.09 189.832 239.578
 192.934 239.578 c 323.578 239.578 l 326.684 239.578 329.191 242.09 329.191
 245.191 c 329.191 254.035 324.703 261.945 317.457 267.602 c 310.59 272.957
 301.191 276.254 290.922 276.254 c 287.82 276.254 284.691 275.957 281.652
 275.34 c 280.547 279.996 278.422 284.141 275.617 287.48 c 271.215 292.688
 265.07 295.918 258.246 295.918 c 251.422 295.918 245.297 292.688 240.898
 287.48 c 238.07 284.141 235.965 279.996 234.859 275.34 c 231.82 275.957
 228.695 276.254 225.59 276.254 c h
225.59 107.746 m 228.695 107.746 231.82 108.043 234.859 108.66 c 235.965
 104.027 238.07 99.859 240.898 96.543 c 245.297 91.312 251.422 88.102 258.246
 88.102 c 265.07 88.102 271.215 91.312 275.617 96.543 c 278.422 99.859 280.547
 104.027 281.652 108.66 c 284.695 108.043 287.82 107.746 290.922 107.746
 c 301.191 107.746 310.59 111.062 317.457 116.398 c 324.703 122.055 329.191
 129.965 329.191 138.809 c 329.191 141.91 326.684 144.441 323.578 144.441
 c 192.934 144.441 l 189.832 144.441 187.301 141.91 187.301 138.809 c 187.301
 129.965 191.785 122.055 199.059 116.398 c 205.926 111.062 215.301 107.746
 225.59 107.746 c h
225.59 118.992 m 217.852 118.992 210.898 121.395 205.945 125.242 c 203.098
 127.477 200.906 130.176 199.695 133.172 c 316.816 133.195 l 315.605 130.176
 313.418 127.477 310.566 125.242 c 305.613 121.395 298.66 118.992 290.922
 118.992 c 288.777 118.992 286.691 119.184 284.715 119.523 c 282.504 119.906
 279.02 121.395 277.02 121.414 c 273.938 121.457 271.387 118.992 271.344
 115.91 c 271.258 111.125 269.641 106.832 267.051 103.789 c 264.73 101.047
 261.629 99.348 258.246 99.348 c 254.891 99.348 251.785 101.047 249.469 
103.789 c 246.938 106.77 245.344 110.914 245.172 115.547 c 245.215 116.27
 245.109 117.016 244.855 117.758 c 243.77 120.648 240.559 122.16 237.648
 121.098 c 233.797 119.672 229.695 118.992 225.59 118.992 c h
347.348 120.055 m 345.391 117.633 345.773 114.102 348.199 112.168 c 350.621
 110.234 354.152 110.617 356.086 113.02 c 364.973 124.012 372.051 136.531
 376.855 150.117 c 381.492 163.234 384 177.332 384 192 c 384 226.738 369.926
 258.16 347.176 280.93 c 324.43 303.68 292.984 317.754 258.246 317.754 c
 243.598 317.754 229.48 315.223 216.363 310.59 c 202.777 305.785 190.258
 298.727 179.266 289.84 c 176.863 287.883 176.48 284.352 178.414 281.949
 c 180.348 279.527 183.898 279.145 186.301 281.078 c 196.316 289.18 207.73
 295.621 220.105 300 c 232.012 304.211 244.852 306.508 258.246 306.508 c
 289.883 306.508 318.496 293.688 339.227 272.98 c 359.934 252.25 372.754
 223.613 372.754 192 c 372.754 178.605 370.457 165.766 366.246 153.859 c
 361.891 141.465 355.426 130.07 347.348 120.055 c h
240.07 225.082 m 238.965 227.973 235.711 229.418 232.82 228.332 c 229.906
 227.227 228.461 223.977 229.566 221.062 c 252.891 159.812 l 253.91 157.113
 256.59 155.324 259.438 155.324 c 262.305 155.324 264.984 157.133 266.008
 159.832 c 289.117 221.105 l 290.203 223.996 288.754 227.227 285.844 228.332
 c 282.953 229.414 279.699 227.949 278.613 225.059 c 274.234 213.43 l 244.492
 213.43 l h
259.438 174.203 m 248.785 202.184 l 269.98 202.184 l h
221.848 206.266 m 221.848 212.453 219.34 218.023 215.301 222.082 c 211.262
 226.121 205.672 228.629 199.504 228.629 c 189.895 228.629 178.352 228.672
 178.332 228.672 c 175.246 228.695 172.656 226.164 172.676 223.082 c 172.676
 202.355 172.676 181.645 172.676 160.941 c 172.676 157.836 175.207 155.305
 178.309 155.305 c 196.359 155.305 l 201.844 155.305 206.84 157.539 210.434
 161.152 c 214.047 164.746 216.281 169.742 216.281 175.227 c 216.281 179.945
 214.641 184.262 211.898 187.684 c 213.133 188.492 214.262 189.43 215.301
 190.469 c 219.34 194.508 221.848 200.102 221.848 206.266 c h
183.922 183.922 m 188.066 183.922 192.215 183.902 196.359 183.902 c 198.738
 183.902 200.91 182.945 202.48 181.371 c 204.055 179.797 205.031 177.629
 205.031 175.227 c 205.031 172.848 204.055 170.676 202.48 169.105 c 200.906
 167.531 198.738 166.555 196.359 166.555 c 183.922 166.555 l h
207.348 214.133 m 209.371 212.113 210.602 209.348 210.602 206.266 c 210.602
 203.203 209.371 200.441 207.348 198.422 c 205.352 196.422 202.566 195.168
 199.504 195.168 c 183.922 195.188 l 183.922 217.449 l 199.504 217.363 l
 202.566 217.363 205.352 216.129 207.348 214.133 c h
329.34 184.391 m 331.34 182.52 332.594 179.926 332.594 177.074 c 332.594
 174.246 331.34 171.652 329.34 169.785 c 327.258 167.785 324.344 166.551
 321.156 166.551 c 310.27 166.551 l 310.289 170.695 310.312 175.82 310.312
 177.074 c 310.312 180.883 310.312 184.688 310.332 187.664 c 314.758 187.641
 320.324 187.602 321.156 187.602 c 324.344 187.598 327.258 186.387 329.34
 184.391 c h
329.34 184.391 m f
Q Q
showpage
%%Trailer
end
%%EOF
