%!PS-Adobe-3.0 EPSF-3.0
%%Creator: cairo 1.16.0 (https://cairographics.org)
%%CreationDate: Thu Dec 10 07:54:46 2020
%%Pages: 1
%%DocumentData: Clean7Bit
%%LanguageLevel: 2
%%BoundingBox: 7 0 377 384
%%EndComments
%%BeginProlog
50 dict begin
/q { gsave } bind def
/Q { grestore } bind def
/cm { 6 array astore concat } bind def
/w { setlinewidth } bind def
/J { setlinecap } bind def
/j { setlinejoin } bind def
/M { setmiterlimit } bind def
/d { setdash } bind def
/m { moveto } bind def
/l { lineto } bind def
/c { curveto } bind def
/h { closepath } bind def
/re { exch dup neg 3 1 roll 5 3 roll moveto 0 rlineto
      0 exch rlineto 0 rlineto closepath } bind def
/S { stroke } bind def
/f { fill } bind def
/f* { eofill } bind def
/n { newpath } bind def
/W { clip } bind def
/W* { eoclip } bind def
/BT { } bind def
/ET { } bind def
/BDC { mark 3 1 roll /BDC pdfmark } bind def
/EMC { mark /EMC pdfmark } bind def
/cairo_store_point { /cairo_point_y exch def /cairo_point_x exch def } def
/Tj { show currentpoint cairo_store_point } bind def
/TJ {
  {
    dup
    type /stringtype eq
    { show } { -0.001 mul 0 cairo_font_matrix dtransform rmoveto } ifelse
  } forall
  currentpoint cairo_store_point
} bind def
/cairo_selectfont { cairo_font_matrix aload pop pop pop 0 0 6 array astore
    cairo_font exch selectfont cairo_point_x cairo_point_y moveto } bind def
/Tf { pop /cairo_font exch def /cairo_font_matrix where
      { pop cairo_selectfont } if } bind def
/Td { matrix translate cairo_font_matrix matrix concatmatrix dup
      /cairo_font_matrix exch def dup 4 get exch 5 get cairo_store_point
      /cairo_font where { pop cairo_selectfont } if } bind def
/Tm { 2 copy 8 2 roll 6 array astore /cairo_font_matrix exch def
      cairo_store_point /cairo_font where { pop cairo_selectfont } if } bind def
/g { setgray } bind def
/rg { setrgbcolor } bind def
/d1 { setcachedevice } bind def
/cairo_data_source {
  CairoDataIndex CairoData length lt
    { CairoData CairoDataIndex get /CairoDataIndex CairoDataIndex 1 add def }
    { () } ifelse
} def
/cairo_flush_ascii85_file { cairo_ascii85_file status { cairo_ascii85_file flushfile } if } def
/cairo_image { image cairo_flush_ascii85_file } def
/cairo_imagemask { imagemask cairo_flush_ascii85_file } def
%%EndProlog
%%BeginSetup
%%EndSetup
%%Page: 1 1
%%BeginPageSetup
%%PageBoundingBox: 7 0 377 384
%%EndPageSetup
q 7 0 370 384 rectclip
1 0 0 -1 0 384 cm q
0.745098 0.847059 0.984314 rg
19.273 124.223 m 15.273 124.223 13.445 125.988 13.445 130.047 c 13.445 
206.82 l 13.445 226.695 29.539 242.812 49.418 242.812 c 107.609 241.602 
l 107.609 124.223 l h
19.273 124.223 m f*
0.615686 0.776471 0.984314 rg
41.02 241.812 m 43.273 242.344 45.59 242.684 47.996 242.77 c 50.93 242.77
 l 107.609 241.602 l 107.609 124.223 l 68.723 124.223 l 68.723 206.777 l
 68.723 223.805 56.902 238.07 41.02 241.812 c h
41.02 241.812 m f*
0.866667 0.917647 0.984314 rg
168.305 242.812 m 49.418 242.812 l 69.297 242.812 85.414 226.695 85.414
 206.82 c 85.414 41.605 l 85.414 21.727 101.527 5.633 121.406 5.633 c 157.398
 6.121 l h
168.305 242.812 m f*
0.796078 0.886275 1 rg
168.305 242.812 m 139.18 242.812 l 139.18 41.605 l 139.18 24.875 127.762
 10.82 112.285 6.781 c 115.199 6.039 118.258 5.633 121.406 5.633 c 157.398
 6.121 l h
168.305 242.812 m f*
0.960784 0.980392 1 rg
370.574 372.562 m 370.574 41.605 l 370.574 21.727 354.461 5.633 334.582
 5.633 c 121.406 5.633 l 141.262 5.633 157.379 21.727 157.379 41.605 c 157.379
 372.562 l 157.379 376.539 159.332 377.492 162.672 375.965 c 178.723 368.629
 l 182.188 367.055 185.844 367.035 189.332 368.629 c 205.383 375.965 l 209.039
 377.645 212.57 377.516 215.973 375.965 c 232.023 368.629 l 235.594 366.992
 239.293 367.098 242.633 368.629 c 258.684 375.965 l 262.297 377.621 265.91
 377.492 269.27 375.965 c 285.32 368.629 l 289.062 366.906 292.465 367.055
 295.93 368.629 c 311.961 375.965 l 315.766 377.707 319.254 377.473 322.57
 375.965 c 338.621 368.629 l 342.152 367.012 345.809 367.078 349.211 368.629
 c 365.258 375.965 l 369.148 377.727 370.574 376.645 370.574 372.562 c h
370.574 372.562 m f*
0.92549 0.956863 1 rg
370.574 372.562 m 370.574 41.605 l 370.574 21.727 354.461 5.633 334.582
 5.633 c 316.383 5.633 l 336.258 5.633 352.355 21.727 352.355 41.605 c 352.355
 370.074 l 365.258 375.965 l 369.148 377.727 370.574 376.645 370.574 372.562
 c h
370.574 372.562 m f*
0.466667 0.788235 0.647059 rg
194.73 291.984 m 215.844 291.984 l 219.055 291.984 221.668 294.602 221.668
 297.812 c 221.668 318.922 l 221.668 322.133 219.055 324.746 215.844 324.746
 c 194.73 324.746 l 191.523 324.746 188.906 322.133 188.906 318.922 c 188.906
 297.812 l 188.906 294.602 191.523 291.984 194.73 291.984 c h
194.73 175.504 m 215.844 175.504 l 219.055 175.504 221.668 178.117 221.668
 181.328 c 221.668 202.438 l 221.668 205.629 219.055 208.266 215.844 208.266
 c 194.73 208.266 l 191.523 208.266 188.906 205.625 188.906 202.438 c 188.906
 181.328 l 188.906 178.117 191.523 175.504 194.73 175.504 c h
194.73 233.734 m 215.844 233.734 l 219.055 233.734 221.668 236.371 221.668
 239.559 c 221.668 260.672 l 221.668 263.879 219.055 266.496 215.844 266.496
 c 194.73 266.496 l 191.523 266.496 188.906 263.879 188.906 260.672 c 188.906
 239.559 l 188.906 236.371 191.523 233.734 194.73 233.734 c h
194.73 233.734 m f*
0 g
151.766 320.922 m 151.766 317.816 154.273 315.289 157.379 315.289 c 160.48
 315.289 163.012 317.816 163.012 320.922 c 163.012 369.648 l 181.699 361.102
 l 183.23 360.402 184.93 360.465 186.355 361.102 c 210.676 372.223 l 235
 361.102 l 236.527 360.402 238.23 360.465 239.652 361.102 c 263.977 372.223
 l 288.297 361.102 l 289.828 360.402 291.531 360.465 292.953 361.102 c 317.273
 372.223 l 341.598 361.102 l 343.129 360.402 344.828 360.465 346.254 361.102
 c 364.941 369.648 l 364.941 41.605 l 364.941 33.23 361.539 25.641 356.055
 20.152 c 350.547 14.648 342.957 11.246 334.582 11.246 c 149.852 11.246 
l 158.27 19.156 163.012 30.062 163.012 41.605 c 163.012 295.43 l 163.012
 298.535 160.48 301.062 157.379 301.062 c 154.273 301.062 151.766 298.535
 151.766 295.43 c 151.766 248.426 l 49.418 248.426 l 37.938 248.426 27.543
 243.77 19.996 236.242 c 12.469 228.715 7.812 218.297 7.812 206.82 c 7.812
 178.266 l 7.812 175.141 10.344 172.633 13.449 172.633 c 16.551 172.633 
19.059 175.141 19.059 178.266 c 19.059 206.82 l 19.059 215.195 22.461 222.785
 27.969 228.293 c 33.453 233.777 41.043 237.18 49.418 237.18 c 57.816 237.18
 65.406 233.777 70.891 228.293 c 76.379 222.785 79.777 215.195 79.777 206.82
 c 79.777 129.836 l 19.059 129.836 l 19.059 152.773 l 19.059 155.879 16.551
 158.41 13.449 158.41 c 10.344 158.41 7.812 155.879 7.812 152.773 c 7.812
 124.223 l 7.812 121.098 10.344 118.59 13.449 118.59 c 79.777 118.59 l 79.777
 86.785 l 79.777 83.68 82.309 81.148 85.414 81.148 c 88.516 81.148 91.027
 83.68 91.027 86.785 c 91.027 206.82 l 91.027 218.297 86.371 228.715 78.844
 236.242 c 78.523 236.562 78.207 236.859 77.887 237.18 c 151.766 237.18 
l 151.766 41.605 l 151.766 33.23 148.363 25.641 142.859 20.152 c 137.371
 14.648 129.781 11.246 121.406 11.246 c 113.008 11.246 105.418 14.648 99.934
 20.152 c 94.426 25.641 91.027 33.23 91.027 41.605 c 91.027 61.293 l 91.027
 64.418 88.516 66.93 85.414 66.93 c 82.309 66.93 79.777 64.418 79.777 61.293
 c 79.777 41.605 l 79.777 30.125 84.434 19.73 91.98 12.184 c 99.508 4.656
 109.902 0 121.406 0 c 334.582 0 l 346.062 0 356.477 4.656 364.004 12.184
 c 371.531 19.73 376.188 30.125 376.188 41.605 c 376.188 378.387 l 376.188
 382.383 371.957 385.168 368.234 383.488 c 343.914 372.371 l 319.594 383.469
 l 318.168 384.129 316.488 384.191 314.938 383.488 c 290.613 372.371 l 266.316
 383.469 l 264.867 384.129 263.188 384.191 261.637 383.488 c 237.316 372.371
 l 213.016 383.469 l 211.59 384.129 209.891 384.191 208.34 383.488 c 184.039
 372.371 l 160.164 383.277 l 159.332 383.746 158.398 384 157.379 384 c 154.273
 384 151.766 381.492 151.766 378.387 c h
188.906 286.352 m 221.668 286.352 l 224.773 286.352 227.281 288.883 227.281
 291.988 c 227.281 324.75 l 227.281 327.852 224.773 330.359 221.668 330.359
 c 188.906 330.359 l 185.801 330.359 183.273 327.852 183.273 324.75 c 183.273
 291.988 l 183.273 288.883 185.805 286.352 188.906 286.352 c h
216.035 297.598 m 194.52 297.598 l 194.52 319.113 l 216.035 319.113 l h
188.906 228.121 m 221.668 228.121 l 224.773 228.121 227.281 230.629 227.281
 233.734 c 227.281 266.496 l 227.281 269.598 224.773 272.129 221.668 272.129
 c 188.906 272.129 l 185.801 272.129 183.273 269.598 183.273 266.496 c 183.273
 233.734 l 183.273 230.629 185.805 228.121 188.906 228.121 c h
216.035 239.367 m 194.52 239.367 l 194.52 260.883 l 216.035 260.883 l h
188.906 169.867 m 221.668 169.867 l 224.773 169.867 227.281 172.398 227.281
 175.504 c 227.281 208.266 l 227.281 211.367 224.773 213.875 221.668 213.875
 c 188.906 213.875 l 185.801 213.875 183.273 211.367 183.273 208.266 c 183.273
 175.504 l 183.273 172.398 185.805 169.867 188.906 169.867 c h
216.035 181.113 m 194.52 181.113 l 194.52 202.629 l 216.035 202.629 l h
243.227 324.176 m 240.121 324.176 237.613 321.664 237.613 318.562 c 237.613
 315.457 240.121 312.926 243.227 312.926 c 325.332 312.926 l 328.438 312.926
 330.965 315.457 330.965 318.562 c 330.965 321.664 328.438 324.176 325.332
 324.176 c h
243.227 303.809 m 240.121 303.809 237.613 301.277 237.613 298.172 c 237.613
 295.07 240.121 292.539 243.227 292.539 c 343.531 292.539 l 346.637 292.539
 349.164 295.07 349.164 298.172 c 349.164 301.277 346.637 303.809 343.531
 303.809 c h
243.227 265.941 m 240.121 265.941 237.613 263.414 237.613 260.309 c 237.613
 257.203 240.121 254.695 243.227 254.695 c 325.332 254.695 l 328.438 254.695
 330.965 257.203 330.965 260.309 c 330.965 263.414 328.438 265.941 325.332
 265.941 c h
243.227 245.555 m 240.121 245.555 237.613 243.047 237.613 239.918 c 237.613
 236.816 240.121 234.309 243.227 234.309 c 343.531 234.309 l 346.637 234.309
 349.164 236.816 349.164 239.918 c 349.164 243.047 346.637 245.555 343.531
 245.555 c h
243.227 207.691 m 240.121 207.691 237.613 205.18 237.613 202.078 c 237.613
 198.973 240.121 196.441 243.227 196.441 c 325.332 196.441 l 328.438 196.441
 330.965 198.973 330.965 202.078 c 330.965 205.18 328.438 207.691 325.332
 207.691 c h
243.227 187.301 m 240.121 187.301 237.613 184.793 237.613 181.688 c 237.613
 178.586 240.121 176.055 243.227 176.055 c 343.531 176.055 l 346.637 176.055
 349.164 178.586 349.164 181.688 c 349.164 184.793 346.637 187.301 343.531
 187.301 c h
258.449 30.062 m 258.449 26.957 260.957 24.449 264.082 24.449 c 267.188
 24.449 269.695 26.957 269.695 30.062 c 269.695 36.418 l 279.539 37.781 
285.512 43.285 285.535 43.309 c 287.852 45.371 288.043 48.922 285.961 51.238
 c 283.875 53.535 280.324 53.727 278.031 51.664 c 278.008 51.641 274.988
 48.855 269.695 47.773 c 269.695 77.641 l 271.504 78.344 273.418 79.023 
275.414 79.746 c 284.387 82.914 289.809 88.973 292.188 95.969 c 293.719 
100.434 293.953 105.238 293.082 109.852 c 292.211 114.422 290.23 118.844
 287.32 122.629 c 283.195 127.965 277.18 132.047 269.695 133.449 c 269.695
 140.996 l 269.695 144.102 267.188 146.609 264.082 146.609 c 260.957 146.609
 258.449 144.102 258.449 140.996 c 258.449 133.898 l 255.727 133.77 253.305
 133.473 250.879 132.875 c 246.797 131.879 243.016 130.09 238.188 126.945
 c 235.594 125.242 234.871 121.758 236.574 119.164 c 238.273 116.57 241.762
 115.848 244.355 117.547 c 248.074 119.973 250.816 121.312 253.582 121.992
 c 255.07 122.352 256.641 122.566 258.449 122.672 c 258.449 85.191 l 253.984
 83.211 249.5 80.895 245.652 77.875 c 242.441 75.348 240.293 71.965 239.145
 68.184 c 238.039 64.527 237.891 60.484 238.676 56.551 c 239.441 52.66 241.188
 48.77 243.652 45.648 c 246.5 42.012 250.414 39.098 255.344 37.629 c 256.406
 37.312 257.43 37.035 258.449 36.844 c h
269.695 89.609 m 269.695 121.906 l 273.352 120.758 276.309 118.547 278.453
 115.762 c 280.281 113.402 281.492 110.637 282.047 107.789 c 282.578 105.004
 282.43 102.176 281.559 99.582 c 279.539 93.691 275.074 91.566 269.695 89.609
 c h
258.449 72.754 m 258.449 48.43 l 255.961 49.195 253.961 50.707 252.477 
52.574 c 251.051 54.383 250.156 56.465 249.711 58.719 c 249.285 60.891 249.328
 63.055 249.926 64.992 c 250.414 66.629 251.285 68.055 252.539 69.031 c 
254.176 70.309 256.133 71.539 258.449 72.754 c h
258.449 72.754 m f
Q Q
showpage
%%Trailer
end
%%EOF
