%!PS-Adobe-3.0 EPSF-3.0
%%Creator: cairo 1.16.0 (https://cairographics.org)
%%CreationDate: Thu Dec 10 07:54:47 2020
%%Pages: 1
%%DocumentData: Clean7Bit
%%LanguageLevel: 2
%%BoundingBox: 0 13 384 371
%%EndComments
%%BeginProlog
50 dict begin
/q { gsave } bind def
/Q { grestore } bind def
/cm { 6 array astore concat } bind def
/w { setlinewidth } bind def
/J { setlinecap } bind def
/j { setlinejoin } bind def
/M { setmiterlimit } bind def
/d { setdash } bind def
/m { moveto } bind def
/l { lineto } bind def
/c { curveto } bind def
/h { closepath } bind def
/re { exch dup neg 3 1 roll 5 3 roll moveto 0 rlineto
      0 exch rlineto 0 rlineto closepath } bind def
/S { stroke } bind def
/f { fill } bind def
/f* { eofill } bind def
/n { newpath } bind def
/W { clip } bind def
/W* { eoclip } bind def
/BT { } bind def
/ET { } bind def
/BDC { mark 3 1 roll /BDC pdfmark } bind def
/EMC { mark /EMC pdfmark } bind def
/cairo_store_point { /cairo_point_y exch def /cairo_point_x exch def } def
/Tj { show currentpoint cairo_store_point } bind def
/TJ {
  {
    dup
    type /stringtype eq
    { show } { -0.001 mul 0 cairo_font_matrix dtransform rmoveto } ifelse
  } forall
  currentpoint cairo_store_point
} bind def
/cairo_selectfont { cairo_font_matrix aload pop pop pop 0 0 6 array astore
    cairo_font exch selectfont cairo_point_x cairo_point_y moveto } bind def
/Tf { pop /cairo_font exch def /cairo_font_matrix where
      { pop cairo_selectfont } if } bind def
/Td { matrix translate cairo_font_matrix matrix concatmatrix dup
      /cairo_font_matrix exch def dup 4 get exch 5 get cairo_store_point
      /cairo_font where { pop cairo_selectfont } if } bind def
/Tm { 2 copy 8 2 roll 6 array astore /cairo_font_matrix exch def
      cairo_store_point /cairo_font where { pop cairo_selectfont } if } bind def
/g { setgray } bind def
/rg { setrgbcolor } bind def
/d1 { setcachedevice } bind def
/cairo_data_source {
  CairoDataIndex CairoData length lt
    { CairoData CairoDataIndex get /CairoDataIndex CairoDataIndex 1 add def }
    { () } ifelse
} def
/cairo_flush_ascii85_file { cairo_ascii85_file status { cairo_ascii85_file flushfile } if } def
/cairo_image { image cairo_flush_ascii85_file } def
/cairo_imagemask { imagemask cairo_flush_ascii85_file } def
%%EndProlog
%%BeginSetup
%%EndSetup
%%Page: 1 1
%%BeginPageSetup
%%PageBoundingBox: 0 13 384 371
%%EndPageSetup
q 0 13 384 358 rectclip
1 0 0 -1 0 384 cm q
0.717647 0.545098 0.478431 rg
355.641 184.008 m 28.383 184.008 l 28.383 359.273 l 28.383 362.484 30.996
 365.102 34.207 365.102 c 349.812 365.102 l 353.004 365.102 355.641 362.484
 355.641 359.273 c 355.641 300.852 355.641 242.43 355.641 184.008 c h
355.641 184.008 m f*
0.666667 0.478431 0.388235 rg
355.641 184.008 m 337.441 184.008 l 337.441 359.273 l 337.441 362.484 334.805
 365.102 331.613 365.102 c 349.812 365.102 l 353.004 365.102 355.641 362.484
 355.641 359.273 c 355.641 300.852 355.641 242.43 355.641 184.008 c h
355.641 184.008 m f*
0.92549 0.956863 1 rg
66.5 90.293 m 95.543 90.293 l 98.754 90.293 101.367 92.93 101.367 96.117
 c 101.367 166.168 l 101.367 169.359 98.754 171.996 95.543 171.996 c 66.5
 171.996 l 63.289 171.996 60.676 169.359 60.676 166.168 c 60.676 96.117 
l 60.676 92.93 63.289 90.293 66.5 90.293 c h
66.5 90.293 m f*
275.574 90.293 m 304.613 90.293 l 307.824 90.293 310.441 92.93 310.441 
96.117 c 310.441 166.168 l 310.441 169.359 307.824 171.996 304.613 171.996
 c 275.574 171.996 l 272.363 171.996 269.75 169.359 269.75 166.168 c 269.75
 96.117 l 269.75 92.93 272.363 90.293 275.574 90.293 c h
275.574 90.293 m f*
0.211765 0.368627 0.490196 rg
192 18.922 m 198.016 18.922 202.926 23.832 202.926 29.828 c 202.926 126.945
 l 181.094 126.945 l 181.094 29.828 l 181.094 23.832 186.004 18.922 192 
18.922 c h
192 18.922 m f*
0.992157 0.701961 0.262745 rg
192 94.352 m 204.82 94.352 215.258 83.914 215.258 71.117 c 215.258 58.297
 204.82 47.855 192 47.855 c 179.203 47.855 168.762 58.297 168.762 71.117
 c 168.762 83.914 179.203 94.352 192 94.352 c h
192 94.352 m f*
0.905882 0.647059 0.180392 rg
192 47.855 m 204.84 47.855 215.258 58.273 215.258 71.117 c 215.258 83.957
 204.84 94.352 192 94.352 c 188.77 94.352 185.707 93.691 182.902 92.504 
c 191.215 88.973 197.059 80.727 197.059 71.117 c 197.059 61.484 191.215 
53.234 182.902 49.707 c 185.707 48.516 188.77 47.855 192 47.855 c h
192 47.855 m f*
0.501961 0.705882 0.984314 rg
192 121.566 m 211.367 121.566 227.078 137.277 227.078 156.645 c 194.02 
163.914 l 156.922 156.645 l 156.922 137.277 172.633 121.566 192 121.566 
c h
192 121.566 m f*
0.866667 0.776471 0.745098 rg
372.562 196.891 m 11.457 196.891 l 8.25 196.891 5.633 194.277 5.633 191.066
 c 5.633 162.469 l 5.633 159.258 8.246 156.645 11.457 156.645 c 372.562 
156.645 l 375.75 156.645 378.387 159.258 378.387 162.469 c 378.387 191.066
 l 378.387 194.273 375.75 196.891 372.562 196.891 c h
372.562 196.891 m f*
0.807843 0.694118 0.647059 rg
372.562 196.891 m 354.363 196.891 l 357.555 196.891 360.188 194.277 360.188
 191.066 c 360.188 162.469 l 360.188 159.258 357.555 156.645 354.363 156.645
 c 372.562 156.645 l 375.75 156.645 378.387 159.258 378.387 162.469 c 378.387
 191.066 l 378.387 194.273 375.75 196.891 372.562 196.891 c h
372.562 196.891 m f*
0.92549 0.764706 0.45098 rg
0.17025 w
0 J
0 j
[] 0.0 d
10 M q 1 0 0 1 0 0 cm
372.562 196.891 m 354.363 196.891 l 357.555 196.891 360.188 194.277 360.188
 191.066 c 360.188 162.469 l 360.188 159.258 357.555 156.645 354.363 156.645
 c 372.562 156.645 l 375.75 156.645 378.387 159.258 378.387 162.469 c 378.387
 191.066 l 378.387 194.273 375.75 196.891 372.562 196.891 c h
372.562 196.891 m S Q
0.992157 0.701961 0.262745 rg
60.676 116.355 40.691 40.289 re f*
269.75 131.812 40.691 24.832 re f*
0.380392 0.635294 0.976471 rg
192 121.566 m 211.367 121.566 227.078 137.277 227.078 156.645 c 208.883
 156.645 l 208.883 140.422 197.867 126.773 182.902 122.758 c 185.812 121.992
 188.855 121.566 192 121.566 c h
192 121.566 m f*
0.854902 0.290196 0.329412 rg
238.41 228.184 m 316.008 228.184 l 319.219 228.184 321.836 230.801 321.836
 234.012 c 321.836 252.102 l 321.836 255.312 319.219 257.926 316.008 257.926
 c 238.41 257.926 l 235.199 257.926 232.586 255.312 232.586 252.102 c 232.586
 234.012 l 232.586 230.801 235.199 228.184 238.41 228.184 c h
67.988 228.184 m 145.59 228.184 l 148.801 228.184 151.414 230.801 151.414
 234.012 c 151.414 252.102 l 151.414 255.312 148.801 257.926 145.59 257.926
 c 67.988 257.926 l 64.801 257.926 62.164 255.312 62.164 252.102 c 62.164
 234.012 l 62.164 230.801 64.801 228.184 67.988 228.184 c h
67.988 228.184 m f*
0.847059 0.180392 0.239216 rg
297.812 228.184 m 316.008 228.184 l 319.219 228.184 321.836 230.801 321.836
 234.012 c 321.836 252.102 l 321.836 255.312 319.219 257.926 316.008 257.926
 c 297.812 257.926 l 301.023 257.926 303.637 255.312 303.637 252.102 c 303.637
 234.012 l 303.637 230.801 301.023 228.184 297.812 228.184 c h
127.391 228.184 m 145.59 228.184 l 148.801 228.184 151.414 230.801 151.414
 234.012 c 151.414 252.102 l 151.414 255.312 148.801 257.926 145.59 257.926
 c 127.391 257.926 l 130.602 257.926 133.215 255.312 133.215 252.102 c 133.215
 234.012 l 133.215 230.801 130.602 228.184 127.391 228.184 c h
127.391 228.184 m f*
0 g
361.25 215.09 m 361.25 218.191 358.742 220.723 355.641 220.723 c 352.535
 220.723 350.004 218.191 350.004 215.09 c 350.004 202.523 l 33.996 202.523
 l 33.996 321.41 l 33.996 324.516 31.484 327.047 28.383 327.047 c 25.277
 327.047 22.75 324.516 22.75 321.41 c 22.75 202.523 l 5.633 202.523 l 2.531
 202.523 0 199.992 0 196.891 c 0 156.645 l 0 153.539 2.531 151.012 5.633
 151.012 c 55.043 151.012 l 55.043 90.293 l 55.043 87.188 57.57 84.68 60.676
 84.68 c 101.367 84.68 l 104.473 84.68 107.004 87.188 107.004 90.293 c 107.004
 101.176 l 126.391 101.176 l 129.496 101.176 132.027 103.688 132.027 106.789
 c 132.027 131.812 l 132.027 134.918 129.496 137.426 126.391 137.426 c 107.004
 137.426 l 107.004 151.012 l 151.691 151.012 l 152.926 142.02 157.113 133.98
 163.215 127.859 c 166.723 124.352 170.867 121.48 175.461 119.438 c 175.461
 94.777 l 174.078 93.801 172.781 92.715 171.59 91.523 c 166.359 86.297 163.129
 79.086 163.129 71.117 c 163.129 63.141 166.359 55.914 171.59 50.684 c 172.781
 49.492 174.078 48.41 175.461 47.43 c 175.461 29.828 l 175.461 25.277 177.309
 21.133 180.309 18.156 c 183.305 15.16 187.449 13.289 192 13.289 c 196.551
 13.289 200.695 15.16 203.691 18.156 c 206.691 21.133 208.539 25.277 208.539
 29.828 c 208.539 47.43 l 209.945 48.41 211.242 49.492 212.43 50.684 c 217.641
 55.914 220.871 63.141 220.871 71.117 c 220.871 79.09 217.641 86.297 212.43
 91.523 c 211.242 92.715 209.945 93.801 208.539 94.777 c 208.539 119.438
 l 213.133 121.48 217.277 124.352 220.785 127.859 c 226.91 133.98 231.074
 142.016 232.332 151.012 c 264.113 151.012 l 264.113 90.293 l 264.113 87.188
 266.645 84.68 269.75 84.68 c 310.441 84.68 l 313.566 84.68 316.074 87.188
 316.074 90.293 c 316.074 101.176 l 335.465 101.176 l 338.566 101.176 341.098
 103.688 341.098 106.789 c 341.098 131.812 l 341.098 134.918 338.566 137.426
 335.465 137.426 c 316.074 137.426 l 316.074 151.012 l 378.387 151.012 l
 381.492 151.012 384 153.539 384 156.645 c 384 196.891 l 384 199.996 381.492
 202.523 378.387 202.523 c 361.25 202.523 l h
186.707 116.273 m 188.449 116.059 190.215 115.93 192 115.93 c 193.809 115.93
 195.57 116.059 197.293 116.273 c 197.293 99.496 l 195.594 99.816 193.809
 99.988 192 99.988 c 190.191 99.988 188.43 99.816 186.707 99.496 c h
197.293 42.711 m 197.293 29.828 l 197.293 28.383 196.699 27.066 195.742
 26.109 c 194.785 25.129 193.445 24.535 192 24.535 c 190.555 24.535 189.234
 25.129 188.281 26.109 c 187.301 27.066 186.707 28.383 186.707 29.828 c 
186.707 42.711 l 188.43 42.395 190.191 42.223 192 42.223 c 193.809 42.223
 195.594 42.395 197.293 42.711 c h
204.457 58.637 m 201.27 55.445 196.867 53.469 192 53.469 c 187.133 53.469
 182.73 55.445 179.543 58.637 c 176.352 61.824 174.375 66.246 174.375 71.113
 c 174.375 75.984 176.352 80.383 179.543 83.574 c 182.73 86.762 187.133 
88.738 192 88.738 c 196.867 88.738 201.27 86.762 204.457 83.574 c 207.668
 80.383 209.625 75.984 209.625 71.113 c 209.625 66.246 207.668 61.824 204.457
 58.637 c h
212.836 135.809 m 207.5 130.496 200.145 127.18 192 127.18 c 183.879 127.18
 176.5 130.496 171.188 135.809 c 167.105 139.891 164.234 145.145 163.086
 151.012 c 220.914 151.012 l 219.785 145.145 216.895 139.891 212.836 135.809
 c h
304.828 137.426 m 275.383 137.426 l 275.383 151.012 l 304.828 151.012 l
 h
275.383 126.18 m 304.828 126.18 l 304.828 95.926 l 275.383 95.926 l h
95.754 121.992 m 66.309 121.992 l 66.309 151.012 l 95.754 151.012 l h
66.309 110.742 m 95.754 110.742 l 95.754 95.926 l 66.309 95.926 l h
316.074 112.422 m 316.074 126.18 l 329.852 126.18 l 329.852 112.422 l h
107 112.422 m 107 126.18 l 120.758 126.18 l 120.758 112.422 l h
259.012 263.562 m 245.617 327.98 l 308.824 327.98 l 295.41 263.562 l h
306.867 263.562 m 313.523 295.539 320.18 327.492 326.832 359.465 c 350.004
 359.465 l 350.004 240.578 l 350.004 237.477 352.535 234.945 355.641 234.945
 c 358.742 234.945 361.25 237.477 361.25 240.578 c 361.25 365.102 l 361.25
 368.203 358.742 370.711 355.641 370.711 c 28.383 370.711 l 25.277 370.711
 22.75 368.203 22.75 365.102 c 22.75 346.902 l 22.75 343.797 25.277 341.266
 28.383 341.266 c 31.488 341.266 33.996 343.797 33.996 346.902 c 33.996 
359.465 l 57.168 359.465 l 63.82 327.492 70.477 295.535 77.152 263.562 c
 62.164 263.562 l 59.059 263.562 56.551 261.051 56.551 257.926 c 56.551 
228.184 l 56.551 225.082 59.062 222.57 62.164 222.57 c 94.055 222.57 l 97.16
 222.57 99.688 225.082 99.688 228.184 c 99.688 231.289 97.16 233.82 94.055
 233.82 c 67.797 233.82 l 67.797 252.316 l 145.801 252.316 l 145.801 233.82
 l 119.543 233.82 l 116.418 233.82 113.91 231.289 113.91 228.184 c 113.91
 225.082 116.418 222.57 119.543 222.57 c 151.414 222.57 l 154.52 222.57 
157.047 225.082 157.047 228.184 c 157.047 257.926 l 157.047 261.051 154.52
 263.562 151.414 263.562 c 136.449 263.562 l 143.102 295.535 149.758 327.492
 156.41 359.465 c 227.59 359.465 l 234.246 327.492 240.898 295.535 247.555
 263.562 c 232.586 263.562 l 229.48 263.562 226.973 261.051 226.973 257.926
 c 226.973 228.184 l 226.973 225.082 229.48 222.57 232.586 222.57 c 264.477
 222.57 l 267.578 222.57 270.09 225.082 270.09 228.184 c 270.09 231.289 
267.578 233.82 264.477 233.82 c 238.219 233.82 l 238.219 252.316 l 316.223
 252.316 l 316.223 233.82 l 289.945 233.82 l 286.84 233.82 284.332 231.289
 284.332 228.184 c 284.332 225.082 286.84 222.57 289.945 222.57 c 321.836
 222.57 l 324.941 222.57 327.469 225.082 327.469 228.184 c 327.469 257.926
 l 327.469 261.051 324.941 263.562 321.836 263.562 c h
315.371 359.465 m 311.164 339.227 l 243.258 339.227 l 239.051 359.465 l
 h
88.613 263.562 m 75.195 327.98 l 138.402 327.98 l 124.988 263.562 l h
144.949 359.465 m 140.742 339.227 l 72.859 339.227 l 68.625 359.465 l h
372.754 191.277 m 372.754 162.258 l 11.246 162.258 l 11.246 191.277 l h
372.754 191.277 m f
Q Q
showpage
%%Trailer
end
%%EOF
