%!PS-Adobe-3.0 EPSF-3.0
%%Creator: cairo 1.16.0 (https://cairographics.org)
%%CreationDate: Thu Dec 10 07:54:48 2020
%%Pages: 1
%%DocumentData: Clean7Bit
%%LanguageLevel: 2
%%BoundingBox: 0 16 384 368
%%EndComments
%%BeginProlog
50 dict begin
/q { gsave } bind def
/Q { grestore } bind def
/cm { 6 array astore concat } bind def
/w { setlinewidth } bind def
/J { setlinecap } bind def
/j { setlinejoin } bind def
/M { setmiterlimit } bind def
/d { setdash } bind def
/m { moveto } bind def
/l { lineto } bind def
/c { curveto } bind def
/h { closepath } bind def
/re { exch dup neg 3 1 roll 5 3 roll moveto 0 rlineto
      0 exch rlineto 0 rlineto closepath } bind def
/S { stroke } bind def
/f { fill } bind def
/f* { eofill } bind def
/n { newpath } bind def
/W { clip } bind def
/W* { eoclip } bind def
/BT { } bind def
/ET { } bind def
/BDC { mark 3 1 roll /BDC pdfmark } bind def
/EMC { mark /EMC pdfmark } bind def
/cairo_store_point { /cairo_point_y exch def /cairo_point_x exch def } def
/Tj { show currentpoint cairo_store_point } bind def
/TJ {
  {
    dup
    type /stringtype eq
    { show } { -0.001 mul 0 cairo_font_matrix dtransform rmoveto } ifelse
  } forall
  currentpoint cairo_store_point
} bind def
/cairo_selectfont { cairo_font_matrix aload pop pop pop 0 0 6 array astore
    cairo_font exch selectfont cairo_point_x cairo_point_y moveto } bind def
/Tf { pop /cairo_font exch def /cairo_font_matrix where
      { pop cairo_selectfont } if } bind def
/Td { matrix translate cairo_font_matrix matrix concatmatrix dup
      /cairo_font_matrix exch def dup 4 get exch 5 get cairo_store_point
      /cairo_font where { pop cairo_selectfont } if } bind def
/Tm { 2 copy 8 2 roll 6 array astore /cairo_font_matrix exch def
      cairo_store_point /cairo_font where { pop cairo_selectfont } if } bind def
/g { setgray } bind def
/rg { setrgbcolor } bind def
/d1 { setcachedevice } bind def
/cairo_data_source {
  CairoDataIndex CairoData length lt
    { CairoData CairoDataIndex get /CairoDataIndex CairoDataIndex 1 add def }
    { () } ifelse
} def
/cairo_flush_ascii85_file { cairo_ascii85_file status { cairo_ascii85_file flushfile } if } def
/cairo_image { image cairo_flush_ascii85_file } def
/cairo_imagemask { imagemask cairo_flush_ascii85_file } def
%%EndProlog
%%BeginSetup
%%EndSetup
%%Page: 1 1
%%BeginPageSetup
%%PageBoundingBox: 0 16 384 368
%%EndPageSetup
q 0 16 384 352 rectclip
1 0 0 -1 0 384 cm q
0.25098 0.439216 0.576471 rg
11.461 361.379 m 372.562 361.379 l 375.75 361.379 378.387 358.766 378.387
 355.555 c 378.387 324.98 l 378.387 321.77 375.75 319.156 372.562 319.156
 c 298.258 319.156 l 261.586 313.332 l 223.273 319.156 l 148.438 319.156
 l 110.895 311.523 l 73.453 319.156 l 11.461 319.156 l 8.25 319.156 5.633
 321.77 5.633 324.98 c 5.633 355.555 l 5.633 358.766 8.25 361.379 11.461
 361.379 c h
11.461 361.379 m f*
0.866667 0.917647 0.984314 rg
223.359 170.891 m 310.48 170.891 l 315.859 170.891 320.773 175.312 320.262
 180.668 c 308.035 309.375 l 307.527 314.734 303.637 319.156 298.258 319.156
 c 223.273 319.156 l 217.895 319.156 213.984 314.734 213.473 309.375 c 201.25
 180.668 l 200.738 175.312 205.648 170.891 211.027 170.891 c 160.664 170.891
 l 166.043 170.891 170.953 175.312 170.441 180.668 c 158.219 309.375 l 157.707
 314.734 153.816 319.156 148.438 319.156 c 73.453 319.156 l 68.074 319.156
 64.184 314.734 63.672 309.375 c 51.449 180.668 l 50.941 175.312 55.852 
170.891 61.23 170.891 c 148.352 170.891 l 142.973 170.891 139.082 166.469
 138.574 161.109 c 126.348 32.402 l 125.84 27.043 130.75 22.621 136.129 
22.621 c 235.582 22.621 l 240.961 22.621 245.875 27.043 245.363 32.402 c
 233.137 161.109 l 232.629 166.465 228.715 170.891 223.359 170.891 c h
223.359 170.891 m f*
0.211765 0.368627 0.490196 rg
354.363 361.379 m 372.562 361.379 l 375.75 361.379 378.387 358.766 378.387
 355.555 c 378.387 324.98 l 378.387 321.77 375.75 319.156 372.562 319.156
 c 354.363 319.156 l 357.555 319.156 360.188 321.77 360.188 324.98 c 360.188
 355.555 l 360.188 358.766 357.555 361.379 354.363 361.379 c h
354.363 361.379 m f*
0.796078 0.886275 1 rg
142.465 170.891 m 160.664 170.891 l 166.043 170.891 170.953 175.312 170.441
 180.668 c 158.219 309.375 l 157.707 314.734 153.816 319.156 148.438 319.156
 c 130.238 319.156 l 135.617 319.156 139.508 314.734 140.02 309.375 c 152.242
 180.668 l 152.754 175.312 147.844 170.891 142.465 170.891 c h
142.465 170.891 m f*
292.285 170.891 m 310.484 170.891 l 315.863 170.891 320.773 175.312 320.262
 180.668 c 308.039 309.375 l 307.527 314.734 303.637 319.156 298.258 319.156
 c 280.059 319.156 l 285.438 319.156 289.328 314.734 289.84 309.375 c 302.062
 180.668 l 302.574 175.312 297.664 170.891 292.285 170.891 c h
292.285 170.891 m f*
0.960784 0.980392 1 rg
148.035 170.891 m 143.379 208.582 l 78.535 208.582 l 73.859 170.891 l h
148.035 170.891 m f*
0.92549 0.956863 1 rg
148.035 170.891 m 143.379 208.582 l 125.16 208.582 l 129.836 170.891 l 
h
148.035 170.891 m f*
0.960784 0.980392 1 rg
297.855 170.891 m 293.176 208.582 l 228.332 208.582 l 223.676 170.891 l
 h
297.855 170.891 m f*
0.92549 0.956863 1 rg
297.855 170.891 m 293.176 208.582 l 274.977 208.582 l 279.633 170.891 l
 h
297.855 170.891 m f*
0.945098 0.435294 0.509804 rg
143.379 208.582 m 135.809 269.578 l 134.129 283.141 124.625 294.453 110.957
 294.453 c 97.285 294.453 87.762 283.16 86.082 269.578 c 78.535 208.582 
l h
143.379 208.582 m f*
0.866667 0.388235 0.431373 rg
143.379 208.582 m 135.809 269.578 l 134.129 283.141 124.625 294.453 110.957
 294.453 c 107.66 294.453 104.598 293.793 101.855 292.602 c 110.551 288.859
 116.336 279.887 117.609 269.578 c 125.156 208.582 l h
143.379 208.582 m f*
0.992157 0.701961 0.262745 rg
293.176 208.582 m 285.609 269.578 l 283.93 283.141 274.426 294.453 260.754
 294.453 c 247.082 294.453 237.582 283.16 235.902 269.578 c 228.332 208.582
 l h
293.176 208.582 m f*
0.984314 0.6 0 rg
293.176 208.582 m 285.609 269.578 l 283.93 283.141 274.426 294.453 260.754
 294.453 c 257.461 294.453 254.418 293.793 251.656 292.602 c 260.352 288.859
 266.133 279.887 267.41 269.578 c 274.977 208.582 l h
293.176 208.582 m f*
0.796078 0.886275 1 rg
217.363 22.621 m 235.582 22.621 l 240.961 22.621 245.875 27.043 245.363
 32.402 c 233.137 161.109 l 232.629 166.465 228.715 170.887 223.359 170.887
 c 205.137 170.887 l 210.516 170.887 214.43 166.465 214.918 161.109 c 227.164
 32.402 l 227.652 27.043 222.762 22.621 217.363 22.621 c h
217.363 22.621 m f*
0.960784 0.980392 1 rg
222.934 22.621 m 218.277 60.316 l 153.434 60.316 l 148.777 22.621 l h
222.934 22.621 m f*
0.92549 0.956863 1 rg
222.934 22.621 m 218.277 60.316 l 200.078 60.316 l 204.734 22.621 l h
222.934 22.621 m f*
0.701961 0.898039 0.623529 rg
218.277 60.316 m 210.707 121.309 l 209.027 134.875 199.527 146.164 185.855
 146.164 c 172.184 146.164 162.684 134.875 161.004 121.309 c 153.434 60.316
 l h
218.277 60.316 m f*
0.584314 0.839216 0.643137 rg
218.277 60.316 m 210.707 121.309 l 209.027 134.875 199.527 146.164 185.855
 146.164 c 182.559 146.164 179.52 145.504 176.758 144.336 c 185.453 140.594
 191.234 131.598 192.512 121.309 c 200.078 60.316 l h
218.277 60.316 m f*
0 g
11.246 355.766 m 372.754 355.766 l 372.754 324.789 l 252.25 324.789 131.75
 324.789 11.246 324.789 c h
143.805 28.234 m 135.723 28.234 l 134.66 28.34 133.641 28.828 132.918 29.551
 c 132.324 30.125 131.855 31.02 131.941 31.867 c 136.852 83.531 l 137.129
 86.613 134.875 89.355 131.793 89.652 c 128.711 89.93 125.965 87.676 125.691
 84.594 c 120.777 32.934 l 120.355 28.594 121.949 24.598 125.051 21.559 
c 127.941 18.707 132.066 16.988 136.129 16.988 c 235.582 16.988 l 239.645
 16.988 243.77 18.707 246.66 21.559 c 249.766 24.598 251.359 28.594 250.934
 32.934 c 238.707 161.641 l 238.602 162.875 238.348 164.105 237.984 165.254
 c 310.48 165.254 l 314.543 165.254 318.668 166.977 321.559 169.824 c 324.664
 172.867 326.258 176.863 325.832 181.199 c 313.605 309.91 l 313.5 311.164
 313.246 312.375 312.883 313.543 c 378.387 313.543 l 381.492 313.543 384
 316.051 384 319.156 c 384 361.379 l 384 364.484 381.488 367.012 378.387
 367.012 c 5.633 367.012 l 2.531 367.012 0 364.484 0 361.379 c 0 319.156
 l 0 316.051 2.531 313.543 5.633 313.543 c 58.828 313.543 l 58.465 312.375
 58.211 311.164 58.105 309.91 c 53.191 258.227 l 52.895 255.141 55.148 252.422
 58.23 252.125 c 61.312 251.824 64.059 254.102 64.355 257.184 c 69.266 308.844
 l 69.395 310.27 69.969 311.543 70.859 312.438 c 71.539 313.117 72.434 313.543
 73.453 313.543 c 148.438 313.543 l 149.48 313.543 150.375 313.117 151.055
 312.438 c 151.945 311.543 152.52 310.27 152.648 308.844 c 164.875 180.137
 l 164.875 180.094 164.875 180.117 164.875 179.902 c 164.875 179.137 164.492
 178.414 163.895 177.82 c 162.98 176.926 161.875 176.523 160.621 176.523
 c 153.008 176.523 l 149.141 207.754 145.27 239.008 141.402 270.258 c 140.359
 278.527 136.832 286.098 131.41 291.539 c 126.137 296.812 119.145 300.066
 110.957 300.066 c 102.75 300.066 95.754 296.812 90.504 291.539 c 85.062
 286.117 81.531 278.527 80.512 270.258 c 76.645 239.008 72.773 207.754 68.902
 176.5 c 60.824 176.523 l 59.762 176.605 58.742 177.098 58.02 177.82 c 57.422
 178.414 56.957 179.285 57.043 180.137 c 61.93 231.82 l 62.227 234.902 59.977
 237.625 56.895 237.922 c 53.809 238.219 51.066 235.945 50.77 232.863 c 
45.879 181.199 l 45.453 176.863 47.051 172.867 50.152 169.824 c 53.043 166.977
 57.168 165.254 61.23 165.254 c 133.727 165.254 l 133.363 164.105 133.109
 162.871 133.004 161.641 c 128.094 109.957 l 127.793 106.875 130.07 104.152
 133.152 103.855 c 136.234 103.559 138.957 105.832 139.254 108.914 c 144.164
 160.578 l 144.379 162.852 145.844 165.254 148.352 165.254 c 223.359 165.254
 l 225.867 165.254 227.336 162.852 227.547 160.578 c 239.773 31.867 l 239.773
 31.805 239.773 31.848 239.773 31.633 c 239.773 30.871 239.391 30.125 238.793
 29.551 c 238.051 28.828 237.051 28.34 235.988 28.234 c 227.91 28.234 l 
224.039 59.484 220.168 90.738 216.301 121.992 c 215.277 130.238 211.75 137.828
 206.309 143.273 c 201.035 148.543 194.062 151.797 185.855 151.797 c 177.648
 151.797 170.676 148.543 165.402 143.273 c 159.961 137.828 156.43 130.238
 155.41 121.992 c 151.543 90.738 147.672 59.484 143.805 28.234 c h
158.41 54.68 m 213.301 54.68 l 216.574 28.23 l 155.133 28.23 l h
211.898 65.926 m 159.793 65.926 l 166.574 120.629 l 167.297 126.414 169.699
 131.641 173.355 135.32 c 176.586 138.551 180.859 140.551 185.855 140.551
 c 190.852 140.551 195.125 138.551 198.355 135.32 c 202.016 131.641 204.418
 126.414 205.137 120.629 c h
218.703 176.523 m 211.07 176.523 l 209.816 176.523 208.711 176.926 207.816
 177.82 c 207.223 178.414 206.754 179.285 206.84 180.137 c 211.75 231.82
 l 212.027 234.902 209.773 237.625 206.691 237.922 c 203.605 238.219 200.863
 235.945 200.59 232.863 c 195.676 181.199 l 195.527 179.562 195.613 178.117
 196.016 176.523 c 175.672 176.523 l 176.098 178.117 176.184 179.562 176.035
 181.199 c 163.809 309.91 l 163.68 311.164 163.449 312.375 163.086 313.543
 c 208.625 313.543 l 208.262 312.375 208.027 311.164 207.902 309.91 c 202.992
 258.227 l 202.691 255.141 204.969 252.422 208.051 252.125 c 211.133 251.824
 213.855 254.102 214.152 257.184 c 219.062 308.844 l 219.191 310.27 219.766
 311.543 220.656 312.438 c 221.336 313.117 222.23 313.543 223.273 313.543
 c 298.258 313.543 l 299.277 313.543 300.172 313.117 300.852 312.438 c 301.742
 311.543 302.316 310.27 302.445 308.844 c 314.668 180.137 l 314.691 180.094
 314.668 180.117 314.668 179.902 c 314.668 179.137 314.285 178.414 313.691
 177.82 c 312.969 177.098 311.949 176.609 310.887 176.523 c 302.809 176.5
 l 298.938 207.754 295.07 239.008 291.199 270.258 c 290.18 278.527 286.648
 286.098 281.207 291.539 c 275.934 296.812 268.961 300.066 260.754 300.066
 c 252.547 300.066 245.574 296.812 240.301 291.539 c 234.859 286.117 231.328
 278.527 230.309 270.258 c 226.441 239.008 222.57 207.754 218.703 176.523
 c h
233.309 202.969 m 288.203 202.969 l 291.477 176.523 l 230.035 176.523 l
 h
286.82 214.215 m 234.711 214.215 l 241.473 268.898 l 242.195 274.68 244.598
 279.93 248.254 283.586 c 251.484 286.82 255.758 288.82 260.754 288.82 c
 265.75 288.82 270.023 286.82 273.254 283.586 c 276.914 279.91 279.316 274.68
 280.039 268.898 c h
83.508 202.969 m 138.402 202.969 l 141.676 176.523 l 80.234 176.523 l h
137 214.215 m 84.891 214.215 l 91.672 268.898 l 92.395 274.68 94.777 279.93
 98.457 283.586 c 101.688 286.82 105.961 288.82 110.957 288.82 c 115.953
 288.82 120.227 286.82 123.457 283.586 c 127.113 279.91 129.516 274.68 130.238
 268.898 c h
137 214.215 m f
Q Q
showpage
%%Trailer
end
%%EOF
