%!PS-Adobe-3.0 EPSF-3.0
%%Creator: cairo 1.16.0 (https://cairographics.org)
%%CreationDate: Thu Dec 10 07:54:49 2020
%%Pages: 1
%%DocumentData: Clean7Bit
%%LanguageLevel: 2
%%BoundingBox: 0 31 384 353
%%EndComments
%%BeginProlog
50 dict begin
/q { gsave } bind def
/Q { grestore } bind def
/cm { 6 array astore concat } bind def
/w { setlinewidth } bind def
/J { setlinecap } bind def
/j { setlinejoin } bind def
/M { setmiterlimit } bind def
/d { setdash } bind def
/m { moveto } bind def
/l { lineto } bind def
/c { curveto } bind def
/h { closepath } bind def
/re { exch dup neg 3 1 roll 5 3 roll moveto 0 rlineto
      0 exch rlineto 0 rlineto closepath } bind def
/S { stroke } bind def
/f { fill } bind def
/f* { eofill } bind def
/n { newpath } bind def
/W { clip } bind def
/W* { eoclip } bind def
/BT { } bind def
/ET { } bind def
/BDC { mark 3 1 roll /BDC pdfmark } bind def
/EMC { mark /EMC pdfmark } bind def
/cairo_store_point { /cairo_point_y exch def /cairo_point_x exch def } def
/Tj { show currentpoint cairo_store_point } bind def
/TJ {
  {
    dup
    type /stringtype eq
    { show } { -0.001 mul 0 cairo_font_matrix dtransform rmoveto } ifelse
  } forall
  currentpoint cairo_store_point
} bind def
/cairo_selectfont { cairo_font_matrix aload pop pop pop 0 0 6 array astore
    cairo_font exch selectfont cairo_point_x cairo_point_y moveto } bind def
/Tf { pop /cairo_font exch def /cairo_font_matrix where
      { pop cairo_selectfont } if } bind def
/Td { matrix translate cairo_font_matrix matrix concatmatrix dup
      /cairo_font_matrix exch def dup 4 get exch 5 get cairo_store_point
      /cairo_font where { pop cairo_selectfont } if } bind def
/Tm { 2 copy 8 2 roll 6 array astore /cairo_font_matrix exch def
      cairo_store_point /cairo_font where { pop cairo_selectfont } if } bind def
/g { setgray } bind def
/rg { setrgbcolor } bind def
/d1 { setcachedevice } bind def
/cairo_data_source {
  CairoDataIndex CairoData length lt
    { CairoData CairoDataIndex get /CairoDataIndex CairoDataIndex 1 add def }
    { () } ifelse
} def
/cairo_flush_ascii85_file { cairo_ascii85_file status { cairo_ascii85_file flushfile } if } def
/cairo_image { image cairo_flush_ascii85_file } def
/cairo_imagemask { imagemask cairo_flush_ascii85_file } def
%%EndProlog
%%BeginSetup
%%EndSetup
%%Page: 1 1
%%BeginPageSetup
%%PageBoundingBox: 0 31 384 353
%%EndPageSetup
q 0 31 384 322 rectclip
1 0 0 -1 0 384 cm q
0.745098 0.847059 0.984314 rg
312.801 185.645 m 337.102 185.645 l 347.539 185.645 356.062 194.168 356.062
 204.605 c 356.062 206.777 l 356.062 209.984 358.699 212.602 361.891 212.602
 c 372.562 212.602 l 375.75 212.602 378.387 209.988 378.387 206.777 c 378.387
 204.605 l 378.387 181.902 359.805 163.32 337.102 163.32 c 312.801 163.32
 l h
312.801 185.645 m f*
0.615686 0.776471 0.984314 rg
358.125 211.219 m 359.148 212.09 360.465 212.602 361.891 212.602 c 372.562
 212.602 l 375.75 212.602 378.387 209.984 378.387 206.777 c 378.387 204.605
 l 378.387 181.902 359.805 163.32 337.102 163.32 c 318.902 163.32 l 341.609
 163.32 360.188 181.902 360.188 204.605 c 360.188 206.777 l 360.188 208.562
 359.379 210.137 358.125 211.219 c h
358.125 211.219 m f*
0.25098 0.439216 0.576471 rg
284.566 143.164 m 301.574 143.164 l 309.762 143.164 316.434 149.863 316.434
 158.047 c 316.434 190.918 l 316.434 199.102 309.738 205.797 301.574 205.797
 c 284.566 205.797 l h
284.566 143.164 m f*
164.938 250.867 m 190.961 295.918 l 205.375 301.938 l 221 295.918 l 193.617
 248.488 l 177.16 246.086 l h
128.898 250.867 m 114.719 246.105 l 100.219 248.488 l 72.836 295.918 l 
88.168 301.383 l 102.898 295.918 l h
128.898 250.867 m f*
0.866667 0.776471 0.745098 rg
31 346.668 m 262.84 346.668 l 276.785 346.668 288.223 335.25 288.223 321.305
 c 288.223 307.336 276.785 295.918 262.84 295.918 c 185.516 295.918 108.469
 295.918 31 295.918 c 17.051 295.918 5.633 307.336 5.633 321.281 c 5.633
 335.25 17.051 346.668 31 346.668 c h
31 346.668 m f*
0.807843 0.694118 0.647059 rg
244.641 346.668 m 262.84 346.668 l 276.785 346.668 288.223 335.25 288.223
 321.305 c 288.223 307.336 276.785 295.918 262.84 295.918 c 244.641 295.918
 l 258.586 295.918 270.004 307.336 270.004 321.305 c 270.004 335.25 258.586
 346.668 244.641 346.668 c h
244.641 346.668 m f*
0.92549 0.764706 0.45098 rg
0.17025 w
0 J
0 j
[] 0.0 d
10 M q 1 0 0 1 0 0 cm
244.641 346.668 m 262.84 346.668 l 276.785 346.668 288.223 335.25 288.223
 321.305 c 288.223 307.336 276.785 295.918 262.84 295.918 c 244.641 295.918
 l 258.586 295.918 270.004 307.336 270.004 321.305 c 270.004 335.25 258.586
 346.668 244.641 346.668 c h
244.641 346.668 m S Q
0.666667 0.478431 0.388235 rg
146.93 251.273 m 94.609 251.273 46.941 241.027 11.055 224.211 c 6.484 222.062
 5.594 219.594 5.633 215.727 c 5.633 78.598 l 5.633 74.621 6.336 72.328 
11.078 70.137 c 46.941 53.32 94.609 43.051 146.93 43.051 c 199.227 43.051
 246.895 53.32 282.781 70.137 c 287.5 72.328 288.223 74.621 288.223 78.598
 c 288.223 215.727 l 288.266 219.594 287.352 222.062 282.781 224.207 c 246.895
 241.027 199.227 251.273 146.93 251.273 c h
146.93 251.273 m f*
0.596078 0.419608 0.329412 rg
265.453 62.867 m 271.492 65.121 277.273 67.543 282.781 70.137 c 287.5 72.328
 288.223 74.621 288.223 78.598 c 288.223 215.727 l 288.266 219.594 287.352
 222.062 282.781 224.207 c 277.273 226.781 271.469 229.203 265.434 231.48
 c 269.258 229.227 270.047 226.59 270.004 222.613 c 270.004 71.711 l 270.004
 67.605 269.387 65.164 265.453 62.867 c h
265.453 62.867 m f*
0.756863 0.615686 0.556863 rg
288.223 168.871 m 5.633 168.871 l 5.633 194.637 l 42.859 205.098 92.461
 211.496 146.93 211.496 c 201.375 211.496 250.977 205.098 288.223 194.637
 c h
288.223 99.688 m 250.977 89.227 201.375 82.828 146.93 82.828 c 92.461 82.828
 42.859 89.227 5.633 99.688 c 5.633 125.477 l 288.223 125.477 l h
288.223 99.688 m f*
0.717647 0.545098 0.478431 rg
288.223 168.871 m 270.004 168.871 l 270.004 199.207 l 276.359 197.785 282.441
 196.273 288.223 194.637 c h
270.004 125.477 m 270.004 95.117 l 276.359 96.543 282.441 98.074 288.223
 99.688 c 288.223 125.477 l h
270.004 125.477 m f*
0.796078 0.886275 1 rg
234.309 37.332 m 241.453 37.332 247.32 43.18 247.32 50.344 c 247.32 243.98
 l 247.32 251.148 241.453 257.016 234.309 257.016 c 227.145 257.016 221.277
 251.148 221.277 243.98 c 221.277 50.344 l 221.277 43.18 227.145 37.332 
234.309 37.332 c h
59.551 37.332 m 66.691 37.332 72.562 43.18 72.562 50.344 c 72.562 243.98
 l 72.562 251.148 66.691 257.016 59.551 257.016 c 52.383 257.016 46.539 
251.148 46.539 243.98 c 46.539 50.344 l 46.539 43.18 52.387 37.332 59.551
 37.332 c h
59.551 37.332 m f*
0 g
216.852 250.57 m 212.199 251.441 207.457 252.23 202.652 252.93 c 224.23
 290.285 l 262.84 290.285 l 271.363 290.285 279.125 293.77 284.738 299.406
 c 290.348 305.02 293.836 312.758 293.836 321.305 c 293.836 329.828 290.352
 337.566 284.738 343.18 c 279.125 348.816 271.363 352.301 262.84 352.301
 c 31 352.301 l 22.473 352.301 14.711 348.816 9.102 343.18 c 3.488 337.566
 0 329.828 0 321.285 c 0 312.758 3.488 305.02 9.102 299.406 c 14.711 293.773
 22.473 290.285 31 290.285 c 69.629 290.285 l 91.184 252.93 l 86.379 252.23
 81.641 251.445 76.984 250.57 c 76.027 253.059 74.559 255.312 72.711 257.164
 c 69.328 260.543 64.676 262.625 59.551 262.625 c 54.406 262.625 49.75 260.543
 46.367 257.164 c 42.988 253.781 40.906 249.125 40.906 243.98 c 40.906 241.664
 l 34.719 239.75 28.766 237.668 23.07 235.434 c 16.074 232.715 9.398 229.758
 3.105 226.57 c 1.211 225.613 0 223.68 0 221.551 c 0 171.953 0 122.375 0
 72.773 c 0 70.434 1.445 68.414 3.465 67.586 c 9.672 64.461 16.223 61.57
 23.066 58.891 c 28.766 56.66 34.719 54.574 40.902 52.66 c 40.902 50.344
 l 40.902 45.199 42.988 40.543 46.367 37.164 c 49.75 33.805 54.402 31.699
 59.551 31.699 c 64.672 31.699 69.328 33.805 72.711 37.164 c 74.559 39.035
 76.027 41.266 76.98 43.754 c 85.191 42.223 93.609 40.945 102.156 39.969
 c 112.402 38.777 123.055 38.012 134 37.652 c 137.105 37.566 139.68 39.988
 139.785 43.074 c 139.891 46.176 137.445 48.77 134.363 48.855 c 123.902 
49.195 113.57 49.961 103.43 51.129 c 94.734 52.129 86.293 53.406 78.172 
54.957 c 78.172 80.746 l 88.016 79.703 98.223 78.875 108.723 78.281 c 121.266
 77.578 134.043 77.215 146.926 77.215 c 159.789 77.215 172.566 77.578 185.109
 78.281 c 195.633 78.875 205.84 79.703 215.66 80.746 c 215.66 54.957 l 207.539
 53.406 199.121 52.129 190.406 51.129 c 180.285 49.961 169.953 49.195 159.473
 48.855 c 156.387 48.77 153.965 46.18 154.051 43.074 c 154.156 39.992 156.727
 37.566 159.832 37.652 c 170.805 38.012 181.434 38.781 191.68 39.969 c 200.246
 40.949 208.645 42.223 216.852 43.754 c 217.809 41.266 219.273 39.035 221.125
 37.164 c 224.504 33.805 229.16 31.699 234.305 31.699 c 239.43 31.699 244.086
 33.805 247.465 37.164 c 250.848 40.547 252.93 45.199 252.93 50.344 c 252.93
 52.66 l 259.117 54.574 265.07 56.66 270.789 58.891 c 277.762 61.613 284.438
 64.59 290.73 67.758 c 292.621 68.715 293.832 70.648 293.832 72.773 c 293.832
 137.555 l 301.57 137.555 l 307.207 137.555 312.328 139.852 316.051 143.57
 c 319.688 147.203 321.98 152.203 322.066 157.707 c 331.484 157.707 l 331.484
 134.195 l 325.129 134.195 l 322.023 134.195 319.492 131.684 319.492 128.582
 c 319.492 125.477 322.023 122.945 325.129 122.945 c 349.09 122.945 l 352.191
 122.945 354.723 125.477 354.723 128.582 c 354.723 131.684 352.191 134.195
 349.09 134.195 c 342.73 134.195 l 342.73 158.047 l 353.402 159.324 362.992
 164.234 370.223 171.484 c 378.727 179.969 384 191.703 384 204.605 c 384
 212.602 l 384 215.703 381.492 218.234 378.387 218.234 c 356.066 218.234
 l 352.961 218.234 350.453 215.703 350.453 212.602 c 350.453 204.605 l 350.453
 200.93 348.941 197.613 346.52 195.188 c 344.098 192.766 340.781 191.258
 337.102 191.258 c 322.07 191.258 l 321.984 196.762 319.688 201.758 316.055
 205.395 c 312.332 209.113 307.211 211.41 301.574 211.41 c 293.836 211.41
 l 293.836 221.551 l 293.836 223.891 292.414 225.91 290.371 226.762 c 284.164
 229.863 277.637 232.777 270.789 235.434 c 265.07 237.668 259.117 239.75
 252.934 241.664 c 252.934 243.98 l 252.934 249.125 250.848 253.781 247.469
 257.16 c 244.09 260.543 239.434 262.625 234.309 262.625 c 229.164 262.625
 224.508 260.543 221.129 257.16 c 219.277 255.312 217.809 253.059 216.852
 250.57 c h
142.633 68.16 m 139.531 68.16 137.023 65.629 137.023 62.523 c 137.023 59.422
 139.531 56.914 142.633 56.914 c 151.203 56.914 l 154.305 56.914 156.816
 59.422 156.816 62.523 c 156.816 65.629 154.305 68.16 151.203 68.16 c h
142.633 237.41 m 139.531 237.41 137.023 234.902 137.023 231.797 c 137.023
 228.695 139.531 226.164 142.633 226.164 c 151.203 226.164 l 154.305 226.164
 156.816 228.695 156.816 231.797 c 156.816 234.902 154.305 237.41 151.203
 237.41 c h
142.633 195.805 m 139.531 195.805 137.023 193.277 137.023 190.172 c 137.023
 187.066 139.531 184.559 142.633 184.559 c 151.203 184.559 l 154.305 184.559
 156.816 187.07 156.816 190.172 c 156.816 193.277 154.305 195.805 151.203
 195.805 c h
142.633 152.797 m 139.531 152.797 137.023 150.266 137.023 147.16 c 137.023
 144.059 139.531 141.551 142.633 141.551 c 151.203 141.551 l 154.305 141.551
 156.816 144.059 156.816 147.16 c 156.816 150.266 154.305 152.797 151.203
 152.797 c h
142.633 109.789 m 139.531 109.789 137.023 107.258 137.023 104.152 c 137.023
 101.051 139.531 98.52 142.633 98.52 c 151.203 98.52 l 154.305 98.52 156.816
 101.051 156.816 104.152 c 156.816 107.258 154.305 109.789 151.203 109.789
 c h
190.617 254.484 m 188.875 254.676 187.133 254.844 185.367 255.016 c 181.711
 255.375 178.031 255.695 174.332 255.949 c 194.168 290.285 l 211.285 290.285
 l h
161.789 256.633 m 156.855 256.801 151.902 256.906 146.93 256.906 c 141.934
 256.906 136.98 256.801 132.047 256.633 c 112.617 290.285 l 181.242 290.285
 l h
119.504 255.949 m 115.805 255.695 112.125 255.375 108.469 255.016 c 106.703
 254.844 104.961 254.676 103.238 254.484 c 82.555 290.285 l 99.668 290.285
 l h
31 301.555 m 25.578 301.555 20.645 303.766 17.051 307.359 c 13.48 310.93
 11.246 315.863 11.246 321.281 c 11.246 326.727 13.48 331.656 17.051 335.23
 c 20.645 338.82 25.578 341.035 31 341.035 c 262.84 341.035 l 268.262 341.035
 273.191 338.82 276.785 335.23 c 280.359 331.656 282.59 326.727 282.59 321.305
 c 282.59 315.863 280.359 310.93 276.785 307.359 c 273.191 303.766 268.262
 301.555 262.84 301.555 c 185.559 301.555 108.277 301.555 31 301.555 c h
322.07 168.953 m 322.07 180.008 l 337.102 180.008 l 343.883 180.008 350.027
 182.773 354.469 187.238 c 358.934 191.68 361.699 197.824 361.699 204.605
 c 361.699 206.988 l 372.754 206.988 l 372.754 204.605 l 372.754 194.809
 368.738 185.898 362.273 179.434 c 355.809 172.973 346.902 168.953 337.102
 168.953 c h
293.836 148.801 m 293.836 200.164 l 301.574 200.164 l 304.105 200.164 306.422
 199.121 308.102 197.441 c 309.781 195.762 310.824 193.465 310.824 190.918
 c 310.824 179.965 310.824 168.996 310.824 158.047 c 310.824 155.496 309.781
 153.199 308.102 151.52 c 306.422 149.84 304.105 148.801 301.574 148.801
 c h
226.91 134.43 m 226.91 137.531 224.398 140.039 221.273 140.039 c 218.172
 140.039 215.664 137.531 215.664 134.43 c 215.664 131.09 l 78.172 131.09
 l 78.172 163.234 l 215.664 163.234 l 215.664 159.898 l 215.664 156.793 
218.172 154.285 221.273 154.285 c 224.398 154.285 226.91 156.793 226.91 
159.898 c 226.91 243.98 l 226.91 246.023 227.738 247.871 229.078 249.211
 c 230.418 250.551 232.266 251.379 234.309 251.379 c 236.328 251.379 238.176
 250.551 239.516 249.211 c 240.855 247.871 241.688 246.023 241.688 243.98
 c 241.688 237.52 l 241.688 177.289 241.688 117.039 241.688 56.809 c 241.688
 50.344 l 241.688 48.324 240.855 46.477 239.516 45.137 c 238.176 43.777 
236.328 42.945 234.309 42.945 c 232.266 42.945 230.418 43.777 229.078 45.137
 c 227.738 46.477 226.91 48.324 226.91 50.344 c h
215.664 213.598 m 205.84 214.621 195.637 215.449 185.113 216.047 c 172.566
 216.746 159.793 217.109 146.93 217.109 c 134.043 217.109 121.266 216.746
 108.723 216.047 c 98.223 215.449 88.016 214.621 78.172 213.598 c 78.172
 239.391 l 88.273 241.301 98.754 242.812 109.512 243.852 c 121.5 245.043
 134.004 245.66 146.93 245.66 c 159.836 245.66 172.336 245.043 184.324 243.852
 c 195.105 242.812 205.562 241.301 215.664 239.391 c h
66.926 243.98 m 66.926 50.344 l 66.926 48.324 66.098 46.477 64.758 45.137
 c 63.418 43.777 61.57 42.945 59.551 42.945 c 57.508 42.945 55.68 43.777
 54.32 45.137 c 52.98 46.477 52.152 48.324 52.152 50.344 c 52.152 134.43
 l 52.152 137.531 49.641 140.039 46.539 140.039 c 43.414 140.039 40.902 
137.531 40.902 134.43 c 40.902 131.09 l 11.246 131.09 l 11.246 163.234 l
 40.906 163.234 l 40.906 159.898 l 40.906 156.793 43.414 154.285 46.539 
154.285 c 49.645 154.285 52.152 156.793 52.152 159.898 c 52.152 243.98 l
 52.152 246.023 52.98 247.871 54.32 249.211 c 55.68 250.551 57.512 251.383
 59.551 251.383 c 61.57 251.383 63.422 250.551 64.758 249.211 c 66.098 247.871
 66.926 246.023 66.926 243.98 c h
40.906 85.977 m 40.906 64.441 l 36.184 65.973 31.613 67.605 27.148 69.352
 c 21.602 71.52 16.285 73.816 11.246 76.262 c 11.246 92.355 l 15.414 91.289
 19.664 90.27 24.023 89.312 c 29.402 88.145 35.035 87.02 40.906 85.977 c
 h
40.906 229.887 m 40.906 208.348 l 35.039 207.309 29.402 206.203 24.023 
205.012 c 19.668 204.055 15.414 203.035 11.246 201.973 c 11.246 218.062 
l 16.285 220.508 21.602 222.805 27.148 224.973 c 31.594 226.719 36.184 228.355
 40.906 229.887 c h
78.172 92.035 m 78.172 119.844 l 215.664 119.844 l 215.664 92.035 l 205.562
 90.949 195.145 90.102 184.496 89.484 c 172.461 88.824 159.918 88.465 146.93
 88.465 c 133.938 88.465 121.375 88.824 109.34 89.484 c 98.691 90.102 88.293
 90.949 78.172 92.035 c h
78.172 174.48 m 78.172 202.289 l 88.293 203.395 98.691 204.246 109.34 204.84
 c 121.375 205.52 133.938 205.863 146.93 205.863 c 159.918 205.863 172.461
 205.52 184.496 204.84 c 195.145 204.246 205.562 203.395 215.66 202.289 
c 215.66 174.48 l h
282.59 174.48 m 252.934 174.48 l 252.934 196.934 l 257.863 196.039 262.711
 195.062 267.453 194.02 c 272.727 192.871 277.766 191.637 282.59 190.363
 c h
252.93 163.234 m 282.59 163.234 l 282.59 131.09 l 252.93 131.09 l h
282.59 201.973 m 278.445 203.035 274.172 204.055 269.812 205.012 c 264.434
 206.203 258.797 207.309 252.93 208.348 c 252.93 229.887 l 257.652 228.355
 262.242 226.719 266.688 224.973 c 272.258 222.805 277.551 220.508 282.59
 218.062 c h
40.906 174.48 m 11.246 174.48 l 11.246 190.363 l 16.074 191.637 21.133 
192.871 26.406 194.02 c 31.125 195.062 35.973 196.039 40.902 196.934 c 40.902
 174.48 l h
282.59 103.961 m 277.766 102.688 272.727 101.477 267.453 100.305 c 262.711
 99.262 257.863 98.285 252.934 97.395 c 252.934 119.844 l 282.59 119.844
 l h
269.812 89.312 m 274.172 90.27 278.445 91.293 282.59 92.355 c 282.59 76.262
 l 277.551 73.816 272.258 71.52 266.688 69.352 c 262.242 67.605 257.652 
65.973 252.93 64.441 c 252.93 85.977 l 258.797 87.02 264.434 88.145 269.812
 89.312 c h
40.906 97.395 m 35.973 98.285 31.125 99.262 26.406 100.305 c 21.113 101.477
 16.074 102.688 11.246 103.961 c 11.246 119.844 l 40.906 119.844 l h
40.906 97.395 m f
Q Q
showpage
%%Trailer
end
%%EOF
