%!PS-Adobe-3.0 EPSF-3.0
%%Creator: cairo 1.16.0 (https://cairographics.org)
%%CreationDate: Thu Dec 10 07:54:49 2020
%%Pages: 1
%%DocumentData: Clean7Bit
%%LanguageLevel: 2
%%BoundingBox: 19 0 365 384
%%EndComments
%%BeginProlog
50 dict begin
/q { gsave } bind def
/Q { grestore } bind def
/cm { 6 array astore concat } bind def
/w { setlinewidth } bind def
/J { setlinecap } bind def
/j { setlinejoin } bind def
/M { setmiterlimit } bind def
/d { setdash } bind def
/m { moveto } bind def
/l { lineto } bind def
/c { curveto } bind def
/h { closepath } bind def
/re { exch dup neg 3 1 roll 5 3 roll moveto 0 rlineto
      0 exch rlineto 0 rlineto closepath } bind def
/S { stroke } bind def
/f { fill } bind def
/f* { eofill } bind def
/n { newpath } bind def
/W { clip } bind def
/W* { eoclip } bind def
/BT { } bind def
/ET { } bind def
/BDC { mark 3 1 roll /BDC pdfmark } bind def
/EMC { mark /EMC pdfmark } bind def
/cairo_store_point { /cairo_point_y exch def /cairo_point_x exch def } def
/Tj { show currentpoint cairo_store_point } bind def
/TJ {
  {
    dup
    type /stringtype eq
    { show } { -0.001 mul 0 cairo_font_matrix dtransform rmoveto } ifelse
  } forall
  currentpoint cairo_store_point
} bind def
/cairo_selectfont { cairo_font_matrix aload pop pop pop 0 0 6 array astore
    cairo_font exch selectfont cairo_point_x cairo_point_y moveto } bind def
/Tf { pop /cairo_font exch def /cairo_font_matrix where
      { pop cairo_selectfont } if } bind def
/Td { matrix translate cairo_font_matrix matrix concatmatrix dup
      /cairo_font_matrix exch def dup 4 get exch 5 get cairo_store_point
      /cairo_font where { pop cairo_selectfont } if } bind def
/Tm { 2 copy 8 2 roll 6 array astore /cairo_font_matrix exch def
      cairo_store_point /cairo_font where { pop cairo_selectfont } if } bind def
/g { setgray } bind def
/rg { setrgbcolor } bind def
/d1 { setcachedevice } bind def
/cairo_data_source {
  CairoDataIndex CairoData length lt
    { CairoData CairoDataIndex get /CairoDataIndex CairoDataIndex 1 add def }
    { () } ifelse
} def
/cairo_flush_ascii85_file { cairo_ascii85_file status { cairo_ascii85_file flushfile } if } def
/cairo_image { image cairo_flush_ascii85_file } def
/cairo_imagemask { imagemask cairo_flush_ascii85_file } def
%%EndProlog
%%BeginSetup
%%EndSetup
%%Page: 1 1
%%BeginPageSetup
%%PageBoundingBox: 19 0 365 384
%%EndPageSetup
q 19 0 346 384 rectclip
1 0 0 -1 0 384 cm q
0.92549 0.956863 1 rg
30.688 64.375 m 242.398 64.375 l 245.605 64.375 248.223 66.992 248.223 
70.199 c 248.223 372.562 l 248.223 375.75 245.605 378.387 242.398 378.387
 c 30.688 378.387 l 27.48 378.387 24.863 375.75 24.863 372.562 c 24.863 
70.199 l 24.863 66.992 27.48 64.375 30.688 64.375 c h
30.688 64.375 m f*
0.866667 0.917647 0.984314 rg
224.199 64.375 m 242.398 64.375 l 245.605 64.375 248.223 66.992 248.223
 70.199 c 248.223 372.562 l 248.223 375.75 245.605 378.387 242.398 378.387
 c 224.199 378.387 l 227.41 378.387 230.023 375.75 230.023 372.562 c 230.023
 70.199 l 230.023 66.992 227.41 64.375 224.199 64.375 c h
224.199 64.375 m f*
0.996078 0.85098 0.643137 rg
30.688 64.375 m 242.398 64.375 l 245.605 64.375 248.223 66.992 248.223 
70.199 c 248.223 112.039 l 215.246 144.23 l 57.816 144.23 l 24.863 112.039
 l 24.863 70.199 l 24.863 66.992 27.48 64.375 30.688 64.375 c h
30.688 64.375 m f*
0.945098 0.796078 0.52549 rg
224.199 64.375 m 242.398 64.375 l 245.605 64.375 248.223 66.992 248.223
 70.199 c 248.223 112.039 l 230.023 129.816 l 230.023 70.199 l 230.023 66.992
 227.41 64.375 224.199 64.375 c h
224.199 64.375 m f*
1 0.945098 0.886275 rg
57.816 106.492 39.375 37.734 re f*
0.905882 0.647059 0.180392 rg
63.641 5.633 m 91.363 5.633 l 94.555 5.633 97.191 8.25 97.191 11.461 c 
97.191 93.375 l 97.191 90.188 99.805 87.551 103.016 87.551 c 130.719 87.551
 l 133.926 87.551 136.543 90.188 136.543 93.375 c 136.543 90.188 139.156
 87.551 142.367 87.551 c 170.07 87.551 l 173.281 87.551 175.895 90.188 175.895
 93.375 c 175.895 90.188 178.512 87.551 181.719 87.551 c 209.422 87.551 
l 212.633 87.551 215.246 90.188 215.246 93.375 c 215.246 144.23 l 97.191
 144.23 l 97.191 106.492 l 84.074 106.492 70.957 106.492 57.816 106.492 
c 57.816 11.461 l 57.816 8.25 60.453 5.633 63.641 5.633 c h
63.641 5.633 m f*
0.984314 0.6 0 rg
191.223 87.547 m 209.422 87.547 l 212.633 87.547 215.246 90.184 215.246
 93.375 c 215.246 144.23 l 197.051 144.23 l 197.051 93.375 l 197.051 90.184
 194.434 87.547 191.223 87.547 c h
191.223 87.547 m f*
151.871 87.547 m 170.07 87.547 l 173.281 87.547 175.895 90.184 175.895 
93.375 c 175.895 144.23 l 157.695 144.23 l 157.695 93.375 l 157.695 90.184
 155.082 87.547 151.871 87.547 c h
151.871 87.547 m f*
112.52 87.547 m 130.719 87.547 l 133.93 87.547 136.543 90.184 136.543 93.375
 c 136.543 144.23 l 118.344 144.23 l 118.344 93.375 l 118.344 90.184 115.73
 87.547 112.52 87.547 c h
112.52 87.547 m f*
73.168 5.633 m 91.367 5.633 l 94.555 5.633 97.191 8.25 97.191 11.461 c 
97.191 106.492 l 78.992 106.492 l 78.992 11.461 l 78.992 8.25 76.355 5.633
 73.168 5.633 c h
73.168 5.633 m f*
0.854902 0.290196 0.329412 rg
136.543 247.02 m 158.461 247.02 176.34 229.141 176.34 207.199 c 176.34 
185.281 158.461 167.402 136.543 167.402 c 114.625 167.402 96.742 185.281
 96.742 207.199 c 96.742 229.141 114.625 247.02 136.543 247.02 c h
136.543 247.02 m f*
136.543 167.402 m 158.527 167.402 176.34 185.219 176.34 207.199 c 176.34
 229.184 158.527 247.023 136.543 247.023 c 133.418 247.023 130.355 246.66
 127.445 245.957 c 145.047 241.855 158.145 226.059 158.145 207.199 c 158.145
 188.367 145.047 172.566 127.445 168.445 c 130.355 167.766 133.418 167.402
 136.543 167.402 c h
136.543 167.402 m f*
0.992157 0.701961 0.262745 rg
136.543 247.02 m 148.426 247.02 158.102 237.328 158.102 225.441 c 158.102
 213.559 148.426 203.883 136.543 203.883 c 124.66 203.883 114.965 213.559
 114.965 225.441 c 114.965 237.328 124.66 247.02 136.543 247.02 c h
136.543 247.02 m f*
0.25098 0.439216 0.576471 rg
56.969 350.344 m 216.121 350.344 l 219.328 350.344 221.945 347.73 221.945
 344.52 c 221.945 278.102 l 221.945 274.891 219.328 272.277 216.121 272.277
 c 56.969 272.277 l 53.758 272.277 51.141 274.891 51.141 278.102 c 51.141
 344.52 l 51.141 347.73 53.758 350.344 56.969 350.344 c h
56.969 350.344 m f*
0.211765 0.368627 0.490196 rg
197.922 350.344 m 216.121 350.344 l 219.328 350.344 221.945 347.73 221.945
 344.52 c 221.945 278.102 l 221.945 274.891 219.328 272.277 216.121 272.277
 c 197.922 272.277 l 201.133 272.277 203.746 274.891 203.746 278.102 c 203.746
 344.52 l 203.746 347.73 201.133 350.344 197.922 350.344 c h
197.922 350.344 m f*
0.25098 0.439216 0.576471 rg
317.445 181.242 m 351.801 177.609 l 351.801 155.582 l 317.445 155.582 l
 h
317.445 181.242 m f*
0.866667 0.917647 0.984314 rg
281.109 185.793 m 319.699 185.793 l 322.887 185.793 325.523 183.18 325.523
 179.969 c 325.523 139.359 l 325.523 136.172 322.887 133.535 319.699 133.535
 c 281.109 133.535 l 277.902 133.535 275.285 136.172 275.285 139.359 c 275.285
 179.969 l 275.285 183.176 277.902 185.793 281.109 185.793 c h
281.109 185.793 m f*
0.501961 0.705882 0.984314 rg
281.109 378.387 m 345.977 378.387 l 349.164 378.387 351.801 375.75 351.801
 372.562 c 351.801 307.57 351.801 242.578 351.801 177.609 c 326.289 177.609
 300.777 177.609 275.285 177.609 c 275.285 372.562 l 275.285 375.75 277.902
 378.387 281.109 378.387 c h
281.109 378.387 m f*
0.380392 0.635294 0.976471 rg
327.777 378.387 m 345.977 378.387 l 349.164 378.387 351.801 375.75 351.801
 372.562 c 351.801 307.57 351.801 242.578 351.801 177.609 c 333.602 177.609
 l 333.602 372.562 l 333.602 375.75 330.965 378.387 327.777 378.387 c h
327.777 378.387 m f*
0.854902 0.290196 0.329412 rg
275.285 238.176 m 275.285 317.797 l 297.27 317.797 315.086 299.98 315.086
 277.996 c 315.086 256.016 297.27 238.176 275.285 238.176 c h
275.285 238.176 m f*
275.285 238.176 m 275.285 242.578 l 288.105 249.188 296.887 262.562 296.887
 277.996 c 296.887 293.41 288.105 306.781 275.285 313.395 c 275.285 317.797
 l 297.27 317.797 315.086 299.98 315.086 277.996 c 315.086 256.016 297.27
 238.176 275.285 238.176 c h
275.285 238.176 m f*
0 g
253.855 144.801 m 253.855 147.906 251.324 150.414 248.223 150.414 c 245.117
 150.414 242.609 147.906 242.609 144.801 c 242.609 125.371 l 219.16 148.246
 l 218.117 149.266 216.715 149.84 215.246 149.84 c 162.777 149.84 110.309
 149.84 57.816 149.84 c 56.16 149.84 54.648 149.117 53.609 147.949 c 30.477
 125.371 l 30.477 331.062 l 30.477 334.168 27.969 336.676 24.863 336.676
 c 21.758 336.676 19.23 334.164 19.23 331.062 c 19.23 64.375 l 19.23 61.273
 21.758 58.742 24.863 58.742 c 52.203 58.742 l 52.203 5.633 l 52.203 2.531
 54.715 0 57.816 0 c 97.191 0 l 100.293 0 102.801 2.531 102.801 5.633 c 
102.801 21.875 l 102.801 24.98 100.293 27.512 97.191 27.512 c 94.086 27.512
 91.555 24.98 91.555 21.875 c 91.555 11.246 l 63.449 11.246 l 63.449 100.859
 l 91.559 100.859 l 91.559 47.367 l 91.559 44.262 94.086 41.734 97.191 41.734
 c 100.297 41.734 102.805 44.262 102.805 47.367 c 102.805 58.742 l 248.223
 58.742 l 251.328 58.742 253.855 61.273 253.855 64.375 c h
295.379 161.195 m 292.273 161.195 289.742 158.684 289.742 155.582 c 289.742
 152.457 292.273 149.949 295.379 149.949 c 305.41 149.949 l 308.516 149.949
 311.047 152.457 311.047 155.582 c 311.047 158.688 308.516 161.195 305.41
 161.195 c h
359.137 149.949 m 362.242 149.949 364.77 152.457 364.77 155.582 c 364.77
 158.688 362.242 161.195 359.137 161.195 c 357.414 161.195 l 357.414 265.242
 l 357.414 268.367 354.906 270.875 351.801 270.875 c 348.699 270.875 346.168
 268.367 346.168 265.242 c 346.168 183.219 l 280.898 183.219 l 280.898 232.902
 l 291.191 234.18 300.438 238.898 307.41 245.875 c 315.617 254.078 320.699
 265.453 320.699 277.996 c 320.699 290.539 315.617 301.895 307.41 310.121
 c 300.438 317.094 291.191 321.793 280.898 323.07 c 280.898 372.754 l 346.168
 372.754 l 346.168 290.73 l 346.168 287.629 348.699 285.098 351.801 285.098
 c 354.906 285.098 357.414 287.629 357.414 290.73 c 357.414 378.387 l 357.414
 381.492 354.906 384 351.801 384 c 275.285 384 l 272.16 384 269.652 381.492
 269.652 378.387 c 269.652 296.77 269.652 215.152 269.652 133.535 c 269.652
 130.43 272.16 127.922 275.285 127.922 c 325.523 127.922 l 328.629 127.922
 331.137 130.434 331.137 133.535 c 331.137 149.949 l h
346.168 171.973 m 346.168 161.195 l 331.137 161.195 l 331.137 171.973 l
 h
319.891 171.973 m 319.891 139.168 l 280.898 139.168 l 280.898 171.973 l
 h
280.898 244.277 m 280.898 311.715 l 288.086 310.523 294.527 307.082 299.438
 302.168 c 305.625 295.984 309.453 287.434 309.453 277.996 c 309.453 268.559
 305.625 260.012 299.438 253.824 c 294.527 248.891 288.086 245.469 280.898
 244.277 c h
114.516 328.531 m 111.414 328.531 108.883 326.004 108.883 322.898 c 108.883
 319.793 111.414 317.285 114.516 317.285 c 158.566 317.285 l 161.672 317.285
 164.203 319.793 164.203 322.898 c 164.203 326.004 161.672 328.531 158.566
 328.531 c h
93.641 305.336 m 90.535 305.336 88.027 302.828 88.027 299.727 c 88.027 
296.621 90.535 294.09 93.641 294.09 c 179.445 294.09 l 182.551 294.09 185.059
 296.621 185.059 299.727 c 185.059 302.828 182.551 305.336 179.445 305.336
 c h
56.754 344.711 m 216.332 344.711 l 216.332 277.91 l 56.754 277.91 l h
221.945 355.957 m 51.141 355.957 l 48.035 355.957 45.508 353.449 45.508
 350.344 c 45.508 272.277 l 45.508 269.172 48.035 266.645 51.141 266.645
 c 221.945 266.645 l 225.047 266.645 227.578 269.172 227.578 272.277 c 227.578
 350.344 l 227.578 353.449 225.047 355.957 221.945 355.957 c h
136.543 198.25 m 144.047 198.25 150.852 201.289 155.762 206.223 c 160.695
 211.133 163.734 217.938 163.734 225.441 c 163.734 226.336 163.691 227.227
 163.605 228.078 c 168.07 222.316 170.73 215.066 170.73 207.199 c 170.73
 197.762 166.902 189.238 160.715 183.051 c 154.531 176.863 145.984 173.035
 136.543 173.035 c 127.105 173.035 118.559 176.863 112.371 183.051 c 106.184
 189.238 102.355 197.762 102.355 207.199 c 102.355 215.066 105.016 222.316
 109.48 228.078 c 109.395 227.227 109.352 226.336 109.352 225.441 c 109.352
 217.938 112.391 211.133 117.324 206.223 c 122.234 201.289 129.039 198.25
 136.543 198.25 c h
147.812 214.172 m 144.941 211.281 140.941 209.496 136.543 209.496 c 132.141
 209.496 128.145 211.281 125.277 214.172 c 122.383 217.066 120.598 221.039
 120.598 225.441 c 120.598 229.844 122.383 233.84 125.277 236.711 c 128.293
 239.75 132.27 241.363 136.543 241.387 c 140.816 241.363 144.793 239.75 
147.812 236.711 c 150.703 233.84 152.488 229.844 152.488 225.441 c 152.488
 221.043 150.703 217.066 147.812 214.172 c h
136.543 161.789 m 149.086 161.789 160.438 166.871 168.668 175.078 c 176.895
 183.305 181.977 194.656 181.977 207.199 c 181.977 219.746 176.895 231.121
 168.668 239.324 c 160.121 247.871 148.621 252.633 136.543 252.633 c 124.445
 252.633 112.965 247.871 104.418 239.324 c 96.191 231.121 91.109 219.746
 91.109 207.199 c 91.109 194.656 96.191 183.305 104.418 175.078 c 112.648
 166.871 124 161.789 136.543 161.789 c h
52.203 69.988 m 30.477 69.988 l 30.477 109.68 l 52.203 130.898 l 52.203
 110.598 52.203 90.293 52.203 69.988 c h
102.805 81.938 m 215.246 81.938 l 218.371 81.938 220.883 84.445 220.883
 87.547 c 220.883 130.898 l 242.609 109.68 l 242.609 69.988 l 102.805 69.988
 l h
181.531 93.184 m 181.531 138.594 l 209.637 138.594 l 209.637 93.184 l h
142.176 93.184 m 142.176 138.594 l 170.281 138.594 l 170.281 93.184 l h
102.805 138.594 m 130.91 138.594 l 130.91 93.184 l 102.805 93.184 l h
63.449 138.594 m 91.559 138.594 l 91.559 112.125 l 63.449 112.125 l h
242.609 170.273 m 242.609 167.168 245.117 164.66 248.223 164.66 c 251.324
 164.66 253.855 167.168 253.855 170.273 c 253.855 378.387 l 253.855 381.492
 251.324 384 248.223 384 c 24.863 384 l 21.758 384 19.23 381.488 19.23 378.387
 c 19.23 356.531 l 19.23 353.426 21.758 350.918 24.863 350.918 c 27.969 
350.918 30.477 353.43 30.477 356.531 c 30.477 372.754 l 242.609 372.754 
l h
242.609 170.273 m f
Q Q
showpage
%%Trailer
end
%%EOF
