%!PS-Adobe-3.0 EPSF-3.0
%%Creator: cairo 1.16.0 (https://cairographics.org)
%%CreationDate: Thu Dec 10 07:54:50 2020
%%Pages: 1
%%DocumentData: Clean7Bit
%%LanguageLevel: 2
%%BoundingBox: 3 0 381 384
%%EndComments
%%BeginProlog
50 dict begin
/q { gsave } bind def
/Q { grestore } bind def
/cm { 6 array astore concat } bind def
/w { setlinewidth } bind def
/J { setlinecap } bind def
/j { setlinejoin } bind def
/M { setmiterlimit } bind def
/d { setdash } bind def
/m { moveto } bind def
/l { lineto } bind def
/c { curveto } bind def
/h { closepath } bind def
/re { exch dup neg 3 1 roll 5 3 roll moveto 0 rlineto
      0 exch rlineto 0 rlineto closepath } bind def
/S { stroke } bind def
/f { fill } bind def
/f* { eofill } bind def
/n { newpath } bind def
/W { clip } bind def
/W* { eoclip } bind def
/BT { } bind def
/ET { } bind def
/BDC { mark 3 1 roll /BDC pdfmark } bind def
/EMC { mark /EMC pdfmark } bind def
/cairo_store_point { /cairo_point_y exch def /cairo_point_x exch def } def
/Tj { show currentpoint cairo_store_point } bind def
/TJ {
  {
    dup
    type /stringtype eq
    { show } { -0.001 mul 0 cairo_font_matrix dtransform rmoveto } ifelse
  } forall
  currentpoint cairo_store_point
} bind def
/cairo_selectfont { cairo_font_matrix aload pop pop pop 0 0 6 array astore
    cairo_font exch selectfont cairo_point_x cairo_point_y moveto } bind def
/Tf { pop /cairo_font exch def /cairo_font_matrix where
      { pop cairo_selectfont } if } bind def
/Td { matrix translate cairo_font_matrix matrix concatmatrix dup
      /cairo_font_matrix exch def dup 4 get exch 5 get cairo_store_point
      /cairo_font where { pop cairo_selectfont } if } bind def
/Tm { 2 copy 8 2 roll 6 array astore /cairo_font_matrix exch def
      cairo_store_point /cairo_font where { pop cairo_selectfont } if } bind def
/g { setgray } bind def
/rg { setrgbcolor } bind def
/d1 { setcachedevice } bind def
/cairo_data_source {
  CairoDataIndex CairoData length lt
    { CairoData CairoDataIndex get /CairoDataIndex CairoDataIndex 1 add def }
    { () } ifelse
} def
/cairo_flush_ascii85_file { cairo_ascii85_file status { cairo_ascii85_file flushfile } if } def
/cairo_image { image cairo_flush_ascii85_file } def
/cairo_imagemask { imagemask cairo_flush_ascii85_file } def
%%EndProlog
%%BeginSetup
%%EndSetup
%%Page: 1 1
%%BeginPageSetup
%%PageBoundingBox: 3 0 381 384
%%EndPageSetup
q 3 0 378 384 rectclip
1 0 0 -1 0 384 cm q
0.92549 0.956863 1 rg
223.742 129.199 m 224.359 117.504 225.379 106.789 226.504 97.543 c 225.848
 85.656 227.867 75.707 228.844 70.203 c 229.672 65.48 232.672 63.93 237.137
 63.887 c 352.832 62.805 l 357.297 62.762 359.848 63.738 360.699 68.457 
c 361.488 72.922 364.207 82.445 362.656 91.078 c 364.059 101.582 365.461
 114.68 366.25 129.199 c 297.703 137.555 l h
30.02 129.199 m 30.656 117.527 31.68 106.77 32.785 97.543 c 33.125 66.566
 l 33.973 61.848 35.336 61.082 39.777 61.121 c 159.133 61.848 l 163.574 
61.867 168.871 60.57 169.699 65.289 c 170.508 69.754 170.039 81.871 168.953
 91.078 c 170.359 101.582 171.762 114.68 172.527 129.199 c 99.328 137.555
 l h
30.02 129.199 m f*
0.796078 0.886275 1 rg
48.559 378.387 m 44.84 378.387 43.859 375.836 44.922 373.18 c 47.879 365.738
 53.086 351.004 57.383 335.082 c 100.051 330.359 l 145.188 335.082 l 149.48
 351.004 154.668 365.738 157.645 373.18 c 158.707 375.836 157.73 378.387
 154.008 378.387 c h
242.258 378.387 m 238.539 378.387 237.559 375.836 238.625 373.18 c 241.602
 365.738 246.789 351.004 251.082 335.082 c 294.793 327.809 l 338.887 335.082
 l 343.18 351.004 348.387 365.738 351.344 373.18 c 352.406 375.836 351.43
 378.387 347.707 378.387 c h
242.258 378.387 m f*
0.945098 0.796078 0.52549 rg
57.383 335.078 m 61.633 319.305 64.992 302.383 64.418 290.199 c 63.016 
260.328 29.891 203.883 29.426 155.348 c 29.34 146.312 29.574 137.512 30.02
 129.199 c 172.527 129.199 l 172.973 137.512 173.227 146.312 173.141 155.348
 c 172.676 203.883 139.531 260.332 138.148 290.199 c 137.574 302.383 140.934
 319.305 145.184 335.082 c 57.383 335.082 l h
57.383 335.078 m f*
0.92549 0.745098 0.419608 rg
154.328 129.199 m 172.527 129.199 l 172.973 137.512 173.227 146.312 173.145
 155.348 c 172.676 203.883 139.531 260.332 138.148 290.199 c 137.574 302.383
 140.934 319.305 145.188 335.082 c 126.988 335.082 l 122.734 319.305 119.375
 302.383 119.93 290.199 c 121.332 260.332 154.457 203.883 154.922 155.348
 c 155.027 146.312 154.773 137.512 154.328 129.199 c h
154.328 129.199 m f*
0.666667 0.478431 0.388235 rg
251.082 335.078 m 255.332 319.305 258.691 302.383 258.117 290.199 c 256.715
 260.328 223.594 203.883 223.125 155.348 c 223.039 146.312 223.273 137.508
 223.742 129.195 c 366.25 129.195 l 366.695 137.508 366.93 146.312 366.844
 155.348 c 366.375 203.883 333.254 260.328 331.848 290.199 c 331.273 302.383
 334.633 319.305 338.887 335.078 c h
251.082 335.078 m f*
0.596078 0.419608 0.329412 rg
348.047 129.199 m 366.25 129.199 l 366.695 137.512 366.93 146.312 366.844
 155.348 c 366.375 203.883 333.254 260.332 331.848 290.199 c 331.273 302.383
 334.637 319.305 338.887 335.082 c 320.688 335.082 l 316.438 319.305 313.078
 302.383 313.652 290.199 c 315.055 260.332 348.176 203.883 348.645 155.348
 c 348.73 146.312 348.496 137.512 348.047 129.199 c h
348.047 129.199 m f*
0.745098 0.847059 0.984314 rg
126.984 335.078 m 145.184 335.078 l 149.48 351.004 154.668 365.738 157.645
 373.18 c 158.707 375.836 157.727 378.387 154.008 378.387 c 135.809 378.387
 l 139.527 378.387 140.508 375.836 139.445 373.18 c 136.469 365.738 131.281
 351.004 126.984 335.078 c h
320.688 335.078 m 338.887 335.078 l 343.18 351.004 348.391 365.738 351.344
 373.18 c 352.406 375.836 351.43 378.387 347.707 378.387 c 329.508 378.387
 l 333.23 378.387 334.207 375.836 333.145 373.18 c 330.168 365.738 324.98
 351.004 320.688 335.078 c h
320.688 335.078 m f*
0.866667 0.917647 0.984314 rg
334.633 65.312 m 352.832 65.312 l 357.297 65.312 358.66 66.035 359.488 
70.754 c 361.23 80.512 364.805 102.453 366.25 129.199 c 348.047 129.199 
l 346.602 102.453 343.031 80.512 341.289 70.754 c 340.457 66.035 339.098
 65.312 334.633 65.312 c h
140.934 65.312 m 159.133 65.312 l 163.574 65.312 164.938 66.035 165.785
 70.754 c 167.527 80.512 171.102 102.453 172.527 129.199 c 154.328 129.199
 l 152.902 102.453 149.332 80.512 147.59 70.754 c 146.738 66.035 145.379
 65.312 140.934 65.312 c h
140.934 65.312 m f*
1 0.945098 0.886275 rg
43.414 31.359 m 24.684 31.359 9.48 46.562 9.48 65.312 c 9.48 80.344 19.242
 93.098 32.781 97.543 c 34.227 85.637 35.781 76.262 36.758 70.754 c 37.609
 66.035 38.969 65.312 43.414 65.312 c 62.461 65.312 l 69.777 65.312 69.605
 67.184 72.859 72.773 c 78.746 82.938 92.695 89.93 108.789 89.93 c 125.199
 89.93 139.105 82.512 145.059 72.18 c 147.715 67.566 149.141 65.312 154.434
 65.312 c 159.133 65.312 l 163.574 65.312 164.934 66.035 165.785 70.754 
c 166.594 75.219 167.762 82.234 168.953 91.078 c 176.203 84.871 180.816 
75.625 180.816 65.312 c 180.73 47.645 167.336 32.934 149.715 31.488 c 144.078
 31.02 145.293 32.871 141.996 27.426 c 133.77 13.82 118.629 5.676 102.836
 5.633 c 85.699 5.699 69.969 15.074 62.035 30.316 c 59.719 34.738 58.742
 35.121 55.828 33.742 c 52.258 32.039 47.367 31.379 43.414 31.359 c h
43.414 31.359 m f*
237.137 31.359 m 218.383 31.34 203.184 46.562 203.184 65.312 c 203.184 
80.344 212.961 93.098 226.504 97.543 c 227.93 85.637 229.504 76.262 230.48
 70.754 c 231.309 66.035 232.672 65.312 237.137 65.312 c 256.164 65.312 
l 263.496 65.312 263.305 67.184 266.559 72.773 c 272.469 82.938 286.395 
89.93 302.488 89.93 c 318.902 89.93 332.824 82.512 338.758 72.18 c 341.414
 67.566 342.859 65.312 348.133 65.312 c 352.832 65.312 l 357.297 65.312 
358.66 66.035 359.488 70.754 c 360.293 75.219 361.465 82.234 362.656 91.078
 c 369.926 84.871 374.52 75.625 374.52 65.312 c 374.434 47.668 361.039 32.914
 343.434 31.488 c 337.844 31.02 338.973 32.828 335.719 27.426 c 327.617 
14.035 312.438 5.676 296.832 5.633 c 279.57 5.57 263.84 15.094 255.738 30.316
 c 253.461 34.613 252.59 34.891 248.891 33.441 c 245.277 32.039 240.855 
31.359 237.137 31.359 c h
237.137 31.359 m f*
68.859 153.031 m 75.898 153.031 81.598 158.727 81.598 165.766 c 81.598 
172.801 75.898 178.52 68.859 178.52 c 61.824 178.52 56.105 172.801 56.105
 165.766 c 56.105 158.727 61.824 153.031 68.859 153.031 c h
113.445 187.621 m 124.395 187.621 133.281 196.508 133.281 207.457 c 133.281
 218.406 124.395 227.293 113.445 227.293 c 102.496 227.293 93.609 218.402
 93.609 207.457 c 93.609 196.508 102.496 187.621 113.445 187.621 c h
101.281 269.344 m 108.32 269.344 114.02 275.043 114.02 282.078 c 114.02
 289.117 108.32 294.812 101.281 294.812 c 94.246 294.812 88.527 289.117 
88.527 282.078 c 88.527 275.043 94.246 269.344 101.281 269.344 c h
101.281 269.344 m f*
0.960784 0.839216 0.780392 rg
325.109 161.047 m 332.145 161.047 337.867 166.742 337.867 173.781 c 337.867
 180.816 332.145 186.516 325.109 186.516 c 318.094 186.516 312.375 180.816
 312.375 173.781 c 312.375 166.742 318.094 161.047 325.109 161.047 c h
294.984 284.078 m 302.023 284.078 307.719 289.777 307.719 296.812 c 307.719
 303.848 302.02 309.57 294.984 309.57 c 287.949 309.57 282.25 303.852 282.25
 296.812 c 282.25 289.773 287.949 284.078 294.984 284.078 c h
285.078 218.555 m 292.113 218.555 297.812 224.273 297.812 231.289 c 297.812
 238.324 292.113 244.043 285.078 244.043 c 278.039 244.043 272.344 238.324
 272.344 231.289 c 272.34 224.273 278.039 218.555 285.078 218.555 c h
285.078 218.555 m f*
0.988235 0.909804 0.776471 rg
278.633 12.906 m 294.219 12.969 309.422 21.301 317.52 34.719 c 320.773 
40.117 319.625 38.312 325.215 38.758 c 339.48 39.906 350.961 49.793 354.875
 62.867 c 355.129 63.719 355.363 64.59 355.555 65.48 c 357.914 65.887 358.848
 67.16 359.488 70.754 c 360.297 75.219 361.465 82.234 362.656 91.078 c 369.926
 84.871 374.52 75.625 374.52 65.312 c 374.434 47.668 361.039 32.914 343.438
 31.488 c 337.844 31.02 338.973 32.824 335.719 27.426 c 327.617 14.031 312.441
 5.676 296.836 5.633 c 287.375 5.59 278.359 8.441 270.812 13.543 c 273.383
 13.117 276 12.906 278.633 12.906 c h
278.633 12.906 m f*
84.934 12.906 m 100.52 12.969 115.719 21.301 123.797 34.719 c 127.051 40.117
 125.926 38.312 131.516 38.758 c 145.762 39.906 157.262 49.793 161.172 62.867
 c 161.43 63.719 161.641 64.59 161.832 65.48 c 164.215 65.887 165.148 67.16
 165.785 70.754 c 166.594 75.219 167.766 82.234 168.953 91.078 c 176.203
 84.871 180.816 75.625 180.816 65.312 c 180.734 47.668 167.34 32.914 149.715
 31.488 c 144.121 31.02 145.25 32.824 141.996 27.426 c 133.918 14.031 118.715
 5.676 103.133 5.633 c 93.672 5.59 84.656 8.441 77.109 13.543 c 79.66 13.117
 82.277 12.906 84.934 12.906 c h
84.934 12.906 m f*
0 g
45.625 209.602 m 46.559 212.539 44.945 215.707 41.988 216.641 c 39.055 
217.598 35.887 215.98 34.93 213.027 c 31.91 203.586 29.191 193.938 27.191
 184.305 c 25.172 174.59 23.918 164.875 23.812 155.391 c 23.77 150.797 23.812
 146.27 23.918 141.871 c 24.172 131.473 24.789 121.27 25.746 110.895 c 26.066
 107.387 26.383 104.156 26.727 101.18 c 20.582 98.309 15.285 93.906 11.352
 88.441 c 6.633 81.918 3.848 73.922 3.848 65.312 c 3.848 54.383 8.27 44.477
 15.438 37.332 c 22.602 30.168 32.484 25.727 43.414 25.727 c 46.793 25.727
 50.066 26.172 53.215 26.957 c 54.449 27.277 55.66 27.66 56.871 28.086 c
 57.254 27.34 57.656 26.598 58.062 25.875 c 59.484 23.449 61.102 21.113 
62.91 18.902 c 64.887 16.52 68.414 16.18 70.797 18.137 c 73.199 20.113 73.539
 23.641 71.562 26.023 c 70.18 27.703 68.906 29.551 67.777 31.508 c 66.672
 33.422 65.715 35.422 64.949 37.461 c 63.758 40.672 59.996 42.055 57.02 
40.438 c 55 39.332 52.812 38.461 50.449 37.867 c 48.219 37.293 45.859 36.996
 43.414 36.996 c 35.59 36.996 28.512 40.164 23.387 45.285 c 18.262 50.41
 15.094 57.488 15.094 65.312 c 15.094 71.52 17.07 77.238 20.43 81.895 c 
22.535 84.785 25.172 87.273 28.191 89.207 c 28.594 86.188 29 83.426 29.383
 80.914 c 30.086 76.344 30.742 72.559 31.23 69.773 c 31.91 65.949 33.039
 63.566 35.312 61.824 c 37.566 60.082 39.969 59.676 43.414 59.676 c 62.465
 59.676 l 72.074 59.676 73.242 61.824 76.578 67.945 c 76.855 68.457 77.152
 69.008 77.707 69.965 c 80.109 74.109 84.297 77.641 89.633 80.191 c 95.098
 82.785 101.688 84.293 108.789 84.293 c 115.977 84.293 122.586 82.742 128.008
 80.086 c 133.473 77.406 137.723 73.688 140.211 69.391 c 141.828 66.562 
143.102 64.438 145.145 62.715 c 147.547 60.676 150.309 59.676 154.434 59.676
 c 159.133 59.676 l 162.578 59.676 165 60.082 167.234 61.824 c 169.508 63.566
 170.633 65.949 171.336 69.773 c 171.633 71.453 172.039 73.812 172.57 77.215
 c 174.312 73.473 175.184 69.434 175.184 65.312 c 175.184 57.488 172.016
 50.406 166.895 45.285 c 161.004 39.395 152.926 36.441 144.656 37.055 c 
142.145 37.246 139.895 35.758 139.023 33.547 c 135.684 26.895 130.539 21.281
 124.227 17.348 c 118.039 13.477 110.703 11.246 102.836 11.246 c 100.52 
11.246 98.309 11.438 96.203 11.777 c 94.016 12.141 91.867 12.691 89.785 
13.395 c 86.848 14.391 83.66 12.816 82.66 9.887 c 81.664 6.949 83.234 3.762
 86.168 2.762 c 88.805 1.871 91.547 1.168 94.398 0.699 c 97.203 0.234 100.027
 0 102.836 0 c 112.871 0 122.223 2.871 130.152 7.824 c 137.297 12.27 143.273
 18.434 147.523 25.746 c 158.195 25.918 167.828 30.316 174.844 37.332 c 
182.008 44.477 186.43 54.383 186.43 65.312 c 186.43 71.18 185.133 76.77 
182.816 81.832 c 180.859 86.082 178.16 89.953 174.887 93.227 c 175.457 97.84
 176.055 102.879 176.566 108.301 c 177.672 119.523 178.371 130.621 178.629
 141.871 c 178.734 146.27 178.777 150.797 178.734 155.391 c 178.457 184.242
 167.254 215.195 157.496 242.152 c 150.523 261.438 144.293 278.594 143.738
 290.434 c 143.316 299.535 145.293 311.715 148.184 324.047 c 151.902 339.844
 156.879 356.172 162.852 371.117 c 165.551 377.879 161.258 384 154.008 384
 c 48.559 384 l 41.285 384 37.012 377.879 39.711 371.117 c 45.664 356.172
 50.66 339.844 54.363 324.047 c 57.273 311.715 59.23 299.535 58.805 290.434
 c 58.125 275.977 49.875 255.695 44.984 241.941 c 44.965 241.898 43.602 
238.113 43.305 237.285 c 42.266 234.371 43.793 231.184 46.707 230.141 c 
49.621 229.078 52.809 230.609 53.852 233.523 c 55.766 238.793 53.934 233.691
 55.617 238.328 c 62.887 258.438 69.371 276.359 70.008 289.969 c 70.602 
302.555 67.625 317.199 64.629 329.469 c 137.934 329.469 l 134.914 317.203
 131.938 302.555 132.535 289.969 c 133.172 276.359 139.656 258.438 146.949
 238.328 c 156.41 212.176 167.273 182.18 167.527 155.305 c 167.57 150.883
 167.527 146.484 167.422 142.145 c 167.379 139.723 167.293 137.277 167.188
 134.812 c 35.375 134.812 l 35.27 137.277 35.184 139.723 35.121 142.145 
c 35.016 146.484 34.973 150.883 35.016 155.305 c 35.102 163.98 36.289 172.973
 38.184 182.051 c 40.074 191.215 42.691 200.484 45.625 209.602 c h
113.445 181.984 m 120.48 181.984 126.836 184.836 131.453 189.449 c 136.066
 194.062 138.914 200.418 138.914 207.457 c 138.914 214.492 136.066 220.848
 131.453 225.465 c 126.84 230.078 120.48 232.926 113.445 232.926 c 106.406
 232.926 100.051 230.078 95.438 225.465 c 90.824 220.848 87.973 214.492 
87.973 207.457 c 87.973 200.418 90.824 194.062 95.438 189.449 c 100.051 
184.836 106.406 181.984 113.445 181.984 c h
123.5 197.398 m 120.93 194.828 117.379 193.234 113.445 193.234 c 109.512
 193.234 105.961 194.828 103.387 197.398 c 100.816 199.973 99.223 203.523
 99.223 207.457 c 99.223 211.387 100.816 214.941 103.387 217.512 c 105.961
 220.082 109.512 221.656 113.445 221.656 c 117.379 221.656 120.93 220.082
 123.5 217.512 c 126.074 214.938 127.668 211.387 127.668 207.457 c 127.668
 203.523 126.074 199.973 123.5 197.398 c h
325.109 155.41 m 330.191 155.41 334.781 157.473 338.098 160.789 c 341.438
 164.129 343.477 168.723 343.477 173.781 c 343.477 178.863 341.438 183.453
 338.098 186.77 c 334.781 190.086 330.191 192.148 325.109 192.148 c 320.051
 192.148 315.457 190.086 312.141 186.77 c 308.805 183.453 306.762 178.863
 306.762 173.781 c 306.762 168.723 308.805 164.129 312.141 160.789 c 315.457
 157.473 320.051 155.41 325.109 155.41 c h
330.148 168.742 m 328.871 167.465 327.086 166.66 325.109 166.66 c 323.152
 166.66 321.367 167.465 320.09 168.742 c 318.797 170.039 318.008 171.824
 318.008 173.781 c 318.008 175.758 318.797 177.523 320.09 178.82 c 321.367
 180.094 323.152 180.902 325.109 180.902 c 327.086 180.902 328.871 180.094
 330.148 178.82 c 331.445 177.523 332.23 175.758 332.23 173.781 c 332.23
 171.824 331.445 170.039 330.148 168.742 c h
285.078 212.941 m 290.16 212.941 294.75 214.98 298.066 218.32 c 301.383
 221.637 303.445 226.23 303.445 231.289 c 303.445 236.371 301.383 240.961
 298.066 244.277 c 294.75 247.617 290.16 249.656 285.078 249.656 c 280.016
 249.656 275.426 247.617 272.086 244.277 c 268.77 240.961 266.707 236.371
 266.707 231.289 c 266.707 226.23 268.77 221.637 272.086 218.32 c 275.426
 214.98 280.016 212.941 285.078 212.941 c h
290.117 226.27 m 288.82 224.973 287.035 224.188 285.074 224.188 c 283.121
 224.188 281.336 224.973 280.039 226.27 c 278.762 227.547 277.953 229.332
 277.953 231.289 c 277.953 233.266 278.762 235.051 280.039 236.328 c 281.336
 237.625 283.121 238.41 285.074 238.41 c 287.031 238.41 288.816 237.625 
290.117 236.328 c 291.391 235.051 292.199 233.266 292.199 231.289 c 292.199
 229.332 291.391 227.547 290.117 226.27 c h
294.984 278.465 m 300.066 278.465 304.656 280.504 307.973 283.844 c 311.289
 287.16 313.352 291.754 313.352 296.812 c 313.352 301.895 311.289 306.484
 307.973 309.801 c 304.656 313.141 300.066 315.18 294.984 315.18 c 289.926
 315.18 285.332 313.141 281.992 309.801 c 278.676 306.484 276.617 301.895
 276.617 296.812 c 276.617 291.754 278.676 287.16 281.992 283.844 c 285.332
 280.504 289.922 278.465 294.984 278.465 c h
300.023 291.797 m 298.727 290.5 296.961 289.711 294.984 289.711 c 293.027
 289.711 291.242 290.5 289.945 291.797 c 288.668 293.07 287.863 294.855 
287.863 296.812 c 287.863 298.789 288.668 300.574 289.945 301.852 c 291.242
 303.148 293.027 303.934 294.984 303.934 c 296.961 303.934 298.727 303.148
 300.023 301.852 c 301.297 300.574 302.105 298.789 302.105 296.812 c 302.105
 294.855 301.297 293.07 300.023 291.797 c h
101.281 263.711 m 106.344 263.711 110.934 265.773 114.273 269.09 c 117.59
 272.406 119.652 276.996 119.652 282.078 c 119.652 287.137 117.59 291.73
 114.273 295.07 c 110.934 298.387 106.344 300.449 101.281 300.449 c 96.203
 300.449 91.609 298.387 88.293 295.07 c 84.977 291.73 82.914 287.137 82.914
 282.078 c 82.914 276.996 84.977 272.406 88.293 269.09 c 91.609 265.773 
96.203 263.711 101.281 263.711 c h
106.301 277.039 m 105.023 275.766 103.238 274.957 101.285 274.957 c 99.309
 274.957 97.543 275.766 96.246 277.039 c 94.949 278.336 94.16 280.121 94.16
 282.078 c 94.16 284.035 94.949 285.82 96.246 287.117 c 97.543 288.395 99.309
 289.203 101.285 289.203 c 103.238 289.203 105.027 288.395 106.301 287.117
 c 107.598 285.82 108.383 284.035 108.383 282.078 c 108.383 280.121 107.598
 278.336 106.301 277.039 c h
68.859 147.418 m 73.922 147.418 78.512 149.461 81.832 152.797 c 85.168 
156.113 87.207 160.707 87.207 165.766 c 87.207 170.848 85.168 175.438 81.832
 178.754 c 78.512 182.094 73.922 184.133 68.859 184.133 c 63.781 184.133
 59.188 182.094 55.871 178.754 c 52.535 175.438 50.492 170.848 50.492 165.766
 c 50.492 160.707 52.535 156.113 55.871 152.797 c 59.188 149.457 63.781 
147.418 68.859 147.418 c h
73.879 160.746 m 72.602 159.449 70.816 158.664 68.859 158.664 c 66.883 
158.664 65.098 159.449 63.824 160.746 c 62.527 162.023 61.738 163.809 61.738
 165.766 c 61.738 167.742 62.527 169.527 63.824 170.805 c 65.098 172.102
 66.883 172.887 68.859 172.887 c 70.816 172.887 72.602 172.102 73.879 170.805
 c 75.176 169.527 75.961 167.742 75.961 165.766 c 75.961 163.809 75.176 
162.023 73.879 160.746 c h
256.609 18.898 m 258.586 16.52 262.117 16.18 264.52 18.137 c 266.898 20.113
 267.238 23.641 265.285 26.023 c 263.883 27.703 262.625 29.551 261.5 31.508
 c 260.371 33.422 259.438 35.422 258.652 37.461 c 257.461 40.672 253.719
 42.055 250.723 40.438 c 248.723 39.332 246.512 38.461 244.152 37.867 c 
241.918 37.289 239.559 36.992 237.137 36.992 c 229.312 36.992 222.234 40.16
 217.109 45.285 c 211.984 50.41 208.816 57.488 208.816 65.312 c 208.816 
71.52 210.797 77.238 214.152 81.895 c 216.234 84.785 218.875 87.273 221.891
 89.207 c 222.316 86.188 222.723 83.426 223.102 80.914 c 223.805 76.344 
224.445 72.562 224.934 69.777 c 225.613 65.949 226.738 63.566 229.016 61.824
 c 231.27 60.082 233.691 59.676 237.137 59.676 c 256.164 59.676 l 265.773
 59.676 266.941 61.824 270.281 67.945 c 270.555 68.457 270.852 69.008 271.426
 69.965 c 273.828 74.109 277.996 77.641 283.332 80.191 c 288.797 82.785 
295.387 84.297 302.488 84.297 c 309.695 84.297 316.285 82.746 321.727 80.086
 c 327.172 77.41 331.445 73.688 333.91 69.391 c 335.527 66.566 336.801 64.438
 338.844 62.719 c 341.266 60.676 344.031 59.676 348.133 59.676 c 352.832
 59.676 l 356.277 59.676 358.699 60.082 360.953 61.824 c 363.23 63.566 364.355
 65.949 365.035 69.777 c 365.332 71.453 365.738 73.816 366.289 77.215 c 
368.012 73.477 368.883 69.434 368.883 65.312 c 368.883 57.488 365.715 50.41
 360.59 45.285 c 354.703 39.395 346.625 36.441 338.352 37.059 c 335.844 
37.246 333.613 35.762 332.719 33.551 c 329.383 26.895 324.234 21.281 317.945
 17.348 c 311.738 13.48 304.422 11.246 296.559 11.246 c 294.219 11.246 292.008
 11.438 289.902 11.777 c 287.711 12.141 285.586 12.691 283.48 13.395 c 280.547
 14.391 277.359 12.82 276.359 9.887 c 275.379 6.953 276.953 3.762 279.887
 2.766 c 282.504 1.871 285.246 1.168 288.094 0.703 c 290.902 0.234 293.73
 0 296.559 0 c 306.57 0 315.926 2.871 323.875 7.824 c 331 12.27 336.992 
18.434 341.223 25.746 c 351.898 25.918 361.527 30.316 368.543 37.332 c 375.707
 44.477 380.152 54.383 380.152 65.312 c 380.152 71.18 378.855 76.77 376.516
 81.832 c 374.562 86.082 371.859 89.93 368.586 93.227 c 369.16 97.648 369.715
 102.516 370.227 107.703 c 371.352 119.121 372.074 130.43 372.352 141.871
 c 372.457 146.27 372.5 150.797 372.434 155.391 c 372.16 184.242 360.953
 215.195 351.195 242.152 c 344.223 261.438 338.016 278.594 337.441 290.434
 c 337.016 299.535 338.992 311.715 341.883 324.047 c 345.605 339.844 350.578
 356.172 356.555 371.117 c 359.254 377.879 354.961 384 347.711 384 c 242.258
 384 l 235.012 384 230.715 377.879 233.414 371.117 c 239.391 356.172 244.363
 339.844 248.086 324.047 c 250.977 311.715 252.953 299.535 252.527 290.434
 c 251.785 274.789 242.559 252.613 237.031 237.285 c 235.988 234.371 237.496
 231.184 240.41 230.141 c 243.324 229.078 246.535 230.609 247.574 233.523
 c 248.895 237.199 247.66 233.758 249.32 238.328 c 256.609 258.438 263.094
 276.359 263.734 289.969 c 264.328 302.555 261.352 317.199 258.332 329.469
 c 331.637 329.469 l 328.621 317.203 325.664 302.555 326.238 289.969 c 326.875
 276.359 333.359 258.438 340.652 238.328 c 350.113 212.176 360.977 182.18
 361.23 155.305 c 361.273 150.883 361.254 146.484 361.148 142.145 c 361.082
 139.723 361 137.277 360.891 134.812 c 229.078 134.812 l 228.973 137.277
 228.891 139.723 228.848 142.145 c 228.738 146.484 228.699 150.883 228.738
 155.305 c 228.824 163.98 230.016 172.973 231.887 182.051 c 233.801 191.215
 236.414 200.484 239.328 209.605 c 240.285 212.539 238.648 215.707 235.715
 216.641 c 232.758 217.598 229.59 215.98 228.656 213.027 c 225.637 203.59
 222.914 193.938 220.914 184.305 c 218.898 174.59 217.621 164.875 217.535
 155.391 c 217.492 150.797 217.516 146.27 217.621 141.871 c 217.875 131.73
 218.469 121.758 219.383 111.637 c 219.727 107.832 220.066 104.344 220.426
 101.18 c 214.285 98.309 208.988 93.906 205.055 88.441 c 200.336 81.918 
197.551 73.922 197.551 65.312 c 197.551 54.387 201.996 44.477 209.16 37.336
 c 216.301 30.168 226.207 25.727 237.137 25.727 c 240.496 25.727 243.789
 26.172 246.914 26.957 c 248.168 27.277 249.383 27.66 250.57 28.086 c 250.953
 27.34 251.359 26.598 251.785 25.875 c 253.188 23.449 254.801 21.109 256.609
 18.898 c h
355.383 80.148 m 355 77.684 354.578 75.027 354.129 72.668 c 353.875 71.328
 353.195 70.965 351.875 70.922 c 348.133 70.922 l 346.965 70.922 346.391
 71.051 346.094 71.285 c 345.434 71.859 344.648 73.176 343.625 74.961 c 
340.035 81.215 334.082 86.508 326.641 90.141 c 319.688 93.543 311.375 95.543
 302.488 95.543 c 293.688 95.543 285.418 93.648 278.508 90.332 c 271.172
 86.848 265.285 81.723 261.711 75.598 c 261.352 74.961 260.859 74.09 260.438
 73.305 c 259.48 71.539 259.141 70.922 256.164 70.922 c 237.945 70.922 l
 236.562 70.984 236.094 71.367 235.883 72.516 c 235.395 75.133 234.84 78.531
 234.223 82.57 c 232.691 92.48 231.438 102.641 230.547 112.633 c 230.227
 116.098 229.949 119.758 229.695 123.562 c 360.273 123.562 l 359.934 118.395
 359.531 113.441 359.062 108.785 c 358.125 99.223 356.895 89.652 355.383
 80.148 c h
36.906 111.891 m 36.566 115.59 36.25 119.48 35.973 123.562 c 166.57 123.562
 l 166.23 118.59 165.848 113.828 165.402 109.34 c 164.469 99.582 163.215
 89.844 161.684 80.148 c 161.301 77.707 160.703 75.113 160.43 72.73 c 160.32
 71.793 159.047 70.965 157.898 70.922 c 154.434 70.922 l 151.562 70.922 
151.328 72.52 149.906 74.965 c 146.312 81.215 140.379 86.508 132.938 90.141
 c 125.965 93.543 117.676 95.543 108.785 95.543 c 99.965 95.543 91.715 93.648
 84.785 90.332 c 77.449 86.848 71.559 81.723 67.988 75.602 c 67.629 74.961
 67.16 74.09 66.734 73.305 c 65.777 71.539 65.438 70.922 62.461 70.922 c
 44.859 70.922 l 43.539 70.879 42.438 71.137 42.008 73.367 c 41.543 75.855
 41.055 78.957 40.5 82.574 c 39.012 92.289 37.801 102.133 36.906 111.891
 c h
334.613 340.715 m 255.355 340.715 l 251.699 353.641 247.617 365.441 244.809
 372.754 c 345.156 372.754 l 342.371 365.441 338.27 353.641 334.613 340.715
 c h
61.633 340.715 m 58 353.641 53.895 365.441 51.09 372.754 c 151.457 372.754
 l 148.652 365.441 144.57 353.641 140.914 340.715 c h
61.633 340.715 m f
Q Q
showpage
%%Trailer
end
%%EOF
