%!PS-Adobe-3.0 EPSF-3.0
%%Creator: cairo 1.16.0 (https://cairographics.org)
%%CreationDate: Thu Dec 10 07:54:50 2020
%%Pages: 1
%%DocumentData: Clean7Bit
%%LanguageLevel: 2
%%BoundingBox: 0 72 384 312
%%EndComments
%%BeginProlog
50 dict begin
/q { gsave } bind def
/Q { grestore } bind def
/cm { 6 array astore concat } bind def
/w { setlinewidth } bind def
/J { setlinecap } bind def
/j { setlinejoin } bind def
/M { setmiterlimit } bind def
/d { setdash } bind def
/m { moveto } bind def
/l { lineto } bind def
/c { curveto } bind def
/h { closepath } bind def
/re { exch dup neg 3 1 roll 5 3 roll moveto 0 rlineto
      0 exch rlineto 0 rlineto closepath } bind def
/S { stroke } bind def
/f { fill } bind def
/f* { eofill } bind def
/n { newpath } bind def
/W { clip } bind def
/W* { eoclip } bind def
/BT { } bind def
/ET { } bind def
/BDC { mark 3 1 roll /BDC pdfmark } bind def
/EMC { mark /EMC pdfmark } bind def
/cairo_store_point { /cairo_point_y exch def /cairo_point_x exch def } def
/Tj { show currentpoint cairo_store_point } bind def
/TJ {
  {
    dup
    type /stringtype eq
    { show } { -0.001 mul 0 cairo_font_matrix dtransform rmoveto } ifelse
  } forall
  currentpoint cairo_store_point
} bind def
/cairo_selectfont { cairo_font_matrix aload pop pop pop 0 0 6 array astore
    cairo_font exch selectfont cairo_point_x cairo_point_y moveto } bind def
/Tf { pop /cairo_font exch def /cairo_font_matrix where
      { pop cairo_selectfont } if } bind def
/Td { matrix translate cairo_font_matrix matrix concatmatrix dup
      /cairo_font_matrix exch def dup 4 get exch 5 get cairo_store_point
      /cairo_font where { pop cairo_selectfont } if } bind def
/Tm { 2 copy 8 2 roll 6 array astore /cairo_font_matrix exch def
      cairo_store_point /cairo_font where { pop cairo_selectfont } if } bind def
/g { setgray } bind def
/rg { setrgbcolor } bind def
/d1 { setcachedevice } bind def
/cairo_data_source {
  CairoDataIndex CairoData length lt
    { CairoData CairoDataIndex get /CairoDataIndex CairoDataIndex 1 add def }
    { () } ifelse
} def
/cairo_flush_ascii85_file { cairo_ascii85_file status { cairo_ascii85_file flushfile } if } def
/cairo_image { image cairo_flush_ascii85_file } def
/cairo_imagemask { imagemask cairo_flush_ascii85_file } def
%%EndProlog
%%BeginSetup
%%EndSetup
%%Page: 1 1
%%BeginPageSetup
%%PageBoundingBox: 0 72 384 312
%%EndPageSetup
q 0 72 384 240 rectclip
1 0 0 -1 0 384 cm q
0.701961 0.898039 0.623529 rg
90.758 177.773 m 119.805 200.992 126.777 242.941 105.707 274.367 c 84.613
 305.812 43.113 315.336 10.625 297.18 c 5.16 294.141 6.031 293.289 8.84 
289.27 c 82.723 179.113 l 84.871 175.82 86.91 174.715 90.758 177.773 c h
90.758 177.773 m f*
0.584314 0.839216 0.643137 rg
90.758 177.773 m 119.805 200.992 126.777 242.941 105.707 274.367 c 89.973
 297.84 62.863 309.086 36.629 305.746 c 56.594 303.219 75.41 292.395 87.508
 274.367 c 106.789 245.578 102.582 207.988 79.43 184.027 c 82.723 179.113
 l 84.871 175.82 86.91 174.715 90.758 177.773 c h
90.758 177.773 m f*
0.92549 0.745098 0.419608 rg
70.051 197.996 m 90.035 211.41 95.371 238.477 81.977 258.461 c 68.562 278.449
 41.496 283.785 21.512 270.367 c h
70.051 197.996 m f*
0.796078 0.886275 1 rg
123.289 77.676 m 127.031 77.676 l 205.465 91.922 l 255.281 77.676 l 259.043
 77.676 l 269.121 77.676 278.348 85.969 277.395 96.023 c 263.379 242.539
 l 219.645 306.344 l 141.617 306.344 l 131.539 306.344 124.246 298.031 123.289
 287.996 c 104.941 96.023 l 103.984 85.969 113.191 77.676 123.289 77.676
 c h
123.289 77.676 m f*
0.745098 0.847059 0.984314 rg
255.281 77.676 m 259.043 77.676 l 269.121 77.676 278.348 85.969 277.395
 96.023 c 263.379 242.539 l 242.629 269.262 l 259.172 96.027 l 259.641 91.262
 257.812 86.926 254.707 83.633 c h
255.281 77.676 m f*
0.92549 0.956863 1 rg
127.031 77.676 m 131.008 119.328 l 251.305 119.328 l 255.281 77.676 l h
127.031 77.676 m f*
0.866667 0.917647 0.984314 rg
233.105 119.328 m 251.305 119.328 l 255.281 77.676 l 237.082 77.676 l h
233.105 119.328 m f*
0.945098 0.796078 0.52549 rg
131.008 119.328 m 140.766 221.254 l 143.02 244.961 163.324 264.375 191.156
 264.375 c 218.988 264.375 239.293 244.961 241.566 221.254 c 251.305 119.328
 l h
131.008 119.328 m f*
0.92549 0.745098 0.419608 rg
182.055 263.652 m 184.988 264.117 188.031 264.375 191.156 264.375 c 218.988
 264.375 239.293 244.961 241.566 221.254 c 251.305 119.328 l 233.105 119.328
 l 223.344 221.254 l 221.348 242.281 205.125 259.93 182.055 263.652 c h
182.055 263.652 m f*
0.960784 0.980392 1 rg
217.391 301.73 m 278.18 223.488 l 288.043 210.793 304.16 210.793 314.027
 223.488 c 374.812 301.73 l 377.152 304.75 375.855 306.344 372.559 306.344
 c 219.645 306.344 l 216.395 306.344 215.52 304.133 217.391 301.73 c h
217.391 301.73 m f*
0.92549 0.956863 1 rg
287.004 216.133 m 296.059 211.668 306.754 214.133 314.027 223.488 c 374.812
 301.73 l 377.152 304.75 375.855 306.344 372.559 306.344 c 354.359 306.344
 l 357.652 306.344 358.953 304.75 356.613 301.73 c 295.824 223.488 l 293.234
 220.172 290.211 217.703 287.004 216.133 c h
287.004 216.133 m f*
1 0.945098 0.886275 rg
177.164 142.164 m 184.691 142.164 190.816 148.266 190.816 155.812 c 190.816
 163.34 184.691 169.461 177.164 169.461 c 169.617 169.461 163.496 163.34
 163.496 155.812 c 163.496 148.266 169.617 142.164 177.164 142.164 c h
201.086 192.211 m 209.887 192.211 217.008 199.336 217.008 208.137 c 217.008
 216.938 209.887 224.059 201.086 224.059 c 192.305 224.059 185.16 216.938
 185.16 208.137 c 185.16 199.336 192.305 192.211 201.086 192.211 c h
201.086 192.211 m f*
0 g
73.453 259.992 m 53.719 246.746 l 58.312 270.07 l 63.992 268.051 69.223
 264.648 73.453 259.992 c h
308.84 287.613 m 305.734 287.613 303.227 285.102 303.227 282 c 303.227 
278.895 305.734 276.363 308.84 276.363 c 328.504 276.363 l 331.609 276.363
 334.117 278.895 334.117 282 c 334.117 285.102 331.609 287.613 328.504 287.613
 c h
286.281 265.777 m 283.176 265.777 280.645 263.266 280.645 260.164 c 280.645
 257.039 283.176 254.531 286.281 254.531 c 305.926 254.531 l 309.027 254.531
 311.559 257.039 311.559 260.164 c 311.559 263.27 309.027 265.777 305.926
 265.777 c h
263.699 287.613 m 260.594 287.613 258.086 285.102 258.086 282 c 258.086
 278.895 260.598 276.363 263.699 276.363 c 283.367 276.363 l 286.473 276.363
 288.98 278.895 288.98 282 c 288.98 285.102 286.469 287.613 283.367 287.613
 c h
177.164 136.527 m 182.48 136.527 187.309 138.695 190.793 142.184 c 194.281
 145.672 196.43 150.477 196.43 155.812 c 196.43 161.129 194.281 165.953 
190.793 169.441 c 187.309 172.926 182.48 175.074 177.164 175.074 c 171.828
 175.074 167.023 172.93 163.516 169.441 c 160.031 165.953 157.883 161.129
 157.883 155.812 c 157.883 150.477 160.027 145.672 163.516 142.184 c 167.023
 138.695 171.828 136.527 177.164 136.527 c h
182.82 150.137 m 181.375 148.668 179.379 147.777 177.164 147.777 c 174.934
 147.777 172.934 148.668 171.488 150.137 c 170.023 151.582 169.129 153.582
 169.129 155.812 c 169.129 158.023 170.023 160.023 171.488 161.488 c 172.938
 162.934 174.934 163.828 177.164 163.828 c 179.379 163.828 181.375 162.934
 182.82 161.488 c 184.289 160.023 185.18 158.023 185.18 155.812 c 185.18
 153.578 184.289 151.582 182.82 150.137 c h
201.086 186.578 m 207.039 186.578 212.438 189 216.328 192.891 c 220.242
 196.805 222.645 202.184 222.645 208.137 c 222.645 214.09 220.242 219.469
 216.328 223.379 c 212.438 227.273 207.039 229.695 201.086 229.695 c 195.133
 229.695 189.754 227.273 185.859 223.379 c 181.949 219.469 179.547 214.09
 179.547 208.137 c 179.547 202.184 181.949 196.805 185.859 192.891 c 189.754
 189 195.133 186.578 201.086 186.578 c h
208.379 200.844 m 206.508 198.996 203.934 197.848 201.086 197.848 c 198.258
 197.848 195.664 198.996 193.812 200.844 c 191.941 202.715 190.793 205.289
 190.793 208.137 c 190.793 210.984 191.941 213.559 193.812 215.43 c 195.664
 217.281 198.258 218.449 201.086 218.449 c 203.934 218.449 206.508 217.281
 208.379 215.43 c 210.25 213.559 211.398 210.984 211.398 208.137 c 211.398
 205.289 210.25 202.715 208.379 200.844 c h
341.051 267.434 m 339.137 264.988 339.582 261.461 342.027 259.547 c 344.492
 257.652 348.023 258.078 349.914 260.547 c 382.828 302.898 l 384.719 305.344
 384.273 308.875 381.828 310.789 c 380.852 311.555 379.641 311.957 378.383
 311.957 c 141.617 311.957 l 135.133 311.957 129.496 309.363 125.309 305.176
 c 121.059 300.922 118.316 294.988 117.699 288.527 c 115.68 267.371 l 114.02
 270.879 112.086 274.324 109.852 277.641 c 97.945 295.414 79.98 306.664 
60.547 310.488 c 41.137 314.316 20.234 310.746 2.484 298.816 c -0.09 297.094
 -0.77 293.629 0.953 291.055 c 27.594 251.297 54.254 211.559 80.895 171.82
 c 82.617 169.25 86.105 168.547 88.676 170.27 c 96.457 175.5 102.984 181.879
 108.195 189.023 c 99.348 96.535 l 98.734 89.945 101.219 83.801 105.918 
79.188 c 110.469 74.699 116.891 72.043 123.289 72.043 c 259.043 72.043 l
 265.422 72.043 271.844 74.699 276.395 79.188 c 281.113 83.801 283.602 89.945
 282.965 96.535 c 270.801 223.828 l 273.738 220.043 l 275.504 217.77 277.457
 215.812 279.539 214.219 c 284.559 210.305 290.32 208.348 296.105 208.348
 c 301.887 208.348 307.648 210.305 312.668 214.219 c 314.75 215.812 316.707
 217.77 318.469 220.043 c 334.289 240.41 l 336.203 242.855 335.754 246.406
 333.309 248.301 c 330.844 250.215 327.316 249.766 325.422 247.32 c 309.582
 226.934 l 306.309 222.699 301.609 219.598 296.102 219.598 c 290.598 219.598
 285.898 222.703 282.625 226.934 c 263.508 251.531 244.418 276.133 225.301
 300.707 c 366.902 300.707 l h
245.141 124.941 m 203.637 124.941 l 200.512 124.941 198.004 122.43 198.004
 119.328 c 198.004 116.223 200.512 113.691 203.637 113.691 c 246.203 113.691
 l 249.113 83.289 l 133.195 83.289 l 136.109 113.691 l 178.145 113.691 l
 181.25 113.691 183.777 116.223 183.777 119.328 c 183.777 122.434 181.25
 124.941 178.145 124.941 c 137.195 124.941 l 146.336 220.723 l 147.355 231.375
 152.523 241.027 160.625 247.961 c 168.406 254.613 178.953 258.738 191.156
 258.738 c 203.359 258.738 213.906 254.613 221.707 247.961 c 229.789 241.027
 234.953 231.375 235.977 220.723 c h
135.176 221.785 m 121.949 83.352 l 118.844 83.672 115.934 85.074 113.785
 87.18 c 111.594 89.328 110.211 92.371 110.512 95.492 c 128.859 287.465 
l 129.219 291.289 130.816 294.758 133.262 297.223 c 135.43 299.371 138.301
 300.711 141.617 300.711 c 211.078 300.711 l 257.961 240.348 l 271.801 95.492
 l 272.098 92.371 270.719 89.328 268.527 87.18 c 266.379 85.074 263.488 
83.672 260.363 83.352 c 247.137 221.785 l 245.84 235.375 239.27 247.703 
229 256.484 c 219.242 264.844 206.168 269.988 191.156 269.988 c 176.145 
269.988 163.09 264.844 153.309 256.484 c 143.043 247.703 136.473 235.375
 135.176 221.785 c h
110.488 221.746 m 107.555 206.84 99.52 192.957 86.953 182.898 c 77.32 197.273
 l 85.996 204.629 91.547 214.516 93.629 225.082 c 96.051 237.371 93.777 
250.574 86.25 261.82 c 78.703 273.047 67.328 280.172 55.039 282.594 c 44.496
 284.676 33.246 283.297 23.148 278.066 c 13.516 292.438 l 27.57 300.238 
43.473 302.391 58.398 299.453 c 75.004 296.18 90.375 286.57 100.539 271.41
 c 110.703 256.23 113.766 238.371 110.488 221.746 c h
71.027 206.672 m 57.781 226.422 l 81.105 221.809 l 79.086 216.133 75.684
 210.902 71.027 206.672 c h
42.688 248.938 m 29.441 268.668 l 35.141 271.367 41.262 272.516 47.277 
272.242 c h
83.277 232.844 m 59.949 237.434 l 79.703 250.68 l 82.402 245.004 83.551
 238.859 83.277 232.844 c h
83.277 232.844 m f
Q Q
showpage
%%Trailer
end
%%EOF
