%!PS-Adobe-3.0 EPSF-3.0
%%Creator: cairo 1.16.0 (https://cairographics.org)
%%CreationDate: Thu Dec 10 07:54:51 2020
%%Pages: 1
%%DocumentData: Clean7Bit
%%LanguageLevel: 2
%%BoundingBox: 0 20 384 364
%%EndComments
%%BeginProlog
50 dict begin
/q { gsave } bind def
/Q { grestore } bind def
/cm { 6 array astore concat } bind def
/w { setlinewidth } bind def
/J { setlinecap } bind def
/j { setlinejoin } bind def
/M { setmiterlimit } bind def
/d { setdash } bind def
/m { moveto } bind def
/l { lineto } bind def
/c { curveto } bind def
/h { closepath } bind def
/re { exch dup neg 3 1 roll 5 3 roll moveto 0 rlineto
      0 exch rlineto 0 rlineto closepath } bind def
/S { stroke } bind def
/f { fill } bind def
/f* { eofill } bind def
/n { newpath } bind def
/W { clip } bind def
/W* { eoclip } bind def
/BT { } bind def
/ET { } bind def
/BDC { mark 3 1 roll /BDC pdfmark } bind def
/EMC { mark /EMC pdfmark } bind def
/cairo_store_point { /cairo_point_y exch def /cairo_point_x exch def } def
/Tj { show currentpoint cairo_store_point } bind def
/TJ {
  {
    dup
    type /stringtype eq
    { show } { -0.001 mul 0 cairo_font_matrix dtransform rmoveto } ifelse
  } forall
  currentpoint cairo_store_point
} bind def
/cairo_selectfont { cairo_font_matrix aload pop pop pop 0 0 6 array astore
    cairo_font exch selectfont cairo_point_x cairo_point_y moveto } bind def
/Tf { pop /cairo_font exch def /cairo_font_matrix where
      { pop cairo_selectfont } if } bind def
/Td { matrix translate cairo_font_matrix matrix concatmatrix dup
      /cairo_font_matrix exch def dup 4 get exch 5 get cairo_store_point
      /cairo_font where { pop cairo_selectfont } if } bind def
/Tm { 2 copy 8 2 roll 6 array astore /cairo_font_matrix exch def
      cairo_store_point /cairo_font where { pop cairo_selectfont } if } bind def
/g { setgray } bind def
/rg { setrgbcolor } bind def
/d1 { setcachedevice } bind def
/cairo_data_source {
  CairoDataIndex CairoData length lt
    { CairoData CairoDataIndex get /CairoDataIndex CairoDataIndex 1 add def }
    { () } ifelse
} def
/cairo_flush_ascii85_file { cairo_ascii85_file status { cairo_ascii85_file flushfile } if } def
/cairo_image { image cairo_flush_ascii85_file } def
/cairo_imagemask { imagemask cairo_flush_ascii85_file } def
%%EndProlog
%%BeginSetup
%%EndSetup
%%Page: 1 1
%%BeginPageSetup
%%PageBoundingBox: 0 20 384 364
%%EndPageSetup
q 0 20 384 344 rectclip
1 0 0 -1 0 384 cm q
0.25098 0.439216 0.576471 rg
119.715 185.59 144.57 29.848 re f*
85.996 136.672 m 107.832 136.672 l 107.832 179.402 l 85.996 179.402 l h
298.023 136.672 m 276.168 136.672 l 276.168 179.402 l 298.023 179.402 l
 h
298.023 136.672 m f*
0.666667 0.478431 0.388235 rg
11.461 358.031 m 372.562 358.031 l 375.75 358.031 378.387 355.414 378.387
 352.227 c 378.387 330.477 l 378.387 327.266 375.75 324.652 372.562 324.652
 c 223.676 324.652 l 192.234 321.547 l 160.344 324.652 l 11.461 324.652 
l 8.25 324.652 5.633 327.266 5.633 330.477 c 5.633 352.227 l 5.633 355.414
 8.25 358.031 11.461 358.031 c h
11.461 358.031 m f*
0.596078 0.419608 0.329412 rg
354.363 358.031 m 372.562 358.031 l 375.75 358.031 378.387 355.414 378.387
 352.227 c 378.387 330.477 l 378.387 327.266 375.75 324.652 372.562 324.652
 c 354.363 324.652 l 357.551 324.652 360.188 327.266 360.188 330.477 c 360.188
 352.227 l 360.188 355.414 357.551 358.031 354.363 358.031 c h
354.363 358.031 m f*
0.796078 0.886275 1 rg
192 96.703 m 209.41 96.703 223.676 110.969 223.676 128.379 c 223.676 324.652
 l 160.344 324.652 l 160.344 128.379 l 160.344 110.969 174.59 96.703 192
 96.703 c h
192 96.703 m f*
0.745098 0.847059 0.984314 rg
192 96.703 m 209.41 96.703 223.676 110.969 223.676 128.379 c 223.676 324.652
 l 205.477 324.652 l 205.477 128.379 l 205.477 114.113 195.91 101.973 182.898
 98.043 c 185.793 97.172 188.855 96.703 192 96.703 c h
192 96.703 m f*
0.866667 0.917647 0.984314 rg
107.789 229.047 m 107.789 255.77 102.922 277.453 96.902 277.453 c 90.91
 277.453 86.039 255.77 86.039 229.047 c 86.039 219.434 l 107.789 219.434
 l h
107.789 229.047 m f*
276.234 229.047 m 276.234 255.77 281.102 277.453 287.098 277.453 c 293.09
 277.453 297.961 255.77 297.961 229.047 c 297.961 219.266 l 276.234 219.266
 l h
276.234 229.047 m f*
0.615686 0.776471 0.984314 rg
287.098 171.984 m 271.344 171.984 258.566 184.762 258.566 200.516 c 258.566
 216.27 271.344 229.047 287.098 229.047 c 302.852 229.047 315.629 216.27
 315.629 200.516 c 315.629 184.762 302.852 171.984 287.098 171.984 c h
96.902 171.984 m 112.656 171.984 125.434 184.762 125.434 200.516 c 125.434
 216.27 112.656 229.047 96.902 229.047 c 81.148 229.047 68.395 216.27 68.395
 200.516 c 68.395 184.762 81.148 171.984 96.902 171.984 c h
96.902 171.984 m f*
0.501961 0.705882 0.984314 rg
287.098 171.984 m 283.906 171.984 280.848 172.516 277.996 173.473 c 289.285
 177.277 297.43 187.949 297.43 200.516 c 297.43 213.078 289.285 223.754 
277.996 227.559 c 280.848 228.516 283.906 229.047 287.098 229.047 c 302.852
 229.047 315.629 216.27 315.629 200.516 c 315.629 184.762 302.852 171.984
 287.098 171.984 c h
96.902 171.984 m 112.656 171.984 125.434 184.762 125.434 200.516 c 125.434
 216.27 112.656 229.047 96.902 229.047 c 93.734 229.047 90.676 228.516 87.805
 227.559 c 99.094 223.754 107.234 213.078 107.234 200.516 c 107.234 187.949
 99.094 177.277 87.805 173.473 c 90.676 172.516 93.734 171.984 96.902 171.984
 c h
96.902 171.984 m f*
0.854902 0.290196 0.329412 rg
287.098 25.969 m 271.469 25.969 257.164 38.812 258.715 54.352 c 259.031
 57.734 l 261.371 62.645 l 260.117 68.637 l 261.199 79.566 l 263.391 85.305
 l 262.285 90.492 l 263.371 101.398 l 266.109 106.777 l 264.453 112.328 
l 266.793 135.926 l 267.406 140.52 271.406 144.09 276.168 144.09 c 298.023
 144.09 l 302.805 144.09 306.781 140.52 307.398 135.926 c 309.738 112.328
 l 307.188 106.055 l 310.824 101.398 l 311.906 90.492 l 309.355 84.223 l
 312.992 79.566 l 314.074 68.637 l 311.523 62.387 l 315.16 57.734 l 315.5
 54.352 l 317.031 38.812 302.723 25.969 287.098 25.969 c h
96.902 25.969 m 112.531 25.969 126.836 38.812 125.309 54.352 c 124.969 
57.734 l 121.332 62.387 l 123.883 68.637 l 122.797 79.566 l 119.164 84.223
 l 121.715 90.492 l 120.629 101.398 l 116.992 106.055 l 119.547 112.328 
l 117.207 135.926 l 116.59 140.52 112.613 144.09 107.832 144.09 c 85.996
 144.09 l 81.215 144.09 77.238 140.52 76.621 135.926 c 74.281 112.328 l 
75.922 106.777 l 73.199 101.398 l 72.113 90.492 l 73.199 85.305 l 71.031
 79.566 l 69.945 68.637 l 71.199 62.645 l 68.863 57.734 l 68.523 54.352 
l 66.969 38.812 81.297 25.969 96.902 25.969 c h
96.902 25.969 m f*
0.847059 0.180392 0.239216 rg
287.098 25.969 m 283.973 25.969 280.91 26.48 277.996 27.438 c 289.605 31.219
 298.512 41.934 297.281 54.352 c 289.203 135.926 l 288.586 140.52 284.586
 144.09 279.824 144.09 c 298.023 144.09 l 302.809 144.09 306.785 140.52 
307.398 135.926 c 309.738 112.328 l 307.188 106.055 l 310.824 101.402 l 
311.906 90.496 l 309.355 84.223 l 312.992 79.566 l 314.078 68.641 l 311.527
 62.391 l 315.16 57.734 l 315.5 54.352 l 317.031 38.812 302.723 25.969 287.098
 25.969 c h
96.902 25.969 m 112.531 25.969 126.836 38.812 125.309 54.352 c 124.969 
57.734 l 121.332 62.387 l 123.883 68.637 l 122.797 79.566 l 119.164 84.223
 l 121.715 90.492 l 120.629 101.398 l 116.992 106.055 l 119.547 112.328 
l 117.207 135.926 l 116.59 140.52 112.613 144.09 107.832 144.09 c 89.633
 144.09 l 94.414 144.09 98.391 140.52 99.008 135.926 c 107.109 54.352 l 
108.344 41.934 99.414 31.219 87.805 27.434 c 90.719 26.48 93.777 25.969 
96.902 25.969 c h
96.902 25.969 m f*
0.905882 0.647059 0.180392 rg
259.031 57.734 m 260.117 68.637 l 314.074 68.637 l 315.16 57.734 l h
261.203 79.566 m 262.285 90.492 l 311.906 90.492 l 312.992 79.566 l h
263.371 101.398 m 264.453 112.328 l 309.738 112.328 l 310.824 101.398 l
 h
68.859 57.734 m 124.969 57.734 l 123.883 68.637 l 69.945 68.637 l h
73.199 101.398 m 120.629 101.398 l 119.547 112.328 l 74.281 112.328 l h
71.031 79.566 m 122.797 79.566 l 121.715 90.492 l 72.113 90.492 l h
71.031 79.566 m f*
0.984314 0.6 0 rg
295.879 68.637 m 314.074 68.637 l 315.16 57.734 l 296.961 57.734 l h
293.707 90.492 m 311.906 90.492 l 312.992 79.566 l 294.793 79.566 l h
291.539 112.328 m 309.738 112.328 l 310.824 101.398 l 292.625 101.398 l
 h
106.77 57.734 m 124.969 57.734 l 123.883 68.637 l 105.684 68.637 l h
102.43 101.398 m 120.629 101.398 l 119.547 112.328 l 101.348 112.328 l 
h
104.602 79.566 m 122.801 79.566 l 121.715 90.492 l 103.516 90.492 l h
104.602 79.566 m f*
0.329412 0.564706 0.976471 rg
92.184 205.977 m 89.164 205.977 86.719 203.531 86.719 200.516 c 86.719 
197.496 89.164 195.051 92.184 195.051 c 101.645 195.051 l 104.664 195.051
 107.109 197.496 107.109 200.516 c 107.109 203.531 104.664 205.977 101.645
 205.977 c h
92.184 205.977 m f
0.501961 0.705882 0.984314 rg
180.223 205.977 m 177.203 205.977 174.758 203.531 174.758 200.516 c 174.758
 197.496 177.203 195.051 180.223 195.051 c 203.801 195.051 l 206.797 195.051
 209.242 197.496 209.242 200.516 c 209.242 203.531 206.797 205.977 203.801
 205.977 c 197.465 205.977 l 197.465 324.652 l 186.535 324.652 l 186.535
 205.977 l h
180.223 205.977 m f
0.329412 0.564706 0.976471 rg
282.355 205.977 m 279.359 205.977 276.914 203.531 276.914 200.516 c 276.914
 197.496 279.359 195.051 282.355 195.051 c 291.84 195.051 l 294.836 195.051
 297.281 197.496 297.281 200.516 c 297.281 203.531 294.836 205.977 291.84
 205.977 c h
282.355 205.977 m f
0.211765 0.368627 0.490196 rg
240.367 200.516 m 240.367 205.977 241.918 211.102 244.574 215.438 c 262.773
 215.438 l 260.117 211.102 258.566 205.977 258.566 200.516 c 258.566 195.051
 260.117 189.93 262.773 185.59 c 244.574 185.59 l 241.918 189.926 240.367
 195.051 240.367 200.516 c h
240.367 200.516 m f*
142.125 185.59 18.219 29.848 re f*
0 g
11.246 352.418 m 372.754 352.418 l 372.754 330.266 l 252.25 330.266 131.75
 330.266 11.246 330.266 c h
197.633 206.148 m 197.633 319.02 l 218.043 319.02 l 218.043 164.949 l 218.043
 161.844 220.574 159.312 223.68 159.312 c 226.781 159.312 229.289 161.844
 229.289 164.949 c 229.289 179.957 l 258.566 179.957 l 258.969 179.957 259.352
 180 259.734 180.086 c 260.715 178.766 261.797 177.531 262.945 176.363 c
 265.199 174.129 267.75 172.195 270.555 170.645 c 270.555 148.641 l 268.98
 148.004 267.535 147.109 266.262 146.004 c 263.559 143.645 261.562 140.07
 261.223 136.48 c 258.523 109.289 255.824 82.098 253.121 54.902 c 252.207
 45.633 255.758 37.004 262.348 30.496 c 268.855 24.121 277.977 20.336 287.094
 20.336 c 296.215 20.336 305.336 24.121 311.844 30.496 c 318.453 37.004 
321.984 45.633 321.07 54.902 c 318.367 82.098 315.668 109.289 312.969 136.48
 c 312.566 140.137 310.695 143.602 307.93 146.004 c 306.656 147.109 305.207
 148 303.637 148.641 c 303.637 170.645 l 306.441 172.195 308.992 174.129
 311.246 176.363 c 317.434 182.551 321.238 191.098 321.238 200.516 c 321.238
 209.953 317.434 218.48 311.246 224.668 c 308.992 226.922 306.398 228.875
 303.594 230.43 c 303.508 243.609 302.254 255.645 300.254 264.508 c 297.684
 275.988 293.09 283.086 287.094 283.086 c 281.098 283.086 276.508 275.988
 273.934 264.508 c 271.938 255.645 270.684 243.609 270.598 230.43 c 267.793
 228.875 265.219 226.922 262.941 224.668 c 261.797 223.496 260.711 222.266
 259.734 220.945 c 259.352 221.031 258.969 221.074 258.562 221.074 c 229.289
 221.074 l 229.289 319.02 l 378.387 319.02 l 381.488 319.02 384 321.547 
384 324.652 c 384 358.031 l 384 361.156 381.488 363.664 378.387 363.664 
c 5.633 363.664 l 2.531 363.664 0 361.156 0 358.031 c 0 324.652 l 0 321.547
 2.531 319.02 5.633 319.02 c 154.711 319.02 l 154.711 278.52 l 154.711 275.414
 157.219 272.883 160.344 272.883 c 163.449 272.883 165.957 275.414 165.957
 278.52 c 165.957 319.02 l 186.387 319.02 l 186.387 206.148 l 180.223 206.148
 l 177.117 206.148 174.59 203.617 174.59 200.512 c 174.59 197.41 177.117
 194.879 180.223 194.879 c 203.801 194.879 l 206.902 194.879 209.41 197.41
 209.41 200.512 c 209.41 203.617 206.902 206.148 203.801 206.148 c h
282.355 206.148 m 279.25 206.148 276.742 203.617 276.742 200.512 c 276.742
 197.41 279.254 194.879 282.355 194.879 c 291.84 194.879 l 294.941 194.879
 297.449 197.41 297.449 200.512 c 297.449 203.617 294.941 206.148 291.84
 206.148 c h
264.668 57.562 m 309.547 57.562 l 309.91 53.801 l 310.484 48.035 308.059
 42.531 303.977 38.512 c 299.492 34.09 293.367 31.582 287.098 31.582 c 280.824
 31.582 274.703 34.09 270.215 38.512 c 266.133 42.531 263.711 48.035 264.285
 53.801 c h
308.422 68.809 m 265.773 68.809 l 266.836 79.395 l 307.379 79.395 l h
269.004 101.25 m 305.211 101.25 l 306.254 90.641 l 267.941 90.641 l h
304.082 112.496 m 270.109 112.496 l 272.363 135.289 l 272.512 136.16 272.98
 136.926 273.66 137.52 c 274.32 138.117 275.211 138.477 276.168 138.477 
c 298.023 138.477 l 298.98 138.477 299.875 138.117 300.555 137.52 c 301.215
 136.926 301.68 136.16 301.828 135.289 c h
62.93 54.902 m 62.016 45.633 65.566 37.004 72.18 30.496 c 78.664 24.121
 87.781 20.336 96.902 20.336 c 106.047 20.336 115.145 24.121 121.652 30.496
 c 128.262 37.004 131.812 45.633 130.879 54.902 c 128.176 82.098 125.5 109.289
 122.801 136.48 c 122.438 140.07 120.441 143.645 117.738 146.004 c 116.484
 147.109 115.039 148 113.465 148.641 c 113.465 170.645 l 116.25 172.195 
118.824 174.129 121.055 176.363 c 122.227 177.531 123.289 178.766 124.289
 180.086 c 124.648 180 125.031 179.957 125.434 179.957 c 154.711 179.957
 l 154.711 128.379 l 154.711 118.113 158.898 108.801 165.66 102.039 c 172.422
 95.277 181.754 91.09 192 91.09 c 202.27 91.09 211.582 95.277 218.34 102.039
 c 225.102 108.801 229.293 118.113 229.293 128.379 c 229.293 139.457 l 229.293
 142.559 226.781 145.09 223.68 145.09 c 220.574 145.09 218.043 142.559 218.043
 139.457 c 218.043 128.379 l 218.043 121.215 215.109 114.707 210.391 109.988
 c 205.672 105.27 199.164 102.336 192 102.336 c 184.859 102.336 178.332 
105.27 173.609 109.988 c 168.891 114.707 165.957 121.215 165.957 128.379
 c 165.957 253.027 l 165.957 256.152 163.449 258.66 160.344 258.66 c 157.219
 258.66 154.711 256.152 154.711 253.027 c 154.711 221.074 l 125.434 221.074
 l 125.031 221.074 124.648 221.031 124.289 220.945 c 123.289 222.266 122.227
 223.496 121.055 224.668 c 118.801 226.922 116.23 228.875 113.402 230.43
 c 113.316 243.609 112.062 255.645 110.066 264.508 c 107.492 275.988 102.898
 283.086 96.906 283.086 c 90.93 283.086 86.336 275.988 83.766 264.508 c 
81.766 255.645 80.512 243.609 80.426 230.43 c 77.598 228.875 75.027 226.922
 72.773 224.668 c 66.586 218.48 62.762 209.953 62.762 200.516 c 62.762 191.098
 66.586 182.551 72.773 176.363 c 75.008 174.129 77.578 172.195 80.363 170.645
 c 80.363 148.641 l 78.789 148.004 77.344 147.109 76.09 146.004 c 73.414
 143.664 71.562 140.371 71.051 136.648 c 68.012 109.457 65.652 82.137 62.93
 54.902 c h
74.473 57.562 m 119.355 57.562 l 119.715 53.801 l 120.289 48.035 117.867
 42.531 113.785 38.512 c 109.297 34.09 103.195 31.582 96.902 31.582 c 90.633
 31.582 84.508 34.09 80.043 38.512 c 75.941 42.531 73.539 48.035 74.09 53.801
 c h
118.227 68.809 m 75.578 68.809 l 76.645 79.395 l 117.188 79.395 l h
78.812 101.25 m 115.016 101.25 l 116.059 90.641 l 77.746 90.641 l h
113.891 112.496 m 79.918 112.496 l 82.191 135.289 l 82.32 136.16 82.785
 136.926 83.465 137.52 c 84.148 138.117 85.02 138.477 85.996 138.477 c 107.832
 138.477 l 108.789 138.477 109.68 138.117 110.359 137.52 c 111.02 136.926
 111.488 136.16 111.637 135.289 c h
92.184 206.148 m 89.078 206.148 86.551 203.617 86.551 200.512 c 86.551 
197.41 89.078 194.879 92.184 194.879 c 101.645 194.879 l 104.75 194.879 
107.277 197.41 107.277 200.512 c 107.277 203.617 104.75 206.148 101.645 
206.148 c h
281.93 234.66 m 282.207 245.395 283.289 254.918 284.883 262.039 c 286.246
 268.102 287.074 271.82 287.094 271.82 c 287.117 271.82 287.945 268.102 
289.305 262.039 c 290.902 254.918 291.984 245.395 292.262 234.66 c 288.82
 234.66 285.375 234.66 281.93 234.66 c h
287.055 223.41 m 293.176 223.41 298.961 221.031 303.297 216.715 c 307.441
 212.57 309.992 206.848 309.992 200.512 c 309.992 194.199 307.441 188.461
 303.297 184.312 c 299.152 180.191 293.434 177.617 287.137 177.617 c 281.016
 177.617 275.234 179.996 270.895 184.312 c 266.77 188.457 264.199 194.176
 264.199 200.492 c 264.199 206.594 266.578 212.375 270.895 216.715 c 275.043
 220.84 280.762 223.41 287.055 223.41 c h
96.883 223.41 m 103.004 223.41 108.789 221.031 113.105 216.715 c 117.25
 212.57 119.801 206.848 119.82 200.555 c 119.82 194.434 117.441 188.652 
113.105 184.312 c 108.98 180.191 103.262 177.617 96.945 177.617 c 90.824
 177.617 85.039 180 80.727 184.312 c 76.578 188.461 74.008 194.199 74.008
 200.516 c 74.008 206.848 76.578 212.57 80.727 216.715 c 84.848 220.84 90.566
 223.41 96.883 223.41 c h
99.137 262.039 m 100.73 254.918 101.793 245.395 102.094 234.66 c 98.629
 234.66 95.184 234.66 91.738 234.66 c 92.016 245.395 93.098 254.918 94.691
 262.039 c 96.051 268.102 96.902 271.82 96.902 271.82 c 96.926 271.82 97.773
 268.102 99.137 262.039 c h
292.391 149.723 m 281.801 149.723 l 281.801 166.371 l 292.391 166.371 l
 h
102.199 149.723 m 91.609 149.723 l 91.609 166.371 l 102.199 166.371 l h
252.953 191.223 m 229.289 191.223 l 229.289 209.805 l 252.953 209.805 l
 252.953 203.617 252.953 197.41 252.953 191.223 c h
131.07 209.805 m 154.711 209.805 l 154.711 191.223 l 131.07 191.223 l h
131.07 209.805 m f
Q Q
showpage
%%Trailer
end
%%EOF
