%!PS-Adobe-3.0 EPSF-3.0
%%Creator: cairo 1.16.0 (https://cairographics.org)
%%CreationDate: Thu Dec 10 07:54:51 2020
%%Pages: 1
%%DocumentData: Clean7Bit
%%LanguageLevel: 2
%%BoundingBox: 5 0 379 384
%%EndComments
%%BeginProlog
50 dict begin
/q { gsave } bind def
/Q { grestore } bind def
/cm { 6 array astore concat } bind def
/w { setlinewidth } bind def
/J { setlinecap } bind def
/j { setlinejoin } bind def
/M { setmiterlimit } bind def
/d { setdash } bind def
/m { moveto } bind def
/l { lineto } bind def
/c { curveto } bind def
/h { closepath } bind def
/re { exch dup neg 3 1 roll 5 3 roll moveto 0 rlineto
      0 exch rlineto 0 rlineto closepath } bind def
/S { stroke } bind def
/f { fill } bind def
/f* { eofill } bind def
/n { newpath } bind def
/W { clip } bind def
/W* { eoclip } bind def
/BT { } bind def
/ET { } bind def
/BDC { mark 3 1 roll /BDC pdfmark } bind def
/EMC { mark /EMC pdfmark } bind def
/cairo_store_point { /cairo_point_y exch def /cairo_point_x exch def } def
/Tj { show currentpoint cairo_store_point } bind def
/TJ {
  {
    dup
    type /stringtype eq
    { show } { -0.001 mul 0 cairo_font_matrix dtransform rmoveto } ifelse
  } forall
  currentpoint cairo_store_point
} bind def
/cairo_selectfont { cairo_font_matrix aload pop pop pop 0 0 6 array astore
    cairo_font exch selectfont cairo_point_x cairo_point_y moveto } bind def
/Tf { pop /cairo_font exch def /cairo_font_matrix where
      { pop cairo_selectfont } if } bind def
/Td { matrix translate cairo_font_matrix matrix concatmatrix dup
      /cairo_font_matrix exch def dup 4 get exch 5 get cairo_store_point
      /cairo_font where { pop cairo_selectfont } if } bind def
/Tm { 2 copy 8 2 roll 6 array astore /cairo_font_matrix exch def
      cairo_store_point /cairo_font where { pop cairo_selectfont } if } bind def
/g { setgray } bind def
/rg { setrgbcolor } bind def
/d1 { setcachedevice } bind def
/cairo_data_source {
  CairoDataIndex CairoData length lt
    { CairoData CairoDataIndex get /CairoDataIndex CairoDataIndex 1 add def }
    { () } ifelse
} def
/cairo_flush_ascii85_file { cairo_ascii85_file status { cairo_ascii85_file flushfile } if } def
/cairo_image { image cairo_flush_ascii85_file } def
/cairo_imagemask { imagemask cairo_flush_ascii85_file } def
%%EndProlog
%%BeginSetup
%%EndSetup
%%Page: 1 1
%%BeginPageSetup
%%PageBoundingBox: 5 0 379 384
%%EndPageSetup
q 5 0 374 384 rectclip
1 0 0 -1 0 384 cm q
1 0.929412 0.815686 rg
155.848 27.809 m 358.285 27.809 l 366.535 27.809 373.297 34.547 373.297
 42.816 c 373.297 151.734 l 373.297 159.984 366.535 166.742 358.285 166.742
 c 246.902 166.742 l 243.227 166.742 239.719 168.105 236.977 170.848 c 190.332
 217.492 l 187.863 219.957 186.227 219.277 186.227 215.789 c 186.227 172.57
 l 186.227 168.488 184.355 166.742 180.402 166.742 c 155.848 166.742 l 147.598
 166.742 140.836 159.984 140.836 151.734 c 140.836 42.816 l 140.836 34.547
 147.598 27.809 155.848 27.809 c h
155.848 27.809 m f*
0.596078 0.419608 0.329412 rg
10.727 366.375 m 10.727 202.609 l 10.727 181.453 25.605 167.891 35.855 
155.094 c 69.809 152.477 l 102.527 155.094 l 112.773 167.891 127.656 181.453
 127.656 202.609 c 127.656 366.379 l 127.656 372.969 122.258 378.391 115.645
 378.391 c 22.738 378.391 l 16.125 378.387 10.727 372.965 10.727 366.375
 c h
10.727 366.375 m f*
0.517647 0.360784 0.278431 rg
84.328 155.094 m 102.527 155.094 l 112.773 167.891 127.656 181.453 127.656
 202.609 c 127.656 366.379 l 127.656 372.969 122.258 378.391 115.645 378.391
 c 97.445 378.391 l 104.059 378.391 109.457 372.969 109.457 366.379 c 109.457
 202.609 l 109.457 181.453 94.574 167.891 84.328 155.094 c h
84.328 155.094 m f*
0.717647 0.545098 0.478431 rg
35.855 155.094 m 41.211 148.375 45.316 141.867 45.316 134.598 c 45.316 
40.715 l 70.23 36.566 l 93.043 40.715 l 93.043 134.598 l 93.043 141.867 
97.148 148.375 102.527 155.094 c h
35.855 155.094 m f*
74.844 40.715 m 93.043 40.715 l 93.043 134.598 l 93.043 141.867 97.148 
148.375 102.527 155.094 c 84.328 155.094 l 78.949 148.375 74.844 141.867
 74.844 134.598 c h
74.844 40.715 m f*
0.25098 0.439216 0.576471 rg
36.961 5.633 m 101.398 5.633 l 104.609 5.633 107.227 8.25 107.227 11.457
 c 107.227 34.887 l 107.227 38.078 104.609 40.715 101.398 40.715 c 36.961
 40.715 l 33.773 40.715 31.133 38.078 31.133 34.887 c 31.133 11.457 l 31.133
 8.25 33.77 5.633 36.961 5.633 c h
36.961 5.633 m f*
0.211765 0.368627 0.490196 rg
83.203 5.633 m 101.398 5.633 l 104.609 5.633 107.227 8.25 107.227 11.457
 c 107.227 34.887 l 107.227 38.078 104.609 40.715 101.398 40.715 c 83.203
 40.715 l 86.41 40.715 89.027 38.078 89.027 34.887 c 89.027 11.457 l 89.027
 8.25 86.41 5.633 83.203 5.633 c h
83.203 5.633 m f*
0.501961 0.705882 0.984314 rg
45.316 72.305 47.73 30.699 re f*
0.380392 0.635294 0.976471 rg
74.844 72.305 18.199 30.699 re f*
0.501961 0.705882 0.984314 rg
10.727 202.609 m 31.219 202.609 l 70.68 213.133 l 107.16 202.609 l 127.656
 202.609 l 127.656 340.461 l 10.727 340.461 l h
10.727 202.609 m f*
0.905882 0.647059 0.180392 rg
31.219 202.609 m 107.16 202.609 l 107.16 237.602 90.152 265.965 69.191 
265.965 c 48.23 265.965 31.219 237.602 31.219 202.609 c h
31.219 202.609 m f*
0.984314 0.6 0 rg
88.941 202.609 m 107.16 202.609 l 107.16 237.602 90.152 265.965 69.191 
265.965 c 66.043 265.965 63.004 265.328 60.09 264.137 c 76.652 257.312 88.941
 232.375 88.941 202.609 c h
88.941 202.609 m f*
0.380392 0.635294 0.976471 rg
109.457 202.609 18.199 137.852 re f*
0 g
286.789 72.094 m 286.789 77.855 284.746 83.105 281.43 86.977 c 277.902 
91.055 272.992 93.586 267.504 93.586 c 262.043 93.586 257.129 91.059 253.602
 86.977 c 250.285 83.105 248.242 77.855 248.242 72.094 c 248.242 66.328 
250.285 61.078 253.602 57.234 c 257.129 53.148 262.043 50.598 267.504 50.598
 c 272.992 50.598 277.902 53.148 281.43 57.234 c 284.746 61.078 286.789 
66.328 286.789 72.094 c h
51.203 319.645 m 48.102 319.645 45.57 317.117 45.57 314.012 c 45.57 310.906
 48.102 308.398 51.203 308.398 c 87.176 308.398 l 90.281 308.398 92.789 
310.906 92.789 314.012 c 92.789 317.117 90.281 319.645 87.176 319.645 c 
h
41.723 295.621 m 38.617 295.621 36.09 293.09 36.09 289.988 c 36.09 286.883
 38.617 284.375 41.723 284.375 c 96.66 284.375 l 99.762 284.375 102.293 
286.883 102.293 289.988 c 102.293 293.09 99.762 295.621 96.66 295.621 c 
h
121.598 196.977 m 119.621 184.008 111.094 173.949 103.355 164.828 c 95 
155.008 87.434 146.102 87.434 134.598 c 87.434 108.641 l 50.949 108.641 
l 50.949 134.598 l 50.949 146.102 43.383 155.008 35.027 164.828 c 27.289
 173.949 18.742 184.008 16.762 196.977 c h
112.625 208.242 m 111.816 224.527 107.457 239.242 100.848 250.297 c 92.961
 263.453 81.777 271.598 69.191 271.598 c 56.582 271.598 45.422 263.453 37.535
 250.297 c 30.902 239.242 26.562 224.527 25.734 208.242 c 16.34 208.242 
l 16.34 296.77 l 16.34 299.875 13.828 302.383 10.727 302.383 c 7.621 302.383
 5.09 299.875 5.09 296.77 c 5.09 202.609 l 5.09 183.73 14.871 171.207 26.457
 157.582 c 33.41 149.418 39.703 142.02 39.703 134.598 c 39.703 105.172 39.703
 75.75 39.703 46.324 c 31.133 46.324 l 28.031 46.324 25.523 43.816 25.523
 40.715 c 25.523 5.633 l 25.523 2.531 28.031 0 31.133 0 c 56.457 0 l 59.559
 0 62.07 2.531 62.07 5.633 c 62.07 8.738 59.559 11.246 56.457 11.246 c 36.77
 11.246 l 36.77 35.078 l 101.613 35.078 l 101.613 11.246 l 81.926 11.246
 l 78.82 11.246 76.312 8.738 76.312 5.633 c 76.312 2.531 78.82 0 81.926 
0 c 107.227 0 l 110.328 0 112.859 2.531 112.859 5.633 c 112.859 40.715 l
 112.859 43.816 110.328 46.324 107.227 46.324 c 98.68 46.324 l 98.68 134.598
 l 98.68 142.016 104.973 149.414 111.922 157.578 c 122 169.465 133.289 182.73
 133.289 202.609 c 133.289 220.809 l 133.289 223.914 130.762 226.441 127.656
 226.441 c 124.551 226.441 122.023 223.914 122.023 220.809 c 122.023 208.242
 l h
37.004 208.242 m 37.789 222.445 41.508 235.117 47.145 244.535 c 53.012 
254.293 60.816 260.332 69.191 260.332 c 77.566 260.332 85.371 254.293 91.215
 244.535 c 96.852 235.117 100.59 222.445 101.379 208.242 c h
122.023 346.07 m 16.34 346.07 l 16.34 366.375 l 16.34 368.121 17.059 369.715
 18.23 370.883 c 19.379 372.031 20.973 372.754 22.738 372.754 c 115.645 
372.754 l 117.387 372.754 118.98 372.031 120.152 370.883 c 121.301 369.715
 122.023 368.121 122.023 366.375 c h
16.34 334.828 m 122.023 334.828 l 122.023 246.297 l 122.023 243.195 124.551
 240.664 127.656 240.664 c 130.762 240.664 133.289 243.195 133.289 246.297
 c 133.289 366.375 l 133.289 371.223 131.293 375.645 128.102 378.836 c 124.914
 382.023 120.492 384 115.645 384 c 22.738 384 l 17.867 384 13.469 382.023
 10.277 378.836 c 7.066 375.645 5.09 371.223 5.09 366.375 c 5.09 322.238
 l 5.09 319.137 7.621 316.625 10.723 316.625 c 13.828 316.625 16.336 319.137
 16.336 322.238 c 16.336 334.828 l h
50.949 66.672 m 87.434 66.672 l 87.434 46.324 l 50.949 46.324 l h
87.434 77.918 m 50.949 77.918 l 50.949 97.391 l 87.434 97.391 l h
155.848 22.172 m 358.285 22.172 l 363.961 22.172 369.129 24.492 372.852
 28.234 c 376.59 31.977 378.91 37.141 378.91 42.816 c 378.91 151.734 l 378.91
 157.41 376.59 162.574 372.852 166.297 c 369.129 170.039 363.961 172.355
 358.285 172.355 c 243.418 172.355 l 190.203 225.59 l 188.016 227.781 184.441
 227.781 182.254 225.59 c 181.148 224.484 180.594 223.039 180.594 221.594
 c 180.594 172.355 l 155.848 172.355 l 150.172 172.355 145.004 170.039 141.262
 166.297 c 137.52 162.574 135.203 157.41 135.203 151.734 c 135.203 42.816
 l 135.203 37.121 137.52 31.977 141.262 28.234 c 145.004 24.492 150.172 
22.172 155.848 22.172 c h
358.285 33.422 m 155.848 33.422 l 153.273 33.422 150.914 34.484 149.215
 36.184 c 147.512 37.887 146.449 40.246 146.449 42.82 c 146.449 151.734 
l 146.449 154.309 147.516 156.645 149.215 158.348 c 150.914 160.047 153.273
 161.109 155.848 161.109 c 186.227 161.109 l 189.332 161.109 191.84 163.641
 191.84 166.742 c 191.84 208.031 l 237.082 162.789 l 238.102 161.746 239.527
 161.109 241.098 161.109 c 358.285 161.109 l 360.859 161.109 363.195 160.047
 364.898 158.348 c 366.598 156.645 367.66 154.309 367.66 151.734 c 367.66
 42.816 l 367.66 40.246 366.598 37.883 364.898 36.184 c 363.195 34.484 360.859
 33.422 358.285 33.422 c h
272.906 79.66 m 274.543 77.77 275.543 75.113 275.543 72.094 c 275.543 69.094
 274.543 66.414 272.906 64.523 c 271.48 62.887 269.566 61.867 267.504 61.867
 c 265.445 61.867 263.551 62.887 262.129 64.523 c 260.488 66.414 259.492
 69.094 259.492 72.094 c 259.492 75.109 260.488 77.77 262.129 79.66 c 263.551
 81.32 265.445 82.34 267.504 82.34 c 269.566 82.34 271.48 81.32 272.906 
79.66 c h
341.641 122.438 m 341.641 128.199 339.598 133.449 336.281 137.297 c 332.754
 141.402 327.844 143.93 322.359 143.93 c 316.895 143.93 311.984 141.402 
308.453 137.297 c 305.137 133.449 303.098 128.199 303.098 122.438 c 303.098
 116.676 305.137 111.422 308.453 107.574 c 311.984 103.473 316.895 100.941
 322.359 100.941 c 327.844 100.941 332.754 103.473 336.281 107.574 c 339.598
 111.422 341.641 116.676 341.641 122.438 c h
327.758 130.004 m 329.395 128.113 330.395 125.434 330.395 122.438 c 330.395
 119.438 329.395 116.762 327.758 114.867 c 326.332 113.207 324.418 112.191
 322.355 112.191 c 320.293 112.191 318.402 113.207 316.977 114.867 c 315.34
 116.758 314.34 119.438 314.34 122.438 c 314.34 125.434 315.34 128.113 316.977
 130.004 c 318.402 131.664 320.293 132.684 322.355 132.684 c 324.418 132.684
 326.332 131.664 327.758 130.004 c h
305.711 57.488 m 306.898 54.617 310.195 53.277 313.066 54.488 c 315.938
 55.68 317.277 58.977 316.086 61.844 c 285.172 135.469 l 283.98 138.34 280.688
 139.68 277.816 138.465 c 274.945 137.277 273.605 133.98 274.797 131.109
 c h
222.137 50.598 m 225.242 50.598 227.77 53.129 227.77 56.23 c 227.77 59.336
 225.242 61.867 222.137 61.867 c 196.539 61.867 l 192.84 84.148 l 196.477
 83.406 200.449 83.105 204.172 83.297 c 212.188 83.703 219.371 87.23 224.559
 92.672 c 230.363 98.773 233.32 106.789 232.875 115.188 c 232.469 123.078
 229.004 130.176 223.668 135.344 c 218.332 140.508 211.102 143.742 203.215
 143.91 c 195.477 144.059 188.398 141.316 182.953 136.68 c 177.426 131.984
 173.602 125.328 172.539 117.801 c 172.113 114.719 174.258 111.891 177.344
 111.465 c 180.402 111.043 183.23 113.188 183.656 116.27 c 184.336 121.012
 186.719 125.203 190.203 128.156 c 193.629 131.07 198.09 132.793 202.98 
132.684 c 207.934 132.602 212.484 130.559 215.844 127.285 c 219.223 124.031
 221.414 119.566 221.668 114.613 c 221.945 109.406 220.031 104.195 216.418
 100.41 c 213.164 96.988 208.637 94.758 203.598 94.504 c 200.961 94.375 
197.625 94.609 195.051 95.141 c 192.797 95.605 190.586 96.371 188.336 97.543
 c 187.293 98.074 186.102 98.285 184.867 98.074 c 181.809 97.586 179.723
 94.691 180.234 91.652 c 186.164 55.723 l 186.441 52.852 188.844 50.598 
191.777 50.598 c h
222.137 50.598 m f
Q Q
showpage
%%Trailer
end
%%EOF
