%!PS-Adobe-3.0 EPSF-3.0
%%Creator: cairo 1.16.0 (https://cairographics.org)
%%CreationDate: Thu Dec 10 07:54:53 2020
%%Pages: 1
%%DocumentData: Clean7Bit
%%LanguageLevel: 2
%%BoundingBox: 72 0 312 384
%%EndComments
%%BeginProlog
50 dict begin
/q { gsave } bind def
/Q { grestore } bind def
/cm { 6 array astore concat } bind def
/w { setlinewidth } bind def
/J { setlinecap } bind def
/j { setlinejoin } bind def
/M { setmiterlimit } bind def
/d { setdash } bind def
/m { moveto } bind def
/l { lineto } bind def
/c { curveto } bind def
/h { closepath } bind def
/re { exch dup neg 3 1 roll 5 3 roll moveto 0 rlineto
      0 exch rlineto 0 rlineto closepath } bind def
/S { stroke } bind def
/f { fill } bind def
/f* { eofill } bind def
/n { newpath } bind def
/W { clip } bind def
/W* { eoclip } bind def
/BT { } bind def
/ET { } bind def
/BDC { mark 3 1 roll /BDC pdfmark } bind def
/EMC { mark /EMC pdfmark } bind def
/cairo_store_point { /cairo_point_y exch def /cairo_point_x exch def } def
/Tj { show currentpoint cairo_store_point } bind def
/TJ {
  {
    dup
    type /stringtype eq
    { show } { -0.001 mul 0 cairo_font_matrix dtransform rmoveto } ifelse
  } forall
  currentpoint cairo_store_point
} bind def
/cairo_selectfont { cairo_font_matrix aload pop pop pop 0 0 6 array astore
    cairo_font exch selectfont cairo_point_x cairo_point_y moveto } bind def
/Tf { pop /cairo_font exch def /cairo_font_matrix where
      { pop cairo_selectfont } if } bind def
/Td { matrix translate cairo_font_matrix matrix concatmatrix dup
      /cairo_font_matrix exch def dup 4 get exch 5 get cairo_store_point
      /cairo_font where { pop cairo_selectfont } if } bind def
/Tm { 2 copy 8 2 roll 6 array astore /cairo_font_matrix exch def
      cairo_store_point /cairo_font where { pop cairo_selectfont } if } bind def
/g { setgray } bind def
/rg { setrgbcolor } bind def
/d1 { setcachedevice } bind def
/cairo_data_source {
  CairoDataIndex CairoData length lt
    { CairoData CairoDataIndex get /CairoDataIndex CairoDataIndex 1 add def }
    { () } ifelse
} def
/cairo_flush_ascii85_file { cairo_ascii85_file status { cairo_ascii85_file flushfile } if } def
/cairo_image { image cairo_flush_ascii85_file } def
/cairo_imagemask { imagemask cairo_flush_ascii85_file } def
%%EndProlog
%%BeginSetup
%%EndSetup
%%Page: 1 1
%%BeginPageSetup
%%PageBoundingBox: 72 0 312 384
%%EndPageSetup
q 72 0 240 384 rectclip
1 0 0 -1 0 384 cm q
0.796078 0.886275 1 rg
138.836 273.52 m 116.746 273.52 98.672 255.445 98.672 233.352 c 98.672 
117.578 l 98.672 93.297 88.188 62.23 82.684 48.793 c 81.621 46.18 83.043
 43.223 86.02 43.242 c 240.621 43.242 l 244.172 43.285 245.195 45.773 243.961
 48.773 c 238.453 62.211 227.973 93.297 227.973 117.578 c 227.973 233.352
 l 227.973 255.445 209.898 273.52 187.785 273.52 c h
138.836 273.52 m f*
0.745098 0.847059 0.984314 rg
222.422 43.242 m 240.621 43.242 l 244.172 43.285 245.195 45.773 243.961
 48.773 c 238.453 62.211 227.973 93.297 227.973 117.578 c 227.973 233.352
 l 227.973 255.445 209.898 273.52 187.785 273.52 c 169.582 273.52 l 191.676
 273.52 209.77 255.445 209.77 233.352 c 209.77 117.578 l 209.77 93.297 220.254
 62.211 225.758 48.773 c 226.992 45.773 225.949 43.285 222.422 43.242 c 
h
222.422 43.242 m f*
0.960784 0.980392 1 rg
119.465 90.062 m 115.918 70.098 109.09 46.453 104.562 43.242 c 222.082 
43.242 l 217.551 46.453 210.516 70.098 206.855 90.062 c h
119.465 90.062 m f*
0.92549 0.956863 1 rg
203.879 43.242 m 222.082 43.242 l 217.551 46.453 210.516 70.098 206.855
 90.066 c 188.656 90.066 l 192.312 70.098 199.352 46.453 203.879 43.242 
c h
203.879 43.242 m f*
0.866667 0.388235 0.431373 rg
147.469 250.555 m 133.352 250.555 121.762 238.988 121.762 224.848 c 121.762
 110.797 l 121.762 105.523 120.871 98.078 119.465 90.062 c 206.855 90.062
 l 205.391 98.078 204.477 105.523 204.477 110.797 c 204.477 224.848 l 204.477
 238.969 192.91 250.555 178.77 250.555 c h
147.469 250.555 m f*
0.854902 0.290196 0.329412 rg
188.656 90.062 m 206.855 90.062 l 205.391 98.078 204.477 105.523 204.477
 110.797 c 204.477 224.848 l 204.477 238.969 192.91 250.555 178.77 250.555
 c 160.566 250.555 l 174.707 250.555 186.273 238.969 186.273 224.848 c 186.273
 110.797 l 186.273 105.523 187.188 98.078 188.656 90.062 c h
188.656 90.062 m f*
0.501961 0.705882 0.984314 rg
118.234 358.695 m 125.484 356.254 150.297 350 150.297 342.305 c 150.297
 273.52 l 176.344 273.52 l 176.344 342.305 l 176.344 350 201.156 356.254
 208.41 358.695 c 215.488 361.102 224.145 365.055 226.973 372.625 c 228.395
 376.492 225.758 378.324 222.145 378.387 c 104.5 378.387 l 100.734 378.301
 98.164 376.473 99.758 372.457 c 102.5 365.438 110.09 361.441 118.234 358.695
 c h
118.234 358.695 m f*
0.380392 0.635294 0.976471 rg
158.145 273.52 m 176.344 273.52 l 176.344 342.305 l 176.344 350 201.156
 356.254 208.41 358.695 c 215.488 361.102 224.145 365.055 226.973 372.625
 c 228.395 376.492 225.758 378.324 222.145 378.387 c 203.945 378.387 l 207.559
 378.324 210.195 376.492 208.75 372.625 c 205.941 365.055 197.289 361.102
 190.207 358.695 c 182.957 356.254 158.145 350 158.145 342.305 c h
158.145 273.52 m f*
0.796078 0.886275 1 rg
132.48 298.738 m 194.164 298.738 l 200.754 298.738 206.156 304.137 206.156
 310.73 c 206.156 317.34 200.754 322.742 194.164 322.742 c 132.48 322.742
 l 125.887 322.742 120.488 317.34 120.488 310.73 c 120.488 304.137 125.887
 298.738 132.48 298.738 c h
132.48 298.738 m f*
0.745098 0.847059 0.984314 rg
175.961 298.738 m 194.164 298.738 l 200.754 298.738 206.156 304.137 206.156
 310.73 c 206.156 317.34 200.754 322.742 194.164 322.742 c 175.961 322.742
 l 182.555 322.742 187.953 317.34 187.953 310.73 c 187.953 304.137 182.555
 298.738 175.961 298.738 c h
175.961 298.738 m f*
0.501961 0.705882 0.984314 rg
227.969 147.922 m 233.562 141.883 241.578 138.074 250.465 138.074 c 267.371
 138.074 281.086 151.789 281.086 168.695 c 281.086 185.598 267.371 199.289
 250.465 199.289 c 241.578 199.289 233.562 195.508 227.969 189.445 c 227.969
 219.789 l 234.859 222.809 242.473 224.508 250.465 224.508 c 281.297 224.508
 306.281 199.504 306.281 168.695 c 306.281 137.863 281.297 112.879 250.465
 112.879 c 242.473 112.879 234.859 114.559 227.969 117.578 c h
227.969 147.922 m f*
0.380392 0.635294 0.976471 rg
241.344 223.766 m 244.32 224.254 247.363 224.508 250.465 224.508 c 281.297
 224.508 306.281 199.504 306.281 168.695 c 306.281 137.863 281.297 112.879
 250.465 112.879 c 247.363 112.879 244.32 113.113 241.344 113.602 c 267.859
 117.961 288.082 140.945 288.082 168.695 c 288.082 196.422 267.859 219.426
 241.344 223.766 c h
241.344 223.766 m f*
0 g
116.449 353.383 m 117.426 353.043 119.02 352.574 120.848 352 c 129.25 349.426
 144.664 344.727 144.664 342.305 c 144.664 328.355 l 132.48 328.355 l 127.633
 328.355 123.211 326.375 120.02 323.188 c 116.828 319.996 114.852 315.598
 114.852 310.727 c 114.852 305.879 116.828 301.477 120.02 298.289 c 123.207
 295.078 127.633 293.102 132.48 293.102 c 144.664 293.102 l 144.664 279.152
 l 138.836 279.152 l 126.25 279.152 114.789 274.008 106.496 265.695 c 98.184
 257.402 93.035 245.941 93.035 233.352 c 93.035 222.422 l 93.035 219.32 
95.566 216.789 98.672 216.789 c 101.777 216.789 104.285 219.32 104.285 222.422
 c 104.285 233.352 l 104.285 242.836 108.176 251.469 114.449 257.742 c 120.723
 264.012 129.355 267.906 138.836 267.906 c 187.785 267.906 l 197.289 267.906
 205.922 264.016 212.195 257.742 c 218.465 251.469 222.336 242.836 222.336
 233.352 c 222.336 117.578 l 222.336 106.117 224.57 93.273 227.523 81.367
 c 230.715 68.523 234.816 56.684 237.902 48.855 c 224.441 48.855 l 222.379
 52.109 219.359 61.527 216.531 72.418 c 212.875 86.406 210.09 99.93 210.09
 114.43 c 210.09 117.535 207.578 120.066 204.477 120.066 c 201.371 120.066
 198.84 117.535 198.84 114.43 c 198.84 107.902 199.246 102.227 200.223 95.699
 c 163.246 95.699 l 179.387 231.164 l 179.746 234.246 177.535 237.031 174.453
 237.414 c 171.371 237.777 168.586 235.566 168.223 232.48 c 151.934 95.699
 l 126.059 95.699 l 126.91 101.48 127.398 106.734 127.398 110.797 c 127.398
 224.848 l 127.398 230.355 129.652 235.375 133.289 239.012 c 136.945 242.668
 141.965 244.922 147.473 244.922 c 178.77 244.922 l 184.277 244.922 189.293
 242.668 192.953 239.012 c 196.586 235.375 198.84 230.355 198.84 224.848
 c 198.84 139.926 l 198.84 136.82 201.371 134.289 204.477 134.289 c 207.582
 134.289 210.09 136.82 210.09 139.926 c 210.09 224.848 l 210.09 233.461 
206.582 241.305 200.902 246.961 c 195.227 252.637 187.379 256.168 178.77
 256.168 c 147.473 256.168 l 138.859 256.168 131.016 252.637 125.336 246.961
 c 119.66 241.305 116.148 233.461 116.148 224.848 c 116.148 110.797 l 116.148
 99.633 112.602 83.027 109.812 72.098 c 107.094 61.34 104.18 52.066 102.203
 48.855 c 88.742 48.855 l 91.824 56.684 95.93 68.523 99.117 81.367 c 102.074
 93.273 104.285 106.117 104.285 117.578 c 104.285 196.953 l 104.285 200.055
 101.777 202.566 98.672 202.566 c 95.566 202.566 93.039 200.055 93.039 196.953
 c 93.039 117.578 l 93.039 107.074 90.977 95.145 88.211 84.047 c 83.68 65.781
 77.41 49.984 75.219 45.836 c 73.285 42.117 76.004 37.609 80.195 37.609 
c 145.004 37.609 l 141.922 11.73 l 78.262 18.238 l 75.176 18.559 72.414 
16.305 72.113 13.223 c 71.797 10.137 74.027 7.395 77.109 7.078 c 145.961
 0.039 l 149.172 -0.301 152.062 1.695 152.445 4.93 c 156.336 37.609 l 246.445
 37.609 l 249.551 37.609 252.059 40.141 252.059 43.246 c 252.059 44.352 
251.742 45.371 251.188 46.242 c 248.848 50.965 242.832 66.336 238.43 84.047
 c 236.348 92.383 234.668 101.184 233.965 109.5 c 235.219 109.16 236.52 
108.84 237.812 108.562 c 241.941 107.691 246.172 107.246 250.465 107.246
 c 267.434 107.246 282.785 114.113 293.906 125.234 c 305.027 136.355 311.914
 151.727 311.914 168.695 c 311.914 185.66 305.027 201.012 293.906 212.133
 c 282.785 223.254 267.434 230.121 250.465 230.121 c 246.172 230.121 241.941
 229.676 237.812 228.805 c 236.391 228.508 234.984 228.164 233.605 227.762
 c 233.605 233.352 l 233.605 245.941 228.438 257.402 220.145 265.695 c 211.852
 274.008 200.391 279.152 187.781 279.152 c 181.977 279.152 l 181.977 293.102
 l 194.164 293.102 l 199.012 293.102 203.41 295.078 206.602 298.289 c 209.812
 301.48 211.789 305.879 211.789 310.73 c 211.789 315.598 209.812 320 206.602
 323.188 c 203.41 326.379 199.012 328.355 194.164 328.355 c 181.977 328.355
 l 181.977 342.305 l 181.977 344.727 197.371 349.426 205.773 352 c 207.75
 352.594 209.43 353.129 210.215 353.383 c 215.895 355.297 221.422 357.828
 225.672 361.527 c 230.48 365.691 233.605 371.113 233.605 378.387 c 233.605
 381.492 231.074 384 227.969 384 c 98.672 384 l 95.566 384 93.035 381.492
 93.035 378.387 c 93.035 371.113 96.141 365.691 100.945 361.527 c 105.219
 357.848 110.75 355.316 116.449 353.383 c h
150.594 84.449 m 146.344 48.855 l 114.129 48.855 l 116.488 54.426 118.766
 61.637 120.723 69.332 c 121.977 74.223 123.125 79.391 124.121 84.449 c 
h
157.676 48.855 m 161.906 84.449 l 202.242 84.449 l 203.242 79.477 204.41
 74.414 205.668 69.59 c 207.707 61.805 210.066 54.492 212.469 48.855 c h
233.605 121.383 m 233.605 136.629 l 234.371 136.227 235.156 135.844 235.965
 135.48 c 240.43 133.527 245.32 132.441 250.465 132.441 c 257.695 132.441
 264.457 134.586 270.156 138.289 c 276.004 142.074 280.68 147.516 283.551
 153.938 c 284.805 156.766 283.551 160.082 280.723 161.336 c 277.895 162.59
 274.578 161.336 273.301 158.508 c 271.324 154.062 268.094 150.32 264.055
 147.684 c 260.164 145.176 255.508 143.711 250.465 143.711 c 246.871 143.711
 243.492 144.43 240.43 145.77 c 237.922 146.879 235.605 148.387 233.605 
150.234 c 233.605 187.129 l 235.602 188.977 237.922 190.488 240.43 191.594
 c 243.492 192.93 246.871 193.676 250.465 193.676 c 255.508 193.676 260.164
 192.211 264.055 189.68 c 268.094 187.062 271.324 183.301 273.301 178.855
 c 274.578 176.027 277.895 174.773 280.723 176.027 c 283.551 177.281 284.805
 180.598 283.551 183.426 c 280.68 189.848 276.004 195.289 270.156 199.074
 c 264.477 202.777 257.695 204.922 250.465 204.922 c 245.32 204.922 240.43
 203.84 235.965 201.883 c 235.156 201.52 234.371 201.141 233.605 200.734
 c 233.605 215.98 l 235.711 216.746 237.879 217.363 240.09 217.809 c 243.406
 218.512 246.871 218.871 250.465 218.871 c 264.328 218.871 276.875 213.258
 285.953 204.18 c 295.031 195.102 300.645 182.535 300.645 168.691 c 300.645
 154.828 295.031 142.285 285.953 133.184 c 276.875 124.105 264.328 118.492
 250.465 118.492 c 246.871 118.492 243.406 118.852 240.09 119.555 c 237.879
 120.023 235.711 120.641 233.605 121.383 c h
155.91 293.102 m 170.73 293.102 l 170.73 279.152 l 155.91 279.152 l h
194.164 304.348 m 173.602 304.348 153.039 304.348 132.48 304.348 c 130.734
 304.348 129.141 305.074 127.973 306.242 c 126.824 307.391 126.102 308.984
 126.102 310.727 c 126.102 312.473 126.824 314.066 127.973 315.234 c 129.141
 316.383 130.734 317.105 132.48 317.105 c 194.164 317.105 l 195.906 317.105
 197.5 316.383 198.648 315.234 c 199.82 314.066 200.539 312.473 200.539 
310.727 c 200.539 308.984 199.82 307.391 198.648 306.242 c 197.5 305.074
 195.906 304.348 194.164 304.348 c h
124.102 362.715 m 118.043 364.586 109.344 367.309 105.902 372.754 c 220.742
 372.754 l 217.297 367.328 208.559 364.566 202.52 362.715 c 191.293 359.293
 170.73 353 170.73 342.305 c 170.73 328.355 l 155.91 328.355 l 155.91 342.305
 l 155.91 353 135.328 359.293 124.102 362.715 c h
124.102 362.715 m f
Q Q
showpage
%%Trailer
end
%%EOF
