%!PS-Adobe-3.0 EPSF-3.0
%%Creator: cairo 1.16.0 (https://cairographics.org)
%%CreationDate: Thu Dec 10 07:54:56 2020
%%Pages: 1
%%DocumentData: Clean7Bit
%%LanguageLevel: 2
%%BoundingBox: 0 16 384 368
%%EndComments
%%BeginProlog
50 dict begin
/q { gsave } bind def
/Q { grestore } bind def
/cm { 6 array astore concat } bind def
/w { setlinewidth } bind def
/J { setlinecap } bind def
/j { setlinejoin } bind def
/M { setmiterlimit } bind def
/d { setdash } bind def
/m { moveto } bind def
/l { lineto } bind def
/c { curveto } bind def
/h { closepath } bind def
/re { exch dup neg 3 1 roll 5 3 roll moveto 0 rlineto
      0 exch rlineto 0 rlineto closepath } bind def
/S { stroke } bind def
/f { fill } bind def
/f* { eofill } bind def
/n { newpath } bind def
/W { clip } bind def
/W* { eoclip } bind def
/BT { } bind def
/ET { } bind def
/BDC { mark 3 1 roll /BDC pdfmark } bind def
/EMC { mark /EMC pdfmark } bind def
/cairo_store_point { /cairo_point_y exch def /cairo_point_x exch def } def
/Tj { show currentpoint cairo_store_point } bind def
/TJ {
  {
    dup
    type /stringtype eq
    { show } { -0.001 mul 0 cairo_font_matrix dtransform rmoveto } ifelse
  } forall
  currentpoint cairo_store_point
} bind def
/cairo_selectfont { cairo_font_matrix aload pop pop pop 0 0 6 array astore
    cairo_font exch selectfont cairo_point_x cairo_point_y moveto } bind def
/Tf { pop /cairo_font exch def /cairo_font_matrix where
      { pop cairo_selectfont } if } bind def
/Td { matrix translate cairo_font_matrix matrix concatmatrix dup
      /cairo_font_matrix exch def dup 4 get exch 5 get cairo_store_point
      /cairo_font where { pop cairo_selectfont } if } bind def
/Tm { 2 copy 8 2 roll 6 array astore /cairo_font_matrix exch def
      cairo_store_point /cairo_font where { pop cairo_selectfont } if } bind def
/g { setgray } bind def
/rg { setrgbcolor } bind def
/d1 { setcachedevice } bind def
/cairo_data_source {
  CairoDataIndex CairoData length lt
    { CairoData CairoDataIndex get /CairoDataIndex CairoDataIndex 1 add def }
    { () } ifelse
} def
/cairo_flush_ascii85_file { cairo_ascii85_file status { cairo_ascii85_file flushfile } if } def
/cairo_image { image cairo_flush_ascii85_file } def
/cairo_imagemask { imagemask cairo_flush_ascii85_file } def
%%EndProlog
%%BeginSetup
%%EndSetup
%%Page: 1 1
%%BeginPageSetup
%%PageBoundingBox: 0 16 384 368
%%EndPageSetup
q 0 16 384 352 rectclip
1 0 0 -1 0 384 cm q
0.25098 0.439216 0.576471 rg
9.27 361.953 m 374.75 361.953 l 376.75 361.953 378.387 360.316 378.387 
358.316 c 378.387 323.367 l 378.387 321.367 376.75 319.73 374.75 319.73 
c 9.27 319.73 l 7.27 319.73 5.633 321.367 5.633 323.367 c 5.633 358.316 
l 5.633 360.316 7.27 361.953 9.27 361.953 c h
9.27 361.953 m f*
0.211765 0.368627 0.490196 rg
356.531 361.953 m 374.75 361.953 l 376.75 361.953 378.387 360.316 378.387
 358.316 c 378.387 323.367 l 378.387 321.367 376.75 319.73 374.75 319.73
 c 356.531 319.73 l 358.551 319.73 360.188 321.367 360.188 323.367 c 360.188
 358.316 l 360.188 360.316 358.551 361.953 356.531 361.953 c h
356.531 361.953 m f*
0.517647 0.360784 0.278431 rg
112.254 319.73 m 156.176 319.73 192 283.887 192 239.965 c 192 196.039 156.176
 160.219 112.254 160.219 c 68.309 160.219 32.484 196.039 32.484 239.965 
c 32.484 283.887 68.309 319.73 112.254 319.73 c h
112.254 319.73 m f*
271.766 319.73 m 315.691 319.73 351.516 283.887 351.516 239.965 c 351.516
 196.039 315.691 160.219 271.766 160.219 c 227.824 160.219 192 196.039 192
 239.965 c 192 283.887 227.824 319.73 271.766 319.73 c h
271.766 319.73 m f*
191.637 22.047 m 235.691 22.047 271.387 57.742 271.387 101.793 c 271.387
 145.844 235.691 181.562 191.637 181.562 c 147.777 181.562 111.871 146.035
 111.871 101.793 c 111.871 57.742 147.586 22.047 191.637 22.047 c h
191.637 22.047 m f*
0.478431 0.329412 0.25098 rg
191.637 22.047 m 235.691 22.047 271.387 57.742 271.387 101.793 c 271.387
 145.844 235.691 181.562 191.637 181.562 c 188.559 181.562 185.516 181.371
 182.539 181.031 c 222.297 176.523 253.188 142.762 253.188 101.793 c 253.188
 60.824 222.297 27.086 182.539 22.559 c 185.516 22.215 188.555 22.047 191.637
 22.047 c h
191.637 22.047 m f*
271.766 160.219 m 315.816 160.219 351.516 195.91 351.516 239.965 c 351.516
 284.012 315.816 319.73 271.766 319.73 c 268.684 319.73 265.645 319.539 
262.668 319.199 c 302.426 314.691 333.316 280.93 333.316 239.965 c 333.316
 198.996 302.426 165.254 262.668 160.727 c 265.645 160.387 268.684 160.219
 271.766 160.219 c h
271.766 160.219 m f*
112.254 160.219 m 156.305 160.219 192 195.91 192 239.965 c 192 284.012 
156.305 319.73 112.254 319.73 c 109.172 319.73 106.133 319.539 103.152 319.199
 c 142.91 314.691 173.801 280.93 173.801 239.965 c 173.801 198.996 142.91
 165.254 103.152 160.727 c 106.133 160.387 109.172 160.219 112.254 160.219
 c h
112.254 160.219 m f*
0.717647 0.545098 0.478431 rg
112.254 297.793 m 144.102 297.793 170.059 271.809 170.059 239.965 c 170.059
 208.117 144.102 182.156 112.254 182.156 c 80.406 182.156 54.426 208.117
 54.426 239.965 c 54.426 271.809 80.406 297.793 112.254 297.793 c h
112.254 297.793 m f*
0.666667 0.478431 0.388235 rg
92.926 294.477 m 86.188 292.094 80.043 288.5 74.727 283.949 c 74.727 195.996
 l 80.043 191.449 86.188 187.855 92.926 185.473 c h
151.859 197.867 m 163.066 208.391 170.059 223.359 170.059 239.941 c 170.059
 239.984 l 170.059 256.566 163.066 271.535 151.859 282.078 c h
113.359 182.156 m 119.738 182.285 125.859 183.434 131.578 185.473 c 131.578
 294.477 l 125.859 296.492 119.738 297.641 113.359 297.77 c h
113.359 182.156 m f*
0.717647 0.545098 0.478431 rg
191.637 159.621 m 223.488 159.621 249.445 133.641 249.445 101.793 c 249.445
 69.945 223.488 43.988 191.637 43.988 c 159.793 43.988 133.812 69.945 133.812
 101.793 c 133.812 133.641 159.793 159.621 191.637 159.621 c h
191.637 159.621 m f*
271.766 297.793 m 303.613 297.793 329.574 271.809 329.574 239.965 c 329.574
 208.117 303.613 182.156 271.766 182.156 c 239.918 182.156 213.941 208.117
 213.941 239.965 c 213.941 271.809 239.922 297.793 271.766 297.793 c h
271.766 297.793 m f*
0.666667 0.478431 0.388235 rg
252.441 294.453 m 245.703 292.07 239.559 288.477 234.242 283.93 c 234.242
 195.977 l 239.559 191.426 245.703 187.832 252.441 185.453 c h
311.375 197.848 m 322.578 208.391 329.574 223.336 329.574 239.941 c 329.574
 239.965 l 329.574 256.566 322.578 271.512 311.375 282.059 c h
272.895 182.156 m 279.25 182.262 285.375 183.434 291.094 185.453 c 291.094
 294.453 l 285.375 296.473 279.25 297.641 272.895 297.75 c h
272.895 182.156 m f*
172.312 156.328 m 165.574 153.926 159.43 150.332 154.113 145.801 c 154.113
 57.828 l 159.43 53.301 165.574 49.707 172.312 47.305 c h
231.246 59.699 m 242.449 70.246 249.445 85.211 249.445 101.793 c 249.445
 101.836 l 249.445 118.418 242.449 133.387 231.246 143.934 c h
192.766 44.008 m 199.121 44.137 205.246 45.285 210.965 47.305 c 210.965
 156.328 l 205.246 158.344 199.121 159.492 192.766 159.621 c h
192.766 44.008 m f*
0 g
11.246 356.32 m 372.754 356.32 l 372.754 325.344 l 252.25 325.344 131.75
 325.344 11.246 325.344 c h
266.133 265.199 m 266.133 262.094 268.664 259.586 271.77 259.586 c 274.871
 259.586 277.379 262.098 277.379 265.199 c 277.379 274.297 l 277.379 277.402
 274.871 279.934 271.77 279.934 c 268.664 279.934 266.133 277.402 266.133
 274.297 c h
186.004 127.027 m 186.004 123.926 188.535 121.418 191.637 121.418 c 194.742
 121.418 197.25 123.926 197.25 127.027 c 197.25 136.129 l 197.25 139.234
 194.742 141.762 191.637 141.762 c 188.535 141.762 186.004 139.234 186.004
 136.129 c h
106.621 265.199 m 106.621 262.094 109.148 259.586 112.254 259.586 c 115.359
 259.586 117.867 262.098 117.867 265.199 c 117.867 274.297 l 117.867 277.402
 115.355 279.934 112.254 279.934 c 109.148 279.934 106.621 277.402 106.621
 274.297 c h
296.707 194.105 m 296.707 285.82 l 301.129 283.418 305.145 280.398 308.676
 276.871 c 318.113 267.43 323.961 254.379 323.961 239.965 c 323.961 225.551
 318.113 212.516 308.676 203.055 c 305.145 199.547 301.129 196.527 296.707
 194.105 c h
285.461 290.352 m 285.461 189.598 l 281.102 188.406 276.508 187.77 271.766
 187.77 c 267.027 187.77 262.434 188.406 258.055 189.598 c 258.055 290.352
 l 262.434 291.52 267.027 292.156 271.766 292.156 c 276.508 292.156 281.102
 291.52 285.461 290.352 c h
246.809 285.82 m 246.809 194.105 l 242.406 196.527 238.391 199.547 234.859
 203.055 c 225.422 212.516 219.574 225.551 219.574 239.965 c 219.574 254.379
 225.422 267.434 234.859 276.871 c 238.391 280.398 242.406 283.418 246.809
 285.82 c h
216.578 55.938 m 216.578 147.652 l 221 145.25 225.016 142.23 228.547 138.699
 c 237.984 129.262 243.832 116.207 243.832 101.793 c 243.832 87.379 237.984
 74.348 228.547 64.887 c 225.016 61.379 220.996 58.359 216.578 55.938 c 
h
205.328 152.18 m 205.328 51.43 l 200.973 50.238 196.379 49.602 191.637 
49.602 c 186.898 49.602 182.305 50.238 177.926 51.43 c 177.926 152.18 l 
182.305 153.348 186.898 153.984 191.637 153.984 c 196.379 153.984 200.973
 153.348 205.328 152.18 c h
166.68 147.652 m 166.68 55.938 l 162.277 58.359 158.258 61.379 154.73 64.887
 c 145.289 74.348 139.445 87.379 139.445 101.793 c 139.445 116.207 145.289
 129.262 154.73 138.703 c 158.258 142.23 162.277 145.25 166.68 147.652 c
 h
137.191 194.105 m 137.191 285.82 l 141.613 283.418 145.633 280.398 149.16
 276.871 c 158.602 267.43 164.445 254.379 164.445 239.965 c 164.445 225.551
 158.602 212.516 149.16 203.055 c 145.633 199.547 141.613 196.527 137.191
 194.105 c h
125.945 290.352 m 125.945 189.598 l 121.586 188.406 116.996 187.77 112.254
 187.77 c 107.512 187.77 102.922 188.406 98.539 189.598 c 98.539 290.352
 l 102.922 291.52 107.512 292.156 112.254 292.156 c 116.996 292.156 121.586
 291.52 125.945 290.352 c h
87.293 285.82 m 87.293 194.105 l 82.895 196.527 78.855 199.547 75.348 203.055
 c 65.906 212.516 60.059 225.551 60.059 239.965 c 60.059 254.379 65.906 
267.434 75.348 276.871 c 78.855 280.398 82.895 283.418 87.293 285.82 c h
271.766 176.523 m 289.285 176.523 305.145 183.625 316.625 195.102 c 328.109
 206.586 335.207 222.445 335.207 239.965 c 335.207 257.48 328.105 273.34
 316.625 284.82 c 305.145 296.301 289.285 303.402 271.766 303.402 c 254.25
 303.402 238.391 296.301 226.91 284.82 c 215.43 273.34 208.328 257.48 208.328
 239.965 c 208.328 222.445 215.43 206.586 226.91 195.102 c 238.391 183.625
 254.25 176.523 271.766 176.523 c h
191.637 38.355 m 209.156 38.355 225.016 45.457 236.5 56.934 c 247.98 68.414
 255.078 84.273 255.078 101.793 c 255.078 119.312 247.977 135.172 236.5 
146.652 c 225.016 158.133 209.156 165.234 191.637 165.234 c 174.121 165.234
 158.258 158.133 146.781 146.652 c 135.301 135.172 128.199 119.312 128.199
 101.793 c 128.199 84.277 135.301 68.414 146.781 56.934 c 158.258 45.453
 174.121 38.355 191.637 38.355 c h
112.254 176.523 m 129.773 176.523 145.633 183.625 157.113 195.102 c 168.594
 206.586 175.695 222.445 175.695 239.965 c 175.695 257.48 168.594 273.34
 157.113 284.82 c 145.633 296.301 129.773 303.402 112.254 303.402 c 94.734
 303.402 78.875 296.301 67.395 284.82 c 55.914 273.34 48.812 257.48 48.812
 239.965 c 48.812 222.445 55.914 206.586 67.395 195.102 c 78.875 183.625
 94.734 176.523 112.254 176.523 c h
157.75 35.824 m 154.984 37.25 151.605 36.164 150.18 33.422 c 148.758 30.656
 149.84 27.277 152.605 25.852 c 158.535 22.812 164.871 20.43 171.527 18.816
 c 178.031 17.242 184.773 16.414 191.637 16.414 c 215.215 16.414 236.559
 25.98 252.016 41.414 c 267.453 56.871 277.02 78.215 277.02 101.793 c 277.02
 122.246 269.832 141.02 257.844 155.711 c 262.371 154.965 267.027 154.582
 271.766 154.582 c 295.344 154.582 316.691 164.148 332.145 179.586 c 347.582
 195.039 357.148 216.387 357.148 239.965 c 357.148 263.539 347.582 284.887
 332.145 300.344 c 326.789 305.68 320.75 310.312 314.16 314.098 c 378.387
 314.098 l 381.492 314.098 384 316.629 384 319.73 c 384 361.953 l 384 365.059
 381.492 367.59 378.387 367.59 c 5.633 367.59 l 2.531 367.59 0 365.059 0
 361.953 c 0 319.73 l 0 316.629 2.531 314.098 5.633 314.098 c 69.859 314.098
 l 63.25 310.312 57.211 305.68 51.875 300.344 c 36.422 284.887 26.875 263.543
 26.875 239.965 c 26.875 232.695 27.789 225.613 29.508 218.852 c 31.273 
211.922 33.91 205.289 37.293 199.082 c 38.781 196.359 42.18 195.359 44.902
 196.848 c 47.625 198.316 48.625 201.738 47.137 204.438 c 44.242 209.754
 41.949 215.516 40.395 221.617 c 38.906 227.484 38.121 233.629 38.121 239.965
 c 38.121 260.438 46.414 278.977 59.828 292.391 c 73.242 305.805 91.781 
314.098 112.254 314.098 c 132.727 314.098 151.246 305.805 164.66 292.391
 c 178.078 278.977 186.387 260.438 186.387 239.965 c 186.387 219.488 178.078
 200.973 164.66 187.559 c 160.961 183.836 156.859 180.52 152.434 177.672
 c 150.16 176.48 147.973 175.227 145.824 173.867 c 135.746 168.723 124.332
 165.828 112.254 165.828 c 102.625 165.828 93.438 167.656 85.039 170.973
 c 76.305 174.418 68.371 179.5 61.613 185.812 c 59.34 187.918 55.789 187.789
 53.684 185.516 c 51.578 183.262 51.707 179.711 53.961 177.586 c 61.742 
170.336 70.883 164.492 80.961 160.516 c 90.656 156.688 101.223 154.582 112.254
 154.582 c 116.699 154.582 121.059 154.922 125.309 155.582 c 113.402 140.934
 106.262 122.223 106.262 101.793 c 106.262 90.418 108.516 79.512 112.594
 69.52 c 116.824 59.148 123.035 49.812 130.73 41.992 c 132.898 39.777 136.449
 39.758 138.66 41.926 c 140.871 44.094 140.895 47.645 138.723 49.855 c 132.027
 56.68 126.629 64.781 122.969 73.754 c 119.441 82.359 117.508 91.824 117.508
 101.793 c 117.508 122.309 125.797 140.805 139.191 154.199 c 142.91 157.922
 147.016 161.238 151.438 164.086 c 153.711 165.258 155.902 166.531 158.047
 167.891 c 168.148 173.035 179.562 175.93 191.641 175.93 c 212.113 175.93
 230.633 167.637 244.047 154.223 c 257.461 140.805 265.773 122.27 265.773
 101.797 c 265.773 81.32 257.461 62.805 244.047 49.391 c 230.633 35.973 
212.113 27.66 191.641 27.66 c 185.559 27.66 179.711 28.383 174.164 29.723
 c 168.422 31.105 162.918 33.168 157.75 35.824 c h
205.562 186.047 m 201.016 186.793 196.379 187.176 191.637 187.176 c 187.195
 187.176 182.84 186.836 178.562 186.176 c 184.199 193.129 188.746 200.953
 192 209.434 c 195.273 200.887 199.867 193.02 205.562 186.047 c h
229.375 314.098 m 222.785 310.312 216.727 305.676 211.391 300.344 c 202.992
 291.945 196.34 281.805 192 270.516 c 187.684 281.805 181.031 291.945 172.609
 300.344 c 167.273 305.676 161.238 310.312 154.645 314.098 c h
324.176 187.559 m 310.758 174.141 292.242 165.828 271.766 165.828 c 251.293
 165.828 232.754 174.141 219.34 187.559 c 205.926 200.973 197.633 219.488
 197.633 239.965 c 197.633 260.438 205.926 278.977 219.34 292.391 c 232.754
 305.805 251.297 314.098 271.766 314.098 c 292.242 314.098 310.758 305.805
 324.176 292.391 c 337.59 278.973 345.902 260.438 345.902 239.965 c 345.902
 219.488 337.59 200.973 324.176 187.559 c h
324.176 187.559 m f
Q Q
showpage
%%Trailer
end
%%EOF
