%!PS-Adobe-3.0 EPSF-3.0
%%Creator: cairo 1.16.0 (https://cairographics.org)
%%CreationDate: Thu Dec 10 07:54:57 2020
%%Pages: 1
%%DocumentData: Clean7Bit
%%LanguageLevel: 2
%%BoundingBox: 27 0 357 384
%%EndComments
%%BeginProlog
50 dict begin
/q { gsave } bind def
/Q { grestore } bind def
/cm { 6 array astore concat } bind def
/w { setlinewidth } bind def
/J { setlinecap } bind def
/j { setlinejoin } bind def
/M { setmiterlimit } bind def
/d { setdash } bind def
/m { moveto } bind def
/l { lineto } bind def
/c { curveto } bind def
/h { closepath } bind def
/re { exch dup neg 3 1 roll 5 3 roll moveto 0 rlineto
      0 exch rlineto 0 rlineto closepath } bind def
/S { stroke } bind def
/f { fill } bind def
/f* { eofill } bind def
/n { newpath } bind def
/W { clip } bind def
/W* { eoclip } bind def
/BT { } bind def
/ET { } bind def
/BDC { mark 3 1 roll /BDC pdfmark } bind def
/EMC { mark /EMC pdfmark } bind def
/cairo_store_point { /cairo_point_y exch def /cairo_point_x exch def } def
/Tj { show currentpoint cairo_store_point } bind def
/TJ {
  {
    dup
    type /stringtype eq
    { show } { -0.001 mul 0 cairo_font_matrix dtransform rmoveto } ifelse
  } forall
  currentpoint cairo_store_point
} bind def
/cairo_selectfont { cairo_font_matrix aload pop pop pop 0 0 6 array astore
    cairo_font exch selectfont cairo_point_x cairo_point_y moveto } bind def
/Tf { pop /cairo_font exch def /cairo_font_matrix where
      { pop cairo_selectfont } if } bind def
/Td { matrix translate cairo_font_matrix matrix concatmatrix dup
      /cairo_font_matrix exch def dup 4 get exch 5 get cairo_store_point
      /cairo_font where { pop cairo_selectfont } if } bind def
/Tm { 2 copy 8 2 roll 6 array astore /cairo_font_matrix exch def
      cairo_store_point /cairo_font where { pop cairo_selectfont } if } bind def
/g { setgray } bind def
/rg { setrgbcolor } bind def
/d1 { setcachedevice } bind def
/cairo_data_source {
  CairoDataIndex CairoData length lt
    { CairoData CairoDataIndex get /CairoDataIndex CairoDataIndex 1 add def }
    { () } ifelse
} def
/cairo_flush_ascii85_file { cairo_ascii85_file status { cairo_ascii85_file flushfile } if } def
/cairo_image { image cairo_flush_ascii85_file } def
/cairo_imagemask { imagemask cairo_flush_ascii85_file } def
%%EndProlog
%%BeginSetup
%%EndSetup
%%Page: 1 1
%%BeginPageSetup
%%PageBoundingBox: 27 0 357 384
%%EndPageSetup
q 27 0 330 384 rectclip
1 0 0 -1 0 384 cm q
0.584314 0.839216 0.643137 rg
103.16 146.227 m 141.875 146.227 173.445 114.656 173.445 75.941 c 173.445
 37.207 141.875 5.633 103.16 5.633 c 64.426 5.633 32.852 37.207 32.852 75.941
 c 32.852 114.656 64.422 146.227 103.16 146.227 c h
103.16 146.227 m f*
0.470588 0.760784 0.643137 rg
103.16 5.633 m 141.98 5.633 173.445 37.098 173.445 75.941 c 173.445 114.762
 141.98 146.227 103.16 146.227 c 100.055 146.227 97.035 146.035 94.039 145.652
 c 128.586 141.188 155.246 111.68 155.246 75.941 c 155.246 40.184 128.586
 10.672 94.039 6.207 c 97.035 5.824 100.055 5.633 103.16 5.633 c h
103.16 5.633 m f*
0.8 0.956863 0.623529 rg
103.16 123.629 m 129.414 123.629 150.848 102.199 150.848 75.941 c 150.848
 49.664 129.414 28.234 103.16 28.234 c 76.883 28.234 55.453 49.664 55.453
 75.941 c 55.453 102.199 76.883 123.629 103.16 123.629 c h
103.16 123.629 m f*
0.701961 0.898039 0.623529 rg
103.16 28.234 m 129.48 28.234 150.848 49.602 150.848 75.941 c 150.848 102.262
 129.48 123.629 103.16 123.629 c 100.035 123.629 96.996 123.332 94.039 122.758
 c 116.043 118.504 132.648 99.16 132.648 75.941 c 132.648 52.703 116.043
 33.359 94.039 29.105 c 96.996 28.531 100.035 28.234 103.16 28.234 c h
103.16 28.234 m f*
0.92549 0.956863 1 rg
350.543 81.723 m 321.543 357.211 l 320.309 368.801 311.996 378.387 300.367
 378.387 c 153.93 378.387 l 142.301 378.387 133.988 368.801 132.773 357.211
 c 110.516 145.844 l 132.773 75.941 l 345.332 75.941 l 349.055 75.922 350.902
 77.727 350.543 81.723 c h
350.543 81.723 m f*
0.866667 0.917647 0.984314 rg
340.188 180.051 m 323.605 337.484 l 130.691 337.484 l 114.109 180.051 l
 h
340.188 180.051 m f*
0.796078 0.886275 1 rg
350.543 81.723 m 323.605 337.484 l 293.988 337.484 l 321.543 75.941 l 345.332
 75.941 l 349.055 75.922 350.902 77.727 350.543 81.723 c h
130.691 337.484 m 125.547 288.566 l 103.754 81.684 l 103.352 77.664 105.309
 75.941 108.965 75.941 c 132.777 75.941 l 160.328 337.484 l h
177.25 75.941 m 206.887 75.941 l 215.352 337.484 l 185.711 337.484 l h
247.43 75.941 m 277.066 75.941 l 268.586 337.484 l 238.969 337.484 l h
247.43 75.941 m f*
0.745098 0.847059 0.984314 rg
350.543 81.723 m 323.605 337.484 l 305.406 337.484 l 332.344 81.723 l 332.703
 77.727 330.855 75.922 327.133 75.941 c 345.332 75.941 l 349.055 75.922 
350.902 77.727 350.543 81.723 c h
350.543 81.723 m f*
340.188 180.051 m 323.605 337.484 l 293.988 337.484 l 310.574 180.051 l
 h
130.691 337.484 m 114.109 180.051 l 143.746 180.051 l 160.328 337.484 l
 h
180.633 180.051 m 210.246 180.051 l 215.348 337.484 l 185.711 337.484 l
 h
244.07 180.051 m 273.688 180.051 l 268.586 337.484 l 238.969 337.484 l 
h
244.07 180.051 m f*
0.615686 0.776471 0.984314 rg
323.605 337.484 m 321.543 357.215 l 320.309 368.801 311.996 378.387 300.367
 378.387 c 153.93 378.387 l 142.301 378.387 133.988 368.801 132.773 357.215
 c 130.691 337.484 l h
323.605 337.484 m f*
0.501961 0.705882 0.984314 rg
323.605 337.484 m 321.543 357.215 l 320.309 368.801 311.996 378.387 300.367
 378.387 c 282.168 378.387 l 293.797 378.387 302.109 368.801 303.344 357.215
 c 305.406 337.484 l h
323.605 337.484 m f*
0.615686 0.776471 0.984314 rg
321.988 180.051 m 340.188 180.051 l 323.605 337.484 l 305.406 337.484 l
 h
321.988 180.051 m f*
0 g
338.699 140.699 m 339.02 137.617 341.762 135.383 344.844 135.703 c 347.926
 136 350.18 138.766 349.863 141.848 c 342.273 213.836 334.703 285.82 327.113
 357.785 c 326.348 365.035 323.266 371.691 318.504 376.453 c 313.848 381.109
 307.617 384 300.367 384 c 153.93 384 l 146.699 384 140.469 381.109 135.793
 376.453 c 131.031 371.691 127.949 365.059 127.203 357.785 c 124.207 329.488
 121.23 301.172 118.254 272.852 c 117.934 269.77 120.168 267.008 123.25 
266.711 c 126.332 266.391 129.098 268.621 129.414 271.703 c 135.75 331.871
 l 154.098 331.871 l 138.684 185.664 l 120.359 185.664 l 126.738 246.363
 l 127.055 249.445 124.824 252.211 121.738 252.527 c 118.656 252.828 115.895
 250.594 115.574 247.512 c 112.215 215.621 108.855 183.711 105.496 151.82
 c 84.621 152.562 64.211 144.379 49.457 129.625 c 35.723 115.891 27.219 
96.906 27.219 75.941 c 27.219 54.957 35.723 35.973 49.457 22.238 c 63.191
 8.504 82.176 0 103.16 0 c 113.281 0 122.996 2.02 131.902 5.656 c 141.109
 9.418 149.402 14.945 156.375 21.812 c 158.586 23.98 158.629 27.531 156.438
 29.742 c 154.27 31.953 150.719 31.977 148.508 29.805 c 142.555 23.961 135.477
 19.242 127.629 16.031 c 120.125 12.949 111.855 11.246 103.16 11.246 c 85.281
 11.246 69.121 18.496 57.406 30.188 c 45.715 41.902 38.465 58.062 38.465
 75.941 c 38.465 93.801 45.715 109.957 57.406 121.672 c 69.973 134.215 86.598
 140.828 104.328 140.594 c 103.117 129.242 l 88.406 129.242 75.098 123.266
 65.445 113.637 c 55.793 103.984 49.84 90.652 49.84 75.941 c 49.84 61.207
 55.793 47.879 65.445 38.227 c 75.098 28.574 88.426 22.621 103.16 22.621
 c 117.871 22.621 131.203 28.574 140.855 38.227 c 149.25 46.625 154.863 
57.828 156.184 70.309 c 167.578 70.309 l 167.344 67.5 166.918 64.758 166.344
 62.059 c 165.344 57.465 163.855 53.066 161.941 48.918 c 160.645 46.113 
161.879 42.777 164.688 41.48 c 167.512 40.184 170.852 41.414 172.148 44.223
 c 174.402 49.133 176.145 54.32 177.336 59.699 c 178.078 63.164 178.613 
66.691 178.867 70.309 c 351.16 70.309 l 354.688 70.309 357.324 73.496 356.688
 76.941 c 352.52 116.504 l 352.223 119.59 349.457 121.82 346.375 121.523
 c 343.293 121.203 341.059 118.441 341.355 115.359 c 344.93 81.555 l 326.582
 81.555 l 316.801 174.418 l 335.148 174.418 l h
86.852 100.176 m 84.664 102.391 81.09 102.391 78.902 100.176 c 76.711 97.988
 76.711 94.414 78.902 92.227 c 81.477 89.652 l 83.664 87.461 87.234 87.461
 89.426 89.652 c 91.617 91.844 91.617 95.414 89.426 97.605 c h
124.824 62.207 m 122.633 64.398 119.062 64.398 116.871 62.207 c 114.684
 60.016 114.684 56.445 116.871 54.254 c 119.445 51.684 l 121.633 49.492 
125.207 49.492 127.395 51.684 c 129.605 53.871 129.605 57.445 127.395 59.633
 c h
97.527 47.262 m 97.527 44.156 100.035 41.629 103.16 41.629 c 106.266 41.629
 108.773 44.156 108.773 47.262 c 108.773 50.898 l 108.773 54 106.262 56.531
 103.16 56.531 c 100.035 56.531 97.527 54 97.527 50.898 c h
78.902 59.633 m 76.711 57.445 76.711 53.875 78.902 51.684 c 81.094 49.492
 84.664 49.492 86.852 51.684 c 89.426 54.258 l 91.613 56.445 91.613 60.02
 89.426 62.207 c 87.234 64.398 83.664 64.398 81.473 62.207 c h
74.48 81.555 m 71.375 81.555 68.844 79.043 68.844 75.941 c 68.844 72.816
 71.375 70.309 74.48 70.309 c 78.113 70.309 l 81.219 70.309 83.75 72.816
 83.75 75.941 c 83.75 79.047 81.219 81.555 78.113 81.555 c h
101.949 117.973 m 97.566 76.492 l 97.227 73.219 99.844 70.309 103.16 70.309
 c 144.852 70.309 l 143.598 60.93 139.258 52.555 132.902 46.176 c 125.293
 38.566 114.766 33.867 103.16 33.867 c 91.531 33.867 81.008 38.566 73.395
 46.176 c 65.785 53.789 61.086 64.312 61.086 75.941 c 61.086 87.551 65.785
 98.074 73.395 105.684 c 80.75 113.02 90.809 117.676 101.949 117.973 c h
165.367 331.871 m 179.93 331.871 l 175.188 185.664 l 149.973 185.664 l 
h
137.516 174.418 m 127.734 81.555 l 109.387 81.555 l 119.168 174.418 l h
139.004 81.555 m 148.785 174.418 l 174.828 174.418 l 171.832 81.555 l h
315.293 81.555 m 282.488 81.555 l 279.469 174.418 l 305.512 174.418 l h
288.93 331.871 m 304.344 185.664 l 279.109 185.664 l 274.387 331.871 l 
h
315.609 185.664 m 300.219 331.871 l 318.566 331.871 l 333.957 185.664 l
 h
241.648 81.555 m 212.672 81.555 l 215.668 174.418 l 238.629 174.418 l h
249.855 174.418 m 268.266 174.418 l 271.266 81.555 l 252.852 81.555 l h
233.547 331.871 m 238.266 185.664 l 216.031 185.664 l 220.77 331.871 l 
h
249.492 185.664 m 244.754 331.871 l 263.164 331.871 l 267.902 185.664 l
 h
191.133 331.871 m 209.543 331.871 l 204.824 185.664 l 186.414 185.664 l
 h
186.051 174.418 m 204.465 174.418 l 201.445 81.555 l 183.035 81.555 l h
136.922 343.117 m 138.367 356.66 l 138.855 361.297 140.77 365.523 143.746
 368.504 c 146.383 371.137 149.891 372.754 153.93 372.754 c 300.367 372.754
 l 304.43 372.754 307.938 371.117 310.551 368.504 c 313.527 365.523 315.461
 361.297 315.953 356.66 c 317.375 343.117 l 257.23 343.117 197.086 343.117
 136.922 343.117 c h
136.922 343.117 m f
Q Q
showpage
%%Trailer
end
%%EOF
