%!PS-Adobe-3.0 EPSF-3.0
%%Creator: cairo 1.16.0 (https://cairographics.org)
%%CreationDate: Thu Dec 10 07:54:58 2020
%%Pages: 1
%%DocumentData: Clean7Bit
%%LanguageLevel: 2
%%BoundingBox: 0 22 384 362
%%EndComments
%%BeginProlog
50 dict begin
/q { gsave } bind def
/Q { grestore } bind def
/cm { 6 array astore concat } bind def
/w { setlinewidth } bind def
/J { setlinecap } bind def
/j { setlinejoin } bind def
/M { setmiterlimit } bind def
/d { setdash } bind def
/m { moveto } bind def
/l { lineto } bind def
/c { curveto } bind def
/h { closepath } bind def
/re { exch dup neg 3 1 roll 5 3 roll moveto 0 rlineto
      0 exch rlineto 0 rlineto closepath } bind def
/S { stroke } bind def
/f { fill } bind def
/f* { eofill } bind def
/n { newpath } bind def
/W { clip } bind def
/W* { eoclip } bind def
/BT { } bind def
/ET { } bind def
/BDC { mark 3 1 roll /BDC pdfmark } bind def
/EMC { mark /EMC pdfmark } bind def
/cairo_store_point { /cairo_point_y exch def /cairo_point_x exch def } def
/Tj { show currentpoint cairo_store_point } bind def
/TJ {
  {
    dup
    type /stringtype eq
    { show } { -0.001 mul 0 cairo_font_matrix dtransform rmoveto } ifelse
  } forall
  currentpoint cairo_store_point
} bind def
/cairo_selectfont { cairo_font_matrix aload pop pop pop 0 0 6 array astore
    cairo_font exch selectfont cairo_point_x cairo_point_y moveto } bind def
/Tf { pop /cairo_font exch def /cairo_font_matrix where
      { pop cairo_selectfont } if } bind def
/Td { matrix translate cairo_font_matrix matrix concatmatrix dup
      /cairo_font_matrix exch def dup 4 get exch 5 get cairo_store_point
      /cairo_font where { pop cairo_selectfont } if } bind def
/Tm { 2 copy 8 2 roll 6 array astore /cairo_font_matrix exch def
      cairo_store_point /cairo_font where { pop cairo_selectfont } if } bind def
/g { setgray } bind def
/rg { setrgbcolor } bind def
/d1 { setcachedevice } bind def
/cairo_data_source {
  CairoDataIndex CairoData length lt
    { CairoData CairoDataIndex get /CairoDataIndex CairoDataIndex 1 add def }
    { () } ifelse
} def
/cairo_flush_ascii85_file { cairo_ascii85_file status { cairo_ascii85_file flushfile } if } def
/cairo_image { image cairo_flush_ascii85_file } def
/cairo_imagemask { imagemask cairo_flush_ascii85_file } def
%%EndProlog
%%BeginSetup
%%EndSetup
%%Page: 1 1
%%BeginPageSetup
%%PageBoundingBox: 0 22 384 362
%%EndPageSetup
q 0 22 384 340 rectclip
1 0 0 -1 0 384 cm q
0.92549 0.956863 1 rg
378.387 124.711 m 378.387 330.742 l 378.387 344.754 366.906 356.234 352.898
 356.234 c 31.105 356.234 l 17.094 356.234 5.633 344.754 5.633 330.742 c
 5.633 124.711 l h
378.387 124.711 m f*
0.866667 0.917647 0.984314 rg
378.387 124.711 m 378.387 330.742 l 378.387 344.754 366.906 356.234 352.898
 356.234 c 334.699 356.234 l 348.707 356.234 360.188 344.754 360.188 330.742
 c 360.188 124.711 l h
378.387 124.711 m f*
0.92549 0.745098 0.419608 rg
131.918 205.012 m 149.777 184.496 l 201.461 183.391 l 224.656 201.781 l
 234.074 316.203 l 234.414 320.41 232.629 322.008 228.719 322.008 c 128.113
 322.008 l 124.457 322.008 122.438 320.199 122.777 316.203 c h
131.918 205.012 m f*
0.992157 0.701961 0.262745 rg
183.73 183.773 m 201.461 183.391 l 224.656 201.781 l 234.074 316.203 l 
234.414 320.41 232.629 322.004 228.715 322.004 c 210.516 322.004 l 214.43
 322.004 216.215 320.41 215.875 316.203 c 206.457 201.781 l h
183.73 183.773 m f*
1 0.945098 0.886275 rg
137.488 163.828 m 142.676 163.871 147.566 165.742 151.266 169.402 c 153.625
 171.738 153.18 171.293 155.773 169.594 c 159.301 167.359 163.871 166.594
 167.934 167.594 c 170.633 168.273 170.547 167.699 172.227 165.723 c 177.117
 159.941 184.836 156.793 192.34 156.73 c 200.695 156.793 208.773 160.578
 213.77 167.34 c 215.32 169.465 215.789 168.594 218.023 167.848 c 219.512
 167.359 221.105 167.191 222.676 167.168 c 231.883 167.168 239.344 174.629
 239.344 183.836 c 239.344 193.02 231.883 200.484 222.676 200.484 c 220.402
 200.461 219.105 200.184 216.98 199.398 c 214.535 198.508 214.387 199.59
 212.941 201.375 c 208.027 207.477 200.078 210.859 192.34 210.922 c 184.305
 210.859 176.586 207.391 171.523 201.098 c 169.848 198.996 169.207 199.867
 166.848 200.293 c 162.574 200.992 158.43 199.953 154.922 197.441 c 152.797
 195.91 152.668 196.91 151.008 198.527 c 147.48 201.969 142.379 203.777 
137.488 203.82 c 126.453 203.82 117.48 194.871 117.48 183.836 c 117.484 
172.781 126.457 163.828 137.488 163.828 c h
137.488 163.828 m f*
0.988235 0.909804 0.776471 rg
215.961 168.613 m 216.473 168.488 217.086 168.145 218.023 167.848 c 219.512
 167.359 221.105 167.191 222.68 167.168 c 231.883 167.168 239.348 174.629
 239.348 183.836 c 239.348 193.02 231.883 200.484 222.68 200.484 c 220.402
 200.461 219.105 200.184 216.98 199.398 c 216.555 199.25 216.195 199.164
 215.895 199.102 c 219.129 195.273 221.148 189.855 221.148 183.836 c 221.148
 177.84 219.148 172.441 215.961 168.613 c h
215.961 168.613 m f*
0.866667 0.388235 0.431373 rg
31.105 64.293 m 352.898 64.293 l 366.906 64.293 378.387 75.75 378.387 89.762
 c 378.387 124.715 l 5.633 124.715 l 5.633 89.762 l 5.633 75.75 17.094 64.293
 31.105 64.293 c h
31.105 64.293 m f*
0.854902 0.290196 0.329412 rg
334.695 64.293 m 352.895 64.293 l 366.906 64.293 378.387 75.75 378.387 
89.762 c 378.387 124.715 l 360.188 124.715 l 360.188 89.762 l 360.188 75.75
 348.707 64.293 334.695 64.293 c h
334.695 64.293 m f*
0.745098 0.847059 0.984314 rg
68.754 27.785 m 76.75 27.785 83.32 34.336 83.32 42.352 c 83.32 86.23 l 
83.32 94.227 76.75 100.793 68.754 100.793 c 60.742 100.793 54.191 94.227
 54.191 86.23 c 54.191 42.352 l 54.191 34.336 60.742 27.785 68.754 27.785
 c h
308.996 27.785 m 317.008 27.785 323.559 34.336 323.559 42.352 c 323.559
 86.23 l 323.559 94.227 317.012 100.793 308.996 100.793 c 301 100.793 294.453
 94.227 294.453 86.23 c 294.453 42.352 l 294.453 34.336 301 27.785 308.996
 27.785 c h
228.93 27.785 m 236.922 27.785 243.473 34.336 243.473 42.352 c 243.473 
86.23 l 243.473 94.227 236.922 100.793 228.93 100.793 c 220.914 100.793 
214.363 94.227 214.363 86.23 c 214.363 42.352 l 214.367 34.336 220.914 27.785
 228.93 27.785 c h
148.844 27.785 m 156.836 27.785 163.406 34.336 163.406 42.352 c 163.406
 86.23 l 163.406 94.227 156.836 100.793 148.844 100.793 c 140.828 100.793
 134.277 94.227 134.277 86.23 c 134.277 42.352 l 134.277 34.336 140.828 
27.785 148.844 27.785 c h
148.844 27.785 m f*
0 g
137.211 209.434 m 133.77 251.273 l 133.512 254.355 130.793 256.672 127.688
 256.418 c 124.605 256.164 122.289 253.441 122.543 250.336 c 126.137 206.797
 l 123.629 205.543 121.332 203.906 119.375 201.949 c 114.742 197.293 111.871
 190.895 111.871 183.836 c 111.871 176.758 114.742 170.355 119.375 165.723
 c 124.012 161.066 130.41 158.219 137.488 158.219 c 141.465 158.219 145.27
 159.133 148.648 160.789 c 150.543 161.707 152.305 162.852 153.902 164.172
 c 154.707 163.746 155.539 163.363 156.387 163.043 c 158.898 162.066 161.598
 161.535 164.383 161.535 c 165.594 161.535 166.828 161.664 168.102 161.875
 c 170.715 158.984 173.84 156.578 177.328 154.773 c 181.836 152.434 186.938
 151.117 192.34 151.117 c 197.953 151.117 203.246 152.539 207.879 155.051
 c 211.324 156.922 214.406 159.387 216.957 162.301 c 218.871 161.812 220.699
 161.535 222.676 161.535 c 228.844 161.535 234.414 164.043 238.453 168.062
 c 242.469 172.102 244.977 177.672 244.977 183.836 c 244.977 189.98 242.469
 195.551 238.453 199.59 c 236.219 201.801 233.52 203.566 230.523 204.691
 c 231.668 218.66 l 255.184 218.66 l 259.84 218.66 264.09 220.551 267.152
 223.633 c 270.234 226.695 272.148 230.949 272.148 235.625 c 272.148 275.359
 l 272.148 280.016 270.234 284.27 267.152 287.328 c 264.09 290.41 259.84
 292.305 255.184 292.305 c 237.75 292.305 l 240.133 321.367 l 240.516 324.703
 237.922 327.637 234.539 327.637 c 122.289 327.637 l 119.035 327.637 116.422
 324.812 116.695 321.559 c 120.461 275.742 l 120.715 272.637 123.438 270.344
 126.52 270.598 c 129.625 270.852 131.918 273.574 131.664 276.656 c 128.391
 316.391 l 228.441 316.391 l 225.402 279.547 222.383 242.684 219.344 205.84
 c 218.535 205.711 217.746 205.543 216.961 205.352 c 214.41 208.262 211.328
 210.73 207.883 212.602 c 203.246 215.109 197.953 216.535 192.344 216.535
 c 186.941 216.535 181.84 215.215 177.332 212.879 c 173.844 211.07 170.719
 208.668 168.105 205.773 c 166.828 205.988 165.598 206.117 164.383 206.117
 c 161.598 206.117 158.898 205.586 156.391 204.605 c 155.539 204.285 154.711
 203.902 153.902 203.48 c 152.309 204.797 150.543 205.945 148.652 206.859
 c 145.078 208.605 141.168 209.477 137.211 209.434 c h
83.785 219.234 m 86.867 219.574 89.078 222.336 88.738 225.422 c 88.398 
228.504 85.637 230.734 82.551 230.395 c 49.789 226.762 l 46.707 226.422 
44.477 223.633 44.816 220.551 c 45.156 217.469 47.941 215.258 51.023 215.598
 c h
301.469 230.395 m 298.387 230.734 295.602 228.504 295.262 225.422 c 294.918
 222.336 297.152 219.574 300.234 219.234 c 332.996 215.598 l 336.078 215.258
 338.844 217.469 339.184 220.551 c 339.523 223.633 337.312 226.418 334.23
 226.758 c h
297.875 286.012 m 295.238 284.375 294.43 280.91 296.066 278.273 c 297.727
 275.637 301.172 274.828 303.809 276.465 c 336.57 296.855 l 339.207 298.492
 340.012 301.961 338.375 304.594 c 336.738 307.23 333.273 308.039 330.637
 306.402 c h
303.809 202.289 m 301.172 203.926 297.727 203.117 296.066 200.484 c 294.43
 197.848 295.238 194.383 297.875 192.746 c 330.637 172.355 l 333.273 170.719
 336.738 171.527 338.375 174.164 c 340.012 176.801 339.203 180.266 336.57
 181.902 c h
300.234 259.523 m 297.152 259.184 294.918 256.398 295.262 253.312 c 295.602
 250.23 298.387 248.02 301.469 248.359 c 334.23 251.996 l 337.312 252.336
 339.523 255.102 339.184 258.184 c 338.844 261.266 336.078 263.496 332.996
 263.156 c h
80.191 276.465 m 82.828 274.828 86.297 275.637 87.934 278.273 c 89.57 280.91
 88.762 284.375 86.125 286.012 c 53.363 306.402 l 50.727 308.039 47.262 
307.23 45.625 304.594 c 43.988 301.957 44.797 298.492 47.43 296.855 c h
86.125 192.742 m 88.762 194.383 89.57 197.848 87.934 200.484 c 86.297 203.117
 82.828 203.926 80.191 202.289 c 47.43 181.902 l 44.797 180.262 43.988 176.797
 45.625 174.164 c 47.262 171.527 50.727 170.719 53.363 172.355 c h
82.555 248.359 m 85.637 248.02 88.398 250.23 88.738 253.312 c 89.082 256.398
 86.867 259.184 83.785 259.523 c 51.023 263.156 l 47.941 263.496 45.156 
261.266 44.816 258.184 c 44.477 255.102 46.707 252.336 49.793 251.996 c 
h
68.754 22.152 m 74.305 22.152 79.363 24.426 83.02 28.082 c 86.656 31.742
 88.93 36.781 88.93 42.352 c 88.93 58.656 l 128.645 58.656 l 128.645 42.352
 l 128.645 36.781 130.922 31.742 134.578 28.086 c 138.234 24.43 143.273 
22.152 148.844 22.152 c 154.391 22.152 159.43 24.43 163.086 28.086 c 166.742
 31.742 169.02 36.781 169.02 42.352 c 169.02 58.656 l 208.734 58.656 l 208.734
 42.352 l 208.734 36.781 211.008 31.742 214.664 28.086 c 218.32 24.43 223.359
 22.152 228.93 22.152 c 234.477 22.152 239.52 24.43 243.176 28.086 c 246.832
 31.742 249.105 36.781 249.105 42.352 c 249.105 58.656 l 288.82 58.656 l
 288.82 42.352 l 288.82 36.781 291.094 31.742 294.754 28.086 c 298.41 24.43
 303.449 22.152 308.996 22.152 c 314.566 22.152 319.605 24.43 323.262 28.086
 c 326.918 31.742 329.195 36.781 329.195 42.352 c 329.195 58.656 l 352.898
 58.656 l 361.469 58.656 369.25 62.164 374.883 67.797 c 380.512 73.434 384
 81.215 384 89.762 c 384 153.84 l 384 156.941 381.492 159.449 378.387 159.449
 c 375.285 159.449 372.754 156.941 372.754 153.84 c 372.754 130.324 l 11.246
 130.324 l 11.246 290.711 l 11.246 293.816 8.738 296.324 5.633 296.324 c
 2.531 296.324 0 293.816 0 290.711 c 0 89.762 l 0 81.215 3.508 73.434 9.141
 67.797 c 14.777 62.164 22.559 58.656 31.105 58.656 c 48.559 58.656 l 48.559
 42.352 l 48.559 36.781 50.832 31.742 54.492 28.086 c 58.148 24.426 63.184
 22.152 68.754 22.152 c h
88.93 69.902 m 88.93 86.23 l 88.93 91.781 86.656 96.82 83.02 100.477 c 
79.363 104.133 74.305 106.406 68.754 106.406 c 63.184 106.406 58.148 104.133
 54.488 100.477 c 50.832 96.82 48.559 91.781 48.559 86.23 c 48.559 69.902
 l 31.105 69.902 l 25.66 69.902 20.688 72.137 17.094 75.75 c 13.48 79.344
 11.246 84.316 11.246 89.762 c 11.246 119.078 l 372.754 119.078 l 372.754
 89.762 l 372.754 84.316 370.523 79.344 366.93 75.75 c 363.312 72.137 358.359
 69.902 352.898 69.902 c 329.191 69.902 l 329.191 86.23 l 329.191 91.781
 326.918 96.82 323.262 100.477 c 319.602 104.133 314.566 106.406 308.996
 106.406 c 303.445 106.406 298.406 104.133 294.75 100.477 c 291.094 96.82
 288.816 91.781 288.816 86.23 c 288.816 69.902 l 249.105 69.902 l 249.105
 86.23 l 249.105 91.781 246.832 96.82 243.172 100.477 c 239.516 104.133 
234.477 106.406 228.93 106.406 c 223.359 106.406 218.32 104.133 214.664 
100.477 c 211.008 96.82 208.73 91.781 208.73 86.23 c 208.73 69.902 l 169.016
 69.902 l 169.016 86.23 l 169.016 91.781 166.742 96.82 163.086 100.477 c
 159.43 104.133 154.391 106.406 148.84 106.406 c 143.27 106.406 138.234 
104.133 134.574 100.477 c 130.918 96.82 128.645 91.781 128.645 86.23 c 128.645
 69.902 l h
75.047 36.035 m 73.434 34.422 71.199 33.402 68.754 33.402 c 66.289 33.402
 64.055 34.418 62.441 36.035 c 60.824 37.652 59.805 39.883 59.805 42.352
 c 59.805 86.23 l 59.805 88.676 60.824 90.91 62.441 92.523 c 64.055 94.16
 66.289 95.16 68.754 95.16 c 71.199 95.16 73.434 94.16 75.047 92.523 c 76.684
 90.91 77.684 88.676 77.684 86.23 c 77.684 42.352 l 77.684 39.883 76.684
 37.652 75.047 36.035 c h
315.309 36.035 m 313.691 34.422 311.461 33.402 308.996 33.402 c 306.551
 33.402 304.316 34.418 302.703 36.035 c 301.062 37.652 300.066 39.883 300.066
 42.352 c 300.066 86.23 l 300.066 88.676 301.066 90.91 302.703 92.523 c 
304.316 94.16 306.551 95.16 308.996 95.16 c 311.461 95.16 313.691 94.16 
315.309 92.523 c 316.926 90.91 317.945 88.676 317.945 86.23 c 317.945 42.352
 l 317.945 39.883 316.926 37.652 315.309 36.035 c h
235.223 36.035 m 233.605 34.422 231.375 33.402 228.93 33.402 c 226.461 
33.402 224.23 34.418 222.613 36.035 c 221 37.652 219.977 39.883 219.977 
42.352 c 219.977 86.23 l 219.977 88.676 221 90.91 222.613 92.523 c 224.23
 94.16 226.461 95.16 228.93 95.16 c 231.375 95.16 233.605 94.16 235.223 
92.523 c 236.836 90.91 237.859 88.676 237.859 86.23 c 237.859 42.352 l 237.859
 39.883 236.836 37.652 235.223 36.035 c h
155.137 36.035 m 153.52 34.422 151.289 33.402 148.844 33.402 c 146.375 
33.402 144.145 34.418 142.527 36.035 c 140.91 37.652 139.891 39.883 139.891
 42.352 c 139.891 86.23 l 139.891 88.676 140.91 90.91 142.527 92.523 c 144.145
 94.16 146.375 95.16 148.844 95.16 c 151.285 95.16 153.52 94.16 155.137 
92.523 c 156.773 90.91 157.773 88.676 157.773 86.23 c 157.773 42.352 l 157.773
 39.883 156.773 37.652 155.137 36.035 c h
372.754 179.309 m 372.754 176.203 375.285 173.695 378.387 173.695 c 381.492
 173.695 384 176.203 384 179.309 c 384 330.742 l 384 339.312 380.512 347.07
 374.879 352.727 c 369.246 358.359 361.465 361.848 352.895 361.848 c 31.105
 361.848 l 22.559 361.848 14.777 358.359 9.141 352.727 c 3.508 347.094 0
 339.312 0 330.742 c 0 316.18 l 0 313.074 2.531 310.566 5.633 310.566 c 
8.738 310.566 11.246 313.078 11.246 316.18 c 11.246 330.742 l 11.246 336.207
 13.477 341.16 17.094 344.754 c 20.688 348.367 25.66 350.602 31.102 350.602
 c 352.895 350.602 l 358.359 350.602 363.312 348.367 366.926 344.754 c 370.52
 341.16 372.754 336.207 372.754 330.742 c h
211.219 295.836 m 211.41 298.941 209.051 301.598 205.969 301.789 c 202.863
 302 200.207 299.641 200.016 296.535 c 196.039 234.055 l 195.848 230.949
 198.188 228.293 201.289 228.102 c 204.371 227.91 207.051 230.246 207.242
 233.352 c h
156.836 296.535 m 156.645 299.641 153.965 302 150.883 301.789 c 147.777
 301.598 145.418 298.941 145.633 295.836 c 149.609 233.352 l 149.801 230.246
 152.457 227.91 155.559 228.102 c 158.645 228.293 161.004 230.949 160.812
 234.055 c h
184.047 296.195 m 184.047 299.301 181.52 301.809 178.414 301.809 c 175.309
 301.809 172.801 299.301 172.801 296.195 c 172.801 233.691 l 172.801 230.586
 175.309 228.078 178.414 228.078 c 181.52 228.078 184.047 230.586 184.047
 233.691 c h
232.605 229.906 m 236.816 281.059 l 255.184 281.059 l 256.738 281.059 258.16
 280.422 259.203 279.379 c 260.246 278.336 260.883 276.914 260.883 275.359
 c 260.883 235.625 l 260.883 234.055 260.246 232.629 259.203 231.586 c 258.16
 230.543 256.738 229.906 255.184 229.906 c h
143.781 170.891 m 141.891 169.977 139.766 169.465 137.488 169.465 c 133.512
 169.465 129.922 171.059 127.328 173.672 c 124.734 176.27 123.117 179.859
 123.117 183.836 c 123.117 187.789 124.734 191.383 127.328 193.977 c 129.922
 196.594 133.512 198.188 137.488 198.188 c 139.766 198.188 141.891 197.676
 143.781 196.762 c 146.207 195.594 147.355 194.297 149.055 192.426 c 151.137
 190.129 154.668 189.938 156.965 192.023 c 157.961 192.914 159.133 193.66
 160.43 194.148 c 161.621 194.617 162.957 194.871 164.383 194.871 c 165.66
 194.871 166.766 194.699 167.977 194.297 c 170.355 193.254 173.25 194 174.801
 196.211 c 176.777 199.016 179.414 201.312 182.477 202.906 c 185.41 204.418
 188.77 205.289 192.34 205.289 c 196.059 205.289 199.527 204.352 202.566
 202.715 c 205.691 201.016 208.371 198.551 210.328 195.551 c 211.879 193.172
 215.023 192.297 217.598 193.637 c 219.234 194.488 220.848 194.871 222.68
 194.871 c 225.738 194.871 228.48 193.617 230.48 191.641 c 232.48 189.641
 233.711 186.879 233.711 183.836 c 233.711 180.777 232.48 178.012 230.48
 176.016 c 228.48 174.035 225.738 172.781 222.68 172.781 c 221.723 172.781
 220.848 172.887 220.062 173.082 c 219.297 173.27 218.531 173.547 217.809
 173.91 c 215.258 175.375 211.965 174.609 210.328 172.102 c 208.371 169.105
 205.691 166.637 202.566 164.938 c 199.527 163.301 196.059 162.363 192.34
 162.363 c 188.77 162.363 185.41 163.234 182.477 164.746 c 179.414 166.34
 176.777 168.637 174.801 171.441 c 173.375 173.484 170.695 174.375 168.254
 173.461 c 166.957 172.973 165.766 172.781 164.383 172.781 c 162.957 172.781
 161.617 173.035 160.43 173.504 c 158.688 174.164 158.027 174.824 156.688
 175.887 c 154.242 177.82 150.715 177.395 148.801 174.949 c 147.438 173.227
 145.738 171.848 143.781 170.891 c h
143.781 170.891 m f
Q Q
showpage
%%Trailer
end
%%EOF
