%!PS-Adobe-3.0 EPSF-3.0
%%Creator: cairo 1.16.0 (https://cairographics.org)
%%CreationDate: Thu Dec 10 07:54:59 2020
%%Pages: 1
%%DocumentData: Clean7Bit
%%LanguageLevel: 2
%%BoundingBox: 71 0 313 384
%%EndComments
%%BeginProlog
50 dict begin
/q { gsave } bind def
/Q { grestore } bind def
/cm { 6 array astore concat } bind def
/w { setlinewidth } bind def
/J { setlinecap } bind def
/j { setlinejoin } bind def
/M { setmiterlimit } bind def
/d { setdash } bind def
/m { moveto } bind def
/l { lineto } bind def
/c { curveto } bind def
/h { closepath } bind def
/re { exch dup neg 3 1 roll 5 3 roll moveto 0 rlineto
      0 exch rlineto 0 rlineto closepath } bind def
/S { stroke } bind def
/f { fill } bind def
/f* { eofill } bind def
/n { newpath } bind def
/W { clip } bind def
/W* { eoclip } bind def
/BT { } bind def
/ET { } bind def
/BDC { mark 3 1 roll /BDC pdfmark } bind def
/EMC { mark /EMC pdfmark } bind def
/cairo_store_point { /cairo_point_y exch def /cairo_point_x exch def } def
/Tj { show currentpoint cairo_store_point } bind def
/TJ {
  {
    dup
    type /stringtype eq
    { show } { -0.001 mul 0 cairo_font_matrix dtransform rmoveto } ifelse
  } forall
  currentpoint cairo_store_point
} bind def
/cairo_selectfont { cairo_font_matrix aload pop pop pop 0 0 6 array astore
    cairo_font exch selectfont cairo_point_x cairo_point_y moveto } bind def
/Tf { pop /cairo_font exch def /cairo_font_matrix where
      { pop cairo_selectfont } if } bind def
/Td { matrix translate cairo_font_matrix matrix concatmatrix dup
      /cairo_font_matrix exch def dup 4 get exch 5 get cairo_store_point
      /cairo_font where { pop cairo_selectfont } if } bind def
/Tm { 2 copy 8 2 roll 6 array astore /cairo_font_matrix exch def
      cairo_store_point /cairo_font where { pop cairo_selectfont } if } bind def
/g { setgray } bind def
/rg { setrgbcolor } bind def
/d1 { setcachedevice } bind def
/cairo_data_source {
  CairoDataIndex CairoData length lt
    { CairoData CairoDataIndex get /CairoDataIndex CairoDataIndex 1 add def }
    { () } ifelse
} def
/cairo_flush_ascii85_file { cairo_ascii85_file status { cairo_ascii85_file flushfile } if } def
/cairo_image { image cairo_flush_ascii85_file } def
/cairo_imagemask { imagemask cairo_flush_ascii85_file } def
%%EndProlog
%%BeginSetup
%%EndSetup
%%Page: 1 1
%%BeginPageSetup
%%PageBoundingBox: 71 0 313 384
%%EndPageSetup
q 71 0 242 384 rectclip
1 0 0 -1 0 384 cm q
0.25098 0.439216 0.576471 rg
86.859 378.387 m 233.703 378.387 l 236.914 378.387 239.527 375.75 239.527
 372.562 c 239.527 356.488 l 155.719 348.41 l 81.031 356.488 l 81.031 372.562
 l 81.031 375.75 83.668 378.387 86.859 378.387 c h
86.859 378.387 m f*
0.211765 0.368627 0.490196 rg
215.504 378.387 m 233.703 378.387 l 236.914 378.387 239.527 375.75 239.527
 372.562 c 239.527 356.488 l 221.328 356.488 l 221.328 372.562 l 221.328
 375.75 218.715 378.387 215.504 378.387 c h
215.504 378.387 m f*
235.871 310.207 45.219 21.875 re f*
0.501961 0.705882 0.984314 rg
239.527 356.488 m 239.527 310.207 l 239.527 298.152 229.684 288.309 217.629
 288.309 c 157.887 282.633 l 102.93 288.309 l 90.898 288.309 81.035 298.172
 81.035 310.207 c 81.035 356.488 l h
239.527 356.488 m f*
0.380392 0.635294 0.976471 rg
239.527 356.488 m 239.527 310.207 l 239.527 298.152 229.684 288.309 217.629
 288.309 c 199.43 288.309 l 211.484 288.309 221.328 298.152 221.328 310.207
 c 221.328 356.488 l h
239.527 356.488 m f*
0.25098 0.439216 0.576471 rg
102.93 288.309 m 217.629 288.309 l 217.629 260.883 l 160.949 253.441 l 
102.93 260.883 l h
102.93 288.309 m f*
0.945098 0.796078 0.52549 rg
102.93 260.883 m 138.562 260.883 l 159.207 255.844 l 182.02 260.883 l 217.629
 260.883 l 233.363 123.691 l 162.27 117.355 l 87.199 123.691 l h
102.93 260.883 m f*
0.92549 0.745098 0.419608 rg
199.43 260.883 m 217.629 260.883 l 233.363 123.691 l 215.164 123.691 l 
h
199.43 260.883 m f*
0.25098 0.439216 0.576471 rg
243.184 38.035 m 243.184 23.875 l 243.184 13.84 234.98 5.633 224.941 5.633
 c 95.637 5.633 l 85.605 5.633 77.398 13.84 77.398 23.875 c 77.398 38.035
 l 161.395 45.453 l h
243.184 38.035 m f*
0.960784 0.980392 1 rg
233.363 123.691 m 243.184 38.035 l 182.02 38.035 l 157.465 42.84 l 138.562
 38.035 l 77.398 38.035 l 87.199 123.691 l h
233.363 123.691 m f*
0.92549 0.956863 1 rg
233.363 123.691 m 243.184 38.035 l 224.988 38.035 l 215.164 123.691 l h
233.363 123.691 m f*
0.211765 0.368627 0.490196 rg
199.43 260.883 18.199 27.426 re f*
0.796078 0.886275 1 rg
138.562 38.035 43.457 222.848 re f*
0.745098 0.847059 0.984314 rg
163.797 38.035 18.223 222.848 re f*
0.211765 0.368627 0.490196 rg
243.184 38.035 m 243.184 23.875 l 243.184 13.84 234.98 5.633 224.941 5.633
 c 206.746 5.633 l 216.758 5.633 224.988 13.84 224.988 23.875 c 224.988 
38.035 l h
243.184 38.035 m f*
0.501961 0.705882 0.984314 rg
283.238 294.773 m 300.777 294.773 l 303.988 294.773 306.602 297.387 306.602
 300.598 c 306.602 341.715 l 306.602 344.902 303.988 347.516 300.777 347.516
 c 283.238 347.516 l 280.027 347.516 277.414 344.902 277.414 341.715 c 277.414
 300.598 l 277.414 297.387 280.027 294.773 283.238 294.773 c h
283.238 294.773 m f*
0.854902 0.290196 0.329412 rg
201.195 333.336 m 207.234 333.336 212.145 328.426 212.145 322.41 c 212.145
 316.371 207.234 311.461 201.195 311.461 c 195.18 311.461 190.246 316.371
 190.246 322.41 c 190.246 328.426 195.18 333.336 201.195 333.336 c h
201.195 333.336 m f*
0 g
233.914 350.879 m 233.914 310.207 l 233.914 305.742 232.062 301.66 229.133
 298.727 c 226.176 295.77 222.117 293.941 217.629 293.941 c 102.93 293.941
 l 98.617 293.941 94.512 295.664 91.449 298.727 c 88.496 301.68 86.668 305.742
 86.668 310.207 c 86.668 350.879 l 147.535 350.879 l 150.66 350.879 153.168
 353.387 153.168 356.488 c 153.168 359.594 150.66 362.125 147.535 362.125
 c 86.668 362.125 l 86.668 372.754 l 233.914 372.754 l 233.914 362.125 l
 173.027 362.125 l 169.922 362.125 167.391 359.594 167.391 356.488 c 167.391
 353.387 169.922 350.879 173.027 350.879 c h
201.195 305.828 m 205.789 305.828 209.914 307.676 212.91 310.695 c 215.906
 313.695 217.777 317.816 217.777 322.41 c 217.777 326.98 215.906 331.129
 212.91 334.125 c 209.914 337.121 205.789 338.973 201.195 338.973 c 196.625
 338.973 192.48 337.121 189.48 334.125 c 186.484 331.129 184.633 326.98 
184.633 322.41 c 184.633 317.816 186.484 313.695 189.48 310.695 c 192.48
 307.676 196.625 305.828 201.195 305.828 c h
204.957 318.648 m 204.004 317.668 202.66 317.074 201.195 317.074 c 199.73
 317.074 198.41 317.668 197.434 318.648 c 196.477 319.602 195.883 320.922
 195.883 322.41 c 195.883 323.879 196.477 325.195 197.434 326.172 c 198.41
 327.129 199.73 327.723 201.195 327.723 c 202.66 327.723 204.004 327.129
 204.957 326.172 c 205.938 325.195 206.531 323.879 206.531 322.41 c 206.531
 320.922 205.938 319.602 204.957 318.648 c h
144.176 54.445 m 155.297 54.445 l 158.418 54.445 160.93 56.957 160.93 60.059
 c 160.93 63.164 158.418 65.691 155.297 65.691 c 144.176 65.691 l 144.176
 79.98 l 155.297 79.98 l 158.418 79.98 160.93 82.492 160.93 85.594 c 160.93
 88.719 158.418 91.227 155.297 91.227 c 144.176 91.227 l 144.176 105.516
 l 155.297 105.516 l 158.418 105.516 160.93 108.043 160.93 111.148 c 160.93
 114.254 158.418 116.762 155.297 116.762 c 144.176 116.762 l 144.176 131.047
 l 155.297 131.047 l 158.418 131.047 160.93 133.578 160.93 136.68 c 160.93
 139.785 158.418 142.316 155.297 142.316 c 144.176 142.316 l 144.176 156.602
 l 155.297 156.602 l 158.418 156.602 160.93 159.113 160.93 162.215 c 160.93
 165.32 158.418 167.852 155.297 167.852 c 144.176 167.852 l 144.176 182.137
 l 155.297 182.137 l 158.418 182.137 160.93 184.645 160.93 187.77 c 160.93
 190.875 158.418 193.383 155.297 193.383 c 144.176 193.383 l 144.176 207.668
 l 155.297 207.668 l 158.418 207.668 160.93 210.199 160.93 213.305 c 160.93
 216.406 158.418 218.918 155.297 218.918 c 144.176 218.918 l 144.176 233.223
 l 155.297 233.223 l 158.418 233.223 160.93 235.734 160.93 238.836 c 160.93
 241.941 158.418 244.473 155.297 244.473 c 144.176 244.473 l 144.176 255.25
 l 176.387 255.25 l 176.387 43.648 l 144.176 43.648 l h
187.629 43.648 m 187.629 118.055 l 228.344 118.055 l 232.574 81.297 l 232.914
 78.215 235.699 76.004 238.785 76.344 c 241.867 76.707 244.078 79.492 243.734
 82.574 c 236.914 142.082 230.09 201.609 223.262 261.141 c 223.262 283.27
 l 228.578 284.375 233.363 287.055 237.082 290.773 c 240.781 294.477 243.461
 299.258 244.566 304.574 c 271.801 304.574 l 271.801 294.773 l 271.801 291.668
 274.309 289.141 277.414 289.141 c 286.406 289.141 l 286.406 272.281 l 260.871
 262.691 l 257.961 261.605 256.492 258.395 257.578 255.484 c 258.66 252.594
 261.871 251.105 264.785 252.188 c 293.91 263.113 l 296.059 263.883 297.609
 265.965 297.609 268.391 c 297.609 289.137 l 306.602 289.137 l 309.707 289.137
 312.234 291.668 312.234 294.773 c 312.234 347.52 l 312.234 350.645 309.707
 353.152 306.602 353.152 c 277.414 353.152 l 274.309 353.152 271.801 350.645
 271.801 347.52 c 271.801 337.719 l 245.16 337.719 l 245.16 378.387 l 245.16
 381.492 242.633 384 239.527 384 c 81.031 384 l 77.93 384 75.422 381.492
 75.422 378.387 c 75.422 310.207 l 75.422 302.637 78.504 295.75 83.5 290.773
 c 87.219 287.055 91.98 284.375 97.297 283.27 c 97.297 261.141 l 95.062 
241.535 l 94.703 238.453 96.914 235.668 99.996 235.309 c 103.078 234.969
 105.863 237.18 106.227 240.262 c 107.949 255.25 l 132.93 255.25 l 132.93
 213.281 132.93 171.293 132.93 129.328 c 93.512 129.328 l 103.312 214.941
 l 103.676 218.023 101.465 220.809 98.379 221.148 c 95.297 221.508 92.516
 219.297 92.152 216.215 c 85.434 157.473 78.695 98.754 71.977 40.031 c 71.785
 38.48 71.766 38.395 71.766 36.695 c 71.766 23.875 l 71.766 17.305 74.441
 11.332 78.777 7.016 c 83.094 2.676 89.07 0 95.637 0 c 224.941 0 l 231.512
 0 237.465 2.676 241.801 7.016 c 246.117 11.332 248.797 17.305 248.797 23.875
 c 248.797 36.57 l 248.797 37.887 248.754 38.758 248.605 40.055 c 246.629
 57.254 l 246.266 60.336 243.504 62.547 240.418 62.207 c 237.336 61.848 
235.105 59.062 235.465 55.977 c 236.867 43.648 l h
187.629 129.328 m 187.629 255.25 l 212.633 255.25 l 227.07 129.328 l h
132.93 118.055 m 132.93 93.27 132.93 68.457 132.93 43.648 c 83.691 43.648
 l 92.215 118.055 l h
283.047 341.906 m 300.992 341.906 l 300.992 300.383 l 283.047 300.383 l
 h
271.801 315.82 m 245.16 315.82 l 245.16 326.469 l 271.801 326.469 l h
149.555 317.074 m 146.449 317.074 143.941 314.566 143.941 311.461 c 143.941
 308.355 146.449 305.828 149.555 305.828 c 171.008 305.828 l 174.109 305.828
 176.641 308.355 176.641 311.461 c 176.641 314.566 174.109 317.074 171.008
 317.074 c h
149.555 338.973 m 146.449 338.973 143.941 336.461 143.941 333.336 c 143.941
 330.234 146.449 327.723 149.555 327.723 c 171.008 327.723 l 174.109 327.723
 176.641 330.234 176.641 333.336 c 176.641 336.461 174.109 338.973 171.008
 338.973 c h
237.551 32.398 m 237.551 23.875 l 237.551 20.41 236.129 17.262 233.852 
14.965 c 231.555 12.672 228.406 11.246 224.941 11.246 c 95.637 11.246 l 
92.172 11.246 89.027 12.672 86.73 14.965 c 84.434 17.262 83.012 20.41 83.012
 23.875 c 83.012 32.398 l h
108.562 282.695 m 212.016 282.695 l 212.016 266.496 l 177.535 266.496 143.051
 266.496 108.562 266.496 c h
108.562 282.695 m f
Q Q
showpage
%%Trailer
end
%%EOF
