%!PS-Adobe-3.0 EPSF-3.0
%%Creator: cairo 1.16.0 (https://cairographics.org)
%%CreationDate: Thu Dec 10 07:55:00 2020
%%Pages: 1
%%DocumentData: Clean7Bit
%%LanguageLevel: 2
%%BoundingBox: 4 0 380 384
%%EndComments
%%BeginProlog
50 dict begin
/q { gsave } bind def
/Q { grestore } bind def
/cm { 6 array astore concat } bind def
/w { setlinewidth } bind def
/J { setlinecap } bind def
/j { setlinejoin } bind def
/M { setmiterlimit } bind def
/d { setdash } bind def
/m { moveto } bind def
/l { lineto } bind def
/c { curveto } bind def
/h { closepath } bind def
/re { exch dup neg 3 1 roll 5 3 roll moveto 0 rlineto
      0 exch rlineto 0 rlineto closepath } bind def
/S { stroke } bind def
/f { fill } bind def
/f* { eofill } bind def
/n { newpath } bind def
/W { clip } bind def
/W* { eoclip } bind def
/BT { } bind def
/ET { } bind def
/BDC { mark 3 1 roll /BDC pdfmark } bind def
/EMC { mark /EMC pdfmark } bind def
/cairo_store_point { /cairo_point_y exch def /cairo_point_x exch def } def
/Tj { show currentpoint cairo_store_point } bind def
/TJ {
  {
    dup
    type /stringtype eq
    { show } { -0.001 mul 0 cairo_font_matrix dtransform rmoveto } ifelse
  } forall
  currentpoint cairo_store_point
} bind def
/cairo_selectfont { cairo_font_matrix aload pop pop pop 0 0 6 array astore
    cairo_font exch selectfont cairo_point_x cairo_point_y moveto } bind def
/Tf { pop /cairo_font exch def /cairo_font_matrix where
      { pop cairo_selectfont } if } bind def
/Td { matrix translate cairo_font_matrix matrix concatmatrix dup
      /cairo_font_matrix exch def dup 4 get exch 5 get cairo_store_point
      /cairo_font where { pop cairo_selectfont } if } bind def
/Tm { 2 copy 8 2 roll 6 array astore /cairo_font_matrix exch def
      cairo_store_point /cairo_font where { pop cairo_selectfont } if } bind def
/g { setgray } bind def
/rg { setrgbcolor } bind def
/d1 { setcachedevice } bind def
/cairo_data_source {
  CairoDataIndex CairoData length lt
    { CairoData CairoDataIndex get /CairoDataIndex CairoDataIndex 1 add def }
    { () } ifelse
} def
/cairo_flush_ascii85_file { cairo_ascii85_file status { cairo_ascii85_file flushfile } if } def
/cairo_image { image cairo_flush_ascii85_file } def
/cairo_imagemask { imagemask cairo_flush_ascii85_file } def
%%EndProlog
%%BeginSetup
%%EndSetup
%%Page: 1 1
%%BeginPageSetup
%%PageBoundingBox: 4 0 380 384
%%EndPageSetup
q 4 0 376 384 rectclip
1 0 0 -1 0 384 cm q
0.854902 0.290196 0.329412 rg
191.988 5.633 m 206.043 5.633 217.758 23.938 230.852 27 c 243.969 30.082
 262.148 18.793 273.969 24.578 c 285.766 30.359 287.828 51.598 297.992 59.762
 c 308.152 67.902 329.266 65.27 337.43 75.43 c 345.57 85.594 338.449 105.664
 344.254 117.484 c 350.035 129.281 370.383 136.172 373.445 149.266 c 376.527
 162.383 361.477 177.969 361.477 192 c 361.477 206.051 376.527 221.637 373.445
 234.734 c 370.383 247.828 350.035 254.719 344.254 266.539 c 338.449 278.336
 345.574 298.43 337.43 308.57 c 329.266 318.73 308.152 316.098 297.992 324.262
 c 287.828 332.402 285.766 353.641 273.969 359.426 c 262.148 365.227 243.969
 353.938 230.852 357 c 217.758 360.086 206.043 378.391 191.988 378.391 c
 177.957 378.391 166.223 360.086 153.125 357 c 140.031 353.938 121.832 365.23
 110.031 359.426 c 98.211 353.641 96.172 332.402 86.008 324.262 c 75.844
 316.098 54.711 318.73 46.57 308.57 c 38.406 298.43 45.527 278.336 39.746
 266.539 c 33.941 254.715 13.617 247.828 10.535 234.734 c 7.473 221.637 
22.523 206.051 22.523 192 c 22.523 177.969 7.473 162.383 10.535 149.266 
c 13.617 136.172 33.941 129.281 39.746 117.484 c 45.527 105.664 38.406 85.594
 46.57 75.43 c 54.711 65.27 75.844 67.902 86.008 59.762 c 96.172 51.598 
98.211 30.359 110.031 24.578 c 121.832 18.793 140.031 30.082 153.125 27 
c 166.223 23.938 177.957 5.633 191.988 5.633 c h
191.988 5.633 m f*
0.847059 0.180392 0.239216 rg
247.625 25.957 m 257.047 23.914 266.699 21.023 273.969 24.574 c 285.766
 30.359 287.828 51.598 297.992 59.762 c 308.156 67.902 329.266 65.27 337.43
 75.43 c 345.574 85.594 338.449 105.664 344.254 117.484 c 350.035 129.281
 370.383 136.172 373.445 149.266 c 376.527 162.383 361.477 177.969 361.477
 192 c 361.477 206.051 376.527 221.637 373.445 234.734 c 370.383 247.828
 350.035 254.715 344.254 266.539 c 338.453 278.336 345.574 298.43 337.43
 308.57 c 329.266 318.73 308.156 316.098 297.992 324.258 c 287.828 332.402
 285.766 353.641 273.969 359.426 c 266.699 362.996 257.047 360.102 247.625
 358.043 c 250.539 358.043 253.305 357.594 255.77 356.402 c 267.57 350.727
 269.633 329.871 279.793 321.855 c 289.957 313.863 311.066 316.434 319.23
 306.465 c 327.375 296.492 320.254 276.785 326.055 265.176 c 331.84 253.59
 352.184 246.828 355.246 233.965 c 358.328 221.105 343.277 205.797 343.277
 192 c 343.277 178.223 358.328 162.914 355.246 150.051 c 352.184 137.191
 331.84 130.43 326.055 118.82 c 320.254 107.234 327.375 87.504 319.23 77.535
 c 311.066 67.562 289.957 70.156 279.793 62.141 c 269.633 54.148 267.57 
33.293 255.77 27.594 c 253.305 26.406 250.539 25.957 247.625 25.957 c h
247.625 25.957 m f*
0.992157 0.701961 0.262745 rg
191.988 331.129 m 268.609 331.129 331.117 268.621 331.117 192 c 331.117
 115.379 268.609 52.895 191.988 52.895 c 115.367 52.895 52.883 115.379 52.883
 192 c 52.883 268.621 115.367 331.129 191.988 331.129 c h
191.988 331.129 m f*
0.905882 0.647059 0.180392 rg
191.988 52.895 m 268.824 52.895 331.117 115.164 331.117 192 c 331.117 268.836
 268.824 331.129 191.988 331.129 c 188.93 331.129 185.91 331 182.891 330.809
 c 255.492 326.129 312.918 265.773 312.918 192 c 312.918 118.227 255.492
 57.891 182.891 53.191 c 185.91 53 188.93 52.895 191.988 52.895 c h
191.988 52.895 m f*
0.976471 0.529412 0.00784314 rg
201.812 292.922 m 203.426 290.242 204.809 290.457 207.637 289.777 c 212.082
 288.734 216.547 287.566 221.012 286.629 c 224.113 285.969 223.457 285.27
 221.586 283.207 c 218.141 279.465 214.906 275.426 211.547 271.578 c 209.445
 269.176 210.145 267.793 210.379 264.797 c 210.656 261.074 210.91 257.375
 211.25 253.656 c 211.336 252.742 211.91 249.574 211.23 249.082 c 210.57
 248.598 207.891 250.039 207.105 250.359 c 202.852 252.168 198.539 253.887
 194.266 255.719 c 191.375 256.949 190.395 255.973 187.695 254.848 c 183.379
 253.059 179.086 251.316 174.793 249.445 c 172.367 248.383 172.238 248.895
 172.516 251.402 c 173.047 256.652 173.324 261.902 173.855 267.156 c 174.344
 271.918 164.906 280.402 161.844 283.844 c 160.035 285.863 160.504 286.098
 162.992 286.629 c 165.539 287.16 168.008 287.777 170.539 288.371 c 173.195
 289.031 175.832 289.648 178.512 290.266 c 181.57 290.969 181.766 292.328
 183.293 294.816 c 185.355 298.152 187.418 301.469 189.438 304.828 c 189.844
 305.508 191.223 308.336 191.988 308.336 c 192.797 308.336 194.266 305.316
 194.711 304.594 c 197.051 300.68 199.473 296.832 201.812 292.922 c h
220.988 97.391 m 224.262 98.094 223.223 99.008 221.371 101.008 c 219.797
 102.75 218.246 104.641 216.734 106.43 c 214.949 108.512 213.164 110.551
 211.379 112.637 c 209.508 114.824 210.145 116.25 210.355 118.926 c 210.742
 123.5 211.039 128.07 211.504 132.641 c 211.844 135.914 210.633 135.234 
208.168 134.129 c 203.852 132.152 199.301 130.367 194.902 128.539 c 191.266
 127.051 191.074 127.773 187.461 129.262 c 183.996 130.684 180.551 132.066
 177.129 133.535 c 176.301 133.895 173.473 135.426 172.77 134.918 c 172.09
 134.406 172.664 131.238 172.727 130.344 c 173.109 125.902 173.387 121.457
 173.812 117.016 c 174.152 113.57 172.727 112.828 170.641 110.359 c 168.219
 107.512 165.816 104.664 163.371 101.855 c 162.82 101.219 160.629 99.137
 160.863 98.348 c 161.117 97.562 164.137 97.156 164.945 96.965 c 169.582
 95.926 174.469 94.82 179.039 93.629 c 181.508 92.969 181.891 91.461 183.145
 89.418 c 185.25 86.02 187.375 82.617 189.438 79.191 c 189.84 78.516 191.266
 75.645 191.988 75.645 c 192.754 75.645 194.285 78.703 194.711 79.43 c 197.047
 83.32 199.449 87.188 201.809 91.098 c 203.449 93.82 205.02 93.609 207.891
 94.289 c 212.25 95.332 216.609 96.434 220.988 97.391 c h
220.988 97.391 m f*
0 g
180.574 151.203 m 183.699 151.203 186.207 153.73 186.207 156.836 c 186.207
 159.941 183.699 162.445 180.574 162.445 c 156.312 162.445 l 156.312 186.684
 l 178.383 186.684 l 181.488 186.684 183.996 189.191 183.996 192.32 c 183.996
 195.422 181.488 197.93 178.383 197.93 c 156.312 197.93 l 156.312 222.168
 l 180.574 222.168 l 183.699 222.168 186.207 224.676 186.207 227.781 c 186.207
 230.902 183.699 233.414 180.574 233.414 c 150.68 233.414 l 147.578 233.414
 145.047 230.902 145.047 227.781 c 145.047 156.836 l 145.047 153.73 147.578
 151.199 150.68 151.199 c 180.574 151.199 l h
240.293 276.168 m 237.188 276.168 234.68 273.66 234.68 270.559 c 234.68
 267.453 237.188 264.922 240.293 264.922 c 274.801 264.922 l 277.902 264.922
 280.41 267.453 280.41 270.559 c 280.41 273.66 277.902 276.168 274.801 276.168
 c h
143.707 264.922 m 146.812 264.922 149.32 267.453 149.32 270.555 c 149.32
 273.66 146.812 276.168 143.707 276.168 c 109.203 276.168 l 106.098 276.168
 103.566 273.66 103.566 270.555 c 103.566 267.453 106.098 264.922 109.203
 264.922 c h
150.215 242.789 m 153.316 242.789 155.848 245.32 155.848 248.426 c 155.848
 251.527 153.316 254.035 150.215 254.035 c 98.871 254.035 l 95.766 254.035
 93.258 251.527 93.258 248.426 c 93.258 245.32 95.766 242.789 98.871 242.789
 c h
233.785 254.035 m 230.684 254.035 228.152 251.527 228.152 248.426 c 228.152
 245.32 230.684 242.789 233.785 242.789 c 285.129 242.789 l 288.234 242.789
 290.742 245.32 290.742 248.426 c 290.742 251.527 288.234 254.035 285.129
 254.035 c h
240.293 119.016 m 237.188 119.016 234.68 116.484 234.68 113.379 c 234.68
 110.277 237.188 107.766 240.293 107.766 c 274.801 107.766 l 277.902 107.766
 280.41 110.277 280.41 113.379 c 280.41 116.484 277.902 119.016 274.801 
119.016 c h
143.707 107.766 m 146.812 107.766 149.32 110.277 149.32 113.379 c 149.32
 116.484 146.812 119.016 143.707 119.016 c 109.203 119.016 l 106.098 119.016
 103.566 116.484 103.566 113.379 c 103.566 110.277 106.098 107.766 109.203
 107.766 c h
150.215 129.879 m 153.316 129.879 155.848 132.406 155.848 135.512 c 155.848
 138.617 153.316 141.145 150.215 141.145 c 98.871 141.145 l 95.766 141.145
 93.258 138.617 93.258 135.512 c 93.258 132.406 95.766 129.879 98.871 129.879
 c h
233.785 141.145 m 230.684 141.145 228.152 138.617 228.152 135.512 c 228.152
 132.406 230.684 129.879 233.785 129.879 c 285.129 129.879 l 288.234 129.879
 290.742 132.406 290.742 135.512 c 290.742 138.617 288.234 141.145 285.129
 141.145 c h
191.988 298.258 m 198.348 287.926 l 199.238 286.48 200.664 285.566 202.238
 285.332 c 213.609 282.57 l 205.746 273.34 l 204.789 272.215 204.301 270.77
 204.406 269.281 c 205.34 257.164 l 194.137 261.797 l 192.711 262.371 191.184
 262.328 189.863 261.797 c 178.637 257.164 l 179.598 269.281 l 179.703 270.918
 179.105 272.469 178.066 273.574 c 170.391 282.57 l 182.188 285.418 l 183.637
 285.777 184.867 286.672 185.656 287.926 c h
206.723 295.77 m 196.836 311.863 l 194.711 315.457 189.438 315.566 187.207
 311.93 c 177.277 295.77 l 159.102 291.391 l 154.957 290.562 153.125 285.523
 155.934 282.227 c 168.199 267.836 l 166.73 248.914 l 166.434 244.809 170.582
 241.707 174.473 243.301 c 191.988 250.551 l 209.168 243.449 l 210.039 243.023
 211.039 242.812 212.078 242.898 c 215.16 243.133 217.48 245.809 217.246
 248.914 c 215.777 267.836 l 228.066 282.227 l 230.746 285.375 229.215 290.348
 225.113 291.328 c h
196.836 72.156 m 206.723 88.23 l 225.113 92.672 l 229.219 93.672 230.746
 98.648 228.066 101.773 c 215.777 116.188 l 217.246 135.086 l 217.48 138.191
 215.164 140.891 212.078 141.125 c 211.039 141.188 210.039 140.977 209.168
 140.551 c 191.988 133.473 l 174.473 140.699 l 170.645 142.273 166.434 139.211
 166.734 135.09 c 168.199 116.188 l 155.934 101.773 l 153.125 98.5 154.957
 93.441 159.102 92.633 c 177.277 88.23 l 187.207 72.074 l 189.438 68.434
 194.711 68.562 196.836 72.156 c h
198.348 96.074 m 191.988 85.766 l 185.652 96.074 l 184.91 97.309 183.676
 98.223 182.188 98.582 c 170.391 101.434 l 178.062 110.445 l 179.105 111.551
 179.699 113.082 179.594 114.719 c 178.637 126.836 l 189.863 122.203 l 191.18
 121.672 192.711 121.629 194.137 122.203 c 205.34 126.836 l 204.406 114.719
 l 204.297 113.297 204.746 111.828 205.746 110.66 c 213.609 101.434 l 202.234
 98.691 l 200.664 98.434 199.238 97.52 198.348 96.074 c h
191.988 0 m 201.66 0 209.508 6.207 217.246 12.328 c 222.371 16.414 227.473
 20.43 232.129 21.535 c 236.914 22.641 243.332 21.195 249.73 19.73 c 259.023
 17.625 268.25 15.539 276.438 19.535 c 284.664 23.578 288.617 32.207 292.551
 40.82 c 295.23 46.664 297.91 52.492 301.5 55.383 c 305.094 58.273 311.387
 59.613 317.703 60.93 c 326.906 62.887 336.113 64.844 341.789 71.922 c 347.465
 78.98 347.379 88.398 347.316 97.84 c 347.254 104.301 347.211 110.785 349.293
 115.016 c 351.312 119.184 356.414 123.117 361.52 127.07 c 369.129 132.961
 376.785 138.891 378.93 148.012 c 381.035 156.965 376.953 165.68 372.832
 174.5 c 369.98 180.605 367.09 186.77 367.09 192 c 367.09 197.23 369.98 
203.395 372.832 209.496 c 376.953 218.32 381.035 227.035 378.93 236.008 
c 376.785 245.105 369.129 251.039 361.52 256.93 c 356.414 260.883 351.312
 264.836 349.293 268.984 c 347.211 273.215 347.254 279.699 347.316 286.184
 c 347.379 295.621 347.465 305.039 341.789 312.098 c 336.113 319.156 326.906
 321.113 317.703 323.07 c 311.387 324.406 305.094 325.75 301.5 328.617 c
 297.91 331.508 295.23 337.332 292.551 343.18 c 288.617 351.793 284.664 
360.422 276.438 364.465 c 268.25 368.48 259.023 366.375 249.73 364.27 c 
243.332 362.824 236.914 361.359 232.129 362.484 c 227.473 363.57 222.371
 367.609 217.246 371.672 c 209.508 377.812 201.664 384 191.988 384 c 182.316
 384 174.492 377.812 166.754 371.672 c 161.609 367.609 156.527 363.57 151.852
 362.484 c 147.09 361.359 140.668 362.824 134.27 364.27 c 124.977 366.375
 115.75 368.48 107.566 364.465 c 99.34 360.422 95.383 351.793 91.43 343.18
 c 88.77 337.332 86.094 331.531 82.477 328.617 c 78.887 325.75 72.594 324.406
 66.301 323.07 c 57.094 321.113 47.867 319.156 42.191 312.098 c 36.535 305.039
 36.602 295.621 36.684 286.184 c 36.727 279.699 36.789 273.215 34.707 268.984
 c 32.668 264.836 27.586 260.883 22.461 256.93 c 14.871 251.039 7.195 245.109
 5.07 236.008 c 2.965 227.035 7.047 218.32 11.172 209.496 c 14.02 203.395
 16.891 197.23 16.891 192 c 16.891 186.77 14.02 180.605 11.172 174.504 c
 7.047 165.68 2.965 156.965 5.07 148.012 c 7.195 138.895 14.871 132.961 
22.461 127.07 c 27.586 123.117 32.668 119.184 34.707 115.016 c 36.789 110.785
 36.727 104.301 36.684 97.84 c 36.602 88.398 36.535 78.98 42.191 71.922 
c 47.867 64.844 57.094 62.887 66.301 60.93 c 72.594 59.613 78.887 58.273
 82.477 55.383 c 86.094 52.492 88.773 46.664 91.43 40.82 c 95.383 32.211
 99.34 23.578 107.566 19.539 c 115.75 15.543 124.98 17.625 134.27 19.73 
c 140.668 21.195 147.09 22.641 151.852 21.535 c 156.527 20.43 161.609 16.414
 166.754 12.332 c 174.492 6.207 182.316 0 191.988 0 c h
210.293 21.133 m 204.105 16.219 197.836 11.246 191.992 11.246 c 186.164
 11.246 179.895 16.219 173.707 21.133 c 167.539 26 161.461 30.828 154.402
 32.484 c 147.176 34.164 139.457 32.422 131.801 30.68 c 124.426 29 117.113
 27.34 112.496 29.617 c 107.863 31.867 104.738 38.695 101.633 45.477 c 98.402
 52.555 95.172 59.594 89.516 64.121 c 83.82 68.711 76.227 70.305 68.637 
71.922 c 61.367 73.453 54.121 75.004 50.949 78.938 c 47.762 82.891 47.824
 90.312 47.891 97.754 c 47.953 105.535 48.016 113.336 44.785 119.949 c 41.574
 126.477 35.473 131.195 29.328 135.957 c 23.312 140.613 17.254 145.312 16.02
 150.543 c 14.785 155.793 18.039 162.746 21.312 169.762 c 24.719 177.031
 28.141 184.387 28.141 192 c 28.141 199.633 24.719 206.965 21.312 214.258
 c 18.039 221.277 14.789 228.227 16.02 233.457 c 17.254 238.688 23.312 243.387
 29.328 248.062 c 35.473 252.805 41.574 257.547 44.785 264.07 c 48.016 270.664
 47.953 278.465 47.891 286.266 c 47.824 293.688 47.762 301.109 50.949 305.062
 c 54.121 309.016 61.367 310.547 68.637 312.078 c 76.227 313.695 83.82 315.309
 89.516 319.879 c 95.172 324.406 98.402 331.465 101.633 338.523 c 104.738
 345.328 107.863 352.133 112.496 354.406 c 117.113 356.66 124.426 355 131.801
 353.32 c 139.457 351.578 147.176 349.836 154.402 351.535 c 161.461 353.191
 167.539 358.02 173.707 362.891 c 179.895 367.801 186.164 372.754 191.992
 372.754 c 197.836 372.754 204.105 367.801 210.293 362.891 c 216.438 358.02
 222.543 353.191 229.598 351.535 c 236.828 349.832 244.523 351.578 252.199
 353.32 c 259.555 355 266.891 356.66 271.504 354.406 c 276.117 352.133 279.242
 345.328 282.367 338.523 c 285.598 331.465 288.828 324.406 294.484 319.879
 c 300.18 315.309 307.773 313.695 315.363 312.078 c 322.633 310.547 329.883
 309.016 333.051 305.062 c 336.219 301.109 336.176 293.688 336.113 286.266
 c 336.047 278.465 335.984 270.664 339.215 264.07 c 342.426 257.547 348.527
 252.805 354.672 248.062 c 360.688 243.387 366.746 238.688 367.98 233.457
 c 369.215 228.227 365.961 221.277 362.688 214.258 c 359.285 206.965 355.84
 199.633 355.84 192 c 355.84 184.387 359.285 177.031 362.688 169.762 c 365.961
 162.746 369.215 155.793 367.98 150.543 c 366.746 145.312 360.688 140.613
 354.672 135.957 c 348.527 131.195 342.426 126.477 339.215 119.949 c 335.984
 113.336 336.047 105.535 336.113 97.754 c 336.176 90.312 336.219 82.891 
333.051 78.938 c 329.883 75.004 322.633 73.453 315.363 71.922 c 307.773 
70.305 300.18 68.711 294.484 64.121 c 288.828 59.594 285.598 52.555 282.367
 45.477 c 279.242 38.691 276.117 31.867 271.504 29.617 c 266.891 27.34 259.555
 29 252.199 30.68 c 244.523 32.422 236.828 34.164 229.598 32.484 c 222.543
 30.828 216.438 26 210.293 21.133 c h
298.227 111.148 m 296.355 108.68 296.824 105.172 299.289 103.281 c 301.754
 101.41 305.262 101.879 307.156 104.344 c 316.598 116.719 324.078 130.684
 329.16 145.758 c 334.07 160.301 336.73 175.863 336.73 192 c 336.73 231.969
 320.527 268.152 294.336 294.348 c 268.145 320.539 231.961 336.738 191.992
 336.738 c 171.836 336.738 152.617 332.617 135.141 325.133 c 116.984 317.371
 100.762 305.996 87.324 291.945 c 85.18 289.691 85.266 286.141 87.516 284.016
 c 89.773 281.867 93.32 281.973 95.449 284.207 c 107.84 297.176 122.809 
307.656 139.52 314.801 c 155.613 321.688 173.348 325.492 191.992 325.492
 c 228.855 325.492 262.234 310.547 286.383 286.395 c 310.535 262.242 325.48
 228.867 325.48 192 c 325.48 177.035 323.035 162.684 318.531 149.309 c 313.855
 135.449 306.945 122.586 298.227 111.148 c h
80.266 265.07 m 81.969 267.664 81.223 271.152 78.629 272.852 c 76.035 274.531
 72.551 273.809 70.848 271.215 c 63.281 259.648 57.309 246.914 53.266 233.352
 c 49.355 220.234 47.25 206.352 47.25 192 c 47.25 152.031 63.449 115.848
 89.641 89.652 c 115.836 63.461 152.02 47.262 191.988 47.262 c 210.336 47.262
 227.918 50.703 244.121 56.953 c 260.914 63.441 276.18 72.965 289.277 84.828
 c 291.551 86.934 291.723 90.484 289.637 92.758 c 287.555 95.055 284.004
 95.223 281.707 93.141 c 269.633 82.172 255.535 73.391 240.078 67.414 c 
225.199 61.676 208.977 58.508 191.988 58.508 c 155.125 58.508 121.766 73.453
 97.617 97.605 c 73.441 121.777 58.496 155.137 58.496 192 c 58.496 205.289
 60.43 218.086 64.023 230.141 c 67.746 242.641 73.273 254.375 80.266 265.07
 c h
307.496 174.777 m 307.496 181.496 304.582 187.559 299.926 191.957 c 295.738
 195.934 290.129 198.527 284.004 198.953 c 306.094 224.082 l 308.156 226.398
 307.922 229.949 305.582 232.012 c 303.266 234.051 299.715 233.84 297.652
 231.5 c 269.102 199.059 l 268.781 199.059 l 268.781 227.781 l 268.781 230.906
 266.273 233.414 263.168 233.414 c 260.066 233.414 257.535 230.906 257.535
 227.781 c 257.535 156.176 l 257.535 153.07 260.066 150.52 263.188 150.543
 c 282.219 150.543 l 289.02 150.543 295.336 153.242 299.926 157.621 c 304.582
 162.004 307.496 168.082 307.496 174.777 c h
292.254 183.836 m 294.699 181.496 296.25 178.309 296.25 174.777 c 296.25
 171.27 294.699 168.062 292.254 165.742 c 289.68 163.297 286.109 161.809
 282.219 161.809 c 268.805 161.809 l 268.824 166.742 268.867 173.375 268.867
 174.777 c 268.867 180.309 268.867 184.707 268.887 187.855 c 282.219 187.77
 l 286.109 187.77 289.68 186.258 292.254 183.836 c h
131.461 208.477 m 131.461 215.344 128.656 221.574 124.148 226.082 c 119.641
 230.59 113.434 233.371 106.547 233.371 c 88.113 233.371 82.16 233.438 82.117
 233.438 c 79.035 233.438 76.484 230.93 76.484 227.824 c 76.484 203.969 
76.484 180.094 76.484 156.219 c 76.484 153.117 79.012 150.586 82.117 150.586
 c 102.91 150.586 l 109.012 150.586 114.539 153.074 118.559 157.07 c 122.555
 161.066 125.02 166.594 125.02 172.695 c 125.02 178.266 122.957 183.348 
119.555 187.238 c 121.234 188.258 122.789 189.492 124.148 190.875 c 128.656
 195.383 131.461 201.59 131.461 208.477 c h
87.75 183.582 m 102.91 183.559 l 105.906 183.559 108.629 182.324 110.582
 180.371 c 112.562 178.414 113.773 175.695 113.773 172.695 c 113.773 169.699
 112.562 166.977 110.582 165.02 c 108.629 163.066 105.906 161.852 102.91
 161.852 c 87.75 161.852 l h
116.199 218.129 m 118.664 215.66 120.195 212.238 120.195 208.477 c 120.195
 204.691 118.664 201.289 116.199 198.824 c 113.73 196.359 110.328 194.828
 106.547 194.828 c 87.754 194.828 l 87.754 222.191 l 93.277 222.168 101.613
 222.125 106.547 222.125 c 110.328 222.125 113.73 220.594 116.199 218.129
 c h
234.617 186.684 m 237.719 186.684 240.25 189.195 240.25 192.32 c 240.25
 195.422 237.719 197.93 234.617 197.93 c 212.547 197.93 l 212.547 222.168
 l 236.828 222.168 l 239.934 222.168 242.438 224.676 242.438 227.781 c 242.438
 230.906 239.93 233.414 236.828 233.414 c 206.914 233.414 l 203.809 233.414
 201.301 230.906 201.301 227.781 c 201.301 156.836 l 201.301 153.73 203.809
 151.199 206.914 151.199 c 236.828 151.199 l 239.934 151.199 242.438 153.73
 242.438 156.836 c 242.438 159.938 239.93 162.445 236.828 162.445 c 212.547
 162.445 l 212.547 186.684 l h
234.617 186.684 m f
Q Q
showpage
%%Trailer
end
%%EOF
