%!PS-Adobe-3.0 EPSF-3.0
%%Creator: cairo 1.16.0 (https://cairographics.org)
%%CreationDate: Thu Dec 10 07:55:01 2020
%%Pages: 1
%%DocumentData: Clean7Bit
%%LanguageLevel: 2
%%BoundingBox: 28 0 356 384
%%EndComments
%%BeginProlog
50 dict begin
/q { gsave } bind def
/Q { grestore } bind def
/cm { 6 array astore concat } bind def
/w { setlinewidth } bind def
/J { setlinecap } bind def
/j { setlinejoin } bind def
/M { setmiterlimit } bind def
/d { setdash } bind def
/m { moveto } bind def
/l { lineto } bind def
/c { curveto } bind def
/h { closepath } bind def
/re { exch dup neg 3 1 roll 5 3 roll moveto 0 rlineto
      0 exch rlineto 0 rlineto closepath } bind def
/S { stroke } bind def
/f { fill } bind def
/f* { eofill } bind def
/n { newpath } bind def
/W { clip } bind def
/W* { eoclip } bind def
/BT { } bind def
/ET { } bind def
/BDC { mark 3 1 roll /BDC pdfmark } bind def
/EMC { mark /EMC pdfmark } bind def
/cairo_store_point { /cairo_point_y exch def /cairo_point_x exch def } def
/Tj { show currentpoint cairo_store_point } bind def
/TJ {
  {
    dup
    type /stringtype eq
    { show } { -0.001 mul 0 cairo_font_matrix dtransform rmoveto } ifelse
  } forall
  currentpoint cairo_store_point
} bind def
/cairo_selectfont { cairo_font_matrix aload pop pop pop 0 0 6 array astore
    cairo_font exch selectfont cairo_point_x cairo_point_y moveto } bind def
/Tf { pop /cairo_font exch def /cairo_font_matrix where
      { pop cairo_selectfont } if } bind def
/Td { matrix translate cairo_font_matrix matrix concatmatrix dup
      /cairo_font_matrix exch def dup 4 get exch 5 get cairo_store_point
      /cairo_font where { pop cairo_selectfont } if } bind def
/Tm { 2 copy 8 2 roll 6 array astore /cairo_font_matrix exch def
      cairo_store_point /cairo_font where { pop cairo_selectfont } if } bind def
/g { setgray } bind def
/rg { setrgbcolor } bind def
/d1 { setcachedevice } bind def
/cairo_data_source {
  CairoDataIndex CairoData length lt
    { CairoData CairoDataIndex get /CairoDataIndex CairoDataIndex 1 add def }
    { () } ifelse
} def
/cairo_flush_ascii85_file { cairo_ascii85_file status { cairo_ascii85_file flushfile } if } def
/cairo_image { image cairo_flush_ascii85_file } def
/cairo_imagemask { imagemask cairo_flush_ascii85_file } def
%%EndProlog
%%BeginSetup
%%EndSetup
%%Page: 1 1
%%BeginPageSetup
%%PageBoundingBox: 28 0 356 384
%%EndPageSetup
q 28 0 328 384 rectclip
1 0 0 -1 0 384 cm q
0.25098 0.439216 0.576471 rg
270.121 341.84 m 270.121 372.562 l 270.121 375.75 267.484 378.387 264.297
 378.387 c 219.289 378.387 l 216.098 378.387 213.461 375.75 213.461 372.562
 c 213.461 341.84 l h
118.449 341.84 m 118.449 372.562 l 118.449 375.75 115.836 378.387 112.625
 378.387 c 67.641 378.387 l 64.43 378.387 61.812 375.75 61.812 372.562 c
 61.812 341.84 l h
118.449 341.84 m f*
0.211765 0.368627 0.490196 rg
270.121 341.84 m 270.121 372.562 l 270.121 375.75 267.484 378.387 264.297
 378.387 c 246.098 378.387 l 249.285 378.387 251.922 375.75 251.922 372.562
 c 251.922 341.84 l h
118.449 341.84 m 118.449 372.562 l 118.449 375.75 115.836 378.387 112.625
 378.387 c 94.426 378.387 l 97.637 378.387 100.25 375.75 100.25 372.562 
c 100.25 341.84 l h
118.449 341.84 m f*
0.92549 0.956863 1 rg
40.234 20.238 m 297.523 20.238 l 297.523 345.5 l 40.234 345.5 l 37.023 
345.5 34.41 342.863 34.41 339.672 c 34.41 26.066 l 34.41 22.875 37.023 20.238
 40.234 20.238 c h
40.234 20.238 m f*
0.745098 0.847059 0.984314 rg
303.352 5.633 m 343.766 5.633 l 346.977 5.633 349.59 8.25 349.59 11.457
 c 349.59 354.281 l 349.59 357.488 346.977 360.105 343.766 360.105 c 303.352
 360.105 l 300.141 360.105 297.523 357.488 297.523 354.281 c 297.523 11.457
 l 297.523 8.25 300.141 5.633 303.352 5.633 c h
303.352 5.633 m f*
0.615686 0.776471 0.984314 rg
325.566 5.633 m 343.766 5.633 l 346.977 5.633 349.59 8.25 349.59 11.457
 c 349.59 354.281 l 349.59 357.488 346.977 360.105 343.766 360.105 c 325.566
 360.105 l 328.777 360.105 331.395 357.488 331.395 354.281 c 331.395 11.457
 l 331.395 8.25 328.777 5.633 325.566 5.633 c h
325.566 5.633 m f*
0.796078 0.886275 1 rg
269.207 132.387 m 269.207 311.355 l 269.207 314.543 266.594 317.18 263.379
 317.18 c 68.555 317.18 l 65.344 317.18 62.727 314.543 62.727 311.355 c 
62.727 132.387 l h
269.207 132.387 m f*
0.745098 0.847059 0.984314 rg
269.207 132.387 m 269.207 311.355 l 269.207 314.543 266.594 317.18 263.379
 317.18 c 245.184 317.18 l 248.371 317.18 251.008 314.543 251.008 311.355
 c 251.008 132.387 l h
269.207 132.387 m f*
0.25098 0.439216 0.576471 rg
68.555 48.559 m 263.379 48.559 l 266.59 48.559 269.207 51.195 269.207 54.383
 c 269.207 132.387 l 242.121 132.387 l 225.879 128.027 l 209.617 132.387
 l 182.211 132.387 l 165.969 128.027 l 149.727 132.387 l 122.301 132.387
 l 106.059 128.027 l 89.812 132.387 l 62.727 132.387 l 62.727 54.383 l 62.727
 51.195 65.344 48.559 68.555 48.559 c h
68.555 48.559 m f*
0.211765 0.368627 0.490196 rg
245.184 48.559 m 263.379 48.559 l 266.59 48.559 269.207 51.195 269.207 
54.383 c 269.207 132.387 l 251.008 132.387 l 251.008 54.383 l 251.008 51.195
 248.371 48.559 245.184 48.559 c h
245.184 48.559 m f*
0.615686 0.776471 0.984314 rg
179.66 253.207 m 179.66 234.859 198.176 235.031 198.176 216.66 c 198.176
 187.43 l 226.027 187.43 l 226.027 216.66 l 226.027 235.008 244.523 234.859
 244.523 253.207 c 244.523 255.609 l 235.422 271.258 l 244.523 286.906 l
 244.523 317.18 l 179.66 317.18 l 179.66 286.906 l 184.316 270.961 l 179.66
 255.609 l h
179.66 253.207 m f*
0.501961 0.705882 0.984314 rg
207.828 187.43 m 226.027 187.43 l 226.027 216.664 l 226.027 235.012 244.523
 234.859 244.523 253.207 c 244.523 255.609 l 235.426 271.258 l 244.523 286.906
 l 244.523 317.18 l 226.324 317.18 l 226.324 253.207 l 226.324 234.859 207.828
 235.008 207.828 216.66 c h
207.828 187.43 m f*
0.584314 0.839216 0.643137 rg
87.391 253.207 m 87.391 234.859 105.887 235.031 105.887 216.66 c 105.887
 187.43 l 133.758 187.43 l 133.758 216.66 l 133.758 235.008 152.254 234.859
 152.254 253.207 c 152.254 255.609 l 143.156 271.258 l 152.254 286.906 l
 152.254 317.18 l 87.391 317.18 l 87.391 286.906 l 92.047 270.961 l 87.391
 255.609 l h
87.391 253.207 m f*
0.470588 0.760784 0.643137 rg
115.559 187.43 m 133.758 187.43 l 133.758 216.664 l 133.758 235.012 152.254
 234.859 152.254 253.207 c 152.254 255.609 l 143.156 271.258 l 152.254 286.906
 l 152.254 317.18 l 134.055 317.18 l 134.055 253.207 l 134.055 234.859 115.559
 235.008 115.559 216.66 c h
115.559 187.43 m f*
0.866667 0.388235 0.431373 rg
226.027 187.43 m 226.027 165.617 l 226.027 162.426 223.414 159.789 220.203
 159.789 c 204 159.789 l 200.793 159.789 198.176 162.426 198.176 165.617
 c 198.176 187.43 l h
226.027 187.43 m f*
0.905882 0.647059 0.180392 rg
133.758 187.43 m 133.758 165.617 l 133.758 162.426 131.145 159.789 127.934
 159.789 c 111.711 159.789 l 108.523 159.789 105.887 162.426 105.887 165.617
 c 105.887 187.43 l h
133.758 187.43 m f*
87.391 255.609 64.863 31.297 re f*
0.866667 0.388235 0.431373 rg
179.66 255.609 64.863 31.297 re f*
0.92549 0.956863 1 rg
99.062 77.344 m 113.051 77.344 l 118.152 77.344 122.297 81.512 122.297 
86.594 c 122.297 132.387 l 89.812 132.387 l 89.812 115.676 89.812 102.582
 89.812 86.594 c 89.812 81.512 93.961 77.344 99.062 77.344 c h
99.062 77.344 m f*
158.973 77.344 m 172.961 77.344 l 178.043 77.344 182.211 81.512 182.211
 86.594 c 182.211 132.387 l 149.727 132.387 l 149.727 86.594 l 149.723 81.512
 153.871 77.344 158.973 77.344 c h
158.973 77.344 m f*
218.863 77.344 m 232.875 77.344 l 237.953 77.344 242.121 81.512 242.121
 86.594 c 242.121 132.387 l 209.613 132.387 l 209.613 116.082 209.613 103.262
 209.613 86.594 c 209.613 81.512 213.781 77.344 218.863 77.344 c h
218.863 77.344 m f*
0.984314 0.6 0 rg
134.055 255.609 18.199 31.297 re f*
0.854902 0.290196 0.329412 rg
226.324 255.609 18.199 31.297 re f*
0.866667 0.917647 0.984314 rg
279.328 20.238 18.195 325.262 re f*
0 g
174.047 253.207 m 174.047 241.707 179.508 236.328 184.996 230.949 c 188.758
 227.227 192.543 223.508 192.543 216.66 c 192.543 197.719 192.543 178.754
 192.543 159.789 c 192.543 156.684 195.051 154.18 198.176 154.18 c 226.027
 154.18 l 229.133 154.18 231.664 156.688 231.664 159.789 c 231.664 216.66
 l 231.664 223.508 235.445 227.227 239.211 230.949 c 244.695 236.328 250.16
 241.707 250.16 253.207 c 250.16 311.547 l 263.574 311.547 l 263.574 138.02
 l 198.496 138.02 133.418 138.02 68.344 138.02 c 68.344 311.547 l 81.777
 311.547 l 81.777 253.207 l 81.777 241.707 87.242 236.328 92.707 230.949
 c 96.488 227.227 100.273 223.508 100.273 216.66 c 100.273 197.719 100.273
 178.754 100.273 159.789 c 100.273 156.684 102.781 154.18 105.887 154.18
 c 133.758 154.18 l 136.863 154.18 139.395 156.688 139.395 159.789 c 139.395
 216.66 l 139.395 223.508 143.156 227.227 146.941 230.949 c 152.402 236.328
 157.891 241.707 157.891 253.207 c 157.891 311.547 l 174.047 311.547 l h
233.043 103.602 m 229.938 103.602 227.41 101.09 227.41 97.988 c 227.41 
94.863 229.938 92.355 233.043 92.355 c 236.488 92.355 l 236.488 86.594 l
 236.488 85.594 236.082 84.699 235.426 84.043 c 234.766 83.383 233.852 82.977
 232.875 82.977 c 218.863 82.977 l 217.883 82.977 216.973 83.383 216.312
 84.043 c 215.652 84.699 215.25 85.594 215.25 86.594 c 215.25 106.512 l 
219.035 106.512 l 222.137 106.512 224.645 109.043 224.645 112.148 c 224.645
 115.25 222.137 117.781 219.035 117.781 c 215.25 117.781 l 215.25 126.773
 l 236.488 126.773 l 236.488 103.602 l h
170.602 110.488 m 167.5 110.488 164.988 107.98 164.988 104.875 c 164.988
 101.75 167.5 99.242 170.602 99.242 c 176.598 99.242 l 176.598 86.594 l 
176.598 85.594 176.172 84.699 175.512 84.043 c 174.855 83.383 173.961 82.977
 172.961 82.977 c 158.973 82.977 l 157.973 82.977 157.059 83.383 156.402
 84.043 c 155.742 84.699 155.336 85.594 155.336 86.594 c 155.336 126.773
 l 176.598 126.773 l 176.598 110.488 l h
95.426 99.242 m 116.688 99.242 l 116.688 86.594 l 116.688 85.594 116.262
 84.699 115.602 84.043 c 114.941 83.383 114.051 82.977 113.051 82.977 c 
99.062 82.977 l 98.062 82.977 97.168 83.383 96.512 84.043 c 95.852 84.699
 95.426 85.594 95.426 86.594 c h
116.688 110.488 m 95.426 110.488 l 95.426 126.773 l 116.688 126.773 l h
218.863 71.711 m 232.875 71.711 l 236.977 71.711 240.699 73.391 243.375
 76.09 c 246.078 78.77 247.754 82.488 247.754 86.594 c 247.754 126.773 l
 263.574 126.773 l 263.574 92.246 l 263.574 89.145 266.105 86.637 269.207
 86.637 c 272.312 86.637 274.82 89.145 274.82 92.246 c 274.82 317.18 l 274.82
 320.285 272.312 322.793 269.207 322.793 c 200.367 322.793 131.547 322.793
 62.73 322.793 c 59.625 322.793 57.094 320.285 57.094 317.18 c 57.094 227.633
 57.094 138.105 57.094 48.559 c 57.094 45.453 59.625 42.945 62.73 42.945
 c 269.207 42.945 l 272.312 42.945 274.82 45.453 274.82 48.559 c 274.82 
66.777 l 274.82 69.883 272.312 72.391 269.207 72.391 c 266.105 72.391 263.574
 69.879 263.574 66.777 c 263.574 54.191 l 68.34 54.191 l 68.34 126.773 l
 84.18 126.773 l 84.18 86.594 l 84.18 82.488 85.859 78.77 88.539 76.09 c
 91.238 73.391 94.961 71.711 99.062 71.711 c 113.051 71.711 l 117.156 71.711
 120.875 73.391 123.574 76.09 c 126.254 78.77 127.934 82.488 127.934 86.594
 c 127.934 126.773 l 144.09 126.773 l 144.09 86.594 l 144.09 82.488 145.77
 78.77 148.449 76.09 c 151.148 73.391 154.871 71.711 158.973 71.711 c 172.961
 71.711 l 177.066 71.711 180.785 73.391 183.465 76.09 c 186.164 78.77 187.844
 82.488 187.844 86.594 c 187.844 126.773 l 204.004 126.773 l 204.004 86.594
 l 204.004 82.488 205.66 78.77 208.359 76.09 c 211.059 73.391 214.781 71.711
 218.863 71.711 c h
185.613 249.996 m 238.59 249.996 l 237.637 245.105 234.488 242.023 231.344
 238.941 c 225.879 233.562 220.414 228.184 220.414 216.664 c 220.414 193.062
 l 203.789 193.062 l 203.789 216.664 l 203.789 228.184 198.324 233.562 192.863
 238.941 c 189.715 242.023 186.57 245.109 185.613 249.996 c h
238.91 292.539 m 185.293 292.539 l 185.293 311.547 l 238.91 311.547 l h
238.91 261.242 m 185.293 261.242 l 185.293 281.273 l 238.91 281.273 l h
93.32 249.996 m 146.324 249.996 l 145.344 245.105 142.219 242.023 139.074
 238.941 c 133.609 233.562 128.125 228.184 128.125 216.664 c 128.125 193.062
 l 111.52 193.062 l 111.52 216.664 l 111.52 228.184 106.055 233.562 100.57
 238.941 c 97.445 242.023 94.301 245.109 93.32 249.996 c h
146.641 292.539 m 93.023 292.539 l 93.023 311.547 l 146.641 311.547 l h
146.641 261.242 m 93.023 261.242 l 93.023 281.273 l 146.641 281.273 l h
275.734 351.109 m 275.734 378.387 l 275.734 381.492 273.227 384 270.121
 384 c 213.461 384 l 210.359 384 207.852 381.492 207.852 378.387 c 207.852
 351.109 l 124.086 351.109 l 124.086 378.387 l 124.086 381.492 121.555 384
 118.449 384 c 61.812 384 l 58.711 384 56.18 381.492 56.18 378.387 c 56.18
 351.109 l 34.41 351.109 l 31.305 351.109 28.773 348.602 28.773 345.5 c 
28.773 327.301 l 28.773 324.176 31.305 321.664 34.41 321.664 c 37.512 321.664
 40.023 324.176 40.023 327.301 c 40.023 339.863 l 291.891 339.863 l 291.891
 25.871 l 40.023 25.871 l 40.023 301.809 l 40.023 304.914 37.512 307.441
 34.41 307.441 c 31.305 307.441 28.773 304.914 28.773 301.809 c 28.773 20.238
 l 28.773 17.133 31.305 14.625 34.41 14.625 c 291.891 14.625 l 291.891 5.633
 l 291.891 2.531 294.422 0 297.523 0 c 349.59 0 l 352.715 0 355.227 2.531
 355.227 5.633 c 355.227 170.125 l 355.227 173.227 352.715 175.758 349.59
 175.758 c 346.488 175.758 343.98 173.227 343.98 170.125 c 343.98 11.246
 l 303.16 11.246 l 303.16 354.492 l 343.98 354.492 l 343.98 195.613 l 343.98
 192.508 346.488 189.98 349.59 189.98 c 352.715 189.98 355.227 192.508 355.227
 195.613 c 355.227 360.102 l 355.227 363.207 352.715 365.738 349.59 365.738
 c 297.523 365.738 l 294.422 365.738 291.891 363.207 291.891 360.102 c 291.891
 351.109 l h
219.098 351.109 m 219.098 372.754 l 264.488 372.754 l 264.488 351.109 l
 h
67.426 351.109 m 67.426 372.754 l 112.84 372.754 l 112.84 351.109 l h
128.125 181.816 m 128.125 165.422 l 111.52 165.422 l 111.52 181.816 l h
203.789 181.816 m 220.414 181.816 l 220.414 165.422 l 203.789 165.422 l
 h
203.789 181.816 m f
Q Q
showpage
%%Trailer
end
%%EOF
