%!PS-Adobe-3.0 EPSF-3.0
%%Creator: cairo 1.16.0 (https://cairographics.org)
%%CreationDate: Thu Dec 10 07:55:02 2020
%%Pages: 1
%%DocumentData: Clean7Bit
%%LanguageLevel: 2
%%BoundingBox: 86 0 298 384
%%EndComments
%%BeginProlog
50 dict begin
/q { gsave } bind def
/Q { grestore } bind def
/cm { 6 array astore concat } bind def
/w { setlinewidth } bind def
/J { setlinecap } bind def
/j { setlinejoin } bind def
/M { setmiterlimit } bind def
/d { setdash } bind def
/m { moveto } bind def
/l { lineto } bind def
/c { curveto } bind def
/h { closepath } bind def
/re { exch dup neg 3 1 roll 5 3 roll moveto 0 rlineto
      0 exch rlineto 0 rlineto closepath } bind def
/S { stroke } bind def
/f { fill } bind def
/f* { eofill } bind def
/n { newpath } bind def
/W { clip } bind def
/W* { eoclip } bind def
/BT { } bind def
/ET { } bind def
/BDC { mark 3 1 roll /BDC pdfmark } bind def
/EMC { mark /EMC pdfmark } bind def
/cairo_store_point { /cairo_point_y exch def /cairo_point_x exch def } def
/Tj { show currentpoint cairo_store_point } bind def
/TJ {
  {
    dup
    type /stringtype eq
    { show } { -0.001 mul 0 cairo_font_matrix dtransform rmoveto } ifelse
  } forall
  currentpoint cairo_store_point
} bind def
/cairo_selectfont { cairo_font_matrix aload pop pop pop 0 0 6 array astore
    cairo_font exch selectfont cairo_point_x cairo_point_y moveto } bind def
/Tf { pop /cairo_font exch def /cairo_font_matrix where
      { pop cairo_selectfont } if } bind def
/Td { matrix translate cairo_font_matrix matrix concatmatrix dup
      /cairo_font_matrix exch def dup 4 get exch 5 get cairo_store_point
      /cairo_font where { pop cairo_selectfont } if } bind def
/Tm { 2 copy 8 2 roll 6 array astore /cairo_font_matrix exch def
      cairo_store_point /cairo_font where { pop cairo_selectfont } if } bind def
/g { setgray } bind def
/rg { setrgbcolor } bind def
/d1 { setcachedevice } bind def
/cairo_data_source {
  CairoDataIndex CairoData length lt
    { CairoData CairoDataIndex get /CairoDataIndex CairoDataIndex 1 add def }
    { () } ifelse
} def
/cairo_flush_ascii85_file { cairo_ascii85_file status { cairo_ascii85_file flushfile } if } def
/cairo_image { image cairo_flush_ascii85_file } def
/cairo_imagemask { imagemask cairo_flush_ascii85_file } def
%%EndProlog
%%BeginSetup
%%EndSetup
%%Page: 1 1
%%BeginPageSetup
%%PageBoundingBox: 86 0 298 384
%%EndPageSetup
q 86 0 212 384 rectclip
1 0 0 -1 0 384 cm q
0.866667 0.388235 0.431373 rg
91.906 63.91 m 192.828 56.254 l 292.094 63.91 l 292.094 320.113 l 191.363
 327.023 l 91.906 320.113 l h
91.906 63.91 m f*
0.745098 0.847059 0.984314 rg
91.906 63.91 m 292.094 63.91 l 267.961 28.254 l 189.918 23.516 l 116.039
 28.254 l h
91.906 320.113 m 292.094 320.113 l 267.961 355.766 l 190.277 362.312 l 
116.039 355.766 l h
91.906 320.113 m f*
0.615686 0.776471 0.984314 rg
273.895 63.91 m 292.094 63.91 l 267.961 28.254 l 249.762 28.254 l h
273.895 320.113 m 292.094 320.113 l 267.961 355.766 l 249.762 355.766 l
 h
273.895 320.113 m f*
0.866667 0.917647 0.984314 rg
116.039 355.766 m 267.961 355.766 l 274.191 355.766 279.273 360.848 279.273
 367.078 c 279.273 373.285 274.168 378.387 267.961 378.387 c 116.039 378.387
 l 109.832 378.387 104.727 373.285 104.727 367.078 c 104.727 360.848 109.828
 355.766 116.039 355.766 c h
116.039 28.254 m 267.961 28.254 l 274.191 28.254 279.273 23.152 279.273
 16.945 c 279.273 10.715 274.168 5.633 267.961 5.633 c 116.039 5.633 l 109.832
 5.633 104.727 10.715 104.727 16.945 c 104.727 23.152 109.828 28.254 116.039
 28.254 c h
116.039 28.254 m f*
0.796078 0.886275 1 rg
249.766 355.766 m 267.965 355.766 l 274.191 355.766 279.273 360.848 279.273
 367.078 c 279.273 373.285 274.172 378.387 267.965 378.387 c 249.766 378.387
 l 255.973 378.387 261.074 373.285 261.074 367.078 c 261.074 360.848 255.973
 355.766 249.766 355.766 c h
249.766 28.254 m 267.965 28.254 l 274.191 28.254 279.273 23.152 279.273
 16.945 c 279.273 10.715 274.172 5.633 267.965 5.633 c 249.766 5.633 l 255.973
 5.633 261.074 10.715 261.074 16.945 c 261.074 23.152 255.973 28.254 249.766
 28.254 c h
249.766 28.254 m f*
0.905882 0.647059 0.180392 rg
192 240.645 m 234.117 240.645 268.453 206.309 268.453 164.215 c 268.453
 122.098 234.117 87.762 192 87.762 c 149.906 87.762 115.547 122.098 115.547
 164.215 c 115.547 206.309 149.906 240.645 192 240.645 c h
192 240.645 m f*
0.984314 0.6 0 rg
192 87.762 m 234.223 87.762 268.453 121.992 268.453 164.215 c 268.453 206.414
 234.223 240.645 192 240.645 c 188.918 240.645 185.879 240.473 182.898 240.113
 c 220.828 235.605 250.254 203.352 250.254 164.215 c 250.254 125.074 220.828
 92.801 182.898 88.293 c 185.879 87.953 188.918 87.762 192 87.762 c h
192 87.762 m f*
1 0.945098 0.886275 rg
222.891 158.473 m 182.645 212.77 l 181.711 214.023 180.117 213.324 180.477
 211.773 c 187.727 180.285 l 188.512 176.84 187.109 174.609 183.199 174.609
 c 163.469 174.609 l 160.023 174.609 158.898 172.93 161.109 169.934 c 201.355
 115.637 l 202.418 114.211 203.949 114.785 203.523 116.633 c 196.273 148.121
 l 195.422 151.797 196.891 153.797 200.801 153.797 c 220.531 153.797 l 224.848
 153.797 225.336 155.156 222.891 158.473 c h
222.891 158.473 m f*
0.854902 0.290196 0.329412 rg
273.895 63.91 18.199 256.203 re f*
0 g
121.012 314.48 m 124.137 314.48 126.648 317.008 126.648 320.113 c 126.648
 323.219 124.137 325.727 121.012 325.727 c 102.473 325.727 l 118.992 350.133
 l 265.008 350.133 l 281.527 325.727 l 146.504 325.727 l 143.398 325.727
 140.871 323.219 140.871 320.113 c 140.871 317.008 143.398 314.48 146.504
 314.48 c 286.48 314.48 l 286.48 69.52 l 262.988 69.52 l 259.863 69.52 257.352
 67.012 257.352 63.91 c 257.352 60.805 259.863 58.273 262.988 58.273 c 281.527
 58.273 l 265.008 33.867 l 118.992 33.867 l 102.473 58.273 l 237.496 58.273
 l 240.602 58.273 243.129 60.805 243.129 63.91 c 243.129 67.012 240.602 
69.52 237.496 69.52 c 97.52 69.52 l 97.52 314.48 l h
224.93 185.453 m 224.93 182.328 227.461 179.82 230.566 179.82 c 233.672
 179.82 236.18 182.328 236.18 185.453 c 236.18 188.598 l 239.348 188.598
 l 242.449 188.598 244.98 191.129 244.98 194.234 c 244.98 197.336 242.449
 199.867 239.348 199.867 c 236.18 199.867 l 236.18 203.012 l 236.18 206.137
 233.668 208.648 230.566 208.648 c 227.461 208.648 224.93 206.137 224.93
 203.012 c 224.93 199.867 l 221.766 199.867 l 218.66 199.867 216.152 197.336
 216.152 194.234 c 216.152 191.129 218.66 188.598 221.766 188.598 c 224.93
 188.598 l h
150.48 122.074 m 150.48 118.949 153.008 116.441 156.113 116.441 c 159.219
 116.441 161.727 118.949 161.727 122.074 c 161.727 125.223 l 164.895 125.223
 l 168 125.223 170.527 127.754 170.527 130.855 c 170.527 133.961 168 136.492
 164.895 136.492 c 161.727 136.492 l 161.727 139.637 l 161.727 142.762 159.215
 145.27 156.113 145.27 c 153.008 145.27 150.48 142.762 150.48 139.637 c 
150.48 136.492 l 147.312 136.492 l 144.207 136.492 141.699 133.961 141.699
 130.855 c 141.699 127.754 144.207 125.223 147.312 125.223 c 150.48 125.223
 l h
142.145 294.707 m 139.039 294.707 136.531 292.18 136.531 289.074 c 136.531
 285.969 139.039 283.438 142.145 283.438 c 241.855 283.438 l 244.961 283.438
 247.469 285.969 247.469 289.074 c 247.469 292.18 244.957 294.707 241.855
 294.707 c h
161.492 272.852 m 158.387 272.852 155.855 270.344 155.855 267.238 c 155.855
 264.137 158.387 261.605 161.492 261.605 c 222.508 261.605 l 225.613 261.605
 228.141 264.137 228.141 267.238 c 228.141 270.344 225.613 272.852 222.508
 272.852 c h
192 82.129 m 214.664 82.129 235.18 91.312 250.039 106.172 c 264.879 121.012
 274.062 141.551 274.062 164.215 c 274.062 186.879 264.879 207.391 250.039
 222.234 c 235.18 237.094 214.664 246.277 192 246.277 c 169.336 246.277 
148.82 237.094 133.961 222.234 c 119.121 207.391 109.938 186.875 109.938
 164.215 c 109.938 141.551 119.121 121.012 133.961 106.172 c 148.82 91.312
 169.336 82.129 192 82.129 c h
242.09 114.125 m 229.27 101.305 211.559 93.375 192 93.375 c 172.441 93.375
 154.73 101.305 141.91 114.125 c 129.113 126.945 121.184 144.652 121.184
 164.215 c 121.184 183.75 129.113 201.461 141.91 214.281 c 154.73 227.102
 172.441 235.031 192 235.031 c 211.559 235.031 229.27 227.102 242.09 214.281
 c 254.887 201.461 262.816 183.75 262.816 164.215 c 262.816 144.652 254.887
 126.945 242.09 114.125 c h
230.586 157.496 m 183.688 220.785 l 181.836 223.273 178.328 223.785 175.844
 221.957 c 174.055 220.617 173.207 218.363 173.715 216.195 c 181.965 180.242
 l 157.645 180.242 l 154.539 180.242 152.031 177.715 152.031 174.609 c 152.031
 173.207 152.539 171.91 153.414 170.91 c 200.312 107.617 l 202.164 105.133
 205.672 104.621 208.156 106.449 c 209.945 107.789 210.793 110.043 210.305
 112.211 c 202.035 148.16 l 226.355 148.16 l 229.461 148.16 231.969 150.691
 231.969 153.797 c 231.969 155.199 231.461 156.496 230.586 157.496 c h
190.66 192.531 m 215.195 159.406 l 194.977 159.406 l 191.406 159.406 188.707
 156.07 189.512 152.543 c 193.34 135.871 l 168.805 168.996 l 189.023 168.996
 l 192.594 168.996 195.293 172.336 194.488 175.863 c h
267.961 22.621 m 269.516 22.621 270.938 21.984 271.98 20.941 c 273 19.922
 273.637 18.496 273.637 16.945 c 273.637 15.395 273 13.969 271.98 12.926
 c 270.938 11.883 269.516 11.246 267.961 11.246 c 116.039 11.246 l 114.484
 11.246 113.062 11.887 112.039 12.926 c 111 13.969 110.363 15.395 110.363
 16.945 c 110.363 18.496 111 19.922 112.02 20.941 c 113.062 21.984 114.484
 22.621 116.039 22.621 c h
107.172 31.359 m 106.047 30.656 105.004 29.828 104.066 28.914 c 101.008
 25.832 99.113 21.602 99.113 16.945 c 99.113 12.27 101.008 8.035 104.066
 4.977 c 107.152 1.914 111.383 0 116.039 0 c 267.961 0 l 272.617 0 276.848
 1.914 279.93 4.977 c 282.992 8.035 284.906 12.27 284.906 16.945 c 284.906
 21.602 282.992 25.832 279.93 28.914 c 278.996 29.828 277.953 30.656 276.828
 31.359 c 296.449 60.336 l 297.238 61.293 297.727 62.547 297.727 63.91 c
 297.727 320.113 l 297.727 321.477 297.238 322.707 296.449 323.688 c 276.828
 352.645 l 277.953 353.344 278.996 354.176 279.93 355.109 c 282.992 358.172
 284.906 362.402 284.906 367.078 c 284.906 371.734 282.992 375.965 279.93
 379.047 c 276.848 382.109 272.617 384 267.961 384 c 116.039 384 l 111.383
 384 107.152 382.109 104.07 379.047 c 101.008 375.965 99.113 371.734 99.113
 367.078 c 99.113 362.402 101.008 358.172 104.07 355.109 c 105.004 354.176
 106.047 353.344 107.172 352.645 c 87.551 323.688 l 86.762 322.707 86.273
 321.477 86.273 320.113 c 86.273 63.91 l 86.273 62.547 86.762 61.293 87.551
 60.336 c h
116.039 361.379 m 114.484 361.379 113.062 362.016 112.02 363.059 c 111 
364.102 110.363 365.504 110.363 367.078 c 110.363 368.629 111 370.055 112.039
 371.074 c 113.062 372.117 114.484 372.754 116.039 372.754 c 267.961 372.754
 l 269.516 372.754 270.938 372.113 271.98 371.074 c 273 370.055 273.637 
368.629 273.637 367.078 c 273.637 365.504 273 364.102 271.98 363.059 c 270.938
 362.016 269.516 361.379 267.961 361.379 c h
116.039 361.379 m f
Q Q
showpage
%%Trailer
end
%%EOF
