%!PS-Adobe-3.0 EPSF-3.0
%%Creator: cairo 1.16.0 (https://cairographics.org)
%%CreationDate: Thu Dec 10 07:55:03 2020
%%Pages: 1
%%DocumentData: Clean7Bit
%%LanguageLevel: 2
%%BoundingBox: 43 0 341 384
%%EndComments
%%BeginProlog
50 dict begin
/q { gsave } bind def
/Q { grestore } bind def
/cm { 6 array astore concat } bind def
/w { setlinewidth } bind def
/J { setlinecap } bind def
/j { setlinejoin } bind def
/M { setmiterlimit } bind def
/d { setdash } bind def
/m { moveto } bind def
/l { lineto } bind def
/c { curveto } bind def
/h { closepath } bind def
/re { exch dup neg 3 1 roll 5 3 roll moveto 0 rlineto
      0 exch rlineto 0 rlineto closepath } bind def
/S { stroke } bind def
/f { fill } bind def
/f* { eofill } bind def
/n { newpath } bind def
/W { clip } bind def
/W* { eoclip } bind def
/BT { } bind def
/ET { } bind def
/BDC { mark 3 1 roll /BDC pdfmark } bind def
/EMC { mark /EMC pdfmark } bind def
/cairo_store_point { /cairo_point_y exch def /cairo_point_x exch def } def
/Tj { show currentpoint cairo_store_point } bind def
/TJ {
  {
    dup
    type /stringtype eq
    { show } { -0.001 mul 0 cairo_font_matrix dtransform rmoveto } ifelse
  } forall
  currentpoint cairo_store_point
} bind def
/cairo_selectfont { cairo_font_matrix aload pop pop pop 0 0 6 array astore
    cairo_font exch selectfont cairo_point_x cairo_point_y moveto } bind def
/Tf { pop /cairo_font exch def /cairo_font_matrix where
      { pop cairo_selectfont } if } bind def
/Td { matrix translate cairo_font_matrix matrix concatmatrix dup
      /cairo_font_matrix exch def dup 4 get exch 5 get cairo_store_point
      /cairo_font where { pop cairo_selectfont } if } bind def
/Tm { 2 copy 8 2 roll 6 array astore /cairo_font_matrix exch def
      cairo_store_point /cairo_font where { pop cairo_selectfont } if } bind def
/g { setgray } bind def
/rg { setrgbcolor } bind def
/d1 { setcachedevice } bind def
/cairo_data_source {
  CairoDataIndex CairoData length lt
    { CairoData CairoDataIndex get /CairoDataIndex CairoDataIndex 1 add def }
    { () } ifelse
} def
/cairo_flush_ascii85_file { cairo_ascii85_file status { cairo_ascii85_file flushfile } if } def
/cairo_image { image cairo_flush_ascii85_file } def
/cairo_imagemask { imagemask cairo_flush_ascii85_file } def
%%EndProlog
%%BeginSetup
%%EndSetup
%%Page: 1 1
%%BeginPageSetup
%%PageBoundingBox: 43 0 341 384
%%EndPageSetup
q 43 0 298 384 rectclip
1 0 0 -1 0 384 cm q
0.501961 0.705882 0.984314 rg
334.719 267.621 m 334.719 344.883 l 334.719 363.312 319.645 378.387 301.211
 378.387 c 159.172 378.387 l 140.742 378.387 125.668 363.312 125.668 344.883
 c 125.668 267.621 l 230.203 260.328 l h
334.719 267.621 m f*
0.380392 0.635294 0.976471 rg
334.719 267.621 m 334.719 344.883 l 334.719 363.312 319.645 378.387 301.211
 378.387 c 283.016 378.387 l 301.445 378.387 316.52 363.312 316.52 344.883
 c 316.52 267.621 l h
334.719 267.621 m f*
0.501961 0.705882 0.984314 rg
92.098 5.633 m 82.789 5.633 l 64.355 5.633 49.281 20.707 49.281 39.141 
c 49.281 181.18 l 49.281 199.609 64.355 214.684 82.789 214.684 c 92.098 
214.684 l 107.469 110.148 l h
92.098 5.633 m f*
0.380392 0.635294 0.976471 rg
92.098 5.633 m 82.789 5.633 l 79.703 5.633 76.727 6.039 73.898 6.824 c 
73.898 213.473 l 76.727 214.258 79.703 214.684 82.789 214.684 c 92.098 214.684
 l h
92.098 5.633 m f*
0.92549 0.956863 1 rg
119.844 5.633 m 110.594 5.633 101.348 5.633 92.098 5.633 c 92.098 214.684
 l 119.844 214.684 l 123.055 214.684 125.668 212.07 125.668 208.859 c 125.668
 11.457 l 125.668 8.25 123.055 5.633 119.844 5.633 c h
119.844 5.633 m f*
0.866667 0.917647 0.984314 rg
119.844 5.633 m 101.645 5.633 l 104.855 5.633 107.469 8.25 107.469 11.461
 c 107.469 208.859 l 107.469 212.07 104.855 214.684 101.645 214.684 c 119.844
 214.684 l 123.055 214.684 125.668 212.07 125.668 208.859 c 125.668 11.461
 l 125.668 8.25 123.055 5.633 119.844 5.633 c h
119.844 5.633 m f*
0.501961 0.705882 0.984314 rg
248.082 172.758 62.484 45.648 re f*
0.615686 0.776471 0.984314 rg
163.938 172.844 m 163.938 222.637 l 254.102 222.637 l 254.102 172.844 l
 209.711 169.762 l h
163.938 172.844 m f*
0.92549 0.956863 1 rg
334.719 267.621 m 334.719 251.91 334.719 236.199 334.719 220.508 c 334.719
 217.301 332.105 214.684 328.895 214.684 c 131.492 214.684 l 128.281 214.684
 125.668 217.301 125.668 220.508 c 125.668 267.621 l h
334.719 267.621 m f*
0.866667 0.917647 0.984314 rg
334.719 267.621 m 334.719 251.91 334.719 236.199 334.719 220.508 c 334.719
 217.301 332.105 214.684 328.895 214.684 c 310.695 214.684 l 313.906 214.684
 316.52 217.301 316.52 220.508 c 316.52 267.621 l h
334.719 267.621 m f*
0.329412 0.564706 0.976471 rg
254.102 154.645 m 310.566 154.645 l 316.586 154.645 321.496 159.559 321.496
 165.574 c 321.496 171.57 316.586 176.48 310.566 176.48 c 254.102 176.48
 l h
254.102 154.645 m f*
0.290196 0.505882 0.964706 rg
292.371 154.645 m 310.566 154.645 l 316.586 154.645 321.496 159.559 321.496
 165.574 c 321.496 171.57 316.586 176.48 310.566 176.48 c 292.371 176.48
 l 298.363 176.48 303.297 171.57 303.297 165.574 c 303.297 159.559 298.387
 154.645 292.371 154.645 c h
292.371 154.645 m f*
0.380392 0.635294 0.976471 rg
292.371 176.48 18.195 38.203 re f*
0.745098 0.847059 0.984314 rg
169.762 138.297 m 248.277 138.297 l 251.465 138.297 254.102 140.91 254.102
 144.102 c 254.102 176.48 l 224.039 176.48 194 176.48 163.938 176.48 c 163.938
 166.914 163.938 153.691 163.938 144.102 c 163.938 140.91 166.574 138.297
 169.762 138.297 c h
169.762 138.297 m f*
0.329412 0.564706 0.976471 rg
125.668 232.883 m 135.703 232.883 143.867 224.699 143.867 214.684 c 143.867
 204.648 135.703 196.484 125.668 196.484 c 115.633 196.484 107.469 204.648
 107.469 214.684 c 107.469 224.699 115.633 232.883 125.668 232.883 c h
125.668 232.883 m f*
0.854902 0.290196 0.329412 rg
216.641 11.27 m 234.883 25.703 248.656 43.945 248.656 67.672 c 248.656 
94.609 230.906 116.441 209.008 116.441 c 187.133 116.441 169.379 94.609 
169.379 67.672 c 169.379 43.945 183.156 25.703 201.395 11.27 c 206.605 7.078
 211.664 7.207 216.641 11.27 c h
216.641 11.27 m f*
0.847059 0.180392 0.239216 rg
216.641 11.27 m 234.883 25.703 248.656 43.945 248.656 67.672 c 248.656 
94.609 230.906 116.441 209.008 116.441 c 205.883 116.441 202.844 115.996
 199.906 115.145 c 217.426 110.086 230.438 90.758 230.438 67.672 c 230.438
 44.605 217.426 26.703 199.906 12.457 c 200.418 12.055 200.906 11.672 201.395
 11.27 c 206.605 7.078 211.664 7.207 216.641 11.27 c h
216.641 11.27 m f*
0.996078 0.85098 0.643137 rg
209.008 116.441 m 218.512 116.441 226.25 106.918 226.25 95.246 c 226.25
 83.574 218.512 74.051 209.008 74.051 c 199.527 74.051 191.789 83.574 191.789
 95.246 c 191.789 106.918 199.527 116.441 209.008 116.441 c h
209.008 116.441 m f*
0.329412 0.564706 0.976471 rg
169.762 241.152 m 234.098 241.152 l 237.305 241.152 239.922 243.77 239.922
 246.98 c 239.922 346.094 l 239.922 349.305 237.305 351.918 234.098 351.918
 c 169.762 351.918 l 166.574 351.918 163.938 349.305 163.938 346.094 c 163.938
 246.98 l 163.938 243.77 166.574 241.152 169.762 241.152 c h
169.762 241.152 m f*
0.290196 0.505882 0.964706 rg
215.895 241.152 m 234.098 241.152 l 237.305 241.152 239.922 243.77 239.922
 246.98 c 239.922 346.094 l 239.922 349.305 237.305 351.918 234.098 351.918
 c 215.895 351.918 l 219.105 351.918 221.723 349.305 221.723 346.094 c 221.723
 246.98 l 221.723 243.77 219.105 241.152 215.895 241.152 c h
215.895 241.152 m f*
0 g
245.555 261.988 m 329.105 261.988 l 329.105 220.297 l 269.004 220.297 208.922
 220.297 148.82 220.297 c 147.777 224.633 145.566 228.48 142.508 231.523
 c 139.465 234.562 135.617 236.793 131.301 237.836 c 131.301 261.988 l 158.324
 261.988 l 158.324 241.152 l 158.324 238.047 160.832 235.52 163.938 235.52
 c 239.918 235.52 l 243.047 235.52 245.555 238.047 245.555 241.152 c h
158.324 273.234 m 131.301 273.234 l 131.301 344.883 l 131.301 352.535 134.43
 359.508 139.488 364.566 c 144.547 369.629 151.523 372.754 159.176 372.754
 c 301.215 372.754 l 308.891 372.754 315.84 369.629 320.902 364.566 c 325.961
 359.508 329.105 352.535 329.105 344.883 c 329.105 273.234 l 245.555 273.234
 l 245.555 351.918 l 245.555 355.023 243.047 357.531 239.918 357.531 c 214.684
 357.531 l 211.582 357.531 209.051 355.023 209.051 351.918 c 209.051 348.816
 211.582 346.285 214.684 346.285 c 234.309 346.285 l 234.309 246.766 l 169.57
 246.766 l 169.57 346.285 l 189.195 346.285 l 192.297 346.285 194.828 348.816
 194.828 351.918 c 194.828 355.023 192.297 357.531 189.195 357.531 c 163.938
 357.531 l 160.832 357.531 158.324 355.023 158.324 351.918 c h
209.008 68.438 m 215.535 68.438 221.383 71.605 225.551 76.727 c 229.461
 81.531 231.863 88.078 231.863 95.246 c 231.863 96.883 231.738 98.477 231.504
 100.008 c 239.328 91.27 243.023 79.301 243.023 67.672 c 243.023 65.035 
242.855 62.547 242.516 60.168 c 242.176 57.785 241.664 55.426 241.004 53.086
 c 240.156 50.109 241.875 46.984 244.875 46.133 c 247.852 45.285 250.953
 47.027 251.805 50.004 c 252.59 52.746 253.207 55.617 253.633 58.613 c 254.059
 61.613 254.273 64.629 254.273 67.672 c 254.273 82.469 249.359 95.906 241.387
 105.703 c 233.18 115.824 221.723 122.074 209.008 122.074 c 196.316 122.074
 184.859 115.824 176.648 105.703 c 168.68 95.902 163.766 82.469 163.766 
67.672 c 163.766 52.98 168.594 40.223 176.395 29.062 c 184.027 18.18 194.402
 8.953 205.82 1.02 c 207.84 -0.383 210.453 -0.277 212.324 1.086 c 217.363
 4.594 222.188 8.355 226.676 12.395 c 231.246 16.52 235.453 20.898 239.113
 25.621 c 241.004 28.062 240.559 31.594 238.113 33.508 c 235.668 35.398 
232.137 34.953 230.227 32.508 c 226.973 28.32 223.23 24.406 219.168 20.75
 c 215.98 17.879 212.578 15.137 209.008 12.543 c 199.824 19.262 191.617 
26.852 185.578 35.484 c 179.051 44.816 175.012 55.449 175.012 67.672 c 175.012
 79.301 178.711 91.27 186.535 100.008 c 186.301 98.477 186.176 96.883 186.176
 95.246 c 186.176 88.082 188.578 81.535 192.488 76.727 c 196.656 71.605 
202.504 68.438 209.008 68.438 c h
216.852 83.809 m 214.77 81.258 212.004 79.684 209.008 79.684 c 206.031 
79.684 203.27 81.258 201.184 83.809 c 198.867 86.68 197.422 90.719 197.422
 95.246 c 197.422 99.754 198.844 103.75 201.16 106.578 c 203.246 109.105
 206.031 110.68 209.008 110.68 c 212.004 110.68 214.789 109.105 216.852 
106.578 c 219.191 103.75 220.617 99.754 220.617 95.246 c 220.617 90.719 
219.172 86.676 216.852 83.809 c h
169.57 143.91 m 169.57 167.23 l 248.469 167.23 l 248.469 143.91 l 214.746
 143.91 203.289 143.91 169.57 143.91 c h
148.82 209.051 m 158.324 209.051 l 158.324 138.297 l 158.324 135.172 160.832
 132.664 163.938 132.664 c 254.102 132.664 l 257.207 132.664 259.715 135.172
 259.715 138.297 c 259.715 149.012 l 310.566 149.012 l 315.117 149.012 319.262
 150.883 322.262 153.879 c 325.258 156.879 327.109 161.004 327.109 165.574
 c 327.109 170.121 325.258 174.246 322.262 177.246 c 320.559 178.945 318.496
 180.285 316.203 181.113 c 316.203 209.051 l 334.719 209.051 l 337.824 209.051
 340.352 211.582 340.352 214.684 c 340.352 344.883 l 340.352 355.641 335.953
 365.418 328.852 372.52 c 321.773 379.598 311.992 384 301.211 384 c 159.172
 384 l 148.395 384 138.617 379.598 131.535 372.52 c 124.434 365.418 120.035
 355.641 120.035 344.883 c 120.035 237.836 l 115.719 236.793 111.871 234.562
 108.832 231.523 c 105.789 228.48 103.559 224.633 102.516 220.297 c 82.785
 220.297 l 72.008 220.297 62.227 215.898 55.148 208.816 c 48.047 201.738
 43.648 191.938 43.648 181.18 c 43.648 39.141 l 43.648 28.359 48.047 18.582
 55.148 11.504 c 62.227 4.402 72.008 0 82.789 0 c 125.668 0 l 128.773 0 
131.301 2.531 131.301 5.633 c 131.301 191.531 l 135.621 192.574 139.465 
194.785 142.508 197.824 c 145.566 200.887 147.777 204.734 148.82 209.051
 c h
102.516 209.051 m 103.559 204.734 105.789 200.887 108.832 197.824 c 111.871
 194.785 115.719 192.574 120.035 191.531 c 120.035 11.246 l 97.734 11.246
 l 97.734 97.414 l 97.734 100.52 95.203 103.047 92.102 103.047 c 88.996 
103.047 86.488 100.52 86.488 97.414 c 86.488 11.246 l 82.789 11.246 l 75.113
 11.246 68.16 14.395 63.102 19.453 c 58.039 24.516 54.895 31.465 54.895 
39.141 c 54.895 181.18 l 54.895 188.832 58.039 195.805 63.102 200.867 c 
68.141 205.926 75.113 209.051 82.789 209.051 c 86.488 209.051 l 86.488 122.906
 l 86.488 119.781 88.996 117.27 92.102 117.27 c 95.203 117.27 97.734 119.781
 97.734 122.906 c 97.734 209.051 l h
134.555 205.797 m 132.281 203.523 129.133 202.098 125.668 202.098 c 122.203
 202.098 119.059 203.523 116.781 205.797 c 114.508 208.074 113.082 211.199
 113.082 214.684 c 113.082 218.148 114.508 221.297 116.781 223.57 c 119.055
 225.848 122.203 227.25 125.668 227.25 c 129.133 227.25 132.281 225.848 
134.555 223.57 c 136.828 221.297 138.254 218.148 138.254 214.684 c 138.254
 211.199 136.828 208.074 134.555 205.797 c h
304.957 182.113 m 259.715 182.113 l 259.715 209.051 l 304.957 209.051 l
 h
259.715 160.258 m 259.715 170.867 l 310.566 170.867 l 312.012 170.867 313.352
 170.25 314.309 169.293 c 315.266 168.336 315.859 167.02 315.859 165.574
 c 315.859 164.105 315.266 162.789 314.309 161.832 c 313.352 160.875 312.012
 160.258 310.566 160.258 c h
248.469 178.48 m 169.57 178.48 l 169.57 209.051 l 248.469 209.051 l h
248.469 178.48 m f
Q Q
showpage
%%Trailer
end
%%EOF
