%!PS-Adobe-3.0 EPSF-3.0
%%Creator: cairo 1.16.0 (https://cairographics.org)
%%CreationDate: Thu Dec 10 07:55:03 2020
%%Pages: 1
%%DocumentData: Clean7Bit
%%LanguageLevel: 2
%%BoundingBox: 0 12 384 372
%%EndComments
%%BeginProlog
50 dict begin
/q { gsave } bind def
/Q { grestore } bind def
/cm { 6 array astore concat } bind def
/w { setlinewidth } bind def
/J { setlinecap } bind def
/j { setlinejoin } bind def
/M { setmiterlimit } bind def
/d { setdash } bind def
/m { moveto } bind def
/l { lineto } bind def
/c { curveto } bind def
/h { closepath } bind def
/re { exch dup neg 3 1 roll 5 3 roll moveto 0 rlineto
      0 exch rlineto 0 rlineto closepath } bind def
/S { stroke } bind def
/f { fill } bind def
/f* { eofill } bind def
/n { newpath } bind def
/W { clip } bind def
/W* { eoclip } bind def
/BT { } bind def
/ET { } bind def
/BDC { mark 3 1 roll /BDC pdfmark } bind def
/EMC { mark /EMC pdfmark } bind def
/cairo_store_point { /cairo_point_y exch def /cairo_point_x exch def } def
/Tj { show currentpoint cairo_store_point } bind def
/TJ {
  {
    dup
    type /stringtype eq
    { show } { -0.001 mul 0 cairo_font_matrix dtransform rmoveto } ifelse
  } forall
  currentpoint cairo_store_point
} bind def
/cairo_selectfont { cairo_font_matrix aload pop pop pop 0 0 6 array astore
    cairo_font exch selectfont cairo_point_x cairo_point_y moveto } bind def
/Tf { pop /cairo_font exch def /cairo_font_matrix where
      { pop cairo_selectfont } if } bind def
/Td { matrix translate cairo_font_matrix matrix concatmatrix dup
      /cairo_font_matrix exch def dup 4 get exch 5 get cairo_store_point
      /cairo_font where { pop cairo_selectfont } if } bind def
/Tm { 2 copy 8 2 roll 6 array astore /cairo_font_matrix exch def
      cairo_store_point /cairo_font where { pop cairo_selectfont } if } bind def
/g { setgray } bind def
/rg { setrgbcolor } bind def
/d1 { setcachedevice } bind def
/cairo_data_source {
  CairoDataIndex CairoData length lt
    { CairoData CairoDataIndex get /CairoDataIndex CairoDataIndex 1 add def }
    { () } ifelse
} def
/cairo_flush_ascii85_file { cairo_ascii85_file status { cairo_ascii85_file flushfile } if } def
/cairo_image { image cairo_flush_ascii85_file } def
/cairo_imagemask { imagemask cairo_flush_ascii85_file } def
%%EndProlog
%%BeginSetup
%%EndSetup
%%Page: 1 1
%%BeginPageSetup
%%PageBoundingBox: 0 12 384 372
%%EndPageSetup
q 0 12 384 360 rectclip
1 0 0 -1 0 384 cm q
0.866667 0.917647 0.984314 rg
31.57 184.207 m 218.809 184.207 l 222.977 184.207 224.336 186.184 223.785
 189.969 c 198.676 360.027 l 198.145 363.535 195.871 365.789 192 365.789
 c 64.207 365.789 l 60.676 365.789 58.102 363.855 57.531 360.027 c h
31.57 184.207 m f*
0.796078 0.886275 1 rg
200.609 184.207 m 218.809 184.207 l 222.977 184.207 224.336 186.184 223.785
 189.969 c 198.676 360.027 l 198.145 363.535 195.871 365.789 192 365.789
 c 173.801 365.789 l 177.672 365.789 179.945 363.535 180.477 360.027 c 205.586
 189.969 l 206.137 186.184 204.777 184.207 200.609 184.207 c h
200.609 184.207 m f*
0.615686 0.776471 0.984314 rg
79.004 184.207 m 79.004 295.59 l 79.004 298.777 76.387 301.414 73.176 301.414
 c 11.461 301.414 l 8.25 301.414 5.633 298.777 5.633 295.59 c 5.633 184.207
 l 5.633 171.918 15.582 161.969 27.871 161.969 c 101.242 161.969 l 101.242
 184.207 l h
79.004 184.207 m f*
0.329412 0.564706 0.976471 rg
101.242 161.969 m 113.508 161.969 123.477 171.918 123.477 184.207 c 79.004
 184.207 l 79.004 171.918 88.953 161.969 101.242 161.969 c h
101.242 161.969 m f*
0.4 0.701961 0.580392 rg
140.082 184.207 m 149.82 148.723 182.688 109.734 194.723 61.875 c 216.938
 67.469 l 206.691 108.203 212.793 150.426 209.793 184.207 c h
140.082 184.207 m f*
0.352941 0.65098 0.529412 rg
198.461 62.812 m 216.938 67.469 l 206.691 108.203 212.793 150.426 209.793
 184.207 c 191.598 184.207 l 194.574 149.066 188.621 105.227 198.461 62.812
 c h
198.461 62.812 m f*
0.992157 0.701961 0.262745 rg
205.648 18.398 m 227.867 23.992 l 231.035 24.777 232.969 28.008 232.184
 31.176 c 224.125 63.176 l 223.336 66.32 220.105 68.254 216.938 67.469 c
 194.723 61.875 l 191.555 61.09 189.617 57.859 190.426 54.691 c 198.461 
22.695 l 199.25 19.547 202.48 17.594 205.648 18.398 c h
205.648 18.398 m f*
0.945098 0.796078 0.52549 rg
302.723 222.668 m 302.723 271.84 l 302.723 285.512 291.52 296.715 277.848
 296.715 c 264.18 296.715 252.996 285.512 252.996 271.84 c 252.996 222.668
 l h
378.387 222.668 m 378.387 271.84 l 378.387 285.512 367.184 296.715 353.516
 296.715 c 339.844 296.715 328.66 285.512 328.66 271.84 c 328.66 222.668
 l h
378.387 222.668 m f*
0.92549 0.745098 0.419608 rg
302.723 222.668 m 302.723 271.84 l 302.723 285.512 291.52 296.715 277.848
 296.715 c 274.637 296.715 271.578 296.098 268.75 294.973 c 277.953 291.316
 284.504 282.301 284.504 271.84 c 284.504 222.668 l h
378.387 222.668 m 378.387 271.84 l 378.387 285.512 367.184 296.715 353.516
 296.715 c 350.301 296.715 347.242 296.098 344.414 294.973 c 353.617 291.316
 360.188 282.301 360.188 271.84 c 360.188 222.668 l h
378.387 222.668 m f*
0.92549 0.956863 1 rg
302.723 204.402 m 302.723 222.668 l 252.996 222.668 l 252.996 204.402 l
 252.996 201.195 255.609 198.578 258.82 198.578 c 296.898 198.578 l 300.086
 198.578 302.723 201.195 302.723 204.402 c h
378.387 204.402 m 378.387 222.668 l 328.66 222.668 l 328.66 204.402 l 328.66
 201.195 331.273 198.578 334.484 198.578 c 372.562 198.578 l 375.75 198.578
 378.387 201.195 378.387 204.402 c h
378.387 204.402 m f*
0.866667 0.917647 0.984314 rg
302.723 204.402 m 302.723 222.668 l 284.504 222.668 l 284.504 204.402 l
 284.504 201.195 281.887 198.578 278.699 198.578 c 296.898 198.578 l 300.086
 198.578 302.723 201.195 302.723 204.402 c h
378.387 204.402 m 378.387 222.668 l 360.188 222.668 l 360.188 204.402 l
 360.188 201.195 357.551 198.578 354.363 198.578 c 372.562 198.578 l 375.75
 198.578 378.387 201.195 378.387 204.402 c h
378.387 204.402 m f*
0.501961 0.705882 0.984314 rg
60.805 295.59 m 60.805 298.777 58.188 301.414 54.98 301.414 c 73.176 301.414
 l 76.387 301.414 79.004 298.777 79.004 295.59 c 79.004 258.449 79.004 221.328
 79.004 184.207 c 79.004 171.918 88.953 161.969 101.242 161.969 c 83.043
 161.969 l 70.754 161.969 60.805 171.918 60.805 184.207 c h
60.805 295.59 m f*
0 g
73.367 184.207 m 73.367 177.977 75.41 172.238 78.875 167.602 c 27.871 167.602
 l 23.277 167.602 19.113 169.453 16.113 172.449 c 13.117 175.469 11.246 
179.617 11.246 184.207 c 11.246 295.781 l 73.367 295.781 l 73.367 265.781
 l 73.367 262.68 75.898 260.172 79.004 260.172 c 82.105 260.172 84.613 262.68
 84.613 265.781 c 84.613 301.414 l 84.613 304.52 82.105 307.027 79.004 307.027
 c 55.383 307.027 l 63.227 360.156 l 192.977 360.156 l 203.801 286.789 l
 204.27 283.703 207.117 281.578 210.18 282.047 c 213.262 282.492 215.387
 285.344 214.918 288.402 c 203.375 366.598 l 202.969 369.34 200.609 371.402
 197.824 371.402 c 58.379 371.402 l 55.469 371.402 53.066 369.172 52.789
 366.324 c 44.031 307.027 l 5.633 307.027 l 2.531 307.027 0 304.52 0 301.414
 c 0 184.207 l 0 176.512 3.125 169.539 8.164 164.5 c 13.203 159.461 20.176
 156.336 27.871 156.336 c 101.242 156.336 l 108.938 156.336 115.887 159.461
 120.926 164.5 c 124.711 168.285 127.41 173.152 128.516 178.574 c 135.895
 178.574 l 140.805 163.203 149.371 147.492 158.516 130.738 c 169.594 110.395
 181.539 88.496 188.215 64.492 c 187.473 63.77 186.812 62.941 186.281 62.047
 c 184.75 59.516 184.199 56.391 184.961 53.332 c 193.02 21.332 l 193.785
 18.254 195.742 15.766 198.293 14.254 c 200.887 12.703 204.098 12.172 207.008
 12.957 c 228.93 18.465 l 231.906 19.207 234.754 21.207 236.328 23.82 c 
237.879 26.414 238.453 29.922 237.539 32.859 c 229.586 64.535 l 228.801 
67.598 226.844 70.082 224.293 71.613 c 223.402 72.145 222.441 72.57 221.422
 72.848 c 220.785 75.781 220.188 78.715 219.699 81.648 c 218.957 86.008 
218.359 90.32 217.914 94.574 c 217.594 97.656 214.832 99.891 211.75 99.551
 c 208.668 99.23 206.434 96.469 206.754 93.383 c 207.242 88.789 207.859 
84.262 208.625 79.754 c 209.09 77.035 209.621 74.293 210.219 71.57 c 198.719
 68.68 l 192.125 91.703 181.133 112.562 170.57 131.992 c 172.27 133.246 
174.121 134.395 176.117 135.438 c 177.84 136.352 179.688 137.16 181.625 
137.883 c 181.879 136.902 l 182.645 133.883 185.684 132.055 188.703 132.801
 c 191.703 133.566 193.531 136.605 192.785 139.625 c 192.531 140.625 l 194.57
 140.898 196.59 141.047 198.523 141.07 c 200.777 141.09 202.969 140.941 
205.051 140.645 c 205.008 133.652 205.008 126.488 205.18 119.281 c 205.266
 116.176 207.816 113.73 210.918 113.797 c 214.004 113.879 216.469 116.453
 216.383 119.535 c 215.914 139.137 216.98 159.035 215.832 178.574 c 224.633
 178.574 l 228.203 178.574 230.84 181.848 230.16 185.312 c 218.656 263.211
 l 218.191 266.273 215.34 268.398 212.277 267.949 c 209.199 267.504 207.07
 264.633 207.539 261.574 c 218.125 189.82 l 173.629 189.82 129.133 189.82
 84.613 189.82 c 84.613 204.066 l 196.891 204.066 l 199.996 204.066 202.523
 206.574 202.523 209.676 c 202.523 212.781 199.996 215.312 196.891 215.312
 c 84.613 215.312 l 84.613 240.312 l 84.613 243.418 82.105 245.926 79.004
 245.926 c 75.898 245.926 73.367 243.418 73.367 240.312 c h
355.617 251.453 m 352.512 251.453 349.984 248.922 349.984 245.82 c 349.984
 242.715 352.512 240.184 355.617 240.184 c 357.828 240.184 l 360.934 240.184
 363.461 242.715 363.461 245.82 c 363.461 248.922 360.934 251.453 357.828
 251.453 c h
279.953 251.453 m 276.848 251.453 274.32 248.922 274.32 245.82 c 274.32
 242.715 276.848 240.184 279.953 240.184 c 282.164 240.184 l 285.27 240.184
 287.797 242.715 287.797 245.82 c 287.797 248.922 285.27 251.453 282.164
 251.453 c h
348.199 273.672 m 345.094 273.672 342.586 271.16 342.586 268.059 c 342.586
 264.953 345.094 262.422 348.199 262.422 c 350.43 262.422 l 353.535 262.422
 356.043 264.953 356.043 268.059 c 356.043 271.16 353.535 273.672 350.43
 273.672 c h
272.531 273.672 m 269.43 273.672 266.898 271.16 266.898 268.059 c 266.898
 264.953 269.43 262.422 272.531 262.422 c 274.766 262.422 l 277.867 262.422
 280.379 264.953 280.379 268.059 c 280.379 271.16 277.867 273.672 274.766
 273.672 c h
334.613 371.402 m 331.508 371.402 329 368.895 329 365.789 c 329 362.664
 331.508 360.156 334.613 360.156 c 347.898 360.156 l 347.898 301.797 l 341.758
 300.648 336.25 297.629 331.977 293.379 c 326.449 287.852 323.027 280.238
 323.027 271.84 c 323.027 198.578 l 323.027 195.473 325.555 192.945 328.66
 192.945 c 378.387 192.945 l 381.492 192.945 384 195.473 384 198.578 c 384
 271.84 l 384 280.238 380.578 287.852 375.051 293.379 c 370.797 297.629 
365.289 300.648 359.148 301.797 c 359.148 360.156 l 372.414 360.156 l 375.516
 360.156 378.047 362.664 378.047 365.789 c 378.047 368.895 375.516 371.402
 372.414 371.402 c h
258.949 371.402 m 255.844 371.402 253.336 368.895 253.336 365.789 c 253.336
 362.664 255.844 360.156 258.949 360.156 c 272.234 360.156 l 272.234 301.797
 l 266.07 300.648 260.562 297.629 256.312 293.379 c 250.785 287.852 247.359
 280.238 247.359 271.84 c 247.359 198.578 l 247.359 195.473 249.871 192.945
 252.996 192.945 c 302.723 192.945 l 305.828 192.945 308.336 195.473 308.336
 198.578 c 308.336 271.84 l 308.336 280.238 304.914 287.852 299.383 293.379
 c 295.133 297.629 289.625 300.648 283.48 301.797 c 283.48 360.156 l 296.746
 360.156 l 299.852 360.156 302.383 362.664 302.383 365.789 c 302.383 368.895
 299.852 371.402 296.746 371.402 c h
372.754 228.281 m 334.273 228.281 l 334.273 271.84 l 334.273 277.137 336.441
 281.941 339.926 285.426 c 343.414 288.914 348.238 291.082 353.512 291.082
 c 358.809 291.082 363.609 288.914 367.098 285.426 c 370.586 281.941 372.754
 277.133 372.754 271.84 c h
334.273 217.031 m 372.754 217.031 l 372.754 204.191 l 334.273 204.191 l
 h
297.09 228.281 m 258.609 228.281 l 258.609 271.84 l 258.609 277.137 260.777
 281.941 264.262 285.426 c 267.75 288.914 272.574 291.082 277.848 291.082
 c 283.141 291.082 287.945 288.914 291.434 285.426 c 294.918 281.941 297.086
 277.133 297.086 271.84 c 297.086 228.281 l h
258.609 217.031 m 297.09 217.031 l 297.09 204.191 l 258.609 204.191 l h
189.789 151.574 m 189.387 153.102 l 188.641 156.102 185.602 157.93 182.582
 157.188 c 179.586 156.441 177.734 153.379 178.5 150.383 c 178.883 148.832
 l 176.098 147.852 173.441 146.684 170.934 145.367 c 168.914 144.305 167
 143.156 165.191 141.902 c 158.219 154.762 151.84 166.965 147.715 178.574
 c 204.609 178.574 l 205.117 170.176 205.16 161.227 205.117 151.934 c 202.949
 152.188 200.719 152.297 198.441 152.273 c 195.594 152.254 192.703 152.02
 189.789 151.574 c h
196.082 56.434 m 218.297 62.027 l 218.406 62.047 218.637 61.961 218.68 
61.789 c 226.719 29.816 l 226.762 29.645 226.676 29.477 226.508 29.434 c
 204.289 23.84 l 204.117 23.801 203.949 23.883 203.906 24.055 c 195.871 
56.051 l 195.828 56.223 195.91 56.391 196.082 56.434 c h
85.594 178.574 m 116.867 178.574 l 116.039 176.258 114.699 174.172 112.977
 172.453 c 109.977 169.453 105.812 167.605 101.242 167.605 c 96.648 167.605
 92.504 169.453 89.484 172.453 c 87.781 174.172 86.445 176.258 85.594 178.574
 c h
76.43 345.934 m 73.324 345.934 70.797 343.402 70.797 340.301 c 70.797 337.195
 73.324 334.664 76.43 334.664 c 179.773 334.664 l 182.879 334.664 185.41
 337.195 185.41 340.301 c 185.41 343.402 182.879 345.934 179.773 345.934
 c h
76.43 345.934 m f
Q Q
showpage
%%Trailer
end
%%EOF
