%!PS-Adobe-3.0 EPSF-3.0
%%Creator: cairo 1.16.0 (https://cairographics.org)
%%CreationDate: Thu Dec 10 07:55:04 2020
%%Pages: 1
%%DocumentData: Clean7Bit
%%LanguageLevel: 2
%%BoundingBox: 85 0 299 384
%%EndComments
%%BeginProlog
50 dict begin
/q { gsave } bind def
/Q { grestore } bind def
/cm { 6 array astore concat } bind def
/w { setlinewidth } bind def
/J { setlinecap } bind def
/j { setlinejoin } bind def
/M { setmiterlimit } bind def
/d { setdash } bind def
/m { moveto } bind def
/l { lineto } bind def
/c { curveto } bind def
/h { closepath } bind def
/re { exch dup neg 3 1 roll 5 3 roll moveto 0 rlineto
      0 exch rlineto 0 rlineto closepath } bind def
/S { stroke } bind def
/f { fill } bind def
/f* { eofill } bind def
/n { newpath } bind def
/W { clip } bind def
/W* { eoclip } bind def
/BT { } bind def
/ET { } bind def
/BDC { mark 3 1 roll /BDC pdfmark } bind def
/EMC { mark /EMC pdfmark } bind def
/cairo_store_point { /cairo_point_y exch def /cairo_point_x exch def } def
/Tj { show currentpoint cairo_store_point } bind def
/TJ {
  {
    dup
    type /stringtype eq
    { show } { -0.001 mul 0 cairo_font_matrix dtransform rmoveto } ifelse
  } forall
  currentpoint cairo_store_point
} bind def
/cairo_selectfont { cairo_font_matrix aload pop pop pop 0 0 6 array astore
    cairo_font exch selectfont cairo_point_x cairo_point_y moveto } bind def
/Tf { pop /cairo_font exch def /cairo_font_matrix where
      { pop cairo_selectfont } if } bind def
/Td { matrix translate cairo_font_matrix matrix concatmatrix dup
      /cairo_font_matrix exch def dup 4 get exch 5 get cairo_store_point
      /cairo_font where { pop cairo_selectfont } if } bind def
/Tm { 2 copy 8 2 roll 6 array astore /cairo_font_matrix exch def
      cairo_store_point /cairo_font where { pop cairo_selectfont } if } bind def
/g { setgray } bind def
/rg { setrgbcolor } bind def
/d1 { setcachedevice } bind def
/cairo_data_source {
  CairoDataIndex CairoData length lt
    { CairoData CairoDataIndex get /CairoDataIndex CairoDataIndex 1 add def }
    { () } ifelse
} def
/cairo_flush_ascii85_file { cairo_ascii85_file status { cairo_ascii85_file flushfile } if } def
/cairo_image { image cairo_flush_ascii85_file } def
/cairo_imagemask { imagemask cairo_flush_ascii85_file } def
%%EndProlog
%%BeginSetup
%%EndSetup
%%Page: 1 1
%%BeginPageSetup
%%PageBoundingBox: 85 0 299 384
%%EndPageSetup
q 85 0 214 384 rectclip
1 0 0 -1 0 384 cm q
0.92549 0.956863 1 rg
117.578 350.367 m 266.422 350.367 l 274.137 350.367 280.434 356.66 280.434
 364.379 c 280.434 372.074 274.137 378.387 266.422 378.387 c 117.578 378.387
 l 109.883 378.387 103.57 372.074 103.57 364.379 c 103.57 356.66 109.883
 350.367 117.578 350.367 c h
117.578 33.656 m 266.422 33.656 l 274.137 33.656 280.434 27.34 280.434 
19.645 c 280.434 11.926 274.137 5.633 266.422 5.633 c 117.578 5.633 l 109.883
 5.633 103.57 11.926 103.57 19.645 c 103.57 27.34 109.883 33.656 117.578
 33.656 c h
117.578 33.656 m f*
0.866667 0.917647 0.984314 rg
248.223 350.367 m 266.422 350.367 l 274.137 350.367 280.434 356.66 280.434
 364.379 c 280.434 372.074 274.137 378.387 266.422 378.387 c 248.223 378.387
 l 255.941 378.387 262.234 372.074 262.234 364.379 c 262.234 356.66 255.941
 350.367 248.223 350.367 c h
248.223 33.656 m 266.422 33.656 l 274.137 33.656 280.434 27.34 280.434 
19.645 c 280.434 11.926 274.137 5.633 266.422 5.633 c 248.223 5.633 l 255.941
 5.633 262.234 11.926 262.234 19.645 c 262.234 27.34 255.941 33.656 248.223
 33.656 c h
248.223 33.656 m f*
0.615686 0.776471 0.984314 rg
91.133 324.473 m 187.672 330.66 l 292.891 324.473 l 292.891 59.551 l 192.055
 53.363 l 91.133 59.551 l h
91.133 324.473 m f*
0.796078 0.886275 1 rg
117.578 350.367 m 266.422 350.367 l 292.891 324.473 l 91.133 324.473 l 
h
117.578 33.656 m 266.422 33.656 l 292.891 59.551 l 91.133 59.551 l h
117.578 33.656 m f*
0.745098 0.847059 0.984314 rg
248.223 350.367 m 266.422 350.367 l 292.891 324.473 l 274.672 324.473 l
 h
248.223 33.656 m 266.422 33.656 l 292.891 59.551 l 274.672 59.551 l h
248.223 33.656 m f*
0.501961 0.705882 0.984314 rg
274.672 59.551 18.219 264.922 re f*
0.992157 0.701961 0.262745 rg
265.59 324.473 m 292.891 324.473 l 292.891 234.008 l 118.41 59.551 l 91.133
 59.551 l 91.133 149.992 l h
265.59 324.473 m f*
0.905882 0.647059 0.180392 rg
274.672 324.473 m 292.891 324.473 l 292.891 234.008 l 274.672 215.812 l
 h
274.672 324.473 m f*
0.854902 0.290196 0.329412 rg
192.012 291.391 m 226.09 291.391 253.879 246.746 253.879 192 c 253.879 
137.277 226.09 92.629 192.012 92.629 c 157.91 92.629 130.125 137.277 130.125
 192 c 130.121 246.746 157.91 291.391 192.012 291.391 c h
192.012 291.391 m f*
0.847059 0.180392 0.239216 rg
192.012 92.629 m 226.176 92.629 253.879 137.129 253.879 192 c 253.879 246.895
 226.176 291.391 192.012 291.391 c 188.906 291.391 185.867 291.008 182.91
 290.309 c 212.762 283.25 235.68 241.918 235.68 192 c 235.68 142.082 212.762
 100.773 182.91 93.691 c 185.867 92.992 188.906 92.629 192.012 92.629 c 
h
192.012 92.629 m f*
0.996078 0.85098 0.643137 rg
192.012 185.812 m 206.637 185.812 218.586 173.887 218.586 159.238 c 218.586
 144.613 206.637 132.664 192.012 132.664 c 177.363 132.664 165.438 144.613
 165.438 159.238 c 165.438 173.887 177.363 185.812 192.012 185.812 c h
192.012 185.812 m f*
0 g
119.855 344.734 m 264.145 344.734 l 279.113 330.086 l 104.887 330.086 l
 h
192.012 127.051 m 200.898 127.051 208.934 130.645 214.781 136.469 c 220.605
 142.293 224.199 150.352 224.199 159.238 c 224.199 168.125 220.605 176.184
 214.781 182.008 c 208.934 187.832 200.898 191.449 192.012 191.449 c 183.102
 191.449 175.066 187.832 169.242 182.008 c 163.418 176.184 159.801 168.125
 159.801 159.238 c 159.801 150.352 163.418 142.293 169.242 136.469 c 175.066
 130.645 183.102 127.051 192.012 127.051 c h
206.809 144.422 m 203.023 140.637 197.793 138.297 192.012 138.297 c 186.227
 138.297 180.977 140.637 177.191 144.422 c 173.406 148.227 171.047 153.457
 171.047 159.238 c 171.047 165.02 173.406 170.273 177.191 174.059 c 180.977
 177.84 186.227 180.199 192.012 180.199 c 197.793 180.199 203.023 177.84
 206.809 174.059 c 210.613 170.273 212.953 165.02 212.953 159.238 c 212.953
 153.457 210.613 148.227 206.809 144.422 c h
192.012 86.996 m 211.168 86.996 228.301 99.137 240.527 118.758 c 253.922
 140.273 259.617 167.57 259.512 192.68 c 287.258 220.426 l 287.258 106.852
 l 287.258 103.75 289.766 101.242 292.891 101.242 c 295.996 101.242 298.504
 103.75 298.504 106.852 c 298.504 324.473 l 298.504 326.195 297.738 327.746
 296.504 328.766 c 277.008 347.836 l 278.199 348.602 279.305 349.496 280.305
 350.496 c 283.855 354.043 286.066 358.957 286.066 364.379 c 286.066 369.777
 283.855 374.688 280.305 378.238 c 276.754 381.789 271.844 384 266.422 384
 c 117.578 384 l 112.18 384 107.27 381.789 103.695 378.238 c 100.148 374.688
 97.934 369.777 97.934 364.379 c 97.934 358.957 100.145 354.047 103.695 
350.496 c 104.695 349.496 105.801 348.602 106.992 347.836 c 87.496 328.766
 l 86.199 327.684 85.52 326.152 85.496 324.473 c 85.496 302.637 l 85.496
 299.512 88.027 297.004 91.133 297.004 c 94.234 297.004 96.746 299.512 96.746
 302.637 c 96.746 318.836 l 252.027 318.836 l 220.52 287.352 l 211.891 293.539
 202.238 297.004 192.012 297.004 c 172.836 297.004 155.699 284.863 143.473
 265.242 c 130.082 243.727 124.383 216.43 124.488 191.32 c 96.746 163.574
 l 96.746 277.148 l 96.746 280.25 94.234 282.781 91.133 282.781 c 88.027
 282.781 85.496 280.25 85.496 277.148 c 85.496 59.551 l 85.52 57.848 86.223
 56.316 87.496 55.234 c 106.992 36.164 l 105.801 35.398 104.695 34.504 103.695
 33.508 c 100.145 29.957 97.934 25.043 97.934 19.645 c 97.934 14.242 100.145
 9.332 103.695 5.762 c 107.27 2.211 112.18 0 117.578 0 c 221.945 0 l 225.051
 0 227.578 2.531 227.578 5.633 c 227.578 8.738 225.051 11.246 221.945 11.246
 c 117.578 11.246 l 115.285 11.246 113.18 12.203 111.668 13.715 c 110.137
 15.242 109.203 17.348 109.203 19.645 c 109.203 21.941 110.137 24.047 111.668
 25.555 c 113.18 27.086 115.285 28.023 117.578 28.023 c 266.422 28.023 l
 268.719 28.023 270.82 27.086 272.352 25.555 c 273.863 24.047 274.82 21.941
 274.82 19.645 c 274.82 17.348 273.863 15.242 272.352 13.715 c 270.82 12.203
 268.715 11.246 266.422 11.246 c 247.438 11.246 l 244.309 11.246 241.801
 8.738 241.801 5.633 c 241.801 2.531 244.309 0 247.438 0 c 266.422 0 l 271.844
 0 276.754 2.211 280.305 5.762 c 283.855 9.332 286.066 14.246 286.066 19.645
 c 286.066 25.043 283.855 29.957 280.305 33.508 c 279.305 34.504 278.199
 35.398 277.008 36.164 c 296.504 55.234 l 297.738 56.277 298.504 57.805 
298.504 59.551 c 298.504 81.383 l 298.504 84.488 295.992 86.996 292.891 
86.996 c 289.766 86.996 287.258 84.488 287.258 81.383 c 287.258 65.164 l
 131.992 65.164 l 163.5 96.668 l 172.133 90.461 181.785 86.996 192.012 86.996
 c h
258.746 207.84 m 256.621 230.035 250.051 249.953 240.527 265.242 c 237.082
 270.789 233.234 275.723 229.066 279.973 c 267.93 318.836 l 287.258 318.836
 l 287.258 236.348 l h
125.254 176.16 m 127.402 153.965 133.973 134.047 143.473 118.758 c 146.938
 113.23 150.766 108.277 154.953 104.027 c 116.07 65.164 l 96.746 65.164 
l 96.746 147.672 l h
231.004 124.691 m 220.816 108.363 207.02 98.242 192.012 98.242 c 176.98
 98.242 163.184 108.363 153.02 124.691 c 142.348 141.828 135.734 165.617
 135.734 192 c 135.734 218.383 142.348 242.172 153.02 259.309 c 163.184 
275.66 176.98 285.758 192.012 285.758 c 207.02 285.758 220.816 275.66 231.004
 259.309 c 241.652 242.172 248.266 218.383 248.266 192 c 248.266 165.617
 241.652 141.828 231.004 124.691 c h
119.855 39.27 m 104.887 53.914 l 279.113 53.914 l 264.145 39.27 l h
266.422 355.98 m 117.578 355.98 l 115.285 355.98 113.18 356.934 111.668
 358.445 c 110.137 359.977 109.203 362.059 109.203 364.375 c 109.203 366.672
 110.137 368.758 111.668 370.285 c 113.18 371.816 115.285 372.754 117.578
 372.754 c 266.422 372.754 l 268.719 372.754 270.82 371.816 272.352 370.285
 c 273.863 368.758 274.82 366.672 274.82 364.375 c 274.82 362.059 273.863
 359.977 272.352 358.445 c 270.82 356.938 268.715 355.98 266.422 355.98 
c h
266.422 355.98 m f
Q Q
showpage
%%Trailer
end
%%EOF
