%!PS-Adobe-3.0 EPSF-3.0
%%Creator: cairo 1.16.0 (https://cairographics.org)
%%CreationDate: Thu Dec 10 07:55:05 2020
%%Pages: 1
%%DocumentData: Clean7Bit
%%LanguageLevel: 2
%%BoundingBox: 33 0 351 384
%%EndComments
%%BeginProlog
50 dict begin
/q { gsave } bind def
/Q { grestore } bind def
/cm { 6 array astore concat } bind def
/w { setlinewidth } bind def
/J { setlinecap } bind def
/j { setlinejoin } bind def
/M { setmiterlimit } bind def
/d { setdash } bind def
/m { moveto } bind def
/l { lineto } bind def
/c { curveto } bind def
/h { closepath } bind def
/re { exch dup neg 3 1 roll 5 3 roll moveto 0 rlineto
      0 exch rlineto 0 rlineto closepath } bind def
/S { stroke } bind def
/f { fill } bind def
/f* { eofill } bind def
/n { newpath } bind def
/W { clip } bind def
/W* { eoclip } bind def
/BT { } bind def
/ET { } bind def
/BDC { mark 3 1 roll /BDC pdfmark } bind def
/EMC { mark /EMC pdfmark } bind def
/cairo_store_point { /cairo_point_y exch def /cairo_point_x exch def } def
/Tj { show currentpoint cairo_store_point } bind def
/TJ {
  {
    dup
    type /stringtype eq
    { show } { -0.001 mul 0 cairo_font_matrix dtransform rmoveto } ifelse
  } forall
  currentpoint cairo_store_point
} bind def
/cairo_selectfont { cairo_font_matrix aload pop pop pop 0 0 6 array astore
    cairo_font exch selectfont cairo_point_x cairo_point_y moveto } bind def
/Tf { pop /cairo_font exch def /cairo_font_matrix where
      { pop cairo_selectfont } if } bind def
/Td { matrix translate cairo_font_matrix matrix concatmatrix dup
      /cairo_font_matrix exch def dup 4 get exch 5 get cairo_store_point
      /cairo_font where { pop cairo_selectfont } if } bind def
/Tm { 2 copy 8 2 roll 6 array astore /cairo_font_matrix exch def
      cairo_store_point /cairo_font where { pop cairo_selectfont } if } bind def
/g { setgray } bind def
/rg { setrgbcolor } bind def
/d1 { setcachedevice } bind def
/cairo_data_source {
  CairoDataIndex CairoData length lt
    { CairoData CairoDataIndex get /CairoDataIndex CairoDataIndex 1 add def }
    { () } ifelse
} def
/cairo_flush_ascii85_file { cairo_ascii85_file status { cairo_ascii85_file flushfile } if } def
/cairo_image { image cairo_flush_ascii85_file } def
/cairo_imagemask { imagemask cairo_flush_ascii85_file } def
%%EndProlog
%%BeginSetup
%%EndSetup
%%Page: 1 1
%%BeginPageSetup
%%PageBoundingBox: 33 0 351 384
%%EndPageSetup
q 33 0 318 384 rectclip
1 0 0 -1 0 384 cm q
0.905882 0.647059 0.180392 rg
201.652 86.363 m 201.652 41.617 165.375 5.32 120.609 5.32 c 75.867 5.32
 39.59 41.617 39.59 86.363 c 39.59 131.105 75.867 167.383 120.609 167.383
 c 123.016 167.383 125.375 167.277 127.695 167.086 c 120.609 86.363 l h
201.652 86.363 m f*
0.984314 0.6 0 rg
201.652 86.363 m 201.652 41.617 165.375 5.32 120.609 5.32 c 117.547 5.32
 114.504 5.512 111.527 5.852 c 151.992 10.363 183.441 44.68 183.441 86.363
 c h
201.652 86.363 m f*
0.866667 0.917647 0.984314 rg
338.824 86.363 m 342.57 86.363 344.504 87.957 344.121 92.148 c 321.102 
354.531 l 319.973 367.426 310.527 378.062 297.57 378.062 c 167.676 378.062
 l 154.738 378.062 145.27 367.426 144.141 354.531 c 121.121 92.148 l 120.758
 87.871 122.566 86.363 126.441 86.363 c h
338.824 86.363 m f*
0.796078 0.886275 1 rg
338.824 86.363 m 342.57 86.363 344.504 87.957 344.121 92.148 c 321.102 
354.531 l 319.973 367.426 310.527 378.062 297.57 378.062 c 283.566 378.062
 l 294.312 376.043 301.91 366.34 302.91 354.871 c 325.93 91.789 l 326.207
 88.746 325.25 87.043 323.293 86.363 c h
338.824 86.363 m f*
0.945098 0.435294 0.509804 rg
125.93 146.914 m 143.102 342.555 l 322.164 342.555 l 339.336 146.914 l 
324.102 143.043 308.887 135.363 293.676 135.363 c 273.312 135.363 252.973
 149.105 232.633 149.105 c 212.293 149.105 191.93 135.363 171.59 135.363
 c 156.375 135.363 141.141 143.043 125.93 146.914 c h
125.93 146.914 m f*
0.866667 0.388235 0.431373 rg
303.992 342.555 m 322.164 342.555 l 339.336 146.914 l 333.418 145.426 327.504
 143.34 321.59 141.363 c h
303.992 342.555 m f*
0.905882 0.647059 0.180392 rg
182.609 210.172 m 161.887 235.234 163.102 272.363 186.547 295.809 c 210.035
 319.277 247.207 320.488 272.27 299.703 c 276.121 296.512 275.695 294.871
 272.398 291.703 c 231.547 250.828 l 190.676 209.98 l 188.953 208.297 186.121
 205.914 182.609 210.172 c h
182.609 210.172 m f*
0.984314 0.6 0 rg
182.609 210.172 m 181.102 212 179.695 213.914 178.398 215.895 c 190.484
 227.98 l 192.547 224.277 195.164 220.766 198.332 217.617 c 190.676 209.98
 l 188.953 208.297 186.121 205.914 182.609 210.172 c h
254.398 291.871 m 257.504 294.938 257.844 296.574 254.078 299.703 c 244.738
 307.445 233.738 312.129 222.375 313.766 c 239.758 316.254 257.992 311.555
 272.27 299.703 c 276.121 296.512 275.695 294.871 272.398 291.703 c 264.758
 284.043 l 261.59 287.191 258.102 289.809 254.398 291.871 c h
254.398 291.871 m f*
0.960784 0.980392 1 rg
161.992 123.746 m 196.547 108.191 l 201.398 106 207.141 108.172 209.312
 113.02 c 224.887 147.574 l 227.078 152.426 224.887 158.172 220.059 160.363
 c 185.484 175.914 l 180.633 178.105 174.887 175.914 172.719 171.086 c 157.141
 136.512 l 154.973 131.68 157.141 125.938 161.992 123.746 c h
161.992 123.746 m f*
0.92549 0.956863 1 rg
189.992 111.129 m 196.547 108.191 l 201.398 106 207.141 108.172 209.312
 113.02 c 224.887 147.594 l 227.078 152.426 224.887 158.168 220.059 160.359
 c 185.484 175.914 l 181.336 177.785 176.504 176.445 173.844 172.977 c 201.844
 160.359 l 206.695 158.168 208.867 152.426 206.695 147.594 c 191.121 113.02
 l 190.824 112.34 190.441 111.703 189.992 111.129 c h
189.992 111.129 m f*
0.960784 0.980392 1 rg
257.609 169.746 m 301.164 173.469 l 307.27 173.98 311.824 179.406 311.312
 185.512 c 307.566 229.043 l 307.059 235.148 301.633 239.723 295.527 239.191
 c 251.992 235.469 l 245.887 234.957 241.332 229.531 241.844 223.426 c 245.566
 179.895 l 246.102 173.785 251.504 169.211 257.609 169.746 c h
257.609 169.746 m f*
0.92549 0.956863 1 rg
287.164 172.277 m 301.164 173.469 l 307.25 173.98 311.824 179.406 311.312
 185.512 c 307.57 229.043 l 307.059 235.148 301.633 239.723 295.527 239.191
 c 283.121 238.129 l 286.527 236.488 289.016 233.129 289.355 229.086 c 293.145
 183.105 l 293.504 178.512 291.016 174.297 287.164 172.277 c h
287.164 172.277 m f*
0.701961 0.898039 0.623529 rg
245.719 110.828 m 263.184 120.914 285.695 114.98 299.695 90.746 c 312.504
 68.555 313.355 42.68 304.293 20.32 c 301.379 13.129 302.57 13.789 294.91
 14.832 c 270.973 18.148 248.953 31.832 236.145 54.043 c 222.141 78.297 
228.25 100.746 245.719 110.828 c h
245.719 110.828 m f*
0 g
253.527 108.637 m 259.484 110.703 265.887 110.746 272.078 108.637 c 280.418
 105.809 288.441 99.086 294.719 88.234 c 294.758 88.129 294.844 88.02 294.887
 87.914 c 295.164 87.445 295.418 87 295.676 86.531 c 260.91 95.828 l h
301.227 73.383 m 303.355 66.637 304.441 59.766 304.59 52.68 c 282.375 58.637
 l 268.867 82.062 l h
260.504 21.488 m 272.762 14.02 286.738 9.723 301.102 8.895 c 303.293 8.766
 305.504 10.023 306.441 12.043 c 312.887 24.871 316.145 39.086 315.781 53.406
 c 315.57 62.852 313.781 72.191 310.484 81.023 c 344.527 81.023 l 347.887
 81.023 350.484 83.938 350.121 87.254 c 339.484 208.555 l 339.207 211.641
 336.484 213.938 333.398 213.66 c 330.293 213.406 327.992 210.68 328.27 
207.574 c 333.184 151.406 l 329.59 150.32 325.949 149.086 322.293 147.852
 c 312.566 144.574 302.867 141.297 293.547 141.297 c 284.25 141.297 274.527
 144.574 264.824 147.852 c 257.207 150.426 249.609 152.98 241.867 154.234
 c 238.25 154.828 234.57 155.129 230.91 155 c 230.738 155.766 230.523 156.512
 230.25 157.254 c 228.844 160.914 226.078 164.062 222.25 165.789 c 187.676
 181.34 l 183.844 183.062 179.652 183.086 176.016 181.703 c 172.336 180.297
 169.207 177.531 167.484 173.703 c 154.184 144.168 l 150.418 145.254 146.59
 146.551 142.738 147.852 c 139.078 149.086 135.441 150.316 131.824 151.402
 c 148.141 337.211 l 316.887 337.211 l 326.035 232.957 l 326.312 229.852
 329.035 227.574 332.121 227.828 c 335.227 228.105 337.523 230.832 337.25
 233.914 c 333.695 274.383 330.141 314.852 326.609 355.32 c 325.906 363.254
 322.547 370.512 317.332 375.723 c 312.227 380.828 305.375 384 297.461 384
 c 167.566 384 l 159.652 384 152.801 380.828 147.695 375.723 c 142.484 370.512
 139.121 363.254 138.418 355.32 c 133.102 294.637 127.781 233.957 122.461
 173.277 c 112.801 173.555 102.91 172.062 93.738 169.086 c 84.992 166.254
 76.867 162.062 69.59 156.785 c 67.078 154.957 66.527 151.445 68.355 148.938
 c 70.164 146.402 73.676 145.852 76.184 147.68 c 82.527 152.277 89.609 155.934
 97.207 158.402 c 105.121 160.977 113.141 162.125 121.461 162.062 c 120.332
 149.02 l 103.184 148.957 87.652 142 76.418 130.742 c 65.121 119.469 58.141
 103.871 58.141 86.66 c 58.141 69.402 65.164 53.785 76.48 42.512 c 87.758
 31.254 103.312 24.297 120.504 24.297 c 137.715 24.297 153.289 31.277 164.566
 42.555 c 174.93 52.895 181.312 66.445 182.609 81.02 c 195.695 81.02 l 194.312
 62.445 186.227 45.742 173.824 33.34 c 160.184 19.699 141.332 11.254 120.504
 11.254 c 99.676 11.254 80.824 19.699 67.184 33.34 c 53.547 46.977 45.102
 65.828 45.102 86.66 c 45.102 94.809 46.398 102.637 48.758 109.957 c 51.227
 117.551 54.887 124.637 59.484 130.957 c 61.312 133.488 60.738 137 58.227
 138.809 c 55.715 140.637 52.207 140.082 50.375 137.574 c 45.098 130.297
 40.906 122.168 38.078 113.426 c 35.332 104.977 33.844 95.977 33.844 86.656
 c 33.844 62.723 43.547 41.062 59.227 25.383 c 74.91 9.703 96.57 0 120.504
 0 c 144.441 0 166.098 9.703 181.781 25.383 c 196.227 39.828 205.59 59.34
 206.973 81.02 c 222.676 81.02 l 222.59 71.383 225.547 61.871 230.184 53.277
 c 237.207 40.277 247.91 29.172 260.504 21.488 c h
250.484 44.086 m 259.141 76.469 l 272.676 53.043 l 266.738 30.852 l 266.355
 31.086 l 260.547 34.617 255.184 38.98 250.484 44.086 c h
251.207 90.234 m 241.887 55.469 l 236.312 64.531 232.566 75.383 234.379
 86.105 c 235.504 92.871 238.824 98.703 243.824 103.023 c h
303.91 41.234 m 303.25 36.426 302.145 31.703 300.59 27.086 c 290.336 44.871
 l h
276.992 25.703 m 280.633 39.254 l 290.887 21.488 l 286.121 22.445 281.461
 23.871 276.992 25.703 c h
224.25 92.297 m 191.715 92.297 159.184 92.297 126.652 92.297 c 130.824 
139.957 l 133.633 139.086 136.398 138.148 139.184 137.211 c 142.953 135.938
 146.738 134.66 150.59 133.555 c 150.484 131.445 150.844 129.383 151.566
 127.445 c 152.973 123.746 155.91 120.512 159.57 118.914 c 194.121 103.359
 l 197.953 101.637 202.145 101.637 205.805 103.02 c 209.461 104.402 212.613
 107.191 214.336 111.02 c 229.016 143.637 l 232.207 143.895 235.312 143.785
 238.484 143.359 c 245.93 142.383 253.59 139.809 261.25 137.211 c 271.891
 133.617 282.508 130.043 293.547 130.043 c 304.59 130.043 315.23 133.617
 325.848 137.211 c 328.633 138.148 331.398 139.086 334.207 139.957 c 338.379
 92.297 l 305.316 92.297 l 298.719 104.277 288.91 114.785 275.699 119.277
 c 264.676 123.043 253.082 121.637 243.59 116.469 c 234.461 111.488 227.27
 103.023 224.25 92.297 c h
257.973 164.426 m 301.504 168.172 l 306.102 168.555 310.121 170.785 312.887
 174.086 c 315.652 177.383 317.184 181.703 316.801 186.277 c 313.078 229.809
 l 312.676 234.402 310.441 238.426 307.141 241.191 c 303.844 243.98 299.523
 245.488 294.949 245.105 c 251.59 241.406 l 247.207 241.172 242.844 238.789
 240.035 235.449 c 237.207 232.105 235.633 227.445 236.145 223.062 c 239.844
 179.723 l 240.25 175.129 242.484 171.129 245.781 168.34 c 249.078 165.574
 253.398 164.043 257.973 164.426 c h
300.59 179.383 m 257.035 175.66 l 255.504 175.512 254.059 176.02 252.992
 176.914 c 251.93 177.832 251.184 179.129 251.059 180.66 c 247.336 224.191
 l 247.207 225.723 247.695 227.172 248.609 228.234 c 249.504 229.297 250.824
 230.043 252.336 230.172 c 295.887 233.895 l 297.422 234.023 298.867 233.531
 299.93 232.617 c 300.992 231.723 301.738 230.406 301.867 228.895 c 305.59
 185.34 l 305.719 183.809 305.207 182.383 304.312 181.297 c 303.418 180.234
 302.102 179.512 300.59 179.383 c h
219.652 150.191 m 204.078 115.637 l 203.633 114.617 202.801 113.895 201.844
 113.531 c 200.867 113.148 199.758 113.148 198.738 113.617 c 164.484 129.043
 l 161.887 130.402 161.27 132.086 162.293 134.828 c 177.719 169.062 l 178.184
 170.086 178.992 170.809 179.973 171.191 c 180.949 171.555 182.059 171.555
 183.059 171.105 c 217.633 155.531 l 218.633 155.086 219.379 154.254 219.738
 153.297 c 220.121 152.277 220.078 151.172 219.652 150.191 c h
260.547 288.215 m 252.016 294.914 241.715 298.277 231.418 298.277 c 219.355
 298.277 207.293 293.68 198.102 284.469 c 189.227 275.598 184.293 263.68
 184.293 251.129 c 184.293 240.832 187.652 230.531 194.355 222.023 c 186.633
 214.297 l 179.141 223.383 174.844 234.215 173.715 245.277 c 172.398 258.34
 175.504 271.789 183.059 283.148 c 184.758 285.746 184.059 289.234 181.48
 290.938 c 178.887 292.66 175.398 291.938 173.695 289.363 c 164.695 275.789
 160.973 259.766 162.547 244.172 c 164.098 228.832 170.738 213.895 182.461
 202.172 c 184.652 199.98 188.227 199.98 190.418 202.172 c 280.375 292.129
 l 282.59 294.34 282.59 297.895 280.375 300.105 c 268.652 311.832 253.738
 318.469 238.398 320 c 222.801 321.574 206.758 317.875 193.207 308.871 c
 190.609 307.148 189.91 303.68 191.609 301.086 c 193.332 298.492 196.824
 297.789 199.398 299.512 c 210.758 307.043 224.207 310.148 237.289 308.828
 c 248.355 307.723 259.164 303.426 268.246 295.914 c h
237.059 286.574 m 242.527 285.703 247.824 283.574 252.504 280.172 c 237.059
 264.723 l h
217.867 245.531 m 202.375 230.043 l 198.973 234.746 196.824 240.043 195.973
 245.531 c h
195.973 256.746 m 196.844 262.211 198.973 267.531 202.379 272.215 c 217.867
 256.746 l h
210.332 280.172 m 215.016 283.574 220.332 285.703 225.801 286.574 c 225.801
 264.723 l h
171.293 81.02 m 170.207 71.148 166.312 62.105 160.398 54.723 c 134.102 
81.02 l h
152.441 46.766 m 145.059 40.852 136.016 36.957 126.141 35.871 c 126.141
 73.062 l h
114.867 35.871 m 104.992 36.957 95.953 40.852 88.57 46.766 c 114.867 73.062
 l h
80.609 54.723 m 74.695 62.105 70.801 71.129 69.719 81.02 c 106.91 81.02
 l h
69.719 92.297 m 70.801 102.172 74.695 111.215 80.609 118.594 c 106.91 92.297
 l h
88.566 126.555 m 97.035 133.34 107.719 137.488 119.336 137.746 c 115.949
 99.168 l h
315.91 348.488 m 149.121 348.488 l 149.652 354.363 l 150.102 359.617 152.27
 364.383 155.652 367.766 c 158.719 370.828 162.844 372.746 167.566 372.746
 c 297.461 372.746 l 302.184 372.746 306.312 370.832 309.375 367.766 c 312.758
 364.383 314.93 359.617 315.375 354.363 c h
315.91 348.488 m f
Q Q
showpage
%%Trailer
end
%%EOF
