%!PS-Adobe-3.0 EPSF-3.0
%%Creator: cairo 1.16.0 (https://cairographics.org)
%%CreationDate: Thu Dec 10 07:55:06 2020
%%Pages: 1
%%DocumentData: Clean7Bit
%%LanguageLevel: 2
%%BoundingBox: 50 0 334 384
%%EndComments
%%BeginProlog
50 dict begin
/q { gsave } bind def
/Q { grestore } bind def
/cm { 6 array astore concat } bind def
/w { setlinewidth } bind def
/J { setlinecap } bind def
/j { setlinejoin } bind def
/M { setmiterlimit } bind def
/d { setdash } bind def
/m { moveto } bind def
/l { lineto } bind def
/c { curveto } bind def
/h { closepath } bind def
/re { exch dup neg 3 1 roll 5 3 roll moveto 0 rlineto
      0 exch rlineto 0 rlineto closepath } bind def
/S { stroke } bind def
/f { fill } bind def
/f* { eofill } bind def
/n { newpath } bind def
/W { clip } bind def
/W* { eoclip } bind def
/BT { } bind def
/ET { } bind def
/BDC { mark 3 1 roll /BDC pdfmark } bind def
/EMC { mark /EMC pdfmark } bind def
/cairo_store_point { /cairo_point_y exch def /cairo_point_x exch def } def
/Tj { show currentpoint cairo_store_point } bind def
/TJ {
  {
    dup
    type /stringtype eq
    { show } { -0.001 mul 0 cairo_font_matrix dtransform rmoveto } ifelse
  } forall
  currentpoint cairo_store_point
} bind def
/cairo_selectfont { cairo_font_matrix aload pop pop pop 0 0 6 array astore
    cairo_font exch selectfont cairo_point_x cairo_point_y moveto } bind def
/Tf { pop /cairo_font exch def /cairo_font_matrix where
      { pop cairo_selectfont } if } bind def
/Td { matrix translate cairo_font_matrix matrix concatmatrix dup
      /cairo_font_matrix exch def dup 4 get exch 5 get cairo_store_point
      /cairo_font where { pop cairo_selectfont } if } bind def
/Tm { 2 copy 8 2 roll 6 array astore /cairo_font_matrix exch def
      cairo_store_point /cairo_font where { pop cairo_selectfont } if } bind def
/g { setgray } bind def
/rg { setrgbcolor } bind def
/d1 { setcachedevice } bind def
/cairo_data_source {
  CairoDataIndex CairoData length lt
    { CairoData CairoDataIndex get /CairoDataIndex CairoDataIndex 1 add def }
    { () } ifelse
} def
/cairo_flush_ascii85_file { cairo_ascii85_file status { cairo_ascii85_file flushfile } if } def
/cairo_image { image cairo_flush_ascii85_file } def
/cairo_imagemask { imagemask cairo_flush_ascii85_file } def
%%EndProlog
%%BeginSetup
%%EndSetup
%%Page: 1 1
%%BeginPageSetup
%%PageBoundingBox: 50 0 334 384
%%EndPageSetup
q 50 0 284 384 rectclip
1 0 0 -1 0 384 cm q
0.745098 0.847059 0.984314 rg
299.895 161.852 m 278.059 360.188 l 276.953 370.137 269.875 378.387 259.863
 378.387 c 124.137 378.387 l 114.145 378.387 107.043 370.137 105.938 360.188
 c 84.105 161.852 l h
299.895 161.852 m f*
0.615686 0.776471 0.984314 rg
299.895 161.852 m 278.059 360.188 l 276.953 370.137 269.875 378.387 259.863
 378.387 c 241.664 378.387 l 251.676 378.387 258.758 370.137 259.863 360.188
 c 281.695 161.852 l h
299.895 161.852 m f*
0.25098 0.439216 0.576471 rg
84.105 136.363 m 114.379 136.363 l 179.711 129.812 l 250.91 136.363 l 299.895
 136.363 l 306.91 136.363 312.648 142.102 312.648 149.098 c 312.648 156.113
 306.91 161.852 299.895 161.852 c 84.105 161.852 l 77.09 161.852 71.371 
156.113 71.371 149.117 c 71.371 142.102 77.09 136.363 84.105 136.363 c h
84.105 136.363 m f*
0.352941 0.65098 0.529412 rg
191.383 129.133 m 184.324 102.367 l 182.07 93.777 172.887 88.188 161.023
 86.891 c 154.922 86.23 154.816 84.742 152.988 77.77 c 141.039 32.402 l 
140.188 29.148 137.555 27.297 133.938 28.254 c 117.93 32.465 l 114.633 33.336
 112.809 35.844 113.785 39.586 c 125.711 84.934 l 127.539 91.906 128.156
 93.355 123.246 96.82 c 113.508 103.75 108.277 113.191 110.531 121.777 c
 114.379 136.363 l 174.609 136.363 l h
191.383 129.133 m f*
0.298039 0.556863 0.447059 rg
192.852 134.766 m 184.324 102.367 l 182.07 93.777 172.887 88.188 161.023
 86.891 c 154.922 86.23 154.816 84.742 152.988 77.77 c 141.039 32.398 l 
140.188 29.148 137.555 27.297 133.938 28.254 c 122.457 31.273 l 122.605 
31.637 122.734 31.996 122.84 32.398 c 134.789 77.77 l 136.617 84.742 136.723
 86.23 142.824 86.891 c 154.688 88.188 163.875 93.777 166.125 102.367 c 
174.609 134.535 l h
192.852 134.766 m f*
0.470588 0.760784 0.643137 rg
250.914 136.363 m 250.914 90.121 l 250.914 81.258 243.43 73.516 232.309
 69.246 c 226.57 67.035 226.844 65.59 226.844 58.359 c 226.844 11.461 l 
226.844 8.25 224.23 5.633 221.02 5.633 c 204.477 5.633 l 201.27 5.633 198.652
 8.25 198.652 11.461 c 198.652 58.359 l 198.652 65.547 198.867 67.098 193.234
 69.223 c 182.07 73.434 174.609 81.234 174.609 90.121 c 174.609 136.363 
l h
250.914 136.363 m f*
0.4 0.701961 0.580392 rg
250.914 136.363 m 250.914 90.121 l 250.914 81.258 243.43 73.516 232.309
 69.246 c 226.57 67.035 226.844 65.59 226.844 58.359 c 226.844 11.461 l 
226.844 8.25 224.23 5.633 221.02 5.633 c 204.477 5.633 l 204.203 5.633 203.926
 5.656 203.648 5.676 c 206.457 6.102 208.645 8.523 208.645 11.461 c 208.645
 58.359 l 208.645 65.586 208.371 67.031 214.109 69.246 c 225.23 73.52 232.691
 81.258 232.691 90.121 c 232.691 136.363 l h
250.914 136.363 m f*
0.211765 0.368627 0.490196 rg
281.695 136.363 m 299.895 136.363 l 306.91 136.363 312.648 142.102 312.648
 149.098 c 312.648 156.113 306.91 161.852 299.895 161.852 c 281.695 161.852
 l 288.711 161.852 294.453 156.113 294.453 149.098 c 294.453 142.102 288.711
 136.363 281.695 136.363 c h
281.695 136.363 m f*
0.596078 0.419608 0.329412 rg
164.703 252.633 m 219.297 252.633 l 222.508 252.633 225.125 255.27 225.125
 258.461 c 225.125 274.488 l 225.125 277.68 222.508 280.316 219.297 280.316
 c 164.703 280.316 l 161.492 280.316 158.875 277.68 158.875 274.488 c 158.875
 258.461 l 158.879 255.27 161.492 252.633 164.703 252.633 c h
164.703 252.633 m f*
0.517647 0.360784 0.278431 rg
201.102 252.633 m 219.297 252.633 l 222.508 252.633 225.125 255.27 225.125
 258.461 c 225.125 274.488 l 225.125 277.68 222.508 280.316 219.297 280.316
 c 201.102 280.316 l 204.309 280.316 206.926 277.68 206.926 274.488 c 206.926
 258.461 l 206.922 255.27 204.309 252.633 201.102 252.633 c h
201.102 252.633 m f*
0 g
180.199 130.75 m 245.277 130.75 l 245.277 120.906 l 245.277 117.801 247.785
 115.293 250.914 115.293 c 254.016 115.293 256.523 117.805 256.523 120.906
 c 256.523 130.75 l 299.895 130.75 l 304.957 130.75 309.547 132.812 312.883
 136.129 c 314.926 138.168 316.477 140.699 317.391 143.504 c 327.406 143.504
 l 330.512 143.504 333.039 146.016 333.039 149.117 c 333.039 178.52 321.879
 205.562 303.125 227.078 c 301.383 229.078 299.578 231.012 297.727 232.902
 c 283.652 360.805 l 282.93 367.203 280.207 373.07 275.977 377.281 c 271.832
 381.426 266.305 384 259.863 384 c 124.137 384 l 117.695 384 112.168 381.426
 108.023 377.281 c 103.793 373.07 101.07 367.203 100.367 360.805 c 94.926
 311.352 l 94.586 308.27 96.797 305.484 99.879 305.145 c 102.961 304.805
 105.746 307.039 106.086 310.121 c 111.531 359.57 l 111.957 363.418 113.527
 366.906 115.973 369.328 c 118.078 371.453 120.887 372.75 124.137 372.75
 c 259.863 372.75 l 263.113 372.75 265.922 371.453 268.027 369.328 c 270.473
 366.906 272.066 363.418 272.492 359.57 c 285.184 244.148 l 269.684 256.395
 251.168 265.645 230.758 270.871 c 230.758 280.312 l 230.758 283.418 228.227
 285.926 225.125 285.926 c 158.879 285.926 l 155.773 285.926 153.242 283.414
 153.242 280.312 c 153.242 270.871 l 132.832 265.645 114.316 256.395 98.816
 244.148 c 103.281 284.797 l 103.621 287.879 101.41 290.645 98.328 290.984
 c 95.246 291.324 92.461 289.113 92.121 286.031 c 86.273 232.902 l 84.426
 231.012 82.617 229.074 80.895 227.078 c 62.145 205.562 50.961 178.52 50.961
 149.117 c 50.961 145.801 53.789 143.504 57.086 143.504 c 66.609 143.504
 l 67.523 140.699 69.074 138.168 71.137 136.129 c 74.453 132.812 79.043 
130.75 84.105 130.75 c 107.086 130.75 l 105.109 123.203 l 103.621 117.566
 104.516 111.785 107.277 106.34 c 109.914 101.176 114.293 96.309 119.992
 92.246 c 121.547 91.141 121.355 90.398 120.48 87.082 c 106.875 35.375 l
 106.09 32.379 107.875 29.316 110.871 28.508 c 138.129 21.344 l 141.125 
20.559 144.207 22.344 144.996 25.34 c 149.543 42.668 154.117 59.996 158.664
 77.301 c 159.473 80.406 159.645 81.105 161.621 81.32 c 164.531 81.637 167.359
 82.191 170.168 83.02 c 171.25 79.918 173.016 77.004 175.375 74.367 c 179.246
 70.031 184.41 66.543 190.961 64.098 c 193.363 63.184 193.023 60.355 193.023
 58.359 c 193.023 5.633 l 193.023 2.527 195.551 0 198.656 0 c 226.848 0 
l 229.949 0 232.48 2.531 232.48 5.633 c 232.48 58.359 l 232.48 60.656 232.309
 63.227 234.777 64.164 c 241.305 66.672 246.301 70.094 250.172 74.43 c 254.207
 78.98 256.527 84.316 256.527 90.121 c 256.527 95.438 l 256.527 98.539 254.016
 101.047 250.914 101.047 c 247.789 101.047 245.277 98.539 245.277 95.438
 c 245.277 90.121 l 245.277 87.207 244.004 84.402 241.773 81.895 c 239.094
 78.895 235.141 76.344 230.312 74.496 c 220.469 70.711 221.211 67.902 221.234
 58.359 c 221.234 11.246 l 204.289 11.246 l 204.289 58.359 l 204.289 67.926
 204.949 70.816 195.215 74.473 c 190.387 76.305 186.434 78.832 183.773 81.832
 c 181.711 84.148 180.223 86.977 180.223 90.121 c 180.223 103.664 180.199
 117.207 180.199 130.75 c h
230.758 259.266 m 252.527 253.23 271.832 242.215 286.992 227.738 c 293.645
 167.465 l 90.375 167.465 l 97.008 227.738 l 112.188 242.215 131.473 253.23
 153.242 259.266 c 153.242 252.633 l 153.242 249.531 155.773 247.02 158.875
 247.02 c 179.266 247.02 l 182.371 247.02 184.879 249.531 184.879 252.633
 c 184.879 255.758 182.367 258.27 179.266 258.27 c 164.512 258.27 l 164.512
 274.68 l 219.508 274.68 l 219.508 258.27 l 204.734 258.27 l 201.629 258.27
 199.121 255.758 199.121 252.633 c 199.121 249.531 201.629 247.02 204.734
 247.02 c 225.125 247.02 l 228.227 247.02 230.758 249.531 230.758 252.633
 c h
317.391 154.711 m 316.477 157.516 314.926 160.047 312.883 162.086 c 310.715
 164.234 308.016 165.871 305.02 166.742 c 299.895 213.281 l 312.629 196.402
 320.473 176.332 321.645 154.711 c h
84.125 213.281 m 79.004 166.742 l 75.984 165.871 73.285 164.234 71.137 
162.086 c 69.074 160.047 67.523 157.516 66.609 154.711 c 62.355 154.711 
l 63.523 176.332 71.371 196.402 84.125 213.281 c h
84.105 141.996 m 82.148 141.996 80.363 142.805 79.086 144.078 c 77.789 
145.375 76.984 147.16 76.984 149.117 c 76.984 151.055 77.789 152.84 79.086
 154.137 c 80.363 155.41 82.148 156.219 84.105 156.219 c 299.895 156.219
 l 301.852 156.219 303.637 155.41 304.934 154.137 c 306.211 152.84 307.016
 151.055 307.016 149.098 c 307.016 147.16 306.211 145.375 304.934 144.078
 c 303.637 142.805 301.852 141.996 299.895 141.996 c 227.973 141.996 156.027
 141.996 84.105 141.996 c h
168.996 130.75 m 168.996 94.48 l 166.254 93.438 163.34 92.801 160.43 92.48
 c 150.754 91.418 150.223 89.355 147.801 80.109 c 143.738 64.633 139.637
 49.113 135.555 33.633 c 119.164 37.949 l 131.344 84.234 l 133.809 93.629
 134.387 95.797 126.496 101.391 c 122.289 104.387 119.121 107.852 117.293
 111.445 c 115.762 114.465 115.23 117.547 115.973 120.355 c 118.695 130.75
 l h
168.996 130.75 m f
Q Q
showpage
%%Trailer
end
%%EOF
