%!PS-Adobe-3.0 EPSF-3.0
%%Creator: cairo 1.16.0 (https://cairographics.org)
%%CreationDate: Thu Dec 10 07:55:06 2020
%%Pages: 1
%%DocumentData: Clean7Bit
%%LanguageLevel: 2
%%BoundingBox: 15 0 369 384
%%EndComments
%%BeginProlog
50 dict begin
/q { gsave } bind def
/Q { grestore } bind def
/cm { 6 array astore concat } bind def
/w { setlinewidth } bind def
/J { setlinecap } bind def
/j { setlinejoin } bind def
/M { setmiterlimit } bind def
/d { setdash } bind def
/m { moveto } bind def
/l { lineto } bind def
/c { curveto } bind def
/h { closepath } bind def
/re { exch dup neg 3 1 roll 5 3 roll moveto 0 rlineto
      0 exch rlineto 0 rlineto closepath } bind def
/S { stroke } bind def
/f { fill } bind def
/f* { eofill } bind def
/n { newpath } bind def
/W { clip } bind def
/W* { eoclip } bind def
/BT { } bind def
/ET { } bind def
/BDC { mark 3 1 roll /BDC pdfmark } bind def
/EMC { mark /EMC pdfmark } bind def
/cairo_store_point { /cairo_point_y exch def /cairo_point_x exch def } def
/Tj { show currentpoint cairo_store_point } bind def
/TJ {
  {
    dup
    type /stringtype eq
    { show } { -0.001 mul 0 cairo_font_matrix dtransform rmoveto } ifelse
  } forall
  currentpoint cairo_store_point
} bind def
/cairo_selectfont { cairo_font_matrix aload pop pop pop 0 0 6 array astore
    cairo_font exch selectfont cairo_point_x cairo_point_y moveto } bind def
/Tf { pop /cairo_font exch def /cairo_font_matrix where
      { pop cairo_selectfont } if } bind def
/Td { matrix translate cairo_font_matrix matrix concatmatrix dup
      /cairo_font_matrix exch def dup 4 get exch 5 get cairo_store_point
      /cairo_font where { pop cairo_selectfont } if } bind def
/Tm { 2 copy 8 2 roll 6 array astore /cairo_font_matrix exch def
      cairo_store_point /cairo_font where { pop cairo_selectfont } if } bind def
/g { setgray } bind def
/rg { setrgbcolor } bind def
/d1 { setcachedevice } bind def
/cairo_data_source {
  CairoDataIndex CairoData length lt
    { CairoData CairoDataIndex get /CairoDataIndex CairoDataIndex 1 add def }
    { () } ifelse
} def
/cairo_flush_ascii85_file { cairo_ascii85_file status { cairo_ascii85_file flushfile } if } def
/cairo_image { image cairo_flush_ascii85_file } def
/cairo_imagemask { imagemask cairo_flush_ascii85_file } def
%%EndProlog
%%BeginSetup
%%EndSetup
%%Page: 1 1
%%BeginPageSetup
%%PageBoundingBox: 15 0 369 384
%%EndPageSetup
q 15 0 354 384 rectclip
1 0 0 -1 0 384 cm q
0.745098 0.847059 0.984314 rg
151.23 367.457 m 151.23 361.441 156.141 356.531 162.16 356.531 c 185.098
 356.531 l 193.965 356.531 193.094 356.445 196.004 350.898 c 197.387 348.281
 199.727 345.965 202.742 344.113 c 208.398 340.629 207.91 339.969 207.91
 332.168 c 207.91 244.641 l 233.402 244.641 l 233.402 332.168 l 233.402 
339.992 233.039 340.629 238.609 344.137 c 241.566 345.984 243.859 348.262
 245.266 350.812 c 248.199 356.191 247.305 356.531 256.234 356.531 c 279.176
 356.531 l 285.168 356.531 290.082 361.441 290.082 367.457 c 290.082 373.453
 285.168 378.387 279.176 378.387 c 162.16 378.387 l 156.141 378.387 151.23
 373.453 151.23 367.457 c h
151.23 367.457 m f*
0.615686 0.776471 0.984314 rg
260.977 356.531 m 279.176 356.531 l 285.172 356.531 290.082 361.441 290.082
 367.457 c 290.082 373.453 285.172 378.387 279.176 378.387 c 260.977 378.387
 l 266.973 378.387 271.883 373.453 271.883 367.457 c 271.883 361.441 266.973
 356.531 260.977 356.531 c h
260.977 356.531 m f*
0.988235 0.909804 0.776471 rg
78.863 6.523 m 110.52 6.523 136.18 32.184 136.18 63.84 c 78.863 63.84 l
 79.562 81.125 85.176 101.516 102.566 116.035 c 95.34 119.332 87.324 121.16
 78.863 121.16 c 47.227 121.16 21.566 95.5 21.566 63.84 c 21.566 32.184 
47.227 6.523 78.863 6.523 c h
78.863 6.523 m f*
0.996078 0.85098 0.643137 rg
78.863 6.523 m 110.52 6.523 136.18 32.184 136.18 63.84 c 136.18 95.496 
110.52 121.16 78.863 121.16 c 75.777 121.16 72.738 120.906 69.762 120.438
 c 97.102 116.078 117.98 92.395 117.98 63.84 c 117.98 35.289 97.102 11.605
 69.762 7.246 c 72.738 6.781 75.777 6.523 78.863 6.523 c h
78.863 6.523 m f*
0.701961 0.898039 0.623529 rg
88.727 99.688 m 98.059 115.633 115.281 129.219 145.66 133.641 c 198.109
 141.312 150.359 251.91 220.668 251.91 c 290.973 251.91 243.223 141.312 
295.652 133.641 c 326.031 129.219 343.277 115.633 352.609 99.688 c h
88.727 99.688 m f*
0.584314 0.839216 0.643137 rg
211.566 251.207 m 214.352 251.676 217.371 251.91 220.668 251.91 c 290.973
 251.91 243.223 141.312 295.652 133.641 c 326.031 129.219 343.277 115.633
 352.609 99.688 c 334.387 99.688 l 325.055 115.633 307.836 129.219 277.453
 133.641 c 227.469 140.953 268.523 241.812 211.566 251.207 c h
211.566 251.207 m f*
0.92549 0.956863 1 rg
79.285 69.582 m 80.266 79.492 83.07 90.012 88.727 99.688 c 352.609 99.688
 l 358.242 90.055 360.965 79.531 362.027 69.668 c 362.707 63.398 363.301
 63.844 356.562 63.844 c 84.688 63.844 l 78.031 63.844 78.668 63.352 79.285
 69.582 c h
79.285 69.582 m f*
0.866667 0.917647 0.984314 rg
334.387 99.688 m 352.609 99.688 l 358.242 90.055 360.965 79.531 362.027
 69.668 c 362.707 63.395 363.301 63.844 356.562 63.844 c 341.383 63.844 
l 344.895 63.906 344.383 64.566 343.828 69.668 c 342.766 79.531 340.043 
90.055 334.387 99.688 c h
84.688 63.844 m 83.324 63.844 82.242 63.82 81.434 63.844 c h
84.688 63.844 m f*
0 g
207.91 58.23 m 211.035 58.23 213.547 60.738 213.547 63.84 c 213.547 66.945
 211.035 69.477 207.91 69.477 c 84.898 69.477 l 85.789 77.574 87.918 86.078
 92.02 94.074 c 254.473 94.074 l 270.055 69.477 l 233.402 69.477 l 230.297
 69.477 227.766 66.945 227.766 63.84 c 227.766 60.738 230.297 58.23 233.402
 58.23 c 277.199 58.23 l 312.449 2.613 l 314.129 -0.004 317.594 -0.789 320.207
 0.871 c 322.844 2.527 323.609 6.016 321.949 8.629 c 290.508 58.23 l 362.453
 58.23 l 365.66 58.273 368.191 60.844 368.066 64.055 c 367.387 80.66 362.473
 99.941 347.91 115.141 c 333.812 129.875 316.148 135.934 296.484 139.211
 c 276.562 142.121 273.926 165.445 271.203 189.637 c 268.078 217.34 264.848
 246.02 239.035 254.801 c 239.035 337.949 l 242.332 339.609 245.18 341.711
 247.371 344.18 c 249.199 346.219 250.602 348.496 251.43 350.918 c 279.176
 350.918 l 283.727 350.918 287.871 352.77 290.848 355.766 c 293.844 358.762
 295.715 362.91 295.715 367.457 c 295.715 372.008 293.844 376.152 290.848
 379.152 c 287.871 382.148 283.727 384 279.176 384 c 162.16 384 l 157.609
 384 153.461 382.148 150.465 379.152 c 147.469 376.152 145.617 372.008 145.617
 367.457 c 145.617 362.91 147.469 358.762 150.465 355.766 c 153.461 352.77
 157.609 350.918 162.16 350.918 c 189.883 350.918 l 190.734 348.496 192.113
 346.219 193.941 344.18 c 196.152 341.711 198.98 339.609 202.297 337.949
 c 202.297 309.418 l 202.297 306.312 204.809 303.785 207.91 303.785 c 211.035
 303.785 213.547 306.312 213.547 309.418 c 213.547 341.629 l 213.547 343.902
 212.121 346.07 209.844 346.898 c 206.633 348.07 204.02 349.727 202.297 
351.641 c 200.957 353.152 200.172 354.832 200.172 356.531 c 200.172 359.637
 197.664 362.164 194.559 362.164 c 162.16 362.164 l 160.715 362.164 159.375
 362.762 158.418 363.719 c 157.461 364.676 156.867 366.012 156.867 367.457
 c 156.867 368.906 157.461 370.223 158.418 371.199 c 159.375 372.156 160.715
 372.754 162.16 372.754 c 279.176 372.754 l 280.621 372.754 281.938 372.156
 282.895 371.199 c 283.875 370.223 284.469 368.906 284.469 367.457 c 284.469
 366.012 283.875 364.676 282.895 363.719 c 281.938 362.762 280.621 362.164
 279.176 362.164 c 246.773 362.164 l 243.672 362.164 241.141 359.637 241.141
 356.531 c 241.141 354.832 240.375 353.152 239.016 351.641 c 237.355 349.77
 234.828 348.176 231.742 347.008 c 229.449 346.285 227.77 344.156 227.77
 341.629 c 227.77 257.16 l 225.535 257.395 223.176 257.523 220.668 257.523
 c 218.16 257.523 215.801 257.395 213.547 257.16 c 213.547 283.926 l 213.547
 287.031 211.035 289.562 207.91 289.562 c 204.805 289.562 202.297 287.031
 202.297 283.926 c 202.297 254.801 l 176.488 246.02 173.234 217.34 170.109
 189.641 c 168.195 172.547 166.664 142.398 144.852 139.211 c 126.23 136.488
 112.199 130.43 101.695 122.5 c 98.25 123.84 94.699 124.883 91.086 125.582
 c 87.109 126.367 83.027 126.773 78.859 126.773 c 74.969 126.773 70.887 
126.391 67.062 125.645 c 64.023 125.094 62 122.16 62.578 119.117 c 63.152
 116.055 66.086 114.059 69.125 114.633 c 72.398 115.25 75.543 115.523 78.859
 115.523 c 82.324 115.523 85.684 115.207 88.918 114.57 c 90.023 114.336 
91.105 114.102 92.168 113.824 c 81.07 101.559 75.926 86.867 74.055 73.109
 c 55.559 83.785 l 52.883 85.336 49.457 84.422 47.906 81.742 c 46.332 79.066
 47.27 75.621 49.949 74.07 c 67.656 63.844 l 49.949 53.617 l 47.27 52.062
 46.332 48.641 47.906 45.941 c 49.457 43.262 52.883 42.348 55.559 43.902
 c 73.246 54.125 l 73.246 33.676 l 73.246 30.57 75.758 28.062 78.859 28.062
 c 81.984 28.062 84.496 30.57 84.496 33.676 c 84.496 54.125 l 102.184 43.902
 l 104.863 42.348 108.285 43.262 109.836 45.941 c 111.387 48.641 110.477
 52.062 107.797 53.617 c 99.844 58.23 l 130.266 58.23 l 128.93 45.855 123.25
 34.801 114.77 26.637 c 105.477 17.664 92.828 12.16 78.859 12.16 c 64.594
 12.16 51.668 17.941 42.312 27.297 c 32.961 36.648 27.176 49.578 27.176 
63.844 c 27.176 72.238 29.176 80.148 32.703 87.145 c 36.363 94.395 41.699
 100.688 48.203 105.469 c 50.711 107.297 51.246 110.805 49.414 113.316 c
 47.586 115.824 44.078 116.355 41.57 114.527 c 33.66 108.68 27.156 101.027
 22.672 92.184 c 18.355 83.656 15.93 74.027 15.93 63.844 c 15.93 46.473 
22.969 30.742 34.363 19.344 c 45.758 7.949 61.492 0.91 78.863 0.91 c 95.828
 0.91 111.219 7.629 122.531 18.535 c 133.141 28.762 140.156 42.688 141.535
 58.23 c h
169.281 125.816 m 166.176 125.816 163.645 123.309 163.645 120.203 c 163.645
 117.098 166.176 114.57 169.281 114.57 c 174.023 114.57 l 177.125 114.57
 179.633 117.098 179.633 120.203 c 179.633 123.309 177.125 125.816 174.023
 125.816 c h
211.758 126.41 m 208.656 126.41 206.148 123.902 206.148 120.797 c 206.148
 117.695 208.656 115.164 211.758 115.164 c 216.5 115.164 l 219.625 115.164
 222.133 117.695 222.133 120.797 c 222.133 123.902 219.625 126.41 216.5 
126.41 c h
245.52 160.961 m 242.414 160.961 239.887 158.43 239.887 155.324 c 239.887
 152.223 242.414 149.711 245.52 149.711 c 250.262 149.711 l 253.367 149.711
 255.875 152.223 255.875 155.324 c 255.875 158.43 253.363 160.961 250.262
 160.961 c h
269.438 125.625 m 266.312 125.625 263.805 123.117 263.805 120.012 c 263.805
 116.887 266.312 114.379 269.438 114.379 c 274.18 114.379 l 277.281 114.379
 279.793 116.887 279.793 120.012 c 279.793 123.117 277.281 125.625 274.18
 125.625 c h
195.262 174.352 m 192.156 174.352 189.648 171.82 189.648 168.719 c 189.648
 165.613 192.156 163.086 195.262 163.086 c 200 163.086 l 203.129 163.086
 205.637 165.613 205.637 168.719 c 205.637 171.824 203.129 174.352 200 174.352
 c h
208.91 230.969 m 205.805 230.969 203.277 228.438 203.277 225.336 c 203.277
 222.23 205.805 219.723 208.91 219.723 c 213.652 219.723 l 216.754 219.723
 219.262 222.23 219.262 225.336 c 219.262 228.438 216.754 230.969 213.652
 230.969 c h
230.043 185.324 m 226.938 185.324 224.43 182.793 224.43 179.688 c 224.43
 176.586 226.941 174.055 230.043 174.055 c 234.785 174.055 l 237.91 174.055
 240.418 176.586 240.418 179.688 c 240.418 182.793 237.91 185.324 234.785
 185.324 c h
234.996 217.723 m 231.891 217.723 229.363 215.215 229.363 212.109 c 229.363
 208.984 231.891 206.477 234.996 206.477 c 239.738 206.477 l 242.84 206.477
 245.348 208.984 245.348 212.109 c 245.348 215.215 242.84 217.723 239.738
 217.723 c h
205.551 202.605 m 202.445 202.605 199.918 200.078 199.918 196.973 c 199.918
 193.871 202.445 191.359 205.551 191.359 c 210.293 191.359 l 213.395 191.359
 215.906 193.871 215.906 196.973 c 215.906 200.078 213.395 202.605 210.293
 202.605 c h
192.797 142.039 m 189.691 142.039 187.16 139.508 187.16 136.402 c 187.16
 133.301 189.691 130.77 192.797 130.77 c 197.535 130.77 l 200.641 130.77
 203.168 133.301 203.168 136.402 c 203.168 139.508 200.641 142.039 197.535
 142.039 c h
267.777 94.074 m 349.293 94.074 l 353.414 86.082 355.543 77.578 356.414
 69.477 c 283.363 69.477 l h
225.406 160.895 m 223.75 163.508 220.262 164.297 217.648 162.617 c 215.035
 160.961 214.246 157.492 215.926 154.879 c 247.328 105.32 l 99.59 105.32
 l 111.73 119.352 128.633 125.262 146.469 128.09 c 174.957 132.258 178.062
 159.812 181.273 188.406 c 184.48 216.766 187.797 246.316 220.668 246.316
 c 253.512 246.316 256.852 216.766 260.039 188.406 c 263.273 159.809 266.375
 132.258 294.844 128.09 c 312.148 125.836 330.113 118.758 341.723 105.32
 c 260.637 105.32 l h
225.406 160.895 m f
Q Q
showpage
%%Trailer
end
%%EOF
