%!PS-Adobe-3.0 EPSF-3.0
%%Creator: cairo 1.16.0 (https://cairographics.org)
%%CreationDate: Wed Jul 15 13:23:45 2020
%%Pages: 1
%%DocumentData: Clean7Bit
%%LanguageLevel: 2
%%BoundingBox: 0 0 384 384
%%EndComments
%%BeginProlog
50 dict begin
/q { gsave } bind def
/Q { grestore } bind def
/cm { 6 array astore concat } bind def
/w { setlinewidth } bind def
/J { setlinecap } bind def
/j { setlinejoin } bind def
/M { setmiterlimit } bind def
/d { setdash } bind def
/m { moveto } bind def
/l { lineto } bind def
/c { curveto } bind def
/h { closepath } bind def
/re { exch dup neg 3 1 roll 5 3 roll moveto 0 rlineto
      0 exch rlineto 0 rlineto closepath } bind def
/S { stroke } bind def
/f { fill } bind def
/f* { eofill } bind def
/n { newpath } bind def
/W { clip } bind def
/W* { eoclip } bind def
/BT { } bind def
/ET { } bind def
/BDC { mark 3 1 roll /BDC pdfmark } bind def
/EMC { mark /EMC pdfmark } bind def
/cairo_store_point { /cairo_point_y exch def /cairo_point_x exch def } def
/Tj { show currentpoint cairo_store_point } bind def
/TJ {
  {
    dup
    type /stringtype eq
    { show } { -0.001 mul 0 cairo_font_matrix dtransform rmoveto } ifelse
  } forall
  currentpoint cairo_store_point
} bind def
/cairo_selectfont { cairo_font_matrix aload pop pop pop 0 0 6 array astore
    cairo_font exch selectfont cairo_point_x cairo_point_y moveto } bind def
/Tf { pop /cairo_font exch def /cairo_font_matrix where
      { pop cairo_selectfont } if } bind def
/Td { matrix translate cairo_font_matrix matrix concatmatrix dup
      /cairo_font_matrix exch def dup 4 get exch 5 get cairo_store_point
      /cairo_font where { pop cairo_selectfont } if } bind def
/Tm { 2 copy 8 2 roll 6 array astore /cairo_font_matrix exch def
      cairo_store_point /cairo_font where { pop cairo_selectfont } if } bind def
/g { setgray } bind def
/rg { setrgbcolor } bind def
/d1 { setcachedevice } bind def
/cairo_data_source {
  CairoDataIndex CairoData length lt
    { CairoData CairoDataIndex get /CairoDataIndex CairoDataIndex 1 add def }
    { () } ifelse
} def
/cairo_flush_ascii85_file { cairo_ascii85_file status { cairo_ascii85_file flushfile } if } def
/cairo_image { image cairo_flush_ascii85_file } def
/cairo_imagemask { imagemask cairo_flush_ascii85_file } def
%%EndProlog
%%BeginSetup
%%EndSetup
%%Page: 1 1
%%BeginPageSetup
%%PageBoundingBox: 0 0 384 384
%%EndPageSetup
q 0 0 384 384 rectclip
1 0 0 -1 0 384 cm q
0.976471 0.984314 0.988235 rg
381.031 192 m 381.031 296.398 296.402 381.031 192 381.031 c 87.602 381.031
 2.969 296.398 2.969 192 c 2.969 87.598 87.602 2.969 192 2.969 c 296.402
 2.969 381.031 87.598 381.031 192 c h
381.031 192 m f
0.917647 0.658824 0.584314 rg
380.613 203.625 m 380.613 203.738 380.633 203.844 380.648 203.953 c 380.668
 203.637 380.688 203.324 380.707 203.008 c 380.652 203.207 380.613 203.41
 380.613 203.625 c h
380.613 203.625 m f
375.711 183.117 m 376.754 183.117 377.625 182.43 377.926 181.484 c 373.496
 181.484 l 373.793 182.43 374.668 183.117 375.711 183.117 c h
375.711 183.117 m f
367.91 186.254 m 366.621 186.254 365.578 187.301 365.578 188.586 c 365.578
 189.875 366.621 190.918 367.91 190.918 c 369.195 190.918 370.242 189.875
 370.242 188.586 c 370.242 187.301 369.195 186.254 367.91 186.254 c h
367.91 186.254 m f
375.711 193.492 m 374.422 193.492 373.379 194.535 373.379 195.824 c 373.379
 197.113 374.422 198.156 375.711 198.156 c 376.996 198.156 378.043 197.109
 378.043 195.824 c 378.043 194.535 377 193.492 375.711 193.492 c h
375.711 193.492 m f
367.91 201.293 m 366.621 201.293 365.578 202.336 365.578 203.625 c 365.578
 204.914 366.621 205.957 367.91 205.957 c 369.195 205.957 370.242 204.914
 370.242 203.625 c 370.242 202.336 369.195 201.293 367.91 201.293 c h
367.91 201.293 m f
375.711 208.527 m 374.422 208.527 373.379 209.57 373.379 210.859 c 373.379
 212.148 374.422 213.191 375.711 213.191 c 376.996 213.191 378.043 212.148
 378.043 210.859 c 378.043 209.57 377 208.527 375.711 208.527 c h
375.711 208.527 m f
367.91 216.328 m 366.621 216.328 365.578 217.375 365.578 218.66 c 365.578
 219.949 366.621 220.992 367.91 220.992 c 369.195 220.992 370.242 219.949
 370.242 218.66 c 370.242 217.375 369.195 216.328 367.91 216.328 c h
367.91 216.328 m f
375.711 223.566 m 374.422 223.566 373.379 224.609 373.379 225.898 c 373.379
 227.188 374.422 228.23 375.711 228.23 c 376.633 228.23 377.426 227.688 
377.805 226.91 c 377.875 226.52 377.957 226.133 378.027 225.742 c 377.945
 224.527 376.945 223.566 375.711 223.566 c h
375.711 223.566 m f
367.91 231.367 m 366.621 231.367 365.578 232.41 365.578 233.699 c 365.578
 234.988 366.621 236.031 367.91 236.031 c 369.195 236.031 370.242 234.988
 370.242 233.699 c 370.242 232.41 369.195 231.367 367.91 231.367 c h
367.91 231.367 m f
373.379 240.934 m 373.379 241.625 373.68 242.234 374.156 242.664 c 374.523
 241.332 374.883 239.996 375.227 238.652 c 374.172 238.879 373.379 239.812
 373.379 240.934 c h
373.379 240.934 m f
367.91 246.402 m 366.621 246.402 365.578 247.449 365.578 248.734 c 365.578
 250.023 366.621 251.066 367.91 251.066 c 369.195 251.066 370.242 250.023
 370.242 248.734 c 370.242 247.449 369.195 246.402 367.91 246.402 c h
367.91 246.402 m f
365.578 263.773 m 365.578 264.41 365.832 264.988 366.246 265.41 c 366.801
 264.098 367.34 262.773 367.867 261.445 c 366.598 261.469 365.578 262.5 
365.578 263.773 c h
365.578 263.773 m f
360.672 183.117 m 361.715 183.117 362.59 182.43 362.887 181.484 c 358.457
 181.484 l 358.758 182.43 359.629 183.117 360.672 183.117 c h
360.672 183.117 m f
352.871 186.254 m 351.582 186.254 350.539 187.301 350.539 188.586 c 350.539
 189.875 351.582 190.918 352.871 190.918 c 354.16 190.918 355.203 189.875
 355.203 188.586 c 355.203 187.301 354.16 186.254 352.871 186.254 c h
352.871 186.254 m f
360.672 193.492 m 359.383 193.492 358.34 194.535 358.34 195.824 c 358.34
 197.113 359.383 198.156 360.672 198.156 c 361.961 198.156 363.004 197.109
 363.004 195.824 c 363.004 194.535 361.961 193.492 360.672 193.492 c h
360.672 193.492 m f
352.871 201.293 m 351.582 201.293 350.539 202.336 350.539 203.625 c 350.539
 204.914 351.582 205.957 352.871 205.957 c 354.16 205.957 355.203 204.914
 355.203 203.625 c 355.203 202.336 354.16 201.293 352.871 201.293 c h
352.871 201.293 m f
360.672 208.527 m 359.383 208.527 358.34 209.57 358.34 210.859 c 358.34
 212.148 359.383 213.191 360.672 213.191 c 361.961 213.191 363.004 212.148
 363.004 210.859 c 363.004 209.57 361.961 208.527 360.672 208.527 c h
360.672 208.527 m f
352.871 216.328 m 351.582 216.328 350.539 217.375 350.539 218.66 c 350.539
 219.949 351.582 220.992 352.871 220.992 c 354.16 220.992 355.203 219.949
 355.203 218.66 c 355.203 217.375 354.16 216.328 352.871 216.328 c h
352.871 216.328 m f
360.672 223.566 m 359.383 223.566 358.34 224.609 358.34 225.898 c 358.34
 227.188 359.383 228.23 360.672 228.23 c 361.961 228.23 363.004 227.184 
363.004 225.898 c 363.004 224.609 361.961 223.566 360.672 223.566 c h
360.672 223.566 m f
352.871 231.367 m 351.582 231.367 350.539 232.41 350.539 233.699 c 350.539
 234.988 351.582 236.031 352.871 236.031 c 354.16 236.031 355.203 234.988
 355.203 233.699 c 355.203 232.41 354.16 231.367 352.871 231.367 c h
352.871 231.367 m f
360.672 238.602 m 359.383 238.602 358.34 239.648 358.34 240.934 c 358.34
 242.223 359.383 243.266 360.672 243.266 c 361.961 243.266 363.004 242.223
 363.004 240.934 c 363.004 239.648 361.961 238.602 360.672 238.602 c h
360.672 238.602 m f
352.871 246.402 m 351.582 246.402 350.539 247.449 350.539 248.734 c 350.539
 250.023 351.582 251.066 352.871 251.066 c 354.16 251.066 355.203 250.023
 355.203 248.734 c 355.203 247.449 354.16 246.402 352.871 246.402 c h
352.871 246.402 m f
360.672 253.641 m 359.383 253.641 358.34 254.684 358.34 255.973 c 358.34
 257.262 359.383 258.305 360.672 258.305 c 361.961 258.305 363.004 257.262
 363.004 255.973 c 363.004 254.684 361.961 253.641 360.672 253.641 c h
360.672 253.641 m f
352.871 261.441 m 351.582 261.441 350.539 262.484 350.539 263.773 c 350.539
 265.062 351.582 266.105 352.871 266.105 c 354.16 266.105 355.203 265.062
 355.203 263.773 c 355.203 262.484 354.16 261.441 352.871 261.441 c h
352.871 261.441 m f
360.672 268.676 m 359.383 268.676 358.34 269.723 358.34 271.008 c 358.34
 272.297 359.383 273.34 360.672 273.34 c 361.961 273.34 363.004 272.297 
363.004 271.008 c 363.004 269.723 361.961 268.676 360.672 268.676 c h
360.672 268.676 m f
352.871 276.477 m 351.582 276.477 350.539 277.523 350.539 278.809 c 350.539
 280.098 351.582 281.145 352.871 281.145 c 354.16 281.145 355.203 280.098
 355.203 278.809 c 355.203 277.523 354.16 276.477 352.871 276.477 c h
352.871 276.477 m f
350.539 293.848 m 350.539 294.156 350.602 294.445 350.711 294.711 c 351.391
 293.66 352.062 292.598 352.723 291.531 c 351.504 291.609 350.539 292.609
 350.539 293.848 c h
350.539 293.848 m f
347.969 195.824 m 347.969 194.734 347.215 193.824 346.207 193.57 c 345.875
 195.086 345.527 196.602 345.16 198.105 c 345.312 198.137 345.473 198.156
 345.637 198.156 c 346.926 198.156 347.969 197.113 347.969 195.824 c h
347.969 195.824 m f
345.637 208.527 m 344.348 208.527 343.305 209.57 343.305 210.859 c 343.305
 212.148 344.348 213.191 345.637 213.191 c 346.922 213.191 347.969 212.148
 347.969 210.859 c 347.969 209.57 346.926 208.527 345.637 208.527 c h
345.637 208.527 m f
340.168 218.664 m 340.168 218.035 339.914 217.469 339.516 217.051 c 339.051
 218.363 338.574 219.668 338.082 220.969 c 339.254 220.844 340.168 219.863
 340.168 218.664 c h
340.168 218.664 m f
345.637 223.566 m 344.348 223.566 343.305 224.609 343.305 225.898 c 343.305
 227.188 344.348 228.23 345.637 228.23 c 346.922 228.23 347.969 227.184 
347.969 225.898 c 347.969 224.609 346.926 223.566 345.637 223.566 c h
345.637 223.566 m f
337.836 231.367 m 336.547 231.367 335.5 232.41 335.5 233.699 c 335.5 234.988
 336.547 236.031 337.836 236.031 c 339.121 236.031 340.168 234.988 340.168
 233.699 c 340.168 232.41 339.121 231.367 337.836 231.367 c h
337.836 231.367 m f
345.637 238.602 m 344.348 238.602 343.305 239.648 343.305 240.934 c 343.305
 242.223 344.348 243.266 345.637 243.266 c 346.922 243.266 347.969 242.223
 347.969 240.934 c 347.969 239.648 346.926 238.602 345.637 238.602 c h
345.637 238.602 m f
337.836 246.402 m 336.547 246.402 335.5 247.449 335.5 248.734 c 335.5 250.023
 336.547 251.066 337.836 251.066 c 339.121 251.066 340.168 250.023 340.168
 248.734 c 340.168 247.449 339.121 246.402 337.836 246.402 c h
337.836 246.402 m f
345.637 253.641 m 344.348 253.641 343.305 254.684 343.305 255.973 c 343.305
 257.262 344.348 258.305 345.637 258.305 c 346.922 258.305 347.969 257.262
 347.969 255.973 c 347.969 254.684 346.926 253.641 345.637 253.641 c h
345.637 253.641 m f
337.836 261.441 m 336.547 261.441 335.5 262.484 335.5 263.773 c 335.5 265.062
 336.547 266.105 337.836 266.105 c 339.121 266.105 340.168 265.062 340.168
 263.773 c 340.168 262.484 339.121 261.441 337.836 261.441 c h
337.836 261.441 m f
345.637 268.676 m 344.348 268.676 343.305 269.723 343.305 271.008 c 343.305
 272.297 344.348 273.34 345.637 273.34 c 346.922 273.34 347.969 272.297 
347.969 271.008 c 347.969 269.723 346.926 268.676 345.637 268.676 c h
345.637 268.676 m f
337.836 276.477 m 336.547 276.477 335.5 277.523 335.5 278.809 c 335.5 280.098
 336.547 281.145 337.836 281.145 c 339.121 281.145 340.168 280.098 340.168
 278.809 c 340.168 277.523 339.121 276.477 337.836 276.477 c h
337.836 276.477 m f
345.637 283.715 m 344.348 283.715 343.305 284.758 343.305 286.047 c 343.305
 287.336 344.348 288.379 345.637 288.379 c 346.922 288.379 347.969 287.336
 347.969 286.047 c 347.969 284.758 346.926 283.715 345.637 283.715 c h
345.637 283.715 m f
337.836 291.516 m 336.547 291.516 335.5 292.559 335.5 293.848 c 335.5 295.137
 336.547 296.18 337.836 296.18 c 339.121 296.18 340.168 295.137 340.168 
293.848 c 340.168 292.559 339.121 291.516 337.836 291.516 c h
337.836 291.516 m f
345.637 298.75 m 344.348 298.75 343.305 299.797 343.305 301.082 c 343.305
 302.082 343.934 302.93 344.82 303.262 c 345.703 302.051 346.57 300.832 
347.422 299.602 c 346.996 299.086 346.359 298.75 345.637 298.75 c h
345.637 298.75 m f
337.836 306.555 m 336.547 306.555 335.5 307.598 335.5 308.887 c 335.5 310.172
 336.547 311.219 337.836 311.219 c 338.227 311.219 338.59 311.113 338.914
 310.941 c 339.301 310.461 339.691 309.984 340.074 309.5 c 340.129 309.301
 340.168 309.098 340.168 308.887 c 340.168 307.598 339.121 306.555 337.836
 306.555 c h
337.836 306.555 m f
330.598 243.266 m 331.887 243.266 332.93 242.223 332.93 240.934 c 332.93
 239.648 331.887 238.602 330.598 238.602 c 330.531 238.602 330.465 238.617
 330.398 238.621 c 329.816 239.805 329.219 240.977 328.613 242.145 c 329.023
 242.812 329.754 243.266 330.598 243.266 c h
330.598 243.266 m f
325.129 248.738 m 325.129 248.684 325.117 248.633 325.113 248.578 c 324.688
 249.328 324.262 250.078 323.828 250.82 c 324.598 250.438 325.129 249.652
 325.129 248.738 c h
325.129 248.738 m f
330.598 253.641 m 329.309 253.641 328.266 254.684 328.266 255.973 c 328.266
 257.262 329.309 258.305 330.598 258.305 c 331.887 258.305 332.93 257.262
 332.93 255.973 c 332.93 254.684 331.887 253.641 330.598 253.641 c h
330.598 253.641 m f
322.797 261.441 m 321.508 261.441 320.465 262.484 320.465 263.773 c 320.465
 265.062 321.508 266.105 322.797 266.105 c 324.086 266.105 325.129 265.062
 325.129 263.773 c 325.129 262.484 324.086 261.441 322.797 261.441 c h
322.797 261.441 m f
330.598 268.676 m 329.309 268.676 328.266 269.723 328.266 271.008 c 328.266
 272.297 329.309 273.34 330.598 273.34 c 331.887 273.34 332.93 272.297 332.93
 271.008 c 332.93 269.723 331.887 268.676 330.598 268.676 c h
330.598 268.676 m f
322.797 276.477 m 321.508 276.477 320.465 277.523 320.465 278.809 c 320.465
 280.098 321.508 281.145 322.797 281.145 c 324.086 281.145 325.129 280.098
 325.129 278.809 c 325.129 277.523 324.086 276.477 322.797 276.477 c h
322.797 276.477 m f
330.598 283.715 m 329.309 283.715 328.266 284.758 328.266 286.047 c 328.266
 287.336 329.309 288.379 330.598 288.379 c 331.887 288.379 332.93 287.336
 332.93 286.047 c 332.93 284.758 331.887 283.715 330.598 283.715 c h
330.598 283.715 m f
322.797 291.516 m 321.508 291.516 320.465 292.559 320.465 293.848 c 320.465
 295.137 321.508 296.18 322.797 296.18 c 324.086 296.18 325.129 295.137 
325.129 293.848 c 325.129 292.559 324.086 291.516 322.797 291.516 c h
322.797 291.516 m f
330.598 298.75 m 329.309 298.75 328.266 299.797 328.266 301.082 c 328.266
 302.371 329.309 303.418 330.598 303.418 c 331.887 303.418 332.93 302.371
 332.93 301.082 c 332.93 299.797 331.887 298.75 330.598 298.75 c h
330.598 298.75 m f
322.797 306.555 m 321.508 306.555 320.465 307.598 320.465 308.887 c 320.465
 310.172 321.508 311.219 322.797 311.219 c 324.086 311.219 325.129 310.172
 325.129 308.887 c 325.129 307.598 324.086 306.555 322.797 306.555 c h
322.797 306.555 m f
330.598 318.453 m 331.887 318.453 332.93 317.41 332.93 316.121 c 332.93
 314.832 331.887 313.789 330.598 313.789 c 329.309 313.789 328.266 314.832
 328.266 316.121 c 328.266 317.41 329.309 318.453 330.598 318.453 c h
330.598 318.453 m f
322.797 321.59 m 321.508 321.59 320.465 322.633 320.465 323.922 c 320.422
 326.949 325.176 326.949 325.129 323.922 c 325.129 322.633 324.086 321.59
 322.797 321.59 c h
322.797 321.59 m f
315.562 268.676 m 314.273 268.676 313.23 269.723 313.23 271.008 c 313.23
 272.297 314.273 273.34 315.562 273.34 c 316.848 273.34 317.895 272.297 
317.895 271.008 c 317.895 269.723 316.848 268.676 315.562 268.676 c h
315.562 268.676 m f
307.758 276.477 m 306.473 276.477 305.426 277.523 305.426 278.809 c 305.426
 280.098 306.473 281.145 307.758 281.145 c 309.047 281.145 310.094 280.098
 310.094 278.809 c 310.094 277.523 309.047 276.477 307.758 276.477 c h
307.758 276.477 m f
315.562 283.715 m 314.273 283.715 313.23 284.758 313.23 286.047 c 313.23
 287.336 314.273 288.379 315.562 288.379 c 316.848 288.379 317.895 287.336
 317.895 286.047 c 317.895 284.758 316.848 283.715 315.562 283.715 c h
315.562 283.715 m f
307.758 291.516 m 306.473 291.516 305.426 292.559 305.426 293.848 c 305.426
 295.137 306.473 296.18 307.758 296.18 c 309.047 296.18 310.094 295.137 
310.094 293.848 c 310.094 292.559 309.047 291.516 307.758 291.516 c h
307.758 291.516 m f
315.562 298.75 m 314.273 298.75 313.23 299.797 313.23 301.082 c 313.23 
302.371 314.273 303.418 315.562 303.418 c 316.848 303.418 317.895 302.371
 317.895 301.082 c 317.895 299.797 316.848 298.75 315.562 298.75 c h
315.562 298.75 m f
307.758 306.555 m 306.473 306.555 305.426 307.598 305.426 308.887 c 305.426
 310.172 306.473 311.219 307.758 311.219 c 309.047 311.219 310.094 310.172
 310.094 308.887 c 310.094 307.598 309.047 306.555 307.758 306.555 c h
307.758 306.555 m f
315.562 313.789 m 314.273 313.789 313.23 314.832 313.23 316.121 c 313.23
 317.41 314.273 318.453 315.562 318.453 c 316.848 318.453 317.895 317.41
 317.895 316.121 c 317.895 314.832 316.848 313.789 315.562 313.789 c h
315.562 313.789 m f
307.758 321.59 m 306.473 321.59 305.426 322.633 305.426 323.922 c 305.426
 325.211 306.473 326.254 307.758 326.254 c 309.047 326.254 310.094 325.211
 310.094 323.922 c 310.094 322.633 309.047 321.59 307.758 321.59 c h
307.758 321.59 m f
315.562 328.824 m 314.273 328.824 313.23 329.871 313.23 331.16 c 313.23
 332.445 314.273 333.492 315.562 333.492 c 316.848 333.492 317.895 332.445
 317.895 331.16 c 317.895 329.871 316.848 328.824 315.562 328.824 c h
315.562 328.824 m f
307.758 336.629 m 306.473 336.629 305.426 337.672 305.426 338.961 c 305.426
 340.246 306.473 341.293 307.758 341.293 c 307.836 341.293 307.906 341.277
 307.98 341.27 c 308.645 340.754 309.301 340.23 309.961 339.703 c 310.039
 339.469 310.094 339.223 310.094 338.961 c 310.094 337.672 309.047 336.629
 307.758 336.629 c h
307.758 336.629 m f
300.523 288.379 m 301.812 288.379 302.855 287.336 302.855 286.047 c 302.855
 284.758 301.812 283.715 300.523 283.715 c 300.109 283.715 299.723 283.832
 299.387 284.023 c 299.051 284.391 298.719 284.762 298.383 285.125 c 298.258
 285.406 298.191 285.719 298.191 286.047 c 298.191 287.336 299.234 288.379
 300.523 288.379 c h
300.523 288.379 m f
292.723 296.18 m 294.012 296.18 295.055 295.137 295.055 293.848 c 295.055
 292.562 294.012 291.516 292.723 291.516 c 292.512 291.516 292.312 291.555
 292.121 291.605 c 291.586 292.133 291.043 292.648 290.5 293.172 c 290.434
 293.387 290.391 293.613 290.391 293.848 c 290.391 295.137 291.434 296.18
 292.723 296.18 c h
292.723 296.18 m f
300.523 298.75 m 299.234 298.75 298.191 299.797 298.191 301.082 c 298.191
 302.371 299.234 303.418 300.523 303.418 c 301.812 303.418 302.855 302.371
 302.855 301.082 c 302.855 299.797 301.812 298.75 300.523 298.75 c h
300.523 298.75 m f
292.723 306.555 m 291.434 306.555 290.391 307.598 290.391 308.887 c 290.391
 310.172 291.434 311.219 292.723 311.219 c 294.012 311.219 295.055 310.172
 295.055 308.887 c 295.055 307.598 294.012 306.555 292.723 306.555 c h
292.723 306.555 m f
300.523 313.789 m 299.234 313.789 298.191 314.832 298.191 316.121 c 298.191
 317.41 299.234 318.453 300.523 318.453 c 301.812 318.453 302.855 317.41
 302.855 316.121 c 302.855 314.832 301.812 313.789 300.523 313.789 c h
300.523 313.789 m f
292.723 321.59 m 291.434 321.59 290.391 322.633 290.391 323.922 c 290.391
 325.211 291.434 326.254 292.723 326.254 c 294.012 326.254 295.055 325.211
 295.055 323.922 c 295.055 322.633 294.012 321.59 292.723 321.59 c h
292.723 321.59 m f
300.523 328.824 m 299.234 328.824 298.191 329.871 298.191 331.16 c 298.191
 332.445 299.234 333.492 300.523 333.492 c 301.812 333.492 302.855 332.445
 302.855 331.16 c 302.855 329.871 301.812 328.824 300.523 328.824 c h
300.523 328.824 m f
292.723 336.629 m 291.434 336.629 290.391 337.672 290.391 338.961 c 290.391
 340.246 291.434 341.293 292.723 341.293 c 294.012 341.293 295.055 340.246
 295.055 338.961 c 295.055 337.672 294.012 336.629 292.723 336.629 c h
292.723 336.629 m f
300.523 343.863 m 299.234 343.863 298.191 344.906 298.191 346.195 c 298.191
 346.863 298.477 347.465 298.926 347.891 c 300.18 347.027 301.426 346.152
 302.656 345.258 c 302.297 344.438 301.477 343.863 300.523 343.863 c h
300.523 343.863 m f
290.484 353.375 m 291.379 352.828 292.27 352.27 293.152 351.707 c 293.012
 351.684 292.871 351.664 292.723 351.664 c 291.652 351.664 290.758 352.391
 290.484 353.375 c h
290.484 353.375 m f
285.488 298.75 m 284.199 298.75 283.152 299.797 283.152 301.082 c 283.152
 302.371 284.199 303.418 285.488 303.418 c 286.773 303.418 287.82 302.371
 287.82 301.082 c 287.82 299.797 286.773 298.75 285.488 298.75 c h
285.488 298.75 m f
277.684 306.555 m 276.398 306.555 275.352 307.598 275.352 308.887 c 275.352
 310.172 276.398 311.219 277.684 311.219 c 278.973 311.219 280.016 310.172
 280.016 308.887 c 280.016 307.598 278.973 306.555 277.684 306.555 c h
277.684 306.555 m f
285.488 313.789 m 284.199 313.789 283.152 314.832 283.152 316.121 c 283.152
 317.41 284.199 318.453 285.488 318.453 c 286.773 318.453 287.82 317.41 
287.82 316.121 c 287.82 314.832 286.773 313.789 285.488 313.789 c h
285.488 313.789 m f
277.684 321.59 m 276.398 321.59 275.352 322.633 275.352 323.922 c 275.352
 325.211 276.398 326.254 277.684 326.254 c 278.973 326.254 280.016 325.211
 280.016 323.922 c 280.016 322.633 278.973 321.59 277.684 321.59 c h
277.684 321.59 m f
285.488 328.824 m 284.199 328.824 283.152 329.871 283.152 331.16 c 283.152
 332.445 284.199 333.492 285.488 333.492 c 286.773 333.492 287.82 332.445
 287.82 331.16 c 287.82 329.871 286.773 328.824 285.488 328.824 c h
285.488 328.824 m f
277.684 336.629 m 276.398 336.629 275.352 337.672 275.352 338.961 c 275.352
 340.246 276.398 341.293 277.684 341.293 c 278.973 341.293 280.016 340.246
 280.016 338.961 c 280.016 337.672 278.973 336.629 277.684 336.629 c h
277.684 336.629 m f
285.488 343.863 m 284.199 343.863 283.152 344.906 283.152 346.195 c 283.152
 347.484 284.199 348.527 285.488 348.527 c 286.773 348.527 287.82 347.484
 287.82 346.195 c 287.82 344.906 286.773 343.863 285.488 343.863 c h
285.488 343.863 m f
277.684 351.664 m 276.398 351.664 275.352 352.707 275.352 353.996 c 275.352
 355.285 276.398 356.328 277.684 356.328 c 278.973 356.328 280.016 355.285
 280.016 353.996 c 280.016 352.707 278.973 351.664 277.684 351.664 c h
277.684 351.664 m f
270.449 313.789 m 269.16 313.789 268.117 314.832 268.117 316.121 c 268.117
 317.41 269.16 318.453 270.449 318.453 c 271.738 318.453 272.781 317.41 
272.781 316.121 c 272.781 314.832 271.738 313.789 270.449 313.789 c h
270.449 313.789 m f
262.648 321.59 m 261.359 321.59 260.316 322.633 260.316 323.922 c 260.316
 325.211 261.359 326.254 262.648 326.254 c 263.938 326.254 264.98 325.211
 264.98 323.922 c 264.98 322.633 263.938 321.59 262.648 321.59 c h
262.648 321.59 m f
270.449 328.824 m 269.16 328.824 268.117 329.871 268.117 331.16 c 268.117
 332.445 269.16 333.492 270.449 333.492 c 271.738 333.492 272.781 332.445
 272.781 331.16 c 272.781 329.871 271.738 328.824 270.449 328.824 c h
270.449 328.824 m f
262.648 336.629 m 261.359 336.629 260.316 337.672 260.316 338.961 c 260.316
 340.246 261.359 341.293 262.648 341.293 c 263.938 341.293 264.98 340.246
 264.98 338.961 c 264.98 337.672 263.938 336.629 262.648 336.629 c h
262.648 336.629 m f
270.449 343.863 m 269.16 343.863 268.117 344.906 268.117 346.195 c 268.117
 347.484 269.16 348.527 270.449 348.527 c 271.738 348.527 272.781 347.484
 272.781 346.195 c 272.781 344.906 271.738 343.863 270.449 343.863 c h
270.449 343.863 m f
262.648 351.664 m 261.359 351.664 260.316 352.707 260.316 353.996 c 260.316
 355.285 261.359 356.328 262.648 356.328 c 263.938 356.328 264.98 355.285
 264.98 353.996 c 264.98 352.707 263.938 351.664 262.648 351.664 c h
262.648 351.664 m f
270.449 358.902 m 269.16 358.902 268.117 359.945 268.117 361.234 c 268.117
 362.523 269.16 363.566 270.449 363.566 c 271.738 363.566 272.781 362.52
 272.781 361.234 c 272.781 359.945 271.738 358.902 270.449 358.902 c h
270.449 358.902 m f
260.461 368.242 m 261.539 367.824 262.609 367.391 263.68 366.953 c 263.367
 366.797 263.02 366.703 262.648 366.703 c 261.641 366.703 260.789 367.344
 260.461 368.242 c h
260.461 368.242 m f
247.609 326.254 m 248.898 326.254 249.941 325.211 249.941 323.922 c 249.941
 323.746 249.918 323.57 249.879 323.402 c 248.578 324.133 247.266 324.852
 245.945 325.551 c 246.367 325.984 246.957 326.254 247.609 326.254 c h
247.609 326.254 m f
255.41 328.824 m 254.125 328.824 253.078 329.871 253.078 331.16 c 253.078
 332.445 254.125 333.492 255.41 333.492 c 256.699 333.492 257.742 332.445
 257.742 331.16 c 257.746 329.871 256.699 328.824 255.41 328.824 c h
255.41 328.824 m f
247.609 336.629 m 246.324 336.629 245.277 337.672 245.277 338.961 c 245.277
 340.246 246.324 341.293 247.609 341.293 c 248.898 341.293 249.941 340.246
 249.941 338.961 c 249.941 337.672 248.898 336.629 247.609 336.629 c h
247.609 336.629 m f
255.41 343.863 m 254.125 343.863 253.078 344.906 253.078 346.195 c 253.078
 347.484 254.125 348.527 255.41 348.527 c 256.699 348.527 257.742 347.484
 257.742 346.195 c 257.746 344.906 256.699 343.863 255.41 343.863 c h
255.41 343.863 m f
247.609 351.664 m 246.324 351.664 245.277 352.707 245.277 353.996 c 245.277
 355.285 246.324 356.328 247.609 356.328 c 248.898 356.328 249.941 355.285
 249.941 353.996 c 249.941 352.707 248.898 351.664 247.609 351.664 c h
247.609 351.664 m f
255.41 358.902 m 254.125 358.902 253.078 359.945 253.078 361.234 c 253.078
 362.523 254.125 363.566 255.41 363.566 c 256.699 363.566 257.742 362.52
 257.742 361.234 c 257.746 359.945 256.699 358.902 255.41 358.902 c h
255.41 358.902 m f
247.609 366.703 m 246.324 366.703 245.277 367.746 245.277 369.035 c 245.277
 370.32 246.324 371.367 247.609 371.367 c 248.898 371.367 249.941 370.32
 249.941 369.035 c 249.941 367.746 248.898 366.703 247.609 366.703 c h
247.609 366.703 m f
240.375 328.824 m 239.086 328.824 238.043 329.871 238.043 331.16 c 238.043
 332.445 239.086 333.492 240.375 333.492 c 241.664 333.492 242.707 332.445
 242.707 331.16 c 242.707 329.871 241.664 328.824 240.375 328.824 c h
240.375 328.824 m f
232.574 336.629 m 231.285 336.629 230.242 337.672 230.242 338.961 c 230.242
 340.246 231.285 341.293 232.574 341.293 c 233.859 341.293 234.906 340.246
 234.906 338.961 c 234.906 337.672 233.859 336.629 232.574 336.629 c h
232.574 336.629 m f
240.375 343.863 m 239.086 343.863 238.043 344.906 238.043 346.195 c 238.043
 347.484 239.086 348.527 240.375 348.527 c 241.664 348.527 242.707 347.484
 242.707 346.195 c 242.707 344.906 241.664 343.863 240.375 343.863 c h
240.375 343.863 m f
232.574 351.664 m 231.285 351.664 230.242 352.707 230.242 353.996 c 230.242
 355.285 231.285 356.328 232.574 356.328 c 233.859 356.328 234.906 355.285
 234.906 353.996 c 234.906 352.707 233.859 351.664 232.574 351.664 c h
232.574 351.664 m f
240.375 358.902 m 239.086 358.902 238.043 359.945 238.043 361.234 c 238.043
 362.523 239.086 363.566 240.375 363.566 c 241.664 363.566 242.707 362.52
 242.707 361.234 c 242.707 359.945 241.664 358.902 240.375 358.902 c h
240.375 358.902 m f
232.574 366.703 m 231.285 366.703 230.242 367.746 230.242 369.035 c 230.242
 370.32 231.285 371.367 232.574 371.367 c 233.859 371.367 234.906 370.32
 234.906 369.035 c 234.906 367.746 233.859 366.703 232.574 366.703 c h
232.574 366.703 m f
240.375 373.938 m 239.426 373.938 238.613 374.508 238.246 375.32 c 239.422
 375.027 240.59 374.715 241.754 374.398 c 241.367 374.113 240.895 373.938
 240.375 373.938 c h
240.375 373.938 m f
217.535 341.293 m 218.824 341.293 219.867 340.25 219.867 338.961 c 219.867
 338.32 219.609 337.738 219.191 337.316 c 217.879 337.781 216.559 338.234
 215.234 338.668 c 215.223 338.766 215.203 338.859 215.203 338.961 c 215.203
 340.25 216.246 341.293 217.535 341.293 c h
217.535 341.293 m f
225.336 343.863 m 224.051 343.863 223.004 344.906 223.004 346.195 c 223.004
 347.484 224.051 348.527 225.336 348.527 c 226.625 348.527 227.668 347.484
 227.668 346.195 c 227.672 344.906 226.625 343.863 225.336 343.863 c h
225.336 343.863 m f
217.535 351.664 m 216.246 351.664 215.203 352.707 215.203 353.996 c 215.203
 355.285 216.246 356.328 217.535 356.328 c 218.824 356.328 219.867 355.285
 219.867 353.996 c 219.867 352.707 218.824 351.664 217.535 351.664 c h
217.535 351.664 m f
225.336 358.902 m 224.051 358.902 223.004 359.945 223.004 361.234 c 223.004
 362.523 224.051 363.566 225.336 363.566 c 226.625 363.566 227.668 362.52
 227.668 361.234 c 227.672 359.945 226.625 358.902 225.336 358.902 c h
225.336 358.902 m f
217.535 366.703 m 216.246 366.703 215.203 367.746 215.203 369.035 c 215.203
 370.32 216.246 371.367 217.535 371.367 c 218.824 371.367 219.867 370.32
 219.867 369.035 c 219.867 367.746 218.824 366.703 217.535 366.703 c h
217.535 366.703 m f
227.672 376.27 m 227.672 374.98 226.625 373.938 225.34 373.938 c 224.051
 373.938 223.004 374.98 223.004 376.27 c 223.004 377.137 223.484 377.887
 224.188 378.289 c 225.168 378.121 226.145 377.941 227.121 377.758 c 227.457
 377.355 227.672 376.84 227.672 376.27 c h
227.672 376.27 m f
210.301 343.863 m 209.012 343.863 207.969 344.906 207.969 346.195 c 207.969
 347.484 209.012 348.527 210.301 348.527 c 211.59 348.527 212.633 347.484
 212.633 346.195 c 212.633 344.906 211.59 343.863 210.301 343.863 c h
210.301 343.863 m f
202.5 351.664 m 201.211 351.664 200.168 352.707 200.168 353.996 c 200.168
 355.285 201.211 356.328 202.5 356.328 c 203.785 356.328 204.832 355.285
 204.832 353.996 c 204.832 352.707 203.785 351.664 202.5 351.664 c h
202.5 351.664 m f
210.301 358.902 m 209.012 358.902 207.969 359.945 207.969 361.234 c 207.969
 362.523 209.012 363.566 210.301 363.566 c 211.59 363.566 212.633 362.52
 212.633 361.234 c 212.633 359.945 211.59 358.902 210.301 358.902 c h
210.301 358.902 m f
202.5 366.703 m 201.211 366.703 200.168 367.746 200.168 369.035 c 200.168
 370.32 201.211 371.367 202.5 371.367 c 203.785 371.367 204.832 370.32 204.832
 369.035 c 204.832 367.746 203.785 366.703 202.5 366.703 c h
202.5 366.703 m f
210.301 373.938 m 209.012 373.938 207.969 374.98 207.969 376.27 c 207.969
 377.559 209.012 378.602 210.301 378.602 c 211.59 378.602 212.633 377.559
 212.633 376.27 c 212.633 374.98 211.59 373.938 210.301 373.938 c h
210.301 373.938 m f
192.93 346.195 m 192.93 347.484 193.977 348.527 195.262 348.527 c 196.551
 348.527 197.594 347.484 197.594 346.195 c 197.594 345.113 196.855 344.215
 195.859 343.949 c 195.168 344.102 194.48 344.258 193.789 344.402 c 193.27
 344.828 192.93 345.469 192.93 346.195 c h
192.93 346.195 m f
187.461 351.664 m 186.172 351.664 185.129 352.707 185.129 353.996 c 185.129
 355.285 186.172 356.328 187.461 356.328 c 188.75 356.328 189.793 355.285
 189.793 353.996 c 189.793 352.707 188.75 351.664 187.461 351.664 c h
187.461 351.664 m f
195.262 358.902 m 193.977 358.902 192.93 359.945 192.93 361.234 c 192.93
 362.523 193.977 363.566 195.262 363.566 c 196.551 363.566 197.594 362.52
 197.594 361.234 c 197.598 359.945 196.551 358.902 195.262 358.902 c h
195.262 358.902 m f
189.793 369.035 m 189.793 367.746 188.75 366.703 187.461 366.703 c 186.172
 366.703 185.129 367.746 185.129 369.035 c 185.129 370.324 186.172 371.367
 187.461 371.367 c 188.75 371.367 189.793 370.324 189.793 369.035 c h
189.793 369.035 m f
195.262 378.602 m 196.551 378.602 197.594 377.559 197.594 376.27 c 197.594
 374.98 196.551 373.938 195.262 373.938 c 193.977 373.938 192.93 374.98 
192.93 376.27 c 192.93 377.559 193.977 378.602 195.262 378.602 c h
195.262 378.602 m f
180.227 348.527 m 181.449 348.527 182.441 347.582 182.539 346.387 c 181.047
 346.605 179.547 346.809 178.043 346.996 c 178.371 347.887 179.219 348.527
 180.227 348.527 c h
180.227 348.527 m f
172.426 351.664 m 171.137 351.664 170.094 352.707 170.094 353.996 c 170.094
 355.285 171.137 356.328 172.426 356.328 c 173.711 356.328 174.758 355.285
 174.758 353.996 c 174.758 352.707 173.711 351.664 172.426 351.664 c h
172.426 351.664 m f
180.227 358.902 m 178.938 358.902 177.895 359.945 177.895 361.234 c 177.895
 362.523 178.938 363.566 180.227 363.566 c 181.512 363.566 182.559 362.52
 182.559 361.234 c 182.559 359.945 181.516 358.902 180.227 358.902 c h
180.227 358.902 m f
172.426 366.703 m 171.137 366.703 170.094 367.746 170.094 369.035 c 170.094
 370.32 171.137 371.367 172.426 371.367 c 173.711 371.367 174.758 370.32
 174.758 369.035 c 174.758 367.746 173.711 366.703 172.426 366.703 c h
172.426 366.703 m f
180.227 373.938 m 178.938 373.938 177.895 374.98 177.895 376.27 c 177.895
 377.559 178.938 378.602 180.227 378.602 c 181.512 378.602 182.559 377.559
 182.559 376.27 c 182.559 374.98 181.516 373.938 180.227 373.938 c h
180.227 373.938 m f
166.543 348.09 m 165.719 348.141 164.895 348.188 164.07 348.23 c 164.402
 348.414 164.781 348.527 165.188 348.527 c 165.695 348.527 166.16 348.363
 166.543 348.09 c h
166.543 348.09 m f
155.055 353.996 m 155.055 355.285 156.098 356.328 157.387 356.328 c 158.676
 356.328 159.719 355.285 159.719 353.996 c 159.719 352.711 158.676 351.664
 157.387 351.664 c 156.098 351.664 155.055 352.707 155.055 353.996 c h
155.055 353.996 m f
165.188 358.902 m 163.898 358.902 162.855 359.945 162.855 361.234 c 162.855
 362.523 163.898 363.566 165.188 363.566 c 166.477 363.566 167.52 362.52
 167.52 361.234 c 167.52 359.945 166.477 358.902 165.188 358.902 c h
165.188 358.902 m f
157.387 371.367 m 158.676 371.367 159.719 370.324 159.719 369.035 c 159.719
 367.746 158.676 366.703 157.387 366.703 c 156.098 366.703 155.055 367.746
 155.055 369.035 c 155.055 370.324 156.098 371.367 157.387 371.367 c h
157.387 371.367 m f
165.188 373.938 m 163.898 373.938 162.855 374.98 162.855 376.27 c 162.855
 377.559 163.898 378.602 165.188 378.602 c 166.477 378.602 167.52 377.559
 167.52 376.27 c 167.52 374.98 166.477 373.938 165.188 373.938 c h
165.188 373.938 m f
150.488 348.492 m 150.219 348.492 149.949 348.484 149.676 348.48 c 149.828
 348.512 149.988 348.527 150.152 348.527 c 150.266 348.527 150.379 348.512
 150.488 348.492 c h
150.488 348.492 m f
142.348 351.664 m 141.062 351.664 140.016 352.707 140.016 353.996 c 140.016
 355.285 141.062 356.328 142.348 356.328 c 143.637 356.328 144.684 355.285
 144.684 353.996 c 144.684 352.707 143.637 351.664 142.348 351.664 c h
142.348 351.664 m f
147.82 361.234 m 147.82 362.523 148.863 363.566 150.152 363.566 c 151.438
 363.566 152.484 362.52 152.484 361.234 c 152.484 359.945 151.438 358.902
 150.152 358.902 c 148.863 358.902 147.82 359.945 147.82 361.234 c h
147.82 361.234 m f
142.348 366.703 m 141.062 366.703 140.016 367.746 140.016 369.035 c 140.016
 370.32 141.062 371.367 142.348 371.367 c 143.637 371.367 144.684 370.32
 144.684 369.035 c 144.684 367.746 143.637 366.703 142.348 366.703 c h
142.348 366.703 m f
152.484 376.27 m 152.484 374.98 151.441 373.938 150.152 373.938 c 149.008
 373.938 148.062 374.762 147.863 375.848 c 149.367 376.207 150.879 376.547
 152.395 376.871 c 152.449 376.676 152.484 376.48 152.484 376.27 c h
152.484 376.27 m f
135.113 348.527 m 135.77 348.527 136.359 348.254 136.785 347.82 c 135.574
 347.719 134.371 347.602 133.168 347.48 c 133.586 348.109 134.301 348.527
 135.113 348.527 c h
135.113 348.527 m f
124.98 353.996 m 124.98 355.285 126.023 356.328 127.312 356.328 c 128.602
 356.328 129.645 355.285 129.645 353.996 c 129.645 352.711 128.602 351.664
 127.312 351.664 c 126.023 351.664 124.98 352.707 124.98 353.996 c h
124.98 353.996 m f
135.113 358.902 m 133.824 358.902 132.781 359.945 132.781 361.234 c 132.781
 362.523 133.824 363.566 135.113 363.566 c 136.402 363.566 137.445 362.52
 137.445 361.234 c 137.445 359.945 136.402 358.902 135.113 358.902 c h
135.113 358.902 m f
127.312 366.703 m 126.102 366.703 125.117 367.629 125.004 368.809 c 126.406
 369.34 127.816 369.855 129.234 370.355 c 129.492 369.977 129.645 369.523
 129.645 369.035 c 129.645 367.746 128.602 366.703 127.312 366.703 c h
127.312 366.703 m f
120.078 348.527 m 121.363 348.527 122.41 347.484 122.41 346.195 c 122.41
 346.152 122.398 346.113 122.395 346.07 c 120.898 345.836 119.406 345.582
 117.918 345.312 c 117.809 345.586 117.742 345.883 117.742 346.195 c 117.742
 347.484 118.789 348.527 120.078 348.527 c h
120.078 348.527 m f
109.941 353.996 m 109.941 355.285 110.988 356.328 112.273 356.328 c 113.562
 356.328 114.605 355.285 114.605 353.996 c 114.605 352.711 113.562 351.664
 112.273 351.664 c 110.988 351.664 109.941 352.707 109.941 353.996 c h
109.941 353.996 m f
120.078 358.902 m 118.789 358.902 117.742 359.945 117.742 361.234 c 117.742
 362.523 118.789 363.566 120.078 363.566 c 121.363 363.566 122.41 362.52
 122.41 361.234 c 122.41 359.945 121.363 358.902 120.078 358.902 c h
120.078 358.902 m f
97.238 341.293 m 97.777 341.293 98.27 341.102 98.668 340.793 c 97.453 340.441
 96.242 340.074 95.035 339.703 c 95.348 340.625 96.211 341.293 97.238 341.293
 c h
97.238 341.293 m f
102.707 346.195 m 102.707 347.484 103.75 348.527 105.039 348.527 c 106.328
 348.527 107.371 347.484 107.371 346.195 c 107.371 344.906 106.328 343.863
 105.039 343.863 c 103.75 343.863 102.707 344.906 102.707 346.195 c h
102.707 346.195 m f
99.57 353.996 m 99.57 352.711 98.527 351.664 97.238 351.664 c 95.949 351.664
 94.906 352.711 94.906 353.996 c 94.906 354.078 94.922 354.152 94.93 354.227
 c 96.004 354.875 97.094 355.5 98.184 356.125 c 99 355.762 99.57 354.949
 99.57 353.996 c h
99.57 353.996 m f
105.039 358.902 m 104.598 358.902 104.188 359.031 103.836 359.242 c 105.004
 359.859 106.172 360.465 107.352 361.059 c 107.266 359.852 106.27 358.902
 105.039 358.902 c h
105.039 358.902 m f
79.867 338.961 m 79.867 340.25 80.914 341.293 82.199 341.293 c 83.488 341.293
 84.531 340.25 84.531 338.961 c 84.531 337.672 83.488 336.629 82.199 336.629
 c 80.914 336.629 79.867 337.672 79.867 338.961 c h
79.867 338.961 m f
87.668 346.195 m 87.668 347.484 88.715 348.527 90 348.527 c 91.289 348.527
 92.336 347.484 92.336 346.195 c 92.336 344.906 91.289 343.863 90 343.863
 c 88.715 343.863 87.668 344.906 87.668 346.195 c h
87.668 346.195 m f
74.965 333.492 m 75.551 333.492 76.082 333.266 76.492 332.906 c 75.203 
332.359 73.918 331.797 72.641 331.223 c 72.672 332.48 73.699 333.492 74.965
 333.492 c h
74.965 333.492 m f
0.192157 0.215686 0.239216 rg
329.109 326.391 m 329.305 326.191 329.5 325.992 329.695 325.789 c 364.32
 290.184 383.535 243.477 383.98 193.777 c 384.078 186.035 383.66 178.285
 382.816 170.59 c 378.055 127.402 358.938 87.402 327.77 56.23 c 301.156 
29.621 268.105 11.797 232.133 4.188 c 205.77 -1.395 178.234 -1.395 151.871
 4.188 c 115.898 11.797 82.848 29.621 56.234 56.23 c 24.133 88.332 4.812
 129.805 0.797 174.477 c 0.016 183.094 -0.191 191.754 0.191 200.402 c 2.211
 247.602 21.215 291.738 54.273 325.754 c 57.504 329.098 60.879 332.305 64.34
 335.406 c 99.535 366.816 144.445 384 192.004 384 c 239.551 384 284.449 
366.824 319.645 335.422 c 322.887 332.516 326.066 329.52 329.109 326.391
 c h
110.953 311.941 m 49.301 311.25 l 25.82 283.199 10.445 248.16 6.793 209.746
 c 60.926 165.977 l 111.066 182.27 l 140.145 271.766 l h
272.938 182.27 m 320.613 166.781 l 376.949 212.328 l 372.863 249.73 357.656
 283.832 334.703 311.25 c 273.051 311.941 l 243.859 271.766 l h
346.633 88.637 m 318.883 161.094 l 270.848 176.703 l 194.973 121.578 l 
194.973 76.641 l 269.188 22.719 l 300.695 37.145 327.5 60.105 346.633 88.637
 c h
114.816 22.719 m 189.031 76.641 l 189.031 121.578 l 113.156 176.703 l 62.625
 160.285 l 35.988 90.734 l 55.203 61.234 82.543 37.492 114.816 22.719 c 
h
136.449 369.586 m 119.102 314.086 l 118.895 313.414 118.457 312.867 117.895
 312.5 c 144.855 275.391 l 239.148 275.391 l 266.086 312.465 l 265.5 312.832
 265.043 313.395 264.828 314.086 c 247.473 369.613 l 229.945 375.098 211.312
 378.059 192.004 378.059 c 172.66 378.059 154 375.09 136.449 369.586 c h
136.449 369.586 m f
Q Q
showpage
%%Trailer
end
%%EOF
