%!PS-Adobe-3.0 EPSF-3.0
%%Creator: cairo 1.16.0 (https://cairographics.org)
%%CreationDate: Wed Jul 15 13:23:46 2020
%%Pages: 1
%%DocumentData: Clean7Bit
%%LanguageLevel: 2
%%BoundingBox: 0 0 384 384
%%EndComments
%%BeginProlog
50 dict begin
/q { gsave } bind def
/Q { grestore } bind def
/cm { 6 array astore concat } bind def
/w { setlinewidth } bind def
/J { setlinecap } bind def
/j { setlinejoin } bind def
/M { setmiterlimit } bind def
/d { setdash } bind def
/m { moveto } bind def
/l { lineto } bind def
/c { curveto } bind def
/h { closepath } bind def
/re { exch dup neg 3 1 roll 5 3 roll moveto 0 rlineto
      0 exch rlineto 0 rlineto closepath } bind def
/S { stroke } bind def
/f { fill } bind def
/f* { eofill } bind def
/n { newpath } bind def
/W { clip } bind def
/W* { eoclip } bind def
/BT { } bind def
/ET { } bind def
/BDC { mark 3 1 roll /BDC pdfmark } bind def
/EMC { mark /EMC pdfmark } bind def
/cairo_store_point { /cairo_point_y exch def /cairo_point_x exch def } def
/Tj { show currentpoint cairo_store_point } bind def
/TJ {
  {
    dup
    type /stringtype eq
    { show } { -0.001 mul 0 cairo_font_matrix dtransform rmoveto } ifelse
  } forall
  currentpoint cairo_store_point
} bind def
/cairo_selectfont { cairo_font_matrix aload pop pop pop 0 0 6 array astore
    cairo_font exch selectfont cairo_point_x cairo_point_y moveto } bind def
/Tf { pop /cairo_font exch def /cairo_font_matrix where
      { pop cairo_selectfont } if } bind def
/Td { matrix translate cairo_font_matrix matrix concatmatrix dup
      /cairo_font_matrix exch def dup 4 get exch 5 get cairo_store_point
      /cairo_font where { pop cairo_selectfont } if } bind def
/Tm { 2 copy 8 2 roll 6 array astore /cairo_font_matrix exch def
      cairo_store_point /cairo_font where { pop cairo_selectfont } if } bind def
/g { setgray } bind def
/rg { setrgbcolor } bind def
/d1 { setcachedevice } bind def
/cairo_data_source {
  CairoDataIndex CairoData length lt
    { CairoData CairoDataIndex get /CairoDataIndex CairoDataIndex 1 add def }
    { () } ifelse
} def
/cairo_flush_ascii85_file { cairo_ascii85_file status { cairo_ascii85_file flushfile } if } def
/cairo_image { image cairo_flush_ascii85_file } def
/cairo_imagemask { imagemask cairo_flush_ascii85_file } def
%%EndProlog
%%BeginSetup
%%EndSetup
%%Page: 1 1
%%BeginPageSetup
%%PageBoundingBox: 0 0 384 384
%%EndPageSetup
q 0 0 384 384 rectclip
1 0 0 -1 0 384 cm q
0.917647 0.658824 0.584314 rg
325.977 58.852 m 399.758 132.637 399.758 252.262 325.977 326.047 c 252.191
 399.828 132.566 399.828 58.781 326.047 c -15 252.262 -15 132.637 58.781
 58.852 c 132.566 -14.934 252.191 -14.934 325.977 58.852 c h
325.977 58.852 m f
0.976471 0.984314 0.988235 rg
381.125 182.773 m 381.082 181.871 381.035 180.969 380.977 180.07 c 380.746
 180.434 380.605 180.859 380.605 181.324 c 380.605 181.875 380.805 182.375
 381.125 182.773 c h
381.125 182.773 m f
380.605 196.34 m 380.605 196.988 380.871 197.57 381.293 197.992 c 381.328
 196.871 381.355 195.75 381.367 194.629 c 380.902 195.055 380.605 195.66
 380.605 196.34 c h
380.605 196.34 m f
365.59 121.25 m 365.59 122.535 366.633 123.578 367.918 123.578 c 368.09
 123.578 368.254 123.559 368.414 123.523 c 367.855 122.102 367.281 120.688
 366.691 119.277 c 366.031 119.688 365.59 120.414 365.59 121.25 c h
365.59 121.25 m f
367.918 133.938 m 366.633 133.938 365.59 134.98 365.59 136.27 c 365.59 
137.555 366.633 138.598 367.918 138.598 c 369.203 138.598 370.246 137.555
 370.246 136.27 c 370.246 134.98 369.203 133.938 367.918 133.938 c h
367.918 133.938 m f
373.379 143.496 m 373.379 144.73 374.348 145.73 375.562 145.809 c 375.203
 144.387 374.824 142.969 374.43 141.551 c 373.797 141.969 373.379 142.68
 373.379 143.496 c h
373.379 143.496 m f
367.918 148.957 m 366.633 148.957 365.59 150 365.59 151.285 c 365.59 152.574
 366.633 153.617 367.918 153.617 c 369.203 153.617 370.246 152.574 370.246
 151.285 c 370.246 150 369.203 148.957 367.918 148.957 c h
367.918 148.957 m f
375.711 156.184 m 374.422 156.184 373.379 157.227 373.379 158.512 c 373.379
 159.801 374.422 160.844 375.711 160.844 c 376.996 160.844 378.039 159.801
 378.039 158.512 c 378.039 157.227 376.996 156.184 375.711 156.184 c h
375.711 156.184 m f
367.918 163.977 m 366.633 163.977 365.59 165.02 365.59 166.305 c 365.59
 167.59 366.633 168.633 367.918 168.633 c 369.203 168.633 370.246 167.59
 370.246 166.305 c 370.246 165.02 369.203 163.977 367.918 163.977 c h
367.918 163.977 m f
375.711 171.203 m 374.422 171.203 373.379 172.246 373.379 173.531 c 373.379
 174.816 374.422 175.859 375.711 175.859 c 376.996 175.859 378.039 174.816
 378.039 173.531 c 378.039 172.246 376.996 171.203 375.711 171.203 c h
375.711 171.203 m f
367.918 178.992 m 366.633 178.992 365.59 180.035 365.59 181.324 c 365.59
 182.609 366.633 183.652 367.918 183.652 c 369.203 183.652 370.246 182.609
 370.246 181.324 c 370.246 180.035 369.203 178.992 367.918 178.992 c h
367.918 178.992 m f
375.711 186.219 m 374.422 186.219 373.379 187.262 373.379 188.551 c 373.379
 189.836 374.422 190.879 375.711 190.879 c 376.996 190.879 378.039 189.836
 378.039 188.551 c 378.039 187.262 376.996 186.219 375.711 186.219 c h
375.711 186.219 m f
367.918 194.012 m 366.633 194.012 365.59 195.055 365.59 196.34 c 365.59
 197.629 366.633 198.672 367.918 198.672 c 369.203 198.672 370.246 197.629
 370.246 196.34 c 370.246 195.055 369.203 194.012 367.918 194.012 c h
367.918 194.012 m f
375.711 201.238 m 374.422 201.238 373.379 202.281 373.379 203.566 c 373.379
 204.855 374.422 205.898 375.711 205.898 c 376.996 205.898 378.039 204.855
 378.039 203.566 c 378.039 202.281 376.996 201.238 375.711 201.238 c h
375.711 201.238 m f
367.918 209.031 m 366.633 209.031 365.59 210.074 365.59 211.359 c 365.59
 212.645 366.633 213.688 367.918 213.688 c 369.203 213.688 370.246 212.645
 370.246 211.359 c 370.246 210.074 369.203 209.031 367.918 209.031 c h
367.918 209.031 m f
375.711 216.258 m 374.422 216.258 373.379 217.301 373.379 218.586 c 373.379
 219.871 374.422 220.914 375.711 220.914 c 376.996 220.914 378.039 219.871
 378.039 218.586 c 378.039 217.301 376.996 216.258 375.711 216.258 c h
375.711 216.258 m f
367.918 224.047 m 366.633 224.047 365.59 225.09 365.59 226.379 c 365.59
 227.664 366.633 228.707 367.918 228.707 c 369.203 228.707 370.246 227.664
 370.246 226.379 c 370.246 225.09 369.203 224.047 367.918 224.047 c h
367.918 224.047 m f
373.379 233.605 m 373.379 234.891 374.422 235.934 375.711 235.934 c 375.93
 235.934 376.141 235.895 376.344 235.836 c 376.656 234.512 376.949 233.184
 377.234 231.855 c 376.824 231.5 376.293 231.273 375.711 231.273 c 374.422
 231.273 373.379 232.316 373.379 233.605 c h
373.379 233.605 m f
367.918 239.066 m 366.633 239.066 365.59 240.109 365.59 241.395 c 365.59
 242.684 366.633 243.727 367.918 243.727 c 369.203 243.727 370.246 242.684
 370.246 241.395 c 370.246 240.109 369.203 239.066 367.918 239.066 c h
367.918 239.066 m f
367.918 254.086 m 366.633 254.086 365.59 255.129 365.59 256.414 c 365.59
 257.699 366.633 258.742 367.918 258.742 c 368.656 258.742 369.309 258.395
 369.734 257.855 c 369.902 257.402 370.074 256.953 370.238 256.496 c 370.242
 256.469 370.246 256.441 370.246 256.414 c 370.246 255.129 369.203 254.086
 367.918 254.086 c h
367.918 254.086 m f
352.898 93.543 m 353.082 93.543 353.258 93.516 353.43 93.477 c 352.664 
92.234 351.887 90.996 351.086 89.766 c 350.77 90.164 350.57 90.664 350.57
 91.215 c 350.57 92.5 351.613 93.543 352.898 93.543 c h
352.898 93.543 m f
352.898 103.902 m 351.613 103.902 350.57 104.945 350.57 106.23 c 350.57
 107.52 351.613 108.562 352.898 108.562 c 354.188 108.562 355.23 107.52 
355.23 106.23 c 355.23 104.945 354.188 103.902 352.898 103.902 c h
352.898 103.902 m f
360.691 111.129 m 359.406 111.129 358.363 112.172 358.363 113.457 c 358.363
 114.742 359.406 115.789 360.691 115.789 c 361.977 115.789 363.02 114.746
 363.02 113.457 c 363.02 112.172 361.977 111.129 360.691 111.129 c h
360.691 111.129 m f
352.898 118.922 m 351.613 118.922 350.57 119.965 350.57 121.25 c 350.57
 122.535 351.613 123.578 352.898 123.578 c 354.188 123.578 355.23 122.535
 355.23 121.25 c 355.23 119.965 354.188 118.922 352.898 118.922 c h
352.898 118.922 m f
360.691 126.148 m 359.406 126.148 358.363 127.191 358.363 128.477 c 358.363
 129.762 359.406 130.805 360.691 130.805 c 361.977 130.805 363.02 129.762
 363.02 128.477 c 363.02 127.191 361.977 126.148 360.691 126.148 c h
360.691 126.148 m f
352.898 133.938 m 351.613 133.938 350.57 134.98 350.57 136.27 c 350.57 
137.555 351.613 138.598 352.898 138.598 c 354.188 138.598 355.23 137.555
 355.23 136.27 c 355.23 134.98 354.188 133.938 352.898 133.938 c h
352.898 133.938 m f
360.691 141.164 m 359.406 141.164 358.363 142.207 358.363 143.496 c 358.363
 144.781 359.406 145.824 360.691 145.824 c 361.977 145.824 363.02 144.781
 363.02 143.496 c 363.02 142.207 361.977 141.164 360.691 141.164 c h
360.691 141.164 m f
352.898 148.957 m 351.613 148.957 350.57 150 350.57 151.285 c 350.57 152.574
 351.613 153.617 352.898 153.617 c 354.188 153.617 355.23 152.574 355.23
 151.285 c 355.23 150 354.188 148.957 352.898 148.957 c h
352.898 148.957 m f
360.691 156.184 m 359.406 156.184 358.363 157.227 358.363 158.512 c 358.363
 159.801 359.406 160.844 360.691 160.844 c 361.977 160.844 363.02 159.801
 363.02 158.512 c 363.02 157.227 361.977 156.184 360.691 156.184 c h
360.691 156.184 m f
352.898 163.977 m 351.613 163.977 350.57 165.02 350.57 166.305 c 350.57
 167.59 351.613 168.633 352.898 168.633 c 354.188 168.633 355.23 167.59 
355.23 166.305 c 355.23 165.02 354.188 163.977 352.898 163.977 c h
352.898 163.977 m f
360.691 171.203 m 359.406 171.203 358.363 172.246 358.363 173.531 c 358.363
 174.816 359.406 175.859 360.691 175.859 c 361.977 175.859 363.02 174.816
 363.02 173.531 c 363.02 172.246 361.977 171.203 360.691 171.203 c h
360.691 171.203 m f
352.898 178.992 m 351.613 178.992 350.57 180.035 350.57 181.324 c 350.57
 182.609 351.613 183.652 352.898 183.652 c 354.188 183.652 355.23 182.609
 355.23 181.324 c 355.23 180.035 354.188 178.992 352.898 178.992 c h
352.898 178.992 m f
360.691 186.219 m 359.406 186.219 358.363 187.262 358.363 188.551 c 358.363
 189.836 359.406 190.879 360.691 190.879 c 361.977 190.879 363.02 189.836
 363.02 188.551 c 363.02 187.262 361.977 186.219 360.691 186.219 c h
360.691 186.219 m f
352.898 194.012 m 351.613 194.012 350.57 195.055 350.57 196.34 c 350.57
 197.629 351.613 198.672 352.898 198.672 c 354.188 198.672 355.23 197.629
 355.23 196.34 c 355.23 195.055 354.188 194.012 352.898 194.012 c h
352.898 194.012 m f
360.691 201.238 m 359.406 201.238 358.363 202.281 358.363 203.566 c 358.363
 204.855 359.406 205.898 360.691 205.898 c 361.977 205.898 363.02 204.855
 363.02 203.566 c 363.02 202.281 361.977 201.238 360.691 201.238 c h
360.691 201.238 m f
352.898 209.031 m 351.613 209.031 350.57 210.074 350.57 211.359 c 350.57
 212.645 351.613 213.688 352.898 213.688 c 354.188 213.688 355.23 212.645
 355.23 211.359 c 355.23 210.074 354.188 209.031 352.898 209.031 c h
352.898 209.031 m f
360.691 216.258 m 359.406 216.258 358.363 217.301 358.363 218.586 c 358.363
 219.871 359.406 220.914 360.691 220.914 c 361.977 220.914 363.02 219.871
 363.02 218.586 c 363.02 217.301 361.977 216.258 360.691 216.258 c h
360.691 216.258 m f
352.898 224.047 m 351.613 224.047 350.57 225.09 350.57 226.379 c 350.57
 227.664 351.613 228.707 352.898 228.707 c 354.188 228.707 355.23 227.664
 355.23 226.379 c 355.23 225.09 354.188 224.047 352.898 224.047 c h
352.898 224.047 m f
360.691 231.273 m 359.406 231.273 358.363 232.316 358.363 233.605 c 358.363
 234.891 359.406 235.934 360.691 235.934 c 361.977 235.934 363.02 234.891
 363.02 233.605 c 363.02 232.316 361.977 231.273 360.691 231.273 c h
360.691 231.273 m f
352.898 239.066 m 351.613 239.066 350.57 240.109 350.57 241.395 c 350.57
 242.684 351.613 243.727 352.898 243.727 c 354.188 243.727 355.23 242.684
 355.23 241.395 c 355.23 240.109 354.188 239.066 352.898 239.066 c h
352.898 239.066 m f
360.691 246.293 m 359.406 246.293 358.363 247.336 358.363 248.621 c 358.363
 249.91 359.406 250.953 360.691 250.953 c 361.977 250.953 363.02 249.91 
363.02 248.621 c 363.02 247.336 361.977 246.293 360.691 246.293 c h
360.691 246.293 m f
352.898 254.086 m 351.613 254.086 350.57 255.129 350.57 256.414 c 350.57
 257.699 351.613 258.742 352.898 258.742 c 354.188 258.742 355.23 257.699
 355.23 256.414 c 355.23 255.129 354.188 254.086 352.898 254.086 c h
352.898 254.086 m f
360.691 261.312 m 359.406 261.312 358.363 262.355 358.363 263.641 c 358.363
 264.926 359.406 265.969 360.691 265.969 c 361.977 265.969 363.02 264.926
 363.02 263.641 c 363.02 262.355 361.977 261.312 360.691 261.312 c h
360.691 261.312 m f
352.898 269.102 m 351.613 269.102 350.57 270.145 350.57 271.434 c 350.57
 272.719 351.613 273.762 352.898 273.762 c 354.188 273.762 355.23 272.719
 355.23 271.434 c 355.23 270.145 354.188 269.102 352.898 269.102 c h
352.898 269.102 m f
358.363 278.66 m 358.363 279.535 358.852 280.285 359.562 280.684 c 360.285
 279.316 360.992 277.938 361.676 276.555 c 361.379 276.414 361.047 276.328
 360.691 276.328 c 359.406 276.328 358.363 277.371 358.363 278.66 c h
358.363 278.66 m f
352.898 284.121 m 351.613 284.121 350.57 285.164 350.57 286.449 c 350.57
 287.738 351.613 288.781 352.898 288.781 c 354.188 288.781 355.23 287.738
 355.23 286.449 c 355.23 285.164 354.188 284.121 352.898 284.121 c h
352.898 284.121 m f
340.211 76.195 m 340.211 74.91 339.168 73.863 337.883 73.863 c 336.594 
73.863 335.551 74.906 335.551 76.195 c 335.551 77.48 336.594 78.523 337.883
 78.523 c 339.168 78.523 340.211 77.48 340.211 76.195 c h
340.211 76.195 m f
343.344 83.422 m 343.344 84.707 344.387 85.75 345.672 85.75 c 346.504 85.75
 347.227 85.312 347.641 84.66 c 346.82 83.484 345.992 82.316 345.145 81.156
 c 344.113 81.398 343.344 82.316 343.344 83.422 c h
343.344 83.422 m f
340.211 91.215 m 340.211 90.559 339.938 89.969 339.504 89.547 c 339.727
 90.27 339.941 90.992 340.152 91.715 c 340.188 91.555 340.211 91.387 340.211
 91.215 c h
340.211 91.215 m f
345.672 96.109 m 344.387 96.109 343.344 97.152 343.344 98.441 c 343.344
 99.727 344.387 100.77 345.672 100.77 c 346.961 100.77 348.004 99.727 348.004
 98.441 c 348.004 97.152 346.961 96.109 345.672 96.109 c h
345.672 96.109 m f
345.672 111.129 m 345.359 111.129 345.059 111.191 344.785 111.305 c 345.055
 112.793 345.301 114.281 345.531 115.773 c 345.582 115.777 345.625 115.789
 345.672 115.789 c 346.961 115.789 348.004 114.742 348.004 113.457 c 348.004
 112.172 346.961 111.129 345.672 111.129 c h
345.672 111.129 m f
346.895 126.5 m 347.016 127.734 347.125 128.969 347.223 130.203 c 347.699
 129.777 348.004 129.164 348.004 128.477 c 348.004 127.641 347.559 126.91
 346.895 126.5 c h
346.895 126.5 m f
347.785 142.52 m 347.793 143.156 347.805 143.793 347.805 144.426 c 347.93
 144.141 348.004 143.828 348.004 143.496 c 348.004 143.145 347.922 142.816
 347.785 142.52 c h
347.785 142.52 m f
347.426 156.992 m 347.355 158.082 347.277 159.176 347.191 160.266 c 347.684
 159.84 348.004 159.219 348.004 158.512 c 348.004 157.926 347.781 157.398
 347.426 156.992 c h
347.426 156.992 m f
345.988 171.234 m 345.773 172.766 345.543 174.293 345.293 175.82 c 345.414
 175.844 345.543 175.859 345.672 175.859 c 346.957 175.859 348 174.816 348
 173.531 c 348.004 172.352 347.125 171.387 345.988 171.234 c h
345.988 171.234 m f
345.672 186.219 m 344.387 186.219 343.344 187.262 343.344 188.551 c 343.344
 189.836 344.387 190.879 345.672 190.879 c 346.961 190.879 348.004 189.836
 348.004 188.551 c 348.004 187.262 346.961 186.219 345.672 186.219 c h
345.672 186.219 m f
345.672 201.238 m 344.387 201.238 343.344 202.281 343.344 203.566 c 343.344
 204.855 344.387 205.898 345.672 205.898 c 346.961 205.898 348.004 204.855
 348.004 203.566 c 348.004 202.281 346.961 201.238 345.672 201.238 c h
345.672 201.238 m f
337.883 213.688 m 339.168 213.688 340.211 212.645 340.211 211.359 c 340.211
 210.074 339.168 209.031 337.883 209.031 c 337.383 209.031 336.922 209.191
 336.543 209.457 c 336.246 210.281 335.938 211.102 335.625 211.918 c 335.879
 212.934 336.789 213.688 337.883 213.688 c h
337.883 213.688 m f
345.672 216.258 m 344.387 216.258 343.344 217.301 343.344 218.586 c 343.344
 219.871 344.387 220.914 345.672 220.914 c 346.961 220.914 348.004 219.871
 348.004 218.586 c 348.004 217.301 346.961 216.258 345.672 216.258 c h
345.672 216.258 m f
337.883 224.047 m 336.594 224.047 335.551 225.09 335.551 226.379 c 335.551
 227.664 336.594 228.707 337.883 228.707 c 339.168 228.707 340.211 227.664
 340.211 226.379 c 340.211 225.09 339.168 224.047 337.883 224.047 c h
337.883 224.047 m f
345.672 231.273 m 344.387 231.273 343.344 232.316 343.344 233.605 c 343.344
 234.891 344.387 235.934 345.672 235.934 c 346.961 235.934 348.004 234.891
 348.004 233.605 c 348.004 232.316 346.961 231.273 345.672 231.273 c h
345.672 231.273 m f
337.883 239.066 m 336.594 239.066 335.551 240.109 335.551 241.395 c 335.551
 242.684 336.594 243.727 337.883 243.727 c 339.168 243.727 340.211 242.684
 340.211 241.395 c 340.211 240.109 339.168 239.066 337.883 239.066 c h
337.883 239.066 m f
345.672 246.293 m 344.387 246.293 343.344 247.336 343.344 248.621 c 343.344
 249.91 344.387 250.953 345.672 250.953 c 346.961 250.953 348.004 249.91
 348.004 248.621 c 348.004 247.336 346.961 246.293 345.672 246.293 c h
345.672 246.293 m f
337.883 254.086 m 336.594 254.086 335.551 255.129 335.551 256.414 c 335.551
 257.699 336.594 258.742 337.883 258.742 c 339.168 258.742 340.211 257.699
 340.211 256.414 c 340.211 255.129 339.168 254.086 337.883 254.086 c h
337.883 254.086 m f
345.672 261.312 m 344.387 261.312 343.344 262.355 343.344 263.641 c 343.344
 264.926 344.387 265.969 345.672 265.969 c 346.961 265.969 348.004 264.926
 348.004 263.641 c 348.004 262.355 346.961 261.312 345.672 261.312 c h
345.672 261.312 m f
337.883 269.102 m 336.594 269.102 335.551 270.145 335.551 271.434 c 335.551
 272.719 336.594 273.762 337.883 273.762 c 339.168 273.762 340.211 272.719
 340.211 271.434 c 340.211 270.145 339.168 269.102 337.883 269.102 c h
337.883 269.102 m f
345.672 276.328 m 344.387 276.328 343.344 277.371 343.344 278.66 c 343.344
 279.945 344.387 280.988 345.672 280.988 c 346.961 280.988 348.004 279.945
 348.004 278.66 c 348.004 277.371 346.961 276.328 345.672 276.328 c h
345.672 276.328 m f
337.883 284.121 m 336.594 284.121 335.551 285.164 335.551 286.449 c 335.551
 287.738 336.594 288.781 337.883 288.781 c 339.168 288.781 340.211 287.738
 340.211 286.449 c 340.211 285.164 339.168 284.121 337.883 284.121 c h
337.883 284.121 m f
345.672 291.348 m 344.387 291.348 343.344 292.391 343.344 293.676 c 343.344
 294.965 344.387 296.008 345.672 296.008 c 346.961 296.008 348.004 294.965
 348.004 293.676 c 348.004 292.391 346.961 291.348 345.672 291.348 c h
345.672 291.348 m f
337.883 299.141 m 336.594 299.141 335.551 300.184 335.551 301.469 c 335.551
 302.754 336.594 303.797 337.883 303.797 c 339.168 303.797 340.211 302.754
 340.211 301.469 c 340.211 300.184 339.168 299.141 337.883 299.141 c h
337.883 299.141 m f
335.719 315.633 m 336.043 315.258 336.363 314.875 336.684 314.496 c 336.25
 314.762 335.906 315.156 335.719 315.633 c h
335.719 315.633 m f
332.984 68.402 m 332.984 67.117 331.941 66.074 330.656 66.074 c 330.621
 66.074 330.586 66.082 330.551 66.086 c 331.156 67.395 331.742 68.711 332.316
 70.035 c 332.727 69.613 332.984 69.039 332.984 68.402 c h
332.984 68.402 m f
332.984 218.586 m 332.984 218.574 332.98 218.562 332.98 218.551 c 332.738
 219.125 332.5 219.699 332.254 220.273 c 332.703 219.848 332.984 219.25 
332.984 218.586 c h
332.984 218.586 m f
330.656 231.273 m 329.367 231.273 328.324 232.316 328.324 233.605 c 328.324
 234.891 329.367 235.934 330.656 235.934 c 331.941 235.934 332.984 234.891
 332.984 233.605 c 332.984 232.316 331.941 231.273 330.656 231.273 c h
330.656 231.273 m f
322.863 243.727 m 324.148 243.727 325.191 242.684 325.191 241.395 c 325.191
 240.109 324.148 239.066 322.863 239.066 c 322.848 239.066 322.832 239.07
 322.82 239.07 c 322.164 240.211 321.496 241.352 320.812 242.48 c 321.203
 243.219 321.973 243.727 322.863 243.727 c h
322.863 243.727 m f
330.656 246.293 m 329.367 246.293 328.324 247.336 328.324 248.621 c 328.324
 249.91 329.367 250.953 330.656 250.953 c 331.941 250.953 332.984 249.91
 332.984 248.621 c 332.984 247.336 331.941 246.293 330.656 246.293 c h
330.656 246.293 m f
322.863 254.086 m 321.578 254.086 320.535 255.129 320.535 256.414 c 320.535
 257.699 321.578 258.742 322.863 258.742 c 324.148 258.742 325.191 257.699
 325.191 256.414 c 325.191 255.129 324.148 254.086 322.863 254.086 c h
322.863 254.086 m f
330.656 261.312 m 329.367 261.312 328.324 262.355 328.324 263.641 c 328.324
 264.926 329.367 265.969 330.656 265.969 c 331.941 265.969 332.984 264.926
 332.984 263.641 c 332.984 262.355 331.941 261.312 330.656 261.312 c h
330.656 261.312 m f
322.863 269.102 m 321.578 269.102 320.535 270.145 320.535 271.434 c 320.535
 272.719 321.578 273.762 322.863 273.762 c 324.148 273.762 325.191 272.719
 325.191 271.434 c 325.191 270.145 324.148 269.102 322.863 269.102 c h
322.863 269.102 m f
330.656 276.328 m 329.367 276.328 328.324 277.371 328.324 278.66 c 328.324
 279.945 329.367 280.988 330.656 280.988 c 331.941 280.988 332.984 279.945
 332.984 278.66 c 332.984 277.371 331.941 276.328 330.656 276.328 c h
330.656 276.328 m f
322.863 284.121 m 321.578 284.121 320.535 285.164 320.535 286.449 c 320.535
 287.738 321.578 288.781 322.863 288.781 c 324.148 288.781 325.191 287.738
 325.191 286.449 c 325.191 285.164 324.148 284.121 322.863 284.121 c h
322.863 284.121 m f
330.656 291.348 m 329.367 291.348 328.324 292.391 328.324 293.676 c 328.324
 294.965 329.367 296.008 330.656 296.008 c 331.941 296.008 332.984 294.965
 332.984 293.676 c 332.984 292.391 331.941 291.348 330.656 291.348 c h
330.656 291.348 m f
322.863 299.141 m 321.578 299.141 320.535 300.184 320.535 301.469 c 320.535
 302.754 321.578 303.797 322.863 303.797 c 324.148 303.797 325.191 302.754
 325.191 301.469 c 325.191 300.184 324.148 299.141 322.863 299.141 c h
322.863 299.141 m f
330.656 306.367 m 329.367 306.367 328.324 307.41 328.324 308.695 c 328.324
 309.98 329.367 311.027 330.656 311.027 c 331.941 311.027 332.984 309.984
 332.984 308.695 c 332.984 307.41 331.941 306.367 330.656 306.367 c h
330.656 306.367 m f
322.863 314.156 m 321.578 314.156 320.535 315.199 320.535 316.488 c 320.535
 317.773 321.578 318.816 322.863 318.816 c 324.148 318.816 325.191 317.773
 325.191 316.488 c 325.191 315.199 324.148 314.156 322.863 314.156 c h
322.863 314.156 m f
328.324 323.715 m 328.324 323.723 328.328 323.73 328.328 323.738 c 329.074
 322.965 329.805 322.18 330.539 321.395 c 329.309 321.457 328.324 322.465
 328.324 323.715 c h
328.324 323.715 m f
322.828 329.18 m 321.621 329.195 320.648 330.133 320.555 331.316 c 320.863
 331.031 321.176 330.758 321.484 330.469 c 321.938 330.043 322.379 329.609
 322.828 329.18 c h
322.828 329.18 m f
317.965 248.621 m 317.965 248.223 317.855 247.848 317.676 247.52 c 316.938
 248.664 316.184 249.801 315.418 250.93 c 315.492 250.938 315.562 250.953
 315.637 250.953 c 316.922 250.953 317.965 249.91 317.965 248.621 c h
317.965 248.621 m f
315.637 261.312 m 314.352 261.312 313.309 262.355 313.309 263.641 c 313.309
 264.926 314.352 265.969 315.637 265.969 c 316.922 265.969 317.965 264.926
 317.965 263.641 c 317.965 262.355 316.922 261.312 315.637 261.312 c h
315.637 261.312 m f
307.844 269.102 m 306.559 269.102 305.516 270.145 305.516 271.434 c 305.516
 272.719 306.559 273.762 307.844 273.762 c 309.133 273.762 310.176 272.719
 310.176 271.434 c 310.176 270.145 309.133 269.102 307.844 269.102 c h
307.844 269.102 m f
315.637 276.328 m 314.352 276.328 313.309 277.371 313.309 278.66 c 313.309
 279.945 314.352 280.988 315.637 280.988 c 316.922 280.988 317.965 279.945
 317.965 278.66 c 317.965 277.371 316.922 276.328 315.637 276.328 c h
315.637 276.328 m f
307.844 284.121 m 306.559 284.121 305.516 285.164 305.516 286.449 c 305.516
 287.738 306.559 288.781 307.844 288.781 c 309.133 288.781 310.176 287.738
 310.176 286.449 c 310.176 285.164 309.133 284.121 307.844 284.121 c h
307.844 284.121 m f
315.637 291.348 m 314.352 291.348 313.309 292.391 313.309 293.676 c 313.309
 294.965 314.352 296.008 315.637 296.008 c 316.922 296.008 317.965 294.965
 317.965 293.676 c 317.965 292.391 316.922 291.348 315.637 291.348 c h
315.637 291.348 m f
307.844 299.141 m 306.559 299.141 305.516 300.184 305.516 301.469 c 305.516
 302.754 306.559 303.797 307.844 303.797 c 309.133 303.797 310.176 302.754
 310.176 301.469 c 310.176 300.184 309.133 299.141 307.844 299.141 c h
307.844 299.141 m f
315.637 306.367 m 314.352 306.367 313.309 307.41 313.309 308.695 c 313.309
 309.98 314.352 311.027 315.637 311.027 c 316.922 311.027 317.965 309.984
 317.965 308.695 c 317.965 307.41 316.922 306.367 315.637 306.367 c h
315.637 306.367 m f
307.844 314.156 m 306.559 314.156 305.516 315.199 305.516 316.488 c 305.516
 317.773 306.559 318.816 307.844 318.816 c 309.133 318.816 310.176 317.773
 310.176 316.488 c 310.176 315.199 309.133 314.156 307.844 314.156 c h
307.844 314.156 m f
315.637 321.383 m 314.352 321.383 313.309 322.426 313.309 323.715 c 313.309
 325 314.352 326.043 315.637 326.043 c 316.922 326.043 317.965 325 317.965
 323.715 c 317.965 322.426 316.922 321.383 315.637 321.383 c h
315.637 321.383 m f
307.844 329.176 m 306.559 329.176 305.516 330.219 305.516 331.508 c 305.516
 332.793 306.559 333.836 307.844 333.836 c 309.133 333.836 310.176 332.793
 310.176 331.508 c 310.176 330.219 309.133 329.176 307.844 329.176 c h
307.844 329.176 m f
313.91 337.18 m 314.078 337.039 314.246 336.898 314.414 336.758 c 314.227
 336.871 314.059 337.016 313.91 337.18 c h
313.91 337.18 m f
300.617 276.328 m 299.332 276.328 298.289 277.371 298.289 278.66 c 298.289
 279.945 299.332 280.988 300.617 280.988 c 301.906 280.988 302.949 279.945
 302.949 278.66 c 302.949 277.371 301.906 276.328 300.617 276.328 c h
300.617 276.328 m f
292.828 284.121 m 291.539 284.121 290.496 285.164 290.496 286.449 c 290.496
 287.738 291.539 288.781 292.828 288.781 c 294.113 288.781 295.156 287.738
 295.156 286.449 c 295.156 285.164 294.113 284.121 292.828 284.121 c h
292.828 284.121 m f
300.617 291.348 m 299.332 291.348 298.289 292.391 298.289 293.676 c 298.289
 294.965 299.332 296.008 300.617 296.008 c 301.906 296.008 302.949 294.965
 302.949 293.676 c 302.949 292.391 301.906 291.348 300.617 291.348 c h
300.617 291.348 m f
292.828 299.141 m 291.539 299.141 290.496 300.184 290.496 301.469 c 290.496
 302.754 291.539 303.797 292.828 303.797 c 294.113 303.797 295.156 302.754
 295.156 301.469 c 295.156 300.184 294.113 299.141 292.828 299.141 c h
292.828 299.141 m f
300.617 306.367 m 299.332 306.367 298.289 307.41 298.289 308.695 c 298.289
 309.98 299.332 311.027 300.617 311.027 c 301.906 311.027 302.949 309.984
 302.949 308.695 c 302.949 307.41 301.906 306.367 300.617 306.367 c h
300.617 306.367 m f
292.828 314.156 m 291.539 314.156 290.496 315.199 290.496 316.488 c 290.496
 317.773 291.539 318.816 292.828 318.816 c 294.113 318.816 295.156 317.773
 295.156 316.488 c 295.156 315.199 294.113 314.156 292.828 314.156 c h
292.828 314.156 m f
300.617 321.383 m 299.332 321.383 298.289 322.426 298.289 323.715 c 298.289
 325 299.332 326.043 300.617 326.043 c 301.906 326.043 302.949 325 302.949
 323.715 c 302.949 322.426 301.906 321.383 300.617 321.383 c h
300.617 321.383 m f
292.828 329.176 m 291.539 329.176 290.496 330.219 290.496 331.508 c 290.496
 332.793 291.539 333.836 292.828 333.836 c 294.113 333.836 295.156 332.793
 295.156 331.508 c 295.156 330.219 294.113 329.176 292.828 329.176 c h
292.828 329.176 m f
300.617 336.402 m 299.332 336.402 298.289 337.445 298.289 338.73 c 298.289
 340.02 299.332 341.062 300.617 341.062 c 301.906 341.062 302.949 340.02
 302.949 338.73 c 302.949 337.445 301.906 336.402 300.617 336.402 c h
300.617 336.402 m f
292.828 344.195 m 291.539 344.195 290.496 345.238 290.496 346.523 c 290.496
 347.809 291.539 348.852 292.828 348.852 c 294.113 348.852 295.156 347.809
 295.156 346.523 c 295.156 345.238 294.113 344.195 292.828 344.195 c h
292.828 344.195 m f
285.602 291.348 m 284.312 291.348 283.27 292.391 283.27 293.676 c 283.27
 294.965 284.312 296.008 285.602 296.008 c 286.887 296.008 287.93 294.965
 287.93 293.676 c 287.93 292.391 286.887 291.348 285.602 291.348 c h
285.602 291.348 m f
277.809 299.141 m 276.523 299.141 275.48 300.184 275.48 301.469 c 275.48
 302.754 276.523 303.797 277.809 303.797 c 279.094 303.797 280.137 302.754
 280.137 301.469 c 280.137 300.184 279.094 299.141 277.809 299.141 c h
277.809 299.141 m f
285.602 306.367 m 284.312 306.367 283.27 307.41 283.27 308.695 c 283.27
 309.98 284.312 311.027 285.602 311.027 c 286.887 311.027 287.93 309.984
 287.93 308.695 c 287.93 307.41 286.887 306.367 285.602 306.367 c h
285.602 306.367 m f
277.809 314.156 m 276.523 314.156 275.48 315.199 275.48 316.488 c 275.48
 317.773 276.523 318.816 277.809 318.816 c 279.094 318.816 280.137 317.773
 280.137 316.488 c 280.137 315.199 279.094 314.156 277.809 314.156 c h
277.809 314.156 m f
285.602 321.383 m 284.312 321.383 283.27 322.426 283.27 323.715 c 283.27
 325 284.312 326.043 285.602 326.043 c 286.887 326.043 287.93 325 287.93
 323.715 c 287.93 322.426 286.887 321.383 285.602 321.383 c h
285.602 321.383 m f
277.809 329.176 m 276.523 329.176 275.48 330.219 275.48 331.508 c 275.48
 332.793 276.523 333.836 277.809 333.836 c 279.094 333.836 280.137 332.793
 280.137 331.508 c 280.137 330.219 279.094 329.176 277.809 329.176 c h
277.809 329.176 m f
285.602 336.402 m 284.312 336.402 283.27 337.445 283.27 338.73 c 283.27
 340.02 284.312 341.062 285.602 341.062 c 286.887 341.062 287.93 340.02 
287.93 338.73 c 287.93 337.445 286.887 336.402 285.602 336.402 c h
285.602 336.402 m f
277.809 344.195 m 276.523 344.195 275.48 345.238 275.48 346.523 c 275.48
 347.809 276.523 348.852 277.809 348.852 c 279.094 348.852 280.137 347.809
 280.137 346.523 c 280.137 345.238 279.094 344.195 277.809 344.195 c h
277.809 344.195 m f
285.602 351.422 m 284.312 351.422 283.27 352.465 283.27 353.75 c 283.27
 355.035 284.312 356.082 285.602 356.082 c 286.887 356.082 287.93 355.039
 287.93 353.75 c 287.93 352.465 286.887 351.422 285.602 351.422 c h
285.602 351.422 m f
277.809 359.211 m 276.523 359.211 275.48 360.254 275.48 361.543 c 275.48
 361.762 275.52 361.973 275.578 362.176 c 276.938 361.508 278.293 360.824
 279.641 360.121 c 279.215 359.57 278.559 359.211 277.809 359.211 c h
277.809 359.211 m f
265.117 301.469 m 265.117 301.426 265.109 301.387 265.105 301.348 c 264.008
 302.098 262.902 302.84 261.789 303.562 c 262.094 303.711 262.43 303.797
 262.789 303.797 c 264.078 303.797 265.117 302.754 265.117 301.469 c h
265.117 301.469 m f
270.582 306.367 m 269.297 306.367 268.254 307.41 268.254 308.695 c 268.254
 309.98 269.297 311.027 270.582 311.027 c 271.867 311.027 272.91 309.984
 272.91 308.695 c 272.91 307.41 271.867 306.367 270.582 306.367 c h
270.582 306.367 m f
262.789 314.156 m 261.504 314.156 260.461 315.199 260.461 316.488 c 260.461
 317.773 261.504 318.816 262.789 318.816 c 264.074 318.816 265.117 317.773
 265.117 316.488 c 265.117 315.199 264.078 314.156 262.789 314.156 c h
262.789 314.156 m f
270.582 321.383 m 269.297 321.383 268.254 322.426 268.254 323.715 c 268.254
 325 269.297 326.043 270.582 326.043 c 271.867 326.043 272.91 325 272.91
 323.715 c 272.91 322.426 271.867 321.383 270.582 321.383 c h
270.582 321.383 m f
262.789 329.176 m 261.504 329.176 260.461 330.219 260.461 331.508 c 260.461
 332.793 261.504 333.836 262.789 333.836 c 264.074 333.836 265.117 332.793
 265.117 331.508 c 265.117 330.219 264.078 329.176 262.789 329.176 c h
262.789 329.176 m f
270.582 336.402 m 269.297 336.402 268.254 337.445 268.254 338.73 c 268.254
 340.02 269.297 341.062 270.582 341.062 c 271.867 341.062 272.91 340.02 
272.91 338.73 c 272.91 337.445 271.867 336.402 270.582 336.402 c h
270.582 336.402 m f
262.789 344.195 m 261.504 344.195 260.461 345.238 260.461 346.523 c 260.461
 347.809 261.504 348.852 262.789 348.852 c 264.074 348.852 265.117 347.809
 265.117 346.523 c 265.117 345.238 264.078 344.195 262.789 344.195 c h
262.789 344.195 m f
270.582 351.422 m 269.297 351.422 268.254 352.465 268.254 353.75 c 268.254
 355.035 269.297 356.082 270.582 356.082 c 271.867 356.082 272.91 355.039
 272.91 353.75 c 272.91 352.465 271.867 351.422 270.582 351.422 c h
270.582 351.422 m f
262.789 359.211 m 261.504 359.211 260.461 360.254 260.461 361.543 c 260.461
 362.828 261.504 363.871 262.789 363.871 c 264.074 363.871 265.117 362.828
 265.117 361.543 c 265.117 360.254 264.078 359.211 262.789 359.211 c h
262.789 359.211 m f
255.562 311.023 m 256.852 311.023 257.895 309.98 257.895 308.695 c 257.895
 307.852 257.441 307.117 256.766 306.711 c 255.598 307.418 254.426 308.121
 253.246 308.801 c 253.301 310.039 254.312 311.023 255.562 311.023 c h
255.562 311.023 m f
247.773 314.156 m 246.484 314.156 245.441 315.199 245.441 316.488 c 245.441
 317.773 246.484 318.816 247.773 318.816 c 249.059 318.816 250.102 317.773
 250.102 316.488 c 250.102 315.199 249.059 314.156 247.773 314.156 c h
247.773 314.156 m f
255.562 321.383 m 254.277 321.383 253.234 322.426 253.234 323.715 c 253.234
 325 254.277 326.043 255.562 326.043 c 256.852 326.043 257.895 325 257.895
 323.715 c 257.895 322.426 256.852 321.383 255.562 321.383 c h
255.562 321.383 m f
247.773 329.176 m 246.484 329.176 245.441 330.219 245.441 331.508 c 245.441
 332.793 246.484 333.836 247.773 333.836 c 249.059 333.836 250.102 332.793
 250.102 331.508 c 250.102 330.219 249.059 329.176 247.773 329.176 c h
247.773 329.176 m f
255.562 336.402 m 254.277 336.402 253.234 337.445 253.234 338.73 c 253.234
 340.02 254.277 341.062 255.562 341.062 c 256.852 341.062 257.895 340.02
 257.895 338.73 c 257.895 337.445 256.852 336.402 255.562 336.402 c h
255.562 336.402 m f
247.773 344.195 m 246.484 344.195 245.441 345.238 245.441 346.523 c 245.441
 347.809 246.484 348.852 247.773 348.852 c 249.059 348.852 250.102 347.809
 250.102 346.523 c 250.102 345.238 249.059 344.195 247.773 344.195 c h
247.773 344.195 m f
255.562 351.422 m 254.277 351.422 253.234 352.465 253.234 353.75 c 253.234
 355.035 254.277 356.082 255.562 356.082 c 256.852 356.082 257.895 355.039
 257.895 353.75 c 257.895 352.465 256.852 351.422 255.562 351.422 c h
255.562 351.422 m f
247.773 359.211 m 246.484 359.211 245.441 360.254 245.441 361.543 c 245.441
 362.828 246.484 363.871 247.773 363.871 c 249.059 363.871 250.102 362.828
 250.102 361.543 c 250.102 360.254 249.059 359.211 247.773 359.211 c h
247.773 359.211 m f
255.562 366.438 m 254.277 366.438 253.234 367.48 253.234 368.77 c 253.234
 369.73 253.816 370.555 254.648 370.91 c 255.637 370.566 256.625 370.223
 257.609 369.863 c 257.785 369.535 257.895 369.168 257.895 368.77 c 257.895
 367.48 256.852 366.438 255.562 366.438 c h
255.562 366.438 m f
240.547 321.383 m 239.258 321.383 238.215 322.426 238.215 323.715 c 238.215
 325 239.258 326.043 240.547 326.043 c 241.832 326.043 242.875 325 242.875
 323.715 c 242.875 322.426 241.832 321.383 240.547 321.383 c h
240.547 321.383 m f
232.754 329.176 m 231.469 329.176 230.426 330.219 230.426 331.508 c 230.426
 332.793 231.469 333.836 232.754 333.836 c 234.039 333.836 235.082 332.793
 235.082 331.508 c 235.082 330.219 234.039 329.176 232.754 329.176 c h
232.754 329.176 m f
240.547 336.402 m 239.258 336.402 238.215 337.445 238.215 338.73 c 238.215
 340.02 239.258 341.062 240.547 341.062 c 241.832 341.062 242.875 340.02
 242.875 338.73 c 242.875 337.445 241.832 336.402 240.547 336.402 c h
240.547 336.402 m f
232.754 344.195 m 231.469 344.195 230.426 345.238 230.426 346.523 c 230.426
 347.809 231.469 348.852 232.754 348.852 c 234.039 348.852 235.082 347.809
 235.082 346.523 c 235.082 345.238 234.039 344.195 232.754 344.195 c h
232.754 344.195 m f
240.547 351.422 m 239.258 351.422 238.215 352.465 238.215 353.75 c 238.215
 355.035 239.258 356.082 240.547 356.082 c 241.832 356.082 242.875 355.039
 242.875 353.75 c 242.875 352.465 241.832 351.422 240.547 351.422 c h
240.547 351.422 m f
232.754 359.211 m 231.469 359.211 230.426 360.254 230.426 361.543 c 230.426
 362.828 231.469 363.871 232.754 363.871 c 234.039 363.871 235.082 362.828
 235.082 361.543 c 235.082 360.254 234.039 359.211 232.754 359.211 c h
232.754 359.211 m f
240.547 366.438 m 239.258 366.438 238.215 367.48 238.215 368.77 c 238.215
 370.055 239.258 371.098 240.547 371.098 c 241.832 371.098 242.875 370.055
 242.875 368.77 c 242.875 367.48 241.832 366.438 240.547 366.438 c h
240.547 366.438 m f
232.754 374.23 m 231.469 374.23 230.426 375.273 230.426 376.562 c 230.426
 376.906 230.504 377.234 230.641 377.527 c 232.125 377.223 233.605 376.898
 235.082 376.559 c 235.082 375.273 234.039 374.23 232.754 374.23 c h
232.754 374.23 m f
225.527 326.043 m 226.812 326.043 227.855 325 227.855 323.715 c 227.855
 322.746 227.27 321.918 226.43 321.566 c 225.441 321.945 224.445 322.316
 223.449 322.68 c 223.293 322.992 223.199 323.34 223.199 323.715 c 223.195
 325 224.238 326.043 225.527 326.043 c h
225.527 326.043 m f
217.734 329.176 m 216.449 329.176 215.406 330.219 215.406 331.508 c 215.406
 332.793 216.449 333.836 217.734 333.836 c 219.02 333.836 220.062 332.793
 220.062 331.508 c 220.066 330.219 219.023 329.176 217.734 329.176 c h
217.734 329.176 m f
225.527 336.402 m 224.242 336.402 223.199 337.445 223.199 338.73 c 223.199
 340.02 224.242 341.062 225.527 341.062 c 226.812 341.062 227.855 340.02
 227.855 338.73 c 227.855 337.445 226.812 336.402 225.527 336.402 c h
225.527 336.402 m f
217.734 344.195 m 216.449 344.195 215.406 345.238 215.406 346.523 c 215.406
 347.809 216.449 348.852 217.734 348.852 c 219.02 348.852 220.062 347.809
 220.062 346.523 c 220.066 345.238 219.023 344.195 217.734 344.195 c h
217.734 344.195 m f
225.527 351.422 m 224.242 351.422 223.199 352.465 223.199 353.75 c 223.199
 355.035 224.242 356.082 225.527 356.082 c 226.812 356.082 227.855 355.039
 227.855 353.75 c 227.855 352.465 226.812 351.422 225.527 351.422 c h
225.527 351.422 m f
217.734 359.211 m 216.449 359.211 215.406 360.254 215.406 361.543 c 215.406
 362.828 216.449 363.871 217.734 363.871 c 219.02 363.871 220.062 362.828
 220.062 361.543 c 220.066 360.254 219.023 359.211 217.734 359.211 c h
217.734 359.211 m f
225.527 366.438 m 224.242 366.438 223.199 367.48 223.199 368.77 c 223.199
 370.055 224.242 371.098 225.527 371.098 c 226.812 371.098 227.855 370.055
 227.855 368.77 c 227.855 367.48 226.812 366.438 225.527 366.438 c h
225.527 366.438 m f
217.734 374.23 m 216.449 374.23 215.406 375.273 215.406 376.562 c 215.406
 377.848 216.449 378.891 217.734 378.891 c 219.02 378.891 220.062 377.848
 220.062 376.562 c 220.066 375.273 219.023 374.23 217.734 374.23 c h
217.734 374.23 m f
202.715 329.176 m 201.43 329.176 200.387 330.219 200.387 331.508 c 200.387
 332.793 201.43 333.836 202.715 333.836 c 204.004 333.836 205.047 332.793
 205.047 331.508 c 205.047 330.219 204.004 329.176 202.715 329.176 c h
202.715 329.176 m f
210.508 336.402 m 209.223 336.402 208.18 337.445 208.18 338.73 c 208.18
 340.02 209.223 341.062 210.508 341.062 c 211.797 341.062 212.84 340.02 
212.84 338.73 c 212.84 337.445 211.797 336.402 210.508 336.402 c h
210.508 336.402 m f
202.715 344.195 m 201.43 344.195 200.387 345.238 200.387 346.523 c 200.387
 347.809 201.43 348.852 202.715 348.852 c 204.004 348.852 205.047 347.809
 205.047 346.523 c 205.047 345.238 204.004 344.195 202.715 344.195 c h
202.715 344.195 m f
210.508 351.422 m 209.223 351.422 208.18 352.465 208.18 353.75 c 208.18
 355.035 209.223 356.082 210.508 356.082 c 211.797 356.082 212.84 355.039
 212.84 353.75 c 212.84 352.465 211.797 351.422 210.508 351.422 c h
210.508 351.422 m f
202.715 359.211 m 201.43 359.211 200.387 360.254 200.387 361.543 c 200.387
 362.828 201.43 363.871 202.715 363.871 c 204.004 363.871 205.047 362.828
 205.047 361.543 c 205.047 360.254 204.004 359.211 202.715 359.211 c h
202.715 359.211 m f
210.508 366.438 m 209.223 366.438 208.18 367.48 208.18 368.77 c 208.18 
370.055 209.223 371.098 210.508 371.098 c 211.797 371.098 212.84 370.055
 212.84 368.77 c 212.84 367.48 211.797 366.438 210.508 366.438 c h
210.508 366.438 m f
202.715 374.23 m 201.43 374.23 200.387 375.273 200.387 376.562 c 200.387
 377.848 201.43 378.891 202.715 378.891 c 204.004 378.891 205.047 377.848
 205.047 376.562 c 205.047 375.273 204.004 374.23 202.715 374.23 c h
202.715 374.23 m f
187.699 333.836 m 188.984 333.836 190.027 332.793 190.027 331.508 c 190.027
 331.488 190.023 331.469 190.023 331.453 c 188.508 331.703 186.992 331.938
 185.473 332.152 c 185.754 333.121 186.637 333.836 187.699 333.836 c h
187.699 333.836 m f
195.492 336.402 m 194.203 336.402 193.16 337.445 193.16 338.73 c 193.16
 340.02 194.203 341.062 195.492 341.062 c 196.777 341.062 197.82 340.02 
197.82 338.73 c 197.82 337.445 196.777 336.402 195.492 336.402 c h
195.492 336.402 m f
187.699 344.195 m 186.41 344.195 185.367 345.238 185.367 346.523 c 185.367
 347.809 186.41 348.852 187.699 348.852 c 188.984 348.852 190.027 347.809
 190.027 346.523 c 190.027 345.238 188.984 344.195 187.699 344.195 c h
187.699 344.195 m f
195.492 351.422 m 194.203 351.422 193.16 352.465 193.16 353.75 c 193.16
 355.035 194.203 356.082 195.492 356.082 c 196.777 356.082 197.82 355.039
 197.82 353.75 c 197.82 352.465 196.777 351.422 195.492 351.422 c h
195.492 351.422 m f
187.699 359.211 m 186.41 359.211 185.367 360.254 185.367 361.543 c 185.367
 362.828 186.41 363.871 187.699 363.871 c 188.984 363.871 190.027 362.828
 190.027 361.543 c 190.027 360.254 188.984 359.211 187.699 359.211 c h
187.699 359.211 m f
195.492 371.098 m 196.777 371.098 197.82 370.055 197.82 368.77 c 197.82
 367.48 196.777 366.438 195.492 366.438 c 194.203 366.438 193.16 367.48 
193.16 368.77 c 193.16 370.055 194.203 371.098 195.492 371.098 c h
195.492 371.098 m f
187.699 374.23 m 186.41 374.23 185.367 375.273 185.367 376.562 c 185.367
 377.848 186.41 378.891 187.699 378.891 c 188.984 378.891 190.027 377.848
 190.027 376.562 c 190.027 375.273 188.984 374.23 187.699 374.23 c h
187.699 374.23 m f
174.023 333.402 m 173.234 333.469 172.445 333.535 171.656 333.586 c 171.965
 333.742 172.309 333.836 172.68 333.836 c 173.18 333.836 173.641 333.672
 174.023 333.402 c h
174.023 333.402 m f
180.473 336.402 m 179.188 336.402 178.145 337.445 178.145 338.73 c 178.145
 340.02 179.188 341.062 180.473 341.062 c 181.758 341.062 182.801 340.02
 182.801 338.73 c 182.801 337.445 181.758 336.402 180.473 336.402 c h
180.473 336.402 m f
172.68 344.195 m 171.395 344.195 170.352 345.238 170.352 346.523 c 170.352
 347.809 171.395 348.852 172.68 348.852 c 173.965 348.852 175.008 347.809
 175.008 346.523 c 175.012 345.238 173.969 344.195 172.68 344.195 c h
172.68 344.195 m f
180.473 351.422 m 179.188 351.422 178.145 352.465 178.145 353.75 c 178.145
 355.035 179.188 356.082 180.473 356.082 c 181.758 356.082 182.801 355.039
 182.801 353.75 c 182.801 352.465 181.758 351.422 180.473 351.422 c h
180.473 351.422 m f
172.68 359.211 m 171.395 359.211 170.352 360.254 170.352 361.543 c 170.352
 362.828 171.395 363.871 172.68 363.871 c 173.965 363.871 175.008 362.828
 175.008 361.543 c 175.012 360.254 173.969 359.211 172.68 359.211 c h
172.68 359.211 m f
180.473 366.438 m 179.188 366.438 178.145 367.48 178.145 368.77 c 178.145
 370.055 179.188 371.098 180.473 371.098 c 181.758 371.098 182.801 370.055
 182.801 368.77 c 182.801 367.48 181.758 366.438 180.473 366.438 c h
180.473 366.438 m f
172.68 374.23 m 171.395 374.23 170.352 375.273 170.352 376.562 c 170.352
 377.848 171.395 378.891 172.68 378.891 c 173.965 378.891 175.008 377.848
 175.008 376.562 c 175.012 375.273 173.969 374.23 172.68 374.23 c h
172.68 374.23 m f
165.453 336.402 m 164.168 336.402 163.125 337.445 163.125 338.73 c 163.125
 340.02 164.168 341.062 165.453 341.062 c 166.742 341.062 167.785 340.02
 167.785 338.73 c 167.785 337.445 166.742 336.402 165.453 336.402 c h
165.453 336.402 m f
157.66 344.195 m 156.375 344.195 155.332 345.238 155.332 346.523 c 155.332
 347.809 156.375 348.852 157.66 348.852 c 158.949 348.852 159.992 347.809
 159.992 346.523 c 159.992 345.238 158.949 344.195 157.66 344.195 c h
157.66 344.195 m f
165.453 351.422 m 164.168 351.422 163.125 352.465 163.125 353.75 c 163.125
 355.035 164.168 356.082 165.453 356.082 c 166.742 356.082 167.785 355.039
 167.785 353.75 c 167.785 352.465 166.742 351.422 165.453 351.422 c h
165.453 351.422 m f
157.66 359.211 m 156.375 359.211 155.332 360.254 155.332 361.543 c 155.332
 362.828 156.375 363.871 157.66 363.871 c 158.949 363.871 159.992 362.828
 159.992 361.543 c 159.992 360.254 158.949 359.211 157.66 359.211 c h
157.66 359.211 m f
165.453 366.438 m 164.168 366.438 163.125 367.48 163.125 368.77 c 163.125
 370.055 164.168 371.098 165.453 371.098 c 166.742 371.098 167.785 370.055
 167.785 368.77 c 167.785 367.48 166.742 366.438 165.453 366.438 c h
165.453 366.438 m f
159.992 376.562 m 159.992 375.273 158.949 374.23 157.664 374.23 c 156.375
 374.23 155.332 375.273 155.332 376.562 c 155.332 377.023 155.473 377.453
 155.703 377.812 c 156.809 378.031 157.914 378.25 159.02 378.449 c 159.605
 378.023 159.992 377.34 159.992 376.562 c h
159.992 376.562 m f
143.965 333.422 m 142.984 333.344 142 333.266 141.02 333.172 c 141.441 
333.582 142.012 333.836 142.645 333.836 c 143.137 333.836 143.59 333.68 
143.965 333.422 c h
143.965 333.422 m f
150.438 336.402 m 149.148 336.402 148.105 337.445 148.105 338.73 c 148.105
 340.02 149.148 341.062 150.438 341.062 c 151.723 341.062 152.766 340.02
 152.766 338.73 c 152.766 337.445 151.723 336.402 150.438 336.402 c h
150.438 336.402 m f
142.645 344.195 m 141.355 344.195 140.312 345.238 140.312 346.523 c 140.312
 347.809 141.355 348.852 142.645 348.852 c 143.93 348.852 144.973 347.809
 144.973 346.523 c 144.973 345.238 143.93 344.195 142.645 344.195 c h
142.645 344.195 m f
150.438 351.422 m 149.148 351.422 148.105 352.465 148.105 353.75 c 148.105
 355.035 149.148 356.082 150.438 356.082 c 151.723 356.082 152.766 355.039
 152.766 353.75 c 152.766 352.465 151.723 351.422 150.438 351.422 c h
150.438 351.422 m f
142.645 359.211 m 141.355 359.211 140.312 360.254 140.312 361.543 c 140.312
 362.828 141.355 363.871 142.645 363.871 c 143.93 363.871 144.973 362.828
 144.973 361.543 c 144.973 360.254 143.93 359.211 142.645 359.211 c h
142.645 359.211 m f
150.438 366.438 m 149.148 366.438 148.105 367.48 148.105 368.77 c 148.105
 370.055 149.148 371.098 150.438 371.098 c 151.723 371.098 152.766 370.055
 152.766 368.77 c 152.766 367.48 151.723 366.438 150.438 366.438 c h
150.438 366.438 m f
142.645 374.23 m 142.273 374.23 141.93 374.324 141.617 374.477 c 142.602
 374.754 143.594 375.012 144.582 375.27 c 144.164 374.645 143.453 374.23
 142.645 374.23 c h
142.645 374.23 m f
127.625 333.836 m 128.816 333.836 129.789 332.938 129.926 331.785 c 128.398
 331.547 126.871 331.293 125.348 331.02 c 125.316 331.176 125.297 331.34
 125.297 331.504 c 125.297 332.793 126.34 333.836 127.625 333.836 c h
127.625 333.836 m f
135.418 336.402 m 134.133 336.402 133.09 337.445 133.09 338.73 c 133.09
 340.02 134.133 341.062 135.418 341.062 c 136.703 341.062 137.746 340.02
 137.746 338.73 c 137.746 337.445 136.703 336.402 135.418 336.402 c h
135.418 336.402 m f
127.625 344.195 m 126.34 344.195 125.297 345.238 125.297 346.523 c 125.297
 347.809 126.34 348.852 127.625 348.852 c 128.91 348.852 129.953 347.809
 129.953 346.523 c 129.957 345.238 128.914 344.195 127.625 344.195 c h
127.625 344.195 m f
135.418 351.422 m 134.133 351.422 133.09 352.465 133.09 353.75 c 133.09
 355.035 134.133 356.082 135.418 356.082 c 136.703 356.082 137.746 355.039
 137.746 353.75 c 137.746 352.465 136.703 351.422 135.418 351.422 c h
135.418 351.422 m f
127.625 359.211 m 126.34 359.211 125.297 360.254 125.297 361.543 c 125.297
 362.828 126.34 363.871 127.625 363.871 c 128.91 363.871 129.953 362.828
 129.953 361.543 c 129.957 360.254 128.914 359.211 127.625 359.211 c h
127.625 359.211 m f
135.418 366.438 m 134.133 366.438 133.09 367.48 133.09 368.77 c 133.09 
370.055 134.133 371.098 135.418 371.098 c 136.703 371.098 137.746 370.055
 137.746 368.77 c 137.746 367.48 136.703 366.438 135.418 366.438 c h
135.418 366.438 m f
112.605 329.176 m 111.32 329.176 110.277 330.219 110.277 331.508 c 110.277
 332.793 111.32 333.836 112.605 333.836 c 113.895 333.836 114.938 332.793
 114.938 331.508 c 114.938 330.219 113.895 329.176 112.605 329.176 c h
112.605 329.176 m f
120.398 336.402 m 119.113 336.402 118.07 337.445 118.07 338.73 c 118.07
 340.02 119.113 341.062 120.398 341.062 c 121.688 341.062 122.73 340.02 
122.73 338.73 c 122.73 337.445 121.688 336.402 120.398 336.402 c h
120.398 336.402 m f
112.605 344.195 m 111.32 344.195 110.277 345.238 110.277 346.523 c 110.277
 347.809 111.32 348.852 112.605 348.852 c 113.895 348.852 114.938 347.809
 114.938 346.523 c 114.938 345.238 113.895 344.195 112.605 344.195 c h
112.605 344.195 m f
120.398 351.422 m 119.113 351.422 118.07 352.465 118.07 353.75 c 118.07
 355.035 119.113 356.082 120.398 356.082 c 121.688 356.082 122.73 355.039
 122.73 353.75 c 122.73 352.465 121.688 351.422 120.398 351.422 c h
120.398 351.422 m f
114.938 361.543 m 114.938 360.258 113.895 359.211 112.609 359.211 c 111.32
 359.211 110.277 360.254 110.277 361.543 c 110.277 362.039 110.438 362.496
 110.703 362.875 c 111.395 363.207 112.094 363.531 112.789 363.855 c 113.988
 363.762 114.938 362.766 114.938 361.543 c h
114.938 361.543 m f
120.398 366.438 m 119.996 366.438 119.621 366.551 119.289 366.73 c 120.395
 367.195 121.504 367.641 122.613 368.078 c 122.316 367.133 121.445 366.438
 120.398 366.438 c h
120.398 366.438 m f
97.59 329.176 m 96.301 329.176 95.258 330.219 95.258 331.508 c 95.258 332.793
 96.301 333.836 97.59 333.836 c 98.875 333.836 99.918 332.793 99.918 331.508
 c 99.918 330.219 98.875 329.176 97.59 329.176 c h
97.59 329.176 m f
105.383 336.402 m 104.094 336.402 103.051 337.445 103.051 338.73 c 103.051
 340.02 104.094 341.062 105.383 341.062 c 106.668 341.062 107.711 340.02
 107.711 338.73 c 107.711 337.445 106.668 336.402 105.383 336.402 c h
105.383 336.402 m f
97.59 344.195 m 96.301 344.195 95.258 345.238 95.258 346.523 c 95.258 347.809
 96.301 348.852 97.59 348.852 c 98.875 348.852 99.918 347.809 99.918 346.523
 c 99.918 345.238 98.875 344.195 97.59 344.195 c h
97.59 344.195 m f
105.383 351.422 m 104.094 351.422 103.051 352.465 103.051 353.75 c 103.051
 355.035 104.094 356.082 105.383 356.082 c 106.668 356.082 107.711 355.039
 107.711 353.75 c 107.711 352.465 106.668 351.422 105.383 351.422 c h
105.383 351.422 m f
82.57 318.816 m 83 318.816 83.398 318.691 83.742 318.488 c 82.586 317.988
 81.438 317.477 80.289 316.953 c 80.504 318.016 81.445 318.816 82.57 318.816
 c h
82.57 318.816 m f
90.363 321.383 m 89.078 321.383 88.035 322.426 88.035 323.715 c 88.035 
325 89.078 326.043 90.363 326.043 c 91.648 326.043 92.691 325 92.691 323.715
 c 92.691 322.426 91.648 321.383 90.363 321.383 c h
90.363 321.383 m f
80.242 331.508 m 80.242 332.793 81.285 333.836 82.57 333.836 c 83.855 333.836
 84.898 332.793 84.898 331.508 c 84.898 330.219 83.855 329.176 82.57 329.176
 c 81.285 329.176 80.242 330.219 80.242 331.508 c h
80.242 331.508 m f
90.363 336.402 m 89.078 336.402 88.035 337.445 88.035 338.73 c 88.035 340.02
 89.078 341.062 90.363 341.062 c 91.648 341.062 92.691 340.02 92.691 338.73
 c 92.691 337.445 91.648 336.402 90.363 336.402 c h
90.363 336.402 m f
82.57 344.195 m 81.879 344.195 81.27 344.5 80.84 344.977 c 82.082 345.887
 83.336 346.781 84.594 347.656 c 84.781 347.32 84.898 346.938 84.898 346.523
 c 84.902 345.238 83.859 344.195 82.57 344.195 c h
82.57 344.195 m f
90.363 351.422 m 90.316 351.422 90.273 351.434 90.227 351.434 c 90.988 
351.926 91.754 352.406 92.523 352.887 c 92.176 352.027 91.344 351.422 90.363
 351.422 c h
90.363 351.422 m f
65.223 316.488 m 65.223 317.773 66.266 318.816 67.551 318.816 c 68.84 318.816
 69.883 317.773 69.883 316.488 c 69.883 315.203 68.84 314.156 67.551 314.156
 c 66.266 314.156 65.223 315.199 65.223 316.488 c h
65.223 316.488 m f
73.016 323.715 m 73.016 325 74.059 326.043 75.344 326.043 c 76.629 326.043
 77.672 325 77.672 323.715 c 77.672 322.426 76.629 321.383 75.344 321.383
 c 74.059 321.383 73.016 322.426 73.016 323.715 c h
73.016 323.715 m f
69.883 331.508 m 69.883 330.219 68.84 329.176 67.555 329.176 c 66.266 329.176
 65.223 330.219 65.223 331.508 c 65.223 331.801 65.285 332.078 65.383 332.336
 c 65.906 332.812 66.434 333.281 66.961 333.75 c 67.152 333.801 67.348 333.836
 67.555 333.836 c 68.84 333.836 69.883 332.793 69.883 331.508 c h
69.883 331.508 m f
77.672 338.73 m 77.672 337.445 76.629 336.402 75.344 336.402 c 74.059 336.402
 73.016 337.445 73.016 338.73 c 73.016 338.801 73.031 338.867 73.035 338.934
 c 73.898 339.637 74.758 340.344 75.633 341.031 c 76.781 340.891 77.672 
339.918 77.672 338.73 c h
77.672 338.73 m f
50.203 301.469 m 50.203 302.754 51.246 303.797 52.535 303.797 c 53.391 
303.797 54.133 303.332 54.535 302.641 c 53.254 301.789 51.977 300.922 50.711
 300.035 c 50.398 300.43 50.203 300.926 50.203 301.469 c h
50.203 301.469 m f
57.996 308.695 m 57.996 309.98 59.039 311.027 60.324 311.027 c 61.613 311.027
 62.656 309.984 62.656 308.695 c 62.656 308.273 62.535 307.887 62.34 307.547
 c 61.688 307.156 61.031 306.77 60.383 306.371 c 60.363 306.371 60.344 306.367
 60.324 306.367 c 59.039 306.367 57.996 307.41 57.996 308.695 c h
57.996 308.695 m f
52.535 314.156 m 51.246 314.156 50.203 315.199 50.203 316.488 c 50.203 
316.633 50.223 316.777 50.25 316.918 c 50.77 317.512 51.293 318.105 51.82
 318.695 c 52.047 318.766 52.285 318.816 52.535 318.816 c 53.82 318.816 
54.863 317.773 54.863 316.488 c 54.863 315.199 53.82 314.156 52.535 314.156
 c h
52.535 314.156 m f
60.324 326.043 m 61.613 326.043 62.656 325 62.656 323.715 c 62.656 322.426
 61.613 321.383 60.324 321.383 c 59.039 321.383 57.996 322.426 57.996 323.715
 c 57.996 325 59.039 326.043 60.324 326.043 c h
60.324 326.043 m f
45.141 295.988 m 44.461 295.477 43.789 294.957 43.113 294.434 c 43.41 295.293
 44.195 295.922 45.141 295.988 c h
45.141 295.988 m f
37.516 299.141 m 37.18 299.141 36.867 299.211 36.578 299.34 c 37.438 300.59
 38.312 301.832 39.203 303.066 c 39.598 302.648 39.844 302.09 39.844 301.469
 c 39.848 300.184 38.801 299.141 37.516 299.141 c h
37.516 299.141 m f
47.637 308.695 m 47.637 307.41 46.594 306.367 45.309 306.367 c 44.195 306.367
 43.27 307.145 43.039 308.188 c 43.777 309.137 44.523 310.082 45.285 311.023
 c 45.293 311.023 45.301 311.027 45.309 311.027 c 46.594 311.023 47.637 
309.98 47.637 308.695 c h
47.637 308.695 m f
31.66 291.801 m 31.961 292.289 32.27 292.777 32.578 293.266 c 32.469 292.664
 32.133 292.148 31.66 291.801 c h
31.66 291.801 m f
0.192157 0.215686 0.239216 rg
332.238 60.863 m 297.207 23.402 249.691 1.828 198.434 0.109 c 198.336 0.105
 198.234 0.105 198.137 0.102 c 198.133 0.102 198.133 0.102 198.133 0.102
 c 146.988 -1.535 98.25 16.805 60.863 51.762 c 23.406 86.789 1.828 134.309
 0.109 185.562 c -1.609 236.816 16.734 285.676 51.762 323.133 c 86.793 360.59
 134.309 382.168 185.566 383.887 c 187.77 383.961 189.965 383.996 192.164
 383.996 c 241 383.996 287.289 365.754 323.137 332.234 c 360.594 297.207
 382.172 249.688 383.891 198.434 c 385.609 147.176 367.266 98.32 332.238
 60.863 c h
377.891 195.176 m 353.68 194.043 329.926 197.445 307.238 205.324 c 283.672
 213.512 262.355 226.18 243.816 242.969 c 196.289 192.141 l 329.848 67.25
 l 361.75 102.465 378.723 147.668 377.891 195.176 c h
325.703 62.816 m 192.145 187.711 l 144.438 136.691 l 162.406 119.344 176.457
 98.949 186.203 76.023 c 195.578 53.969 200.574 30.555 201.098 6.379 c 246.754
 8.613 291.641 27.547 325.703 62.816 c h
195.031 6.195 m 194.008 54.496 174.668 99.039 140.293 132.262 c 67.25 54.148
 l 102.699 22.055 147.355 6.156 191.941 6.156 c 192.969 6.156 194 6.176 
195.031 6.195 c h
62.82 58.293 m 135.859 136.402 l 100.414 168.477 54.672 184.789 6.406 182.574
 c 8.711 137.027 27.629 92.277 62.82 58.293 c h
6.199 188.652 m 9.129 188.785 12.051 188.852 14.969 188.852 c 36.082 188.852
 56.789 185.363 76.672 178.445 c 100.203 170.258 121.488 157.605 140.004
 140.836 c 187.711 191.855 l 54.152 316.746 l 21.242 280.398 5.371 234.355
 6.199 188.652 c h
58.297 321.18 m 191.855 196.289 l 239.383 247.113 l 221.391 264.484 207.324
 284.906 197.578 307.871 c 188.195 329.98 183.207 353.453 182.719 377.684
 c 135.258 375.332 91.297 355.367 58.297 321.18 c h
192.156 377.93 m 191.031 377.93 189.906 377.918 188.781 377.898 c 189.73
 329.488 209.078 284.836 243.527 251.543 c 316.75 329.848 l 282.355 361 
238.445 377.93 192.156 377.93 c h
321.18 325.703 m 247.961 247.402 l 283.48 215.262 329.32 198.949 377.688
 201.242 c 375.344 248.715 355.379 292.691 321.18 325.703 c h
321.18 325.703 m f
Q Q
showpage
%%Trailer
end
%%EOF
