%!PS-Adobe-3.0 EPSF-3.0
%%Creator: cairo 1.16.0 (https://cairographics.org)
%%CreationDate: Wed Jul 15 13:23:47 2020
%%Pages: 1
%%DocumentData: Clean7Bit
%%LanguageLevel: 2
%%BoundingBox: 0 0 384 384
%%EndComments
%%BeginProlog
50 dict begin
/q { gsave } bind def
/Q { grestore } bind def
/cm { 6 array astore concat } bind def
/w { setlinewidth } bind def
/J { setlinecap } bind def
/j { setlinejoin } bind def
/M { setmiterlimit } bind def
/d { setdash } bind def
/m { moveto } bind def
/l { lineto } bind def
/c { curveto } bind def
/h { closepath } bind def
/re { exch dup neg 3 1 roll 5 3 roll moveto 0 rlineto
      0 exch rlineto 0 rlineto closepath } bind def
/S { stroke } bind def
/f { fill } bind def
/f* { eofill } bind def
/n { newpath } bind def
/W { clip } bind def
/W* { eoclip } bind def
/BT { } bind def
/ET { } bind def
/BDC { mark 3 1 roll /BDC pdfmark } bind def
/EMC { mark /EMC pdfmark } bind def
/cairo_store_point { /cairo_point_y exch def /cairo_point_x exch def } def
/Tj { show currentpoint cairo_store_point } bind def
/TJ {
  {
    dup
    type /stringtype eq
    { show } { -0.001 mul 0 cairo_font_matrix dtransform rmoveto } ifelse
  } forall
  currentpoint cairo_store_point
} bind def
/cairo_selectfont { cairo_font_matrix aload pop pop pop 0 0 6 array astore
    cairo_font exch selectfont cairo_point_x cairo_point_y moveto } bind def
/Tf { pop /cairo_font exch def /cairo_font_matrix where
      { pop cairo_selectfont } if } bind def
/Td { matrix translate cairo_font_matrix matrix concatmatrix dup
      /cairo_font_matrix exch def dup 4 get exch 5 get cairo_store_point
      /cairo_font where { pop cairo_selectfont } if } bind def
/Tm { 2 copy 8 2 roll 6 array astore /cairo_font_matrix exch def
      cairo_store_point /cairo_font where { pop cairo_selectfont } if } bind def
/g { setgray } bind def
/rg { setrgbcolor } bind def
/d1 { setcachedevice } bind def
/cairo_data_source {
  CairoDataIndex CairoData length lt
    { CairoData CairoDataIndex get /CairoDataIndex CairoDataIndex 1 add def }
    { () } ifelse
} def
/cairo_flush_ascii85_file { cairo_ascii85_file status { cairo_ascii85_file flushfile } if } def
/cairo_image { image cairo_flush_ascii85_file } def
/cairo_imagemask { imagemask cairo_flush_ascii85_file } def
%%EndProlog
%%BeginSetup
%%EndSetup
%%Page: 1 1
%%BeginPageSetup
%%PageBoundingBox: 0 0 384 384
%%EndPageSetup
q 0 0 384 384 rectclip
1 0 0 -1 0 384 cm q
0.913725 0.760784 0.470588 rg
377.246 57.852 m 366.117 46.723 l 361.902 42.508 355.062 42.508 350.848
 46.723 c 146.344 251.223 l 89.445 194.324 l 89.406 194.367 l 78.469 184.16
 52.715 192.887 31.484 214.117 c 10.258 235.344 1.531 261.102 11.734 272.035
 c 11.719 272.055 l 113.133 375.23 l 116.695 378.797 121.496 380.855 126.535
 380.984 c 191.566 380.879 l 196.957 381.016 202.164 378.938 205.973 375.125
 c 224.203 356.895 l 231.883 349.215 231.883 336.762 224.203 329.082 c 172.746
 277.625 l 377.246 73.121 l 381.465 68.906 381.465 62.07 377.246 57.852 
c h
377.246 57.852 m f
0.917647 0.658824 0.584314 rg
198.574 198.996 m 132.578 264.992 l 128.363 269.207 128.363 276.047 132.578
 280.262 c 143.711 291.391 l 147.926 295.609 154.762 295.609 158.98 291.391
 c 224.973 225.395 l h
198.574 198.996 m f
0.976471 0.984314 0.988235 rg
219.777 328.219 m 218.484 328.219 217.438 329.266 217.438 330.559 c 217.438
 331.852 218.484 332.898 219.777 332.898 c 221.07 332.898 222.117 331.852
 222.117 330.559 c 222.117 329.266 221.07 328.219 219.777 328.219 c h
219.777 328.219 m f
225.262 337.816 m 225.262 339.105 226.309 340.156 227.602 340.156 c 228.43
 340.156 229.152 339.723 229.57 339.07 c 229.336 337.922 229 336.789 228.562
 335.688 c 228.27 335.555 227.945 335.477 227.602 335.477 c 226.309 335.477
 225.262 336.523 225.262 337.816 c h
225.262 337.816 m f
219.777 347.977 m 221.07 347.977 222.117 346.93 222.117 345.641 c 222.117
 344.348 221.07 343.301 219.777 343.301 c 218.484 343.301 217.438 344.348
 217.438 345.641 c 217.438 346.93 218.484 347.977 219.777 347.977 c h
219.777 347.977 m f
225.262 352.895 m 225.262 353.617 225.598 354.254 226.109 354.684 c 227.039
 353.434 227.797 352.094 228.391 350.703 c 228.141 350.613 227.879 350.559
 227.602 350.559 c 226.309 350.559 225.262 351.605 225.262 352.895 c h
225.262 352.895 m f
219.777 358.379 m 218.484 358.379 217.438 359.43 217.438 360.719 c 217.438
 361.52 217.84 362.227 218.453 362.648 c 221.703 359.395 l 221.281 358.785
 220.578 358.379 219.777 358.379 c h
219.777 358.379 m f
205.766 313.41 m 206.152 314.523 206.43 315.664 206.613 316.816 c 206.879
 316.438 207.035 315.977 207.035 315.48 c 207.035 314.574 206.516 313.797
 205.766 313.41 c h
205.766 313.41 m f
212.52 325.074 m 213.812 325.074 214.859 324.027 214.859 322.734 c 214.859
 321.441 213.812 320.395 212.52 320.395 c 211.23 320.395 210.18 321.441 
210.18 322.734 c 210.18 324.027 211.227 325.074 212.52 325.074 c h
212.52 325.074 m f
204.695 332.898 m 205.988 332.898 207.035 331.852 207.035 330.559 c 207.035
 329.367 206.145 328.398 204.992 328.25 c 204.395 329.52 203.652 330.738
 202.77 331.879 c 203.188 332.496 203.895 332.898 204.695 332.898 c h
204.695 332.898 m f
212.52 340.156 m 213.812 340.156 214.859 339.105 214.859 337.816 c 214.859
 336.523 213.812 335.477 212.52 335.477 c 211.23 335.477 210.18 336.523 
210.18 337.816 c 210.18 339.105 211.227 340.156 212.52 340.156 c h
212.52 340.156 m f
204.695 343.301 m 203.406 343.301 202.359 344.348 202.359 345.641 c 202.359
 346.93 203.406 347.977 204.695 347.977 c 205.988 347.977 207.035 346.93
 207.035 345.641 c 207.035 344.348 205.988 343.301 204.695 343.301 c h
204.695 343.301 m f
212.52 355.234 m 213.812 355.234 214.859 354.188 214.859 352.895 c 214.859
 351.605 213.812 350.559 212.52 350.559 c 211.23 350.559 210.18 351.605 
210.18 352.895 c 210.18 354.188 211.227 355.234 212.52 355.234 c h
212.52 355.234 m f
204.695 358.379 m 203.406 358.379 202.359 359.43 202.359 360.719 c 202.359
 362.012 203.406 363.059 204.695 363.059 c 205.988 363.059 207.035 362.012
 207.035 360.719 c 207.035 359.43 205.988 358.379 204.695 358.379 c h
204.695 358.379 m f
212.52 365.637 m 211.23 365.637 210.18 366.684 210.18 367.977 c 210.18 
368.777 210.586 369.48 211.199 369.902 c 214.449 366.652 l 214.027 366.039
 213.32 365.637 212.52 365.637 c h
212.52 365.637 m f
204.695 373.461 m 203.406 373.461 202.359 374.508 202.359 375.801 c 202.359
 376.469 202.645 377.07 203.094 377.496 c 204.121 376.805 205.086 376.016
 205.973 375.125 c 206.625 374.477 l 206.203 373.863 205.496 373.461 204.695
 373.461 c h
204.695 373.461 m f
197.441 340.156 m 198.73 340.156 199.781 339.105 199.781 337.816 c 199.781
 337.074 199.43 336.422 198.891 335.992 c 195.617 339.266 l 196.047 339.805
 196.699 340.156 197.441 340.156 c h
197.441 340.156 m f
189.617 347.977 m 190.906 347.977 191.957 346.93 191.957 345.641 c 191.957
 344.898 191.605 344.246 191.066 343.816 c 187.793 347.09 l 188.223 347.629
 188.875 347.977 189.617 347.977 c h
189.617 347.977 m f
197.441 350.559 m 196.148 350.559 195.102 351.605 195.102 352.895 c 195.102
 354.188 196.148 355.234 197.441 355.234 c 198.734 355.234 199.781 354.188
 199.781 352.895 c 199.781 351.605 198.734 350.559 197.441 350.559 c h
197.441 350.559 m f
189.617 358.379 m 188.324 358.379 187.277 359.43 187.277 360.719 c 187.277
 362.012 188.324 363.059 189.617 363.059 c 190.91 363.059 191.957 362.012
 191.957 360.719 c 191.957 359.43 190.91 358.379 189.617 358.379 c h
189.617 358.379 m f
197.441 365.637 m 196.148 365.637 195.102 366.684 195.102 367.977 c 195.102
 369.266 196.148 370.316 197.441 370.316 c 198.734 370.316 199.781 369.266
 199.781 367.977 c 199.781 366.684 198.734 365.637 197.441 365.637 c h
197.441 365.637 m f
189.617 373.461 m 188.324 373.461 187.277 374.508 187.277 375.801 c 187.277
 377.09 188.324 378.141 189.617 378.141 c 190.91 378.141 191.957 377.09 
191.957 375.801 c 191.957 374.508 190.91 373.461 189.617 373.461 c h
189.617 373.461 m f
182.359 355.234 m 183.652 355.234 184.699 354.188 184.699 352.895 c 184.699
 352.156 184.348 351.504 183.812 351.074 c 182.867 352.02 l 182.09 352.793
 181.254 353.492 180.375 354.121 c 180.789 354.785 181.52 355.234 182.359
 355.234 c h
182.359 355.234 m f
174.535 358.379 m 173.246 358.379 172.195 359.43 172.195 360.719 c 172.195
 362.012 173.242 363.059 174.535 363.059 c 175.828 363.059 176.875 362.012
 176.875 360.719 c 176.875 359.43 175.828 358.379 174.535 358.379 c h
174.535 358.379 m f
182.359 365.637 m 181.07 365.637 180.02 366.684 180.02 367.977 c 180.02
 369.266 181.066 370.316 182.359 370.316 c 183.652 370.316 184.699 369.266
 184.699 367.977 c 184.699 366.684 183.652 365.637 182.359 365.637 c h
182.359 365.637 m f
174.535 373.461 m 173.246 373.461 172.195 374.508 172.195 375.801 c 172.195
 377.09 173.242 378.141 174.535 378.141 c 175.828 378.141 176.875 377.09
 176.875 375.801 c 176.875 374.508 175.828 373.461 174.535 373.461 c h
174.535 373.461 m f
159.457 358.379 m 158.164 358.379 157.117 359.43 157.117 360.719 c 157.117
 362.012 158.164 363.059 159.457 363.059 c 160.75 363.059 161.797 362.012
 161.797 360.719 c 161.797 359.43 160.75 358.379 159.457 358.379 c h
159.457 358.379 m f
164.941 367.977 m 164.941 369.266 165.988 370.316 167.281 370.316 c 168.574
 370.316 169.621 369.266 169.621 367.977 c 169.621 366.684 168.574 365.637
 167.281 365.637 c 165.988 365.637 164.941 366.684 164.941 367.977 c h
164.941 367.977 m f
159.457 373.461 m 158.164 373.461 157.117 374.508 157.117 375.801 c 157.117
 377.09 158.164 378.141 159.457 378.141 c 160.75 378.141 161.797 377.09 
161.797 375.801 c 161.797 374.508 160.75 373.461 159.457 373.461 c h
159.457 373.461 m f
144.375 358.379 m 143.086 358.379 142.039 359.43 142.039 360.719 c 142.039
 362.012 143.086 363.059 144.375 363.059 c 145.668 363.059 146.715 362.012
 146.715 360.719 c 146.715 359.43 145.668 358.379 144.375 358.379 c h
144.375 358.379 m f
149.859 367.977 m 149.859 369.266 150.91 370.316 152.199 370.316 c 153.492
 370.316 154.539 369.266 154.539 367.977 c 154.539 366.684 153.492 365.637
 152.199 365.637 c 150.91 365.637 149.859 366.684 149.859 367.977 c h
149.859 367.977 m f
144.375 373.461 m 143.086 373.461 142.039 374.508 142.039 375.801 c 142.039
 377.09 143.086 378.141 144.375 378.141 c 145.668 378.141 146.715 377.09
 146.715 375.801 c 146.715 374.508 145.668 373.461 144.375 373.461 c h
144.375 373.461 m f
129.297 375.082 m 128.004 375.082 126.957 376.129 126.957 377.422 c 126.957
 378.711 128.004 379.758 129.297 379.758 c 130.59 379.758 131.637 378.711
 131.637 377.422 c 131.637 376.129 130.59 375.082 129.297 375.082 c h
129.297 375.082 m f
126.957 360.719 m 126.957 362.012 128.004 363.059 129.297 363.059 c 130.586
 363.059 131.637 362.012 131.637 360.719 c 131.637 359.43 130.59 358.379
 129.297 358.379 c 128.004 358.379 126.957 359.43 126.957 360.719 c h
126.957 360.719 m f
134.781 367.977 m 134.781 369.266 135.828 370.316 137.121 370.316 c 138.41
 370.316 139.461 369.266 139.461 367.977 c 139.461 366.684 138.414 365.637
 137.121 365.637 c 135.828 365.637 134.781 366.684 134.781 367.977 c h
134.781 367.977 m f
116.555 360.719 m 116.555 359.43 115.508 358.379 114.215 358.379 c 112.922
 358.379 111.875 359.43 111.875 360.719 c 111.875 362.012 112.922 363.059
 114.215 363.059 c 115.508 363.059 116.555 362.012 116.555 360.719 c h
116.555 360.719 m f
122.039 365.637 m 120.75 365.637 119.699 366.684 119.699 367.977 c 119.699
 369.266 120.746 370.316 122.039 370.316 c 123.332 370.316 124.379 369.266
 124.379 367.977 c 124.379 366.684 123.332 365.637 122.039 365.637 c h
122.039 365.637 m f
114.215 375.223 m 113.895 375.223 113.59 375.289 113.312 375.402 c 114.297
 376.363 115.371 377.207 116.516 377.934 c 116.535 377.812 116.555 377.691
 116.555 377.562 c 116.555 376.27 115.508 375.223 114.215 375.223 c h
114.215 375.223 m f
99.137 358.379 m 98.812 358.379 98.508 358.445 98.227 358.562 c 101.293
 361.629 l 101.41 361.348 101.477 361.043 101.477 360.719 c 101.477 359.43
 100.43 358.379 99.137 358.379 c h
99.137 358.379 m f
106.961 365.637 m 106.488 365.637 106.051 365.781 105.684 366.02 c 108.918
 369.254 l 109.156 368.887 109.301 368.449 109.301 367.977 c 109.301 366.684
 108.254 365.637 106.961 365.637 c h
106.961 365.637 m f
90.621 350.93 m 90.613 350.934 90.609 350.934 90.602 350.938 c 93.836 354.172
 l 93.969 353.969 94.066 353.742 94.133 353.5 c 92.879 352.777 91.699 351.922
 90.621 350.93 c h
90.621 350.93 m f
99.203 19.43 m 121.078 41.305 121.078 76.77 99.203 98.641 c 77.328 120.516
 41.863 120.516 19.992 98.641 c -1.883 76.77 -1.883 41.305 19.992 19.43 
c 41.863 -2.445 77.328 -2.445 99.203 19.43 c h
99.203 19.43 m f
0.917647 0.658824 0.584314 rg
111.879 44.039 m 111.879 45.32 112.91 46.359 114.184 46.375 c 113.848 44.91
 113.453 43.465 113 42.047 c 112.328 42.461 111.879 43.191 111.879 44.039
 c h
111.879 44.039 m f
111.879 59.117 m 111.879 60.41 112.926 61.457 114.215 61.457 c 114.727 
61.457 115.195 61.289 115.582 61.012 c 115.602 60.355 115.629 59.699 115.629
 59.035 c 115.629 58.434 115.617 57.836 115.602 57.242 c 115.211 56.953 
114.738 56.777 114.215 56.777 c 112.926 56.781 111.879 57.828 111.879 59.117
 c h
111.879 59.117 m f
111.879 74.199 m 111.879 75.023 112.309 75.746 112.953 76.164 c 113.406
 74.754 113.797 73.32 114.137 71.867 c 112.883 71.91 111.879 72.934 111.879
 74.199 c h
111.879 74.199 m f
99.137 26.617 m 97.844 26.617 96.797 27.664 96.797 28.957 c 96.797 30.25
 97.844 31.297 99.137 31.297 c 100.43 31.297 101.477 30.25 101.477 28.957
 c 101.477 27.664 100.43 26.617 99.137 26.617 c h
99.137 26.617 m f
106.961 33.875 m 105.668 33.875 104.621 34.922 104.621 36.215 c 104.621
 37.508 105.668 38.555 106.961 38.555 c 108.254 38.555 109.301 37.508 109.301
 36.215 c 109.301 34.922 108.254 33.875 106.961 33.875 c h
106.961 33.875 m f
99.137 41.699 m 97.844 41.699 96.797 42.746 96.797 44.039 c 96.797 45.328
 97.844 46.379 99.137 46.379 c 100.43 46.379 101.477 45.328 101.477 44.039
 c 101.477 42.746 100.43 41.699 99.137 41.699 c h
99.137 41.699 m f
106.961 48.953 m 105.668 48.953 104.621 50 104.621 51.293 c 104.621 52.586
 105.668 53.633 106.961 53.633 c 108.254 53.633 109.301 52.586 109.301 51.293
 c 109.301 50 108.254 48.953 106.961 48.953 c h
106.961 48.953 m f
99.137 56.781 m 97.844 56.781 96.797 57.828 96.797 59.117 c 96.797 60.41
 97.844 61.457 99.137 61.457 c 100.43 61.457 101.477 60.41 101.477 59.117
 c 101.477 57.828 100.43 56.781 99.137 56.781 c h
99.137 56.781 m f
106.961 64.035 m 105.668 64.035 104.621 65.082 104.621 66.375 c 104.621
 67.664 105.668 68.715 106.961 68.715 c 108.254 68.715 109.301 67.664 109.301
 66.375 c 109.301 65.082 108.254 64.035 106.961 64.035 c h
106.961 64.035 m f
99.137 71.859 m 97.844 71.859 96.797 72.906 96.797 74.199 c 96.797 75.488
 97.844 76.535 99.137 76.535 c 100.43 76.535 101.477 75.488 101.477 74.199
 c 101.477 72.906 100.43 71.859 99.137 71.859 c h
99.137 71.859 m f
106.961 79.117 m 105.668 79.117 104.621 80.164 104.621 81.453 c 104.621
 82.746 105.668 83.793 106.961 83.793 c 108.254 83.793 109.301 82.746 109.301
 81.453 c 109.301 80.164 108.254 79.117 106.961 79.117 c h
106.961 79.117 m f
99.137 86.938 m 97.844 86.938 96.797 87.984 96.797 89.277 c 96.797 90.57
 97.844 91.617 99.137 91.617 c 100.43 91.617 101.477 90.57 101.477 89.277
 c 101.477 87.984 100.43 86.938 99.137 86.938 c h
99.137 86.938 m f
92.961 23.199 m 93.703 22.809 94.219 22.035 94.219 21.133 c 94.219 19.844
 93.172 18.797 91.879 18.797 c 91.758 18.797 91.641 18.812 91.523 18.832
 c 92.062 20.258 92.539 21.715 92.961 23.199 c h
92.961 23.199 m f
94.219 51.293 m 94.219 50.855 94.09 50.445 93.879 50.094 c 93.652 51.168
 93.391 52.23 93.102 53.281 c 93.77 52.867 94.219 52.137 94.219 51.293 c
 h
94.219 51.293 m f
91.879 64.035 m 90.59 64.035 89.539 65.082 89.539 66.375 c 89.539 67.664
 90.59 68.715 91.879 68.715 c 93.172 68.715 94.219 67.664 94.219 66.375 
c 94.219 65.082 93.172 64.035 91.879 64.035 c h
91.879 64.035 m f
84.055 76.539 m 85.348 76.539 86.395 75.492 86.395 74.199 c 86.395 72.91
 85.355 71.867 84.066 71.859 c 83.34 72.844 82.57 73.793 81.781 74.723 c
 82.02 75.762 82.945 76.539 84.055 76.539 c h
84.055 76.539 m f
91.879 79.117 m 90.59 79.117 89.539 80.164 89.539 81.453 c 89.539 82.746
 90.59 83.793 91.879 83.793 c 93.172 83.793 94.219 82.746 94.219 81.453 
c 94.219 80.164 93.172 79.117 91.879 79.117 c h
91.879 79.117 m f
84.055 86.938 m 82.766 86.938 81.719 87.984 81.719 89.277 c 81.719 90.57
 82.766 91.617 84.055 91.617 c 85.348 91.617 86.395 90.57 86.395 89.277 
c 86.395 87.984 85.348 86.938 84.055 86.938 c h
84.055 86.938 m f
91.879 94.195 m 90.59 94.195 89.539 95.242 89.539 96.535 c 89.539 97.828
 90.59 98.875 91.879 98.875 c 93.172 98.875 94.219 97.828 94.219 96.535 
c 94.219 95.242 93.172 94.195 91.879 94.195 c h
91.879 94.195 m f
84.055 102.02 m 82.766 102.02 81.719 103.066 81.719 104.359 c 81.719 105.648
 82.766 106.695 84.055 106.695 c 85.348 106.695 86.395 105.648 86.395 104.359
 c 86.395 103.066 85.348 102.02 84.055 102.02 c h
84.055 102.02 m f
76.801 83.793 m 78.09 83.793 79.141 82.746 79.141 81.453 c 79.141 80.41
 78.445 79.531 77.5 79.234 c 76.531 80.148 75.535 81.035 74.504 81.879 c
 74.703 82.969 75.652 83.793 76.801 83.793 c h
76.801 83.793 m f
68.977 86.938 m 67.684 86.938 66.637 87.984 66.637 89.277 c 66.637 90.57
 67.684 91.617 68.977 91.617 c 70.266 91.617 71.316 90.57 71.316 89.277 
c 71.316 87.984 70.27 86.938 68.977 86.938 c h
68.977 86.938 m f
76.801 94.195 m 75.508 94.195 74.461 95.242 74.461 96.535 c 74.461 97.828
 75.508 98.875 76.801 98.875 c 78.094 98.875 79.141 97.828 79.141 96.535
 c 79.141 95.242 78.09 94.195 76.801 94.195 c h
76.801 94.195 m f
68.977 102.02 m 67.684 102.02 66.637 103.066 66.637 104.359 c 66.637 105.648
 67.684 106.695 68.977 106.695 c 70.266 106.695 71.316 105.648 71.316 104.359
 c 71.316 103.066 70.27 102.02 68.977 102.02 c h
68.977 102.02 m f
76.801 109.273 m 75.508 109.273 74.461 110.32 74.461 111.613 c 74.461 112.105
 74.613 112.559 74.871 112.934 c 76.316 112.527 77.738 112.07 79.133 111.551
 c 79.098 110.289 78.07 109.273 76.801 109.273 c h
76.801 109.273 m f
59.379 96.535 m 59.379 97.828 60.426 98.875 61.719 98.875 c 63.012 98.875
 64.059 97.828 64.059 96.535 c 64.059 95.242 63.012 94.195 61.719 94.195
 c 60.426 94.195 59.379 95.242 59.379 96.535 c h
59.379 96.535 m f
51.555 104.359 m 51.555 105.648 52.602 106.695 53.895 106.695 c 55.188 
106.695 56.234 105.648 56.234 104.359 c 56.234 103.066 55.188 102.02 53.895
 102.02 c 52.602 102.02 51.555 103.066 51.555 104.359 c h
51.555 104.359 m f
61.719 113.953 m 63.012 113.953 64.059 112.906 64.059 111.613 c 64.059 
110.324 63.012 109.277 61.719 109.277 c 60.426 109.277 59.379 110.324 59.379
 111.613 c 59.379 112.906 60.43 113.953 61.719 113.953 c h
61.719 113.953 m f
44.301 96.535 m 44.301 97.828 45.348 98.875 46.641 98.875 c 47.934 98.875
 48.98 97.828 48.98 96.535 c 48.98 95.242 47.934 94.195 46.641 94.195 c 
45.348 94.195 44.301 95.242 44.301 96.535 c h
44.301 96.535 m f
36.477 104.359 m 36.477 105.648 37.523 106.695 38.816 106.695 c 40.109 
106.695 41.156 105.648 41.156 104.359 c 41.156 103.066 40.109 102.02 38.816
 102.02 c 37.523 102.02 36.477 103.066 36.477 104.359 c h
36.477 104.359 m f
48.98 111.613 m 48.98 110.324 47.934 109.277 46.641 109.277 c 45.348 109.277
 44.301 110.324 44.301 111.613 c 44.301 112.172 44.504 112.68 44.828 113.082
 c 45.738 113.328 46.656 113.551 47.582 113.754 c 48.402 113.391 48.98 112.57
 48.98 111.613 c h
48.98 111.613 m f
29.223 96.535 m 29.223 97.828 30.27 98.875 31.559 98.875 c 32.852 98.875
 33.898 97.828 33.898 96.535 c 33.898 95.242 32.852 94.195 31.559 94.195
 c 30.27 94.195 29.223 95.242 29.223 96.535 c h
29.223 96.535 m f
23.734 102.02 m 23.727 102.02 23.719 102.023 23.707 102.023 c 24.461 102.652
 25.23 103.258 26.016 103.848 c 25.781 102.801 24.852 102.02 23.734 102.02
 c h
23.734 102.02 m f
16.48 94.195 m 16.336 94.195 16.191 94.215 16.055 94.238 c 16.898 95.281
 17.773 96.293 18.688 97.27 c 18.766 97.039 18.82 96.793 18.82 96.535 c 
18.82 95.242 17.77 94.195 16.48 94.195 c h
16.48 94.195 m f
0.192157 0.215686 0.239216 rg
383.426 65.488 m 383.426 61.797 381.988 58.328 379.379 55.719 c 368.25 
44.59 l 365.641 41.98 362.172 40.543 358.48 40.543 c 354.793 40.543 351.324
 41.98 348.715 44.59 c 146.324 246.98 l 117.148 217.828 91.16 191.863 91.082
 191.812 c 78.613 180.855 51.836 189.496 29.352 211.984 c 18.648 222.688
 10.656 234.883 6.84 246.324 c 2.938 258.031 3.828 267.746 9.301 273.84 
c 9.387 273.961 111 377.363 111 377.363 c 115.129 381.496 120.621 383.852
 126.461 384 c 191.488 383.895 l 191.68 383.898 191.871 383.902 192.062 
383.902 c 198.047 383.902 203.867 381.5 208.105 377.258 c 226.336 359.027
 l 235.18 350.184 235.18 335.793 226.336 326.953 c 226.336 326.953 203.727
 304.352 177 277.637 c 379.379 75.254 l 381.988 72.648 383.426 69.18 383.426
 65.488 c h
12.562 248.234 m 16.086 237.66 23.562 226.305 33.617 216.25 c 43.672 206.195
 55.031 198.719 65.602 195.195 c 69.746 193.812 73.582 193.129 76.953 193.129
 c 81.488 193.129 85.18 194.367 87.633 196.824 c 97.004 206.195 88.109 230.934
 68.203 250.836 c 48.301 270.742 23.562 279.637 14.191 270.262 c 9.914 265.988
 9.32 257.957 12.562 248.234 c h
91.949 274.582 m 72.051 294.48 47.328 303.375 37.945 294.016 c 23.93 280
 l 24.215 280.008 24.504 280.016 24.797 280.016 c 28.828 280.016 33.312 
279.219 38.129 277.613 c 49.57 273.801 61.77 265.805 72.473 255.102 c 88.781
 238.793 97.801 220.227 97.352 206.496 c 111.176 220.32 l 111.242 220.402
 111.301 220.492 111.375 220.566 c 120.75 229.941 111.855 254.68 91.949 
274.582 c h
222.07 331.215 m 228.562 337.707 228.562 348.273 222.07 354.762 c 203.84
 372.992 l 200.629 376.207 196.176 377.996 191.645 377.863 c 126.613 377.969
 l 124.859 377.926 123.152 377.598 121.539 377.027 c 193.828 302.973 l h
172.73 273.375 m 165.457 266.105 157.961 258.609 150.59 251.246 c 199.043
 202.793 l 221.176 224.93 l h
375.113 70.992 m 225.441 220.664 l 203.309 198.527 l 352.98 48.855 l 354.449
 47.387 356.402 46.578 358.48 46.578 c 360.559 46.578 362.516 47.387 363.984
 48.855 c 375.113 59.984 l 376.586 61.453 377.395 63.41 377.395 65.488 c
 377.395 67.566 376.586 69.52 375.113 70.992 c h
375.113 70.992 m f
59.609 118.07 m 27.059 118.07 0.574 91.586 0.574 59.035 c 0.574 26.484 
27.059 0 59.609 0 c 92.164 0 118.645 26.484 118.645 59.035 c 118.645 91.586
 92.164 118.07 59.609 118.07 c h
59.609 6.031 m 30.383 6.031 6.605 29.809 6.605 59.035 c 6.605 88.262 30.383
 112.039 59.609 112.039 c 88.836 112.039 112.613 88.262 112.613 59.035 c
 112.613 29.809 88.836 6.031 59.609 6.031 c h
59.609 6.031 m f
Q Q
showpage
%%Trailer
end
%%EOF
