%!PS-Adobe-3.0 EPSF-3.0
%%Creator: cairo 1.16.0 (https://cairographics.org)
%%CreationDate: Wed Jul 15 13:23:50 2020
%%Pages: 1
%%DocumentData: Clean7Bit
%%LanguageLevel: 2
%%BoundingBox: 0 13 384 371
%%EndComments
%%BeginProlog
50 dict begin
/q { gsave } bind def
/Q { grestore } bind def
/cm { 6 array astore concat } bind def
/w { setlinewidth } bind def
/J { setlinecap } bind def
/j { setlinejoin } bind def
/M { setmiterlimit } bind def
/d { setdash } bind def
/m { moveto } bind def
/l { lineto } bind def
/c { curveto } bind def
/h { closepath } bind def
/re { exch dup neg 3 1 roll 5 3 roll moveto 0 rlineto
      0 exch rlineto 0 rlineto closepath } bind def
/S { stroke } bind def
/f { fill } bind def
/f* { eofill } bind def
/n { newpath } bind def
/W { clip } bind def
/W* { eoclip } bind def
/BT { } bind def
/ET { } bind def
/BDC { mark 3 1 roll /BDC pdfmark } bind def
/EMC { mark /EMC pdfmark } bind def
/cairo_store_point { /cairo_point_y exch def /cairo_point_x exch def } def
/Tj { show currentpoint cairo_store_point } bind def
/TJ {
  {
    dup
    type /stringtype eq
    { show } { -0.001 mul 0 cairo_font_matrix dtransform rmoveto } ifelse
  } forall
  currentpoint cairo_store_point
} bind def
/cairo_selectfont { cairo_font_matrix aload pop pop pop 0 0 6 array astore
    cairo_font exch selectfont cairo_point_x cairo_point_y moveto } bind def
/Tf { pop /cairo_font exch def /cairo_font_matrix where
      { pop cairo_selectfont } if } bind def
/Td { matrix translate cairo_font_matrix matrix concatmatrix dup
      /cairo_font_matrix exch def dup 4 get exch 5 get cairo_store_point
      /cairo_font where { pop cairo_selectfont } if } bind def
/Tm { 2 copy 8 2 roll 6 array astore /cairo_font_matrix exch def
      cairo_store_point /cairo_font where { pop cairo_selectfont } if } bind def
/g { setgray } bind def
/rg { setrgbcolor } bind def
/d1 { setcachedevice } bind def
/cairo_data_source {
  CairoDataIndex CairoData length lt
    { CairoData CairoDataIndex get /CairoDataIndex CairoDataIndex 1 add def }
    { () } ifelse
} def
/cairo_flush_ascii85_file { cairo_ascii85_file status { cairo_ascii85_file flushfile } if } def
/cairo_image { image cairo_flush_ascii85_file } def
/cairo_imagemask { imagemask cairo_flush_ascii85_file } def
%%EndProlog
%%BeginSetup
%%EndSetup
%%Page: 1 1
%%BeginPageSetup
%%PageBoundingBox: 0 13 384 371
%%EndPageSetup
q 0 13 384 358 rectclip
1 0 0 -1 0 384 cm q
0.913725 0.760784 0.470588 rg
357.09 132.168 m 355.371 132.168 l 355.371 93.992 l 355.371 51.621 321.023
 17.273 278.656 17.273 c 224.215 17.273 l 181.844 17.273 147.496 51.621 
147.496 93.992 c 147.496 187.891 l 147.496 217.848 169.043 243.789 194.078
 256.422 c 194.078 296.961 l 194.078 310.234 205.387 319.258 213.742 320.996
 c 289.129 320.996 l 298.785 320.613 312.699 301.656 313.16 296.961 c 313.16
 264.598 l 350.172 264.371 380.117 225.668 380.117 188.617 c 380.117 155.199
 l 380.117 142.477 369.809 132.168 357.09 132.168 c h
357.09 132.168 m f
0.976471 0.984314 0.988235 rg
305.191 265.277 m 303.906 265.277 302.863 266.316 302.863 267.605 c 302.863
 268.891 303.906 269.93 305.191 269.93 c 306.477 269.93 307.52 268.891 307.52
 267.605 c 307.52 266.32 306.477 265.277 305.191 265.277 c h
305.191 265.277 m f
310.648 274.824 m 310.648 276.109 311.691 277.152 312.977 277.152 c 313.215
 277.152 313.438 277.105 313.652 277.039 c 313.652 272.605 l 313.438 272.543
 313.215 272.496 312.977 272.496 c 311.691 272.496 310.648 273.539 310.648
 274.824 c h
310.648 274.824 m f
305.191 280.281 m 303.906 280.281 302.863 281.324 302.863 282.609 c 302.863
 283.895 303.906 284.938 305.191 284.938 c 306.477 284.938 307.52 283.895
 307.52 282.609 c 307.52 281.324 306.477 280.281 305.191 280.281 c h
305.191 280.281 m f
313.652 287.613 m 313.438 287.547 313.215 287.5 312.977 287.5 c 311.691
 287.5 310.648 288.543 310.648 289.828 c 310.648 291.113 311.691 292.156
 312.977 292.156 c 313.215 292.156 313.438 292.109 313.652 292.043 c h
313.652 287.613 m f
290.188 265.277 m 288.902 265.277 287.859 266.316 287.859 267.605 c 287.859
 268.891 288.902 269.93 290.188 269.93 c 291.473 269.93 292.516 268.891 
292.516 267.605 c 292.516 266.32 291.473 265.277 290.188 265.277 c h
290.188 265.277 m f
297.973 272.496 m 296.688 272.496 295.645 273.539 295.645 274.824 c 295.645
 276.109 296.688 277.152 297.973 277.152 c 299.258 277.152 300.297 276.109
 300.297 274.824 c 300.297 273.539 299.258 272.496 297.973 272.496 c h
297.973 272.496 m f
290.188 280.281 m 288.902 280.281 287.859 281.324 287.859 282.609 c 287.859
 283.895 288.902 284.938 290.188 284.938 c 291.473 284.938 292.516 283.895
 292.516 282.609 c 292.516 281.324 291.473 280.281 290.188 280.281 c h
290.188 280.281 m f
297.973 287.5 m 296.688 287.5 295.645 288.543 295.645 289.828 c 295.645
 291.113 296.688 292.156 297.973 292.156 c 299.258 292.156 300.297 291.113
 300.297 289.828 c 300.297 288.543 299.258 287.5 297.973 287.5 c h
297.973 287.5 m f
275.184 265.277 m 273.898 265.277 272.855 266.316 272.855 267.605 c 272.855
 268.891 273.898 269.93 275.184 269.93 c 276.469 269.93 277.512 268.891 
277.512 267.605 c 277.512 266.32 276.469 265.277 275.184 265.277 c h
275.184 265.277 m f
282.969 272.496 m 281.684 272.496 280.641 273.539 280.641 274.824 c 280.641
 276.109 281.684 277.152 282.969 277.152 c 284.254 277.152 285.293 276.109
 285.293 274.824 c 285.293 273.539 284.254 272.496 282.969 272.496 c h
282.969 272.496 m f
275.184 280.281 m 273.898 280.281 272.855 281.324 272.855 282.609 c 272.855
 283.895 273.898 284.938 275.184 284.938 c 276.469 284.938 277.512 283.895
 277.512 282.609 c 277.512 281.324 276.469 280.281 275.184 280.281 c h
275.184 280.281 m f
282.969 287.5 m 281.684 287.5 280.641 288.543 280.641 289.828 c 280.641
 291.113 281.684 292.156 282.969 292.156 c 284.254 292.156 285.293 291.113
 285.293 289.828 c 285.293 288.543 284.254 287.5 282.969 287.5 c h
282.969 287.5 m f
260.18 265.277 m 258.895 265.277 257.852 266.316 257.852 267.605 c 257.852
 268.891 258.895 269.93 260.18 269.93 c 261.465 269.93 262.504 268.891 262.504
 267.605 c 262.504 266.32 261.465 265.277 260.18 265.277 c h
260.18 265.277 m f
267.961 272.496 m 266.676 272.496 265.637 273.539 265.637 274.824 c 265.637
 276.109 266.676 277.152 267.961 277.152 c 269.246 277.152 270.289 276.109
 270.289 274.824 c 270.289 273.539 269.246 272.496 267.961 272.496 c h
267.961 272.496 m f
260.18 280.281 m 258.895 280.281 257.852 281.324 257.852 282.609 c 257.852
 283.895 258.895 284.938 260.18 284.938 c 261.465 284.938 262.504 283.895
 262.504 282.609 c 262.504 281.324 261.465 280.281 260.18 280.281 c h
260.18 280.281 m f
267.961 287.5 m 266.676 287.5 265.637 288.543 265.637 289.828 c 265.637
 291.113 266.676 292.156 267.961 292.156 c 269.246 292.156 270.289 291.113
 270.289 289.828 c 270.289 288.543 269.246 287.5 267.961 287.5 c h
267.961 287.5 m f
245.176 265.277 m 243.891 265.277 242.848 266.316 242.848 267.605 c 242.848
 268.891 243.891 269.93 245.176 269.93 c 246.461 269.93 247.5 268.891 247.5
 267.605 c 247.5 266.32 246.461 265.277 245.176 265.277 c h
245.176 265.277 m f
252.957 272.496 m 251.672 272.496 250.633 273.539 250.633 274.824 c 250.633
 276.109 251.672 277.152 252.957 277.152 c 254.242 277.152 255.285 276.109
 255.285 274.824 c 255.285 273.539 254.242 272.496 252.957 272.496 c h
252.957 272.496 m f
245.176 280.281 m 243.891 280.281 242.848 281.324 242.848 282.609 c 242.848
 283.895 243.891 284.938 245.176 284.938 c 246.461 284.938 247.5 283.895
 247.5 282.609 c 247.5 281.324 246.461 280.281 245.176 280.281 c h
245.176 280.281 m f
252.957 287.5 m 251.672 287.5 250.633 288.543 250.633 289.828 c 250.633
 291.113 251.672 292.156 252.957 292.156 c 254.242 292.156 255.285 291.113
 255.285 289.828 c 255.285 288.543 254.242 287.5 252.957 287.5 c h
252.957 287.5 m f
230.168 265.277 m 228.883 265.277 227.844 266.316 227.844 267.605 c 227.844
 268.891 228.883 269.93 230.168 269.93 c 231.453 269.93 232.496 268.891 
232.496 267.605 c 232.496 266.32 231.453 265.277 230.168 265.277 c h
230.168 265.277 m f
237.953 272.496 m 236.668 272.496 235.625 273.539 235.625 274.824 c 235.625
 276.109 236.668 277.152 237.953 277.152 c 239.238 277.152 240.281 276.109
 240.281 274.824 c 240.281 273.539 239.238 272.496 237.953 272.496 c h
237.953 272.496 m f
230.168 280.281 m 228.883 280.281 227.844 281.324 227.844 282.609 c 227.844
 283.895 228.883 284.938 230.168 284.938 c 231.453 284.938 232.496 283.895
 232.496 282.609 c 232.496 281.324 231.453 280.281 230.168 280.281 c h
230.168 280.281 m f
237.953 287.5 m 236.668 287.5 235.625 288.543 235.625 289.828 c 235.625
 291.113 236.668 292.156 237.953 292.156 c 239.238 292.156 240.281 291.113
 240.281 289.828 c 240.281 288.543 239.238 287.5 237.953 287.5 c h
237.953 287.5 m f
215.164 265.277 m 213.879 265.277 212.84 266.316 212.84 267.605 c 212.84
 268.891 213.879 269.93 215.164 269.93 c 216.449 269.93 217.492 268.891 
217.492 267.605 c 217.492 266.32 216.449 265.277 215.164 265.277 c h
215.164 265.277 m f
222.949 272.496 m 221.664 272.496 220.621 273.539 220.621 274.824 c 220.621
 276.109 221.664 277.152 222.949 277.152 c 224.234 277.152 225.277 276.109
 225.277 274.824 c 225.277 273.539 224.234 272.496 222.949 272.496 c h
222.949 272.496 m f
215.164 280.281 m 213.879 280.281 212.84 281.324 212.84 282.609 c 212.84
 283.895 213.879 284.938 215.164 284.938 c 216.449 284.938 217.492 283.895
 217.492 282.609 c 217.492 281.324 216.449 280.281 215.164 280.281 c h
215.164 280.281 m f
222.949 287.5 m 221.664 287.5 220.621 288.543 220.621 289.828 c 220.621
 291.113 221.664 292.156 222.949 292.156 c 224.234 292.156 225.277 291.113
 225.277 289.828 c 225.277 288.543 224.234 287.5 222.949 287.5 c h
222.949 287.5 m f
200.16 265.277 m 198.875 265.277 197.832 266.316 197.832 267.605 c 197.832
 268.891 198.875 269.93 200.16 269.93 c 201.445 269.93 202.488 268.891 202.488
 267.605 c 202.488 266.32 201.445 265.277 200.16 265.277 c h
200.16 265.277 m f
207.945 272.496 m 206.66 272.496 205.617 273.539 205.617 274.824 c 205.617
 276.109 206.66 277.152 207.945 277.152 c 209.23 277.152 210.273 276.109
 210.273 274.824 c 210.273 273.539 209.23 272.496 207.945 272.496 c h
207.945 272.496 m f
200.16 280.281 m 198.875 280.281 197.832 281.324 197.832 282.609 c 197.832
 283.895 198.875 284.938 200.16 284.938 c 201.445 284.938 202.488 283.895
 202.488 282.609 c 202.488 281.324 201.445 280.281 200.16 280.281 c h
200.16 280.281 m f
207.945 287.5 m 206.66 287.5 205.617 288.543 205.617 289.828 c 205.617 
291.113 206.66 292.156 207.945 292.156 c 209.23 292.156 210.273 291.113 
210.273 289.828 c 210.273 288.543 209.23 287.5 207.945 287.5 c h
207.945 287.5 m f
192.891 272.5 m 192.891 277.145 l 192.906 277.145 192.922 277.152 192.941
 277.152 c 194.227 277.152 195.27 276.109 195.27 274.824 c 195.27 273.539
 194.227 272.496 192.941 272.496 c 192.922 272.496 192.906 272.5 192.891
 272.5 c h
192.891 272.5 m f
195.27 289.828 m 195.27 288.543 194.227 287.5 192.941 287.5 c 192.922 287.5
 192.906 287.504 192.887 287.504 c 192.887 292.148 l 192.906 292.148 192.922
 292.156 192.941 292.156 c 194.227 292.156 195.27 291.113 195.27 289.828
 c h
195.27 289.828 m f
0.917647 0.658824 0.584314 rg
212.004 176.898 m 210.969 136.383 l 210.969 94.754 172.469 63.328 138.945
 63.328 c 81.84 63.328 l 40.207 63.328 4.305 96.863 4.742 134.102 c 4.305
 230.496 l 4.305 259.508 18.637 289.828 46.094 302.133 c 46.094 338.484 
l 46.094 354.082 58.738 366.727 74.336 366.727 c 141.305 366.727 l 156.902
 366.727 169.547 354.082 169.547 338.484 c 169.547 310.328 l 206.555 310.102
 236.504 271.398 236.504 234.348 c 236.504 200.93 l 236.504 188.496 224.324
 177.352 212.004 176.898 c h
212.004 176.898 m f
0.976471 0.984314 0.988235 rg
167.824 312.617 m 167.824 313.641 168.488 314.5 169.406 314.812 c 169.406
 310.422 l 168.488 310.734 167.824 311.594 167.824 312.617 c h
167.824 312.617 m f
167.824 327.621 m 167.824 328.645 168.488 329.504 169.406 329.816 c 169.406
 325.426 l 168.488 325.738 167.824 326.598 167.824 327.621 c h
167.824 327.621 m f
155.148 310.289 m 153.863 310.289 152.82 311.332 152.82 312.617 c 152.82
 313.902 153.863 314.945 155.148 314.945 c 156.434 314.945 157.477 313.902
 157.477 312.617 c 157.477 311.332 156.434 310.289 155.148 310.289 c h
155.148 310.289 m f
162.934 317.508 m 161.648 317.508 160.605 318.551 160.605 319.836 c 160.605
 321.125 161.648 322.164 162.934 322.164 c 164.219 322.164 165.258 321.121
 165.258 319.836 c 165.258 318.551 164.219 317.508 162.934 317.508 c h
162.934 317.508 m f
155.148 325.293 m 153.863 325.293 152.82 326.336 152.82 327.621 c 152.82
 328.906 153.863 329.949 155.148 329.949 c 156.434 329.949 157.477 328.906
 157.477 327.621 c 157.477 326.336 156.434 325.293 155.148 325.293 c h
155.148 325.293 m f
162.934 332.516 m 161.648 332.516 160.605 333.555 160.605 334.844 c 160.605
 336.129 161.648 337.168 162.934 337.168 c 164.219 337.168 165.258 336.129
 165.258 334.844 c 165.258 333.559 164.219 332.516 162.934 332.516 c h
162.934 332.516 m f
140.145 310.289 m 138.859 310.289 137.816 311.332 137.816 312.617 c 137.816
 313.902 138.859 314.945 140.145 314.945 c 141.43 314.945 142.469 313.902
 142.469 312.617 c 142.469 311.332 141.43 310.289 140.145 310.289 c h
140.145 310.289 m f
147.926 317.508 m 146.641 317.508 145.602 318.551 145.602 319.836 c 145.602
 321.125 146.641 322.164 147.926 322.164 c 149.211 322.164 150.254 321.121
 150.254 319.836 c 150.254 318.551 149.215 317.508 147.926 317.508 c h
147.926 317.508 m f
140.145 325.293 m 138.859 325.293 137.816 326.336 137.816 327.621 c 137.816
 328.906 138.859 329.949 140.145 329.949 c 141.43 329.949 142.469 328.906
 142.469 327.621 c 142.469 326.336 141.43 325.293 140.145 325.293 c h
140.145 325.293 m f
147.926 332.516 m 146.641 332.516 145.602 333.555 145.602 334.844 c 145.602
 336.129 146.641 337.168 147.926 337.168 c 149.211 337.168 150.254 336.129
 150.254 334.844 c 150.254 333.559 149.215 332.516 147.926 332.516 c h
147.926 332.516 m f
125.141 310.289 m 123.855 310.289 122.812 311.332 122.812 312.617 c 122.812
 313.902 123.855 314.945 125.141 314.945 c 126.426 314.945 127.465 313.902
 127.465 312.617 c 127.465 311.332 126.426 310.289 125.141 310.289 c h
125.141 310.289 m f
132.922 317.508 m 131.637 317.508 130.598 318.551 130.598 319.836 c 130.598
 321.125 131.637 322.164 132.922 322.164 c 134.207 322.164 135.25 321.121
 135.25 319.836 c 135.25 318.551 134.211 317.508 132.922 317.508 c h
132.922 317.508 m f
125.141 325.293 m 123.855 325.293 122.812 326.336 122.812 327.621 c 122.812
 328.906 123.855 329.949 125.141 329.949 c 126.426 329.949 127.465 328.906
 127.465 327.621 c 127.465 326.336 126.426 325.293 125.141 325.293 c h
125.141 325.293 m f
132.922 332.516 m 131.637 332.516 130.598 333.555 130.598 334.844 c 130.598
 336.129 131.637 337.168 132.922 337.168 c 134.207 337.168 135.25 336.129
 135.25 334.844 c 135.25 333.559 134.211 332.516 132.922 332.516 c h
132.922 332.516 m f
110.133 310.289 m 108.848 310.289 107.809 311.332 107.809 312.617 c 107.809
 313.902 108.848 314.945 110.133 314.945 c 111.418 314.945 112.461 313.902
 112.461 312.617 c 112.461 311.332 111.418 310.289 110.133 310.289 c h
110.133 310.289 m f
117.918 317.508 m 116.633 317.508 115.59 318.551 115.59 319.836 c 115.59
 321.125 116.633 322.164 117.918 322.164 c 119.203 322.164 120.246 321.121
 120.246 319.836 c 120.246 318.551 119.203 317.508 117.918 317.508 c h
117.918 317.508 m f
110.133 325.293 m 108.848 325.293 107.809 326.336 107.809 327.621 c 107.809
 328.906 108.848 329.949 110.133 329.949 c 111.418 329.949 112.461 328.906
 112.461 327.621 c 112.461 326.336 111.418 325.293 110.133 325.293 c h
110.133 325.293 m f
117.918 332.516 m 116.633 332.516 115.59 333.555 115.59 334.844 c 115.59
 336.129 116.633 337.168 117.918 337.168 c 119.203 337.168 120.246 336.129
 120.246 334.844 c 120.246 333.559 119.203 332.516 117.918 332.516 c h
117.918 332.516 m f
95.129 310.289 m 93.844 310.289 92.805 311.332 92.805 312.617 c 92.805 
313.902 93.844 314.945 95.129 314.945 c 96.414 314.945 97.457 313.902 97.457
 312.617 c 97.457 311.332 96.414 310.289 95.129 310.289 c h
95.129 310.289 m f
102.914 317.508 m 101.629 317.508 100.586 318.551 100.586 319.836 c 100.586
 321.125 101.629 322.164 102.914 322.164 c 104.199 322.164 105.242 321.121
 105.242 319.836 c 105.242 318.551 104.199 317.508 102.914 317.508 c h
102.914 317.508 m f
95.129 325.293 m 93.844 325.293 92.805 326.336 92.805 327.621 c 92.805 
328.906 93.844 329.949 95.129 329.949 c 96.414 329.949 97.457 328.906 97.457
 327.621 c 97.457 326.336 96.414 325.293 95.129 325.293 c h
95.129 325.293 m f
102.914 332.516 m 101.629 332.516 100.586 333.555 100.586 334.844 c 100.586
 336.129 101.629 337.168 102.914 337.168 c 104.199 337.168 105.242 336.129
 105.242 334.844 c 105.242 333.559 104.199 332.516 102.914 332.516 c h
102.914 332.516 m f
80.125 310.289 m 78.84 310.289 77.797 311.332 77.797 312.617 c 77.797 313.902
 78.84 314.945 80.125 314.945 c 81.41 314.945 82.453 313.902 82.453 312.617
 c 82.453 311.332 81.41 310.289 80.125 310.289 c h
80.125 310.289 m f
87.91 317.508 m 86.625 317.508 85.582 318.551 85.582 319.836 c 85.582 321.125
 86.625 322.164 87.91 322.164 c 89.195 322.164 90.238 321.121 90.238 319.836
 c 90.238 318.551 89.195 317.508 87.91 317.508 c h
87.91 317.508 m f
80.125 325.293 m 78.84 325.293 77.797 326.336 77.797 327.621 c 77.797 328.906
 78.84 329.949 80.125 329.949 c 81.41 329.949 82.453 328.906 82.453 327.621
 c 82.453 326.336 81.41 325.293 80.125 325.293 c h
80.125 325.293 m f
87.91 332.516 m 86.625 332.516 85.582 333.555 85.582 334.844 c 85.582 336.129
 86.625 337.168 87.91 337.168 c 89.195 337.168 90.238 336.129 90.238 334.844
 c 90.238 333.559 89.195 332.516 87.91 332.516 c h
87.91 332.516 m f
65.121 310.289 m 63.836 310.289 62.793 311.332 62.793 312.617 c 62.793 
313.902 63.836 314.945 65.121 314.945 c 66.406 314.945 67.449 313.902 67.449
 312.617 c 67.449 311.332 66.406 310.289 65.121 310.289 c h
65.121 310.289 m f
72.906 317.508 m 71.621 317.508 70.578 318.551 70.578 319.836 c 70.578 
321.125 71.621 322.164 72.906 322.164 c 74.191 322.164 75.234 321.121 75.234
 319.836 c 75.234 318.551 74.191 317.508 72.906 317.508 c h
72.906 317.508 m f
65.121 325.293 m 63.836 325.293 62.793 326.336 62.793 327.621 c 62.793 
328.906 63.836 329.949 65.121 329.949 c 66.406 329.949 67.449 328.906 67.449
 327.621 c 67.449 326.336 66.406 325.293 65.121 325.293 c h
65.121 325.293 m f
72.906 332.516 m 71.621 332.516 70.578 333.555 70.578 334.844 c 70.578 
336.129 71.621 337.168 72.906 337.168 c 74.191 337.168 75.234 336.129 75.234
 334.844 c 75.234 333.559 74.191 332.516 72.906 332.516 c h
72.906 332.516 m f
47.789 312.617 m 47.789 313.902 48.832 314.945 50.117 314.945 c 51.402 
314.945 52.445 313.902 52.445 312.617 c 52.445 311.332 51.402 310.289 50.117
 310.289 c 48.832 310.289 47.789 311.332 47.789 312.617 c h
47.789 312.617 m f
57.902 317.508 m 56.617 317.508 55.574 318.551 55.574 319.836 c 55.574 
321.125 56.617 322.164 57.902 322.164 c 59.188 322.164 60.227 321.121 60.227
 319.836 c 60.227 318.551 59.188 317.508 57.902 317.508 c h
57.902 317.508 m f
50.117 329.949 m 51.402 329.949 52.445 328.906 52.445 327.621 c 52.445 
326.336 51.402 325.293 50.117 325.293 c 48.832 325.293 47.789 326.336 47.789
 327.621 c 47.789 328.906 48.832 329.949 50.117 329.949 c h
50.117 329.949 m f
57.902 332.516 m 56.617 332.516 55.574 333.555 55.574 334.844 c 55.574 
336.129 56.617 337.168 57.902 337.168 c 59.188 337.168 60.227 336.129 60.227
 334.844 c 60.227 333.559 59.188 332.516 57.902 332.516 c h
57.902 332.516 m f
0.192157 0.215686 0.239216 rg
359.254 128.152 m 359.254 93.988 l 359.254 49.547 323.098 13.391 278.656
 13.391 c 224.211 13.391 l 191.645 13.391 163.543 32.816 150.84 60.684 c
 145.73 59.664 140.445 59.125 135.039 59.125 c 80.598 59.125 l 36.156 59.125
 0 95.281 0 139.723 c 0 233.621 l 0 264.172 17.09 290.809 42.211 304.477
 c 42.211 335.633 l 42.211 354.918 57.902 370.609 77.188 370.609 c 138.453
 370.609 l 157.738 370.609 173.426 354.918 173.426 335.633 c 173.426 313.832
 l 179.883 313.367 186.055 311.84 191.852 309.457 c 198.145 318.746 208.762
 324.875 220.801 324.875 c 282.066 324.875 l 301.352 324.875 317.043 309.184
 317.043 289.898 c 317.043 268.102 l 355.645 265.324 384 224.777 384 188.387
 c 384 154.969 l 384 140.859 373.082 129.258 359.254 128.152 c h
7.766 139.723 m 7.766 99.562 40.438 66.891 80.598 66.891 c 135.039 66.891
 l 175.199 66.891 207.875 99.562 207.875 139.723 c 207.875 173.777 l 193.109
 173.754 l 154.043 173.754 l 137.371 173.754 122.309 184.266 116.559 199.906
 c 116.281 200.66 116.035 201.426 115.805 202.195 c 60.586 202.195 l 31.473
 202.195 7.789 178.512 7.789 149.398 c 7.766 149.398 l h
165.664 335.633 m 165.664 350.637 153.457 362.844 138.453 362.844 c 77.188
 362.844 l 62.184 362.844 49.977 350.637 49.977 335.633 c 49.977 308.168
 l 59.422 312.062 69.762 314.219 80.598 314.219 c 164.367 314.219 l 164.801
 314.219 165.23 314.203 165.66 314.191 c 165.66 335.633 l h
169.215 306.223 m 168.922 306.223 168.633 306.266 168.359 306.324 c 168.359
 306.258 l 167.043 306.379 165.715 306.453 164.367 306.453 c 80.598 306.453
 l 40.438 306.453 7.766 273.781 7.766 233.621 c 7.766 178.973 l 18.148 197.445
 37.926 209.961 60.586 209.961 c 114.297 209.961 l 114.184 211.191 114.121
 212.43 114.121 213.68 c 114.121 235.691 132.031 253.602 154.043 253.602
 c 168.996 253.602 l 171.141 253.602 172.879 251.863 172.879 249.719 c 172.879
 247.578 171.141 245.84 168.996 245.84 c 154.043 245.84 l 136.312 245.84
 121.887 231.41 121.887 213.68 c 121.887 209.863 122.547 206.133 123.848
 202.586 c 128.48 189.984 140.613 181.52 154.043 181.52 c 193.105 181.52
 l 213.473 181.555 l 224.031 181.555 232.621 190.141 232.621 200.699 c 232.621
 234.117 l 232.621 268.156 205.504 306.223 169.215 306.223 c h
309.277 289.902 m 309.277 304.906 297.07 317.109 282.066 317.109 c 220.801
 317.109 l 211.84 317.109 203.879 312.75 198.918 306.039 c 213.57 297.832
 225.305 284.051 232.5 268.449 c 309.277 268.113 l h
376.234 188.387 m 376.234 221.176 351.066 257.703 316.777 260.336 c 316.715
 260.332 316.652 260.316 316.586 260.316 c 316.57 260.316 l 235.656 260.672
 l 238.719 251.973 240.387 242.926 240.387 234.117 c 240.387 200.699 l 240.387
 186.59 229.465 174.988 215.637 173.883 c 215.637 139.723 l 215.637 103.438
 191.535 72.68 158.5 62.609 c 170.242 38.117 195.281 21.156 224.211 21.156
 c 278.656 21.156 l 318.816 21.156 351.488 53.828 351.488 93.988 c 351.488
 184.488 l 351.488 186.633 353.227 188.371 355.371 188.371 c 357.516 188.371
 359.254 186.633 359.254 184.488 c 359.254 135.945 l 368.793 137.027 376.234
 145.145 376.234 154.969 c h
376.234 188.387 m f
23.289 141.602 m 21.633 141.602 20.289 140.258 20.289 138.602 c 20.289 
107.148 45.879 81.559 77.332 81.559 c 86.77 81.559 l 88.426 81.559 89.77
 82.902 89.77 84.559 c 89.77 86.215 88.426 87.559 86.77 87.559 c 77.332 
87.559 l 49.188 87.559 26.289 110.457 26.289 138.602 c 26.289 140.258 24.945
 141.602 23.289 141.602 c h
23.289 141.602 m f
Q Q
showpage
%%Trailer
end
%%EOF
