%!PS-Adobe-3.0 EPSF-3.0
%%Creator: cairo 1.16.0 (https://cairographics.org)
%%CreationDate: Wed Jul 15 13:23:52 2020
%%Pages: 1
%%DocumentData: Clean7Bit
%%LanguageLevel: 2
%%BoundingBox: 6 0 378 384
%%EndComments
%%BeginProlog
50 dict begin
/q { gsave } bind def
/Q { grestore } bind def
/cm { 6 array astore concat } bind def
/w { setlinewidth } bind def
/J { setlinecap } bind def
/j { setlinejoin } bind def
/M { setmiterlimit } bind def
/d { setdash } bind def
/m { moveto } bind def
/l { lineto } bind def
/c { curveto } bind def
/h { closepath } bind def
/re { exch dup neg 3 1 roll 5 3 roll moveto 0 rlineto
      0 exch rlineto 0 rlineto closepath } bind def
/S { stroke } bind def
/f { fill } bind def
/f* { eofill } bind def
/n { newpath } bind def
/W { clip } bind def
/W* { eoclip } bind def
/BT { } bind def
/ET { } bind def
/BDC { mark 3 1 roll /BDC pdfmark } bind def
/EMC { mark /EMC pdfmark } bind def
/cairo_store_point { /cairo_point_y exch def /cairo_point_x exch def } def
/Tj { show currentpoint cairo_store_point } bind def
/TJ {
  {
    dup
    type /stringtype eq
    { show } { -0.001 mul 0 cairo_font_matrix dtransform rmoveto } ifelse
  } forall
  currentpoint cairo_store_point
} bind def
/cairo_selectfont { cairo_font_matrix aload pop pop pop 0 0 6 array astore
    cairo_font exch selectfont cairo_point_x cairo_point_y moveto } bind def
/Tf { pop /cairo_font exch def /cairo_font_matrix where
      { pop cairo_selectfont } if } bind def
/Td { matrix translate cairo_font_matrix matrix concatmatrix dup
      /cairo_font_matrix exch def dup 4 get exch 5 get cairo_store_point
      /cairo_font where { pop cairo_selectfont } if } bind def
/Tm { 2 copy 8 2 roll 6 array astore /cairo_font_matrix exch def
      cairo_store_point /cairo_font where { pop cairo_selectfont } if } bind def
/g { setgray } bind def
/rg { setrgbcolor } bind def
/d1 { setcachedevice } bind def
/cairo_data_source {
  CairoDataIndex CairoData length lt
    { CairoData CairoDataIndex get /CairoDataIndex CairoDataIndex 1 add def }
    { () } ifelse
} def
/cairo_flush_ascii85_file { cairo_ascii85_file status { cairo_ascii85_file flushfile } if } def
/cairo_image { image cairo_flush_ascii85_file } def
/cairo_imagemask { imagemask cairo_flush_ascii85_file } def
%%EndProlog
%%BeginSetup
%%EndSetup
%%Page: 1 1
%%BeginPageSetup
%%PageBoundingBox: 6 0 378 384
%%EndPageSetup
q 6 0 372 384 rectclip
1 0 0 -1 0 384 cm q
0.913725 0.760784 0.470588 rg
136.203 104.664 m 57.488 25.949 l 58.754 24.684 l 60.48 22.953 60.48 20.152
 58.754 18.422 c 44.625 4.293 l 42.895 2.562 40.09 2.562 38.359 4.293 c 
11.258 31.398 l 9.527 33.129 9.527 35.93 11.258 37.66 c 25.387 51.789 l 
27.113 53.52 29.918 53.52 31.648 51.789 c 32.812 50.625 l 111.527 129.34
 l h
136.203 104.664 m f
0.976471 0.984314 0.988235 rg
87.152 131.285 m 138.148 80.289 l 147.602 70.836 162.934 70.836 172.391
 80.289 c 362.98 270.883 l 377.723 285.621 377.723 309.52 362.98 324.262
 c 331.125 356.121 l 316.383 370.859 292.484 370.859 277.746 356.121 c 87.152
 165.527 l 77.695 156.07 77.695 140.742 87.152 131.285 c h
87.152 131.285 m f
0.917647 0.658824 0.584314 rg
254.898 295.41 m 253.605 295.41 252.562 296.457 252.562 297.746 c 252.562
 299.035 253.605 300.082 254.898 300.082 c 256.188 300.082 257.234 299.035
 257.234 297.746 c 257.234 296.457 256.188 295.41 254.898 295.41 c h
254.898 295.41 m f
262.711 302.656 m 261.422 302.656 260.375 303.703 260.375 304.992 c 260.375
 306.285 261.422 307.328 262.711 307.328 c 264 307.328 265.047 306.281 265.047
 304.992 c 265.047 303.703 264.004 302.656 262.711 302.656 c h
262.711 302.656 m f
254.898 310.473 m 253.605 310.473 252.562 311.52 252.562 312.809 c 252.562
 314.098 253.605 315.145 254.898 315.145 c 256.188 315.145 257.234 314.098
 257.234 312.809 c 257.234 311.52 256.188 310.473 254.898 310.473 c h
254.898 310.473 m f
262.711 317.719 m 261.422 317.719 260.375 318.766 260.375 320.055 c 260.375
 321.348 261.422 322.391 262.711 322.391 c 264 322.391 265.047 321.348 265.047
 320.055 c 265.047 318.766 264.004 317.719 262.711 317.719 c h
262.711 317.719 m f
254.898 325.535 m 253.605 325.535 252.562 326.582 252.562 327.871 c 252.562
 329.16 253.605 330.207 254.898 330.207 c 256.188 330.207 257.234 329.16
 257.234 327.871 c 257.234 326.582 256.188 325.535 254.898 325.535 c h
254.898 325.535 m f
262.711 332.781 m 261.422 332.781 260.375 333.828 260.375 335.117 c 260.375
 336.41 261.422 337.453 262.711 337.453 c 264 337.453 265.047 336.41 265.047
 335.117 c 265.047 333.828 264.004 332.781 262.711 332.781 c h
262.711 332.781 m f
239.836 280.348 m 238.543 280.348 237.496 281.391 237.496 282.684 c 237.496
 283.973 238.543 285.02 239.836 285.02 c 241.125 285.02 242.172 283.973 
242.172 282.684 c 242.172 281.391 241.125 280.348 239.836 280.348 c h
239.836 280.348 m f
247.648 287.594 m 246.359 287.594 245.312 288.641 245.312 289.93 c 245.312
 291.219 246.359 292.266 247.648 292.266 c 248.938 292.266 249.984 291.219
 249.984 289.93 c 249.984 288.641 248.938 287.594 247.648 287.594 c h
247.648 287.594 m f
239.836 295.41 m 238.543 295.41 237.496 296.457 237.496 297.746 c 237.496
 299.035 238.543 300.082 239.836 300.082 c 241.125 300.082 242.172 299.035
 242.172 297.746 c 242.172 296.457 241.125 295.41 239.836 295.41 c h
239.836 295.41 m f
247.648 302.656 m 246.359 302.656 245.312 303.703 245.312 304.992 c 245.312
 306.285 246.359 307.328 247.648 307.328 c 248.938 307.328 249.984 306.281
 249.984 304.992 c 249.984 303.703 248.938 302.656 247.648 302.656 c h
247.648 302.656 m f
239.836 310.473 m 238.543 310.473 237.496 311.52 237.496 312.809 c 237.496
 314.098 238.543 315.145 239.836 315.145 c 241.125 315.145 242.172 314.098
 242.172 312.809 c 242.172 311.52 241.125 310.473 239.836 310.473 c h
239.836 310.473 m f
247.648 317.719 m 246.359 317.719 245.312 318.766 245.312 320.055 c 245.312
 321.348 246.359 322.391 247.648 322.391 c 248.938 322.391 249.984 321.348
 249.984 320.055 c 249.984 318.766 248.938 317.719 247.648 317.719 c h
247.648 317.719 m f
224.77 265.285 m 223.48 265.285 222.434 266.332 222.434 267.621 c 222.434
 268.91 223.48 269.957 224.77 269.957 c 226.062 269.957 227.109 268.91 227.109
 267.621 c 227.109 266.328 226.062 265.285 224.77 265.285 c h
224.77 265.285 m f
232.586 272.531 m 231.297 272.531 230.25 273.578 230.25 274.867 c 230.25
 276.156 231.297 277.203 232.586 277.203 c 233.875 277.203 234.922 276.156
 234.922 274.867 c 234.922 273.578 233.879 272.531 232.586 272.531 c h
232.586 272.531 m f
224.77 280.348 m 223.48 280.348 222.434 281.391 222.434 282.684 c 222.434
 283.973 223.48 285.02 224.77 285.02 c 226.062 285.02 227.109 283.973 227.109
 282.684 c 227.109 281.391 226.062 280.348 224.77 280.348 c h
224.77 280.348 m f
232.586 287.594 m 231.297 287.594 230.25 288.641 230.25 289.93 c 230.25
 291.219 231.297 292.266 232.586 292.266 c 233.875 292.266 234.922 291.219
 234.922 289.93 c 234.922 288.641 233.879 287.594 232.586 287.594 c h
232.586 287.594 m f
224.77 295.41 m 223.48 295.41 222.434 296.457 222.434 297.746 c 222.434
 299.035 223.48 300.082 224.77 300.082 c 226.062 300.082 227.109 299.035
 227.109 297.746 c 227.109 296.457 226.062 295.41 224.77 295.41 c h
224.77 295.41 m f
232.586 302.656 m 231.297 302.656 230.25 303.703 230.25 304.992 c 230.25
 306.285 231.297 307.328 232.586 307.328 c 233.875 307.328 234.922 306.281
 234.922 304.992 c 234.922 303.703 233.879 302.656 232.586 302.656 c h
232.586 302.656 m f
209.711 250.223 m 208.418 250.223 207.371 251.266 207.371 252.559 c 207.371
 253.848 208.418 254.895 209.711 254.895 c 211 254.895 212.047 253.848 212.047
 252.559 c 212.047 251.266 211 250.223 209.711 250.223 c h
209.711 250.223 m f
217.523 257.469 m 216.234 257.469 215.188 258.516 215.188 259.805 c 215.188
 261.094 216.234 262.141 217.523 262.141 c 218.812 262.141 219.859 261.094
 219.859 259.805 c 219.859 258.516 218.812 257.469 217.523 257.469 c h
217.523 257.469 m f
209.711 265.285 m 208.418 265.285 207.371 266.332 207.371 267.621 c 207.371
 268.91 208.418 269.957 209.711 269.957 c 211 269.957 212.047 268.91 212.047
 267.621 c 212.047 266.328 211 265.285 209.711 265.285 c h
209.711 265.285 m f
219.859 274.867 m 219.859 276.156 218.812 277.203 217.523 277.203 c 216.234
 277.203 215.188 276.156 215.188 274.867 c 215.188 273.578 216.234 272.531
 217.523 272.531 c 218.812 272.531 219.859 273.578 219.859 274.867 c h
219.859 274.867 m f
209.711 280.348 m 208.418 280.348 207.371 281.391 207.371 282.684 c 207.371
 283.973 208.418 285.02 209.711 285.02 c 211 285.02 212.047 283.973 212.047
 282.684 c 212.047 281.391 211 280.348 209.711 280.348 c h
209.711 280.348 m f
219.859 289.93 m 219.859 291.223 218.812 292.266 217.523 292.266 c 216.234
 292.266 215.188 291.223 215.188 289.93 c 215.188 288.641 216.234 287.594
 217.523 287.594 c 218.812 287.594 219.859 288.641 219.859 289.93 c h
219.859 289.93 m f
194.645 235.156 m 193.355 235.156 192.309 236.203 192.309 237.496 c 192.309
 238.785 193.355 239.832 194.645 239.832 c 195.938 239.832 196.98 238.785
 196.98 237.496 c 196.98 236.203 195.938 235.156 194.645 235.156 c h
194.645 235.156 m f
202.461 242.406 m 201.172 242.406 200.125 243.453 200.125 244.742 c 200.125
 246.031 201.172 247.078 202.461 247.078 c 203.75 247.078 204.797 246.031
 204.797 244.742 c 204.797 243.453 203.75 242.406 202.461 242.406 c h
202.461 242.406 m f
194.645 250.223 m 193.355 250.223 192.309 251.266 192.309 252.559 c 192.309
 253.848 193.355 254.895 194.645 254.895 c 195.938 254.895 196.98 253.848
 196.98 252.559 c 196.98 251.266 195.938 250.223 194.645 250.223 c h
194.645 250.223 m f
202.461 257.469 m 201.172 257.469 200.125 258.516 200.125 259.805 c 200.125
 261.094 201.172 262.141 202.461 262.141 c 203.75 262.141 204.797 261.094
 204.797 259.805 c 204.797 258.516 203.75 257.469 202.461 257.469 c h
202.461 257.469 m f
194.645 265.285 m 193.355 265.285 192.309 266.332 192.309 267.621 c 192.309
 268.91 193.355 269.957 194.645 269.957 c 195.938 269.957 196.98 268.91 
196.98 267.621 c 196.98 266.328 195.938 265.285 194.645 265.285 c h
194.645 265.285 m f
202.461 272.531 m 201.172 272.531 200.125 273.578 200.125 274.867 c 200.125
 276.156 201.172 277.203 202.461 277.203 c 203.75 277.203 204.797 276.156
 204.797 274.867 c 204.797 273.578 203.75 272.531 202.461 272.531 c h
202.461 272.531 m f
179.582 220.098 m 178.293 220.098 177.246 221.141 177.246 222.434 c 177.246
 223.723 178.293 224.77 179.582 224.77 c 180.875 224.77 181.922 223.723 
181.922 222.434 c 181.922 221.141 180.875 220.098 179.582 220.098 c h
179.582 220.098 m f
187.398 227.344 m 186.109 227.344 185.062 228.391 185.062 229.68 c 185.062
 230.969 186.109 232.016 187.398 232.016 c 188.688 232.016 189.734 230.969
 189.734 229.68 c 189.734 228.391 188.688 227.344 187.398 227.344 c h
187.398 227.344 m f
179.582 235.156 m 178.293 235.156 177.246 236.203 177.246 237.496 c 177.246
 238.785 178.293 239.832 179.582 239.832 c 180.875 239.832 181.922 238.785
 181.922 237.496 c 181.922 236.203 180.875 235.156 179.582 235.156 c h
179.582 235.156 m f
187.398 242.406 m 186.109 242.406 185.062 243.453 185.062 244.742 c 185.062
 246.031 186.109 247.078 187.398 247.078 c 188.688 247.078 189.734 246.031
 189.734 244.742 c 189.734 243.453 188.688 242.406 187.398 242.406 c h
187.398 242.406 m f
179.582 250.223 m 178.293 250.223 177.246 251.266 177.246 252.559 c 177.246
 253.848 178.293 254.895 179.582 254.895 c 180.875 254.895 181.922 253.848
 181.922 252.559 c 181.922 251.266 180.875 250.223 179.582 250.223 c h
179.582 250.223 m f
187.398 257.469 m 186.109 257.469 185.062 258.516 185.062 259.805 c 185.062
 261.094 186.109 262.141 187.398 262.141 c 188.688 262.141 189.734 261.094
 189.734 259.805 c 189.734 258.516 188.688 257.469 187.398 257.469 c h
187.398 257.469 m f
164.52 205.031 m 163.23 205.031 162.184 206.078 162.184 207.367 c 162.184
 208.66 163.23 209.707 164.52 209.707 c 165.812 209.707 166.855 208.66 166.855
 207.367 c 166.855 206.078 165.812 205.031 164.52 205.031 c h
164.52 205.031 m f
172.336 212.281 m 171.047 212.281 170 213.328 170 214.617 c 170 215.906
 171.047 216.953 172.336 216.953 c 173.625 216.953 174.672 215.906 174.672
 214.617 c 174.672 213.328 173.625 212.281 172.336 212.281 c h
172.336 212.281 m f
164.52 220.098 m 163.23 220.098 162.184 221.141 162.184 222.434 c 162.184
 223.723 163.23 224.77 164.52 224.77 c 165.812 224.77 166.855 223.723 166.855
 222.434 c 166.855 221.141 165.812 220.098 164.52 220.098 c h
164.52 220.098 m f
172.336 227.344 m 171.047 227.344 170 228.391 170 229.68 c 170 230.969 
171.047 232.016 172.336 232.016 c 173.625 232.016 174.672 230.969 174.672
 229.68 c 174.672 228.391 173.625 227.344 172.336 227.344 c h
172.336 227.344 m f
164.52 235.156 m 163.23 235.156 162.184 236.203 162.184 237.496 c 162.184
 238.785 163.23 239.832 164.52 239.832 c 165.812 239.832 166.855 238.785
 166.855 237.496 c 166.855 236.203 165.812 235.156 164.52 235.156 c h
164.52 235.156 m f
172.336 242.406 m 171.047 242.406 170 243.453 170 244.742 c 170 246.031
 171.047 247.078 172.336 247.078 c 173.625 247.078 174.672 246.031 174.672
 244.742 c 174.672 243.453 173.625 242.406 172.336 242.406 c h
172.336 242.406 m f
149.457 189.969 m 148.168 189.969 147.121 191.016 147.121 192.309 c 147.121
 193.598 148.168 194.645 149.457 194.645 c 150.746 194.645 151.793 193.598
 151.793 192.309 c 151.793 191.016 150.75 189.969 149.457 189.969 c h
149.457 189.969 m f
157.273 197.219 m 155.984 197.219 154.938 198.266 154.938 199.555 c 154.938
 200.844 155.984 201.891 157.273 201.891 c 158.562 201.891 159.609 200.844
 159.609 199.555 c 159.609 198.266 158.562 197.219 157.273 197.219 c h
157.273 197.219 m f
149.457 205.031 m 148.168 205.031 147.121 206.078 147.121 207.367 c 147.121
 208.66 148.168 209.707 149.457 209.707 c 150.746 209.707 151.793 208.66
 151.793 207.367 c 151.793 206.078 150.75 205.031 149.457 205.031 c h
149.457 205.031 m f
157.273 212.281 m 155.984 212.281 154.938 213.328 154.938 214.617 c 154.938
 215.906 155.984 216.953 157.273 216.953 c 158.562 216.953 159.609 215.906
 159.609 214.617 c 159.609 213.328 158.562 212.281 157.273 212.281 c h
157.273 212.281 m f
149.457 220.098 m 148.168 220.098 147.121 221.141 147.121 222.434 c 147.121
 223.723 148.168 224.77 149.457 224.77 c 150.746 224.77 151.793 223.723 
151.793 222.434 c 151.793 221.141 150.75 220.098 149.457 220.098 c h
149.457 220.098 m f
157.273 227.344 m 155.984 227.344 154.938 228.391 154.938 229.68 c 154.938
 230.969 155.984 232.016 157.273 232.016 c 158.562 232.016 159.609 230.969
 159.609 229.68 c 159.609 228.391 158.562 227.344 157.273 227.344 c h
157.273 227.344 m f
136.762 176.77 m 136.969 178.043 136.105 179.242 134.832 179.449 c 133.559
 179.656 132.355 178.789 132.152 177.516 c 131.945 176.242 132.809 175.043
 134.082 174.836 c 135.355 174.629 136.555 175.496 136.762 176.77 c h
136.762 176.77 m f
142.211 182.156 m 140.918 182.156 139.875 183.203 139.875 184.492 c 139.875
 185.781 140.922 186.828 142.211 186.828 c 143.5 186.828 144.547 185.781
 144.547 184.492 c 144.547 183.199 143.5 182.156 142.211 182.156 c h
142.211 182.156 m f
134.395 189.969 m 133.105 189.969 132.059 191.016 132.059 192.309 c 132.059
 193.598 133.105 194.645 134.395 194.645 c 135.688 194.645 136.73 193.598
 136.73 192.309 c 136.73 191.016 135.684 189.969 134.395 189.969 c h
134.395 189.969 m f
142.211 197.219 m 140.918 197.219 139.875 198.266 139.875 199.555 c 139.875
 200.844 140.922 201.891 142.211 201.891 c 143.5 201.891 144.547 200.844
 144.547 199.555 c 144.547 198.266 143.5 197.219 142.211 197.219 c h
142.211 197.219 m f
134.395 205.031 m 133.105 205.031 132.059 206.078 132.059 207.367 c 132.059
 208.66 133.105 209.707 134.395 209.707 c 135.688 209.707 136.73 208.66 
136.73 207.367 c 136.73 206.078 135.684 205.031 134.395 205.031 c h
134.395 205.031 m f
142.211 212.281 m 140.918 212.281 139.875 213.328 139.875 214.617 c 139.875
 215.906 140.922 216.953 142.211 216.953 c 143.5 216.953 144.547 215.906
 144.547 214.617 c 144.547 213.328 143.5 212.281 142.211 212.281 c h
142.211 212.281 m f
121.668 162.18 m 121.668 163.473 120.621 164.516 119.332 164.516 c 118.043
 164.516 116.996 163.473 116.996 162.18 c 116.996 160.891 118.043 159.844
 119.332 159.844 c 120.621 159.844 121.668 160.891 121.668 162.18 c h
121.668 162.18 m f
127.148 167.094 m 125.859 167.094 124.812 168.141 124.812 169.43 c 124.812
 170.719 125.859 171.766 127.148 171.766 c 128.438 171.766 129.484 170.719
 129.484 169.43 c 129.484 168.141 128.438 167.094 127.148 167.094 c h
127.148 167.094 m f
121.668 177.242 m 121.668 178.535 120.621 179.578 119.332 179.578 c 118.043
 179.578 116.996 178.535 116.996 177.242 c 116.996 175.953 118.043 174.906
 119.332 174.906 c 120.621 174.906 121.668 175.953 121.668 177.242 c h
121.668 177.242 m f
127.148 182.156 m 125.859 182.156 124.812 183.203 124.812 184.492 c 124.812
 185.781 125.859 186.828 127.148 186.828 c 128.438 186.828 129.484 185.781
 129.484 184.492 c 129.484 183.199 128.438 182.156 127.148 182.156 c h
127.148 182.156 m f
119.332 189.969 m 118.043 189.969 116.996 191.016 116.996 192.309 c 116.996
 193.598 118.043 194.645 119.332 194.645 c 120.625 194.645 121.668 193.598
 121.668 192.309 c 121.668 191.016 120.625 189.969 119.332 189.969 c h
119.332 189.969 m f
127.148 197.219 m 125.859 197.219 124.812 198.266 124.812 199.555 c 124.812
 200.844 125.859 201.891 127.148 201.891 c 128.438 201.891 129.484 200.844
 129.484 199.555 c 129.484 198.266 128.438 197.219 127.148 197.219 c h
127.148 197.219 m f
104.27 144.781 m 102.98 144.781 101.934 145.828 101.934 147.117 c 101.934
 148.41 102.98 149.453 104.27 149.453 c 105.559 149.453 106.605 148.41 106.605
 147.117 c 106.605 145.828 105.559 144.781 104.27 144.781 c h
104.27 144.781 m f
112.086 152.031 m 110.793 152.031 109.75 153.074 109.75 154.367 c 109.75
 155.656 110.793 156.703 112.086 156.703 c 113.375 156.703 114.422 155.656
 114.422 154.367 c 114.422 153.074 113.375 152.031 112.086 152.031 c h
112.086 152.031 m f
104.27 159.844 m 102.98 159.844 101.934 160.891 101.934 162.18 c 101.934
 163.473 102.98 164.516 104.27 164.516 c 105.559 164.516 106.605 163.473
 106.605 162.18 c 106.605 160.891 105.559 159.844 104.27 159.844 c h
104.27 159.844 m f
112.086 167.094 m 110.793 167.094 109.75 168.141 109.75 169.43 c 109.75
 170.719 110.793 171.766 112.086 171.766 c 113.375 171.766 114.422 170.719
 114.422 169.43 c 114.422 168.141 113.375 167.094 112.086 167.094 c h
112.086 167.094 m f
104.27 174.906 m 102.98 174.906 101.934 175.953 101.934 177.242 c 101.934
 178.535 102.98 179.578 104.27 179.578 c 105.559 179.578 106.605 178.535
 106.605 177.242 c 106.605 175.953 105.559 174.906 104.27 174.906 c h
104.27 174.906 m f
112.086 182.156 m 110.793 182.156 109.75 183.203 109.75 184.492 c 109.75
 185.781 110.793 186.828 112.086 186.828 c 113.375 186.828 114.422 185.781
 114.422 184.492 c 114.422 183.199 113.375 182.156 112.086 182.156 c h
112.086 182.156 m f
89.207 134.391 m 90.496 134.391 91.543 133.348 91.543 132.055 c 91.543 
130.766 90.496 129.719 89.207 129.719 c 89.012 129.719 88.824 129.75 88.641
 129.797 c 87.223 131.215 l 87.125 131.312 87.035 131.414 86.941 131.512
 c 86.898 131.688 86.871 131.867 86.871 132.059 c 86.871 133.348 87.918 
134.391 89.207 134.391 c h
89.207 134.391 m f
97.023 136.969 m 95.73 136.969 94.688 138.012 94.688 139.305 c 94.688 140.594
 95.73 141.641 97.023 141.641 c 98.312 141.641 99.359 140.594 99.359 139.305
 c 99.359 138.012 98.312 136.969 97.023 136.969 c h
97.023 136.969 m f
89.207 144.781 m 87.918 144.781 86.871 145.828 86.871 147.117 c 86.871 
148.41 87.918 149.453 89.207 149.453 c 90.496 149.453 91.543 148.41 91.543
 147.117 c 91.543 145.828 90.496 144.781 89.207 144.781 c h
89.207 144.781 m f
97.023 152.031 m 95.73 152.031 94.688 153.074 94.688 154.367 c 94.688 155.656
 95.73 156.703 97.023 156.703 c 98.312 156.703 99.359 155.656 99.359 154.367
 c 99.359 153.074 98.312 152.031 97.023 152.031 c h
97.023 152.031 m f
89.207 159.844 m 87.918 159.844 86.871 160.891 86.871 162.18 c 86.871 163.473
 87.918 164.516 89.207 164.516 c 90.496 164.516 91.543 163.473 91.543 162.18
 c 91.543 160.891 90.496 159.844 89.207 159.844 c h
89.207 159.844 m f
97.023 167.094 m 95.73 167.094 94.688 168.141 94.688 169.43 c 94.688 170.719
 95.73 171.766 97.023 171.766 c 98.312 171.766 99.359 170.719 99.359 169.43
 c 99.359 168.141 98.312 167.094 97.023 167.094 c h
97.023 167.094 m f
84.297 154.367 m 84.297 153.074 83.25 152.031 81.961 152.031 c 81.391 152.031
 80.875 152.242 80.469 152.582 c 80.711 153.965 81.066 155.328 81.547 156.66
 c 81.68 156.684 81.816 156.703 81.961 156.703 c 83.25 156.703 84.297 155.656
 84.297 154.367 c h
84.297 154.367 m f
0.913725 0.760784 0.470588 rg
362.871 270.77 m 348.715 257.66 l 265.656 258.512 l 265.656 344.035 l 277.633
 356.008 l 292.434 370.809 316.434 370.809 331.234 356.008 c 362.871 324.371
 l 377.672 309.57 377.672 285.57 362.871 270.77 c h
362.871 270.77 m f
0.976471 0.984314 0.988235 rg
362.668 282.738 m 360.395 285.012 l 361.637 284.984 362.637 283.984 362.668
 282.738 c h
362.668 282.738 m f
368.152 287.594 m 366.859 287.594 365.816 288.641 365.816 289.93 c 365.816
 291.219 366.859 292.266 368.152 292.266 c 369.441 292.266 370.488 291.219
 370.488 289.93 c 370.488 288.641 369.441 287.594 368.152 287.594 c h
368.152 287.594 m f
360.336 295.41 m 359.047 295.41 358 296.457 358 297.746 c 358 299.035 359.047
 300.082 360.336 300.082 c 361.625 300.082 362.672 299.035 362.672 297.746
 c 362.672 296.457 361.625 295.41 360.336 295.41 c h
360.336 295.41 m f
368.152 302.656 m 366.859 302.656 365.816 303.703 365.816 304.992 c 365.816
 306.285 366.859 307.328 368.152 307.328 c 369.441 307.328 370.488 306.281
 370.488 304.992 c 370.488 303.703 369.441 302.656 368.152 302.656 c h
368.152 302.656 m f
360.336 315.145 m 361.625 315.145 362.672 314.098 362.672 312.809 c 362.672
 311.52 361.625 310.473 360.336 310.473 c 359.047 310.473 358 311.52 358
 312.809 c 358 314.098 359.047 315.145 360.336 315.145 c h
360.336 315.145 m f
355.418 289.988 m 353.145 292.262 l 354.391 292.23 355.387 291.23 355.418
 289.988 c h
355.418 289.988 m f
347.605 297.801 m 345.332 300.074 l 346.574 300.047 347.574 299.047 347.605
 297.801 c h
347.605 297.801 m f
355.426 304.992 m 355.426 306.281 354.379 307.328 353.09 307.328 c 351.797
 307.328 350.75 306.281 350.75 304.992 c 350.75 303.703 351.797 302.656 
353.09 302.656 c 354.379 302.656 355.426 303.703 355.426 304.992 c h
355.426 304.992 m f
345.273 310.473 m 343.984 310.473 342.938 311.52 342.938 312.809 c 342.938
 314.098 343.984 315.145 345.273 315.145 c 346.562 315.145 347.609 314.098
 347.609 312.809 c 347.609 311.52 346.562 310.473 345.273 310.473 c h
345.273 310.473 m f
355.426 320.055 m 355.426 321.348 354.379 322.391 353.09 322.391 c 351.797
 322.391 350.75 321.348 350.75 320.055 c 350.75 318.766 351.797 317.719 
353.09 317.719 c 354.379 317.719 355.426 318.766 355.426 320.055 c h
355.426 320.055 m f
345.273 325.535 m 343.984 325.535 342.938 326.582 342.938 327.871 c 342.938
 329.16 343.984 330.207 345.273 330.207 c 346.562 330.207 347.609 329.16
 347.609 327.871 c 347.609 326.582 346.562 325.535 345.273 325.535 c h
345.273 325.535 m f
340.355 305.051 m 338.082 307.324 l 339.328 307.293 340.324 306.293 340.355
 305.051 c h
340.355 305.051 m f
332.539 312.867 m 331.234 314.172 l 330.902 314.504 330.555 314.824 330.211
 315.145 c 331.48 315.145 332.512 314.129 332.539 312.867 c h
332.539 312.867 m f
338.027 317.719 m 336.734 317.719 335.691 318.766 335.691 320.055 c 335.691
 321.348 336.734 322.391 338.027 322.391 c 339.316 322.391 340.363 321.348
 340.363 320.055 c 340.363 318.766 339.316 317.719 338.027 317.719 c h
338.027 317.719 m f
330.211 325.535 m 328.922 325.535 327.875 326.582 327.875 327.871 c 327.875
 329.16 328.922 330.207 330.211 330.207 c 331.5 330.207 332.547 329.16 332.547
 327.871 c 332.547 326.582 331.5 325.535 330.211 325.535 c h
330.211 325.535 m f
338.027 332.781 m 336.734 332.781 335.691 333.828 335.691 335.117 c 335.691
 336.41 336.734 337.453 338.027 337.453 c 339.316 337.453 340.363 336.41
 340.363 335.117 c 340.363 333.828 339.316 332.781 338.027 332.781 c h
338.027 332.781 m f
330.211 340.598 m 328.922 340.598 327.875 341.645 327.875 342.934 c 327.875
 344.223 328.922 345.27 330.211 345.27 c 331.5 345.27 332.547 344.223 332.547
 342.934 c 332.547 341.645 331.5 340.598 330.211 340.598 c h
330.211 340.598 m f
322.961 322.391 m 324.254 322.391 325.301 321.348 325.301 320.055 c 325.301
 319.73 325.23 319.422 325.113 319.141 c 323.805 319.992 322.453 320.75 
321.074 321.422 c 321.5 322.008 322.184 322.391 322.961 322.391 c h
322.961 322.391 m f
315.148 325.535 m 313.855 325.535 312.812 326.582 312.812 327.871 c 312.812
 329.16 313.859 330.207 315.148 330.207 c 316.438 330.207 317.484 329.16
 317.484 327.871 c 317.484 326.582 316.438 325.535 315.148 325.535 c h
315.148 325.535 m f
322.961 332.781 m 321.672 332.781 320.625 333.828 320.625 335.117 c 320.625
 336.41 321.672 337.453 322.961 337.453 c 324.254 337.453 325.301 336.41
 325.301 335.117 c 325.301 333.828 324.254 332.781 322.961 332.781 c h
322.961 332.781 m f
315.148 340.598 m 313.855 340.598 312.812 341.645 312.812 342.934 c 312.812
 344.223 313.859 345.27 315.148 345.27 c 316.438 345.27 317.484 344.223 
317.484 342.934 c 317.484 341.645 316.438 340.598 315.148 340.598 c h
315.148 340.598 m f
322.961 347.844 m 321.672 347.844 320.625 348.891 320.625 350.18 c 320.625
 351.473 321.672 352.516 322.961 352.516 c 324.254 352.516 325.301 351.473
 325.301 350.18 c 325.301 348.891 324.254 347.844 322.961 347.844 c h
322.961 347.844 m f
315.148 355.66 m 313.855 355.66 312.812 356.707 312.812 357.996 c 312.812
 359.285 313.859 360.332 315.148 360.332 c 316.438 360.332 317.484 359.285
 317.484 357.996 c 317.484 356.707 316.438 355.66 315.148 355.66 c h
315.148 355.66 m f
300.086 325.535 m 298.793 325.535 297.75 326.582 297.75 327.871 c 297.75
 329.16 298.793 330.207 300.086 330.207 c 301.375 330.207 302.422 329.16
 302.422 327.871 c 302.422 326.582 301.375 325.535 300.086 325.535 c h
300.086 325.535 m f
307.898 332.781 m 306.609 332.781 305.562 333.828 305.562 335.117 c 305.562
 336.41 306.609 337.453 307.898 337.453 c 309.191 337.453 310.234 336.41
 310.234 335.117 c 310.238 333.828 309.191 332.781 307.898 332.781 c h
307.898 332.781 m f
300.086 345.27 m 301.375 345.27 302.422 344.223 302.422 342.934 c 302.422
 341.645 301.375 340.598 300.086 340.598 c 298.793 340.598 297.75 341.645
 297.75 342.934 c 297.75 344.223 298.793 345.27 300.086 345.27 c h
300.086 345.27 m f
307.898 347.844 m 306.609 347.844 305.562 348.891 305.562 350.18 c 305.562
 351.473 306.609 352.516 307.898 352.516 c 309.191 352.516 310.234 351.473
 310.234 350.18 c 310.238 348.891 309.191 347.844 307.898 347.844 c h
307.898 347.844 m f
300.086 360.332 m 301.375 360.332 302.422 359.285 302.422 357.996 c 302.422
 356.707 301.375 355.66 300.086 355.66 c 298.793 355.66 297.75 356.707 297.75
 357.996 c 297.75 359.285 298.793 360.332 300.086 360.332 c h
300.086 360.332 m f
310.238 365.242 m 310.238 363.953 309.191 362.906 307.902 362.906 c 306.609
 362.906 305.562 363.953 305.562 365.242 c 305.562 365.977 305.91 366.625
 306.438 367.055 c 307.523 366.996 308.602 366.891 309.68 366.742 c 310.023
 366.336 310.238 365.816 310.238 365.242 c h
310.238 365.242 m f
285.023 330.207 m 286.312 330.207 287.359 329.16 287.359 327.871 c 287.359
 326.582 286.312 325.535 285.023 325.535 c 283.734 325.535 282.688 326.582
 282.688 327.871 c 282.688 329.16 283.73 330.207 285.023 330.207 c h
285.023 330.207 m f
295.172 335.117 m 295.172 336.41 294.129 337.453 292.836 337.453 c 291.547
 337.453 290.5 336.41 290.5 335.117 c 290.5 333.828 291.547 332.781 292.836
 332.781 c 294.129 332.781 295.172 333.828 295.172 335.117 c h
295.172 335.117 m f
287.359 342.934 m 287.359 344.223 286.312 345.27 285.023 345.27 c 283.73
 345.27 282.688 344.223 282.688 342.934 c 282.688 341.645 283.73 340.598
 285.023 340.598 c 286.312 340.598 287.359 341.645 287.359 342.934 c h
287.359 342.934 m f
292.836 352.52 m 294.129 352.52 295.172 351.473 295.172 350.184 c 295.172
 348.891 294.129 347.844 292.836 347.844 c 291.547 347.844 290.5 348.891
 290.5 350.184 c 290.5 351.473 291.547 352.52 292.836 352.52 c h
292.836 352.52 m f
287.359 357.996 m 287.359 359.285 286.312 360.332 285.023 360.332 c 283.73
 360.332 282.688 359.285 282.688 357.996 c 282.688 356.707 283.73 355.66
 285.023 355.66 c 286.312 355.66 287.359 356.707 287.359 357.996 c h
287.359 357.996 m f
269.961 310.473 m 268.668 310.473 267.625 311.52 267.625 312.809 c 267.625
 314.098 268.668 315.145 269.961 315.145 c 271.25 315.145 272.297 314.098
 272.297 312.809 c 272.297 311.52 271.25 310.473 269.961 310.473 c h
269.961 310.473 m f
277.773 317.719 m 276.484 317.719 275.438 318.766 275.438 320.055 c 275.438
 321.348 276.484 322.391 277.773 322.391 c 279.066 322.391 280.109 321.348
 280.109 320.055 c 280.109 318.766 279.066 317.719 277.773 317.719 c h
277.773 317.719 m f
269.961 325.535 m 268.668 325.535 267.625 326.582 267.625 327.871 c 267.625
 329.16 268.668 330.207 269.961 330.207 c 271.25 330.207 272.297 329.16 
272.297 327.871 c 272.297 326.582 271.25 325.535 269.961 325.535 c h
269.961 325.535 m f
277.773 332.781 m 276.484 332.781 275.438 333.828 275.438 335.117 c 275.438
 336.41 276.484 337.453 277.773 337.453 c 279.066 337.453 280.109 336.41
 280.109 335.117 c 280.109 333.828 279.066 332.781 277.773 332.781 c h
277.773 332.781 m f
272.297 342.934 m 272.297 344.223 271.25 345.27 269.961 345.27 c 268.668
 345.27 267.625 344.223 267.625 342.934 c 267.625 341.645 268.668 340.598
 269.961 340.598 c 271.25 340.598 272.297 341.645 272.297 342.934 c h
272.297 342.934 m f
277.773 347.844 m 276.484 347.844 275.438 348.891 275.438 350.18 c 275.438
 351.473 276.484 352.516 277.773 352.516 c 279.066 352.516 280.109 351.473
 280.109 350.18 c 280.109 348.891 279.066 347.844 277.773 347.844 c h
277.773 347.844 m f
0.192157 0.215686 0.239216 rg
365.105 268.762 m 174.512 78.168 l 169.371 73.027 162.539 70.199 155.27
 70.199 c 148 70.199 141.164 73.031 136.023 78.168 c 124.988 89.207 l 61.652
 25.875 l 63.73 22.973 63.477 18.906 60.875 16.301 c 46.746 2.172 l 43.848
 -0.723 39.137 -0.723 36.238 2.172 c 9.133 29.277 l 6.238 32.172 6.238 36.887
 9.133 39.781 c 23.262 53.91 l 24.711 55.359 26.613 56.082 28.516 56.082
 c 29.988 56.082 31.457 55.641 32.723 54.773 c 96.07 118.125 l 85.031 129.164
 l 79.891 134.301 77.059 141.137 77.059 148.406 c 77.059 155.672 79.891 
162.508 85.031 167.648 c 275.621 358.238 l 283.566 366.184 294 370.156 304.434
 370.156 c 314.867 370.156 325.301 366.184 333.246 358.238 c 365.102 326.383
 l 372.797 318.684 377.035 308.453 377.035 297.57 c 377.039 286.688 372.801
 276.457 365.105 268.762 c h
29.527 49.668 m 28.969 50.227 28.062 50.227 27.508 49.668 c 13.379 35.539
 l 12.82 34.98 12.82 34.078 13.379 33.52 c 40.484 6.414 l 40.762 6.137 41.125
 5.996 41.492 5.996 c 41.859 5.996 42.223 6.137 42.5 6.414 c 56.633 20.543
 l 57.188 21.102 57.188 22.004 56.633 22.562 c h
37.055 50.625 m 57.488 30.191 l 120.746 93.449 l 100.312 113.883 l h
83.062 148.406 m 83.062 142.738 85.266 137.414 89.273 133.406 c 111.234
 111.445 l 225.539 225.754 l 226.125 226.34 226.895 226.633 227.66 226.633
 c 228.43 226.633 229.195 226.34 229.785 225.754 c 230.953 224.582 230.953
 222.68 229.785 221.512 c 115.477 107.203 l 140.27 82.41 l 144.273 78.406
 149.602 76.199 155.27 76.199 c 160.934 76.199 166.262 78.406 170.27 82.41
 c 343.18 255.32 l 266.973 255.32 l 265.312 255.32 263.973 256.664 263.973
 258.32 c 263.973 338.102 l 89.273 163.406 l 85.266 159.398 83.062 154.074
 83.062 148.406 c h
360.859 322.141 m 329.004 354 l 315.457 367.547 293.414 367.547 279.867
 354 c 269.973 344.105 l 269.973 261.32 l 349.18 261.32 l 360.859 273.004
 l 367.422 279.566 371.039 288.289 371.039 297.57 c 371.039 306.852 367.422
 315.578 360.859 322.141 c h
360.859 322.141 m f
0.917647 0.658824 0.584314 rg
121.328 339.582 m 121.328 362.457 102.785 381 79.91 381 c 57.035 381 38.492
 362.457 38.492 339.582 c 38.492 316.707 57.035 298.164 79.91 298.164 c 
102.785 298.164 121.328 316.707 121.328 339.582 c h
121.328 339.582 m f
0.976471 0.984314 0.988235 rg
118.441 327.082 m 117.156 327.082 116.113 328.125 116.113 329.41 c 116.113
 330.695 117.156 331.738 118.441 331.738 c 119.246 331.738 119.953 331.328
 120.371 330.711 c 120.121 329.566 119.824 328.445 119.48 327.34 c 119.168
 327.18 118.816 327.082 118.441 327.082 c h
118.441 327.082 m f
118.441 342.082 m 117.156 342.082 116.113 343.125 116.113 344.41 c 116.113
 345.695 117.156 346.738 118.441 346.738 c 119.727 346.738 120.766 345.695
 120.766 344.41 c 120.766 343.125 119.727 342.082 118.441 342.082 c h
118.441 342.082 m f
104.035 316.648 m 105.031 316.387 105.766 315.488 105.766 314.41 c 105.766
 313.125 104.727 312.082 103.441 312.082 c 103.328 312.082 103.219 312.102
 103.109 312.117 c 103.504 313.598 103.809 315.109 104.035 316.648 c h
104.035 316.648 m f
111.223 319.301 m 109.938 319.301 108.895 320.344 108.895 321.629 c 108.895
 322.914 109.938 323.953 111.223 323.953 c 112.508 323.953 113.551 322.914
 113.551 321.629 c 113.551 320.344 112.508 319.301 111.223 319.301 c h
111.223 319.301 m f
105.766 329.41 m 105.766 328.414 105.137 327.57 104.258 327.238 c 104.09
 328.762 103.84 330.258 103.516 331.73 c 104.766 331.688 105.766 330.668
 105.766 329.41 c h
105.766 329.41 m f
111.223 334.301 m 109.938 334.301 108.895 335.344 108.895 336.629 c 108.895
 337.914 109.938 338.953 111.223 338.953 c 112.508 338.953 113.551 337.914
 113.551 336.629 c 113.551 335.344 112.508 334.301 111.223 334.301 c h
111.223 334.301 m f
103.441 342.082 m 102.156 342.082 101.113 343.125 101.113 344.41 c 101.113
 345.695 102.156 346.738 103.441 346.738 c 104.727 346.738 105.766 345.695
 105.766 344.41 c 105.766 343.125 104.727 342.082 103.441 342.082 c h
103.441 342.082 m f
111.223 349.301 m 109.938 349.301 108.895 350.344 108.895 351.629 c 108.895
 352.914 109.938 353.953 111.223 353.953 c 112.508 353.953 113.551 352.914
 113.551 351.629 c 113.551 350.344 112.508 349.301 111.223 349.301 c h
111.223 349.301 m f
103.441 357.082 m 102.156 357.082 101.113 358.125 101.113 359.41 c 101.113
 360.695 102.156 361.738 103.441 361.738 c 104.727 361.738 105.766 360.695
 105.766 359.41 c 105.766 358.125 104.727 357.082 103.441 357.082 c h
103.441 357.082 m f
93.895 351.629 m 93.895 352.914 94.938 353.953 96.223 353.953 c 97.508 
353.953 98.551 352.914 98.551 351.629 c 98.551 350.344 97.508 349.301 96.223
 349.301 c 94.938 349.301 93.895 350.344 93.895 351.629 c h
93.895 351.629 m f
88.441 357.082 m 87.156 357.082 86.113 358.125 86.113 359.41 c 86.113 360.695
 87.156 361.738 88.441 361.738 c 89.727 361.738 90.766 360.695 90.766 359.41
 c 90.766 358.125 89.727 357.082 88.441 357.082 c h
88.441 357.082 m f
96.223 368.953 m 97.508 368.953 98.551 367.914 98.551 366.629 c 98.551 
365.34 97.508 364.301 96.223 364.301 c 94.938 364.301 93.895 365.344 93.895
 366.629 c 93.895 367.91 94.938 368.953 96.223 368.953 c h
96.223 368.953 m f
88.441 372.082 m 87.156 372.082 86.113 373.125 86.113 374.41 c 86.113 375.695
 87.156 376.738 88.441 376.738 c 89.727 376.738 90.766 375.695 90.766 374.41
 c 90.766 373.125 89.727 372.082 88.441 372.082 c h
88.441 372.082 m f
78.895 366.629 m 78.895 367.914 79.938 368.953 81.223 368.953 c 82.508 
368.953 83.551 367.914 83.551 366.629 c 83.551 365.344 82.508 364.301 81.223
 364.301 c 79.938 364.301 78.895 365.344 78.895 366.629 c h
78.895 366.629 m f
71.113 374.41 m 71.113 375.695 72.156 376.738 73.441 376.738 c 74.727 376.738
 75.766 375.695 75.766 374.41 c 75.766 373.125 74.727 372.082 73.441 372.082
 c 72.156 372.082 71.113 373.125 71.113 374.41 c h
71.113 374.41 m f
66.223 368.953 m 67.508 368.953 68.551 367.914 68.551 366.629 c 68.551 
365.34 67.508 364.301 66.223 364.301 c 64.938 364.301 63.895 365.344 63.895
 366.629 c 63.895 367.91 64.938 368.953 66.223 368.953 c h
66.223 368.953 m f
51.223 368.953 m 52.508 368.953 53.551 367.914 53.551 366.629 c 53.551 
365.34 52.508 364.301 51.223 364.301 c 49.938 364.301 48.895 365.344 48.895
 366.629 c 48.895 366.781 48.914 366.934 48.941 367.082 c 49.488 367.695
 50.051 368.289 50.633 368.867 c 50.82 368.918 51.016 368.953 51.223 368.953
 c h
51.223 368.953 m f
0.192157 0.215686 0.239216 rg
79.91 384 m 55.418 384 35.492 364.074 35.492 339.582 c 35.492 315.09 55.418
 295.164 79.91 295.164 c 104.402 295.164 124.328 315.09 124.328 339.582 
c 124.328 364.074 104.402 384 79.91 384 c h
79.91 301.168 m 58.727 301.168 41.492 318.402 41.492 339.582 c 41.492 360.766
 58.727 378 79.91 378 c 101.094 378 118.328 360.766 118.328 339.582 c 118.328
 318.398 101.094 301.168 79.91 301.168 c h
79.91 301.168 m f
167.348 326.938 m 141.574 326.938 l 139.918 326.938 138.574 325.594 138.574
 323.938 c 138.574 322.281 139.918 320.938 141.574 320.938 c 167.348 320.938
 l 169.004 320.938 170.348 322.281 170.348 323.938 c 170.348 325.594 169.004
 326.938 167.348 326.938 c h
167.348 326.938 m f
198.641 358.23 m 141.574 358.23 l 139.918 358.23 138.574 356.887 138.574
 355.23 c 138.574 353.574 139.918 352.23 141.574 352.23 c 198.641 352.23
 l 200.297 352.23 201.641 353.574 201.641 355.23 c 201.641 356.887 200.297
 358.23 198.641 358.23 c h
198.641 358.23 m f
Q Q
showpage
%%Trailer
end
%%EOF
