%!PS-Adobe-3.0 EPSF-3.0
%%Creator: cairo 1.16.0 (https://cairographics.org)
%%CreationDate: Wed Jul 15 13:23:56 2020
%%Pages: 1
%%DocumentData: Clean7Bit
%%LanguageLevel: 2
%%BoundingBox: 2 0 382 384
%%EndComments
%%BeginProlog
50 dict begin
/q { gsave } bind def
/Q { grestore } bind def
/cm { 6 array astore concat } bind def
/w { setlinewidth } bind def
/J { setlinecap } bind def
/j { setlinejoin } bind def
/M { setmiterlimit } bind def
/d { setdash } bind def
/m { moveto } bind def
/l { lineto } bind def
/c { curveto } bind def
/h { closepath } bind def
/re { exch dup neg 3 1 roll 5 3 roll moveto 0 rlineto
      0 exch rlineto 0 rlineto closepath } bind def
/S { stroke } bind def
/f { fill } bind def
/f* { eofill } bind def
/n { newpath } bind def
/W { clip } bind def
/W* { eoclip } bind def
/BT { } bind def
/ET { } bind def
/BDC { mark 3 1 roll /BDC pdfmark } bind def
/EMC { mark /EMC pdfmark } bind def
/cairo_store_point { /cairo_point_y exch def /cairo_point_x exch def } def
/Tj { show currentpoint cairo_store_point } bind def
/TJ {
  {
    dup
    type /stringtype eq
    { show } { -0.001 mul 0 cairo_font_matrix dtransform rmoveto } ifelse
  } forall
  currentpoint cairo_store_point
} bind def
/cairo_selectfont { cairo_font_matrix aload pop pop pop 0 0 6 array astore
    cairo_font exch selectfont cairo_point_x cairo_point_y moveto } bind def
/Tf { pop /cairo_font exch def /cairo_font_matrix where
      { pop cairo_selectfont } if } bind def
/Td { matrix translate cairo_font_matrix matrix concatmatrix dup
      /cairo_font_matrix exch def dup 4 get exch 5 get cairo_store_point
      /cairo_font where { pop cairo_selectfont } if } bind def
/Tm { 2 copy 8 2 roll 6 array astore /cairo_font_matrix exch def
      cairo_store_point /cairo_font where { pop cairo_selectfont } if } bind def
/g { setgray } bind def
/rg { setrgbcolor } bind def
/d1 { setcachedevice } bind def
/cairo_data_source {
  CairoDataIndex CairoData length lt
    { CairoData CairoDataIndex get /CairoDataIndex CairoDataIndex 1 add def }
    { () } ifelse
} def
/cairo_flush_ascii85_file { cairo_ascii85_file status { cairo_ascii85_file flushfile } if } def
/cairo_image { image cairo_flush_ascii85_file } def
/cairo_imagemask { imagemask cairo_flush_ascii85_file } def
%%EndProlog
%%BeginSetup
%%EndSetup
%%Page: 1 1
%%BeginPageSetup
%%PageBoundingBox: 2 0 382 384
%%EndPageSetup
q 2 0 380 384 rectclip
1 0 0 -1 0 384 cm q
0.976471 0.984314 0.988235 rg
328.98 139.094 m 321.582 139.094 314.566 140.715 308.25 143.602 c 322.805
 134.871 332.551 118.941 332.551 100.734 c 332.551 73.145 310.184 50.777
 282.594 50.777 c 264.23 50.777 246.793 59.852 237.938 74.512 c 241.125 
67.988 242.898 60.816 242.898 53.008 c 242.898 25.418 220.531 3.051 192.941
 3.051 c 171.262 3.051 152.812 16.867 145.902 36.168 c 129.73 71.512 l 62.699
 215.363 l 26.961 253.137 l -2.285 282.383 -2.285 329.801 26.961 359.047
 c 56.207 388.297 103.625 388.297 132.871 359.047 c 170.641 324.195 l 358.637
 229.246 l 370.949 220.148 378.938 205.535 378.938 189.047 c 378.938 161.461
 356.57 139.094 328.98 139.094 c h
328.98 139.094 m f
0.917647 0.658824 0.584314 rg
137.848 332.84 m 136.562 332.84 135.52 333.883 135.52 335.168 c 135.52 
336.457 136.562 337.5 137.848 337.5 c 139.133 337.5 140.176 336.457 140.176
 335.168 c 140.18 333.883 139.137 332.84 137.848 332.84 c h
137.848 332.84 m f
145.641 340.066 m 144.355 340.066 143.312 341.109 143.312 342.395 c 143.312
 343.684 144.355 344.727 145.641 344.727 c 146.926 344.727 147.969 343.684
 147.969 342.395 c 147.969 341.109 146.926 340.066 145.641 340.066 c h
145.641 340.066 m f
137.848 347.859 m 136.562 347.859 135.52 348.902 135.52 350.188 c 135.52
 351.477 136.562 352.52 137.848 352.52 c 139.133 352.52 140.176 351.477 
140.176 350.188 c 140.18 348.902 139.137 347.859 137.848 347.859 c h
137.848 347.859 m f
122.902 322.473 m 124.129 322.434 125.113 321.449 125.152 320.223 c h
122.902 322.473 m f
130.621 325.047 m 129.336 325.047 128.293 326.09 128.293 327.375 c 128.293
 328.664 129.336 329.707 130.621 329.707 c 131.906 329.707 132.949 328.664
 132.949 327.375 c 132.949 326.09 131.906 325.047 130.621 325.047 c h
130.621 325.047 m f
122.828 332.84 m 121.543 332.84 120.5 333.883 120.5 335.168 c 120.5 336.457
 121.543 337.5 122.828 337.5 c 124.113 337.5 125.156 336.457 125.156 335.168
 c 125.16 333.883 124.113 332.84 122.828 332.84 c h
122.828 332.84 m f
130.621 340.066 m 129.336 340.066 128.293 341.109 128.293 342.395 c 128.293
 343.684 129.336 344.727 130.621 344.727 c 131.906 344.727 132.949 343.684
 132.949 342.395 c 132.949 341.109 131.906 340.066 130.621 340.066 c h
130.621 340.066 m f
122.828 347.859 m 121.543 347.859 120.5 348.902 120.5 350.188 c 120.5 351.477
 121.543 352.52 122.828 352.52 c 124.113 352.52 125.156 351.477 125.156 
350.188 c 125.16 348.902 124.113 347.859 122.828 347.859 c h
122.828 347.859 m f
130.621 355.086 m 129.336 355.086 128.293 356.129 128.293 357.418 c 128.293
 358.703 129.336 359.746 130.621 359.746 c 131.906 359.746 132.949 358.703
 132.949 357.418 c 132.949 356.129 131.906 355.086 130.621 355.086 c h
130.621 355.086 m f
122.828 362.879 m 121.543 362.879 120.5 363.922 120.5 365.207 c 120.5 366.473
 121.508 367.496 122.762 367.531 c 123.535 366.992 124.297 366.43 125.055
 365.855 c 125.117 365.648 125.16 365.434 125.16 365.207 c 125.16 363.922
 124.113 362.879 122.828 362.879 c h
122.828 362.879 m f
115.676 329.699 m 116.902 329.66 117.887 328.676 117.922 327.449 c h
115.676 329.699 m f
107.883 337.492 m 109.109 337.453 110.094 336.469 110.133 335.242 c h
107.883 337.492 m f
115.602 340.066 m 114.316 340.066 113.273 341.109 113.273 342.395 c 113.273
 343.684 114.316 344.727 115.602 344.727 c 116.887 344.727 117.93 343.684
 117.93 342.395 c 117.93 341.109 116.887 340.066 115.602 340.066 c h
115.602 340.066 m f
107.809 347.859 m 106.523 347.859 105.48 348.902 105.48 350.188 c 105.48
 351.477 106.523 352.52 107.809 352.52 c 109.094 352.52 110.137 351.477 
110.137 350.188 c 110.141 348.902 109.094 347.859 107.809 347.859 c h
107.809 347.859 m f
115.602 355.086 m 114.316 355.086 113.273 356.129 113.273 357.418 c 113.273
 358.703 114.316 359.746 115.602 359.746 c 116.887 359.746 117.93 358.703
 117.93 357.418 c 117.93 356.129 116.887 355.086 115.602 355.086 c h
115.602 355.086 m f
107.809 362.879 m 106.523 362.879 105.48 363.922 105.48 365.207 c 105.48
 366.496 106.523 367.539 107.809 367.539 c 109.094 367.539 110.137 366.496
 110.137 365.207 c 110.141 363.922 109.094 362.879 107.809 362.879 c h
107.809 362.879 m f
113.27 372.434 m 113.27 372.672 113.316 372.895 113.383 373.109 c 114.734
 372.434 116.066 371.715 117.383 370.953 c 116.957 370.438 116.32 370.105
 115.602 370.105 c 114.312 370.105 113.27 371.148 113.27 372.434 c h
113.27 372.434 m f
99.727 344.559 m 99.992 344.664 100.277 344.727 100.582 344.727 c 101.867
 344.727 102.91 343.684 102.91 342.395 c 102.91 342.285 102.895 342.176 
102.879 342.066 c 101.848 342.934 100.793 343.758 99.727 344.559 c h
99.727 344.559 m f
94.191 348.34 m 92.973 349.094 91.742 349.816 90.488 350.496 c 90.641 351.637
 91.609 352.516 92.789 352.516 c 94.074 352.516 95.117 351.473 95.117 350.188
 c 95.117 349.43 94.75 348.766 94.191 348.34 c h
94.191 348.34 m f
100.582 355.086 m 99.297 355.086 98.254 356.129 98.254 357.418 c 98.254
 358.703 99.297 359.746 100.582 359.746 c 101.867 359.746 102.91 358.703
 102.91 357.418 c 102.91 356.129 101.867 355.086 100.582 355.086 c h
100.582 355.086 m f
92.789 362.879 m 91.504 362.879 90.461 363.922 90.461 365.207 c 90.461 
366.496 91.504 367.539 92.789 367.539 c 94.074 367.539 95.117 366.496 95.117
 365.207 c 95.117 363.922 94.074 362.879 92.789 362.879 c h
92.789 362.879 m f
100.582 370.105 m 99.297 370.105 98.254 371.148 98.254 372.438 c 98.254
 373.723 99.297 374.766 100.582 374.766 c 101.867 374.766 102.91 373.723
 102.91 372.438 c 102.91 371.148 101.867 370.105 100.582 370.105 c h
100.582 370.105 m f
92.789 377.898 m 91.504 377.898 90.461 378.941 90.461 380.227 c 90.461 
380.23 90.461 380.234 90.461 380.238 c 91.973 380.027 93.48 379.762 94.977
 379.457 c 94.66 378.551 93.805 377.898 92.789 377.898 c h
92.789 377.898 m f
85.562 355.086 m 84.277 355.086 83.234 356.129 83.234 357.418 c 83.234 
358.703 84.277 359.746 85.562 359.746 c 86.848 359.746 87.891 358.703 87.891
 357.418 c 87.891 356.129 86.848 355.086 85.562 355.086 c h
85.562 355.086 m f
77.77 362.879 m 76.484 362.879 75.441 363.922 75.441 365.207 c 75.441 366.496
 76.484 367.539 77.77 367.539 c 79.055 367.539 80.098 366.496 80.098 365.207
 c 80.098 363.922 79.055 362.879 77.77 362.879 c h
77.77 362.879 m f
85.562 370.105 m 84.277 370.105 83.234 371.148 83.234 372.438 c 83.234 
373.723 84.277 374.766 85.562 374.766 c 86.848 374.766 87.891 373.723 87.891
 372.438 c 87.891 371.148 86.848 370.105 85.562 370.105 c h
85.562 370.105 m f
77.77 377.898 m 76.484 377.898 75.441 378.941 75.441 380.227 c 75.441 380.445
 75.48 380.652 75.535 380.852 c 77.012 380.938 78.488 380.984 79.961 380.984
 c 80.043 380.746 80.098 380.492 80.098 380.227 c 80.098 378.941 79.055 
377.898 77.77 377.898 c h
77.77 377.898 m f
68.379 358.273 m 68.723 359.133 69.559 359.746 70.543 359.746 c 71.828 
359.746 72.871 358.703 72.871 357.414 c 72.871 357.375 72.863 357.336 72.859
 357.297 c 71.375 357.664 69.883 358 68.379 358.273 c h
68.379 358.273 m f
62.75 362.879 m 61.465 362.879 60.422 363.922 60.422 365.207 c 60.422 366.496
 61.465 367.539 62.75 367.539 c 64.035 367.539 65.078 366.496 65.078 365.207
 c 65.078 363.922 64.035 362.879 62.75 362.879 c h
62.75 362.879 m f
70.543 370.105 m 69.258 370.105 68.215 371.148 68.215 372.438 c 68.215 
373.723 69.258 374.766 70.543 374.766 c 71.828 374.766 72.871 373.723 72.871
 372.438 c 72.871 371.148 71.828 370.105 70.543 370.105 c h
70.543 370.105 m f
62.75 377.898 m 62.102 377.898 61.52 378.16 61.098 378.586 c 62.371 378.918
 63.656 379.211 64.945 379.473 c 64.629 378.559 63.773 377.898 62.75 377.898
 c h
62.75 377.898 m f
56.59 359.473 m 55.887 359.488 55.184 359.488 54.477 359.488 c 54.793 359.645
 55.145 359.746 55.523 359.746 c 55.91 359.746 56.27 359.641 56.59 359.473
 c h
56.59 359.473 m f
47.73 362.879 m 46.445 362.879 45.402 363.922 45.402 365.207 c 45.402 366.496
 46.445 367.539 47.73 367.539 c 49.016 367.539 50.059 366.496 50.059 365.207
 c 50.059 363.922 49.016 362.879 47.73 362.879 c h
47.73 362.879 m f
55.523 370.105 m 54.238 370.105 53.195 371.148 53.195 372.438 c 53.195 
373.723 54.238 374.766 55.523 374.766 c 56.809 374.766 57.852 373.723 57.852
 372.438 c 57.852 371.148 56.809 370.105 55.523 370.105 c h
55.523 370.105 m f
40.504 359.746 m 41.402 359.746 42.176 359.227 42.562 358.48 c 41.102 358.238
 39.645 357.945 38.195 357.613 c 38.297 358.809 39.285 359.746 40.504 359.746
 c h
40.504 359.746 m f
32.711 362.879 m 32.266 362.879 31.852 363.012 31.5 363.227 c 32.613 364.176
 33.75 365.082 34.906 365.953 c 34.988 365.719 35.039 365.469 35.039 365.207
 c 35.039 363.922 33.996 362.879 32.711 362.879 c h
32.711 362.879 m f
42.125 370.766 m 41.875 370.523 41.57 370.344 41.234 370.234 c 41.531 370.414
 41.828 370.594 42.125 370.766 c h
42.125 370.766 m f
19.902 350.887 m 19.906 350.879 19.906 350.871 19.91 350.863 c 19.895 350.859
 19.883 350.852 19.871 350.848 c 19.883 350.859 19.895 350.871 19.902 350.887
 c h
19.902 350.887 m f
25.484 355.086 m 24.855 355.086 24.285 355.34 23.867 355.742 c 24.859 356.867
 25.887 357.973 26.961 359.047 c 26.988 359.078 27.02 359.105 27.047 359.133
 c 27.516 358.707 27.812 358.098 27.812 357.414 c 27.812 356.129 26.77 355.086
 25.484 355.086 c h
25.484 355.086 m f
378.16 187.301 m 378.422 187.301 378.668 187.25 378.902 187.172 c 378.844
 185.656 378.715 184.16 378.527 182.68 c 378.41 182.66 378.285 182.645 378.16
 182.645 c 376.875 182.645 375.832 183.688 375.832 184.973 c 375.832 186.258
 376.875 187.301 378.16 187.301 c h
378.16 187.301 m f
375.832 199.992 m 375.832 200.938 376.398 201.75 377.207 202.113 c 377.602
 200.656 377.93 199.172 378.191 197.668 c 378.184 197.668 378.172 197.664
 378.16 197.664 c 376.875 197.664 375.832 198.707 375.832 199.992 c h
375.832 199.992 m f
363.141 157.262 m 364.426 157.262 365.469 156.223 365.469 154.941 c 364.719
 154.137 363.941 153.359 363.137 152.605 c 361.852 152.605 360.812 153.648
 360.812 154.934 c 360.812 156.219 361.855 157.262 363.141 157.262 c h
363.141 157.262 m f
370.934 164.488 m 371.426 164.488 371.875 164.336 372.25 164.078 c 371.473
 162.734 370.637 161.43 369.742 160.168 c 369.062 160.574 368.605 161.312
 368.605 162.16 c 368.605 163.445 369.648 164.488 370.934 164.488 c h
370.934 164.488 m f
363.141 167.625 m 361.855 167.625 360.812 168.668 360.812 169.953 c 360.812
 171.238 361.855 172.281 363.141 172.281 c 364.43 172.281 365.473 171.238
 365.473 169.953 c 365.473 168.668 364.43 167.625 363.141 167.625 c h
363.141 167.625 m f
370.934 174.852 m 369.648 174.852 368.605 175.895 368.605 177.18 c 368.605
 178.469 369.648 179.512 370.934 179.512 c 372.223 179.512 373.266 178.469
 373.266 177.18 c 373.266 175.895 372.223 174.852 370.934 174.852 c h
370.934 174.852 m f
363.141 182.645 m 361.855 182.645 360.812 183.688 360.812 184.973 c 360.812
 186.258 361.855 187.301 363.141 187.301 c 364.43 187.301 365.473 186.258
 365.473 184.973 c 365.473 183.688 364.43 182.645 363.141 182.645 c h
363.141 182.645 m f
370.934 189.871 m 369.648 189.871 368.605 190.914 368.605 192.199 c 368.605
 193.488 369.648 194.531 370.934 194.531 c 372.223 194.531 373.266 193.488
 373.266 192.199 c 373.266 190.914 372.223 189.871 370.934 189.871 c h
370.934 189.871 m f
363.141 197.664 m 361.855 197.664 360.812 198.707 360.812 199.992 c 360.812
 201.277 361.855 202.32 363.141 202.32 c 364.43 202.32 365.473 201.277 365.473
 199.992 c 365.473 198.707 364.43 197.664 363.141 197.664 c h
363.141 197.664 m f
370.934 204.891 m 369.648 204.891 368.605 205.934 368.605 207.219 c 368.605
 208.508 369.648 209.551 370.934 209.551 c 372.223 209.551 373.266 208.508
 373.266 207.219 c 373.266 205.934 372.223 204.891 370.934 204.891 c h
370.934 204.891 m f
363.141 212.684 m 361.855 212.684 360.812 213.727 360.812 215.012 c 360.812
 216.297 361.855 217.344 363.141 217.344 c 364.43 217.344 365.473 216.297
 365.473 215.012 c 365.473 213.727 364.43 212.684 363.141 212.684 c h
363.141 212.684 m f
355.914 149.469 m 356.766 149.469 357.504 149.008 357.91 148.328 c 356.652
 147.43 355.348 146.59 354.008 145.812 c 353.754 146.172 353.602 146.613
 353.59 147.086 c 353.762 147.574 353.922 148.066 354.082 148.562 c 354.508
 149.113 355.168 149.469 355.914 149.469 c h
355.914 149.469 m f
356.297 159.871 m 356.398 161.156 356.465 162.453 356.465 163.766 c 356.465
 163.984 356.457 164.203 356.453 164.422 c 357.48 164.176 358.246 163.262
 358.246 162.16 c 358.246 161.004 357.402 160.055 356.297 159.871 c h
356.297 159.871 m f
355.914 174.852 m 355.66 174.852 355.422 174.902 355.195 174.977 c 354.902
 176.246 354.566 177.496 354.184 178.723 c 354.609 179.203 355.223 179.508
 355.914 179.508 c 357.203 179.508 358.246 178.465 358.246 177.18 c 358.246
 175.895 357.203 174.852 355.914 174.852 c h
355.914 174.852 m f
355.914 189.871 m 354.629 189.871 353.586 190.914 353.586 192.199 c 353.586
 193.488 354.629 194.531 355.914 194.531 c 357.203 194.531 358.246 193.488
 358.246 192.199 c 358.246 190.914 357.203 189.871 355.914 189.871 c h
355.914 189.871 m f
348.121 197.664 m 346.836 197.664 345.793 198.707 345.793 199.992 c 345.793
 201.277 346.836 202.32 348.121 202.32 c 349.41 202.32 350.453 201.277 350.453
 199.992 c 350.453 198.707 349.41 197.664 348.121 197.664 c h
348.121 197.664 m f
355.914 204.891 m 354.629 204.891 353.586 205.934 353.586 207.219 c 353.586
 208.508 354.629 209.551 355.914 209.551 c 357.203 209.551 358.246 208.508
 358.246 207.219 c 358.246 205.934 357.203 204.891 355.914 204.891 c h
355.914 204.891 m f
348.121 212.684 m 346.836 212.684 345.793 213.727 345.793 215.012 c 345.793
 216.297 346.836 217.344 348.121 217.344 c 349.41 217.344 350.453 216.297
 350.453 215.012 c 350.453 213.727 349.41 212.684 348.121 212.684 c h
348.121 212.684 m f
355.914 219.91 m 354.629 219.91 353.586 220.953 353.586 222.238 c 353.586
 223.527 354.629 224.57 355.914 224.57 c 357.203 224.57 358.246 223.527 
358.246 222.238 c 358.246 220.953 357.203 219.91 355.914 219.91 c h
355.914 219.91 m f
348.121 227.703 m 346.836 227.703 345.793 228.746 345.793 230.031 c 345.793
 231.316 346.836 232.363 348.121 232.363 c 349.41 232.363 350.453 231.316
 350.453 230.031 c 350.453 228.746 349.41 227.703 348.121 227.703 c h
348.121 227.703 m f
340.895 204.891 m 339.609 204.891 338.566 205.934 338.566 207.219 c 338.566
 208.508 339.609 209.551 340.895 209.551 c 342.184 209.551 343.227 208.508
 343.227 207.219 c 343.227 205.934 342.184 204.891 340.895 204.891 c h
340.895 204.891 m f
333.102 212.684 m 331.816 212.684 330.773 213.727 330.773 215.012 c 330.773
 216.297 331.816 217.344 333.102 217.344 c 334.391 217.344 335.434 216.297
 335.434 215.012 c 335.434 213.727 334.391 212.684 333.102 212.684 c h
333.102 212.684 m f
340.895 219.91 m 339.609 219.91 338.566 220.953 338.566 222.238 c 338.566
 223.527 339.609 224.57 340.895 224.57 c 342.184 224.57 343.227 223.527 
343.227 222.238 c 343.227 220.953 342.184 219.91 340.895 219.91 c h
340.895 219.91 m f
333.102 227.703 m 331.816 227.703 330.773 228.746 330.773 230.031 c 330.773
 231.316 331.816 232.363 333.102 232.363 c 334.391 232.363 335.434 231.316
 335.434 230.031 c 335.434 228.746 334.391 227.703 333.102 227.703 c h
333.102 227.703 m f
340.895 234.93 m 339.609 234.93 338.566 235.973 338.566 237.258 c 338.566
 237.949 338.871 238.562 339.348 238.988 c 343.203 237.043 l 343.094 235.859
 342.105 234.93 340.895 234.93 c h
340.895 234.93 m f
328.039 208.066 m 325.277 209.461 l 325.469 209.512 325.668 209.551 325.875
 209.551 c 326.863 209.551 327.703 208.934 328.039 208.066 c h
328.039 208.066 m f
318.711 212.777 m 315.91 214.195 l 315.812 214.449 315.754 214.723 315.754
 215.012 c 315.754 216.297 316.797 217.344 318.082 217.344 c 319.371 217.344
 320.414 216.297 320.414 215.012 c 320.414 213.945 319.691 213.055 318.711
 212.777 c h
318.711 212.777 m f
325.875 219.91 m 324.59 219.91 323.547 220.953 323.547 222.238 c 323.547
 223.527 324.59 224.57 325.875 224.57 c 327.16 224.57 328.207 223.527 328.207
 222.238 c 328.207 220.953 327.16 219.91 325.875 219.91 c h
325.875 219.91 m f
318.082 227.703 m 316.797 227.703 315.754 228.746 315.754 230.031 c 315.754
 231.316 316.797 232.363 318.082 232.363 c 319.371 232.363 320.414 231.316
 320.414 230.031 c 320.414 228.746 319.371 227.703 318.082 227.703 c h
318.082 227.703 m f
325.875 234.93 m 324.59 234.93 323.547 235.973 323.547 237.258 c 323.547
 238.547 324.59 239.59 325.875 239.59 c 327.16 239.59 328.207 238.547 328.207
 237.258 c 328.207 235.973 327.16 234.93 325.875 234.93 c h
325.875 234.93 m f
318.082 242.723 m 316.797 242.723 315.754 243.766 315.754 245.051 c 315.754
 246.34 316.797 247.383 318.082 247.383 c 319.371 247.383 320.414 246.34
 320.414 245.051 c 320.414 243.766 319.371 242.723 318.082 242.723 c h
318.082 242.723 m f
310.855 219.91 m 309.57 219.91 308.527 220.953 308.527 222.238 c 308.527
 223.527 309.57 224.57 310.855 224.57 c 312.141 224.57 313.188 223.527 313.188
 222.238 c 313.188 220.953 312.141 219.91 310.855 219.91 c h
310.855 219.91 m f
303.062 227.703 m 301.777 227.703 300.734 228.746 300.734 230.031 c 300.734
 231.316 301.777 232.363 303.062 232.363 c 304.348 232.363 305.395 231.316
 305.395 230.031 c 305.395 228.746 304.352 227.703 303.062 227.703 c h
303.062 227.703 m f
310.855 234.93 m 309.57 234.93 308.527 235.973 308.527 237.258 c 308.527
 238.547 309.57 239.59 310.855 239.59 c 312.141 239.59 313.188 238.547 313.188
 237.258 c 313.188 235.973 312.141 234.93 310.855 234.93 c h
310.855 234.93 m f
303.062 242.723 m 301.777 242.723 300.734 243.766 300.734 245.051 c 300.734
 246.34 301.777 247.383 303.062 247.383 c 304.348 247.383 305.395 246.34
 305.395 245.051 c 305.395 243.766 304.352 242.723 303.062 242.723 c h
303.062 242.723 m f
310.855 249.949 m 309.57 249.949 308.527 250.992 308.527 252.277 c 308.527
 253.023 308.883 253.676 309.426 254.105 c 313.18 252.207 l 313.141 250.953
 312.117 249.949 310.855 249.949 c h
310.855 249.949 m f
297.906 223.285 m 295.445 224.531 l 295.574 224.551 295.703 224.57 295.836
 224.57 c 296.746 224.57 297.523 224.043 297.906 223.285 c h
297.906 223.285 m f
288.859 227.855 m 285.812 229.395 l 285.754 229.598 285.715 229.809 285.715
 230.031 c 285.715 231.316 286.758 232.363 288.043 232.363 c 289.328 232.363
 290.375 231.316 290.375 230.031 c 290.375 229.031 289.742 228.188 288.859
 227.855 c h
288.859 227.855 m f
295.836 234.93 m 294.551 234.93 293.508 235.973 293.508 237.258 c 293.508
 238.547 294.551 239.59 295.836 239.59 c 297.121 239.59 298.164 238.547 
298.164 237.258 c 298.164 235.973 297.121 234.93 295.836 234.93 c h
295.836 234.93 m f
288.043 242.723 m 286.758 242.723 285.715 243.766 285.715 245.051 c 285.715
 246.34 286.758 247.383 288.043 247.383 c 289.328 247.383 290.375 246.34
 290.375 245.051 c 290.375 243.766 289.332 242.723 288.043 242.723 c h
288.043 242.723 m f
295.836 249.949 m 294.551 249.949 293.508 250.992 293.508 252.277 c 293.508
 253.566 294.551 254.609 295.836 254.609 c 297.121 254.609 298.164 253.566
 298.164 252.277 c 298.164 250.992 297.121 249.949 295.836 249.949 c h
295.836 249.949 m f
288.043 257.742 m 286.758 257.742 285.715 258.785 285.715 260.07 c 285.715
 261.359 286.758 262.402 288.043 262.402 c 289.328 262.402 290.375 261.359
 290.375 260.07 c 290.375 258.785 289.332 257.742 288.043 257.742 c h
288.043 257.742 m f
280.816 234.93 m 279.531 234.93 278.488 235.973 278.488 237.258 c 278.488
 238.547 279.531 239.59 280.816 239.59 c 282.102 239.59 283.145 238.547 
283.145 237.258 c 283.145 235.973 282.102 234.93 280.816 234.93 c h
280.816 234.93 m f
273.023 242.723 m 271.738 242.723 270.695 243.766 270.695 245.051 c 270.695
 246.34 271.738 247.383 273.023 247.383 c 274.309 247.383 275.352 246.34
 275.352 245.051 c 275.355 243.766 274.312 242.723 273.023 242.723 c h
273.023 242.723 m f
280.816 249.949 m 279.531 249.949 278.488 250.992 278.488 252.277 c 278.488
 253.566 279.531 254.609 280.816 254.609 c 282.102 254.609 283.145 253.566
 283.145 252.277 c 283.145 250.992 282.102 249.949 280.816 249.949 c h
280.816 249.949 m f
273.023 257.742 m 271.738 257.742 270.695 258.785 270.695 260.07 c 270.695
 261.359 271.738 262.402 273.023 262.402 c 274.309 262.402 275.352 261.359
 275.352 260.07 c 275.355 258.785 274.312 257.742 273.023 257.742 c h
273.023 257.742 m f
280.816 264.969 m 279.531 264.969 278.488 266.012 278.488 267.297 c 278.488
 268.094 278.887 268.797 279.5 269.219 c 283.141 267.379 l 283.141 267.352
 283.148 267.328 283.148 267.297 c 283.145 266.012 282.102 264.969 280.816
 264.969 c h
280.816 264.969 m f
267.754 238.516 m 265.656 239.574 l 265.703 239.578 265.75 239.59 265.797
 239.59 c 266.621 239.59 267.34 239.16 267.754 238.516 c h
267.754 238.516 m f
258.984 242.945 m 255.719 244.594 l 255.691 244.742 255.676 244.895 255.676
 245.051 c 255.676 246.34 256.719 247.383 258.004 247.383 c 259.289 247.383
 260.332 246.34 260.332 245.051 c 260.336 244.117 259.781 243.312 258.984
 242.945 c h
258.984 242.945 m f
265.797 249.949 m 264.512 249.949 263.469 250.992 263.469 252.277 c 263.469
 253.566 264.512 254.609 265.797 254.609 c 267.082 254.609 268.125 253.566
 268.125 252.277 c 268.125 250.992 267.082 249.949 265.797 249.949 c h
265.797 249.949 m f
258.004 257.742 m 256.719 257.742 255.676 258.785 255.676 260.07 c 255.676
 261.359 256.719 262.402 258.004 262.402 c 259.289 262.402 260.332 261.359
 260.332 260.07 c 260.336 258.785 259.293 257.742 258.004 257.742 c h
258.004 257.742 m f
265.797 264.969 m 264.512 264.969 263.469 266.012 263.469 267.297 c 263.469
 268.586 264.512 269.629 265.797 269.629 c 267.082 269.629 268.125 268.586
 268.125 267.297 c 268.125 266.012 267.082 264.969 265.797 264.969 c h
265.797 264.969 m f
258.004 272.762 m 256.719 272.762 255.676 273.805 255.676 275.09 c 255.676
 276.379 256.719 277.422 258.004 277.422 c 259.289 277.422 260.332 276.379
 260.332 275.09 c 260.336 273.805 259.293 272.762 258.004 272.762 c h
258.004 272.762 m f
250.777 249.949 m 249.492 249.949 248.449 250.992 248.449 252.277 c 248.449
 253.566 249.492 254.609 250.777 254.609 c 252.062 254.609 253.105 253.566
 253.105 252.277 c 253.105 250.992 252.062 249.949 250.777 249.949 c h
250.777 249.949 m f
242.984 257.742 m 241.699 257.742 240.656 258.785 240.656 260.07 c 240.656
 261.359 241.699 262.402 242.984 262.402 c 244.27 262.402 245.312 261.359
 245.312 260.07 c 245.316 258.785 244.273 257.742 242.984 257.742 c h
242.984 257.742 m f
250.777 264.969 m 249.492 264.969 248.449 266.012 248.449 267.297 c 248.449
 268.586 249.492 269.629 250.777 269.629 c 252.062 269.629 253.105 268.586
 253.105 267.297 c 253.105 266.012 252.062 264.969 250.777 264.969 c h
250.777 264.969 m f
242.984 272.762 m 241.699 272.762 240.656 273.805 240.656 275.09 c 240.656
 276.379 241.699 277.422 242.984 277.422 c 244.27 277.422 245.312 276.379
 245.312 275.09 c 245.316 273.805 244.273 272.762 242.984 272.762 c h
242.984 272.762 m f
250.777 279.988 m 249.492 279.988 248.449 281.031 248.449 282.316 c 248.449
 283.172 248.914 283.914 249.602 284.316 c 253.082 282.559 l 253.094 282.477
 253.109 282.398 253.109 282.316 c 253.105 281.031 252.062 279.988 250.777
 279.988 c h
250.777 279.988 m f
242.684 287.812 m 242.141 287.883 241.656 288.133 241.297 288.512 c h
242.684 287.812 m f
235.922 254.59 m 236.566 254.547 237.129 254.242 237.523 253.781 c h
235.922 254.59 m f
229.09 258.043 m 225.668 259.77 l 225.652 259.871 225.637 259.969 225.637
 260.07 c 225.637 261.355 226.68 262.398 227.965 262.398 c 229.254 262.398
 230.297 261.355 230.297 260.07 c 230.297 259.195 229.805 258.441 229.09
 258.043 c h
229.09 258.043 m f
235.758 264.969 m 234.473 264.969 233.43 266.012 233.43 267.297 c 233.43
 268.586 234.473 269.629 235.758 269.629 c 237.043 269.629 238.086 268.586
 238.086 267.297 c 238.086 266.012 237.043 264.969 235.758 264.969 c h
235.758 264.969 m f
227.965 272.762 m 226.68 272.762 225.637 273.805 225.637 275.09 c 225.637
 276.379 226.68 277.422 227.965 277.422 c 229.25 277.422 230.293 276.379
 230.293 275.09 c 230.297 273.805 229.254 272.762 227.965 272.762 c h
227.965 272.762 m f
235.758 279.988 m 234.473 279.988 233.43 281.031 233.43 282.316 c 233.43
 283.605 234.473 284.648 235.758 284.648 c 237.043 284.648 238.086 283.605
 238.086 282.316 c 238.086 281.031 237.043 279.988 235.758 279.988 c h
235.758 279.988 m f
227.965 287.781 m 226.68 287.781 225.637 288.824 225.637 290.109 c 225.637
 291.398 226.68 292.441 227.965 292.441 c 229.25 292.441 230.293 291.398
 230.293 290.109 c 230.297 288.824 229.254 287.781 227.965 287.781 c h
227.965 287.781 m f
220.738 264.969 m 219.453 264.969 218.41 266.012 218.41 267.297 c 218.41
 268.586 219.453 269.629 220.738 269.629 c 222.023 269.629 223.066 268.586
 223.066 267.297 c 223.066 266.012 222.023 264.969 220.738 264.969 c h
220.738 264.969 m f
212.945 272.762 m 211.66 272.762 210.617 273.805 210.617 275.09 c 210.617
 276.379 211.66 277.422 212.945 277.422 c 214.23 277.422 215.273 276.379
 215.273 275.09 c 215.277 273.805 214.234 272.762 212.945 272.762 c h
212.945 272.762 m f
220.738 279.988 m 219.453 279.988 218.41 281.031 218.41 282.316 c 218.41
 283.605 219.453 284.648 220.738 284.648 c 222.023 284.648 223.066 283.605
 223.066 282.316 c 223.066 281.031 222.023 279.988 220.738 279.988 c h
220.738 279.988 m f
212.945 287.781 m 211.66 287.781 210.617 288.824 210.617 290.109 c 210.617
 291.398 211.66 292.441 212.945 292.441 c 214.23 292.441 215.273 291.398
 215.273 290.109 c 215.277 288.824 214.234 287.781 212.945 287.781 c h
212.945 287.781 m f
220.738 295.008 m 219.453 295.008 218.41 296.051 218.41 297.336 c 218.41
 298.25 218.941 299.035 219.707 299.418 c 223.027 297.738 l 223.051 297.609
 223.07 297.477 223.07 297.336 c 223.066 296.051 222.023 295.008 220.738
 295.008 c h
220.738 295.008 m f
211.043 303.789 m 212.996 302.805 l 212.98 302.805 212.961 302.801 212.945
 302.801 c 212.16 302.801 211.465 303.191 211.043 303.789 c h
211.043 303.789 m f
206.336 269.535 m 206.637 269.449 206.914 269.309 207.152 269.121 c h
206.336 269.535 m f
199.195 273.141 m 195.609 274.949 l 195.609 274.996 195.598 275.043 195.598
 275.09 c 195.598 276.375 196.641 277.418 197.926 277.418 c 199.211 277.418
 200.254 276.375 200.254 275.09 c 200.258 274.273 199.832 273.555 199.195
 273.141 c h
199.195 273.141 m f
205.719 279.988 m 204.434 279.988 203.391 281.031 203.391 282.316 c 203.391
 283.605 204.434 284.648 205.719 284.648 c 207.004 284.648 208.047 283.605
 208.047 282.316 c 208.047 281.031 207.004 279.988 205.719 279.988 c h
205.719 279.988 m f
197.926 287.781 m 196.641 287.781 195.598 288.824 195.598 290.109 c 195.598
 291.398 196.641 292.441 197.926 292.441 c 199.211 292.441 200.254 291.398
 200.254 290.109 c 200.258 288.824 199.215 287.781 197.926 287.781 c h
197.926 287.781 m f
205.719 295.008 m 204.434 295.008 203.391 296.051 203.391 297.336 c 203.391
 298.625 204.434 299.668 205.719 299.668 c 207.004 299.668 208.047 298.625
 208.047 297.336 c 208.047 296.051 207.004 295.008 205.719 295.008 c h
205.719 295.008 m f
197.926 302.801 m 196.641 302.801 195.598 303.844 195.598 305.129 c 195.598
 306.418 196.641 307.461 197.926 307.461 c 199.211 307.461 200.254 306.418
 200.254 305.129 c 200.258 303.844 199.215 302.801 197.926 302.801 c h
197.926 302.801 m f
190.699 279.988 m 189.414 279.988 188.371 281.031 188.371 282.316 c 188.371
 283.605 189.414 284.648 190.699 284.648 c 191.984 284.648 193.027 283.605
 193.027 282.316 c 193.027 281.031 191.984 279.988 190.699 279.988 c h
190.699 279.988 m f
182.906 287.781 m 181.621 287.781 180.578 288.824 180.578 290.109 c 180.578
 291.398 181.621 292.441 182.906 292.441 c 184.191 292.441 185.234 291.398
 185.234 290.109 c 185.238 288.824 184.195 287.781 182.906 287.781 c h
182.906 287.781 m f
190.699 295.008 m 189.414 295.008 188.371 296.051 188.371 297.336 c 188.371
 298.625 189.414 299.668 190.699 299.668 c 191.984 299.668 193.027 298.625
 193.027 297.336 c 193.027 296.051 191.984 295.008 190.699 295.008 c h
190.699 295.008 m f
182.906 302.801 m 181.621 302.801 180.578 303.844 180.578 305.129 c 180.578
 306.418 181.621 307.461 182.906 307.461 c 184.191 307.461 185.234 306.418
 185.234 305.129 c 185.238 303.844 184.195 302.801 182.906 302.801 c h
182.906 302.801 m f
190.699 310.027 m 189.414 310.027 188.371 311.07 188.371 312.355 c 188.371
 313.332 188.969 314.164 189.82 314.512 c 192.949 312.93 l 192.996 312.746
 193.031 312.555 193.031 312.355 c 193.027 311.07 191.984 310.027 190.699
 310.027 c h
190.699 310.027 m f
182.906 317.82 m 182.387 317.82 181.914 317.992 181.531 318.281 c 181.273
 317.152 180.715 316.074 179.828 315.184 c 177.848 313.199 l 177.949 312.938
 178.008 312.652 178.008 312.355 c 178.008 311.07 176.965 310.027 175.68
 310.027 c 175.387 310.027 175.105 310.086 174.848 310.188 c 170.18 305.504
 l 170.199 305.379 170.219 305.258 170.219 305.129 c 170.219 303.844 169.176
 302.797 167.887 302.797 c 167.762 302.797 167.641 302.816 167.523 302.836
 c 162.84 298.137 l 162.934 297.887 162.988 297.617 162.988 297.336 c 162.988
 296.051 161.945 295.004 160.66 295.004 c 160.379 295.004 160.117 295.062
 159.867 295.152 c 71.992 206.969 l 69.215 204.191 64.609 204.566 62.316
 207.758 c 44.57 229.922 l 42.75 232.457 43.035 235.934 45.242 238.141 c
 147.262 340.316 l 149.543 342.594 153.164 342.812 155.699 340.82 c 179.258
 324.699 l 181.164 323.199 181.965 320.859 181.605 318.656 c 183.207 317.848
 l 183.109 317.836 183.008 317.82 182.906 317.82 c h
182.906 317.82 m f
167.887 292.441 m 169.172 292.441 170.215 291.398 170.215 290.109 c 170.215
 289.348 169.844 288.676 169.277 288.25 c 165.559 290.129 l 165.57 291.406
 166.605 292.441 167.887 292.441 c h
167.887 292.441 m f
175.68 299.668 m 176.965 299.668 178.008 298.625 178.008 297.336 c 178.008
 296.051 176.965 295.008 175.68 295.008 c 174.395 295.008 173.352 296.051
 173.352 297.336 c 173.348 298.625 174.391 299.668 175.68 299.668 c h
175.68 299.668 m f
0.976471 0.984314 0.988235 rg
181.531 318.277 m 180.953 318.703 180.578 319.379 180.578 320.148 c 180.578
 320.816 180.863 321.418 181.312 321.84 c 181.723 320.699 181.797 319.461
 181.531 318.277 c h
181.531 318.277 m f
165.559 305.129 m 165.559 306.418 166.602 307.461 167.887 307.461 c 169.047
 307.461 170 306.613 170.18 305.504 c 167.523 302.836 l 166.41 303.012 165.559
 303.969 165.559 305.129 c h
165.559 305.129 m f
174.848 310.188 m 173.973 310.523 173.348 311.363 173.348 312.355 c 173.348
 313.645 174.391 314.688 175.68 314.688 c 176.668 314.688 177.508 314.066
 177.848 313.199 c h
174.848 310.188 m f
167.887 317.82 m 166.602 317.82 165.559 318.863 165.559 320.148 c 165.559
 321.438 166.602 322.48 167.887 322.48 c 169.172 322.48 170.215 321.438 
170.215 320.148 c 170.219 318.863 169.176 317.82 167.887 317.82 c h
167.887 317.82 m f
175.68 325.047 m 174.395 325.047 173.352 326.09 173.352 327.375 c 173.352
 327.797 173.469 328.188 173.664 328.527 c 177.48 325.914 l 177.055 325.391
 176.41 325.047 175.68 325.047 c h
175.68 325.047 m f
166.074 333.723 m 167.191 332.957 l 166.746 333.098 166.359 333.363 166.074
 333.723 c h
166.074 333.723 m f
158.328 297.336 m 158.328 298.625 159.371 299.668 160.66 299.668 c 161.664
 299.668 162.512 299.027 162.84 298.137 c 159.867 295.156 l 158.973 295.48
 158.328 296.328 158.328 297.336 c h
158.328 297.336 m f
152.867 302.801 m 151.582 302.801 150.539 303.844 150.539 305.129 c 150.539
 306.418 151.582 307.461 152.867 307.461 c 154.152 307.461 155.195 306.418
 155.195 305.129 c 155.199 303.844 154.156 302.801 152.867 302.801 c h
152.867 302.801 m f
160.66 310.027 m 159.375 310.027 158.332 311.07 158.332 312.355 c 158.332
 313.645 159.375 314.688 160.66 314.688 c 161.945 314.688 162.988 313.645
 162.988 312.355 c 162.988 311.07 161.945 310.027 160.66 310.027 c h
160.66 310.027 m f
152.867 322.48 m 154.152 322.48 155.195 321.438 155.195 320.148 c 155.195
 318.863 154.152 317.82 152.867 317.82 c 151.582 317.82 150.539 318.863 
150.539 320.148 c 150.539 321.438 151.582 322.48 152.867 322.48 c h
152.867 322.48 m f
160.66 329.707 m 161.945 329.707 162.988 328.664 162.988 327.375 c 162.988
 326.09 161.945 325.047 160.66 325.047 c 159.375 325.047 158.332 326.09 
158.332 327.375 c 158.328 328.664 159.371 329.707 160.66 329.707 c h
160.66 329.707 m f
152.867 337.5 m 154.152 337.5 155.195 336.457 155.195 335.168 c 155.195
 333.883 154.152 332.84 152.867 332.84 c 151.582 332.84 150.539 333.883 
150.539 335.168 c 150.539 336.457 151.582 337.5 152.867 337.5 c h
152.867 337.5 m f
145.641 314.688 m 146.926 314.688 147.969 313.645 147.969 312.355 c 147.969
 311.07 146.926 310.027 145.641 310.027 c 144.355 310.027 143.312 311.07
 143.312 312.355 c 143.309 313.645 144.352 314.688 145.641 314.688 c h
145.641 314.688 m f
140.18 320.148 m 140.18 318.863 139.137 317.82 137.848 317.82 c 136.562
 317.82 135.52 318.863 135.52 320.148 c 135.52 321.438 136.562 322.48 137.848
 322.48 c 139.137 322.48 140.18 321.438 140.18 320.148 c h
140.18 320.148 m f
145.641 329.707 m 146.926 329.707 147.969 328.664 147.969 327.375 c 147.969
 326.09 146.926 325.047 145.641 325.047 c 144.355 325.047 143.312 326.09
 143.312 327.375 c 143.309 328.664 144.352 329.707 145.641 329.707 c h
145.641 329.707 m f
132.391 313.855 m 131.48 314.516 l 131.84 314.375 132.145 314.145 132.391
 313.855 c h
132.391 313.855 m f
0.192157 0.215686 0.239216 rg
328.984 136.039 m 326.504 136.039 324.055 136.211 321.637 136.547 c 330.465
 126.875 335.602 114.09 335.602 100.734 c 335.602 71.504 311.824 47.727 
282.594 47.727 c 268.465 47.727 255.18 52.664 245.32 61.16 c 245.738 58.484
 245.949 55.766 245.949 53.008 c 245.949 23.777 222.168 0 192.941 0 c 170.656
 0 150.633 14.066 143.074 35.016 c 65.422 202.293 l 63.215 202.789 61.242
 204.055 59.887 205.906 c 42.188 228.016 l 42.094 228.141 l 40.562 230.273
 40.031 232.836 40.453 235.254 c 24.801 250.977 l -5.59 281.367 -5.59 330.816
 24.801 361.207 c 39.996 376.402 59.957 384 79.918 384 c 99.875 384 119.836
 376.402 135.031 361.207 c 151.039 345.199 l 151.281 345.215 151.527 345.234
 151.77 345.234 c 153.781 345.234 155.801 344.59 157.496 343.289 c 180.98
 327.219 l 181.141 327.102 l 183.188 325.492 184.469 323.102 184.695 320.516
 c 184.695 320.516 360.078 231.977 360.449 231.703 c 373.945 221.746 381.988
 205.793 381.988 189.051 c 381.992 159.82 358.211 136.039 328.984 136.039
 c h
282.594 53.832 m 308.457 53.832 329.496 74.871 329.496 100.734 c 329.496
 117.367 323.613 126.824 306.859 141.176 c 290.109 155.527 146.184 277.098
 146.184 277.098 c 112.238 243.031 l 112.238 243.031 239.633 76.262 240.016
 75.688 c 248.805 62.5 265.223 53.832 282.594 53.832 c h
148.777 37.199 m 155.434 18.602 173.184 6.105 192.941 6.105 c 218.805 6.105
 239.844 27.145 239.844 53.008 c 239.844 59.32 238.363 65.449 235.898 71.18
 c 107.891 238.668 l 107.891 238.668 72.648 203.535 71.785 203.094 c 71.785
 203.094 148.746 37.281 148.777 37.199 c h
130.715 356.891 m 102.703 384.902 57.129 384.898 29.121 356.891 c 1.109
 328.879 1.109 283.305 29.121 255.293 c 43.566 240.781 l 145.102 342.473
 l 145.105 342.477 l 145.109 342.48 145.113 342.484 145.117 342.488 c h
177.438 322.246 m 153.977 338.305 l 153.816 338.422 l 152.496 339.457 150.605
 339.344 149.422 338.16 c 47.398 235.984 l 46.262 234.844 46.102 233.078
 47.012 231.758 c 64.699 209.664 l 64.793 209.539 l 65.371 208.734 66.234
 208.25 67.219 208.168 c 68.203 208.086 69.133 208.43 69.828 209.125 c 177.668
 317.344 l 178.348 318.023 178.691 318.926 178.633 319.887 c 178.578 320.82
 178.152 321.652 177.438 322.246 c h
357.027 226.641 m 183.152 314.457 l 182.812 313.949 150.504 281.434 150.504
 281.434 c 150.504 281.434 307.562 148.461 310.859 146.074 c 314.152 143.688
 322.633 142.145 328.98 142.145 c 354.844 142.145 375.887 163.184 375.887
 189.047 c 375.887 203.777 368.84 217.812 357.027 226.641 c h
357.027 226.641 m f
Q Q
showpage
%%Trailer
end
%%EOF
