%!PS-Adobe-3.0 EPSF-3.0
%%Creator: cairo 1.16.0 (https://cairographics.org)
%%CreationDate: Wed Jul 15 13:24:01 2020
%%Pages: 1
%%DocumentData: Clean7Bit
%%LanguageLevel: 2
%%BoundingBox: 0 14 384 370
%%EndComments
%%BeginProlog
50 dict begin
/q { gsave } bind def
/Q { grestore } bind def
/cm { 6 array astore concat } bind def
/w { setlinewidth } bind def
/J { setlinecap } bind def
/j { setlinejoin } bind def
/M { setmiterlimit } bind def
/d { setdash } bind def
/m { moveto } bind def
/l { lineto } bind def
/c { curveto } bind def
/h { closepath } bind def
/re { exch dup neg 3 1 roll 5 3 roll moveto 0 rlineto
      0 exch rlineto 0 rlineto closepath } bind def
/S { stroke } bind def
/f { fill } bind def
/f* { eofill } bind def
/n { newpath } bind def
/W { clip } bind def
/W* { eoclip } bind def
/BT { } bind def
/ET { } bind def
/BDC { mark 3 1 roll /BDC pdfmark } bind def
/EMC { mark /EMC pdfmark } bind def
/cairo_store_point { /cairo_point_y exch def /cairo_point_x exch def } def
/Tj { show currentpoint cairo_store_point } bind def
/TJ {
  {
    dup
    type /stringtype eq
    { show } { -0.001 mul 0 cairo_font_matrix dtransform rmoveto } ifelse
  } forall
  currentpoint cairo_store_point
} bind def
/cairo_selectfont { cairo_font_matrix aload pop pop pop 0 0 6 array astore
    cairo_font exch selectfont cairo_point_x cairo_point_y moveto } bind def
/Tf { pop /cairo_font exch def /cairo_font_matrix where
      { pop cairo_selectfont } if } bind def
/Td { matrix translate cairo_font_matrix matrix concatmatrix dup
      /cairo_font_matrix exch def dup 4 get exch 5 get cairo_store_point
      /cairo_font where { pop cairo_selectfont } if } bind def
/Tm { 2 copy 8 2 roll 6 array astore /cairo_font_matrix exch def
      cairo_store_point /cairo_font where { pop cairo_selectfont } if } bind def
/g { setgray } bind def
/rg { setrgbcolor } bind def
/d1 { setcachedevice } bind def
/cairo_data_source {
  CairoDataIndex CairoData length lt
    { CairoData CairoDataIndex get /CairoDataIndex CairoDataIndex 1 add def }
    { () } ifelse
} def
/cairo_flush_ascii85_file { cairo_ascii85_file status { cairo_ascii85_file flushfile } if } def
/cairo_image { image cairo_flush_ascii85_file } def
/cairo_imagemask { imagemask cairo_flush_ascii85_file } def
%%EndProlog
%%BeginSetup
%%EndSetup
%%Page: 1 1
%%BeginPageSetup
%%PageBoundingBox: 0 14 384 370
%%EndPageSetup
q 0 14 384 356 rectclip
1 0 0 -1 0 384 cm q
0.913725 0.760784 0.470588 rg
301.062 230.73 m 278.832 230.73 258.734 236.484 244.27 245.762 c 219.074
 237.348 187.727 232.355 153.746 232.355 c 70.59 232.355 3.176 262.238 3.176
 299.094 c 3.176 335.953 70.59 365.836 153.746 365.836 c 211.031 365.836
 260.84 351.656 286.289 330.785 c 291.078 331.352 296.016 331.652 301.062
 331.652 c 345.113 331.652 380.824 309.059 380.824 281.191 c 380.824 253.32
 345.113 230.73 301.062 230.73 c h
301.062 230.73 m f
0.976471 0.984314 0.988235 rg
181.836 299.293 m 181.227 299.637 180.789 300.246 180.68 300.965 c 181.129
 300.418 181.516 299.859 181.836 299.293 c h
181.836 299.293 m f
165.637 286.305 m 165.637 287.59 166.68 288.633 167.965 288.633 c 169.25
 288.633 170.293 287.59 170.293 286.305 c 170.293 285.02 169.25 283.977 
167.965 283.977 c 166.68 283.977 165.637 285.02 165.637 286.305 c h
165.637 286.305 m f
175.754 291.199 m 174.469 291.199 173.426 292.238 173.426 293.527 c 173.426
 294.812 174.469 295.855 175.754 295.855 c 177.039 295.855 178.082 294.812
 178.082 293.527 c 178.082 292.238 177.039 291.199 175.754 291.199 c h
175.754 291.199 m f
168.117 299 m 168.594 299.191 169.059 299.387 169.516 299.586 c 169.137
 299.25 168.656 299.035 168.117 299 c h
168.117 299 m f
160.746 280.848 m 161.738 280.848 162.578 280.223 162.914 279.348 c 161.488
 278.895 160.004 278.465 158.465 278.059 c 158.434 278.207 158.418 278.359
 158.418 278.52 c 158.418 279.805 159.457 280.848 160.746 280.848 c h
160.746 280.848 m f
150.629 286.305 m 150.629 287.59 151.672 288.633 152.957 288.633 c 154.242
 288.633 155.285 287.59 155.285 286.305 c 155.285 285.02 154.242 283.977
 152.957 283.977 c 151.672 283.977 150.629 285.02 150.629 286.305 c h
150.629 286.305 m f
160.746 291.199 m 159.461 291.199 158.418 292.238 158.418 293.527 c 158.418
 294.812 159.461 295.855 160.746 295.855 c 162.031 295.855 163.074 294.812
 163.074 293.527 c 163.074 292.238 162.031 291.199 160.746 291.199 c h
160.746 291.199 m f
143.41 278.52 m 143.41 279.805 144.453 280.848 145.738 280.848 c 147.023
 280.848 148.062 279.805 148.062 278.52 c 148.062 277.234 147.023 276.191
 145.738 276.191 c 144.453 276.191 143.41 277.234 143.41 278.52 c h
143.41 278.52 m f
135.625 286.305 m 135.625 287.59 136.664 288.633 137.949 288.633 c 139.234
 288.633 140.277 287.59 140.277 286.305 c 140.277 285.02 139.234 283.977
 137.949 283.977 c 136.664 283.977 135.625 285.02 135.625 286.305 c h
135.625 286.305 m f
148.066 293.527 m 148.066 292.238 147.023 291.199 145.738 291.199 c 144.66
 291.199 143.762 291.934 143.496 292.926 c 145.051 293.137 146.566 293.371
 148.055 293.621 c 148.059 293.59 148.066 293.559 148.066 293.527 c h
148.066 293.527 m f
128.402 278.52 m 128.402 279.805 129.445 280.848 130.73 280.848 c 132.016
 280.848 133.059 279.805 133.059 278.52 c 133.059 277.234 132.016 276.191
 130.73 276.191 c 129.445 276.191 128.402 277.234 128.402 278.52 c h
128.402 278.52 m f
120.617 286.305 m 120.617 287.59 121.656 288.633 122.941 288.633 c 124.23
 288.633 125.27 287.59 125.27 286.305 c 125.27 285.02 124.23 283.977 122.941
 283.977 c 121.656 283.977 120.617 285.02 120.617 286.305 c h
120.617 286.305 m f
130.73 291.199 m 130.219 291.199 129.75 291.367 129.363 291.648 c 130.348
 291.695 131.324 291.75 132.293 291.812 c 131.879 291.434 131.332 291.199
 130.73 291.199 c h
130.73 291.199 m f
113.395 278.52 m 113.395 279.805 114.438 280.848 115.723 280.848 c 117.008
 280.848 118.051 279.805 118.051 278.52 c 118.051 277.234 117.008 276.191
 115.723 276.191 c 114.438 276.191 113.395 277.234 113.395 278.52 c h
113.395 278.52 m f
105.609 286.305 m 105.609 287.59 106.648 288.633 107.938 288.633 c 109.223
 288.633 110.262 287.59 110.262 286.305 c 110.262 285.02 109.223 283.977
 107.938 283.977 c 106.648 283.977 105.609 285.02 105.609 286.305 c h
105.609 286.305 m f
115.723 291.199 m 115.273 291.199 114.859 291.332 114.504 291.551 c 115.273
 291.523 116.047 291.504 116.824 291.484 c 116.492 291.309 116.121 291.199
 115.723 291.199 c h
115.723 291.199 m f
98.387 278.52 m 98.387 279.805 99.43 280.848 100.715 280.848 c 102 280.848
 103.043 279.805 103.043 278.52 c 103.043 277.234 102 276.191 100.715 276.191
 c 99.43 276.191 98.387 277.234 98.387 278.52 c h
98.387 278.52 m f
90.602 286.305 m 90.602 287.59 91.645 288.633 92.93 288.633 c 94.215 288.633
 95.254 287.59 95.254 286.305 c 95.254 285.02 94.215 283.977 92.93 283.977
 c 91.645 283.977 90.602 285.02 90.602 286.305 c h
90.602 286.305 m f
100.715 291.199 m 99.664 291.199 98.785 291.898 98.496 292.855 c 99.879
 292.672 101.289 292.504 102.719 292.355 c 102.312 291.668 101.57 291.199
 100.715 291.199 c h
100.715 291.199 m f
85.707 280.848 m 86.992 280.848 88.035 279.805 88.035 278.52 c 88.035 277.934
 87.812 277.402 87.453 276.992 c 86.086 277.293 84.75 277.605 83.461 277.938
 c 83.41 278.125 83.379 278.316 83.379 278.52 c 83.379 279.805 84.422 280.848
 85.707 280.848 c h
85.707 280.848 m f
75.594 286.305 m 75.594 287.59 76.637 288.633 77.922 288.633 c 79.207 288.633
 80.25 287.59 80.25 286.305 c 80.25 285.02 79.207 283.977 77.922 283.977
 c 76.637 283.977 75.594 285.02 75.594 286.305 c h
75.594 286.305 m f
88.035 293.527 m 88.035 292.238 86.992 291.199 85.707 291.199 c 84.422 
291.199 83.379 292.238 83.379 293.527 c 83.379 294.344 83.805 295.062 84.441
 295.477 c 85.5 295.215 86.586 294.961 87.695 294.723 c 87.906 294.371 88.035
 293.965 88.035 293.527 c h
88.035 293.527 m f
65.242 286.305 m 65.242 286.027 65.184 285.762 65.094 285.516 c 63.793 
286.41 62.668 287.34 61.73 288.301 c 62.078 288.508 62.48 288.633 62.914
 288.633 c 64.199 288.633 65.242 287.59 65.242 286.305 c h
65.242 286.305 m f
68.371 293.527 m 68.371 294.812 69.414 295.855 70.699 295.855 c 71.984 
295.855 73.027 294.812 73.027 293.527 c 73.027 292.238 71.984 291.199 70.699
 291.199 c 69.414 291.199 68.371 292.238 68.371 293.527 c h
68.371 293.527 m f
63.453 303.57 m 64.477 303.328 65.242 302.41 65.242 301.312 c 65.242 300.027
 64.199 298.984 62.914 298.984 c 61.809 298.984 60.891 299.754 60.652 300.785
 c 61.402 301.742 62.344 302.672 63.453 303.57 c h
63.453 303.57 m f
0.917647 0.658824 0.584314 rg
219.648 84.879 m 103.906 28.527 l 103.906 151.383 l 219.648 95.027 l 223.883
 92.969 223.883 86.938 219.648 84.879 c h
219.648 84.879 m f
0.976471 0.984314 0.988235 rg
220.656 85.738 m 220.203 85.285 219.672 84.891 219.039 84.582 c 218.672
 84.402 l 219.023 85.16 219.773 85.691 220.656 85.738 c h
220.656 85.738 m f
210.66 91.207 m 210.66 92.492 211.703 93.535 212.988 93.535 c 214.273 93.535
 215.316 92.492 215.316 91.207 c 215.316 89.922 214.273 88.879 212.988 88.879
 c 211.703 88.879 210.66 89.922 210.66 91.207 c h
210.66 91.207 m f
195.77 76.887 m 196.062 77.836 196.938 78.527 197.98 78.527 c 199.266 78.527
 200.309 77.484 200.309 76.199 c 200.309 75.914 200.25 75.641 200.156 75.387
 c 199.504 75.07 l h
195.77 76.887 m f
205.766 81.094 m 204.48 81.094 203.441 82.133 203.441 83.422 c 203.441 
84.707 204.48 85.75 205.766 85.75 c 207.055 85.75 208.094 84.707 208.094
 83.422 c 208.094 82.133 207.055 81.094 205.766 81.094 c h
205.766 81.094 m f
197.98 88.879 m 196.695 88.879 195.652 89.922 195.652 91.207 c 195.652 
92.492 196.695 93.535 197.98 93.535 c 199.266 93.535 200.309 92.492 200.309
 91.207 c 200.309 89.922 199.266 88.879 197.98 88.879 c h
197.98 88.879 m f
205.766 96.102 m 204.48 96.102 203.441 97.141 203.441 98.43 c 203.441 99.715
 204.48 100.758 205.766 100.758 c 207.055 100.758 208.094 99.715 208.094
 98.43 c 208.094 97.141 207.055 96.102 205.766 96.102 c h
205.766 96.102 m f
197.98 103.887 m 196.695 103.887 195.652 104.93 195.652 106.215 c 195.652
 106.379 195.672 106.535 195.703 106.688 c 199.75 104.719 l 199.324 104.215
 198.691 103.887 197.98 103.887 c h
197.98 103.887 m f
190.762 81.094 m 189.473 81.094 188.434 82.133 188.434 83.422 c 188.434
 84.707 189.473 85.75 190.762 85.75 c 192.047 85.75 193.086 84.707 193.086
 83.422 c 193.086 82.133 192.047 81.094 190.762 81.094 c h
190.762 81.094 m f
182.973 88.879 m 181.688 88.879 180.645 89.922 180.645 91.207 c 180.645
 92.492 181.688 93.535 182.973 93.535 c 184.258 93.535 185.301 92.492 185.301
 91.207 c 185.301 89.922 184.258 88.879 182.973 88.879 c h
182.973 88.879 m f
190.762 96.102 m 189.473 96.102 188.434 97.141 188.434 98.43 c 188.434 
99.715 189.473 100.758 190.762 100.758 c 192.047 100.758 193.086 99.715 
193.086 98.43 c 193.086 97.141 192.047 96.102 190.762 96.102 c h
190.762 96.102 m f
182.973 103.887 m 181.688 103.887 180.645 104.93 180.645 106.215 c 180.645
 107.5 181.688 108.543 182.973 108.543 c 184.258 108.543 185.301 107.5 185.301
 106.215 c 185.301 104.93 184.258 103.887 182.973 103.887 c h
182.973 103.887 m f
167.965 93.535 m 169.25 93.535 170.293 92.492 170.293 91.207 c 170.293 
90.582 170.047 90.023 169.648 89.605 c 165.672 91.539 l 165.836 92.668 166.793
 93.535 167.965 93.535 c h
167.965 93.535 m f
175.754 96.102 m 174.469 96.102 173.426 97.141 173.426 98.43 c 173.426 
99.715 174.469 100.758 175.754 100.758 c 177.039 100.758 178.082 99.715 
178.082 98.43 c 178.082 97.141 177.039 96.102 175.754 96.102 c h
175.754 96.102 m f
167.965 103.887 m 166.68 103.887 165.637 104.93 165.637 106.215 c 165.637
 107.5 166.68 108.543 167.965 108.543 c 169.25 108.543 170.293 107.5 170.293
 106.215 c 170.293 104.93 169.25 103.887 167.965 103.887 c h
167.965 103.887 m f
175.754 111.109 m 174.469 111.109 173.426 112.148 173.426 113.438 c 173.426
 114.723 174.469 115.762 175.754 115.762 c 177.039 115.762 178.082 114.719
 178.082 113.438 c 178.082 112.148 177.039 111.109 175.754 111.109 c h
175.754 111.109 m f
165.637 121.223 m 165.637 121.258 165.648 121.289 165.648 121.32 c 169.473
 119.461 l 169.062 119.113 168.543 118.895 167.965 118.895 c 166.68 118.895
 165.637 119.938 165.637 121.223 c h
165.637 121.223 m f
160.746 96.102 m 159.461 96.102 158.418 97.141 158.418 98.43 c 158.418 
99.715 159.461 100.758 160.746 100.758 c 162.031 100.758 163.074 99.715 
163.074 98.43 c 163.074 97.141 162.031 96.102 160.746 96.102 c h
160.746 96.102 m f
152.957 103.887 m 151.672 103.887 150.629 104.93 150.629 106.215 c 150.629
 107.5 151.672 108.543 152.957 108.543 c 154.242 108.543 155.285 107.5 155.285
 106.215 c 155.285 104.93 154.242 103.887 152.957 103.887 c h
152.957 103.887 m f
160.746 111.109 m 159.461 111.109 158.418 112.148 158.418 113.438 c 158.418
 114.723 159.461 115.762 160.746 115.762 c 162.031 115.762 163.074 114.719
 163.074 113.438 c 163.074 112.148 162.031 111.109 160.746 111.109 c h
160.746 111.109 m f
152.957 118.895 m 151.672 118.895 150.629 119.938 150.629 121.223 c 150.629
 122.508 151.672 123.551 152.957 123.551 c 154.242 123.551 155.285 122.508
 155.285 121.223 c 155.285 119.938 154.242 118.895 152.957 118.895 c h
152.957 118.895 m f
137.949 108.543 m 139.234 108.543 140.277 107.5 140.277 106.215 c 140.277
 105.453 139.91 104.785 139.344 104.359 c 135.629 106.168 l 135.625 106.184
 135.625 106.199 135.625 106.215 c 135.625 107.5 136.664 108.543 137.949
 108.543 c h
137.949 108.543 m f
143.41 113.438 m 143.41 114.723 144.453 115.762 145.738 115.762 c 147.023
 115.762 148.062 114.719 148.062 113.438 c 148.062 112.148 147.023 111.109
 145.738 111.109 c 144.453 111.109 143.41 112.148 143.41 113.438 c h
143.41 113.438 m f
137.949 118.895 m 136.664 118.895 135.625 119.938 135.625 121.223 c 135.625
 122.508 136.664 123.551 137.949 123.551 c 139.234 123.551 140.277 122.508
 140.277 121.223 c 140.277 119.938 139.234 118.895 137.949 118.895 c h
137.949 118.895 m f
148.066 128.445 m 148.066 127.156 147.023 126.113 145.738 126.113 c 144.453
 126.113 143.41 127.156 143.41 128.445 c 143.41 129.73 144.453 130.77 145.738
 130.77 c 146.031 130.77 146.305 130.711 146.562 130.613 c 146.895 130.449
 l 147.59 130.047 148.066 129.305 148.066 128.445 c h
148.066 128.445 m f
135.652 135.926 m 139.129 134.234 l 138.781 134.027 138.383 133.902 137.949
 133.902 c 136.77 133.902 135.805 134.785 135.652 135.926 c h
135.652 135.926 m f
130.73 111.109 m 129.445 111.109 128.402 112.148 128.402 113.438 c 128.402
 114.723 129.445 115.762 130.73 115.762 c 132.016 115.762 133.059 114.719
 133.059 113.438 c 133.059 112.148 132.016 111.109 130.73 111.109 c h
130.73 111.109 m f
122.941 118.895 m 121.656 118.895 120.617 119.938 120.617 121.223 c 120.617
 122.508 121.656 123.551 122.941 123.551 c 124.23 123.551 125.27 122.508
 125.27 121.223 c 125.27 119.938 124.23 118.895 122.941 118.895 c h
122.941 118.895 m f
130.73 126.113 m 129.445 126.113 128.402 127.156 128.402 128.445 c 128.402
 129.73 129.445 130.77 130.73 130.77 c 132.016 130.77 133.059 129.727 133.059
 128.445 c 133.059 127.156 132.016 126.113 130.73 126.113 c h
130.73 126.113 m f
122.941 133.902 m 121.656 133.902 120.617 134.945 120.617 136.23 c 120.617
 137.516 121.656 138.559 122.941 138.559 c 124.23 138.559 125.27 137.516
 125.27 136.23 c 125.27 134.945 124.23 133.902 122.941 133.902 c h
122.941 133.902 m f
117.398 115.043 m 115.973 115.738 l 116.531 115.676 117.031 115.43 117.398
 115.043 c h
117.398 115.043 m f
107.938 123.551 m 109.223 123.551 110.262 122.508 110.262 121.223 c 110.262
 120.309 109.734 119.527 108.973 119.148 c 105.652 120.762 l 105.625 120.91
 105.609 121.062 105.609 121.219 c 105.609 122.508 106.648 123.551 107.938
 123.551 c h
107.938 123.551 m f
115.723 126.113 m 114.438 126.113 113.395 127.156 113.395 128.445 c 113.395
 129.73 114.438 130.77 115.723 130.77 c 117.008 130.77 118.051 129.727 118.051
 128.445 c 118.051 127.156 117.008 126.113 115.723 126.113 c h
115.723 126.113 m f
107.938 138.559 m 109.223 138.559 110.262 137.516 110.262 136.23 c 110.262
 134.941 109.223 133.902 107.938 133.902 c 106.648 133.902 105.609 134.941
 105.609 136.23 c 105.609 137.516 106.648 138.559 107.938 138.559 c h
107.938 138.559 m f
118.051 143.449 m 118.051 142.164 117.008 141.121 115.723 141.121 c 114.438
 141.121 113.395 142.164 113.395 143.449 c 113.395 144.648 114.305 145.625
 115.469 145.754 c 117.699 144.668 l 117.918 144.312 118.051 143.898 118.051
 143.449 c h
118.051 143.449 m f
107.938 148.91 m 106.914 148.91 106.055 149.57 105.742 150.488 c 108.699
 149.047 l 108.461 148.965 108.203 148.91 107.938 148.91 c h
107.938 148.91 m f
91.766 18.164 m 90.422 18.164 l 84.07 18.164 78.918 23.316 78.918 29.668
 c 78.918 297.578 l 78.918 303.93 84.066 309.082 90.422 309.082 c 91.766
 309.082 l 98.117 309.082 103.27 303.934 103.27 297.578 c 103.27 29.668 
l 103.27 23.316 98.117 18.164 91.766 18.164 c h
91.766 18.164 m f
246.23 211.508 m 267.004 213.574 282.168 232.09 280.102 252.863 c 278.035
 273.637 259.52 288.805 238.746 286.734 c 217.973 284.668 202.809 266.152
 204.875 245.379 c 206.941 224.605 225.457 209.441 246.23 211.508 c h
246.23 211.508 m f
0.917647 0.658824 0.584314 rg
273.977 228.184 m 273.98 228.25 273.984 228.316 273.992 228.383 c 274.02
 228.371 274.047 228.352 274.074 228.34 c 274.043 228.285 274.008 228.234
 273.977 228.184 c h
273.977 228.184 m f
275.348 241.281 m 275.348 240.18 274.578 239.266 273.555 239.023 c 273.27
 240.559 272.906 242.066 272.441 243.531 c 272.629 243.578 272.816 243.609
 273.02 243.609 c 274.305 243.609 275.348 242.566 275.348 241.281 c h
275.348 241.281 m f
280.113 246.293 m 279.168 246.586 278.477 247.461 278.477 248.504 c 278.477
 249.566 279.195 250.453 280.168 250.73 c 280.195 250.148 280.211 249.562
 280.211 248.977 c 280.211 248.074 280.176 247.18 280.113 246.293 c h
280.113 246.293 m f
273.02 253.961 m 271.734 253.961 270.691 255.004 270.691 256.289 c 270.691
 257.574 271.734 258.617 273.02 258.617 c 274.305 258.617 275.348 257.574
 275.348 256.289 c 275.348 255.004 274.305 253.961 273.02 253.961 c h
273.02 253.961 m f
270.691 271.297 m 270.691 272.016 271.023 272.648 271.531 273.074 c 272.516
 271.887 273.422 270.633 274.254 269.332 c 273.895 269.105 273.473 268.969
 273.02 268.969 c 271.734 268.969 270.691 270.012 270.691 271.297 c h
270.691 271.297 m f
265.797 261.184 m 264.512 261.184 263.469 262.227 263.469 263.512 c 263.469
 264.797 264.512 265.84 265.797 265.84 c 267.082 265.84 268.125 264.797 
268.125 263.512 c 268.125 262.227 267.082 261.184 265.797 261.184 c h
265.797 261.184 m f
255.684 271.297 m 255.684 272.582 256.727 273.625 258.012 273.625 c 259.297
 273.625 260.34 272.582 260.34 271.297 c 260.34 270.012 259.297 268.969 
258.012 268.969 c 256.727 268.969 255.684 270.012 255.684 271.297 c h
255.684 271.297 m f
265.797 276.191 m 264.512 276.191 263.469 277.234 263.469 278.52 c 263.469
 279.082 263.676 279.59 264.008 279.992 c 265.281 279.105 266.496 278.148
 267.645 277.117 c 267.219 276.559 266.555 276.191 265.797 276.191 c h
265.797 276.191 m f
240.676 271.297 m 240.676 272.582 241.719 273.625 243.004 273.625 c 244.289
 273.625 245.332 272.582 245.332 271.297 c 245.332 270.367 244.785 269.574
 243.996 269.199 c 243.137 269.375 242.266 269.512 241.387 269.625 c 240.949
 270.051 240.676 270.641 240.676 271.297 c h
240.676 271.297 m f
248.461 278.52 m 248.461 279.805 249.504 280.848 250.789 280.848 c 252.074
 280.848 253.117 279.805 253.117 278.52 c 253.117 277.234 252.074 276.191
 250.789 276.191 c 249.504 276.191 248.461 277.234 248.461 278.52 c h
248.461 278.52 m f
245.297 286.656 m 245.312 286.543 245.332 286.426 245.332 286.305 c 245.332
 285.02 244.289 283.977 243.004 283.977 c 241.719 283.977 240.676 285.02
 240.676 286.305 c 240.676 286.453 240.691 286.598 240.719 286.738 c 241.281
 286.762 241.844 286.777 242.41 286.777 c 243.383 286.777 244.344 286.73
 245.297 286.656 c h
245.297 286.656 m f
225.668 271.297 m 225.668 272.582 226.711 273.625 227.996 273.625 c 229.281
 273.625 230.324 272.582 230.324 271.297 c 230.324 270.418 229.832 269.664
 229.113 269.266 c 228.691 269.188 228.277 269.078 227.859 268.984 c 226.641
 269.055 225.668 270.059 225.668 271.297 c h
225.668 271.297 m f
233.453 278.52 m 233.453 279.805 234.496 280.848 235.781 280.848 c 237.066
 280.848 238.109 279.805 238.109 278.52 c 238.109 277.234 237.066 276.191
 235.781 276.191 c 234.496 276.191 233.453 277.234 233.453 278.52 c h
233.453 278.52 m f
228.168 283.996 m 228.582 284.164 229 284.324 229.422 284.477 c 229.07 
284.203 228.641 284.031 228.168 283.996 c h
228.168 283.996 m f
212.988 268.969 m 212.164 268.969 211.445 269.398 211.031 270.043 c 211.844
 271.25 212.719 272.41 213.66 273.516 c 214.617 273.223 215.316 272.348 
215.316 271.297 c 215.316 270.012 214.273 268.969 212.988 268.969 c h
212.988 268.969 m f
221.75 280.625 m 222.547 280.258 223.102 279.453 223.102 278.52 c 223.102
 277.23 222.059 276.191 220.773 276.191 c 219.59 276.191 218.621 277.082
 218.477 278.23 c 219.52 279.086 220.617 279.883 221.75 280.625 c h
221.75 280.625 m f
206.695 261.379 m 207.055 262.414 207.461 263.43 207.906 264.426 c 208.027
 264.145 208.094 263.836 208.094 263.512 c 208.094 262.555 207.52 261.738
 206.695 261.379 c h
206.695 261.379 m f
0.192157 0.215686 0.239216 rg
359.16 242.824 m 343.594 232.977 322.961 227.551 301.062 227.551 c 293.25
 227.551 285.613 228.25 278.305 229.586 c 271.391 216.844 257.895 208.172
 242.41 208.172 c 225.543 208.172 211.039 218.453 204.828 233.078 c 188.602
 230.516 171.41 229.18 153.746 229.18 c 137.434 229.18 121.531 230.344 106.445
 232.527 c 106.445 153.68 l 220.43 98.18 l 223.602 96.637 225.574 93.484
 225.574 89.953 c 225.574 86.426 223.602 83.273 220.43 81.727 c 105.785 
25.906 l 103.879 19.598 98.016 14.988 91.094 14.988 c 82.629 14.988 75.742
 21.875 75.742 30.34 c 75.742 238.703 l 65.043 241.543 55.047 244.984 45.992
 249 c 16.332 262.145 0 279.934 0 299.094 c 0 318.254 16.332 336.047 45.992
 349.191 c 74.824 361.973 113.094 369.012 153.746 369.012 c 209.117 369.012
 260.066 355.656 287.254 334.09 c 291.801 334.578 296.441 334.828 301.062
 334.828 c 322.961 334.828 343.594 329.402 359.16 319.555 c 375.18 309.422
 384 295.797 384 281.188 c 384 266.582 375.18 252.957 359.16 242.824 c h
242.41 214.176 m 261.598 214.176 277.211 229.785 277.211 248.977 c 277.211
 268.164 261.598 283.777 242.41 283.777 c 223.219 283.777 207.609 268.164
 207.609 248.977 c 207.609 229.785 223.219 214.176 242.41 214.176 c h
106.445 277.445 m 110.996 277.059 115.766 276.836 120.738 276.836 c 154.555
 276.836 179.82 286.508 179.82 295.156 c 179.82 296.973 178.625 298.672 
177.223 300.043 c 165.793 292.734 144.551 288.266 120.738 288.266 c 115.836
 288.266 111.062 288.473 106.445 288.84 c h
107.082 33.605 m 217.648 87.438 l 219.109 88.148 219.223 89.543 219.223
 89.953 c 219.223 90.363 219.109 91.758 217.648 92.469 c 107.082 146.301
 l h
82.098 30.34 m 82.098 25.379 86.133 21.344 91.094 21.344 c 96.055 21.344
 100.094 25.379 100.094 30.34 c 100.094 296.906 l 100.094 301.867 96.055
 305.906 91.094 305.906 c 86.133 305.906 82.098 301.867 82.098 296.906 c
 h
301.062 328.473 m 296.238 328.473 291.395 328.188 286.664 327.629 c 285.801
 327.527 284.945 327.777 284.277 328.328 c 258.453 349.504 208.438 362.656
 153.746 362.656 c 113.961 362.656 76.609 355.812 48.566 343.383 c 21.344
 331.316 6.352 315.59 6.352 299.094 c 6.352 282.602 21.344 266.875 48.566
 254.809 c 56.863 251.129 65.988 247.945 75.742 245.281 c 75.742 276.945
 l 63.559 281.105 55.305 287.227 55.305 295.156 c 55.305 298.777 57.066 
302.176 60.551 305.273 c 60.727 305.227 60.902 305.188 61.078 305.145 c 
61.285 305.707 61.648 306.207 62.137 306.574 c 72.91 314.75 95.367 319.828
 120.738 319.828 c 146.113 319.828 168.566 314.75 179.34 306.574 c 179.344
 306.574 179.348 306.57 179.348 306.566 c 183.879 303.129 186.176 299.289
 186.176 295.156 c 186.176 279.133 152.461 270.484 120.738 270.484 c 115.977
 270.484 111.176 270.695 106.445 271.082 c 106.445 238.938 l 121.488 236.715
 137.402 235.531 153.746 235.531 c 170.711 235.531 187.207 236.793 202.797
 239.199 c 202.023 242.332 201.605 245.605 201.605 248.973 c 201.605 271.473
 219.91 289.777 242.41 289.777 c 264.91 289.777 283.215 271.473 283.215 
248.973 c 283.215 244.277 282.406 239.77 280.941 235.566 c 287.414 234.477
 294.16 233.906 301.062 233.906 c 343.293 233.906 377.648 255.117 377.648
 281.188 c 377.648 307.262 343.293 328.473 301.062 328.473 c h
75.742 283.746 m 75.742 294.707 l 71.277 296.25 67.391 298.039 64.254 300.043
 c 62.852 298.672 61.656 296.973 61.656 295.156 c 61.656 291.227 66.883 
287.094 75.742 283.746 c h
75.742 283.746 m f
242.355 237.09 m 237.336 237.09 233.25 233.004 233.25 227.984 c 233.25 
226.328 234.594 224.984 236.254 224.984 c 237.91 224.984 239.254 226.328
 239.254 227.984 c 239.254 229.695 240.645 231.086 242.355 231.086 c 244.066
 231.086 245.457 229.695 245.457 227.984 c 245.457 226.328 246.801 224.984
 248.457 224.984 c 250.117 224.984 251.461 226.328 251.461 227.984 c 251.461
 233.004 247.375 237.09 242.355 237.09 c h
242.355 237.09 m f
262.566 252.824 m 257.547 252.824 253.465 248.742 253.465 243.723 c 253.465
 242.062 254.809 240.719 256.465 240.719 c 258.121 240.719 259.465 242.062
 259.465 243.723 c 259.465 245.434 260.855 246.824 262.566 246.824 c 264.277
 246.824 265.668 245.434 265.668 243.723 c 265.668 242.062 267.012 240.719
 268.672 240.719 c 270.328 240.719 271.672 242.062 271.672 243.723 c 271.672
 248.742 267.586 252.824 262.566 252.824 c h
262.566 252.824 m f
242.488 267.918 m 237.469 267.918 233.383 263.836 233.383 258.812 c 233.383
 257.156 234.727 255.812 236.383 255.812 c 238.043 255.812 239.387 257.156
 239.387 258.812 c 239.387 260.523 240.777 261.914 242.488 261.914 c 244.199
 261.914 245.59 260.523 245.59 258.812 c 245.59 257.156 246.934 255.812 
248.59 255.812 c 250.246 255.812 251.59 257.156 251.59 258.812 c 251.59 
263.836 247.508 267.918 242.488 267.918 c h
242.488 267.918 m f
223.457 252.762 m 218.438 252.762 214.352 248.676 214.352 243.656 c 214.352
 241.996 215.699 240.652 217.355 240.652 c 219.012 240.652 220.355 241.996
 220.355 243.656 c 220.355 245.367 221.746 246.758 223.457 246.758 c 225.168
 246.758 226.559 245.367 226.559 243.656 c 226.559 241.996 227.902 240.652
 229.559 240.652 c 231.219 240.652 232.562 241.996 232.562 243.656 c 232.562
 248.676 228.477 252.762 223.457 252.762 c h
223.457 252.762 m f
260.664 196.906 m 259.852 196.906 259.039 196.594 258.422 195.977 c 257.18
 194.734 257.18 192.723 258.422 191.484 c 273.289 176.613 l 274.531 175.371
 276.543 175.371 277.781 176.613 c 279.023 177.855 279.023 179.867 277.781
 181.105 c 262.91 195.977 l 262.293 196.598 261.477 196.906 260.664 196.906
 c h
260.664 196.906 m f
276.887 213.129 m 276.074 213.129 275.262 212.816 274.641 212.195 c 273.398
 210.957 273.398 208.945 274.641 207.703 c 303.223 179.121 l 304.461 177.883
 306.477 177.883 307.715 179.121 c 308.957 180.363 308.957 182.375 307.715
 183.613 c 279.133 212.195 l 278.512 212.816 277.699 213.129 276.887 213.129
 c h
276.887 213.129 m f
Q Q
showpage
%%Trailer
end
%%EOF
