%!PS-Adobe-3.0 EPSF-3.0
%%Creator: cairo 1.16.0 (https://cairographics.org)
%%CreationDate: Wed Jul 15 13:24:05 2020
%%Pages: 1
%%DocumentData: Clean7Bit
%%LanguageLevel: 2
%%BoundingBox: 4 0 380 384
%%EndComments
%%BeginProlog
50 dict begin
/q { gsave } bind def
/Q { grestore } bind def
/cm { 6 array astore concat } bind def
/w { setlinewidth } bind def
/J { setlinecap } bind def
/j { setlinejoin } bind def
/M { setmiterlimit } bind def
/d { setdash } bind def
/m { moveto } bind def
/l { lineto } bind def
/c { curveto } bind def
/h { closepath } bind def
/re { exch dup neg 3 1 roll 5 3 roll moveto 0 rlineto
      0 exch rlineto 0 rlineto closepath } bind def
/S { stroke } bind def
/f { fill } bind def
/f* { eofill } bind def
/n { newpath } bind def
/W { clip } bind def
/W* { eoclip } bind def
/BT { } bind def
/ET { } bind def
/BDC { mark 3 1 roll /BDC pdfmark } bind def
/EMC { mark /EMC pdfmark } bind def
/cairo_store_point { /cairo_point_y exch def /cairo_point_x exch def } def
/Tj { show currentpoint cairo_store_point } bind def
/TJ {
  {
    dup
    type /stringtype eq
    { show } { -0.001 mul 0 cairo_font_matrix dtransform rmoveto } ifelse
  } forall
  currentpoint cairo_store_point
} bind def
/cairo_selectfont { cairo_font_matrix aload pop pop pop 0 0 6 array astore
    cairo_font exch selectfont cairo_point_x cairo_point_y moveto } bind def
/Tf { pop /cairo_font exch def /cairo_font_matrix where
      { pop cairo_selectfont } if } bind def
/Td { matrix translate cairo_font_matrix matrix concatmatrix dup
      /cairo_font_matrix exch def dup 4 get exch 5 get cairo_store_point
      /cairo_font where { pop cairo_selectfont } if } bind def
/Tm { 2 copy 8 2 roll 6 array astore /cairo_font_matrix exch def
      cairo_store_point /cairo_font where { pop cairo_selectfont } if } bind def
/g { setgray } bind def
/rg { setrgbcolor } bind def
/d1 { setcachedevice } bind def
/cairo_data_source {
  CairoDataIndex CairoData length lt
    { CairoData CairoDataIndex get /CairoDataIndex CairoDataIndex 1 add def }
    { () } ifelse
} def
/cairo_flush_ascii85_file { cairo_ascii85_file status { cairo_ascii85_file flushfile } if } def
/cairo_image { image cairo_flush_ascii85_file } def
/cairo_imagemask { imagemask cairo_flush_ascii85_file } def
%%EndProlog
%%BeginSetup
%%EndSetup
%%Page: 1 1
%%BeginPageSetup
%%PageBoundingBox: 4 0 380 384
%%EndPageSetup
q 4 0 376 384 rectclip
1 0 0 -1 0 384 cm q
0.976471 0.984314 0.988235 rg
129.754 162.766 m 119.73 140.059 106.707 131.09 106.707 116.816 c 106.707
 102.543 114.602 94.484 116.855 90.879 c 119.109 87.27 125.727 75.016 125.727
 61.082 c 125.727 47.172 116.871 3.156 77.926 3.004 c 77.758 3 l 38.812 
3.152 29.863 47.172 29.863 61.082 c 29.863 75.016 36.477 87.27 38.73 90.879
 c 40.988 94.484 48.879 102.543 48.879 116.816 c 48.879 131.09 35.855 140.059
 25.832 162.766 c 15.809 185.473 7.496 208.969 7.496 243.441 c 7.496 277.914
 20.496 356.266 40.094 380.934 c 115.496 380.934 l 135.094 356.27 148.094
 277.914 148.094 243.441 c 148.094 208.969 139.781 185.473 129.754 162.766
 c h
129.754 162.766 m f
0.917647 0.658824 0.584314 rg
146 225.75 m 146 226.742 146.621 227.582 147.496 227.918 c 147.387 226.516
 147.262 225.133 147.121 223.766 c 146.453 224.176 146 224.906 146 225.75
 c h
146 225.75 m f
148.09 243.059 m 148.086 241.5 148.062 239.969 148.027 238.457 c 146.883
 238.605 146 239.57 146 240.754 c 146 241.957 146.918 242.938 148.09 243.059
 c h
148.09 243.059 m f
146 255.758 m 146 256.758 146.633 257.602 147.516 257.934 c 147.625 256.414
 147.715 254.934 147.793 253.496 c 146.766 253.738 146 254.656 146 255.758
 c h
146 255.758 m f
146 270.762 m 146 271.129 146.09 271.473 146.242 271.785 c 146.336 270.957
 146.426 270.137 146.508 269.32 c 146.195 269.719 146 270.215 146 270.762
 c h
146 270.762 m f
138.777 187.957 m 138.777 188.938 139.387 189.773 140.246 190.113 c 140.02
 189.391 139.797 188.664 139.562 187.945 c 138.781 187.945 l 138.781 187.949
 138.777 187.953 138.777 187.957 c h
138.777 187.957 m f
133.32 193.414 m 132.035 193.414 130.992 194.457 130.992 195.742 c 130.992
 197.027 132.035 198.07 133.32 198.07 c 134.605 198.07 135.648 197.027 135.648
 195.742 c 135.648 194.457 134.605 193.414 133.32 193.414 c h
133.32 193.414 m f
141.105 200.633 m 139.82 200.633 138.777 201.676 138.777 202.961 c 138.777
 204.246 139.82 205.289 141.105 205.289 c 142.391 205.289 143.434 204.246
 143.434 202.961 c 143.434 201.676 142.391 200.633 141.105 200.633 c h
141.105 200.633 m f
133.32 208.418 m 132.035 208.418 130.992 209.461 130.992 210.746 c 130.992
 212.031 132.035 213.074 133.32 213.074 c 134.605 213.074 135.648 212.031
 135.648 210.746 c 135.648 209.461 134.605 208.418 133.32 208.418 c h
133.32 208.418 m f
141.105 215.637 m 139.82 215.637 138.777 216.68 138.777 217.965 c 138.777
 219.25 139.82 220.293 141.105 220.293 c 142.391 220.293 143.434 219.25 
143.434 217.965 c 143.434 216.68 142.391 215.637 141.105 215.637 c h
141.105 215.637 m f
133.32 223.422 m 132.035 223.422 130.992 224.465 130.992 225.75 c 130.992
 227.035 132.035 228.078 133.32 228.078 c 134.605 228.078 135.648 227.035
 135.648 225.75 c 135.648 224.465 134.605 223.422 133.32 223.422 c h
133.32 223.422 m f
141.105 230.641 m 139.82 230.641 138.777 231.684 138.777 232.969 c 138.777
 234.254 139.82 235.297 141.105 235.297 c 142.391 235.297 143.434 234.254
 143.434 232.969 c 143.434 231.684 142.391 230.641 141.105 230.641 c h
141.105 230.641 m f
133.32 238.426 m 132.035 238.426 130.992 239.469 130.992 240.754 c 130.992
 242.039 132.035 243.082 133.32 243.082 c 134.605 243.082 135.648 242.039
 135.648 240.754 c 135.648 239.469 134.605 238.426 133.32 238.426 c h
133.32 238.426 m f
141.105 245.645 m 139.82 245.645 138.777 246.688 138.777 247.973 c 138.777
 249.258 139.82 250.301 141.105 250.301 c 142.391 250.301 143.434 249.258
 143.434 247.973 c 143.434 246.688 142.391 245.645 141.105 245.645 c h
141.105 245.645 m f
133.32 253.43 m 132.035 253.43 130.992 254.473 130.992 255.758 c 130.992
 257.043 132.035 258.086 133.32 258.086 c 134.605 258.086 135.648 257.043
 135.648 255.758 c 135.648 254.473 134.605 253.43 133.32 253.43 c h
133.32 253.43 m f
141.105 260.648 m 139.82 260.648 138.777 261.691 138.777 262.977 c 138.777
 264.262 139.82 265.305 141.105 265.305 c 142.391 265.305 143.434 264.262
 143.434 262.977 c 143.434 261.691 142.391 260.648 141.105 260.648 c h
141.105 260.648 m f
133.32 268.434 m 132.035 268.434 130.992 269.477 130.992 270.762 c 130.992
 272.047 132.035 273.09 133.32 273.09 c 134.605 273.09 135.648 272.047 135.648
 270.762 c 135.648 269.477 134.605 268.434 133.32 268.434 c h
133.32 268.434 m f
141.105 275.652 m 139.82 275.652 138.777 276.695 138.777 277.98 c 138.777
 279.266 139.82 280.309 141.105 280.309 c 142.391 280.309 143.434 279.266
 143.434 277.98 c 143.434 276.695 142.391 275.652 141.105 275.652 c h
141.105 275.652 m f
133.32 283.438 m 132.035 283.438 130.992 284.48 130.992 285.766 c 130.992
 287.051 132.035 288.094 133.32 288.094 c 134.605 288.094 135.648 287.051
 135.648 285.766 c 135.648 284.48 134.605 283.438 133.32 283.438 c h
133.32 283.438 m f
141.105 290.656 m 139.82 290.656 138.777 291.699 138.777 292.984 c 138.777
 294.27 139.82 295.312 141.105 295.312 c 142.039 295.312 142.84 294.762 
143.211 293.965 c 143.277 293.555 143.344 293.145 143.406 292.734 c 143.281
 291.566 142.305 290.656 141.105 290.656 c h
141.105 290.656 m f
133.32 298.441 m 132.035 298.441 130.992 299.484 130.992 300.77 c 130.992
 302.055 132.035 303.098 133.32 303.098 c 134.605 303.098 135.648 302.055
 135.648 300.77 c 135.648 299.484 134.605 298.441 133.32 298.441 c h
133.32 298.441 m f
138.777 307.988 m 138.777 308.992 139.418 309.84 140.305 310.168 c 140.602
 308.668 140.891 307.168 141.172 305.668 c 141.148 305.668 141.129 305.66
 141.105 305.66 c 139.82 305.66 138.777 306.703 138.777 307.988 c h
138.777 307.988 m f
133.32 313.445 m 132.035 313.445 130.992 314.488 130.992 315.773 c 130.992
 317.059 132.035 318.102 133.32 318.102 c 134.605 318.102 135.648 317.059
 135.648 315.773 c 135.648 314.488 134.605 313.445 133.32 313.445 c h
133.32 313.445 m f
133.32 328.449 m 132.035 328.449 130.992 329.492 130.992 330.777 c 130.992
 332.062 132.035 333.105 133.32 333.105 c 134.285 333.105 135.113 332.516
 135.465 331.68 c 135.516 331.484 135.566 331.293 135.617 331.098 c 135.633
 330.992 135.648 330.887 135.648 330.777 c 135.648 329.492 134.605 328.449
 133.32 328.449 c h
133.32 328.449 m f
130.992 345.781 m 130.992 346.129 131.078 346.457 131.215 346.754 c 131.52
 345.781 131.82 344.793 132.117 343.797 c 131.445 344.207 130.992 344.938
 130.992 345.781 c h
130.992 345.781 m f
123.773 187.957 m 123.773 189.242 124.816 190.285 126.102 190.285 c 127.387
 190.285 128.43 189.242 128.43 187.957 c 128.43 187.953 128.426 187.949 
128.426 187.945 c 123.773 187.945 l 123.777 187.949 123.773 187.953 123.773
 187.957 c h
123.773 187.957 m f
118.316 193.414 m 117.031 193.414 115.988 194.457 115.988 195.742 c 115.988
 197.027 117.031 198.07 118.316 198.07 c 119.602 198.07 120.645 197.027 
120.645 195.742 c 120.645 194.457 119.602 193.414 118.316 193.414 c h
118.316 193.414 m f
126.102 200.633 m 124.816 200.633 123.773 201.676 123.773 202.961 c 123.773
 204.246 124.816 205.289 126.102 205.289 c 127.387 205.289 128.43 204.246
 128.43 202.961 c 128.43 201.676 127.387 200.633 126.102 200.633 c h
126.102 200.633 m f
118.316 208.418 m 117.031 208.418 115.988 209.461 115.988 210.746 c 115.988
 212.031 117.031 213.074 118.316 213.074 c 119.602 213.074 120.645 212.031
 120.645 210.746 c 120.645 209.461 119.602 208.418 118.316 208.418 c h
118.316 208.418 m f
126.102 215.637 m 124.816 215.637 123.773 216.68 123.773 217.965 c 123.773
 219.25 124.816 220.293 126.102 220.293 c 127.387 220.293 128.43 219.25 
128.43 217.965 c 128.43 216.68 127.387 215.637 126.102 215.637 c h
126.102 215.637 m f
118.316 223.422 m 117.031 223.422 115.988 224.465 115.988 225.75 c 115.988
 227.035 117.031 228.078 118.316 228.078 c 119.602 228.078 120.645 227.035
 120.645 225.75 c 120.645 224.465 119.602 223.422 118.316 223.422 c h
118.316 223.422 m f
126.102 230.641 m 124.816 230.641 123.773 231.684 123.773 232.969 c 123.773
 234.254 124.816 235.297 126.102 235.297 c 127.387 235.297 128.43 234.254
 128.43 232.969 c 128.43 231.684 127.387 230.641 126.102 230.641 c h
126.102 230.641 m f
118.316 238.426 m 117.031 238.426 115.988 239.469 115.988 240.754 c 115.988
 242.039 117.031 243.082 118.316 243.082 c 119.602 243.082 120.645 242.039
 120.645 240.754 c 120.645 239.469 119.602 238.426 118.316 238.426 c h
118.316 238.426 m f
126.102 245.645 m 124.816 245.645 123.773 246.688 123.773 247.973 c 123.773
 249.258 124.816 250.301 126.102 250.301 c 127.387 250.301 128.43 249.258
 128.43 247.973 c 128.43 246.688 127.387 245.645 126.102 245.645 c h
126.102 245.645 m f
118.316 253.43 m 117.031 253.43 115.988 254.473 115.988 255.758 c 115.988
 257.043 117.031 258.086 118.316 258.086 c 119.602 258.086 120.645 257.043
 120.645 255.758 c 120.645 254.473 119.602 253.43 118.316 253.43 c h
118.316 253.43 m f
126.102 260.648 m 124.816 260.648 123.773 261.691 123.773 262.977 c 123.773
 264.262 124.816 265.305 126.102 265.305 c 127.387 265.305 128.43 264.262
 128.43 262.977 c 128.43 261.691 127.387 260.648 126.102 260.648 c h
126.102 260.648 m f
118.316 268.434 m 117.031 268.434 115.988 269.477 115.988 270.762 c 115.988
 272.047 117.031 273.09 118.316 273.09 c 119.602 273.09 120.645 272.047 
120.645 270.762 c 120.645 269.477 119.602 268.434 118.316 268.434 c h
118.316 268.434 m f
126.102 275.652 m 124.816 275.652 123.773 276.695 123.773 277.98 c 123.773
 279.266 124.816 280.309 126.102 280.309 c 127.387 280.309 128.43 279.266
 128.43 277.98 c 128.43 276.695 127.387 275.652 126.102 275.652 c h
126.102 275.652 m f
118.316 283.438 m 117.031 283.438 115.988 284.48 115.988 285.766 c 115.988
 287.051 117.031 288.094 118.316 288.094 c 119.602 288.094 120.645 287.051
 120.645 285.766 c 120.645 284.48 119.602 283.438 118.316 283.438 c h
118.316 283.438 m f
126.102 290.656 m 124.816 290.656 123.773 291.699 123.773 292.984 c 123.773
 294.27 124.816 295.312 126.102 295.312 c 127.387 295.312 128.43 294.27 
128.43 292.984 c 128.43 291.699 127.387 290.656 126.102 290.656 c h
126.102 290.656 m f
118.316 298.441 m 117.031 298.441 115.988 299.484 115.988 300.77 c 115.988
 302.055 117.031 303.098 118.316 303.098 c 119.602 303.098 120.645 302.055
 120.645 300.77 c 120.645 299.484 119.602 298.441 118.316 298.441 c h
118.316 298.441 m f
126.102 305.66 m 124.816 305.66 123.773 306.703 123.773 307.988 c 123.773
 309.273 124.816 310.316 126.102 310.316 c 127.387 310.316 128.43 309.273
 128.43 307.988 c 128.43 306.703 127.387 305.66 126.102 305.66 c h
126.102 305.66 m f
118.316 313.445 m 117.031 313.445 115.988 314.488 115.988 315.773 c 115.988
 317.059 117.031 318.102 118.316 318.102 c 119.602 318.102 120.645 317.059
 120.645 315.773 c 120.645 314.488 119.602 313.445 118.316 313.445 c h
118.316 313.445 m f
126.102 320.664 m 124.816 320.664 123.773 321.707 123.773 322.992 c 123.773
 324.277 124.816 325.32 126.102 325.32 c 127.387 325.32 128.43 324.277 128.43
 322.992 c 128.43 321.707 127.387 320.664 126.102 320.664 c h
126.102 320.664 m f
118.316 328.449 m 117.031 328.449 115.988 329.492 115.988 330.777 c 115.988
 332.062 117.031 333.105 118.316 333.105 c 119.602 333.105 120.645 332.062
 120.645 330.777 c 120.645 329.492 119.602 328.449 118.316 328.449 c h
118.316 328.449 m f
126.102 335.668 m 124.816 335.668 123.773 336.711 123.773 337.996 c 123.773
 339.281 124.816 340.324 126.102 340.324 c 127.387 340.324 128.43 339.281
 128.43 337.996 c 128.43 336.711 127.387 335.668 126.102 335.668 c h
126.102 335.668 m f
118.316 343.453 m 117.031 343.453 115.988 344.496 115.988 345.781 c 115.988
 347.066 117.031 348.109 118.316 348.109 c 119.602 348.109 120.645 347.066
 120.645 345.781 c 120.645 344.496 119.602 343.453 118.316 343.453 c h
118.316 343.453 m f
126.102 350.676 m 124.816 350.676 123.773 351.715 123.773 353 c 123.773
 354.285 124.816 355.328 126.102 355.328 c 127.387 355.328 128.43 354.285
 128.43 353 c 128.43 351.715 127.387 350.676 126.102 350.676 c h
126.102 350.676 m f
118.316 358.457 m 117.031 358.457 115.988 359.5 115.988 360.785 c 115.988
 362.07 117.031 363.113 118.316 363.113 c 119.602 363.113 120.645 362.07
 120.645 360.785 c 120.645 359.5 119.602 358.457 118.316 358.457 c h
118.316 358.457 m f
118.316 373.461 m 117.031 373.461 115.988 374.504 115.988 375.789 c 115.988
 376.832 116.68 377.703 117.625 378 c 118.422 376.809 119.215 375.535 119.988
 374.176 c 119.566 373.738 118.973 373.461 118.316 373.461 c h
118.316 373.461 m f
108.77 187.957 m 108.77 189.242 109.812 190.285 111.098 190.285 c 112.383
 190.285 113.426 189.242 113.426 187.957 c 113.426 187.953 113.422 187.949
 113.422 187.945 c 108.77 187.945 l 108.773 187.949 108.77 187.953 108.77
 187.957 c h
108.77 187.957 m f
100.984 195.742 m 100.984 197.027 102.027 198.07 103.312 198.07 c 104.598
 198.07 105.641 197.027 105.641 195.742 c 105.641 194.457 104.598 193.414
 103.312 193.414 c 102.027 193.414 100.984 194.457 100.984 195.742 c h
100.984 195.742 m f
111.098 200.633 m 109.812 200.633 108.77 201.676 108.77 202.961 c 108.77
 204.246 109.812 205.289 111.098 205.289 c 112.383 205.289 113.426 204.246
 113.426 202.961 c 113.426 201.676 112.383 200.633 111.098 200.633 c h
111.098 200.633 m f
103.312 208.418 m 102.027 208.418 100.984 209.461 100.984 210.746 c 100.984
 212.031 102.027 213.074 103.312 213.074 c 104.598 213.074 105.641 212.031
 105.641 210.746 c 105.641 209.461 104.598 208.418 103.312 208.418 c h
103.312 208.418 m f
111.098 215.637 m 109.812 215.637 108.77 216.68 108.77 217.965 c 108.77
 219.25 109.812 220.293 111.098 220.293 c 112.383 220.293 113.426 219.25
 113.426 217.965 c 113.426 216.68 112.383 215.637 111.098 215.637 c h
111.098 215.637 m f
103.312 223.422 m 102.027 223.422 100.984 224.465 100.984 225.75 c 100.984
 227.035 102.027 228.078 103.312 228.078 c 104.598 228.078 105.641 227.035
 105.641 225.75 c 105.641 224.465 104.598 223.422 103.312 223.422 c h
103.312 223.422 m f
111.098 230.641 m 109.812 230.641 108.77 231.684 108.77 232.969 c 108.77
 234.254 109.812 235.297 111.098 235.297 c 112.383 235.297 113.426 234.254
 113.426 232.969 c 113.426 231.684 112.383 230.641 111.098 230.641 c h
111.098 230.641 m f
103.312 238.426 m 102.027 238.426 100.984 239.469 100.984 240.754 c 100.984
 242.039 102.027 243.082 103.312 243.082 c 104.598 243.082 105.641 242.039
 105.641 240.754 c 105.641 239.469 104.598 238.426 103.312 238.426 c h
103.312 238.426 m f
111.098 245.645 m 109.812 245.645 108.77 246.688 108.77 247.973 c 108.77
 249.258 109.812 250.301 111.098 250.301 c 112.383 250.301 113.426 249.258
 113.426 247.973 c 113.426 246.688 112.383 245.645 111.098 245.645 c h
111.098 245.645 m f
103.312 253.43 m 102.027 253.43 100.984 254.473 100.984 255.758 c 100.984
 257.043 102.027 258.086 103.312 258.086 c 104.598 258.086 105.641 257.043
 105.641 255.758 c 105.641 254.473 104.598 253.43 103.312 253.43 c h
103.312 253.43 m f
111.098 260.648 m 109.812 260.648 108.77 261.691 108.77 262.977 c 108.77
 264.262 109.812 265.305 111.098 265.305 c 112.383 265.305 113.426 264.262
 113.426 262.977 c 113.426 261.691 112.383 260.648 111.098 260.648 c h
111.098 260.648 m f
103.312 268.434 m 102.027 268.434 100.984 269.477 100.984 270.762 c 100.984
 272.047 102.027 273.09 103.312 273.09 c 104.598 273.09 105.641 272.047 
105.641 270.762 c 105.641 269.477 104.598 268.434 103.312 268.434 c h
103.312 268.434 m f
111.098 275.652 m 109.812 275.652 108.77 276.695 108.77 277.98 c 108.77
 279.266 109.812 280.309 111.098 280.309 c 112.383 280.309 113.426 279.266
 113.426 277.98 c 113.426 276.695 112.383 275.652 111.098 275.652 c h
111.098 275.652 m f
103.312 283.438 m 102.027 283.438 100.984 284.48 100.984 285.766 c 100.984
 287.051 102.027 288.094 103.312 288.094 c 104.598 288.094 105.641 287.051
 105.641 285.766 c 105.641 284.48 104.598 283.438 103.312 283.438 c h
103.312 283.438 m f
111.098 290.656 m 109.812 290.656 108.77 291.699 108.77 292.984 c 108.77
 294.27 109.812 295.312 111.098 295.312 c 112.383 295.312 113.426 294.27
 113.426 292.984 c 113.426 291.699 112.383 290.656 111.098 290.656 c h
111.098 290.656 m f
103.312 298.441 m 102.027 298.441 100.984 299.484 100.984 300.77 c 100.984
 302.055 102.027 303.098 103.312 303.098 c 104.598 303.098 105.641 302.055
 105.641 300.77 c 105.641 299.484 104.598 298.441 103.312 298.441 c h
103.312 298.441 m f
111.098 305.66 m 109.812 305.66 108.77 306.703 108.77 307.988 c 108.77 
309.273 109.812 310.316 111.098 310.316 c 112.383 310.316 113.426 309.273
 113.426 307.988 c 113.426 306.703 112.383 305.66 111.098 305.66 c h
111.098 305.66 m f
103.312 313.445 m 102.027 313.445 100.984 314.488 100.984 315.773 c 100.984
 317.059 102.027 318.102 103.312 318.102 c 104.598 318.102 105.641 317.059
 105.641 315.773 c 105.641 314.488 104.598 313.445 103.312 313.445 c h
103.312 313.445 m f
111.098 320.664 m 109.812 320.664 108.77 321.707 108.77 322.992 c 108.77
 324.277 109.812 325.32 111.098 325.32 c 112.383 325.32 113.426 324.277 
113.426 322.992 c 113.426 321.707 112.383 320.664 111.098 320.664 c h
111.098 320.664 m f
103.312 328.449 m 102.027 328.449 100.984 329.492 100.984 330.777 c 100.984
 332.062 102.027 333.105 103.312 333.105 c 104.598 333.105 105.641 332.062
 105.641 330.777 c 105.641 329.492 104.598 328.449 103.312 328.449 c h
103.312 328.449 m f
111.098 335.668 m 109.812 335.668 108.77 336.711 108.77 337.996 c 108.77
 339.281 109.812 340.324 111.098 340.324 c 112.383 340.324 113.426 339.281
 113.426 337.996 c 113.426 336.711 112.383 335.668 111.098 335.668 c h
111.098 335.668 m f
103.312 343.453 m 102.027 343.453 100.984 344.496 100.984 345.781 c 100.984
 347.066 102.027 348.109 103.312 348.109 c 104.598 348.109 105.641 347.066
 105.641 345.781 c 105.641 344.496 104.598 343.453 103.312 343.453 c h
103.312 343.453 m f
111.098 350.676 m 109.812 350.676 108.77 351.715 108.77 353 c 108.77 354.285
 109.812 355.328 111.098 355.328 c 112.383 355.328 113.426 354.285 113.426
 353 c 113.426 351.715 112.383 350.676 111.098 350.676 c h
111.098 350.676 m f
103.312 358.457 m 102.027 358.457 100.984 359.5 100.984 360.785 c 100.984
 362.07 102.027 363.113 103.312 363.113 c 104.598 363.113 105.641 362.07
 105.641 360.785 c 105.641 359.5 104.598 358.457 103.312 358.457 c h
103.312 358.457 m f
111.098 365.68 m 109.812 365.68 108.77 366.719 108.77 368.004 c 108.77 
369.289 109.812 370.332 111.098 370.332 c 112.383 370.332 113.426 369.289
 113.426 368.004 c 113.426 366.719 112.383 365.68 111.098 365.68 c h
111.098 365.68 m f
103.312 373.461 m 102.027 373.461 100.984 374.504 100.984 375.789 c 100.984
 377.074 102.027 378.117 103.312 378.117 c 104.598 378.117 105.641 377.074
 105.641 375.789 c 105.641 374.504 104.598 373.461 103.312 373.461 c h
103.312 373.461 m f
98.422 202.961 m 98.422 202.297 98.141 201.703 97.695 201.281 c 97.234 
202.598 96.797 203.926 96.375 205.262 c 97.527 205.117 98.422 204.148 98.422
 202.961 c h
98.422 202.961 m f
96.094 215.637 m 94.809 215.637 93.766 216.68 93.766 217.965 c 93.766 219.25
 94.809 220.293 96.094 220.293 c 97.379 220.293 98.422 219.25 98.422 217.965
 c 98.422 216.68 97.379 215.637 96.094 215.637 c h
96.094 215.637 m f
96.094 230.641 m 94.809 230.641 93.766 231.684 93.766 232.969 c 93.766 
234.254 94.809 235.297 96.094 235.297 c 97.379 235.297 98.422 234.254 98.422
 232.969 c 98.422 231.684 97.379 230.641 96.094 230.641 c h
96.094 230.641 m f
90.637 240.754 m 90.637 240.336 90.52 239.953 90.328 239.613 c 90.289 240.434
 90.25 241.25 90.227 242.07 c 90.484 241.695 90.637 241.242 90.637 240.754
 c h
90.637 240.754 m f
96.094 245.645 m 94.809 245.645 93.766 246.688 93.766 247.973 c 93.766 
249.258 94.809 250.301 96.094 250.301 c 97.379 250.301 98.422 249.258 98.422
 247.973 c 98.422 246.688 97.379 245.645 96.094 245.645 c h
96.094 245.645 m f
90.574 256.273 m 90.613 256.109 90.637 255.938 90.637 255.758 c 90.637 
255.477 90.578 255.211 90.488 254.961 c 90.516 255.398 90.539 255.84 90.574
 256.273 c h
90.574 256.273 m f
96.094 260.648 m 94.809 260.648 93.766 261.691 93.766 262.977 c 93.766 
264.262 94.809 265.305 96.094 265.305 c 97.379 265.305 98.422 264.262 98.422
 262.977 c 98.422 261.691 97.379 260.648 96.094 260.648 c h
96.094 260.648 m f
96.094 275.652 m 94.875 275.652 93.887 276.594 93.785 277.785 c 93.852 
278.16 93.902 278.535 93.965 278.914 c 94.324 279.734 95.141 280.309 96.094
 280.309 c 97.379 280.309 98.422 279.266 98.422 277.98 c 98.422 276.695 
97.379 275.652 96.094 275.652 c h
96.094 275.652 m f
96.094 290.656 m 95.859 290.656 95.637 290.703 95.422 290.77 c 95.547 292.27
 95.648 293.773 95.727 295.273 c 95.848 295.293 95.969 295.312 96.094 295.312
 c 97.379 295.312 98.422 294.27 98.422 292.984 c 98.422 291.699 97.379 290.656
 96.094 290.656 c h
96.094 290.656 m f
96.094 305.66 m 96.027 305.66 95.965 305.676 95.902 305.68 c 95.875 307.215
 95.824 308.75 95.75 310.281 c 95.863 310.297 95.977 310.316 96.094 310.316
 c 97.379 310.316 98.422 309.273 98.422 307.988 c 98.422 306.703 97.379 
305.66 96.094 305.66 c h
96.094 305.66 m f
96.094 320.664 m 95.625 320.664 95.195 320.809 94.828 321.043 c 94.688 
322.207 94.527 323.367 94.355 324.527 c 94.781 325.008 95.398 325.32 96.094
 325.32 c 97.379 325.32 98.422 324.277 98.422 322.992 c 98.422 321.707 97.379
 320.664 96.094 320.664 c h
96.094 320.664 m f
96.094 335.668 m 94.809 335.668 93.766 336.711 93.766 337.996 c 93.766 
339.281 94.809 340.324 96.094 340.324 c 97.379 340.324 98.422 339.281 98.422
 337.996 c 98.422 336.711 97.379 335.668 96.094 335.668 c h
96.094 335.668 m f
90.637 345.781 m 90.637 345.164 90.391 344.609 90.004 344.195 c 89.934 
344.43 89.871 344.668 89.801 344.902 c 89.477 345.961 89.148 347.012 88.816
 348.051 c 89.859 347.816 90.637 346.891 90.637 345.781 c h
90.637 345.781 m f
96.094 350.676 m 94.809 350.676 93.766 351.715 93.766 353 c 93.766 354.285
 94.809 355.328 96.094 355.328 c 97.379 355.328 98.422 354.285 98.422 353
 c 98.422 351.715 97.379 350.676 96.094 350.676 c h
96.094 350.676 m f
88.309 358.457 m 87.023 358.457 85.98 359.5 85.98 360.785 c 85.98 362.07
 87.023 363.113 88.309 363.113 c 89.594 363.113 90.637 362.07 90.637 360.785
 c 90.637 359.5 89.594 358.457 88.309 358.457 c h
88.309 358.457 m f
96.094 365.68 m 94.809 365.68 93.766 366.719 93.766 368.004 c 93.766 369.289
 94.809 370.332 96.094 370.332 c 97.379 370.332 98.422 369.289 98.422 368.004
 c 98.422 366.719 97.379 365.68 96.094 365.68 c h
96.094 365.68 m f
88.309 373.461 m 87.023 373.461 85.98 374.504 85.98 375.789 c 85.98 377.074
 87.023 378.117 88.309 378.117 c 89.594 378.117 90.637 377.074 90.637 375.789
 c 90.637 374.504 89.594 373.461 88.309 373.461 c h
88.309 373.461 m f
83.418 368.004 m 83.418 367.098 82.891 366.316 82.129 365.934 c 81.48 367.391
 80.824 368.793 80.152 370.133 c 80.441 370.262 80.758 370.332 81.09 370.332
 c 82.375 370.332 83.418 369.289 83.418 368.004 c h
83.418 368.004 m f
38.996 95.477 m 42.496 101.645 48.91 107.973 48.836 116.703 c 48.809 120.25
 47.801 123.648 46.301 126.918 c 109.367 126.918 l 107.648 123.336 106.473
 119.641 106.449 115.871 c 106.391 107.039 112.977 101.402 116.625 95.477
 c h
38.996 95.477 m f
25.809 158.977 m 21.086 167.238 17.129 176.953 14.109 188.055 c 141.582
 188.055 l 138.555 176.918 134.582 167.18 129.84 158.898 c 129.398 158.121
 128.941 157.363 128.484 156.613 c 27.207 156.613 l 26.734 157.391 26.266
 158.172 25.809 158.977 c h
25.809 158.977 m f
0.976471 0.984314 0.988235 rg
131.797 167.48 m 131.535 166.859 131.273 166.242 131.004 165.625 c 131.004
 165.66 130.992 165.695 130.992 165.734 c 130.992 166.434 131.309 167.055
 131.797 167.48 c h
131.797 167.48 m f
133.32 183.066 m 134.605 183.066 135.648 182.023 135.648 180.738 c 135.648
 179.453 134.605 178.41 133.32 178.41 c 132.035 178.41 130.992 179.453 130.992
 180.738 c 130.992 182.023 132.035 183.066 133.32 183.066 c h
133.32 183.066 m f
139.148 186.707 m 138.918 187.07 138.777 187.496 138.777 187.957 c 138.777
 187.988 138.785 188.016 138.789 188.043 c 139.594 188.043 l 139.449 187.594
 139.297 187.152 139.148 186.707 c h
139.148 186.707 m f
123.773 157.949 m 123.773 159.234 124.816 160.277 126.102 160.277 c 126.941
 160.277 127.668 159.828 128.078 159.16 c 127.492 157.945 126.895 156.777
 126.297 155.641 c 126.23 155.637 126.168 155.621 126.102 155.621 c 124.816
 155.621 123.773 156.664 123.773 157.949 c h
123.773 157.949 m f
118.316 168.062 m 119.602 168.062 120.645 167.02 120.645 165.734 c 120.645
 164.449 119.602 163.406 118.316 163.406 c 118.285 163.406 118.258 163.414
 118.227 163.414 c 117.496 164.363 116.766 165.309 116.059 166.273 c 116.305
 167.297 117.219 168.062 118.316 168.062 c h
118.316 168.062 m f
126.102 170.625 m 124.816 170.625 123.773 171.668 123.773 172.953 c 123.773
 174.238 124.816 175.281 126.102 175.281 c 127.387 175.281 128.43 174.238
 128.43 172.953 c 128.43 171.668 127.387 170.625 126.102 170.625 c h
126.102 170.625 m f
118.316 178.41 m 117.031 178.41 115.988 179.453 115.988 180.738 c 115.988
 182.023 117.031 183.062 118.316 183.062 c 119.602 183.062 120.645 182.023
 120.645 180.738 c 120.645 179.453 119.602 178.41 118.316 178.41 c h
118.316 178.41 m f
128.43 187.957 m 128.43 186.672 127.387 185.629 126.102 185.629 c 124.816
 185.629 123.773 186.672 123.773 187.957 c 123.773 187.988 123.781 188.016
 123.785 188.043 c 128.422 188.043 l 128.422 188.016 128.43 187.988 128.43
 187.957 c h
128.43 187.957 m f
113.426 172.953 m 113.426 172.262 113.117 171.648 112.641 171.219 c 111.793
 172.492 110.965 173.777 110.164 175.082 c 110.449 175.207 110.766 175.277
 111.098 175.277 c 112.383 175.281 113.426 174.238 113.426 172.953 c h
113.426 172.953 m f
113.426 187.957 m 113.426 186.672 112.383 185.629 111.098 185.629 c 109.812
 185.629 108.77 186.672 108.77 187.957 c 108.77 187.988 108.777 188.016 
108.781 188.043 c 113.418 188.043 l 113.418 188.016 113.426 187.988 113.426
 187.957 c h
113.426 187.957 m f
0.192157 0.215686 0.239216 rg
116.945 383.938 m 38.645 383.938 l 37.742 382.801 l 25.625 367.547 17.359
 334.703 13.508 316.484 c 8.031 290.562 4.496 261.891 4.496 243.441 c 4.496
 206.746 14.09 181.934 23.086 161.555 c 27.441 151.691 32.242 144.512 36.48
 138.18 c 41.934 130.023 45.879 124.129 45.879 116.816 c 45.879 105.82 40.809
 98.887 37.777 94.742 c 37.148 93.883 36.605 93.141 36.188 92.469 c 34.629
 89.977 26.863 76.758 26.863 61.082 c 26.863 54.324 28.91 39.207 36.582 
25.422 c 45.805 8.859 60.039 0.07 77.746 0 c 77.992 0.004 l 95.645 0.074
 109.863 8.863 119.055 25.43 c 126.688 39.188 128.727 54.312 128.727 61.082
 c 128.727 76.758 120.957 89.977 119.402 92.469 c 118.98 93.141 118.438 
93.883 117.809 94.742 c 114.781 98.883 109.711 105.82 109.711 116.816 c 
109.711 124.129 113.652 130.023 119.109 138.18 c 123.344 144.512 128.145
 151.691 132.5 161.555 c 141.496 181.934 151.094 206.746 151.094 243.441
 c 151.094 261.891 147.555 290.562 142.078 316.484 c 138.23 334.703 129.965
 367.547 117.844 382.801 c h
41.574 377.934 m 114.012 377.934 l 133.02 352.195 145.094 275.715 145.094
 243.441 c 145.094 207.914 135.758 183.797 127.008 163.98 c 122.867 154.594
 118.219 147.645 114.117 141.516 c 108.301 132.82 103.707 125.953 103.707
 116.816 c 103.707 103.859 109.73 95.625 112.965 91.199 c 113.523 90.434
 114.008 89.773 114.312 89.289 c 115.172 87.91 122.723 75.414 122.723 61.082
 c 122.723 49.484 115.117 6.148 77.91 6.004 c 77.734 6 l 40.48 6.172 32.863
 49.488 32.863 61.082 c 32.863 75.414 40.414 87.91 41.277 89.289 c 41.582
 89.773 42.062 90.434 42.621 91.199 c 45.859 95.625 51.879 103.859 51.879
 116.816 c 51.879 125.953 47.285 132.82 41.469 141.516 c 37.367 147.648 
32.723 154.594 28.578 163.98 c 19.828 183.797 10.496 207.914 10.496 243.441
 c 10.496 275.715 22.566 352.195 41.574 377.934 c h
41.574 377.934 m f
0.913725 0.760784 0.470588 rg
376.504 245.824 m 376.504 320.48 315.984 381 241.332 381 c 166.676 381 
106.156 320.48 106.156 245.824 c 106.156 171.172 166.676 110.652 241.332
 110.652 c 315.984 110.652 376.504 171.172 376.504 245.824 c h
376.504 245.824 m f
0.976471 0.984314 0.988235 rg
375.648 241.531 m 375.648 242.242 375.973 242.867 376.473 243.297 c 376.449
 242.145 376.414 241 376.363 239.859 c 375.926 240.281 375.648 240.875 375.648
 241.531 c h
375.648 241.531 m f
375.648 256.539 m 375.648 256.969 375.773 257.367 375.977 257.715 c 376.055
 256.836 376.125 255.953 376.184 255.066 c 375.855 255.469 375.648 255.977
 375.648 256.539 c h
375.648 256.539 m f
362.973 194.195 m 361.688 194.195 360.645 195.234 360.645 196.523 c 360.645
 197.809 361.688 198.848 362.973 198.848 c 364.258 198.848 365.297 197.809
 365.297 196.523 c 365.301 195.234 364.258 194.195 362.973 194.195 c h
362.973 194.195 m f
368.43 203.742 m 368.43 204.953 369.359 205.938 370.543 206.047 c 370.125
 204.688 369.688 203.34 369.227 202 c 368.742 202.426 368.43 203.043 368.43
 203.742 c h
368.43 203.742 m f
362.973 209.199 m 361.688 209.199 360.645 210.238 360.645 211.527 c 360.645
 212.812 361.688 213.852 362.973 213.852 c 364.258 213.852 365.297 212.812
 365.297 211.527 c 365.301 210.238 364.258 209.199 362.973 209.199 c h
362.973 209.199 m f
370.758 216.418 m 369.473 216.418 368.43 217.461 368.43 218.746 c 368.43
 220.031 369.473 221.07 370.758 221.07 c 372.043 221.07 373.082 220.031 
373.082 218.746 c 373.082 217.461 372.043 216.418 370.758 216.418 c h
370.758 216.418 m f
362.973 224.203 m 361.688 224.203 360.645 225.242 360.645 226.531 c 360.645
 227.816 361.688 228.855 362.973 228.855 c 364.258 228.855 365.297 227.816
 365.297 226.531 c 365.301 225.242 364.258 224.203 362.973 224.203 c h
362.973 224.203 m f
370.758 231.422 m 369.473 231.422 368.43 232.465 368.43 233.75 c 368.43
 235.035 369.473 236.074 370.758 236.074 c 372.043 236.074 373.082 235.035
 373.082 233.75 c 373.082 232.465 372.043 231.422 370.758 231.422 c h
370.758 231.422 m f
362.973 239.207 m 361.688 239.207 360.645 240.246 360.645 241.535 c 360.645
 242.82 361.688 243.859 362.973 243.859 c 364.258 243.859 365.297 242.82
 365.297 241.535 c 365.301 240.246 364.258 239.207 362.973 239.207 c h
362.973 239.207 m f
370.758 246.426 m 369.473 246.426 368.43 247.469 368.43 248.754 c 368.43
 250.039 369.473 251.082 370.758 251.082 c 372.043 251.082 373.082 250.039
 373.082 248.754 c 373.082 247.469 372.043 246.426 370.758 246.426 c h
370.758 246.426 m f
362.973 254.211 m 361.688 254.211 360.645 255.254 360.645 256.539 c 360.645
 257.824 361.688 258.863 362.973 258.863 c 364.258 258.863 365.297 257.824
 365.297 256.539 c 365.301 255.254 364.258 254.211 362.973 254.211 c h
362.973 254.211 m f
370.758 261.43 m 369.473 261.43 368.43 262.473 368.43 263.758 c 368.43 
265.043 369.473 266.086 370.758 266.086 c 372.043 266.086 373.082 265.043
 373.082 263.758 c 373.082 262.473 372.043 261.43 370.758 261.43 c h
370.758 261.43 m f
362.973 269.215 m 361.688 269.215 360.645 270.258 360.645 271.543 c 360.645
 272.828 361.688 273.867 362.973 273.867 c 364.258 273.867 365.297 272.828
 365.297 271.543 c 365.301 270.258 364.258 269.215 362.973 269.215 c h
362.973 269.215 m f
370.758 276.434 m 369.473 276.434 368.43 277.477 368.43 278.762 c 368.43
 280.047 369.473 281.09 370.758 281.09 c 371.191 281.09 371.59 280.961 371.938
 280.754 c 372.223 279.699 372.488 278.637 372.746 277.57 c 372.34 276.891
 371.605 276.434 370.758 276.434 c h
370.758 276.434 m f
362.973 284.219 m 361.688 284.219 360.645 285.262 360.645 286.547 c 360.645
 287.832 361.688 288.871 362.973 288.871 c 364.258 288.871 365.297 287.832
 365.297 286.547 c 365.301 285.262 364.258 284.219 362.973 284.219 c h
362.973 284.219 m f
362.973 299.223 m 361.688 299.223 360.645 300.266 360.645 301.551 c 360.645
 302.836 361.688 303.879 362.973 303.879 c 363.137 303.879 363.301 303.859
 363.457 303.824 c 363.988 302.707 364.504 301.578 365.008 300.441 c 364.613
 299.719 363.852 299.223 362.973 299.223 c h
362.973 299.223 m f
345.641 166.512 m 345.641 167.797 346.684 168.84 347.969 168.84 c 349.254
 168.84 350.293 167.797 350.293 166.512 c 350.293 166.176 350.219 165.855
 350.09 165.566 c 349.898 165.309 349.715 165.051 349.523 164.793 c 349.109
 164.418 348.566 164.184 347.969 164.184 c 346.684 164.188 345.641 165.227
 345.641 166.512 c h
345.641 166.512 m f
353.426 173.73 m 353.426 175.016 354.465 176.059 355.75 176.059 c 356.18
 176.059 356.578 175.938 356.922 175.73 c 356.117 174.41 355.285 173.105
 354.438 171.812 c 353.828 172.23 353.426 172.934 353.426 173.73 c h
353.426 173.73 m f
347.969 179.191 m 347.953 179.191 347.941 179.195 347.93 179.195 c 348.352
 180.625 348.754 182.07 349.129 183.523 c 349.824 183.117 350.293 182.375
 350.293 181.52 c 350.297 180.23 349.254 179.191 347.969 179.191 c h
347.969 179.191 m f
355.75 186.41 m 354.469 186.41 353.426 187.453 353.426 188.738 c 353.426
 190.023 354.469 191.066 355.75 191.066 c 357.035 191.066 358.078 190.023
 358.078 188.738 c 358.078 187.453 357.035 186.41 355.75 186.41 c h
355.75 186.41 m f
355.75 201.414 m 354.469 201.414 353.426 202.457 353.426 203.742 c 353.426
 205.023 354.469 206.066 355.75 206.066 c 357.035 206.066 358.078 205.027
 358.078 203.742 c 358.078 202.457 357.035 201.414 355.75 201.414 c h
355.75 201.414 m f
355.75 216.418 m 354.633 216.418 353.695 217.211 353.477 218.262 c 353.473
 218.559 353.469 218.848 353.465 219.141 c 353.652 220.238 354.602 221.07
 355.75 221.07 c 357.035 221.07 358.078 220.031 358.078 218.746 c 358.078
 217.461 357.035 216.418 355.75 216.418 c h
355.75 216.418 m f
355.75 231.422 m 354.469 231.422 353.426 232.465 353.426 233.75 c 353.426
 235.035 354.469 236.074 355.75 236.074 c 357.035 236.074 358.078 235.035
 358.078 233.75 c 358.078 232.465 357.035 231.422 355.75 231.422 c h
355.75 231.422 m f
355.75 246.426 m 354.469 246.426 353.426 247.469 353.426 248.754 c 353.426
 250.039 354.469 251.082 355.75 251.082 c 357.035 251.082 358.078 250.039
 358.078 248.754 c 358.078 247.469 357.035 246.426 355.75 246.426 c h
355.75 246.426 m f
347.969 258.863 m 349.254 258.863 350.293 257.82 350.293 256.539 c 350.293
 255.418 349.504 254.484 348.449 254.262 c 348.031 255.75 347.582 257.23
 347.117 258.699 c 347.379 258.805 347.664 258.863 347.969 258.863 c h
347.969 258.863 m f
355.75 261.43 m 354.469 261.43 353.426 262.473 353.426 263.758 c 353.426
 265.043 354.469 266.086 355.75 266.086 c 357.035 266.086 358.078 265.043
 358.078 263.758 c 358.078 262.473 357.035 261.43 355.75 261.43 c h
355.75 261.43 m f
347.969 269.215 m 346.684 269.215 345.641 270.258 345.641 271.543 c 345.641
 272.828 346.684 273.867 347.969 273.867 c 349.254 273.867 350.293 272.828
 350.293 271.543 c 350.297 270.258 349.254 269.215 347.969 269.215 c h
347.969 269.215 m f
355.75 276.434 m 354.469 276.434 353.426 277.477 353.426 278.762 c 353.426
 280.047 354.469 281.09 355.75 281.09 c 357.035 281.09 358.078 280.047 358.078
 278.762 c 358.078 277.477 357.035 276.434 355.75 276.434 c h
355.75 276.434 m f
347.969 284.219 m 346.684 284.219 345.641 285.262 345.641 286.547 c 345.641
 287.832 346.684 288.871 347.969 288.871 c 349.254 288.871 350.293 287.832
 350.293 286.547 c 350.297 285.262 349.254 284.219 347.969 284.219 c h
347.969 284.219 m f
355.75 291.438 m 354.469 291.438 353.426 292.48 353.426 293.766 c 353.426
 295.051 354.469 296.094 355.75 296.094 c 357.035 296.094 358.078 295.051
 358.078 293.766 c 358.078 292.48 357.035 291.438 355.75 291.438 c h
355.75 291.438 m f
347.969 299.223 m 346.684 299.223 345.641 300.266 345.641 301.551 c 345.641
 302.836 346.684 303.879 347.969 303.879 c 349.254 303.879 350.293 302.836
 350.293 301.551 c 350.297 300.266 349.254 299.223 347.969 299.223 c h
347.969 299.223 m f
355.75 306.441 m 354.469 306.441 353.426 307.484 353.426 308.77 c 353.426
 310.055 354.469 311.098 355.75 311.098 c 357.035 311.098 358.078 310.055
 358.078 308.77 c 358.078 307.484 357.035 306.441 355.75 306.441 c h
355.75 306.441 m f
347.969 314.227 m 346.684 314.227 345.641 315.27 345.641 316.555 c 345.641
 317.84 346.684 318.883 347.969 318.883 c 349.254 318.883 350.293 317.84
 350.293 316.555 c 350.297 315.27 349.254 314.227 347.969 314.227 c h
347.969 314.227 m f
345.641 331.559 m 345.641 331.633 345.656 331.703 345.664 331.777 c 346.348
 330.945 347.023 330.105 347.691 329.258 c 346.539 329.398 345.641 330.367
 345.641 331.559 c h
345.641 331.559 m f
341.082 161.023 m 342.207 160.859 343.074 159.898 343.074 158.727 c 343.074
 157.441 342.031 156.402 340.746 156.402 c 340.133 156.402 339.578 156.645
 339.16 157.035 c 339.82 158.352 340.461 159.68 341.082 161.023 c h
341.082 161.023 m f
340.746 281.09 m 342.031 281.09 343.074 280.047 343.074 278.762 c 343.074
 277.477 342.031 276.434 340.746 276.434 c 340.473 276.434 340.215 276.488
 339.973 276.574 c 339.504 277.539 339.027 278.496 338.535 279.449 c 338.828
 280.395 339.703 281.09 340.746 281.09 c h
340.746 281.09 m f
335.289 286.547 m 335.289 286.234 335.227 285.938 335.117 285.664 c 334.492
 286.738 333.852 287.797 333.195 288.848 c 334.371 288.73 335.289 287.75
 335.289 286.547 c h
335.289 286.547 m f
340.746 291.438 m 339.461 291.438 338.422 292.48 338.422 293.766 c 338.422
 295.051 339.461 296.094 340.746 296.094 c 342.031 296.094 343.074 295.051
 343.074 293.766 c 343.074 292.48 342.031 291.438 340.746 291.438 c h
340.746 291.438 m f
332.965 299.223 m 331.68 299.223 330.637 300.266 330.637 301.551 c 330.637
 302.836 331.68 303.879 332.965 303.879 c 334.25 303.879 335.289 302.836
 335.289 301.551 c 335.289 300.266 334.25 299.223 332.965 299.223 c h
332.965 299.223 m f
340.746 306.441 m 339.461 306.441 338.422 307.484 338.422 308.77 c 338.422
 310.055 339.461 311.098 340.746 311.098 c 342.031 311.098 343.074 310.055
 343.074 308.77 c 343.074 307.484 342.031 306.441 340.746 306.441 c h
340.746 306.441 m f
332.965 314.227 m 331.68 314.227 330.637 315.27 330.637 316.555 c 330.637
 317.84 331.68 318.883 332.965 318.883 c 334.25 318.883 335.289 317.84 335.289
 316.555 c 335.289 315.27 334.25 314.227 332.965 314.227 c h
332.965 314.227 m f
340.746 321.445 m 339.461 321.445 338.422 322.488 338.422 323.773 c 338.422
 325.059 339.461 326.102 340.746 326.102 c 342.031 326.102 343.074 325.059
 343.074 323.773 c 343.074 322.488 342.031 321.445 340.746 321.445 c h
340.746 321.445 m f
332.965 329.23 m 331.68 329.23 330.637 330.273 330.637 331.559 c 330.637
 332.844 331.68 333.887 332.965 333.887 c 334.25 333.887 335.289 332.844
 335.289 331.559 c 335.289 330.273 334.25 329.23 332.965 329.23 c h
332.965 329.23 m f
338.422 338.777 m 338.422 339.098 338.484 339.402 338.602 339.68 c 339.582
 338.66 340.555 337.633 341.5 336.586 c 341.266 336.504 341.012 336.449 
340.746 336.449 c 339.461 336.449 338.422 337.492 338.422 338.777 c h
338.422 338.777 m f
330.637 346.562 m 330.637 346.785 330.676 346.996 330.734 347.199 c 331.777
 346.281 332.801 345.348 333.812 344.398 c 333.551 344.293 333.266 344.234
 332.965 344.234 c 331.68 344.234 330.637 345.277 330.637 346.562 c h
330.637 346.562 m f
325.742 306.441 m 324.457 306.441 323.418 307.484 323.418 308.77 c 323.418
 310.055 324.457 311.098 325.742 311.098 c 327.027 311.098 328.07 310.055
 328.07 308.77 c 328.07 307.484 327.027 306.441 325.742 306.441 c h
325.742 306.441 m f
317.961 314.227 m 316.676 314.227 315.633 315.27 315.633 316.555 c 315.633
 317.84 316.676 318.883 317.961 318.883 c 319.246 318.883 320.285 317.84
 320.285 316.555 c 320.285 315.27 319.246 314.227 317.961 314.227 c h
317.961 314.227 m f
325.742 321.445 m 324.457 321.445 323.418 322.488 323.418 323.773 c 323.418
 325.059 324.457 326.102 325.742 326.102 c 327.027 326.102 328.07 325.059
 328.07 323.773 c 328.07 322.488 327.027 321.445 325.742 321.445 c h
325.742 321.445 m f
317.961 329.23 m 316.676 329.23 315.633 330.273 315.633 331.559 c 315.633
 332.844 316.676 333.887 317.961 333.887 c 319.246 333.887 320.285 332.844
 320.285 331.559 c 320.285 330.273 319.246 329.23 317.961 329.23 c h
317.961 329.23 m f
325.742 336.449 m 324.457 336.449 323.418 337.492 323.418 338.777 c 323.418
 340.062 324.457 341.105 325.742 341.105 c 327.027 341.105 328.07 340.062
 328.07 338.777 c 328.07 337.492 327.027 336.449 325.742 336.449 c h
325.742 336.449 m f
317.961 348.887 m 319.246 348.887 320.285 347.848 320.285 346.562 c 320.285
 345.277 319.246 344.234 317.961 344.234 c 316.676 344.234 315.633 345.273
 315.633 346.562 c 315.633 347.848 316.676 348.887 317.961 348.887 c h
317.961 348.887 m f
323.516 353.141 m 324.238 352.586 324.953 352.027 325.664 351.461 c 324.637
 351.5 323.789 352.195 323.516 353.141 c h
323.516 353.141 m f
310.738 321.445 m 309.453 321.445 308.414 322.488 308.414 323.773 c 308.414
 325.059 309.453 326.102 310.738 326.102 c 312.023 326.102 313.066 325.059
 313.066 323.773 c 313.066 322.488 312.023 321.445 310.738 321.445 c h
310.738 321.445 m f
302.953 329.23 m 301.672 329.23 300.629 330.273 300.629 331.559 c 300.629
 332.844 301.672 333.887 302.953 333.887 c 304.238 333.887 305.281 332.844
 305.281 331.559 c 305.281 330.273 304.238 329.23 302.953 329.23 c h
302.953 329.23 m f
310.738 336.449 m 309.453 336.449 308.414 337.492 308.414 338.777 c 308.414
 340.062 309.453 341.105 310.738 341.105 c 312.023 341.105 313.066 340.062
 313.066 338.777 c 313.066 337.492 312.023 336.449 310.738 336.449 c h
310.738 336.449 m f
302.953 344.234 m 301.672 344.234 300.629 345.277 300.629 346.562 c 300.629
 347.848 301.672 348.891 302.953 348.891 c 304.238 348.891 305.281 347.848
 305.281 346.562 c 305.281 345.277 304.238 344.234 302.953 344.234 c h
302.953 344.234 m f
310.738 351.453 m 309.453 351.453 308.414 352.496 308.414 353.781 c 308.414
 355.066 309.453 356.109 310.738 356.109 c 312.023 356.109 313.066 355.066
 313.066 353.781 c 313.066 352.496 312.023 351.453 310.738 351.453 c h
310.738 351.453 m f
302.953 359.238 m 301.672 359.238 300.629 360.281 300.629 361.566 c 300.629
 362.852 301.672 363.895 302.953 363.895 c 304.238 363.895 305.281 362.852
 305.281 361.566 c 305.281 360.281 304.238 359.238 302.953 359.238 c h
302.953 359.238 m f
290.215 332.078 m 289.281 332.668 288.34 333.242 287.391 333.809 c 287.57
 333.855 287.758 333.887 287.949 333.887 c 289.059 333.883 289.977 333.113
 290.215 332.078 c h
290.215 332.078 m f
295.734 336.449 m 294.449 336.449 293.41 337.492 293.41 338.777 c 293.41
 340.062 294.449 341.105 295.734 341.105 c 297.02 341.105 298.062 340.062
 298.062 338.777 c 298.062 337.492 297.02 336.449 295.734 336.449 c h
295.734 336.449 m f
287.949 344.234 m 286.664 344.234 285.625 345.277 285.625 346.562 c 285.625
 347.848 286.664 348.891 287.949 348.891 c 289.234 348.891 290.277 347.848
 290.277 346.562 c 290.277 345.277 289.234 344.234 287.949 344.234 c h
287.949 344.234 m f
295.734 351.453 m 294.449 351.453 293.41 352.496 293.41 353.781 c 293.41
 355.066 294.449 356.109 295.734 356.109 c 297.02 356.109 298.062 355.066
 298.062 353.781 c 298.062 352.496 297.02 351.453 295.734 351.453 c h
295.734 351.453 m f
287.949 359.238 m 286.664 359.238 285.625 360.281 285.625 361.566 c 285.625
 362.852 286.664 363.895 287.949 363.895 c 289.234 363.895 290.277 362.852
 290.277 361.566 c 290.277 360.281 289.234 359.238 287.949 359.238 c h
287.949 359.238 m f
295.734 366.457 m 294.449 366.457 293.41 367.5 293.41 368.785 c 293.41 
369.387 293.645 369.93 294.02 370.344 c 295.371 369.77 296.711 369.168 298.039
 368.555 c 297.922 367.379 296.941 366.457 295.734 366.457 c h
295.734 366.457 m f
280.73 341.105 m 282.016 341.105 283.059 340.062 283.059 338.777 c 283.059
 337.969 282.648 337.262 282.023 336.844 c 280.832 337.48 279.625 338.102
 278.41 338.707 c 278.41 338.73 278.402 338.75 278.402 338.777 c 278.402
 340.062 279.445 341.105 280.73 341.105 c h
280.73 341.105 m f
272.945 344.234 m 271.66 344.234 270.621 345.277 270.621 346.562 c 270.621
 347.848 271.66 348.891 272.945 348.891 c 274.23 348.891 275.273 347.848
 275.273 346.562 c 275.273 345.277 274.23 344.234 272.945 344.234 c h
272.945 344.234 m f
280.73 351.453 m 279.445 351.453 278.406 352.496 278.406 353.781 c 278.406
 355.066 279.445 356.109 280.73 356.109 c 282.016 356.109 283.059 355.066
 283.059 353.781 c 283.059 352.496 282.016 351.453 280.73 351.453 c h
280.73 351.453 m f
272.945 359.238 m 271.66 359.238 270.621 360.281 270.621 361.566 c 270.621
 362.852 271.66 363.895 272.945 363.895 c 274.23 363.895 275.273 362.852
 275.273 361.566 c 275.273 360.281 274.23 359.238 272.945 359.238 c h
272.945 359.238 m f
280.73 366.457 m 279.445 366.457 278.406 367.5 278.406 368.785 c 278.406
 370.07 279.445 371.113 280.73 371.113 c 282.016 371.113 283.059 370.07 
283.059 368.785 c 283.059 367.5 282.016 366.457 280.73 366.457 c h
280.73 366.457 m f
272.945 374.242 m 271.66 374.242 270.621 375.285 270.621 376.57 c 270.621
 376.996 270.742 377.395 270.945 377.738 c 272.391 377.414 273.832 377.074
 275.262 376.703 c 275.262 376.66 275.273 376.617 275.273 376.57 c 275.273
 375.285 274.23 374.242 272.945 374.242 c h
272.945 374.242 m f
257.941 348.887 m 259.227 348.887 260.27 347.848 260.27 346.562 c 260.27
 346.418 260.254 346.277 260.227 346.145 c 258.77 346.617 257.297 347.074
 255.816 347.504 c 256.18 348.316 256.992 348.887 257.941 348.887 c h
257.941 348.887 m f
265.727 351.453 m 264.441 351.453 263.402 352.496 263.402 353.781 c 263.402
 355.066 264.441 356.109 265.727 356.109 c 267.012 356.109 268.055 355.066
 268.055 353.781 c 268.055 352.496 267.012 351.453 265.727 351.453 c h
265.727 351.453 m f
257.941 359.238 m 256.656 359.238 255.617 360.281 255.617 361.566 c 255.617
 362.852 256.656 363.895 257.941 363.895 c 259.227 363.895 260.27 362.852
 260.27 361.566 c 260.27 360.281 259.227 359.238 257.941 359.238 c h
257.941 359.238 m f
265.727 366.457 m 264.441 366.457 263.402 367.5 263.402 368.785 c 263.402
 370.07 264.441 371.113 265.727 371.113 c 267.012 371.113 268.055 370.07
 268.055 368.785 c 268.055 367.5 267.012 366.457 265.727 366.457 c h
265.727 366.457 m f
257.941 374.242 m 256.656 374.242 255.617 375.285 255.617 376.57 c 255.617
 377.855 256.656 378.898 257.941 378.898 c 259.227 378.898 260.27 377.855
 260.27 376.57 c 260.27 375.285 259.227 374.242 257.941 374.242 c h
257.941 374.242 m f
250.723 351.453 m 249.438 351.453 248.398 352.496 248.398 353.781 c 248.398
 355.066 249.438 356.109 250.723 356.109 c 252.008 356.109 253.051 355.066
 253.051 353.781 c 253.051 352.496 252.008 351.453 250.723 351.453 c h
250.723 351.453 m f
242.938 359.238 m 241.652 359.238 240.613 360.281 240.613 361.566 c 240.613
 362.852 241.652 363.895 242.938 363.895 c 244.223 363.895 245.266 362.852
 245.266 361.566 c 245.266 360.281 244.223 359.238 242.938 359.238 c h
242.938 359.238 m f
250.723 366.457 m 249.438 366.457 248.398 367.5 248.398 368.785 c 248.398
 370.07 249.438 371.113 250.723 371.113 c 252.008 371.113 253.051 370.07
 253.051 368.785 c 253.051 367.5 252.008 366.457 250.723 366.457 c h
250.723 366.457 m f
242.938 374.242 m 241.652 374.242 240.613 375.285 240.613 376.57 c 240.613
 377.855 241.652 378.898 242.938 378.898 c 244.223 378.898 245.266 377.855
 245.266 376.57 c 245.266 375.285 244.223 374.242 242.938 374.242 c h
242.938 374.242 m f
233.391 353.781 m 233.391 355.066 234.434 356.109 235.719 356.109 c 237.004
 356.109 238.047 355.066 238.047 353.781 c 238.047 352.738 237.355 351.867
 236.41 351.57 c 235.773 351.656 235.133 351.734 234.488 351.812 c 233.832
 352.223 233.391 352.949 233.391 353.781 c h
233.391 353.781 m f
227.934 359.238 m 226.648 359.238 225.609 360.281 225.609 361.566 c 225.609
 362.852 226.648 363.895 227.934 363.895 c 229.219 363.895 230.262 362.852
 230.262 361.566 c 230.262 360.281 229.219 359.238 227.934 359.238 c h
227.934 359.238 m f
235.719 366.457 m 234.434 366.457 233.395 367.5 233.395 368.785 c 233.395
 370.07 234.434 371.113 235.719 371.113 c 237.004 371.113 238.047 370.07
 238.047 368.785 c 238.047 367.5 237.004 366.457 235.719 366.457 c h
235.719 366.457 m f
227.934 374.242 m 226.648 374.242 225.609 375.285 225.609 376.57 c 225.609
 377.855 226.648 378.898 227.934 378.898 c 229.219 378.898 230.262 377.855
 230.262 376.57 c 230.262 375.285 229.219 374.242 227.934 374.242 c h
227.934 374.242 m f
220.715 356.109 m 222 356.109 223.043 355.066 223.043 353.781 c 223.043
 353.387 222.938 353.023 222.766 352.699 c 221.391 352.742 220.012 352.773
 218.625 352.777 c 218.477 353.082 218.391 353.418 218.391 353.781 c 218.387
 355.066 219.43 356.109 220.715 356.109 c h
220.715 356.109 m f
210.605 361.566 m 210.605 362.852 211.645 363.891 212.93 363.891 c 214.215
 363.891 215.258 362.852 215.258 361.566 c 215.258 360.281 214.215 359.238
 212.93 359.238 c 211.645 359.238 210.605 360.281 210.605 361.566 c h
210.605 361.566 m f
220.715 371.113 m 222 371.113 223.043 370.07 223.043 368.785 c 223.043 
367.5 222 366.457 220.715 366.457 c 219.43 366.457 218.391 367.5 218.391
 368.785 c 218.387 370.07 219.43 371.113 220.715 371.113 c h
220.715 371.113 m f
215.258 376.57 m 215.258 375.285 214.219 374.242 212.934 374.242 c 211.648
 374.242 210.605 375.285 210.605 376.57 c 210.605 376.914 210.684 377.238
 210.82 377.531 c 212.023 377.809 213.23 378.078 214.445 378.324 c 214.938
 377.895 215.258 377.273 215.258 376.57 c h
215.258 376.57 m f
203.383 353.781 m 203.383 355.066 204.426 356.109 205.711 356.109 c 206.996
 356.109 208.039 355.066 208.039 353.781 c 208.039 353.238 207.844 352.746
 207.531 352.348 c 206.41 352.262 205.293 352.156 204.176 352.043 c 203.695
 352.469 203.383 353.086 203.383 353.781 c h
203.383 353.781 m f
195.602 361.566 m 195.602 362.852 196.641 363.891 197.926 363.891 c 199.211
 363.891 200.254 362.852 200.254 361.566 c 200.254 360.281 199.211 359.238
 197.926 359.238 c 196.641 359.238 195.602 360.281 195.602 361.566 c h
195.602 361.566 m f
205.711 366.457 m 204.426 366.457 203.383 367.5 203.383 368.785 c 203.383
 370.07 204.426 371.113 205.711 371.113 c 206.996 371.113 208.039 370.07
 208.039 368.785 c 208.039 367.5 206.996 366.457 205.711 366.457 c h
205.711 366.457 m f
182.922 348.887 m 183.43 348.887 183.895 348.723 184.277 348.445 c 183.109
 348.145 181.949 347.828 180.793 347.492 c 181.152 348.312 181.969 348.887
 182.922 348.887 c h
182.922 348.887 m f
188.379 353.781 m 188.379 355.066 189.422 356.109 190.707 356.109 c 191.992
 356.109 193.035 355.066 193.035 353.781 c 193.035 352.496 191.992 351.453
 190.707 351.453 c 189.422 351.453 188.379 352.496 188.379 353.781 c h
188.379 353.781 m f
180.598 361.566 m 180.598 362.852 181.637 363.891 182.922 363.891 c 184.207
 363.891 185.25 362.852 185.25 361.566 c 185.25 360.281 184.207 359.238 
182.922 359.238 c 181.637 359.238 180.598 360.281 180.598 361.566 c h
180.598 361.566 m f
193.035 368.785 m 193.035 367.5 191.992 366.457 190.707 366.457 c 189.422
 366.457 188.379 367.5 188.379 368.785 c 188.379 369.523 188.734 370.176
 189.27 370.602 c 189.664 370.77 190.062 370.926 190.461 371.086 c 190.543
 371.098 190.625 371.113 190.707 371.113 c 191.992 371.113 193.035 370.07
 193.035 368.785 c h
193.035 368.785 m f
165.594 346.562 m 165.594 347.848 166.633 348.887 167.918 348.887 c 169.203
 348.887 170.246 347.848 170.246 346.562 c 170.246 345.277 169.203 344.234
 167.918 344.234 c 166.633 344.234 165.594 345.277 165.594 346.562 c h
165.594 346.562 m f
173.375 353.781 m 173.375 355.066 174.418 356.109 175.703 356.109 c 176.988
 356.109 178.031 355.066 178.031 353.781 c 178.031 352.496 176.988 351.453
 175.703 351.453 c 174.418 351.453 173.375 352.496 173.375 353.781 c h
173.375 353.781 m f
167.918 359.238 m 167.875 359.238 167.84 359.25 167.797 359.25 c 168.555
 359.742 169.312 360.227 170.078 360.703 c 169.734 359.848 168.898 359.238
 167.918 359.238 c h
167.918 359.238 m f
160.699 341.105 m 161.25 341.105 161.746 340.906 162.145 340.59 c 160.875
 340.008 159.621 339.402 158.375 338.785 c 158.379 340.066 159.418 341.105
 160.699 341.105 c h
160.699 341.105 m f
155.242 346.562 m 155.242 345.277 154.199 344.234 152.914 344.234 c 151.805
 344.234 150.879 345.012 150.648 346.055 c 151.652 346.965 152.672 347.863
 153.703 348.742 c 154.598 348.418 155.242 347.57 155.242 346.562 c h
155.242 346.562 m f
163.027 353.781 m 163.027 352.496 161.984 351.453 160.699 351.453 c 159.793
 351.453 159.016 351.977 158.633 352.734 c 159.836 353.668 161.055 354.582
 162.289 355.473 c 162.742 355.047 163.027 354.449 163.027 353.781 c h
163.027 353.781 m f
140.238 331.559 m 140.238 330.273 139.195 329.23 137.91 329.23 c 137.047
 329.23 136.297 329.707 135.898 330.41 c 136.805 331.539 137.727 332.648
 138.668 333.746 c 139.578 333.434 140.238 332.578 140.238 331.559 c h
140.238 331.559 m f
145.695 341.105 m 146.98 341.105 148.023 340.062 148.023 338.777 c 148.023
 337.492 146.98 336.449 145.695 336.449 c 144.41 336.449 143.367 337.492
 143.367 338.777 c 143.367 338.84 143.383 338.898 143.387 338.961 c 144.066
 339.676 144.754 340.379 145.449 341.078 c 145.531 341.09 145.609 341.105
 145.695 341.105 c h
145.695 341.105 m f
133.02 323.773 m 133.02 322.488 131.977 321.445 130.691 321.445 c 130.262
 321.445 129.863 321.57 129.52 321.773 c 130.387 323.047 131.273 324.305
 132.18 325.547 c 132.691 325.121 133.02 324.488 133.02 323.773 c h
133.02 323.773 m f
0.192157 0.215686 0.239216 rg
241.328 384 m 165.141 384 103.156 322.016 103.156 245.824 c 103.156 169.637
 165.141 107.648 241.328 107.648 c 317.52 107.648 379.504 169.637 379.504
 245.824 c 379.504 322.016 317.52 384 241.328 384 c h
241.328 113.652 m 168.449 113.652 109.156 172.945 109.156 245.824 c 109.156
 318.703 168.449 377.996 241.328 377.996 c 314.211 377.996 373.504 318.703
 373.504 245.824 c 373.504 172.945 314.211 113.652 241.328 113.652 c h
241.328 113.652 m f
172.871 215.824 m 161.043 215.824 151.418 225.449 151.418 237.277 c 151.418
 249.109 161.043 258.73 172.871 258.73 c 184.703 258.73 194.328 249.109 
194.328 237.277 c 194.328 225.449 184.703 215.824 172.871 215.824 c h
172.871 215.824 m f
225.559 177.66 m 225.559 165.828 215.934 156.203 204.102 156.203 c 192.27
 156.203 182.648 165.828 182.648 177.66 c 182.648 189.488 192.27 199.113
 204.102 199.113 c 215.934 199.113 225.559 189.488 225.559 177.66 c h
225.559 177.66 m f
239.59 212.984 m 227.758 212.984 218.137 222.609 218.137 234.441 c 218.137
 246.27 227.758 255.895 239.59 255.895 c 251.418 255.895 261.043 246.27 
261.043 234.441 c 261.043 222.609 251.422 212.984 239.59 212.984 c h
239.59 212.984 m f
Q Q
showpage
%%Trailer
end
%%EOF
