%!PS-Adobe-3.0 EPSF-3.0
%%Creator: cairo 1.16.0 (https://cairographics.org)
%%CreationDate: Wed Jul 15 13:24:07 2020
%%Pages: 1
%%DocumentData: Clean7Bit
%%LanguageLevel: 2
%%BoundingBox: 0 0 384 384
%%EndComments
%%BeginProlog
50 dict begin
/q { gsave } bind def
/Q { grestore } bind def
/cm { 6 array astore concat } bind def
/w { setlinewidth } bind def
/J { setlinecap } bind def
/j { setlinejoin } bind def
/M { setmiterlimit } bind def
/d { setdash } bind def
/m { moveto } bind def
/l { lineto } bind def
/c { curveto } bind def
/h { closepath } bind def
/re { exch dup neg 3 1 roll 5 3 roll moveto 0 rlineto
      0 exch rlineto 0 rlineto closepath } bind def
/S { stroke } bind def
/f { fill } bind def
/f* { eofill } bind def
/n { newpath } bind def
/W { clip } bind def
/W* { eoclip } bind def
/BT { } bind def
/ET { } bind def
/BDC { mark 3 1 roll /BDC pdfmark } bind def
/EMC { mark /EMC pdfmark } bind def
/cairo_store_point { /cairo_point_y exch def /cairo_point_x exch def } def
/Tj { show currentpoint cairo_store_point } bind def
/TJ {
  {
    dup
    type /stringtype eq
    { show } { -0.001 mul 0 cairo_font_matrix dtransform rmoveto } ifelse
  } forall
  currentpoint cairo_store_point
} bind def
/cairo_selectfont { cairo_font_matrix aload pop pop pop 0 0 6 array astore
    cairo_font exch selectfont cairo_point_x cairo_point_y moveto } bind def
/Tf { pop /cairo_font exch def /cairo_font_matrix where
      { pop cairo_selectfont } if } bind def
/Td { matrix translate cairo_font_matrix matrix concatmatrix dup
      /cairo_font_matrix exch def dup 4 get exch 5 get cairo_store_point
      /cairo_font where { pop cairo_selectfont } if } bind def
/Tm { 2 copy 8 2 roll 6 array astore /cairo_font_matrix exch def
      cairo_store_point /cairo_font where { pop cairo_selectfont } if } bind def
/g { setgray } bind def
/rg { setrgbcolor } bind def
/d1 { setcachedevice } bind def
/cairo_data_source {
  CairoDataIndex CairoData length lt
    { CairoData CairoDataIndex get /CairoDataIndex CairoDataIndex 1 add def }
    { () } ifelse
} def
/cairo_flush_ascii85_file { cairo_ascii85_file status { cairo_ascii85_file flushfile } if } def
/cairo_image { image cairo_flush_ascii85_file } def
/cairo_imagemask { imagemask cairo_flush_ascii85_file } def
%%EndProlog
%%BeginSetup
%%EndSetup
%%Page: 1 1
%%BeginPageSetup
%%PageBoundingBox: 0 0 384 384
%%EndPageSetup
q 0 0 384 384 rectclip
1 0 0 -1 0 384 cm q
0.917647 0.658824 0.584314 rg
348.867 35.129 m 299.727 -14.012 211.816 -5.781 152.52 53.516 c 118.625
 87.41 101.414 130.656 102.066 170.66 c 102.312 179.75 l 106.617 241.262
 89.281 270.254 89.281 270.254 c 113.715 294.688 l 113.715 294.688 142.707
 277.348 204.219 281.652 c 213.508 281.934 l 253.469 282.535 296.637 265.324
 330.48 231.48 c 389.777 172.18 398.012 84.273 348.867 35.129 c h
114.918 268.586 m 127.207 222.727 l 135.598 236.285 146.895 247.391 160.777
 256.297 c h
114.918 268.586 m f
0.976471 0.984314 0.988235 rg
328.309 55.66 m 368.059 95.41 361.398 166.52 313.434 214.484 c 265.469 
262.449 194.359 269.109 154.609 229.355 c 114.859 189.605 121.516 118.496
 169.484 70.531 c 192.516 47.5 222.191 32.992 251.977 30.203 c 281.762 27.414
 309.219 36.57 328.309 55.66 c h
328.309 55.66 m f
0.913725 0.760784 0.470588 rg
27.277 378.59 m 5.41 356.719 l 2.191 353.5 2.191 348.281 5.41 345.066 c
 78.922 271.551 l 82.141 268.332 87.359 268.332 90.578 271.551 c 112.445
 293.418 l 115.664 296.637 115.664 301.855 112.445 305.074 c 38.934 378.59
 l 35.715 381.809 30.496 381.809 27.277 378.59 c h
27.277 378.59 m f
0.976471 0.984314 0.988235 rg
103.141 284.109 m 101.227 282.199 l 101.391 283.18 102.16 283.949 103.141
 284.109 c h
103.141 284.109 m f
109.996 290.969 m 109.379 290.352 l 109.547 290.594 109.754 290.805 109.996
 290.969 c h
109.996 290.969 m f
101.191 296.832 m 101.191 298.117 102.23 299.16 103.52 299.16 c 104.805
 299.16 105.848 298.117 105.848 296.832 c 105.848 295.547 104.805 294.504
 103.52 294.504 c 102.23 294.504 101.191 295.547 101.191 296.832 c h
101.191 296.832 m f
111.305 301.727 m 110.02 301.727 108.977 302.77 108.977 304.055 c 108.977
 305.289 109.941 306.289 111.156 306.367 c 112.383 305.141 l 112.855 304.664
 113.254 304.145 113.59 303.598 c 113.375 302.531 112.438 301.727 111.305
 301.727 c h
111.305 301.727 m f
103.52 309.516 m 102.23 309.516 101.191 310.555 101.191 311.844 c 101.191
 313.078 102.152 314.078 103.367 314.156 c 105.832 311.691 l 105.75 310.477
 104.75 309.516 103.52 309.516 c h
103.52 309.516 m f
96.297 291.371 m 97.582 291.371 98.625 290.328 98.625 289.043 c 98.625 
287.758 97.582 286.715 96.297 286.715 c 96.004 286.715 95.723 286.773 95.465
 286.875 c 94.113 288.258 l 94.023 288.504 93.965 288.766 93.965 289.043
 c 93.965 290.328 95.008 291.371 96.297 291.371 c h
96.297 291.371 m f
88.508 299.16 m 89.793 299.16 90.836 298.117 90.836 296.832 c 90.836 295.547
 89.793 294.504 88.508 294.504 c 88.305 294.504 88.113 294.535 87.926 294.586
 c 86.242 296.305 l 86.203 296.477 86.18 296.648 86.18 296.832 c 86.18 298.117
 87.223 299.16 88.508 299.16 c h
88.508 299.16 m f
96.297 301.727 m 95.012 301.727 93.969 302.77 93.969 304.055 c 93.969 305.34
 95.012 306.383 96.297 306.383 c 97.582 306.383 98.625 305.34 98.625 304.055
 c 98.625 302.77 97.582 301.727 96.297 301.727 c h
96.297 301.727 m f
88.508 309.516 m 87.223 309.516 86.18 310.555 86.18 311.844 c 86.18 313.129
 87.223 314.172 88.508 314.172 c 89.793 314.172 90.836 313.129 90.836 311.844
 c 90.836 310.555 89.793 309.516 88.508 309.516 c h
88.508 309.516 m f
96.297 316.734 m 95.012 316.734 93.969 317.777 93.969 319.066 c 93.969 
320.301 94.93 321.297 96.145 321.379 c 98.609 318.914 l 98.527 317.699 97.531
 316.734 96.297 316.734 c h
96.297 316.734 m f
88.508 324.523 m 87.223 324.523 86.18 325.566 86.18 326.855 c 86.18 328.086
 87.141 329.086 88.355 329.168 c 90.82 326.703 l 90.742 325.488 89.742 324.523
 88.508 324.523 c h
88.508 324.523 m f
81.285 306.383 m 82.57 306.383 83.613 305.34 83.613 304.055 c 83.613 302.77
 82.57 301.727 81.285 301.727 c 81.156 301.727 81.031 301.742 80.91 301.762
 c 78.988 303.727 l 78.973 303.836 78.957 303.941 78.957 304.055 c 78.957
 305.34 80 306.383 81.285 306.383 c h
81.285 306.383 m f
73.496 314.172 m 74.781 314.172 75.824 313.129 75.824 311.844 c 75.824 
310.559 74.781 309.516 73.496 309.516 c 73.434 309.516 73.375 309.527 73.312
 309.531 c 71.18 311.715 l 71.18 311.758 71.168 311.797 71.168 311.844 c
 71.168 313.129 72.211 314.172 73.496 314.172 c h
73.496 314.172 m f
81.285 316.734 m 80 316.734 78.957 317.777 78.957 319.066 c 78.957 320.352
 80 321.395 81.285 321.395 c 82.57 321.395 83.613 320.352 83.613 319.066
 c 83.613 317.781 82.57 316.734 81.285 316.734 c h
81.285 316.734 m f
73.496 324.523 m 72.211 324.523 71.168 325.566 71.168 326.855 c 71.168 
328.141 72.211 329.184 73.496 329.184 c 74.781 329.184 75.824 328.141 75.824
 326.855 c 75.824 325.566 74.781 324.523 73.496 324.523 c h
73.496 324.523 m f
81.285 331.746 m 80 331.746 78.957 332.789 78.957 334.074 c 78.957 335.309
 79.918 336.309 81.133 336.387 c 83.598 333.922 l 83.52 332.711 82.52 331.746
 81.285 331.746 c h
81.285 331.746 m f
73.496 339.535 m 72.211 339.535 71.168 340.578 71.168 341.863 c 71.168 
343.098 72.133 344.098 73.344 344.176 c 75.809 341.715 l 75.73 340.5 74.73
 339.535 73.496 339.535 c h
73.496 339.535 m f
66.273 321.395 m 67.559 321.395 68.602 320.352 68.602 319.066 c 68.602 
317.781 67.559 316.734 66.273 316.734 c 66.273 316.734 66.273 316.734 66.27
 316.734 c 63.949 319.109 l 63.977 320.375 65.004 321.395 66.273 321.395
 c h
66.273 321.395 m f
58.484 329.184 m 59.77 329.184 60.812 328.141 60.812 326.855 c 60.812 325.621
 59.852 324.621 58.641 324.539 c 56.176 327.062 l 56.285 328.246 57.27 329.184
 58.484 329.184 c h
58.484 329.184 m f
66.273 331.746 m 64.988 331.746 63.945 332.789 63.945 334.074 c 63.945 
335.363 64.988 336.402 66.273 336.402 c 67.559 336.402 68.602 335.363 68.602
 334.074 c 68.602 332.789 67.559 331.746 66.273 331.746 c h
66.273 331.746 m f
58.484 339.535 m 57.199 339.535 56.156 340.578 56.156 341.863 c 56.156 
343.148 57.199 344.191 58.484 344.191 c 59.77 344.191 60.812 343.148 60.812
 341.863 c 60.812 340.578 59.77 339.535 58.484 339.535 c h
58.484 339.535 m f
66.273 346.758 m 64.988 346.758 63.945 347.801 63.945 349.086 c 63.945 
350.32 64.91 351.32 66.121 351.398 c 68.586 348.934 l 68.508 347.723 67.508
 346.758 66.273 346.758 c h
66.273 346.758 m f
58.484 354.547 m 57.199 354.547 56.156 355.59 56.156 356.875 c 56.156 358.109
 57.121 359.109 58.332 359.188 c 60.797 356.723 l 60.719 355.508 59.719 
354.547 58.484 354.547 c h
58.484 354.547 m f
51.262 336.402 m 52.547 336.402 53.59 335.363 53.59 334.074 c 53.59 332.895
 52.707 331.93 51.566 331.777 c 48.969 334.434 l 49.145 335.547 50.098 336.402
 51.262 336.402 c h
51.262 336.402 m f
43.473 344.191 m 44.762 344.191 45.801 343.148 45.801 341.863 c 45.801 
340.738 45 339.797 43.938 339.582 c 41.207 342.375 l 41.441 343.414 42.363
 344.191 43.473 344.191 c h
43.473 344.191 m f
51.262 346.758 m 49.977 346.758 48.934 347.801 48.934 349.086 c 48.934 
350.371 49.977 351.414 51.262 351.414 c 52.547 351.414 53.59 350.371 53.59
 349.086 c 53.59 347.801 52.547 346.758 51.262 346.758 c h
51.262 346.758 m f
43.473 354.547 m 42.188 354.547 41.145 355.59 41.145 356.875 c 41.145 358.16
 42.188 359.203 43.473 359.203 c 44.762 359.203 45.801 358.16 45.801 356.875
 c 45.801 355.59 44.762 354.547 43.473 354.547 c h
43.473 354.547 m f
51.262 361.77 m 49.977 361.77 48.934 362.812 48.934 364.098 c 48.934 365.332
 49.898 366.332 51.113 366.41 c 53.578 363.945 l 53.496 362.734 52.496 361.77
 51.262 361.77 c h
51.262 361.77 m f
43.473 369.559 m 42.188 369.559 41.145 370.602 41.145 371.887 c 41.145 
373.121 42.109 374.121 43.324 374.199 c 45.789 371.734 l 45.707 370.52 44.707
 369.559 43.473 369.559 c h
43.473 369.559 m f
36.254 351.414 m 37.539 351.414 38.582 350.371 38.582 349.086 c 38.582 
348.004 37.84 347.105 36.84 346.844 c 34.023 349.723 l 34.301 350.699 35.188
 351.414 36.254 351.414 c h
36.254 351.414 m f
28.465 359.203 m 29.75 359.203 30.793 358.16 30.793 356.875 c 30.793 355.844
 30.117 354.977 29.184 354.672 c 26.277 357.648 l 26.598 358.551 27.449 
359.203 28.465 359.203 c h
28.465 359.203 m f
36.254 366.426 m 37.539 366.426 38.582 365.383 38.582 364.098 c 38.582 
362.812 37.539 361.77 36.254 361.77 c 34.965 361.77 33.926 362.812 33.926
 364.098 c 33.922 365.383 34.965 366.426 36.254 366.426 c h
36.254 366.426 m f
30.793 371.887 m 30.793 370.602 29.75 369.555 28.465 369.555 c 27.18 369.555
 26.137 370.598 26.137 371.887 c 26.137 373.172 27.18 374.215 28.465 374.215
 c 29.75 374.215 30.793 373.172 30.793 371.887 c h
30.793 371.887 m f
36.254 376.781 m 34.965 376.781 33.926 377.824 33.926 379.109 c 33.926 
379.785 34.219 380.391 34.68 380.816 c 36.078 380.547 37.422 379.91 38.562
 378.918 c 38.465 377.723 37.473 376.781 36.254 376.781 c h
36.254 376.781 m f
21.242 366.426 m 22.527 366.426 23.57 365.383 23.57 364.098 c 23.57 363.109
 22.953 362.273 22.086 361.934 c 19.094 364.996 l 19.445 365.836 20.273 
366.426 21.242 366.426 c h
21.242 366.426 m f
0.913725 0.760784 0.470588 rg
380.805 326.949 m 380.805 355.352 357.781 378.375 329.379 378.375 c 300.977
 378.375 277.949 355.352 277.949 326.949 c 277.949 298.547 300.977 275.52
 329.379 275.52 c 357.781 275.52 380.805 298.547 380.805 326.949 c h
380.805 326.949 m f
0.976471 0.984314 0.988235 rg
287.477 333 m 284.086 333 280.664 332.609 277.316 331.832 c 275.68 331.457
 274.664 329.824 275.043 328.191 c 275.418 326.559 277.051 325.543 278.684
 325.918 c 281.586 326.59 284.543 326.93 287.477 326.93 c 309.703 326.93
 327.789 308.141 327.789 285.047 c 327.789 282.555 327.57 280.047 327.141
 277.574 c 326.645 277.035 326.34 276.312 326.34 275.523 c 326.34 273.844
 327.699 272.484 329.379 272.484 c 329.496 272.484 329.617 272.488 329.738
 272.492 c 329.871 272.496 l 331.297 272.512 332.523 273.52 332.812 274.914
 c 333.508 278.254 333.859 281.66 333.859 285.047 c 333.859 311.488 313.051
 333 287.477 333 c h
287.477 333 m f
372.355 298.715 m 372.066 298.277 371.77 297.84 371.465 297.41 c 371.605
 297.945 371.922 298.402 372.355 298.715 c h
372.355 298.715 m f
373.715 314.172 m 375 314.172 376.043 313.129 376.043 311.844 c 376.043
 310.559 375 309.516 373.715 309.516 c 372.43 309.516 371.387 310.555 371.387
 311.844 c 371.387 313.129 372.43 314.172 373.715 314.172 c h
373.715 314.172 m f
380.477 321.145 m 380.332 319.871 380.145 318.613 379.91 317.371 c 379.461
 317.797 379.172 318.395 379.172 319.066 c 379.172 319.98 379.707 320.766
 380.477 321.145 c h
380.477 321.145 m f
379.172 334.074 m 379.172 334.797 379.508 335.43 380.02 335.859 c 380.246
 334.57 380.434 333.27 380.559 331.949 c 379.742 332.312 379.172 333.125
 379.172 334.074 c h
379.172 334.074 m f
373.715 339.535 m 372.43 339.535 371.387 340.578 371.387 341.863 c 371.387
 343.148 372.43 344.191 373.715 344.191 c 375 344.191 376.043 343.148 376.043
 341.863 c 376.043 340.578 375 339.535 373.715 339.535 c h
373.715 339.535 m f
371.418 356.551 m 371.809 355.996 372.188 355.434 372.559 354.863 c 371.949
 355.215 371.52 355.824 371.418 356.551 c h
371.418 356.551 m f
366.492 291.371 m 366.496 291.371 l 365.742 290.59 364.969 289.828 364.168
 289.094 c 364.195 290.355 365.223 291.371 366.492 291.371 c h
366.492 291.371 m f
365.164 302.145 m 365.441 303.504 365.664 304.879 365.828 306.273 c 366.039
 306.34 366.258 306.383 366.492 306.383 c 367.777 306.383 368.82 305.34 
368.82 304.055 c 368.82 302.77 367.777 301.727 366.492 301.727 c 365.996
 301.727 365.543 301.883 365.164 302.145 c h
365.164 302.145 m f
366.492 316.734 m 366.316 316.734 366.145 316.758 365.98 316.797 c 365.852
 318.258 365.664 319.699 365.418 321.121 c 365.742 321.289 366.102 321.395
 366.492 321.395 c 367.777 321.395 368.82 320.352 368.82 319.062 c 368.82
 317.781 367.777 316.734 366.492 316.734 c h
366.492 316.734 m f
366.492 331.746 m 365.207 331.746 364.164 332.789 364.164 334.074 c 364.164
 335.363 365.207 336.402 366.492 336.402 c 367.777 336.402 368.82 335.363
 368.82 334.074 c 368.82 332.789 367.777 331.746 366.492 331.746 c h
366.492 331.746 m f
358.703 339.535 m 358.59 339.535 358.48 339.555 358.371 339.57 c 357.762
 340.543 357.121 341.492 356.449 342.418 c 356.699 343.434 357.609 344.191
 358.703 344.191 c 359.988 344.191 361.031 343.148 361.031 341.863 c 361.031
 340.578 359.988 339.535 358.703 339.535 c h
358.703 339.535 m f
366.492 346.758 m 365.207 346.758 364.164 347.801 364.164 349.086 c 364.164
 350.371 365.207 351.414 366.492 351.414 c 367.777 351.414 368.82 350.371
 368.82 349.086 c 368.82 347.801 367.777 346.758 366.492 346.758 c h
366.492 346.758 m f
358.703 354.547 m 357.418 354.547 356.375 355.59 356.375 356.875 c 356.375
 358.16 357.418 359.203 358.703 359.203 c 359.988 359.203 361.031 358.16
 361.031 356.875 c 361.031 355.59 359.988 354.547 358.703 354.547 c h
358.703 354.547 m f
364.164 364.098 m 364.164 364.316 364.203 364.523 364.258 364.727 c 365.25
 363.809 366.203 362.855 367.121 361.867 c 366.918 361.809 366.711 361.77
 366.492 361.77 c 365.203 361.77 364.164 362.812 364.164 364.098 c h
364.164 364.098 m f
357.996 369.68 m 357.602 369.805 357.254 370.027 356.984 370.328 c 357.32
 370.113 357.664 369.902 357.996 369.68 c h
357.996 369.68 m f
352.652 347.086 m 351.641 348.188 350.582 349.246 349.477 350.258 c 349.883
 350.945 350.621 351.414 351.48 351.414 c 352.766 351.414 353.809 350.371
 353.809 349.086 c 353.809 348.23 353.34 347.488 352.652 347.086 c h
352.652 347.086 m f
344.055 354.582 m 343.203 355.176 342.336 355.754 341.445 356.293 c 341.398
 356.48 341.363 356.672 341.363 356.875 c 341.363 358.16 342.406 359.203
 343.691 359.203 c 344.977 359.203 346.02 358.16 346.02 356.875 c 346.02
 355.715 345.168 354.758 344.055 354.582 c h
344.055 354.582 m f
351.48 361.77 m 350.195 361.77 349.152 362.812 349.152 364.098 c 349.152
 365.383 350.195 366.426 351.48 366.426 c 352.766 366.426 353.809 365.383
 353.809 364.098 c 353.809 362.812 352.766 361.77 351.48 361.77 c h
351.48 361.77 m f
343.691 369.559 m 342.406 369.559 341.363 370.602 341.363 371.887 c 341.363
 373.172 342.406 374.215 343.691 374.215 c 344.977 374.215 346.02 373.172
 346.02 371.887 c 346.02 370.602 344.977 369.559 343.691 369.559 c h
343.691 369.559 m f
336.469 361.77 m 335.184 361.77 334.141 362.812 334.141 364.098 c 334.141
 365.383 335.184 366.426 336.469 366.426 c 337.754 366.426 338.797 365.383
 338.797 364.098 c 338.797 362.812 337.754 361.77 336.469 361.77 c h
336.469 361.77 m f
334.363 378.129 m 335.668 378.004 336.957 377.82 338.23 377.602 c 337.801
 377.102 337.176 376.781 336.469 376.781 c 335.535 376.781 334.734 377.336
 334.363 378.129 c h
334.363 378.129 m f
319.203 363.551 m 319.16 363.727 319.129 363.906 319.129 364.098 c 319.129
 365.383 320.172 366.426 321.457 366.426 c 322.746 366.426 323.785 365.383
 323.785 364.098 c 323.785 363.699 323.676 363.328 323.5 363 c 322.086 363.242
 320.652 363.426 319.203 363.551 c h
319.203 363.551 m f
313.672 369.559 m 312.383 369.559 311.344 370.602 311.344 371.887 c 311.344
 373.172 312.383 374.215 313.672 374.215 c 314.957 374.215 316 373.172 316
 371.887 c 316 370.602 314.957 369.559 313.672 369.559 c h
313.672 369.559 m f
321.457 376.781 m 320.809 376.781 320.219 377.047 319.797 377.48 c 321.023
 377.711 322.262 377.895 323.516 378.039 c 323.125 377.293 322.355 376.781
 321.457 376.781 c h
321.457 376.781 m f
304.566 362.734 m 304.289 363.117 304.117 363.586 304.117 364.098 c 304.117
 365.383 305.16 366.426 306.445 366.426 c 307.734 366.426 308.773 365.383
 308.773 364.098 c 308.773 363.848 308.727 363.613 308.652 363.391 c 307.273
 363.227 305.91 363.004 304.566 362.734 c h
304.566 362.734 m f
291.566 361.781 m 292.273 362.551 293.004 363.297 293.758 364.023 c 293.719
 362.816 292.766 361.848 291.566 361.781 c h
291.566 361.781 m f
381.363 323.246 m 378.52 322.699 375.641 322.418 372.805 322.418 c 347.227
 322.418 326.418 343.93 326.418 370.375 c 326.418 370.68 326.434 370.984
 326.441 371.289 c 326.391 371.48 326.352 371.68 326.352 371.887 c 326.352
 372.133 326.402 372.367 326.473 372.59 c 326.57 374.676 326.797 376.781
 327.16 378.871 c 327.414 380.352 328.699 381.391 330.148 381.391 c 330.32
 381.391 330.496 381.375 330.668 381.348 c 332.32 381.062 333.43 379.488
 333.145 377.836 c 332.711 375.34 332.492 372.828 332.492 370.375 c 332.492
 347.531 350.188 328.914 372.082 328.512 c 372.5 328.926 373.078 329.184
 373.715 329.184 c 374.309 329.184 374.848 328.949 375.262 328.582 c 376.91
 328.688 378.566 328.891 380.211 329.211 c 381.859 329.523 383.449 328.449
 383.77 326.805 c 384.086 325.156 383.008 323.566 381.363 323.246 c h
381.363 323.246 m f
0.192157 0.215686 0.239216 rg
114.918 271.625 m 114.121 271.625 113.348 271.312 112.77 270.734 c 112.004
 269.969 111.703 268.848 111.984 267.801 c 124.273 221.941 l 124.586 220.77
 125.562 219.898 126.762 219.723 c 127.957 219.539 129.148 220.098 129.785
 221.129 c 137.742 233.98 148.723 244.953 162.418 253.746 c 163.43 254.395
 163.965 255.578 163.777 256.766 c 163.594 257.953 162.727 258.922 161.562
 259.234 c 115.703 271.52 l 115.445 271.59 115.18 271.625 114.918 271.625
 c h
128.402 229.996 m 119.211 264.293 l 153.594 255.082 l 143.625 247.891 135.188
 239.488 128.402 229.996 c h
128.402 229.996 m f
330.508 53.488 m 310.629 33.609 282.656 24.258 251.734 27.152 c 221.031
 30.027 191.066 44.664 167.367 68.363 c 118.289 117.445 111.613 190.629 
152.492 231.508 c 170.492 249.508 194.75 258.285 220.465 258.285 c 253.145
 258.285 288.168 244.098 315.633 216.633 c 364.715 167.551 371.387 94.367
 330.508 53.488 c h
306.254 213.949 m 263.773 213.949 l 263.773 176.648 l 306.254 176.648 l
 h
303.027 220.023 m 290.867 230.434 277.516 238.371 263.773 243.762 c 263.773
 220.023 l h
166.988 220.023 m 211.09 220.023 l 211.09 251.812 l 194.934 250.348 179.711
 245.043 166.84 235.762 c 166.988 235.762 l h
166.988 213.949 m 166.988 176.648 l 211.09 176.648 l 211.09 213.949 l h
132.59 176.648 m 160.914 176.648 l 160.914 213.949 l 146.035 213.949 l 
138.781 202.812 134.324 190.102 132.59 176.648 c h
166.988 80.512 m 211.09 80.512 l 211.09 119.434 l 166.988 119.434 l h
160.914 119.434 m 140.547 119.434 l 145.383 107.348 152.188 95.574 160.914
 84.664 c h
263.773 32.723 m 279.242 32.887 293.668 36.426 306.254 43.07 c 306.254 
74.441 l 263.773 74.441 l h
306.254 80.512 m 306.254 119.434 l 263.773 119.434 l 263.773 80.512 l h
257.699 119.434 m 217.16 119.434 l 217.16 80.512 l 257.699 80.512 l h
257.699 125.504 m 257.699 170.574 l 217.16 170.574 l 217.16 125.504 l h
211.09 125.504 m 211.09 170.574 l 166.988 170.574 l 166.988 125.504 l h
217.16 176.648 m 257.699 176.648 l 257.699 213.949 l 217.16 213.949 l h
263.773 170.574 m 263.773 125.504 l 306.254 125.504 l 306.254 170.574 l
 h
312.324 125.504 m 351.16 125.504 l 350.602 140.43 346.957 155.797 340.324
 170.574 c 312.324 170.574 l h
312.324 119.434 m 312.324 80.512 l 342.289 80.512 l 348.004 92.422 350.957
 105.672 351.223 119.434 c h
339.059 74.441 m 312.324 74.441 l 312.324 46.609 l 317.316 49.809 321.969
 53.535 326.215 57.781 c 331.273 62.844 335.547 68.438 339.059 74.441 c 
h
252.301 33.199 m 254.113 33.027 255.91 32.906 257.699 32.824 c 257.699 
74.441 l 217.16 74.441 l 217.16 41.996 l 228.527 37.309 240.359 34.316 252.301
 33.199 c h
211.09 44.691 m 211.09 74.441 l 169.914 74.441 l 170.492 73.844 171.07 
73.246 171.66 72.656 c 183.449 60.871 196.84 51.434 211.09 44.691 c h
138.293 125.504 m 160.914 125.504 l 160.914 170.574 l 131.996 170.574 l
 131.004 155.91 133.141 140.543 138.293 125.504 c h
150.398 220.023 m 160.914 220.023 l 160.914 231.062 l 159.504 229.832 158.125
 228.551 156.785 227.211 c 154.496 224.922 152.371 222.52 150.398 220.023
 c h
217.16 252.184 m 217.16 220.023 l 257.699 220.023 l 257.699 245.977 l 244.191
 250.512 230.426 252.602 217.16 252.184 c h
312.324 211.332 m 312.324 176.648 l 337.418 176.648 l 331.145 188.934 322.754
 200.699 312.324 211.332 c h
312.324 211.332 m f
351.016 32.984 m 326.598 8.562 292.219 -2.922 254.219 0.633 c 216.43 4.172
 179.551 22.191 150.371 51.371 c 132.992 68.746 119.66 88.652 110.746 110.527
 c 102.227 131.438 98.215 153.566 99.148 174.531 c 99.324 178.375 l 102.867
 229.027 91.387 258.578 87.727 266.547 c 83.922 265.52 79.691 266.488 76.711
 269.469 c 3.328 342.852 l -1.105 347.285 -1.105 354.5 3.328 358.934 c 25.066
 380.668 l 27.215 382.816 30.07 384 33.105 384 c 36.145 384 39 382.816 41.148
 380.668 c 114.531 307.285 l 117.52 304.297 118.484 300.043 117.441 296.227
 c 125.406 292.559 154.773 281.148 205.352 284.691 c 205.383 284.691 205.414
 284.695 205.449 284.695 c 209.23 284.84 l 230.223 285.809 252.395 281.82
 273.352 273.301 c 295.273 264.387 315.219 251.039 332.629 233.625 c 361.809
 204.449 379.824 167.566 383.363 129.781 c 386.922 91.777 375.434 57.402
 351.016 32.984 c h
36.852 376.375 m 35.852 377.379 34.52 377.93 33.105 377.93 c 31.691 377.93
 30.359 377.379 29.359 376.375 c 7.621 354.641 l 5.555 352.574 5.555 349.211
 7.621 347.145 c 26.43 328.34 l 55.66 357.57 l h
59.953 353.277 m 30.723 324.047 l 55.398 299.371 l 84.629 328.602 l h
110.234 302.992 m 88.922 324.309 l 59.691 295.078 l 81.004 273.762 l 82.039
 272.73 83.395 272.211 84.75 272.211 c 86.105 272.211 87.465 272.73 88.496
 273.762 c 110.234 295.5 l 111.234 296.5 111.789 297.832 111.789 299.246
 c 111.785 300.66 111.234 301.992 110.234 302.992 c h
328.336 229.332 m 294.965 262.699 251.656 280.73 209.488 278.773 c 205.727
 278.629 l 152.281 274.898 122.207 287.16 114.297 290.977 c 92.988 269.668
 l 96.809 261.73 109.125 231.473 105.387 178.023 c 105.211 174.258 l 103.344
 132.188 121.367 88.961 154.664 55.664 c 212.684 -2.355 298.84 -10.605 346.719
 37.277 c 394.602 85.156 386.355 171.312 328.336 229.332 c h
328.336 229.332 m f
329.379 381.41 m 299.348 381.41 274.914 356.98 274.914 326.949 c 274.914
 296.918 299.348 272.484 329.379 272.484 c 359.41 272.484 383.84 296.918
 383.84 326.949 c 383.84 356.98 359.41 381.41 329.379 381.41 c h
329.379 278.559 m 302.695 278.559 280.988 300.266 280.988 326.949 c 280.988
 353.629 302.695 375.34 329.379 375.34 c 356.062 375.34 377.77 353.629 377.77
 326.949 c 377.77 300.266 356.062 278.559 329.379 278.559 c h
329.379 278.559 m f
Q Q
showpage
%%Trailer
end
%%EOF
