%!PS-Adobe-3.0 EPSF-3.0
%%Creator: cairo 1.16.0 (https://cairographics.org)
%%CreationDate: Wed Jul 15 13:24:08 2020
%%Pages: 1
%%DocumentData: Clean7Bit
%%LanguageLevel: 2
%%BoundingBox: 0 93 384 291
%%EndComments
%%BeginProlog
50 dict begin
/q { gsave } bind def
/Q { grestore } bind def
/cm { 6 array astore concat } bind def
/w { setlinewidth } bind def
/J { setlinecap } bind def
/j { setlinejoin } bind def
/M { setmiterlimit } bind def
/d { setdash } bind def
/m { moveto } bind def
/l { lineto } bind def
/c { curveto } bind def
/h { closepath } bind def
/re { exch dup neg 3 1 roll 5 3 roll moveto 0 rlineto
      0 exch rlineto 0 rlineto closepath } bind def
/S { stroke } bind def
/f { fill } bind def
/f* { eofill } bind def
/n { newpath } bind def
/W { clip } bind def
/W* { eoclip } bind def
/BT { } bind def
/ET { } bind def
/BDC { mark 3 1 roll /BDC pdfmark } bind def
/EMC { mark /EMC pdfmark } bind def
/cairo_store_point { /cairo_point_y exch def /cairo_point_x exch def } def
/Tj { show currentpoint cairo_store_point } bind def
/TJ {
  {
    dup
    type /stringtype eq
    { show } { -0.001 mul 0 cairo_font_matrix dtransform rmoveto } ifelse
  } forall
  currentpoint cairo_store_point
} bind def
/cairo_selectfont { cairo_font_matrix aload pop pop pop 0 0 6 array astore
    cairo_font exch selectfont cairo_point_x cairo_point_y moveto } bind def
/Tf { pop /cairo_font exch def /cairo_font_matrix where
      { pop cairo_selectfont } if } bind def
/Td { matrix translate cairo_font_matrix matrix concatmatrix dup
      /cairo_font_matrix exch def dup 4 get exch 5 get cairo_store_point
      /cairo_font where { pop cairo_selectfont } if } bind def
/Tm { 2 copy 8 2 roll 6 array astore /cairo_font_matrix exch def
      cairo_store_point /cairo_font where { pop cairo_selectfont } if } bind def
/g { setgray } bind def
/rg { setrgbcolor } bind def
/d1 { setcachedevice } bind def
/cairo_data_source {
  CairoDataIndex CairoData length lt
    { CairoData CairoDataIndex get /CairoDataIndex CairoDataIndex 1 add def }
    { () } ifelse
} def
/cairo_flush_ascii85_file { cairo_ascii85_file status { cairo_ascii85_file flushfile } if } def
/cairo_image { image cairo_flush_ascii85_file } def
/cairo_imagemask { imagemask cairo_flush_ascii85_file } def
%%EndProlog
%%BeginSetup
%%EndSetup
%%Page: 1 1
%%BeginPageSetup
%%PageBoundingBox: 0 93 384 291
%%EndPageSetup
q 0 93 384 198 rectclip
1 0 0 -1 0 384 cm q
0.913725 0.760784 0.470588 rg
284.734 211.492 m 98.184 211.492 l 91.059 211.492 85.285 205.719 85.285
 198.594 c 85.285 185.406 l 85.285 178.281 91.059 172.508 98.184 172.508
 c 284.734 172.508 l 291.859 172.508 297.637 178.281 297.637 185.406 c 297.637
 198.594 l 297.637 205.719 291.859 211.492 284.734 211.492 c h
284.734 211.492 m f
0.976471 0.984314 0.988235 rg
155.074 172.543 m 155.199 172.543 155.324 172.527 155.445 172.508 c 154.703
 172.508 l 154.824 172.527 154.945 172.543 155.074 172.543 c h
155.074 172.543 m f
162.863 175.109 m 161.574 175.109 160.535 176.152 160.535 177.441 c 160.535
 178.727 161.574 179.77 162.863 179.77 c 164.148 179.77 165.191 178.727 
165.191 177.441 c 165.191 176.152 164.148 175.109 162.863 175.109 c h
162.863 175.109 m f
155.074 182.898 m 153.785 182.898 152.746 183.941 152.746 185.227 c 152.746
 186.512 153.785 187.555 155.074 187.555 c 156.359 187.555 157.402 186.512
 157.402 185.227 c 157.402 183.941 156.359 182.898 155.074 182.898 c h
155.074 182.898 m f
162.863 194.777 m 164.148 194.777 165.191 193.738 165.191 192.449 c 165.191
 191.164 164.148 190.121 162.863 190.121 c 161.574 190.121 160.535 191.164
 160.535 192.449 c 160.531 193.738 161.574 194.777 162.863 194.777 c h
162.863 194.777 m f
155.074 197.91 m 153.785 197.91 152.746 198.953 152.746 200.238 c 152.746
 201.527 153.785 202.566 155.074 202.566 c 156.359 202.566 157.402 201.523
 157.402 200.238 c 157.402 198.953 156.359 197.91 155.074 197.91 c h
155.074 197.91 m f
162.863 209.789 m 164.148 209.789 165.191 208.75 165.191 207.461 c 165.191
 206.176 164.148 205.133 162.863 205.133 c 161.574 205.133 160.535 206.176
 160.535 207.461 c 160.531 208.75 161.574 209.789 162.863 209.789 c h
162.863 209.789 m f
140.062 172.543 m 140.188 172.543 140.312 172.527 140.434 172.508 c 139.688
 172.508 l 139.812 172.527 139.934 172.543 140.062 172.543 c h
140.062 172.543 m f
147.852 175.109 m 146.562 175.109 145.523 176.152 145.523 177.441 c 145.523
 178.727 146.562 179.77 147.852 179.77 c 149.137 179.77 150.18 178.727 150.18
 177.441 c 150.18 176.152 149.137 175.109 147.852 175.109 c h
147.852 175.109 m f
140.062 182.898 m 138.773 182.898 137.734 183.941 137.734 185.227 c 137.734
 186.512 138.773 187.555 140.062 187.555 c 141.348 187.555 142.391 186.512
 142.391 185.227 c 142.391 183.941 141.348 182.898 140.062 182.898 c h
140.062 182.898 m f
147.852 190.121 m 146.562 190.121 145.523 191.164 145.523 192.453 c 145.523
 193.738 146.562 194.781 147.852 194.781 c 149.137 194.781 150.18 193.738
 150.18 192.453 c 150.18 191.164 149.137 190.121 147.852 190.121 c h
147.852 190.121 m f
140.062 197.91 m 138.773 197.91 137.734 198.953 137.734 200.238 c 137.734
 201.527 138.773 202.566 140.062 202.566 c 141.348 202.566 142.391 201.523
 142.391 200.238 c 142.391 198.953 141.348 197.91 140.062 197.91 c h
140.062 197.91 m f
147.852 205.133 m 146.562 205.133 145.523 206.176 145.523 207.465 c 145.523
 208.75 146.562 209.793 147.852 209.793 c 149.137 209.793 150.18 208.75 
150.18 207.465 c 150.18 206.176 149.137 205.133 147.852 205.133 c h
147.852 205.133 m f
125.051 172.543 m 125.176 172.543 125.301 172.527 125.422 172.508 c 124.676
 172.508 l 124.801 172.527 124.922 172.543 125.051 172.543 c h
125.051 172.543 m f
132.84 175.109 m 131.551 175.109 130.508 176.152 130.508 177.441 c 130.508
 178.727 131.551 179.77 132.84 179.77 c 134.125 179.77 135.168 178.727 135.168
 177.441 c 135.168 176.152 134.125 175.109 132.84 175.109 c h
132.84 175.109 m f
125.051 182.898 m 123.762 182.898 122.723 183.941 122.723 185.227 c 122.723
 186.512 123.762 187.555 125.051 187.555 c 126.336 187.555 127.379 186.512
 127.379 185.227 c 127.379 183.941 126.336 182.898 125.051 182.898 c h
125.051 182.898 m f
132.84 190.121 m 131.551 190.121 130.508 191.164 130.508 192.453 c 130.508
 193.738 131.551 194.781 132.84 194.781 c 134.125 194.781 135.168 193.738
 135.168 192.453 c 135.168 191.164 134.125 190.121 132.84 190.121 c h
132.84 190.121 m f
125.051 197.91 m 123.762 197.91 122.723 198.953 122.723 200.238 c 122.723
 201.527 123.762 202.566 125.051 202.566 c 126.336 202.566 127.379 201.523
 127.379 200.238 c 127.379 198.953 126.336 197.91 125.051 197.91 c h
125.051 197.91 m f
132.84 205.133 m 131.551 205.133 130.508 206.176 130.508 207.465 c 130.508
 208.75 131.551 209.793 132.84 209.793 c 134.125 209.793 135.168 208.75 
135.168 207.465 c 135.168 206.176 134.125 205.133 132.84 205.133 c h
132.84 205.133 m f
110.039 172.543 m 110.164 172.543 110.289 172.527 110.41 172.508 c 109.664
 172.508 l 109.789 172.527 109.91 172.543 110.039 172.543 c h
110.039 172.543 m f
117.828 175.109 m 116.539 175.109 115.496 176.152 115.496 177.441 c 115.496
 178.727 116.539 179.77 117.828 179.77 c 119.113 179.77 120.156 178.727 
120.156 177.441 c 120.156 176.152 119.113 175.109 117.828 175.109 c h
117.828 175.109 m f
110.039 182.898 m 108.75 182.898 107.711 183.941 107.711 185.227 c 107.711
 186.512 108.75 187.555 110.039 187.555 c 111.324 187.555 112.367 186.512
 112.367 185.227 c 112.367 183.941 111.324 182.898 110.039 182.898 c h
110.039 182.898 m f
117.828 190.121 m 116.539 190.121 115.496 191.164 115.496 192.453 c 115.496
 193.738 116.539 194.781 117.828 194.781 c 119.113 194.781 120.156 193.738
 120.156 192.453 c 120.156 191.164 119.113 190.121 117.828 190.121 c h
117.828 190.121 m f
110.039 197.91 m 108.75 197.91 107.711 198.953 107.711 200.238 c 107.711
 201.527 108.75 202.566 110.039 202.566 c 111.324 202.566 112.367 201.523
 112.367 200.238 c 112.367 198.953 111.324 197.91 110.039 197.91 c h
110.039 197.91 m f
117.828 205.133 m 116.539 205.133 115.496 206.176 115.496 207.465 c 115.496
 208.75 116.539 209.793 117.828 209.793 c 119.113 209.793 120.156 208.75
 120.156 207.465 c 120.156 206.176 119.113 205.133 117.828 205.133 c h
117.828 205.133 m f
102.812 175.109 m 101.527 175.109 100.484 176.152 100.484 177.441 c 100.484
 178.727 101.527 179.77 102.812 179.77 c 104.102 179.77 105.145 178.727 
105.145 177.441 c 105.145 176.152 104.102 175.109 102.812 175.109 c h
102.812 175.109 m f
95.027 182.898 m 93.738 182.898 92.695 183.941 92.695 185.227 c 92.695 
186.512 93.738 187.555 95.027 187.555 c 96.312 187.555 97.355 186.512 97.355
 185.227 c 97.355 183.941 96.312 182.898 95.027 182.898 c h
95.027 182.898 m f
102.812 190.121 m 101.527 190.121 100.484 191.164 100.484 192.453 c 100.484
 193.738 101.527 194.781 102.812 194.781 c 104.102 194.781 105.145 193.738
 105.145 192.453 c 105.145 191.164 104.102 190.121 102.812 190.121 c h
102.812 190.121 m f
97.355 200.238 m 97.355 198.953 96.312 197.91 95.027 197.91 c 93.742 197.91
 92.699 198.953 92.699 200.238 c 92.699 201.527 93.742 202.566 95.027 202.566
 c 96.312 202.566 97.355 201.523 97.355 200.238 c h
97.355 200.238 m f
102.812 209.789 m 104.102 209.789 105.145 208.75 105.145 207.461 c 105.145
 206.176 104.102 205.133 102.812 205.133 c 101.527 205.133 100.484 206.176
 100.484 207.461 c 100.484 208.75 101.527 209.789 102.812 209.789 c h
102.812 209.789 m f
86.703 179.48 m 87.031 179.656 87.402 179.766 87.801 179.766 c 89.086 179.766
 90.129 178.727 90.129 177.438 c 90.129 176.797 89.871 176.219 89.453 175.797
 c 88.34 176.836 87.402 178.082 86.703 179.48 c h
86.703 179.48 m f
87.801 194.777 m 89.09 194.777 90.133 193.738 90.133 192.449 c 90.133 191.164
 89.09 190.121 87.801 190.121 c 86.516 190.121 85.473 191.164 85.473 192.449
 c 85.473 193.738 86.516 194.777 87.801 194.777 c h
87.801 194.777 m f
89.84 208.566 m 90.02 208.234 90.133 207.863 90.133 207.461 c 90.133 206.176
 89.09 205.133 87.801 205.133 c 87.559 205.133 87.328 205.18 87.109 205.25
 c 87.84 206.512 88.758 207.637 89.84 208.566 c h
89.84 208.566 m f
0.192157 0.215686 0.239216 rg
367.18 122.145 m 340.039 122.145 l 340.039 110.176 l 340.039 100.902 332.492
 93.359 323.219 93.359 c 273.652 93.359 l 264.375 93.359 256.832 100.902
 256.832 110.176 c 256.832 169.477 l 127.168 169.477 l 127.168 110.176 l
 127.168 100.902 119.625 93.359 110.348 93.359 c 60.781 93.359 l 51.508 
93.359 43.961 100.902 43.961 110.176 c 43.961 122.145 l 16.82 122.145 l 
7.547 122.145 0 129.688 0 138.961 c 0 245.035 l 0 254.312 7.547 261.855 
16.82 261.855 c 43.961 261.855 l 43.961 273.824 l 43.961 283.098 51.508 
290.641 60.781 290.641 c 110.348 290.641 l 119.625 290.641 127.168 283.098
 127.168 273.824 c 127.168 214.523 l 256.832 214.523 l 256.832 273.824 l
 256.832 283.098 264.375 290.641 273.648 290.641 c 323.215 290.641 l 332.492
 290.641 340.035 283.098 340.035 273.824 c 340.035 261.855 l 367.18 261.855
 l 376.453 261.855 384 254.312 384 245.035 c 384 138.961 l 384 129.688 376.453
 122.145 367.18 122.145 c h
127.168 208.461 m 127.168 175.539 l 256.832 175.539 l 256.832 208.461 l
 h
127.168 208.461 m f
Q Q
showpage
%%Trailer
end
%%EOF
