%!PS-Adobe-3.0 EPSF-3.0
%%Creator: cairo 1.16.0 (https://cairographics.org)
%%CreationDate: Wed Jul 15 13:24:11 2020
%%Pages: 1
%%DocumentData: Clean7Bit
%%LanguageLevel: 2
%%BoundingBox: 0 22 384 362
%%EndComments
%%BeginProlog
50 dict begin
/q { gsave } bind def
/Q { grestore } bind def
/cm { 6 array astore concat } bind def
/w { setlinewidth } bind def
/J { setlinecap } bind def
/j { setlinejoin } bind def
/M { setmiterlimit } bind def
/d { setdash } bind def
/m { moveto } bind def
/l { lineto } bind def
/c { curveto } bind def
/h { closepath } bind def
/re { exch dup neg 3 1 roll 5 3 roll moveto 0 rlineto
      0 exch rlineto 0 rlineto closepath } bind def
/S { stroke } bind def
/f { fill } bind def
/f* { eofill } bind def
/n { newpath } bind def
/W { clip } bind def
/W* { eoclip } bind def
/BT { } bind def
/ET { } bind def
/BDC { mark 3 1 roll /BDC pdfmark } bind def
/EMC { mark /EMC pdfmark } bind def
/cairo_store_point { /cairo_point_y exch def /cairo_point_x exch def } def
/Tj { show currentpoint cairo_store_point } bind def
/TJ {
  {
    dup
    type /stringtype eq
    { show } { -0.001 mul 0 cairo_font_matrix dtransform rmoveto } ifelse
  } forall
  currentpoint cairo_store_point
} bind def
/cairo_selectfont { cairo_font_matrix aload pop pop pop 0 0 6 array astore
    cairo_font exch selectfont cairo_point_x cairo_point_y moveto } bind def
/Tf { pop /cairo_font exch def /cairo_font_matrix where
      { pop cairo_selectfont } if } bind def
/Td { matrix translate cairo_font_matrix matrix concatmatrix dup
      /cairo_font_matrix exch def dup 4 get exch 5 get cairo_store_point
      /cairo_font where { pop cairo_selectfont } if } bind def
/Tm { 2 copy 8 2 roll 6 array astore /cairo_font_matrix exch def
      cairo_store_point /cairo_font where { pop cairo_selectfont } if } bind def
/g { setgray } bind def
/rg { setrgbcolor } bind def
/d1 { setcachedevice } bind def
/cairo_data_source {
  CairoDataIndex CairoData length lt
    { CairoData CairoDataIndex get /CairoDataIndex CairoDataIndex 1 add def }
    { () } ifelse
} def
/cairo_flush_ascii85_file { cairo_ascii85_file status { cairo_ascii85_file flushfile } if } def
/cairo_image { image cairo_flush_ascii85_file } def
/cairo_imagemask { imagemask cairo_flush_ascii85_file } def
%%EndProlog
%%BeginSetup
%%EndSetup
%%Page: 1 1
%%BeginPageSetup
%%PageBoundingBox: 0 22 384 362
%%EndPageSetup
q 0 22 384 340 rectclip
1 0 0 -1 0 384 cm q
0.917647 0.658824 0.584314 rg
368.027 285.879 m 15.973 285.879 l 8.809 285.879 3 280.07 3 272.906 c 3
 38.543 l 3 31.379 8.809 25.57 15.973 25.57 c 368.027 25.57 l 375.191 25.57
 381 31.379 381 38.543 c 381 272.906 l 381 280.07 375.191 285.879 368.027
 285.879 c h
368.027 285.879 m f
0.976471 0.984314 0.988235 rg
351.785 49.109 m 32.215 49.109 l 29.012 49.109 26.414 51.707 26.414 54.91
 c 26.414 257.148 l 26.414 260.352 29.012 262.949 32.215 262.949 c 119.477
 262.949 l 147.84 353.898 l 166.758 335.961 l 188.613 357.816 l 209.668 
336.16 l 226.613 353.898 l 260.672 262.949 l 351.785 262.949 l 354.988 262.949
 357.586 260.352 357.586 257.148 c 357.586 54.91 l 357.586 51.707 354.988
 49.109 351.785 49.109 c h
351.785 49.109 m f
0.913725 0.760784 0.470588 rg
274.047 235.273 m 109.488 235.273 l 103.516 235.273 98.672 230.43 98.672
 224.453 c 98.672 221.973 l 98.672 215.996 103.516 211.152 109.488 211.152
 c 274.047 211.152 l 280.023 211.152 284.867 215.996 284.867 221.973 c 284.867
 224.453 l 284.867 230.43 280.023 235.273 274.047 235.273 c h
274.047 235.273 m f
0.976471 0.984314 0.988235 rg
279.145 222.895 m 279.516 223.68 280.312 224.227 281.242 224.227 c 282.168
 224.227 282.965 223.68 283.336 222.895 c h
279.145 222.895 m f
266.238 224.227 m 267.164 224.227 267.961 223.68 268.332 222.895 c 264.141
 222.895 l 264.516 223.68 265.309 224.227 266.238 224.227 c h
266.238 224.227 m f
276.348 229.121 m 276.348 227.836 275.305 226.793 274.023 226.793 c 272.738
 226.793 271.695 227.836 271.695 229.121 c 271.695 230.406 272.738 231.445
 274.023 231.445 c 275.305 231.445 276.348 230.406 276.348 229.121 c h
276.348 229.121 m f
266.238 234.578 m 265.586 234.578 265 234.844 264.578 235.273 c 267.895
 235.273 l 267.473 234.844 266.887 234.578 266.238 234.578 c h
266.238 234.578 m f
251.234 224.227 m 252.16 224.227 252.957 223.68 253.332 222.895 c 249.137
 222.895 l 249.512 223.68 250.305 224.227 251.234 224.227 c h
251.234 224.227 m f
256.691 229.121 m 256.691 230.406 257.73 231.445 259.016 231.445 c 260.301
 231.445 261.344 230.406 261.344 229.121 c 261.344 227.836 260.301 226.793
 259.016 226.793 c 257.73 226.793 256.691 227.836 256.691 229.121 c h
256.691 229.121 m f
251.234 234.578 m 250.586 234.578 249.996 234.844 249.574 235.273 c 252.891
 235.273 l 252.469 234.844 251.883 234.578 251.234 234.578 c h
251.234 234.578 m f
236.23 224.227 m 237.16 224.227 237.953 223.68 238.328 222.895 c 234.133
 222.895 l 234.508 223.68 235.301 224.227 236.23 224.227 c h
236.23 224.227 m f
241.688 229.121 m 241.688 230.406 242.73 231.445 244.016 231.445 c 245.301
 231.445 246.34 230.406 246.34 229.121 c 246.34 227.836 245.301 226.793 
244.016 226.793 c 242.73 226.793 241.688 227.836 241.688 229.121 c h
241.688 229.121 m f
236.23 234.578 m 235.582 234.578 234.992 234.844 234.57 235.273 c 237.887
 235.273 l 237.465 234.844 236.879 234.578 236.23 234.578 c h
236.23 234.578 m f
221.227 224.227 m 222.156 224.227 222.949 223.68 223.324 222.895 c 219.133
 222.895 l 219.504 223.68 220.301 224.227 221.227 224.227 c h
221.227 224.227 m f
226.684 229.121 m 226.684 230.406 227.727 231.445 229.012 231.445 c 230.297
 231.445 231.336 230.406 231.336 229.121 c 231.336 227.836 230.297 226.793
 229.012 226.793 c 227.727 226.793 226.684 227.836 226.684 229.121 c h
226.684 229.121 m f
221.227 234.578 m 220.578 234.578 219.992 234.844 219.566 235.273 c 222.887
 235.273 l 222.465 234.844 221.875 234.578 221.227 234.578 c h
221.227 234.578 m f
206.223 224.227 m 207.152 224.227 207.945 223.68 208.32 222.895 c 204.129
 222.895 l 204.5 223.68 205.297 224.227 206.223 224.227 c h
206.223 224.227 m f
211.68 229.121 m 211.68 230.406 212.723 231.445 214.008 231.445 c 215.293
 231.445 216.336 230.406 216.336 229.121 c 216.336 227.836 215.293 226.793
 214.008 226.793 c 212.723 226.793 211.68 227.836 211.68 229.121 c h
211.68 229.121 m f
206.223 234.578 m 205.574 234.578 204.988 234.844 204.566 235.273 c 207.883
 235.273 l 207.461 234.844 206.875 234.578 206.223 234.578 c h
206.223 234.578 m f
191.219 224.227 m 192.148 224.227 192.941 223.68 193.316 222.895 c 189.125
 222.895 l 189.496 223.68 190.293 224.227 191.219 224.227 c h
191.219 224.227 m f
196.676 229.121 m 196.676 230.406 197.719 231.445 199.004 231.445 c 200.289
 231.445 201.332 230.406 201.332 229.121 c 201.332 227.836 200.289 226.793
 199.004 226.793 c 197.719 226.793 196.676 227.836 196.676 229.121 c h
196.676 229.121 m f
191.219 234.578 m 190.57 234.578 189.984 234.844 189.562 235.273 c 192.879
 235.273 l 192.457 234.844 191.871 234.578 191.219 234.578 c h
191.219 234.578 m f
176.219 224.227 m 177.145 224.227 177.938 223.68 178.312 222.895 c 174.121
 222.895 l 174.492 223.68 175.289 224.227 176.219 224.227 c h
176.219 224.227 m f
181.672 229.121 m 181.672 230.406 182.715 231.445 184 231.445 c 185.285
 231.445 186.328 230.406 186.328 229.121 c 186.328 227.836 185.285 226.793
 184 226.793 c 182.715 226.793 181.672 227.836 181.672 229.121 c h
181.672 229.121 m f
176.219 234.578 m 175.566 234.578 174.98 234.844 174.559 235.273 c 177.875
 235.273 l 177.453 234.844 176.867 234.578 176.219 234.578 c h
176.219 234.578 m f
161.215 224.227 m 162.141 224.227 162.938 223.68 163.309 222.895 c 159.117
 222.895 l 159.492 223.68 160.285 224.227 161.215 224.227 c h
161.215 224.227 m f
166.672 229.121 m 166.672 230.406 167.711 231.445 168.996 231.445 c 170.281
 231.445 171.324 230.406 171.324 229.121 c 171.324 227.836 170.281 226.793
 168.996 226.793 c 167.711 226.793 166.672 227.836 166.672 229.121 c h
166.672 229.121 m f
161.215 234.578 m 160.562 234.578 159.977 234.844 159.555 235.273 c 162.871
 235.273 l 162.449 234.844 161.863 234.578 161.215 234.578 c h
161.215 234.578 m f
146.211 224.227 m 147.137 224.227 147.934 223.68 148.309 222.895 c 144.113
 222.895 l 144.488 223.68 145.281 224.227 146.211 224.227 c h
146.211 224.227 m f
151.668 229.121 m 151.668 230.406 152.707 231.445 153.992 231.445 c 155.277
 231.445 156.32 230.406 156.32 229.121 c 156.32 227.836 155.277 226.793 
153.992 226.793 c 152.707 226.793 151.668 227.836 151.668 229.121 c h
151.668 229.121 m f
146.211 234.578 m 145.559 234.578 144.973 234.844 144.551 235.273 c 147.867
 235.273 l 147.445 234.844 146.859 234.578 146.211 234.578 c h
146.211 234.578 m f
131.207 224.227 m 132.133 224.227 132.93 223.68 133.305 222.895 c 129.109
 222.895 l 129.484 223.68 130.277 224.227 131.207 224.227 c h
131.207 224.227 m f
136.664 229.121 m 136.664 230.406 137.707 231.445 138.992 231.445 c 140.277
 231.445 141.316 230.406 141.316 229.121 c 141.316 227.836 140.277 226.793
 138.992 226.793 c 137.707 226.793 136.664 227.836 136.664 229.121 c h
136.664 229.121 m f
131.207 234.578 m 130.559 234.578 129.969 234.844 129.547 235.273 c 132.863
 235.273 l 132.441 234.844 131.855 234.578 131.207 234.578 c h
131.207 234.578 m f
116.203 224.227 m 117.133 224.227 117.926 223.68 118.301 222.895 c 114.105
 222.895 l 114.48 223.68 115.277 224.227 116.203 224.227 c h
116.203 224.227 m f
121.66 229.121 m 121.66 230.406 122.703 231.445 123.988 231.445 c 125.273
 231.445 126.312 230.406 126.312 229.121 c 126.312 227.836 125.273 226.793
 123.988 226.793 c 122.703 226.793 121.66 227.836 121.66 229.121 c h
121.66 229.121 m f
116.203 234.578 m 115.555 234.578 114.969 234.844 114.543 235.273 c 117.859
 235.273 l 117.441 234.844 116.852 234.578 116.203 234.578 c h
116.203 234.578 m f
103.297 222.895 m 99.102 222.895 l 99.477 223.68 100.273 224.227 101.199
 224.227 c 102.129 224.227 102.922 223.68 103.297 222.895 c h
103.297 222.895 m f
111.312 229.121 m 111.312 227.836 110.27 226.793 108.984 226.793 c 107.699
 226.793 106.656 227.836 106.656 229.121 c 106.656 230.406 107.699 231.445
 108.984 231.445 c 110.27 231.445 111.312 230.406 111.312 229.121 c h
111.312 229.121 m f
0.192157 0.215686 0.239216 rg
368.035 22.57 m 15.965 22.57 l 7.16 22.57 0 29.734 0 38.535 c 0 272.914
 l 0 281.719 7.16 288.879 15.965 288.879 c 123.484 288.879 l 144.352 355.438
 l 144.75 356.719 145.934 357.539 147.211 357.539 c 147.27 357.539 147.328
 357.531 147.387 357.527 c 148.227 357.578 149.062 357.285 149.676 356.688
 c 166.883 339.906 l 186.93 360.52 l 187.492 361.102 188.27 361.43 189.078
 361.43 c 189.094 361.43 189.113 361.43 189.129 361.426 c 189.957 361.414
 190.738 361.059 191.297 360.445 c 209.418 340.527 l 224.777 356.609 l 225.402
 357.266 226.289 357.598 227.18 357.527 c 227.227 357.527 227.27 357.539
 227.316 357.539 c 228.516 357.539 229.648 356.812 230.109 355.629 c 245.707
 315.559 l 246.121 315.051 246.352 314.445 246.383 313.824 c 256.09 288.879
 l 368.035 288.879 l 376.84 288.879 384 281.719 384 272.914 c 384 38.535
 l 384 29.734 376.84 22.57 368.035 22.57 c h
247.512 261.277 m 267.68 241.609 l 256.52 270.285 l h
274.055 214.152 m 278.363 214.152 281.867 217.656 281.867 221.965 c 281.867
 224.461 l 281.867 228.77 278.363 232.277 274.055 232.277 c 109.484 232.277
 l 105.176 232.277 101.668 228.77 101.668 224.461 c 101.668 221.965 l 101.668
 217.656 105.176 214.152 109.484 214.152 c h
124.414 208.156 m 124.414 119.008 l 259.125 119.008 l 259.125 208.156 l
 h
207.008 238.273 m 189.184 255.215 l 172.242 238.273 l h
153.145 238.273 m 135.156 254.078 l 120.066 238.273 l h
162.23 238.273 m 163.762 238.273 l 184.836 259.348 l 161.43 281.59 l 139.305
 258.422 l h
189.078 263.59 m 212.516 287.027 l 188.754 310.203 l 165.57 285.93 l h
193.426 259.457 m 215.715 238.273 l 216.023 238.273 l 238.977 261.223 l
 216.809 282.84 l h
224.508 238.273 m 262.512 238.273 l 243.27 257.035 l h
275.836 238.145 m 282.609 237.266 287.863 231.473 287.863 224.461 c 287.863
 221.965 l 287.863 214.352 281.668 208.156 274.055 208.156 c 265.121 208.156
 l 265.121 116.008 l 265.121 114.352 263.777 113.012 262.121 113.012 c 121.414
 113.012 l 119.758 113.012 118.418 114.352 118.418 116.008 c 118.418 208.156
 l 109.484 208.156 l 101.867 208.156 95.672 214.348 95.672 221.965 c 95.672
 224.461 l 95.672 231.426 100.859 237.188 107.57 238.125 c 114.414 259.953
 l 32.215 259.953 l 30.672 259.953 29.414 258.695 29.414 257.152 c 29.414
 54.91 l 29.414 53.367 30.672 52.109 32.215 52.109 c 351.785 52.109 l 353.332
 52.109 354.586 53.367 354.586 54.91 c 354.586 257.148 l 354.586 258.695
 353.332 259.953 351.785 259.953 c 267.348 259.953 l h
115.496 242.176 m 130.648 258.043 l 122.668 265.055 l h
124.633 271.312 m 134.793 262.383 l 157.082 285.723 l 135.562 306.176 l
 h
148.984 348.984 m 137.562 312.551 l 161.227 290.059 l 184.457 314.391 l
 h
189.008 354.055 m 171.176 335.719 l 188.602 318.727 l 205.266 336.18 l 
h
225.859 349.062 m 192.895 314.539 l 216.758 291.27 l 239.5 314.012 l h
241.875 307.906 m 221.051 287.082 l 243.219 265.465 l 254.145 276.391 l
 h
378.004 272.914 m 378.004 278.41 373.531 282.883 368.035 282.883 c 258.422
 282.883 l 260.203 278.312 l 260.219 278.297 260.242 278.285 260.258 278.266
 c 260.895 277.633 261.172 276.785 261.117 275.957 c 265.012 265.949 l 351.785
 265.949 l 356.637 265.949 360.582 262.004 360.582 257.148 c 360.582 54.91
 l 360.582 50.059 356.637 46.113 351.785 46.113 c 32.215 46.113 l 27.363
 46.113 23.418 50.059 23.418 54.91 c 23.418 257.148 l 23.418 262 27.363 
265.949 32.215 265.949 c 116.293 265.949 l 121.602 282.883 l 15.965 282.883
 l 10.469 282.883 5.996 278.41 5.996 272.914 c 5.996 38.535 l 5.996 33.039
 10.469 28.57 15.965 28.57 c 368.035 28.57 l 373.531 28.57 378.004 33.039
 378.004 38.535 c h
378.004 272.914 m f
Q Q
showpage
%%Trailer
end
%%EOF
