%!PS-Adobe-3.0 EPSF-3.0
%%Creator: cairo 1.16.0 (https://cairographics.org)
%%CreationDate: Wed Jul 15 13:24:14 2020
%%Pages: 1
%%DocumentData: Clean7Bit
%%LanguageLevel: 2
%%BoundingBox: 0 0 384 384
%%EndComments
%%BeginProlog
50 dict begin
/q { gsave } bind def
/Q { grestore } bind def
/cm { 6 array astore concat } bind def
/w { setlinewidth } bind def
/J { setlinecap } bind def
/j { setlinejoin } bind def
/M { setmiterlimit } bind def
/d { setdash } bind def
/m { moveto } bind def
/l { lineto } bind def
/c { curveto } bind def
/h { closepath } bind def
/re { exch dup neg 3 1 roll 5 3 roll moveto 0 rlineto
      0 exch rlineto 0 rlineto closepath } bind def
/S { stroke } bind def
/f { fill } bind def
/f* { eofill } bind def
/n { newpath } bind def
/W { clip } bind def
/W* { eoclip } bind def
/BT { } bind def
/ET { } bind def
/BDC { mark 3 1 roll /BDC pdfmark } bind def
/EMC { mark /EMC pdfmark } bind def
/cairo_store_point { /cairo_point_y exch def /cairo_point_x exch def } def
/Tj { show currentpoint cairo_store_point } bind def
/TJ {
  {
    dup
    type /stringtype eq
    { show } { -0.001 mul 0 cairo_font_matrix dtransform rmoveto } ifelse
  } forall
  currentpoint cairo_store_point
} bind def
/cairo_selectfont { cairo_font_matrix aload pop pop pop 0 0 6 array astore
    cairo_font exch selectfont cairo_point_x cairo_point_y moveto } bind def
/Tf { pop /cairo_font exch def /cairo_font_matrix where
      { pop cairo_selectfont } if } bind def
/Td { matrix translate cairo_font_matrix matrix concatmatrix dup
      /cairo_font_matrix exch def dup 4 get exch 5 get cairo_store_point
      /cairo_font where { pop cairo_selectfont } if } bind def
/Tm { 2 copy 8 2 roll 6 array astore /cairo_font_matrix exch def
      cairo_store_point /cairo_font where { pop cairo_selectfont } if } bind def
/g { setgray } bind def
/rg { setrgbcolor } bind def
/d1 { setcachedevice } bind def
/cairo_data_source {
  CairoDataIndex CairoData length lt
    { CairoData CairoDataIndex get /CairoDataIndex CairoDataIndex 1 add def }
    { () } ifelse
} def
/cairo_flush_ascii85_file { cairo_ascii85_file status { cairo_ascii85_file flushfile } if } def
/cairo_image { image cairo_flush_ascii85_file } def
/cairo_imagemask { imagemask cairo_flush_ascii85_file } def
%%EndProlog
%%BeginSetup
%%EndSetup
%%Page: 1 1
%%BeginPageSetup
%%PageBoundingBox: 0 0 384 384
%%EndPageSetup
q 0 0 384 384 rectclip
1 0 0 -1 0 384 cm q
0.913725 0.760784 0.470588 rg
365.789 381.199 m 360.16 381.199 354.742 378.109 352.027 372.746 c 340.93
 350.828 339.648 321.043 338.289 289.504 c 336.172 240.395 333.777 184.73
 294.434 148.512 c 290.633 145.016 281.594 143.934 274.328 143.066 c 264.926
 141.945 256.043 140.883 249.664 134.504 c 242.922 127.762 241.887 118.605
 240.883 109.75 c 239.988 101.824 239.062 93.633 234.477 88.664 c 197.379
 48.449 147.051 47.656 98.379 46.891 c 65.023 46.367 33.523 45.871 10.082
 31.312 c 2.852 26.82 0.629 17.32 5.121 10.09 c 9.609 2.859 19.113 0.637
 26.344 5.129 c 42.539 15.188 69.898 15.621 98.863 16.074 c 148.855 16.863
 211.07 17.84 257.129 67.766 c 268.551 80.148 270.332 95.875 271.508 106.285
 c 271.699 107.977 271.934 110.027 272.188 111.707 c 273.984 111.984 276.176
 112.246 277.984 112.465 c 289.039 113.785 304.18 115.594 315.309 125.836
 c 364.02 170.68 366.824 235.832 369.082 288.18 c 370.293 316.293 371.438
 342.848 379.523 358.824 c 383.367 366.418 380.332 375.688 372.738 379.535
 c 370.504 380.664 368.129 381.199 365.789 381.199 c h
365.789 381.199 m f
0.976471 0.984314 0.988235 rg
361.789 15.332 m 285.23 35.848 l 281.027 36.973 279.621 42.227 282.699 
45.301 c 338.742 101.344 l 341.816 104.422 347.07 103.012 348.195 98.812
 c 368.711 22.254 l 369.836 18.051 365.988 14.207 361.789 15.332 c h
361.789 15.332 m f
361.789 15.332 m 285.23 35.848 l 281.027 36.973 279.621 42.227 282.699 
45.301 c 338.742 101.344 l 341.816 104.422 347.07 103.012 348.195 98.812
 c 368.711 22.254 l 369.836 18.051 365.988 14.207 361.789 15.332 c h
361.789 15.332 m f
0.917647 0.658824 0.584314 rg
362.16 24.371 m 362.16 25.656 363.203 26.699 364.488 26.699 c 365.777 26.699
 366.82 25.656 366.82 24.371 c 366.82 23.082 365.777 22.039 364.488 22.039
 c 363.203 22.039 362.16 23.082 362.16 24.371 c h
362.16 24.371 m f
362.16 39.383 m 362.16 40.332 362.734 41.148 363.551 41.508 c 364.738 37.078
 l 364.656 37.07 364.574 37.055 364.492 37.055 c 363.203 37.055 362.16 38.098
 362.16 39.383 c h
362.16 39.383 m f
357.266 29.266 m 355.98 29.266 354.938 30.309 354.938 31.594 c 354.938 
32.879 355.98 33.922 357.266 33.922 c 358.551 33.922 359.594 32.879 359.594
 31.594 c 359.594 30.309 358.551 29.266 357.266 29.266 c h
357.266 29.266 m f
349.477 37.055 m 348.191 37.055 347.148 38.098 347.148 39.383 c 347.148
 40.668 348.191 41.711 349.477 41.711 c 350.762 41.711 351.805 40.668 351.805
 39.383 c 351.809 38.098 350.766 37.055 349.477 37.055 c h
349.477 37.055 m f
357.266 44.277 m 355.98 44.277 354.938 45.32 354.938 46.605 c 354.938 47.891
 355.98 48.934 357.266 48.934 c 358.551 48.934 359.594 47.891 359.594 46.605
 c 359.594 45.32 358.551 44.277 357.266 44.277 c h
357.266 44.277 m f
349.477 52.066 m 348.191 52.066 347.148 53.109 347.148 54.395 c 347.148
 55.68 348.191 56.723 349.477 56.723 c 350.762 56.723 351.805 55.68 351.805
 54.395 c 351.809 53.109 350.766 52.066 349.477 52.066 c h
349.477 52.066 m f
354.938 61.617 m 354.938 62.902 355.98 63.945 357.266 63.945 c 357.363 
63.945 357.453 63.93 357.547 63.918 c 358.66 59.762 l 358.27 59.469 357.793
 59.289 357.266 59.289 c 355.98 59.289 354.938 60.332 354.938 61.617 c h
354.938 61.617 m f
349.477 67.078 m 348.191 67.078 347.148 68.121 347.148 69.406 c 347.148
 70.695 348.191 71.738 349.477 71.738 c 350.762 71.738 351.805 70.695 351.805
 69.406 c 351.809 68.121 350.766 67.078 349.477 67.078 c h
349.477 67.078 m f
349.477 82.094 m 348.191 82.094 347.148 83.133 347.148 84.422 c 347.148
 85.707 348.191 86.75 349.477 86.75 c 350.762 86.75 351.805 85.707 351.805
 84.422 c 351.809 83.133 350.766 82.094 349.477 82.094 c h
349.477 82.094 m f
348.609 97.277 m 347.754 97.621 347.148 98.453 347.148 99.434 c 347.148
 99.82 347.254 100.18 347.422 100.5 c 347.754 100.004 348.027 99.441 348.195
 98.809 c h
348.609 97.277 m f
342.254 44.277 m 340.969 44.277 339.926 45.32 339.926 46.605 c 339.926 
47.891 340.969 48.934 342.254 48.934 c 343.539 48.934 344.582 47.891 344.582
 46.605 c 344.582 45.32 343.539 44.277 342.254 44.277 c h
342.254 44.277 m f
334.465 52.066 m 333.18 52.066 332.137 53.109 332.137 54.395 c 332.137 
55.68 333.18 56.723 334.465 56.723 c 335.75 56.723 336.793 55.68 336.793
 54.395 c 336.793 53.109 335.75 52.066 334.465 52.066 c h
334.465 52.066 m f
342.254 63.949 m 343.539 63.949 344.582 62.906 344.582 61.617 c 344.582
 60.332 343.539 59.289 342.254 59.289 c 340.969 59.289 339.926 60.332 339.926
 61.617 c 339.926 62.906 340.969 63.949 342.254 63.949 c h
342.254 63.949 m f
334.465 71.734 m 335.75 71.734 336.793 70.695 336.793 69.406 c 336.793 
68.121 335.75 67.078 334.465 67.078 c 333.18 67.078 332.137 68.121 332.137
 69.406 c 332.137 70.695 333.18 71.734 334.465 71.734 c h
334.465 71.734 m f
342.254 78.961 m 343.539 78.961 344.582 77.918 344.582 76.633 c 344.582
 75.348 343.539 74.305 342.254 74.305 c 340.969 74.305 339.926 75.348 339.926
 76.633 c 339.926 77.918 340.969 78.961 342.254 78.961 c h
342.254 78.961 m f
334.465 86.75 m 335.75 86.75 336.793 85.707 336.793 84.418 c 336.793 83.133
 335.75 82.09 334.465 82.09 c 333.18 82.09 332.137 83.133 332.137 84.418
 c 332.137 85.707 333.18 86.75 334.465 86.75 c h
334.465 86.75 m f
344.582 91.645 m 344.582 90.359 343.539 89.316 342.254 89.316 c 340.969
 89.316 339.926 90.359 339.926 91.645 c 339.926 92.93 340.969 93.973 342.254
 93.973 c 343.539 93.973 344.582 92.93 344.582 91.645 c h
344.582 91.645 m f
334.504 97.109 m 336.789 99.395 l 336.77 98.141 335.758 97.129 334.504 
97.109 c h
334.504 97.109 m f
327.242 63.949 m 328.527 63.949 329.57 62.906 329.57 61.617 c 329.57 60.332
 328.527 59.289 327.242 59.289 c 325.957 59.289 324.914 60.332 324.914 61.617
 c 324.914 62.906 325.957 63.949 327.242 63.949 c h
327.242 63.949 m f
321.781 69.406 m 321.781 68.121 320.738 67.078 319.453 67.078 c 318.168
 67.078 317.125 68.121 317.125 69.406 c 317.125 70.695 318.168 71.738 319.453
 71.738 c 320.738 71.734 321.781 70.695 321.781 69.406 c h
321.781 69.406 m f
327.242 78.961 m 328.527 78.961 329.57 77.918 329.57 76.633 c 329.57 75.348
 328.527 74.305 327.242 74.305 c 325.957 74.305 324.914 75.348 324.914 76.633
 c 324.914 77.918 325.957 78.961 327.242 78.961 c h
327.242 78.961 m f
319.492 82.094 m 321.777 84.379 l 321.754 83.129 320.746 82.117 319.492
 82.094 c h
319.492 82.094 m f
329.57 91.645 m 329.57 90.359 328.527 89.316 327.242 89.316 c 327.078 89.316
 326.918 89.332 326.762 89.367 c 329.52 92.121 l 329.551 91.969 329.57 91.809
 329.57 91.645 c h
329.57 91.645 m f
312.23 74.301 m 312.062 74.301 311.906 74.32 311.75 74.352 c 314.508 77.109
 l 314.539 76.957 314.559 76.797 314.559 76.633 c 314.559 75.344 313.516
 74.301 312.23 74.301 c h
312.23 74.301 m f
58.043 361.59 m 56.207 333.828 l 56.004 330.789 53.586 328.367 50.547 328.168
 c 22.785 326.328 l 17.574 325.984 15.199 319.664 18.891 315.973 c 59.785
 275.074 l 60.816 274.047 62.184 273.418 63.637 273.312 c 107.75 270.078
 l 111.449 269.805 114.523 272.879 114.254 276.574 c 111.059 320.734 l 110.953
 322.191 110.328 323.559 109.293 324.59 c 68.402 365.484 l 64.711 369.176
 58.391 366.801 58.043 361.59 c h
58.043 361.59 m f
0.976471 0.984314 0.988235 rg
110.387 277.258 m 109.102 277.258 108.059 278.301 108.059 279.586 c 108.059
 280.875 109.102 281.914 110.387 281.914 c 111.672 281.914 112.715 280.871
 112.715 279.586 c 112.715 278.301 111.672 277.258 110.387 277.258 c h
110.387 277.258 m f
110.387 292.27 m 109.102 292.27 108.059 293.312 108.059 294.598 c 108.059
 295.887 109.102 296.926 110.387 296.926 c 111.672 296.926 112.715 295.887
 112.715 294.598 c 112.715 293.312 111.672 292.27 110.387 292.27 c h
110.387 292.27 m f
108.059 309.613 m 108.059 310.898 109.102 311.941 110.387 311.941 c 110.887
 311.941 111.348 311.781 111.727 311.512 c 111.988 307.926 l 111.57 307.531
 111.008 307.285 110.387 307.285 c 109.102 307.281 108.059 308.324 108.059
 309.613 c h
108.059 309.613 m f
110.723 322.328 m 110.613 322.312 110.5 322.297 110.387 322.297 c 109.102
 322.297 108.059 323.34 108.059 324.625 c 108.059 324.977 108.141 325.309
 108.281 325.605 c 109.297 324.59 l 109.938 323.949 110.426 323.172 110.723
 322.328 c h
110.723 322.328 m f
103.164 284.48 m 101.879 284.48 100.836 285.523 100.836 286.809 c 100.836
 288.098 101.879 289.137 103.164 289.137 c 104.449 289.137 105.492 288.098
 105.492 286.809 c 105.492 285.523 104.449 284.48 103.164 284.48 c h
103.164 284.48 m f
95.375 292.27 m 94.086 292.27 93.047 293.312 93.047 294.598 c 93.047 295.887
 94.086 296.926 95.375 296.926 c 96.66 296.926 97.703 295.887 97.703 294.598
 c 97.703 293.312 96.66 292.27 95.375 292.27 c h
95.375 292.27 m f
103.164 299.492 m 101.879 299.492 100.836 300.535 100.836 301.824 c 100.836
 303.109 101.879 304.152 103.164 304.152 c 104.449 304.152 105.492 303.109
 105.492 301.824 c 105.492 300.535 104.449 299.492 103.164 299.492 c h
103.164 299.492 m f
95.375 307.281 m 94.086 307.281 93.047 308.324 93.047 309.613 c 93.047 
310.898 94.086 311.941 95.375 311.941 c 96.66 311.941 97.703 310.898 97.703
 309.613 c 97.703 308.324 96.66 307.281 95.375 307.281 c h
95.375 307.281 m f
103.164 314.508 m 101.879 314.508 100.836 315.551 100.836 316.836 c 100.836
 318.121 101.879 319.164 103.164 319.164 c 104.449 319.164 105.492 318.121
 105.492 316.836 c 105.492 315.551 104.449 314.508 103.164 314.508 c h
103.164 314.508 m f
95.375 322.297 m 94.086 322.297 93.047 323.34 93.047 324.625 c 93.047 325.91
 94.086 326.953 95.375 326.953 c 96.66 326.953 97.703 325.91 97.703 324.625
 c 97.703 323.34 96.66 322.297 95.375 322.297 c h
95.375 322.297 m f
100.832 331.848 m 100.832 332.199 100.918 332.531 101.059 332.828 c 104.145
 329.742 l 103.844 329.605 103.516 329.52 103.164 329.52 c 101.875 329.52
 100.832 330.562 100.832 331.848 c h
100.832 331.848 m f
93.047 339.637 m 93.047 339.988 93.129 340.32 93.27 340.617 c 96.355 337.531
 l 96.059 337.391 95.727 337.309 95.375 337.309 c 94.086 337.309 93.047 
338.352 93.047 339.637 c h
93.047 339.637 m f
88.148 299.492 m 86.863 299.492 85.82 300.535 85.82 301.824 c 85.82 303.109
 86.863 304.152 88.148 304.152 c 89.438 304.152 90.48 303.109 90.48 301.824
 c 90.48 300.535 89.438 299.492 88.148 299.492 c h
88.148 299.492 m f
80.359 307.281 m 79.074 307.281 78.031 308.324 78.031 309.613 c 78.031 
310.898 79.074 311.941 80.359 311.941 c 81.648 311.941 82.688 310.898 82.688
 309.613 c 82.688 308.324 81.648 307.281 80.359 307.281 c h
80.359 307.281 m f
88.148 314.508 m 86.863 314.508 85.82 315.551 85.82 316.836 c 85.82 318.121
 86.863 319.164 88.148 319.164 c 89.438 319.164 90.48 318.121 90.48 316.836
 c 90.48 315.551 89.438 314.508 88.148 314.508 c h
88.148 314.508 m f
80.359 322.297 m 79.074 322.297 78.031 323.34 78.031 324.625 c 78.031 325.91
 79.074 326.953 80.359 326.953 c 81.648 326.953 82.688 325.91 82.688 324.625
 c 82.688 323.34 81.648 322.297 80.359 322.297 c h
80.359 322.297 m f
88.148 329.52 m 86.863 329.52 85.82 330.562 85.82 331.848 c 85.82 333.133
 86.863 334.176 88.148 334.176 c 89.438 334.176 90.48 333.133 90.48 331.848
 c 90.48 330.562 89.438 329.52 88.148 329.52 c h
88.148 329.52 m f
80.359 337.309 m 79.074 337.309 78.031 338.352 78.031 339.637 c 78.031 
340.926 79.074 341.965 80.359 341.965 c 81.648 341.965 82.688 340.922 82.688
 339.637 c 82.688 338.352 81.648 337.309 80.359 337.309 c h
80.359 337.309 m f
85.82 346.859 m 85.82 347.211 85.906 347.543 86.043 347.844 c 89.133 344.754
 l 88.832 344.617 88.504 344.531 88.148 344.531 c 86.863 344.531 85.82 345.574
 85.82 346.859 c h
85.82 346.859 m f
78.031 354.648 m 78.031 355.004 78.117 355.332 78.258 355.633 c 81.344 
352.543 l 81.043 352.406 80.715 352.32 80.363 352.32 c 79.074 352.32 78.031
 353.363 78.031 354.648 c h
78.031 354.648 m f
73.137 314.508 m 71.852 314.508 70.809 315.551 70.809 316.836 c 70.809 
318.121 71.852 319.164 73.137 319.164 c 74.422 319.164 75.465 318.121 75.465
 316.836 c 75.465 315.551 74.422 314.508 73.137 314.508 c h
73.137 314.508 m f
65.348 322.297 m 64.062 322.297 63.02 323.34 63.02 324.625 c 63.02 325.91
 64.062 326.953 65.348 326.953 c 66.633 326.953 67.676 325.91 67.676 324.625
 c 67.676 323.34 66.633 322.297 65.348 322.297 c h
65.348 322.297 m f
73.137 329.52 m 71.852 329.52 70.809 330.562 70.809 331.848 c 70.809 333.133
 71.852 334.176 73.137 334.176 c 74.422 334.176 75.465 333.133 75.465 331.848
 c 75.465 330.562 74.422 329.52 73.137 329.52 c h
73.137 329.52 m f
65.348 341.965 m 66.633 341.965 67.676 340.922 67.676 339.637 c 67.676 
338.352 66.633 337.309 65.348 337.309 c 64.062 337.309 63.02 338.352 63.02
 339.637 c 63.02 340.926 64.062 341.965 65.348 341.965 c h
65.348 341.965 m f
73.137 344.531 m 71.852 344.531 70.809 345.574 70.809 346.859 c 70.809 
348.148 71.852 349.188 73.137 349.188 c 74.422 349.188 75.465 348.148 75.465
 346.859 c 75.465 345.574 74.422 344.531 73.137 344.531 c h
73.137 344.531 m f
65.348 356.98 m 66.633 356.98 67.676 355.938 67.676 354.648 c 67.676 353.363
 66.633 352.32 65.348 352.32 c 64.062 352.32 63.02 353.363 63.02 354.648
 c 63.02 355.938 64.062 356.98 65.348 356.98 c h
65.348 356.98 m f
73.137 359.547 m 71.852 359.547 70.809 360.586 70.809 361.875 c 70.809 
362.227 70.895 362.555 71.031 362.855 c 74.121 359.77 l 73.82 359.629 73.488
 359.547 73.137 359.547 c h
73.137 359.547 m f
58.125 334.176 m 59.41 334.176 60.453 333.133 60.453 331.848 c 60.453 330.562
 59.41 329.52 58.125 329.52 c 56.84 329.52 55.797 330.562 55.797 331.848
 c 55.797 331.934 55.812 332.016 55.82 332.098 c 55.922 332.367 56.012 332.641
 56.074 332.926 c 56.461 333.668 57.23 334.176 58.125 334.176 c h
58.125 334.176 m f
60.453 346.859 m 60.453 345.574 59.41 344.531 58.125 344.531 c 57.688 344.531
 57.285 344.66 56.938 344.867 c 57.211 349.004 l 57.492 349.121 57.801 349.188
 58.125 349.188 c 59.41 349.191 60.453 348.148 60.453 346.859 c h
60.453 346.859 m f
58.125 359.547 m 58.051 359.547 57.98 359.559 57.91 359.566 c 58.043 361.59
 l 58.105 362.527 58.367 363.367 58.766 364.102 c 59.738 363.82 60.453 362.938
 60.453 361.875 c 60.453 360.586 59.41 359.547 58.125 359.547 c h
58.125 359.547 m f
0.192157 0.215686 0.239216 rg
382.023 357.559 m 374.211 342.125 373.078 315.863 371.879 288.059 c 369.602
 235.195 366.77 169.402 317.203 123.777 c 309.82 116.977 300.914 113.703
 292.484 111.867 c 318.891 85.457 l 337.223 103.789 l 338.77 105.336 340.793
 106.16 342.895 106.16 c 343.602 106.16 344.316 106.066 345.023 105.879 
c 347.844 105.125 349.977 102.988 350.734 100.168 c 371.586 22.348 l 372.34
 19.531 371.559 16.613 369.496 14.551 c 367.43 12.484 364.516 11.699 361.695
 12.457 c 283.875 33.309 l 281.055 34.062 278.922 36.199 278.164 39.02 c
 277.406 41.84 278.191 44.754 280.254 46.82 c 298.586 65.152 l 272.078 91.656
 l 270.164 83.199 266.621 73.922 259.188 65.863 c 212.316 15.059 149.434
 14.07 98.906 13.273 c 70.34 12.824 43.359 12.398 27.82 2.75 c 23.688 0.184
 18.805 -0.625 14.066 0.484 c 9.328 1.594 5.309 4.48 2.742 8.609 c -2.559
 17.141 0.07 28.395 8.602 33.691 c 13.207 36.555 18.102 38.883 23.234 40.789
 c 173.531 190.203 l 95.574 268.16 l 63.434 270.52 l 61.309 270.676 59.309
 271.59 57.805 273.094 c 16.91 313.988 l 14.414 316.484 13.637 320.086 14.875
 323.391 c 16.121 326.695 19.078 328.891 22.602 329.125 c 50.363 330.961
 l 51.992 331.07 53.305 332.383 53.414 334.012 c 55.25 361.773 l 55.484 
365.293 57.68 368.254 60.984 369.496 c 62.023 369.887 63.094 370.078 64.148
 370.078 c 66.445 370.078 68.676 369.176 70.387 367.465 c 111.277 326.57
 l 112.785 325.062 113.703 323.062 113.855 320.934 c 116.23 288.121 l 193.898
 210.453 l 343.773 359.453 l 345.336 364.582 347.223 369.457 349.527 374.012
 c 352.648 380.172 358.879 384 365.789 384 c 368.621 384 371.461 383.32 
374.004 382.031 c 378.344 379.836 381.566 376.078 383.082 371.457 c 384.598
 366.832 384.219 361.898 382.023 357.559 c h
284.219 42.859 m 283.305 41.945 283.465 40.883 283.578 40.469 c 283.688
 40.055 284.082 39.055 285.324 38.723 c 363.145 17.867 l 364.387 17.539 
365.23 18.207 365.531 18.512 c 365.836 18.812 366.504 19.652 366.172 20.898
 c 345.32 98.719 l 344.988 99.961 343.988 100.355 343.57 100.465 c 343.156
 100.578 342.094 100.734 341.184 99.824 c h
108.266 320.531 m 108.207 321.316 107.871 322.055 107.312 322.609 c 66.422
 363.504 l 65.488 364.438 64.191 364.719 62.953 364.254 c 61.719 363.789
 60.926 362.723 60.84 361.406 c 59.004 333.645 l 58.711 329.219 55.152 325.664
 50.73 325.371 c 22.969 323.535 l 21.652 323.445 20.586 322.656 20.121 321.418
 c 19.656 320.184 19.938 318.887 20.871 317.953 c 61.766 277.059 l 62.32
 276.504 63.059 276.164 63.84 276.105 c 107.957 272.871 l 108.043 272.867
 108.125 272.863 108.207 272.863 c 109.078 272.863 109.887 273.199 110.512
 273.82 c 111.195 274.504 111.531 275.41 111.461 276.371 c h
7.5 11.566 m 9.277 8.707 12.062 6.707 15.344 5.941 c 16.305 5.719 17.273
 5.605 18.234 5.605 c 20.559 5.605 22.84 6.254 24.863 7.508 c 41.719 17.977
 69.453 18.414 98.82 18.879 c 148.277 19.656 209.828 20.625 255.07 69.664
 c 262.637 77.863 265.742 87.77 267.316 96.418 c 244.984 118.75 l 244.387
 115.766 244.031 112.633 243.668 109.434 c 242.723 101.062 241.742 92.406
 236.535 86.762 c 198.621 45.668 147.684 44.863 98.418 44.09 c 65.465 43.57
 34.34 43.082 11.559 28.93 c 5.652 25.262 3.832 17.473 7.5 11.566 c h
34.688 44.273 m 53.871 48.988 75.676 49.336 98.332 49.695 c 146.414 50.449
 196.133 51.234 232.414 90.562 c 236.379 94.859 237.254 102.59 238.098 110.062
 c 238.586 114.367 239.113 118.949 240.359 123.375 c 177.492 186.242 l h
197.859 206.492 m 260.742 143.609 l 265.02 144.77 269.543 145.316 273.996
 145.848 c 280.5 146.629 289.402 147.691 292.535 150.574 c 331.023 186.008
 333.398 241.059 335.488 289.629 c 336.398 310.711 337.273 331.02 341.062
 348.855 c h
377.758 369.711 m 376.707 372.91 374.477 375.512 371.469 377.035 c 369.684
 377.938 367.773 378.395 365.789 378.395 c 361 378.395 356.688 375.746 354.527
 371.48 c 343.703 350.105 342.434 320.609 341.086 289.383 c 338.949 239.73
 336.523 183.453 296.328 146.449 c 291.867 142.34 282.727 141.25 274.66 
140.285 c 271.398 139.895 268.297 139.52 265.395 138.957 c 287.699 116.648
 l 296.43 118.191 305.973 121.051 313.41 127.898 c 361.27 171.957 364.047
 236.465 366.281 288.301 c 367.504 316.727 368.664 343.574 377.023 360.09
 c 378.547 363.094 378.805 366.512 377.758 369.711 c h
377.758 369.711 m f
Q Q
showpage
%%Trailer
end
%%EOF
