%!PS-Adobe-3.0 EPSF-3.0
%%Creator: cairo 1.16.0 (https://cairographics.org)
%%CreationDate: Wed Jul 15 13:24:15 2020
%%Pages: 1
%%DocumentData: Clean7Bit
%%LanguageLevel: 2
%%BoundingBox: 15 0 369 384
%%EndComments
%%BeginProlog
50 dict begin
/q { gsave } bind def
/Q { grestore } bind def
/cm { 6 array astore concat } bind def
/w { setlinewidth } bind def
/J { setlinecap } bind def
/j { setlinejoin } bind def
/M { setmiterlimit } bind def
/d { setdash } bind def
/m { moveto } bind def
/l { lineto } bind def
/c { curveto } bind def
/h { closepath } bind def
/re { exch dup neg 3 1 roll 5 3 roll moveto 0 rlineto
      0 exch rlineto 0 rlineto closepath } bind def
/S { stroke } bind def
/f { fill } bind def
/f* { eofill } bind def
/n { newpath } bind def
/W { clip } bind def
/W* { eoclip } bind def
/BT { } bind def
/ET { } bind def
/BDC { mark 3 1 roll /BDC pdfmark } bind def
/EMC { mark /EMC pdfmark } bind def
/cairo_store_point { /cairo_point_y exch def /cairo_point_x exch def } def
/Tj { show currentpoint cairo_store_point } bind def
/TJ {
  {
    dup
    type /stringtype eq
    { show } { -0.001 mul 0 cairo_font_matrix dtransform rmoveto } ifelse
  } forall
  currentpoint cairo_store_point
} bind def
/cairo_selectfont { cairo_font_matrix aload pop pop pop 0 0 6 array astore
    cairo_font exch selectfont cairo_point_x cairo_point_y moveto } bind def
/Tf { pop /cairo_font exch def /cairo_font_matrix where
      { pop cairo_selectfont } if } bind def
/Td { matrix translate cairo_font_matrix matrix concatmatrix dup
      /cairo_font_matrix exch def dup 4 get exch 5 get cairo_store_point
      /cairo_font where { pop cairo_selectfont } if } bind def
/Tm { 2 copy 8 2 roll 6 array astore /cairo_font_matrix exch def
      cairo_store_point /cairo_font where { pop cairo_selectfont } if } bind def
/g { setgray } bind def
/rg { setrgbcolor } bind def
/d1 { setcachedevice } bind def
/cairo_data_source {
  CairoDataIndex CairoData length lt
    { CairoData CairoDataIndex get /CairoDataIndex CairoDataIndex 1 add def }
    { () } ifelse
} def
/cairo_flush_ascii85_file { cairo_ascii85_file status { cairo_ascii85_file flushfile } if } def
/cairo_image { image cairo_flush_ascii85_file } def
/cairo_imagemask { imagemask cairo_flush_ascii85_file } def
%%EndProlog
%%BeginSetup
%%EndSetup
%%Page: 1 1
%%BeginPageSetup
%%PageBoundingBox: 15 0 369 384
%%EndPageSetup
q 15 0 354 384 rectclip
1 0 0 -1 0 384 cm q
0.917647 0.658824 0.584314 rg
353.496 238.195 m 363.984 228.484 l 366.332 226.312 364.793 222.391 361.594
 222.391 c 253.637 222.391 l 310.488 159.379 l 309.66 158.633 l 311.246 
158.633 l 311.246 136.605 l 311.246 131.402 307.027 127.184 301.824 127.184
 c 157.746 127.184 l 241.344 63.652 l 241.172 63.426 l 241.559 63.426 l 
241.559 41.766 l 241.559 36.359 237.176 31.977 231.773 31.977 c 37.148 31.977
 l 37.148 63.426 l 189.664 63.426 l 107 126.254 l 107.707 127.184 l 106.832
 127.184 l 106.832 149.09 l 106.832 154.359 111.105 158.633 116.375 158.633
 c 268.805 158.633 l 212.055 221.531 l 213.004 222.391 l 211.543 222.391
 l 211.543 244.422 l 211.543 249.621 215.758 253.836 220.957 253.836 c 361.527
 253.836 l 364.734 253.836 366.266 249.895 363.902 247.727 c h
353.496 238.195 m f
0.976471 0.984314 0.988235 rg
238.355 63.711 m 238.402 64.352 238.703 64.914 239.164 65.305 c 241.262
 63.711 l h
238.355 63.711 m f
227.977 63.711 m 223.355 63.711 l 223.445 64.914 224.438 65.867 225.664
 65.867 c 226.895 65.867 227.887 64.914 227.977 63.711 c h
227.977 63.711 m f
231.121 70.762 m 231.121 70.965 231.156 71.164 231.207 71.352 c 234.621
 68.758 l 234.273 68.559 233.879 68.434 233.449 68.434 c 232.164 68.434 
231.121 69.473 231.121 70.762 c h
231.121 70.762 m f
210.664 65.867 m 211.891 65.867 212.887 64.914 212.973 63.711 c 208.352
 63.711 l 208.441 64.914 209.438 65.867 210.664 65.867 c h
210.664 65.867 m f
216.121 70.762 m 216.121 72.043 217.16 73.086 218.445 73.086 c 219.73 73.086
 220.773 72.043 220.773 70.762 c 220.773 69.473 219.73 68.434 218.445 68.434
 c 217.16 68.434 216.121 69.473 216.121 70.762 c h
216.121 70.762 m f
210.664 76.215 m 209.379 76.215 208.336 77.258 208.336 78.543 c 208.336
 79.828 209.379 80.871 210.664 80.871 c 211.949 80.871 212.992 79.828 212.992
 78.543 c 212.992 77.258 211.949 76.215 210.664 76.215 c h
210.664 76.215 m f
195.66 65.867 m 196.891 65.867 197.883 64.914 197.973 63.711 c 193.352 
63.711 l 193.441 64.914 194.434 65.867 195.66 65.867 c h
195.66 65.867 m f
203.445 68.434 m 202.16 68.434 201.117 69.473 201.117 70.762 c 201.117 
72.043 202.16 73.086 203.445 73.086 c 204.73 73.086 205.773 72.043 205.773
 70.762 c 205.773 69.473 204.73 68.434 203.445 68.434 c h
203.445 68.434 m f
195.66 76.215 m 194.379 76.215 193.336 77.258 193.336 78.543 c 193.336 
79.828 194.379 80.871 195.66 80.871 c 196.945 80.871 197.988 79.828 197.988
 78.543 c 197.988 77.258 196.945 76.215 195.66 76.215 c h
195.66 76.215 m f
203.445 83.434 m 202.16 83.434 201.117 84.477 201.117 85.762 c 201.117 
87.047 202.16 88.09 203.445 88.09 c 204.73 88.09 205.773 87.047 205.773 
85.762 c 205.773 84.477 204.73 83.434 203.445 83.434 c h
203.445 83.434 m f
195.66 91.219 m 194.379 91.219 193.336 92.258 193.336 93.543 c 193.336 
94.832 194.379 95.871 195.66 95.871 c 196.945 95.871 197.988 94.832 197.988
 93.543 c 197.988 92.258 196.945 91.219 195.66 91.219 c h
195.66 91.219 m f
188.441 68.434 m 187.156 68.434 186.117 69.473 186.117 70.762 c 186.117
 72.043 187.156 73.086 188.441 73.086 c 189.727 73.086 190.77 72.043 190.77
 70.762 c 190.77 69.473 189.727 68.434 188.441 68.434 c h
188.441 68.434 m f
180.66 76.215 m 179.375 76.215 178.332 77.258 178.332 78.543 c 178.332 
79.828 179.375 80.871 180.66 80.871 c 181.945 80.871 182.988 79.828 182.988
 78.543 c 182.988 77.258 181.945 76.215 180.66 76.215 c h
180.66 76.215 m f
188.441 83.434 m 187.156 83.434 186.117 84.477 186.117 85.762 c 186.117
 87.047 187.156 88.09 188.441 88.09 c 189.727 88.09 190.77 87.047 190.77
 85.762 c 190.77 84.477 189.727 83.434 188.441 83.434 c h
188.441 83.434 m f
180.66 91.219 m 179.375 91.219 178.332 92.258 178.332 93.543 c 178.332 
94.832 179.375 95.871 180.66 95.871 c 181.945 95.871 182.988 94.832 182.988
 93.543 c 182.988 92.258 181.945 91.219 180.66 91.219 c h
180.66 91.219 m f
188.441 98.438 m 187.156 98.438 186.117 99.477 186.117 100.762 c 186.117
 102.047 187.156 103.09 188.441 103.09 c 189.727 103.09 190.77 102.047 190.77
 100.762 c 190.77 99.477 189.727 98.438 188.441 98.438 c h
188.441 98.438 m f
180.66 106.219 m 179.375 106.219 178.332 107.262 178.332 108.547 c 178.332
 109.438 178.84 110.203 179.578 110.594 c 182.93 108.043 l 182.699 107 181.773
 106.219 180.66 106.219 c h
180.66 106.219 m f
173.441 83.434 m 172.156 83.434 171.113 84.477 171.113 85.762 c 171.113
 87.047 172.156 88.09 173.441 88.09 c 174.727 88.09 175.77 87.047 175.77
 85.762 c 175.77 84.477 174.727 83.434 173.441 83.434 c h
173.441 83.434 m f
165.66 91.219 m 164.375 91.219 163.332 92.258 163.332 93.543 c 163.332 
94.832 164.375 95.871 165.66 95.871 c 166.945 95.871 167.984 94.832 167.984
 93.543 c 167.984 92.258 166.945 91.219 165.66 91.219 c h
165.66 91.219 m f
173.441 98.438 m 172.156 98.438 171.113 99.477 171.113 100.762 c 171.113
 102.047 172.156 103.09 173.441 103.09 c 174.727 103.09 175.77 102.047 175.77
 100.762 c 175.77 99.477 174.727 98.438 173.441 98.438 c h
173.441 98.438 m f
165.66 106.219 m 164.375 106.219 163.332 107.262 163.332 108.547 c 163.332
 109.832 164.375 110.875 165.66 110.875 c 166.945 110.875 167.984 109.832
 167.984 108.547 c 167.984 107.262 166.945 106.219 165.66 106.219 c h
165.66 106.219 m f
173.441 113.438 m 172.156 113.438 171.113 114.48 171.113 115.766 c 171.113
 116.148 171.215 116.504 171.379 116.824 c 175.016 114.059 l 174.602 113.676
 174.051 113.438 173.441 113.438 c h
173.441 113.438 m f
163.449 122.848 m 165.582 121.23 l 164.574 121.262 163.742 121.93 163.449
 122.848 c h
163.449 122.848 m f
160.766 85.762 m 160.766 85.645 160.75 85.527 160.73 85.414 c 157.488 87.879
 l 157.777 88.012 158.098 88.09 158.438 88.09 c 159.723 88.09 160.766 87.047
 160.766 85.762 c h
160.766 85.762 m f
150.656 95.871 m 151.941 95.871 152.984 94.828 152.984 93.543 c 152.984
 92.879 152.699 92.281 152.254 91.859 c 148.609 94.629 l 149 95.363 149.766
 95.871 150.656 95.871 c h
150.656 95.871 m f
158.441 98.438 m 157.156 98.438 156.113 99.477 156.113 100.762 c 156.113
 102.047 157.156 103.09 158.441 103.09 c 159.723 103.09 160.766 102.047 
160.766 100.762 c 160.766 99.477 159.723 98.438 158.441 98.438 c h
158.441 98.438 m f
150.656 106.219 m 149.371 106.219 148.328 107.262 148.328 108.547 c 148.328
 109.832 149.371 110.875 150.656 110.875 c 151.941 110.875 152.984 109.832
 152.984 108.547 c 152.984 107.262 151.941 106.219 150.656 106.219 c h
150.656 106.219 m f
160.766 115.766 m 160.766 114.48 159.723 113.438 158.441 113.438 c 157.156
 113.438 156.113 114.48 156.113 115.766 c 156.113 117.051 157.156 118.094
 158.441 118.094 c 159.723 118.094 160.766 117.051 160.766 115.766 c h
160.766 115.766 m f
150.656 121.223 m 149.371 121.223 148.328 122.262 148.328 123.547 c 148.328
 124.832 149.371 125.875 150.656 125.875 c 151.941 125.875 152.984 124.832
 152.984 123.547 c 152.984 122.262 151.941 121.223 150.656 121.223 c h
150.656 121.223 m f
143.438 103.09 m 144.723 103.09 145.766 102.047 145.766 100.762 c 145.766
 99.527 144.797 98.523 143.578 98.449 c 141.16 100.289 l 141.129 100.441
 141.109 100.602 141.109 100.762 c 141.109 102.047 142.152 103.09 143.438
 103.09 c h
143.438 103.09 m f
135.656 106.219 m 134.371 106.219 133.328 107.262 133.328 108.547 c 133.328
 109.832 134.371 110.875 135.656 110.875 c 136.941 110.875 137.98 109.832
 137.98 108.547 c 137.98 107.262 136.941 106.219 135.656 106.219 c h
135.656 106.219 m f
143.438 113.438 m 142.152 113.438 141.109 114.48 141.109 115.766 c 141.109
 117.051 142.152 118.094 143.438 118.094 c 144.723 118.094 145.766 117.051
 145.766 115.766 c 145.766 114.48 144.723 113.438 143.438 113.438 c h
143.438 113.438 m f
135.656 121.223 m 134.371 121.223 133.328 122.262 133.328 123.547 c 133.328
 124.832 134.371 125.875 135.656 125.875 c 136.941 125.875 137.98 124.832
 137.98 123.547 c 137.98 122.262 136.941 121.223 135.656 121.223 c h
135.656 121.223 m f
126.109 115.766 m 126.109 117.051 127.152 118.094 128.438 118.094 c 129.723
 118.094 130.762 117.051 130.762 115.766 c 130.762 114.48 129.723 113.438
 128.438 113.438 c 127.152 113.438 126.109 114.48 126.109 115.766 c h
126.109 115.766 m f
120.652 125.875 m 121.938 125.875 122.98 124.832 122.98 123.547 c 122.98
 122.262 121.938 121.223 120.652 121.223 c 119.367 121.223 118.328 122.262
 118.328 123.547 c 118.324 124.832 119.367 125.875 120.652 125.875 c h
120.652 125.875 m f
306.297 159.914 m 306.191 160.18 306.129 160.465 306.129 160.77 c 306.129
 161.664 306.641 162.434 307.383 162.824 c 310.008 159.914 l h
306.297 159.914 m f
300.672 166.227 m 299.391 166.227 298.348 167.27 298.348 168.551 c 298.348
 169.664 299.125 170.59 300.164 170.82 c 302.871 167.82 l 302.562 166.898
 301.703 166.227 300.672 166.227 c h
300.672 166.227 m f
291.129 160.77 m 291.129 162.055 292.172 163.098 293.453 163.098 c 294.738
 163.098 295.781 162.055 295.781 160.77 c 295.781 160.469 295.719 160.18
 295.613 159.914 c 291.297 159.914 l 291.191 160.18 291.129 160.465 291.129
 160.77 c h
291.129 160.77 m f
283.344 168.555 m 283.344 169.84 284.387 170.879 285.672 170.879 c 286.957
 170.879 288 169.84 288 168.555 c 288 167.27 286.957 166.227 285.672 166.227
 c 284.387 166.227 283.344 167.27 283.344 168.555 c h
283.344 168.555 m f
293.453 173.445 m 292.172 173.445 291.129 174.484 291.129 175.773 c 291.129
 177.059 292.172 178.098 293.453 178.098 c 293.508 178.098 293.559 178.086
 293.613 178.082 c 295.773 175.688 l 295.727 174.441 294.711 173.445 293.453
 173.445 c h
293.453 173.445 m f
285.672 181.227 m 284.387 181.227 283.344 182.27 283.344 183.555 c 283.344
 184.84 284.387 185.883 285.672 185.883 c 286.125 185.883 286.539 185.746
 286.898 185.523 c 287.754 184.578 l 287.906 184.266 288 183.922 288 183.555
 c 288 182.27 286.957 181.227 285.672 181.227 c h
285.672 181.227 m f
276.125 160.77 m 276.125 162.055 277.168 163.098 278.453 163.098 c 279.738
 163.098 280.781 162.055 280.781 160.77 c 280.781 160.469 280.719 160.18
 280.613 159.914 c 276.293 159.914 l 276.188 160.18 276.125 160.465 276.125
 160.77 c h
276.125 160.77 m f
270.672 166.227 m 269.387 166.227 268.344 167.27 268.344 168.551 c 268.344
 169.84 269.387 170.879 270.672 170.879 c 271.957 170.879 272.996 169.84
 272.996 168.551 c 272.996 167.27 271.957 166.227 270.672 166.227 c h
270.672 166.227 m f
278.453 173.445 m 277.168 173.445 276.125 174.484 276.125 175.773 c 276.125
 177.059 277.168 178.098 278.453 178.098 c 279.738 178.098 280.781 177.059
 280.781 175.773 c 280.781 174.484 279.738 173.445 278.453 173.445 c h
278.453 173.445 m f
270.672 181.227 m 269.387 181.227 268.344 182.27 268.344 183.555 c 268.344
 184.84 269.387 185.883 270.672 185.883 c 271.957 185.883 272.996 184.84
 272.996 183.555 c 272.996 182.27 271.957 181.227 270.672 181.227 c h
270.672 181.227 m f
278.453 188.445 m 277.168 188.445 276.125 189.488 276.125 190.773 c 276.125
 192.059 277.168 193.102 278.453 193.102 c 279.738 193.102 280.781 192.059
 280.781 190.773 c 280.781 189.488 279.738 188.445 278.453 188.445 c h
278.453 188.445 m f
270.672 200.883 m 271.957 200.883 272.996 199.84 272.996 198.555 c 272.996
 197.27 271.957 196.23 270.672 196.23 c 269.387 196.23 268.344 197.27 268.344
 198.555 c 268.344 199.844 269.387 200.883 270.672 200.883 c h
270.672 200.883 m f
263.453 173.445 m 262.168 173.445 261.125 174.484 261.125 175.773 c 261.125
 177.059 262.168 178.098 263.453 178.098 c 264.738 178.098 265.777 177.059
 265.777 175.773 c 265.777 174.484 264.738 173.445 263.453 173.445 c h
263.453 173.445 m f
255.668 181.227 m 254.383 181.227 253.344 182.27 253.344 183.555 c 253.344
 184.84 254.383 185.883 255.668 185.883 c 256.953 185.883 257.996 184.84
 257.996 183.555 c 257.996 182.27 256.953 181.227 255.668 181.227 c h
255.668 181.227 m f
263.453 188.445 m 262.168 188.445 261.125 189.488 261.125 190.773 c 261.125
 192.059 262.168 193.102 263.453 193.102 c 264.738 193.102 265.777 192.059
 265.777 190.773 c 265.777 189.488 264.738 188.445 263.453 188.445 c h
263.453 188.445 m f
255.668 196.23 m 254.383 196.23 253.344 197.273 253.344 198.555 c 253.344
 199.844 254.383 200.883 255.668 200.883 c 256.953 200.883 257.996 199.844
 257.996 198.555 c 257.996 197.273 256.953 196.23 255.668 196.23 c h
255.668 196.23 m f
263.453 203.449 m 262.168 203.449 261.125 204.488 261.125 205.773 c 261.125
 207.059 262.168 208.102 263.453 208.102 c 264.738 208.102 265.777 207.059
 265.777 205.773 c 265.777 204.488 264.738 203.449 263.453 203.449 c h
263.453 203.449 m f
255.668 211.23 m 254.383 211.23 253.344 212.273 253.344 213.559 c 253.344
 214.844 254.383 215.887 255.668 215.887 c 256.953 215.887 257.996 214.844
 257.996 213.559 c 257.996 212.273 256.953 211.23 255.668 211.23 c h
255.668 211.23 m f
248.449 188.445 m 247.164 188.445 246.125 189.488 246.125 190.773 c 246.125
 192.059 247.164 193.102 248.449 193.102 c 249.734 193.102 250.777 192.059
 250.777 190.773 c 250.777 189.488 249.734 188.445 248.449 188.445 c h
248.449 188.445 m f
240.668 196.23 m 239.383 196.23 238.34 197.273 238.34 198.555 c 238.34 
199.844 239.383 200.883 240.668 200.883 c 241.953 200.883 242.992 199.844
 242.992 198.555 c 242.992 197.273 241.953 196.23 240.668 196.23 c h
240.668 196.23 m f
248.449 203.449 m 247.164 203.449 246.125 204.488 246.125 205.773 c 246.125
 207.059 247.164 208.102 248.449 208.102 c 249.734 208.102 250.777 207.059
 250.777 205.773 c 250.777 204.488 249.734 203.449 248.449 203.449 c h
248.449 203.449 m f
240.668 211.23 m 239.383 211.23 238.34 212.273 238.34 213.559 c 238.34 
214.844 239.383 215.887 240.668 215.887 c 241.953 215.887 242.992 214.844
 242.992 213.559 c 242.992 212.273 241.953 211.23 240.668 211.23 c h
240.668 211.23 m f
250.777 220.777 m 250.777 219.492 249.734 218.449 248.449 218.449 c 247.164
 218.449 246.125 219.492 246.125 220.777 c 246.125 221.105 246.195 221.418
 246.316 221.703 c 250.582 221.703 l 250.707 221.418 250.777 221.105 250.777
 220.777 c h
250.777 220.777 m f
231.121 205.773 m 231.121 207.059 232.164 208.102 233.449 208.102 c 234.734
 208.102 235.773 207.059 235.773 205.773 c 235.773 204.488 234.734 203.449
 233.449 203.449 c 232.164 203.449 231.121 204.488 231.121 205.773 c h
231.121 205.773 m f
223.336 213.559 m 223.336 214.844 224.379 215.887 225.664 215.887 c 226.949
 215.887 227.992 214.844 227.992 213.559 c 227.992 212.273 226.949 211.23
 225.664 211.23 c 224.379 211.23 223.336 212.273 223.336 213.559 c h
223.336 213.559 m f
235.773 220.777 m 235.773 219.492 234.734 218.449 233.449 218.449 c 232.164
 218.449 231.121 219.492 231.121 220.777 c 231.121 221.105 231.191 221.418
 231.316 221.703 c 235.582 221.703 l 235.707 221.418 235.773 221.105 235.773
 220.777 c h
235.773 220.777 m f
220.773 220.777 m 220.773 219.492 219.73 218.449 218.445 218.449 c 217.16
 218.449 216.121 219.492 216.121 220.777 c 216.121 221.105 216.191 221.418
 216.312 221.703 c 220.578 221.703 l 220.703 221.418 220.773 221.105 220.773
 220.777 c h
220.773 220.777 m f
0.913725 0.760784 0.470588 rg
38.25 381 m 27.422 381 18.695 372.121 18.887 361.293 c 24.973 16.047 l 
25.098 8.805 31.008 3 38.25 3 c 45.492 3 51.398 8.805 51.527 16.047 c 57.613
 361.293 l 57.801 372.121 49.078 381 38.25 381 c h
38.25 381 m f
0.976471 0.984314 0.988235 rg
20.23 285.082 m 18.887 361.293 l 18.695 372.121 27.418 381 38.25 381 c 
49.078 381 57.801 372.121 57.609 361.293 c 56.27 285.082 l h
20.23 285.082 m f
0.192157 0.215686 0.239216 rg
357.926 238.184 m 366.023 230.688 l 368.004 228.852 368.648 226.043 367.664
 223.527 c 366.676 221.012 364.297 219.387 361.594 219.387 c 260.383 219.387
 l 312.715 161.391 l 312.789 161.309 312.844 161.219 312.906 161.129 c 313.715
 160.59 314.246 159.672 314.246 158.633 c 314.246 136.605 l 314.246 129.754
 308.672 124.184 301.824 124.184 c 166.652 124.184 l 243.156 66.039 l 243.32
 65.914 243.461 65.773 243.59 65.621 c 244.184 65.074 244.559 64.297 244.559
 63.426 c 244.559 41.766 l 244.559 34.715 238.824 28.977 231.773 28.977 
c 54.754 28.977 l 54.527 15.992 l 54.371 7.176 47.07 0 38.25 0 c 29.43 0
 22.125 7.176 21.973 15.992 c 15.887 361.238 l 15.781 367.285 18.055 372.992
 22.293 377.309 c 26.535 381.625 32.199 384 38.25 384 c 44.297 384 49.965
 381.625 54.203 377.309 c 58.441 372.992 60.719 367.289 60.613 361.238 c
 55.414 66.426 l 180.758 66.426 l 105.184 123.863 l 104.551 124.344 104.137
 125.059 104.027 125.848 c 104.012 125.957 104.02 126.07 104.016 126.18 
c 103.906 126.496 103.832 126.828 103.832 127.184 c 103.832 149.09 l 103.832
 156.004 109.461 161.633 116.375 161.633 c 262.059 161.633 l 209.824 219.52
 l 209.57 219.801 209.391 220.121 209.266 220.453 c 208.82 220.977 208.539
 221.648 208.539 222.387 c 208.539 244.418 l 208.539 251.266 214.109 256.836
 220.957 256.836 c 361.527 256.836 l 364.234 256.836 366.617 255.207 367.598
 252.684 c 368.582 250.16 367.926 247.348 365.93 245.516 c h
49.922 373.105 m 46.82 376.262 42.676 378 38.25 378 c 33.824 378 29.676
 376.262 26.574 373.105 c 23.473 369.945 21.809 365.77 21.887 361.344 c 
27.973 16.098 l 28.07 10.531 32.68 6 38.25 6 c 43.82 6 48.43 10.531 48.527
 16.098 c 54.613 361.344 l 54.688 365.77 53.023 369.945 49.922 373.105 c
 h
55.309 60.426 m 54.859 34.98 l 231.773 34.98 l 235.516 34.98 238.559 38.023
 238.559 41.766 c 238.559 60.426 l h
190.676 66.426 m 232.73 66.426 l 156.734 124.184 l 114.68 124.184 l h
116.375 155.629 m 112.77 155.629 109.832 152.695 109.832 149.09 c 109.832
 130.184 l 301.824 130.184 l 305.363 130.184 308.246 133.062 308.246 136.605
 c 308.246 155.629 l h
270.141 161.633 m 304.418 161.633 l 252.305 219.387 l 218.027 219.387 l
 h
362.008 250.508 m 361.879 250.836 361.621 250.836 361.523 250.836 c 220.957
 250.836 l 217.418 250.836 214.539 247.957 214.539 244.418 c 214.539 225.387
 l 361.594 225.387 l 361.691 225.387 361.945 225.387 362.074 225.719 c 362.203
 226.043 362.016 226.219 361.945 226.285 c 351.461 235.992 l 350.844 236.562
 350.496 237.363 350.5 238.203 c 350.5 239.039 350.855 239.84 351.473 240.406
 c 361.875 249.941 l 361.945 250.004 362.133 250.18 362.008 250.508 c h
362.008 250.508 m f
Q Q
showpage
%%Trailer
end
%%EOF
