%!PS-Adobe-3.0 EPSF-3.0
%%Creator: cairo 1.16.0 (https://cairographics.org)
%%CreationDate: Wed Jul 15 13:24:17 2020
%%Pages: 1
%%DocumentData: Clean7Bit
%%LanguageLevel: 2
%%BoundingBox: 0 45 384 339
%%EndComments
%%BeginProlog
50 dict begin
/q { gsave } bind def
/Q { grestore } bind def
/cm { 6 array astore concat } bind def
/w { setlinewidth } bind def
/J { setlinecap } bind def
/j { setlinejoin } bind def
/M { setmiterlimit } bind def
/d { setdash } bind def
/m { moveto } bind def
/l { lineto } bind def
/c { curveto } bind def
/h { closepath } bind def
/re { exch dup neg 3 1 roll 5 3 roll moveto 0 rlineto
      0 exch rlineto 0 rlineto closepath } bind def
/S { stroke } bind def
/f { fill } bind def
/f* { eofill } bind def
/n { newpath } bind def
/W { clip } bind def
/W* { eoclip } bind def
/BT { } bind def
/ET { } bind def
/BDC { mark 3 1 roll /BDC pdfmark } bind def
/EMC { mark /EMC pdfmark } bind def
/cairo_store_point { /cairo_point_y exch def /cairo_point_x exch def } def
/Tj { show currentpoint cairo_store_point } bind def
/TJ {
  {
    dup
    type /stringtype eq
    { show } { -0.001 mul 0 cairo_font_matrix dtransform rmoveto } ifelse
  } forall
  currentpoint cairo_store_point
} bind def
/cairo_selectfont { cairo_font_matrix aload pop pop pop 0 0 6 array astore
    cairo_font exch selectfont cairo_point_x cairo_point_y moveto } bind def
/Tf { pop /cairo_font exch def /cairo_font_matrix where
      { pop cairo_selectfont } if } bind def
/Td { matrix translate cairo_font_matrix matrix concatmatrix dup
      /cairo_font_matrix exch def dup 4 get exch 5 get cairo_store_point
      /cairo_font where { pop cairo_selectfont } if } bind def
/Tm { 2 copy 8 2 roll 6 array astore /cairo_font_matrix exch def
      cairo_store_point /cairo_font where { pop cairo_selectfont } if } bind def
/g { setgray } bind def
/rg { setrgbcolor } bind def
/d1 { setcachedevice } bind def
/cairo_data_source {
  CairoDataIndex CairoData length lt
    { CairoData CairoDataIndex get /CairoDataIndex CairoDataIndex 1 add def }
    { () } ifelse
} def
/cairo_flush_ascii85_file { cairo_ascii85_file status { cairo_ascii85_file flushfile } if } def
/cairo_image { image cairo_flush_ascii85_file } def
/cairo_imagemask { imagemask cairo_flush_ascii85_file } def
%%EndProlog
%%BeginSetup
%%EndSetup
%%Page: 1 1
%%BeginPageSetup
%%PageBoundingBox: 0 45 384 339
%%EndPageSetup
q 0 45 384 294 rectclip
1 0 0 -1 0 384 cm q
0.917647 0.658824 0.584314 rg
136.754 63.305 m 202.953 38.672 252.793 50.438 280.34 57.234 c 295.586 
60.996 370.246 87.328 379.914 111.359 c 389.02 133.98 371.504 176.039 350.02
 221.102 c 331.77 259.379 291.988 301.664 247.281 320.852 c 199.984 341.148
 157.879 338.797 103.758 326.184 c 65.863 317.355 12.883 292.145 5.027 272.328
 c -6.754 242.605 14.914 200.164 31.574 165.945 c 50.418 127.238 100.391
 76.836 136.754 63.305 c h
136.754 63.305 m f
0.976471 0.984314 0.988235 rg
72.703 308.844 m 72.703 310.129 73.746 311.172 75.031 311.172 c 76.316 
311.172 77.359 310.129 77.359 308.844 c 77.359 307.559 76.316 306.516 75.031
 306.516 c 73.746 306.516 72.703 307.559 72.703 308.844 c h
72.703 308.844 m f
82.301 313.801 m 81.301 314.031 80.551 314.902 80.504 315.961 c 81.562 
316.34 82.633 316.719 83.711 317.09 c h
82.301 313.801 m f
60.02 296.16 m 60.961 296.16 61.77 295.598 62.137 294.789 c 60.637 294.484
 59.152 294.172 57.691 293.848 c 57.699 295.125 58.738 296.16 60.02 296.16
 c h
60.02 296.16 m f
65.48 301.055 m 65.48 302.344 66.52 303.383 67.809 303.383 c 69.094 303.383
 70.137 302.34 70.137 301.055 c 70.137 299.77 69.094 298.727 67.809 298.727
 c 66.52 298.727 65.48 299.77 65.48 301.055 c h
65.48 301.055 m f
60.02 306.516 m 59.465 306.516 58.965 306.719 58.566 307.039 c 59.805 307.605
 61.059 308.172 62.336 308.73 c 62.277 307.5 61.266 306.516 60.02 306.516
 c h
60.02 306.516 m f
42.68 293.832 m 42.68 295.117 43.723 296.16 45.008 296.16 c 46.293 296.16
 47.336 295.117 47.336 293.832 c 47.336 292.547 46.293 291.504 45.008 291.504
 c 43.723 291.504 42.68 292.547 42.68 293.832 c h
42.68 293.832 m f
50.465 301.055 m 50.465 302.344 51.508 303.383 52.793 303.383 c 54.082 
303.383 55.125 302.34 55.125 301.055 c 55.125 299.77 54.082 298.727 52.793
 298.727 c 51.508 298.727 50.465 299.77 50.465 301.055 c h
50.465 301.055 m f
30.078 291.512 m 30.73 291.938 31.395 292.367 32.07 292.797 c 31.703 292.059
 30.957 291.543 30.078 291.512 c h
30.078 291.512 m f
16.949 280.059 m 15.504 279.281 14.168 278.5 12.941 277.719 c 12.922 277.754
 12.902 277.789 12.883 277.828 c 13.82 278.809 14.871 279.832 16.035 280.887
 c 16.41 280.695 16.727 280.41 16.949 280.059 c h
16.949 280.059 m f
22.77 283.715 m 21.918 283.715 21.18 284.18 20.773 284.859 c 21.934 285.773
 23.16 286.699 24.457 287.641 c 24.852 287.223 25.102 286.664 25.102 286.043
 c 25.102 284.758 24.059 283.715 22.77 283.715 c h
22.77 283.715 m f
375.164 111.367 m 373.93 111.426 372.945 112.438 372.945 113.688 c 372.945
 114.973 373.988 116.016 375.273 116.016 c 375.867 116.016 376.402 115.785
 376.812 115.422 c 376.602 114.543 376.352 113.762 376.066 113.09 c 375.828
 112.539 375.516 111.961 375.164 111.367 c h
375.164 111.367 m f
375.273 126.371 m 373.988 126.371 372.945 127.414 372.945 128.699 c 372.945
 129.984 373.988 131.027 375.273 131.027 c 376.23 131.027 377.051 130.449
 377.41 129.625 c 377.449 129.09 377.477 128.574 377.504 128.062 c 377.227
 127.086 376.34 126.371 375.273 126.371 c h
375.273 126.371 m f
372.945 143.711 m 372.945 144.93 373.887 145.918 375.082 146.02 c 375.391
 144.465 375.668 142.957 375.918 141.484 c 375.715 141.422 375.5 141.383
 375.273 141.383 c 373.988 141.383 372.945 142.422 372.945 143.711 c h
372.945 143.711 m f
357.934 98.672 m 357.934 99.961 358.977 101.004 360.262 101.004 c 361.547
 101.004 362.59 99.961 362.59 98.672 c 362.59 98.609 362.578 98.547 362.574
 98.484 c 361.688 97.793 360.762 97.094 359.809 96.391 c 358.738 96.602 
357.934 97.543 357.934 98.672 c h
357.934 98.672 m f
365.723 105.898 m 365.723 107.184 366.766 108.227 368.051 108.227 c 369.336
 108.227 370.379 107.184 370.379 105.898 c 370.379 105.688 370.344 105.484
 370.289 105.289 c 369.758 104.75 369.199 104.199 368.609 103.645 c 368.43
 103.598 368.246 103.57 368.051 103.57 c 366.766 103.57 365.723 104.609 
365.723 105.898 c h
365.723 105.898 m f
360.262 111.359 m 358.977 111.359 357.934 112.398 357.934 113.688 c 357.934
 114.973 358.977 116.016 360.262 116.016 c 361.547 116.016 362.59 114.973
 362.59 113.688 c 362.59 112.398 361.547 111.359 360.262 111.359 c h
360.262 111.359 m f
368.051 118.582 m 366.766 118.582 365.723 119.625 365.723 120.91 c 365.723
 122.195 366.766 123.238 368.051 123.238 c 369.336 123.238 370.379 122.195
 370.379 120.91 c 370.379 119.625 369.336 118.582 368.051 118.582 c h
368.051 118.582 m f
360.262 126.371 m 358.977 126.371 357.934 127.414 357.934 128.699 c 357.934
 129.984 358.977 131.027 360.262 131.027 c 361.547 131.027 362.59 129.984
 362.59 128.699 c 362.59 127.41 361.547 126.371 360.262 126.371 c h
360.262 126.371 m f
368.051 133.594 m 366.766 133.594 365.723 134.637 365.723 135.922 c 365.723
 137.207 366.766 138.25 368.051 138.25 c 369.336 138.25 370.379 137.207 
370.379 135.922 c 370.379 134.637 369.336 133.594 368.051 133.594 c h
368.051 133.594 m f
360.262 141.383 m 358.977 141.383 357.934 142.426 357.934 143.711 c 357.934
 144.996 358.977 146.039 360.262 146.039 c 361.547 146.039 362.59 144.996
 362.59 143.711 c 362.59 142.422 361.547 141.383 360.262 141.383 c h
360.262 141.383 m f
368.051 148.605 m 366.766 148.605 365.723 149.648 365.723 150.934 c 365.723
 152.219 366.766 153.262 368.051 153.262 c 369.336 153.262 370.379 152.219
 370.379 150.934 c 370.379 149.648 369.336 148.605 368.051 148.605 c h
368.051 148.605 m f
360.262 156.395 m 358.977 156.395 357.934 157.438 357.934 158.723 c 357.934
 160.008 358.977 161.051 360.262 161.051 c 361.547 161.051 362.59 160.008
 362.59 158.723 c 362.59 157.438 361.547 156.395 360.262 156.395 c h
360.262 156.395 m f
368.051 163.617 m 366.766 163.617 365.723 164.66 365.723 165.945 c 365.723
 167.23 366.766 168.273 368.051 168.273 c 368.582 168.273 369.066 168.09
 369.457 167.793 c 369.73 166.918 369.988 166.059 370.246 165.199 c 369.934
 164.281 369.074 163.617 368.051 163.617 c h
368.051 163.617 m f
360.262 171.406 m 358.977 171.406 357.934 172.449 357.934 173.734 c 357.934
 175.02 358.977 176.062 360.262 176.062 c 361.547 176.062 362.59 175.02 
362.59 173.734 c 362.59 172.449 361.547 171.406 360.262 171.406 c h
360.262 171.406 m f
360.262 186.418 m 358.977 186.418 357.934 187.461 357.934 188.746 c 357.934
 190.031 358.977 191.074 360.262 191.074 c 360.523 191.074 360.77 191.023
 361.004 190.945 c 361.457 189.855 361.898 188.773 362.332 187.699 c 361.945
 186.941 361.168 186.418 360.262 186.418 c h
360.262 186.418 m f
352.441 91.34 m 352.68 91.898 352.883 92.523 353.047 93.215 c 353.605 93.211
 354.109 93.008 354.508 92.68 c 353.824 92.223 353.133 91.766 352.426 91.312
 c 352.43 91.32 352.434 91.332 352.441 91.34 c h
352.441 91.34 m f
353.418 103.605 m 353.289 105.059 353.109 106.59 352.871 108.207 c 352.926
 108.211 352.98 108.227 353.039 108.227 c 354.324 108.227 355.367 107.184
 355.367 105.898 c 355.367 104.738 354.523 103.789 353.418 103.605 c h
353.418 103.605 m f
353.039 118.582 m 351.754 118.582 350.711 119.625 350.711 120.91 c 350.711
 122.195 351.754 123.238 353.039 123.238 c 354.324 123.238 355.367 122.195
 355.367 120.91 c 355.367 119.625 354.324 118.582 353.039 118.582 c h
353.039 118.582 m f
353.039 133.594 m 351.754 133.594 350.711 134.637 350.711 135.922 c 350.711
 137.207 351.754 138.25 353.039 138.25 c 354.324 138.25 355.367 137.207 
355.367 135.922 c 355.367 134.637 354.324 133.594 353.039 133.594 c h
353.039 133.594 m f
345.25 146.039 m 346.535 146.039 347.578 144.996 347.578 143.711 c 347.578
 142.426 346.535 141.383 345.25 141.383 c 344.52 141.383 343.875 141.727
 343.445 142.254 c 343.277 142.715 343.105 143.172 342.93 143.633 c 342.93
 143.66 342.922 143.684 342.922 143.711 c 342.922 144.996 343.965 146.039
 345.25 146.039 c h
345.25 146.039 m f
353.039 148.605 m 351.754 148.605 350.711 149.648 350.711 150.934 c 350.711
 152.219 351.754 153.262 353.039 153.262 c 354.324 153.262 355.367 152.219
 355.367 150.934 c 355.367 149.648 354.324 148.605 353.039 148.605 c h
353.039 148.605 m f
345.25 156.395 m 343.965 156.395 342.922 157.438 342.922 158.723 c 342.922
 160.008 343.965 161.051 345.25 161.051 c 346.535 161.051 347.578 160.008
 347.578 158.723 c 347.578 157.438 346.535 156.395 345.25 156.395 c h
345.25 156.395 m f
353.039 163.617 m 351.754 163.617 350.711 164.66 350.711 165.945 c 350.711
 167.23 351.754 168.273 353.039 168.273 c 354.324 168.273 355.367 167.23
 355.367 165.945 c 355.367 164.66 354.324 163.617 353.039 163.617 c h
353.039 163.617 m f
347.578 173.734 m 347.578 172.449 346.535 171.406 345.25 171.406 c 344.676
 171.406 344.156 171.621 343.75 171.969 c 345.496 176.039 l 346.664 175.914
 347.578 174.938 347.578 173.734 c h
347.578 173.734 m f
353.039 178.629 m 351.754 178.629 350.711 179.672 350.711 180.957 c 350.711
 182.246 351.754 183.285 353.039 183.285 c 354.324 183.285 355.367 182.242
 355.367 180.957 c 355.367 179.672 354.324 178.629 353.039 178.629 c h
353.039 178.629 m f
355.367 195.969 m 355.367 194.688 354.328 193.645 353.047 193.641 c 354.727
 197.566 l 355.121 197.148 355.367 196.59 355.367 195.969 c h
355.367 195.969 m f
340.355 150.934 m 340.355 150.734 340.324 150.543 340.277 150.359 c 339.926
 151.211 339.57 152.07 339.207 152.93 c 339.891 152.523 340.355 151.785 
340.355 150.934 c h
340.355 150.934 m f
312.898 218.77 m 312.898 220.055 313.938 221.094 315.219 221.098 c 313.543
 217.168 l 313.145 217.586 312.898 218.148 312.898 218.77 c h
312.898 218.77 m f
315.227 231.453 m 313.941 231.453 312.898 232.496 312.898 233.785 c 312.898
 235.07 313.941 236.113 315.227 236.113 c 316.512 236.113 317.555 235.07
 317.555 233.785 c 317.555 232.496 316.512 231.453 315.227 231.453 c h
315.227 231.453 m f
322.727 238.707 m 321.578 238.852 320.688 239.82 320.688 241.008 c 320.688
 242.293 321.73 243.336 323.016 243.336 c 323.57 243.336 324.074 243.133
 324.477 242.809 c h
322.727 238.707 m f
315.227 246.469 m 313.941 246.469 312.898 247.512 312.898 248.797 c 312.898
 250.082 313.941 251.125 315.227 251.125 c 316.512 251.125 317.555 250.082
 317.555 248.797 c 317.555 247.508 316.512 246.469 315.227 246.469 c h
315.227 246.469 m f
320.688 256.02 m 320.688 256.828 321.102 257.543 321.73 257.961 c 322.699
 256.742 323.652 255.523 324.582 254.309 c 324.168 253.926 323.621 253.691
 323.016 253.691 c 321.73 253.691 320.688 254.734 320.688 256.02 c h
320.688 256.02 m f
315.227 261.48 m 313.941 261.48 312.898 262.523 312.898 263.809 c 312.898
 265 313.797 265.969 314.949 266.109 c 315.797 265.133 316.633 264.156 317.457
 263.176 c 317.18 262.199 316.293 261.48 315.227 261.48 c h
315.227 261.48 m f
306.105 212.324 m 306.527 212.918 307.219 213.312 308.004 213.312 c 309.289
 213.312 310.332 212.27 310.332 210.98 c 310.332 209.91 309.602 209.016 
308.613 208.746 c 307.789 209.941 306.953 211.133 306.105 212.324 c h
306.105 212.324 m f
300.215 221.102 m 301.5 221.102 302.543 220.059 302.543 218.77 c 302.543
 218.352 302.422 217.965 302.23 217.625 c 301.375 218.762 300.516 219.895
 299.645 221.02 c 299.828 221.066 300.016 221.102 300.215 221.102 c h
300.215 221.102 m f
308.004 223.664 m 306.719 223.664 305.676 224.707 305.676 225.996 c 305.676
 227.281 306.719 228.324 308.004 228.324 c 309.289 228.324 310.332 227.281
 310.332 225.996 c 310.332 224.707 309.289 223.664 308.004 223.664 c h
308.004 223.664 m f
300.215 231.453 m 298.93 231.453 297.887 232.496 297.887 233.785 c 297.887
 235.07 298.93 236.113 300.215 236.113 c 301.5 236.113 302.543 235.07 302.543
 233.785 c 302.543 232.496 301.5 231.453 300.215 231.453 c h
300.215 231.453 m f
308.004 238.68 m 306.719 238.68 305.676 239.723 305.676 241.008 c 305.676
 242.293 306.719 243.336 308.004 243.336 c 309.289 243.336 310.332 242.293
 310.332 241.008 c 310.332 239.723 309.289 238.68 308.004 238.68 c h
308.004 238.68 m f
300.215 246.469 m 298.93 246.469 297.887 247.512 297.887 248.797 c 297.887
 250.082 298.93 251.125 300.215 251.125 c 301.5 251.125 302.543 250.082 
302.543 248.797 c 302.543 247.508 301.5 246.469 300.215 246.469 c h
300.215 246.469 m f
308.004 253.691 m 306.719 253.691 305.676 254.734 305.676 256.02 c 305.676
 257.305 306.719 258.348 308.004 258.348 c 309.289 258.348 310.332 257.305
 310.332 256.02 c 310.332 254.734 309.289 253.691 308.004 253.691 c h
308.004 253.691 m f
300.215 261.48 m 298.93 261.48 297.887 262.523 297.887 263.809 c 297.887
 265.094 298.93 266.137 300.215 266.137 c 301.5 266.137 302.543 265.094 
302.543 263.809 c 302.543 262.52 301.5 261.48 300.215 261.48 c h
300.215 261.48 m f
308.004 268.703 m 306.719 268.703 305.676 269.746 305.676 271.031 c 305.676
 272.316 306.719 273.359 308.004 273.359 c 308.145 273.359 308.281 273.344
 308.414 273.316 c 309.051 272.645 309.684 271.973 310.305 271.297 c 310.316
 271.211 310.332 271.121 310.332 271.031 c 310.332 269.746 309.289 268.703
 308.004 268.703 c h
308.004 268.703 m f
300.215 276.492 m 298.93 276.492 297.887 277.535 297.887 278.82 c 297.887
 280.105 298.93 281.148 300.215 281.148 c 300.379 281.148 300.543 281.129
 300.699 281.098 c 301.293 280.523 301.883 279.949 302.469 279.375 c 302.512
 279.195 302.543 279.012 302.543 278.82 c 302.543 277.535 301.5 276.492 
300.215 276.492 c h
300.215 276.492 m f
295.242 226.562 m 294.824 227.074 294.406 227.586 293.984 228.094 c 294.605
 227.801 295.07 227.242 295.242 226.562 c h
295.242 226.562 m f
292.992 238.68 m 291.703 238.68 290.664 239.723 290.664 241.008 c 290.664
 242.293 291.703 243.336 292.992 243.336 c 294.277 243.336 295.32 242.293
 295.32 241.008 c 295.32 239.723 294.277 238.68 292.992 238.68 c h
292.992 238.68 m f
285.203 246.469 m 283.914 246.469 282.875 247.512 282.875 248.797 c 282.875
 250.082 283.914 251.125 285.203 251.125 c 286.488 251.125 287.531 250.082
 287.531 248.797 c 287.531 247.508 286.488 246.469 285.203 246.469 c h
285.203 246.469 m f
292.992 253.691 m 291.703 253.691 290.664 254.734 290.664 256.02 c 290.664
 257.305 291.703 258.348 292.992 258.348 c 294.277 258.348 295.32 257.305
 295.32 256.02 c 295.32 254.734 294.277 253.691 292.992 253.691 c h
292.992 253.691 m f
285.203 261.48 m 283.914 261.48 282.875 262.523 282.875 263.809 c 282.875
 265.094 283.914 266.137 285.203 266.137 c 286.488 266.137 287.531 265.094
 287.531 263.809 c 287.531 262.52 286.488 261.48 285.203 261.48 c h
285.203 261.48 m f
292.992 268.703 m 291.703 268.703 290.664 269.746 290.664 271.031 c 290.664
 272.316 291.703 273.359 292.992 273.359 c 294.277 273.359 295.32 272.316
 295.32 271.031 c 295.32 269.746 294.277 268.703 292.992 268.703 c h
292.992 268.703 m f
285.203 276.492 m 283.914 276.492 282.875 277.535 282.875 278.82 c 282.875
 280.105 283.914 281.148 285.203 281.148 c 286.488 281.148 287.531 280.105
 287.531 278.82 c 287.531 277.535 286.488 276.492 285.203 276.492 c h
285.203 276.492 m f
292.992 283.715 m 291.703 283.715 290.664 284.758 290.664 286.043 c 290.664
 287.238 291.566 288.215 292.727 288.344 c 293.598 287.594 294.461 286.836
 295.316 286.07 c 295.316 286.062 295.32 286.051 295.32 286.043 c 295.32
 284.758 294.277 283.715 292.992 283.715 c h
292.992 283.715 m f
285.203 291.504 m 283.914 291.504 282.875 292.547 282.875 293.832 c 282.875
 294.57 283.223 295.223 283.762 295.648 c 284.961 294.73 286.145 293.801
 287.312 292.859 c 286.941 292.062 286.141 291.504 285.203 291.504 c h
285.203 291.504 m f
277.98 253.691 m 276.691 253.691 275.648 254.734 275.648 256.02 c 275.648
 257.305 276.691 258.348 277.98 258.348 c 279.266 258.348 280.309 257.305
 280.309 256.02 c 280.309 254.734 279.266 253.691 277.98 253.691 c h
277.98 253.691 m f
270.191 261.48 m 268.902 261.48 267.859 262.523 267.859 263.809 c 267.859
 265.094 268.902 266.137 270.191 266.137 c 271.477 266.137 272.52 265.094
 272.52 263.809 c 272.52 262.52 271.477 261.48 270.191 261.48 c h
270.191 261.48 m f
277.98 268.703 m 276.691 268.703 275.648 269.746 275.648 271.031 c 275.648
 272.316 276.691 273.359 277.98 273.359 c 279.266 273.359 280.309 272.316
 280.309 271.031 c 280.309 269.746 279.266 268.703 277.98 268.703 c h
277.98 268.703 m f
270.191 276.492 m 268.902 276.492 267.859 277.535 267.859 278.82 c 267.859
 280.105 268.902 281.148 270.191 281.148 c 271.477 281.148 272.52 280.105
 272.52 278.82 c 272.52 277.535 271.477 276.492 270.191 276.492 c h
270.191 276.492 m f
277.98 283.715 m 276.691 283.715 275.648 284.758 275.648 286.043 c 275.648
 287.328 276.691 288.371 277.98 288.371 c 279.266 288.371 280.309 287.328
 280.309 286.043 c 280.309 284.758 279.266 283.715 277.98 283.715 c h
277.98 283.715 m f
270.191 291.504 m 268.902 291.504 267.859 292.547 267.859 293.832 c 267.859
 295.117 268.902 296.16 270.191 296.16 c 271.477 296.16 272.52 295.117 272.52
 293.832 c 272.52 292.547 271.477 291.504 270.191 291.504 c h
270.191 291.504 m f
275.648 301.055 m 275.648 301.207 275.664 301.355 275.695 301.5 c 276.863
 300.699 278.023 299.887 279.168 299.062 c 278.816 298.855 278.414 298.727
 277.977 298.727 c 276.691 298.727 275.648 299.77 275.648 301.055 c h
275.648 301.055 m f
257.504 263.809 m 257.504 263.664 257.488 263.523 257.465 263.387 c 256.352
 264.227 255.227 265.047 254.094 265.859 c 254.418 266.031 254.785 266.137
 255.176 266.137 c 256.465 266.137 257.504 265.094 257.504 263.809 c h
257.504 263.809 m f
262.965 268.703 m 261.68 268.703 260.637 269.746 260.637 271.031 c 260.637
 272.316 261.68 273.359 262.965 273.359 c 264.254 273.359 265.293 272.316
 265.293 271.031 c 265.293 269.746 264.254 268.703 262.965 268.703 c h
262.965 268.703 m f
255.176 276.492 m 253.891 276.492 252.848 277.535 252.848 278.82 c 252.848
 280.105 253.891 281.148 255.176 281.148 c 256.465 281.148 257.504 280.105
 257.504 278.82 c 257.504 277.535 256.465 276.492 255.176 276.492 c h
255.176 276.492 m f
262.965 283.715 m 261.68 283.715 260.637 284.758 260.637 286.043 c 260.637
 287.328 261.68 288.371 262.965 288.371 c 264.254 288.371 265.293 287.328
 265.293 286.043 c 265.293 284.758 264.254 283.715 262.965 283.715 c h
262.965 283.715 m f
255.176 291.504 m 253.891 291.504 252.848 292.547 252.848 293.832 c 252.848
 295.117 253.891 296.16 255.176 296.16 c 256.465 296.16 257.504 295.117 
257.504 293.832 c 257.504 292.547 256.465 291.504 255.176 291.504 c h
255.176 291.504 m f
262.965 298.727 m 261.68 298.727 260.637 299.77 260.637 301.055 c 260.637
 302.344 261.68 303.383 262.965 303.383 c 264.254 303.383 265.293 302.34
 265.293 301.055 c 265.293 299.77 264.254 298.727 262.965 298.727 c h
262.965 298.727 m f
255.176 306.516 m 253.891 306.516 252.848 307.559 252.848 308.844 c 252.848
 310.129 253.891 311.172 255.176 311.172 c 256.465 311.172 257.504 310.129
 257.504 308.844 c 257.504 307.559 256.465 306.516 255.176 306.516 c h
255.176 306.516 m f
247.953 273.359 m 249.238 273.359 250.281 272.316 250.281 271.031 c 250.281
 270.258 249.902 269.578 249.324 269.156 c 248.117 269.957 246.898 270.738
 245.676 271.508 c 245.895 272.566 246.832 273.359 247.953 273.359 c h
247.953 273.359 m f
240.164 276.492 m 238.879 276.492 237.836 277.535 237.836 278.82 c 237.836
 280.105 238.879 281.148 240.164 281.148 c 241.449 281.148 242.492 280.105
 242.492 278.82 c 242.492 277.535 241.449 276.492 240.164 276.492 c h
240.164 276.492 m f
247.953 283.715 m 246.668 283.715 245.625 284.758 245.625 286.043 c 245.625
 287.328 246.668 288.371 247.953 288.371 c 249.238 288.371 250.281 287.328
 250.281 286.043 c 250.281 284.758 249.238 283.715 247.953 283.715 c h
247.953 283.715 m f
240.164 291.504 m 238.879 291.504 237.836 292.547 237.836 293.832 c 237.836
 295.117 238.879 296.16 240.164 296.16 c 241.449 296.16 242.492 295.117 
242.492 293.832 c 242.492 292.547 241.449 291.504 240.164 291.504 c h
240.164 291.504 m f
247.953 298.727 m 246.668 298.727 245.625 299.77 245.625 301.055 c 245.625
 302.344 246.668 303.383 247.953 303.383 c 249.238 303.383 250.281 302.34
 250.281 301.055 c 250.281 299.77 249.238 298.727 247.953 298.727 c h
247.953 298.727 m f
240.164 306.516 m 238.879 306.516 237.836 307.559 237.836 308.844 c 237.836
 310.129 238.879 311.172 240.164 311.172 c 241.449 311.172 242.492 310.129
 242.492 308.844 c 242.492 307.559 241.449 306.516 240.164 306.516 c h
240.164 306.516 m f
247.953 313.738 m 246.668 313.738 245.625 314.781 245.625 316.066 c 245.625
 316.738 245.914 317.34 246.367 317.766 c 247.684 317.195 248.984 316.609
 250.277 316.012 c 250.246 314.75 249.219 313.738 247.953 313.738 c h
247.953 313.738 m f
232.941 283.715 m 231.656 283.715 230.613 284.758 230.613 286.043 c 230.613
 287.328 231.656 288.371 232.941 288.371 c 234.227 288.371 235.27 287.328
 235.27 286.043 c 235.27 284.758 234.227 283.715 232.941 283.715 c h
232.941 283.715 m f
225.152 291.504 m 223.867 291.504 222.824 292.547 222.824 293.832 c 222.824
 295.117 223.867 296.16 225.152 296.16 c 226.438 296.16 227.48 295.117 227.48
 293.832 c 227.48 292.547 226.438 291.504 225.152 291.504 c h
225.152 291.504 m f
232.941 298.727 m 231.656 298.727 230.613 299.77 230.613 301.055 c 230.613
 302.344 231.656 303.383 232.941 303.383 c 234.227 303.383 235.27 302.34
 235.27 301.055 c 235.27 299.77 234.227 298.727 232.941 298.727 c h
232.941 298.727 m f
225.152 306.516 m 223.867 306.516 222.824 307.559 222.824 308.844 c 222.824
 310.129 223.867 311.172 225.152 311.172 c 226.438 311.172 227.48 310.129
 227.48 308.844 c 227.48 307.559 226.438 306.516 225.152 306.516 c h
225.152 306.516 m f
232.941 313.738 m 231.656 313.738 230.613 314.781 230.613 316.066 c 230.613
 317.355 231.656 318.395 232.941 318.395 c 234.227 318.395 235.27 317.352
 235.27 316.066 c 235.27 314.781 234.227 313.738 232.941 313.738 c h
232.941 313.738 m f
225.152 321.527 m 223.867 321.527 222.824 322.57 222.824 323.855 c 222.824
 324.602 223.18 325.258 223.723 325.684 c 224.926 325.355 226.129 325.012
 227.332 324.656 c 227.422 324.406 227.48 324.137 227.48 323.855 c 227.48
 322.57 226.438 321.527 225.152 321.527 c h
225.152 321.527 m f
217.93 288.371 m 219.215 288.371 220.258 287.328 220.258 286.043 c 220.258
 285.488 220.055 284.984 219.734 284.586 c 218.367 285.125 216.992 285.652
 215.613 286.16 c 215.676 287.391 216.684 288.371 217.93 288.371 c h
217.93 288.371 m f
210.141 291.504 m 208.855 291.504 207.812 292.547 207.812 293.832 c 207.812
 295.117 208.855 296.16 210.141 296.16 c 211.426 296.16 212.469 295.117 
212.469 293.832 c 212.469 292.547 211.426 291.504 210.141 291.504 c h
210.141 291.504 m f
217.93 298.727 m 216.645 298.727 215.602 299.77 215.602 301.055 c 215.602
 302.344 216.645 303.383 217.93 303.383 c 219.215 303.383 220.258 302.34
 220.258 301.055 c 220.258 299.77 219.215 298.727 217.93 298.727 c h
217.93 298.727 m f
210.141 306.516 m 208.855 306.516 207.812 307.559 207.812 308.844 c 207.812
 310.129 208.855 311.172 210.141 311.172 c 211.426 311.172 212.469 310.129
 212.469 308.844 c 212.469 307.559 211.426 306.516 210.141 306.516 c h
210.141 306.516 m f
217.93 313.738 m 216.645 313.738 215.602 314.781 215.602 316.066 c 215.602
 317.355 216.645 318.395 217.93 318.395 c 219.215 318.395 220.258 317.352
 220.258 316.066 c 220.258 314.781 219.215 313.738 217.93 313.738 c h
217.93 313.738 m f
210.141 321.527 m 208.855 321.527 207.812 322.57 207.812 323.855 c 207.812
 325.141 208.855 326.184 210.141 326.184 c 211.426 326.184 212.469 325.141
 212.469 323.855 c 212.469 322.57 211.426 321.527 210.141 321.527 c h
210.141 321.527 m f
195.129 296.16 m 196.414 296.16 197.457 295.117 197.457 293.832 c 197.457
 293.168 197.176 292.57 196.727 292.145 c 195.461 292.484 194.191 292.812
 192.918 293.129 c 192.848 293.352 192.801 293.586 192.801 293.832 c 192.801
 295.117 193.844 296.16 195.129 296.16 c h
195.129 296.16 m f
202.918 298.727 m 201.633 298.727 200.59 299.77 200.59 301.055 c 200.59
 302.344 201.633 303.383 202.918 303.383 c 204.203 303.383 205.246 302.34
 205.246 301.055 c 205.246 299.77 204.203 298.727 202.918 298.727 c h
202.918 298.727 m f
195.129 306.516 m 193.844 306.516 192.801 307.559 192.801 308.844 c 192.801
 310.129 193.844 311.172 195.129 311.172 c 196.414 311.172 197.457 310.129
 197.457 308.844 c 197.457 307.559 196.414 306.516 195.129 306.516 c h
195.129 306.516 m f
202.918 313.738 m 201.633 313.738 200.59 314.781 200.59 316.066 c 200.59
 317.355 201.633 318.395 202.918 318.395 c 204.203 318.395 205.246 317.352
 205.246 316.066 c 205.246 314.781 204.203 313.738 202.918 313.738 c h
202.918 313.738 m f
195.129 321.527 m 193.844 321.527 192.801 322.57 192.801 323.855 c 192.801
 325.141 193.844 326.184 195.129 326.184 c 196.414 326.184 197.457 325.141
 197.457 323.855 c 197.457 322.57 196.414 321.527 195.129 321.527 c h
195.129 321.527 m f
202.918 328.75 m 201.863 328.75 200.98 329.461 200.695 330.422 c 202.078
 330.227 203.465 330.012 204.852 329.785 c 204.434 329.16 203.723 328.75
 202.918 328.75 c h
202.918 328.75 m f
181.508 295.688 m 180.852 295.82 180.191 295.953 179.531 296.078 c 179.719
 296.125 179.914 296.16 180.117 296.16 c 180.641 296.16 181.121 295.98 181.508
 295.688 c h
181.508 295.688 m f
187.906 298.727 m 186.621 298.727 185.578 299.77 185.578 301.055 c 185.578
 302.344 186.621 303.383 187.906 303.383 c 189.191 303.383 190.234 302.34
 190.234 301.055 c 190.234 299.77 189.191 298.727 187.906 298.727 c h
187.906 298.727 m f
180.117 306.516 m 178.832 306.516 177.789 307.559 177.789 308.844 c 177.789
 310.129 178.832 311.172 180.117 311.172 c 181.402 311.172 182.445 310.129
 182.445 308.844 c 182.445 307.559 181.402 306.516 180.117 306.516 c h
180.117 306.516 m f
187.906 313.738 m 186.621 313.738 185.578 314.781 185.578 316.066 c 185.578
 317.355 186.621 318.395 187.906 318.395 c 189.191 318.395 190.234 317.352
 190.234 316.066 c 190.234 314.781 189.191 313.738 187.906 313.738 c h
187.906 313.738 m f
180.117 321.527 m 178.832 321.527 177.789 322.57 177.789 323.855 c 177.789
 325.141 178.832 326.184 180.117 326.184 c 181.402 326.184 182.445 325.141
 182.445 323.855 c 182.445 322.57 181.402 321.527 180.117 321.527 c h
180.117 321.527 m f
190.234 331.078 m 190.234 329.793 189.191 328.75 187.906 328.75 c 186.621
 328.75 185.578 329.793 185.578 331.078 c 185.578 331.391 185.641 331.688
 185.75 331.961 c 187.219 331.863 188.688 331.758 190.164 331.625 c 190.207
 331.449 190.234 331.27 190.234 331.078 c h
190.234 331.078 m f
172.895 298.727 m 171.609 298.727 170.566 299.77 170.566 301.055 c 170.566
 302.344 171.609 303.383 172.895 303.383 c 174.18 303.383 175.223 302.34
 175.223 301.055 c 175.223 299.77 174.18 298.727 172.895 298.727 c h
172.895 298.727 m f
165.105 306.516 m 163.816 306.516 162.777 307.559 162.777 308.844 c 162.777
 310.129 163.816 311.172 165.105 311.172 c 166.391 311.172 167.434 310.129
 167.434 308.844 c 167.434 307.559 166.391 306.516 165.105 306.516 c h
165.105 306.516 m f
172.895 313.738 m 171.609 313.738 170.566 314.781 170.566 316.066 c 170.566
 317.355 171.609 318.395 172.895 318.395 c 174.18 318.395 175.223 317.352
 175.223 316.066 c 175.223 314.781 174.18 313.738 172.895 313.738 c h
172.895 313.738 m f
167.434 323.855 m 167.434 322.57 166.391 321.527 165.105 321.527 c 163.816
 321.527 162.777 322.57 162.777 323.855 c 162.777 325.141 163.816 326.184
 165.105 326.184 c 166.391 326.184 167.434 325.141 167.434 323.855 c h
167.434 323.855 m f
175.223 331.078 m 175.223 329.793 174.18 328.75 172.895 328.75 c 171.609
 328.75 170.566 329.793 170.566 331.078 c 170.566 331.59 170.73 332.055 
171.008 332.438 c 172.27 332.438 173.531 332.43 174.805 332.406 c 175.066
 332.031 175.223 331.574 175.223 331.078 c h
175.223 331.078 m f
155.551 301.055 m 155.551 302.344 156.594 303.383 157.879 303.383 c 159.168
 303.383 160.207 302.34 160.207 301.055 c 160.207 300.262 159.809 299.562
 159.203 299.141 c 158.195 299.254 157.191 299.359 156.188 299.465 c 155.797
 299.879 155.551 300.438 155.551 301.055 c h
155.551 301.055 m f
150.094 306.516 m 148.805 306.516 147.762 307.559 147.762 308.844 c 147.762
 310.129 148.805 311.172 150.094 311.172 c 151.379 311.172 152.422 310.129
 152.422 308.844 c 152.422 307.559 151.379 306.516 150.094 306.516 c h
150.094 306.516 m f
157.883 318.395 m 159.168 318.395 160.211 317.352 160.211 316.066 c 160.211
 314.781 159.168 313.738 157.883 313.738 c 156.594 313.738 155.551 314.781
 155.551 316.066 c 155.551 317.355 156.594 318.395 157.883 318.395 c h
157.883 318.395 m f
150.094 321.527 m 148.805 321.527 147.762 322.57 147.762 323.855 c 147.762
 325.141 148.805 326.184 150.094 326.184 c 151.379 326.184 152.422 325.141
 152.422 323.855 c 152.422 322.57 151.379 321.527 150.094 321.527 c h
150.094 321.527 m f
160.211 331.078 m 160.211 329.793 159.168 328.75 157.883 328.75 c 156.594
 328.75 155.551 329.793 155.551 331.078 c 155.551 331.375 155.613 331.656
 155.715 331.918 c 157.113 332.012 158.516 332.094 159.93 332.164 c 160.102
 331.84 160.211 331.473 160.211 331.078 c h
160.211 331.078 m f
142.867 303.383 m 144.156 303.383 145.195 302.34 145.195 301.055 c 145.195
 300.82 145.152 300.598 145.086 300.383 c 143.582 300.48 142.082 300.562
 140.582 300.637 c 140.559 300.773 140.539 300.91 140.539 301.055 c 140.539
 302.344 141.582 303.383 142.867 303.383 c h
142.867 303.383 m f
135.078 306.516 m 133.793 306.516 132.75 307.559 132.75 308.844 c 132.75
 310.129 133.793 311.172 135.078 311.172 c 136.367 311.172 137.406 310.129
 137.406 308.844 c 137.406 307.559 136.367 306.516 135.078 306.516 c h
135.078 306.516 m f
142.867 318.395 m 144.156 318.395 145.195 317.352 145.195 316.066 c 145.195
 314.781 144.156 313.738 142.867 313.738 c 141.582 313.738 140.539 314.781
 140.539 316.066 c 140.539 317.355 141.582 318.395 142.867 318.395 c h
142.867 318.395 m f
137.406 323.855 m 137.406 322.57 136.367 321.527 135.078 321.527 c 135.008
 321.527 134.941 321.543 134.871 321.551 c 136.609 325.598 l 137.098 325.172
 137.406 324.555 137.406 323.855 c h
137.406 323.855 m f
142.867 328.75 m 141.797 328.75 140.902 329.48 140.633 330.469 c 142.137
 330.656 143.656 330.836 145.191 331.004 c 145.148 329.754 144.129 328.75
 142.867 328.75 c h
142.867 328.75 m f
127.004 303.219 m 127.27 303.324 127.555 303.383 127.855 303.383 c 129.141
 303.383 130.184 302.344 130.184 301.055 c 130.184 301.027 130.176 301 130.176
 300.969 c 128.801 300.988 127.426 301.004 126.059 301.008 c h
127.004 303.219 m f
292.621 60.828 m 278.023 56.297 262.277 52.66 245.93 50.504 c 331.305 250.719
 l 331.309 250.723 l 341.031 237.312 349.449 222.938 356.242 209.164 c 292.621
 60.828 l f
26.793 175.098 m 33.629 161.426 41.898 147.543 51.652 134.25 c 137.098 
334.438 l 137.098 334.441 l 120.688 332.184 104.488 328.309 89.844 323.68
 c 26.793 175.098 l f
0.917647 0.658824 0.584314 rg
345.016 191.051 m 343.418 187.324 l 343.113 187.719 342.922 188.211 342.922
 188.746 c 342.922 189.953 343.844 190.934 345.016 191.051 c h
345.016 191.051 m f
342.922 203.758 m 342.922 205.043 343.965 206.086 345.25 206.086 c 346.535
 206.086 347.578 205.043 347.578 203.758 c 347.578 202.473 346.535 201.43
 345.25 201.43 c 343.965 201.43 342.922 202.473 342.922 203.758 c h
342.922 203.758 m f
352.586 208.699 m 351.516 208.91 350.711 209.852 350.711 210.98 c 350.711
 211.465 350.859 211.914 351.109 212.285 c 351.676 211.188 352.223 210.109
 352.742 209.062 c h
352.586 208.699 m f
345.25 216.441 m 343.965 216.441 342.922 217.484 342.922 218.77 c 342.922
 220.059 343.965 221.102 345.25 221.102 c 345.773 221.102 346.254 220.922
 346.641 220.629 c 346.953 220.074 347.258 219.52 347.559 218.973 c 347.566
 218.906 347.578 218.84 347.578 218.77 c 347.578 217.484 346.535 216.441
 345.25 216.441 c h
345.25 216.441 m f
330.238 176.062 m 331.523 176.062 332.566 175.02 332.566 173.734 c 332.566
 172.594 331.742 171.648 330.66 171.449 c 330 172.766 329.324 174.09 328.633
 175.418 c 329.051 175.816 329.617 176.062 330.238 176.062 c h
330.238 176.062 m f
338.027 178.629 m 336.742 178.629 335.699 179.672 335.699 180.957 c 335.699
 182.246 336.742 183.285 338.027 183.285 c 339.312 183.285 340.355 182.242
 340.355 180.957 c 340.355 179.672 339.312 178.629 338.027 178.629 c h
338.027 178.629 m f
330.238 186.418 m 328.953 186.418 327.91 187.461 327.91 188.746 c 327.91
 190.031 328.953 191.074 330.238 191.074 c 331.523 191.074 332.566 190.031
 332.566 188.746 c 332.566 187.461 331.523 186.418 330.238 186.418 c h
330.238 186.418 m f
338.027 193.641 m 336.742 193.641 335.699 194.684 335.699 195.969 c 335.699
 197.258 336.742 198.297 338.027 198.297 c 339.312 198.297 340.355 197.254
 340.355 195.969 c 340.355 194.684 339.312 193.641 338.027 193.641 c h
338.027 193.641 m f
330.238 201.43 m 328.953 201.43 327.91 202.473 327.91 203.758 c 327.91 
205.043 328.953 206.086 330.238 206.086 c 331.523 206.086 332.566 205.043
 332.566 203.758 c 332.566 202.473 331.523 201.43 330.238 201.43 c h
330.238 201.43 m f
338.027 208.652 m 336.742 208.652 335.699 209.695 335.699 210.98 c 335.699
 212.27 336.742 213.312 338.027 213.312 c 339.312 213.312 340.355 212.27
 340.355 210.98 c 340.355 209.695 339.312 208.652 338.027 208.652 c h
338.027 208.652 m f
330.238 216.441 m 328.953 216.441 327.91 217.484 327.91 218.77 c 327.91
 220.059 328.953 221.102 330.238 221.102 c 331.523 221.102 332.566 220.059
 332.566 218.77 c 332.566 217.484 331.523 216.441 330.238 216.441 c h
330.238 216.441 m f
338.027 228.324 m 339.312 228.324 340.355 227.281 340.355 225.996 c 340.355
 224.707 339.312 223.664 338.027 223.664 c 336.742 223.664 335.699 224.707
 335.699 225.996 c 335.699 227.281 336.742 228.324 338.027 228.324 c h
338.027 228.324 m f
330.238 231.453 m 328.953 231.453 327.91 232.496 327.91 233.785 c 327.91
 235.07 328.953 236.113 330.238 236.113 c 331.523 236.113 332.566 235.07
 332.566 233.785 c 332.566 232.496 331.523 231.453 330.238 231.453 c h
330.238 231.453 m f
323.016 193.641 m 321.73 193.641 320.688 194.684 320.688 195.969 c 320.688
 197.258 321.73 198.297 323.016 198.297 c 324.301 198.297 325.344 197.254
 325.344 195.969 c 325.344 194.684 324.301 193.641 323.016 193.641 c h
323.016 193.641 m f
317.555 203.758 m 317.555 202.473 316.512 201.43 315.227 201.43 c 314.742
 201.43 314.289 201.578 313.918 201.836 c 315.707 206.035 l 316.762 205.812
 317.555 204.879 317.555 203.758 c h
317.555 203.758 m f
323.016 208.652 m 321.73 208.652 320.688 209.695 320.688 210.98 c 320.688
 212.27 321.73 213.312 323.016 213.312 c 324.301 213.312 325.344 212.27 
325.344 210.98 c 325.344 209.695 324.301 208.652 323.016 208.652 c h
323.016 208.652 m f
323.238 223.688 m 324.832 227.434 l 325.148 227.035 325.344 226.539 325.344
 225.996 c 325.344 224.785 324.418 223.801 323.238 223.688 c h
323.238 223.688 m f
117.738 308.844 m 117.738 310.129 118.781 311.172 120.066 311.172 c 121.352
 311.172 122.395 310.129 122.395 308.844 c 122.395 308.734 122.379 308.633
 122.363 308.527 c 121.879 307.398 l 121.453 306.863 120.805 306.516 120.066
 306.516 c 118.781 306.516 117.738 307.559 117.738 308.844 c h
117.738 308.844 m f
125.543 315.93 m 125.539 315.977 125.527 316.02 125.527 316.066 c 125.527
 316.781 125.855 317.41 126.359 317.84 c h
125.543 315.93 m f
120.066 321.527 m 118.781 321.527 117.738 322.57 117.738 323.855 c 117.738
 325.141 118.781 326.184 120.066 326.184 c 121.352 326.184 122.395 325.141
 122.395 323.855 c 122.395 322.57 121.352 321.527 120.066 321.527 c h
120.066 321.527 m f
110.516 301.055 m 110.516 302.344 111.559 303.383 112.844 303.383 c 114.129
 303.383 115.172 302.34 115.172 301.055 c 115.172 300.984 115.156 300.918
 115.152 300.852 c 113.613 300.801 112.078 300.742 110.555 300.672 c 110.535
 300.797 110.516 300.926 110.516 301.055 c h
110.516 301.055 m f
102.727 308.844 m 102.727 310.129 103.77 311.172 105.055 311.172 c 106.34
 311.172 107.383 310.129 107.383 308.844 c 107.383 307.559 106.34 306.516
 105.055 306.516 c 103.77 306.516 102.727 307.559 102.727 308.844 c h
102.727 308.844 m f
112.844 313.738 m 111.559 313.738 110.516 314.781 110.516 316.066 c 110.516
 317.355 111.559 318.395 112.844 318.395 c 114.129 318.395 115.172 317.352
 115.172 316.066 c 115.172 314.781 114.129 313.738 112.844 313.738 c h
112.844 313.738 m f
105.055 321.527 m 104.074 321.527 103.238 322.137 102.895 322.996 c 104.34
 323.387 105.828 323.777 107.352 324.16 c 107.367 324.062 107.383 323.961
 107.383 323.855 c 107.383 322.57 106.34 321.527 105.055 321.527 c h
105.055 321.527 m f
95.504 301.055 m 95.504 302.344 96.547 303.383 97.832 303.383 c 99.117 
303.383 100.16 302.34 100.16 301.055 c 100.16 300.68 100.062 300.332 99.906
 300.02 c 98.582 299.918 97.262 299.809 95.953 299.688 c 95.676 300.074 
95.504 300.543 95.504 301.055 c h
95.504 301.055 m f
90.043 306.516 m 88.758 306.516 87.715 307.559 87.715 308.844 c 87.715 
310.129 88.758 311.172 90.043 311.172 c 91.328 311.172 92.371 310.129 92.371
 308.844 c 92.371 307.559 91.328 306.516 90.043 306.516 c h
90.043 306.516 m f
97.832 318.395 m 99.117 318.395 100.16 317.352 100.16 316.066 c 100.16 
314.781 99.117 313.738 97.832 313.738 c 96.547 313.738 95.504 314.781 95.504
 316.066 c 95.504 317.355 96.547 318.395 97.832 318.395 c h
97.832 318.395 m f
85.148 301.055 m 85.148 299.77 84.105 298.727 82.82 298.727 c 82.797 298.727
 82.777 298.734 82.754 298.734 c 84.457 302.707 l 84.883 302.285 85.148 
301.703 85.148 301.055 c h
85.148 301.055 m f
0.192157 0.215686 0.239216 rg
381.906 110.582 m 375.699 96.113 340.789 72.359 293.121 57.652 c 281.242
 53.984 265.266 49.93 246.848 47.473 c 246.508 47.371 246.152 47.32 245.789
 47.336 c 213.453 43.152 173.758 43.965 135.488 60.387 c 96.676 77.043 68.5
 106.043 49.246 132.875 c 48.961 133.148 48.734 133.469 48.566 133.82 c 
38.184 148.422 30.438 162.332 25.082 173.188 c 2.965 218.012 -3.973 259.426
 2.098 273.574 c 8.07 287.488 41.859 310.461 88.398 325.344 c 88.461 325.363
 88.523 325.387 88.59 325.402 c 89.293 325.629 89.984 325.855 90.691 326.074
 c 109.52 331.934 138.555 338.797 171.25 338.797 c 195.867 338.797 222.559
 334.906 248.516 323.766 c 286.492 307.469 314.293 279.34 333.512 252.988
 c 333.648 252.852 333.789 252.719 333.902 252.559 c 334.02 252.391 334.113
 252.215 334.195 252.035 c 345.199 236.805 353.348 222.223 358.91 210.941
 c 381.023 166.109 387.969 124.707 381.906 110.582 c h
349.043 89.184 m 361.277 96.672 370.457 104.324 374.5 110.301 c 326.191
 131.031 l 298.305 66.012 l 316.848 72.266 334.641 80.375 349.043 89.184
 c h
352.742 209.062 m 347.836 218.922 340.977 231.211 331.973 244.18 c 251.094
 54.504 l 266.469 56.855 279.898 60.27 290.277 63.434 c h
138 66.23 m 163.363 55.348 189.434 51.555 213.445 51.555 c 224.023 51.555
 234.199 52.293 243.746 53.484 c 284.453 148.945 l 234.543 170.363 l 224.172
 146.301 l 223.48 144.691 221.605 143.945 219.996 144.641 c 218.383 145.336
 217.641 147.207 218.336 148.82 c 228.699 172.871 l 190.383 189.312 l 179.883
 164.949 l 179.188 163.34 177.316 162.594 175.703 163.289 c 174.094 163.984
 173.348 165.855 174.043 167.469 c 184.539 191.82 l 147.402 207.758 l 136.992
 183.598 l 136.297 181.988 134.426 181.242 132.812 181.938 c 131.199 182.633
 130.457 184.504 131.152 186.117 c 141.559 210.266 l 95.582 229.996 l 55.09
 135.633 l 73.789 109.809 100.91 82.148 138 66.23 c h
131.199 329.109 m 116 326.641 102.762 323.172 92.582 320.004 c 92.309 319.918
 92.043 319.828 91.77 319.742 c 30.414 176.77 l 30.539 176.512 30.656 176.258
 30.785 176 c 35.5 166.441 42.109 154.453 50.789 141.742 c h
26.785 184.438 m 53.992 247.844 l 7.035 267.992 l 4.383 254.945 9.512 222.391
 26.785 184.438 c h
9.543 273.836 m 56.5 253.688 l 83.711 317.09 l 44.301 303.461 17.172 284.75
 9.543 273.836 c h
246.008 317.922 m 208.926 333.836 170.184 334.441 138.586 330.207 c 98.09
 235.84 l 144.078 216.105 l 154.461 240.199 l 154.98 241.398 156.152 242.117
 157.383 242.117 c 157.805 242.117 158.23 242.035 158.641 241.859 c 160.254
 241.164 160.996 239.293 160.301 237.68 c 149.922 213.598 l 187.059 197.66
 l 197.355 221.547 l 197.871 222.75 199.047 223.469 200.277 223.469 c 200.695
 223.469 201.121 223.387 201.535 223.211 c 203.145 222.516 203.891 220.645
 203.195 219.031 c 192.902 195.152 l 231.219 178.707 l 241.645 202.898 l
 242.164 204.102 243.336 204.82 244.566 204.82 c 244.984 204.82 245.414 
204.738 245.824 204.562 c 247.438 203.867 248.18 201.996 247.484 200.383
 c 237.062 176.199 l 286.945 154.793 l 327.645 250.238 l 308.996 275.57 
282.262 302.367 246.008 317.922 c h
356.395 201.449 m 328.699 136.875 l 376.965 116.164 l 379.652 129.398 374.309
 162.746 356.395 201.449 c h
356.395 201.449 m f
Q Q
showpage
%%Trailer
end
%%EOF
