%!PS-Adobe-3.0 EPSF-3.0
%%Creator: cairo 1.16.0 (https://cairographics.org)
%%CreationDate: Wed Jul 15 13:24:19 2020
%%Pages: 1
%%DocumentData: Clean7Bit
%%LanguageLevel: 2
%%BoundingBox: 0 30 384 354
%%EndComments
%%BeginProlog
50 dict begin
/q { gsave } bind def
/Q { grestore } bind def
/cm { 6 array astore concat } bind def
/w { setlinewidth } bind def
/J { setlinecap } bind def
/j { setlinejoin } bind def
/M { setmiterlimit } bind def
/d { setdash } bind def
/m { moveto } bind def
/l { lineto } bind def
/c { curveto } bind def
/h { closepath } bind def
/re { exch dup neg 3 1 roll 5 3 roll moveto 0 rlineto
      0 exch rlineto 0 rlineto closepath } bind def
/S { stroke } bind def
/f { fill } bind def
/f* { eofill } bind def
/n { newpath } bind def
/W { clip } bind def
/W* { eoclip } bind def
/BT { } bind def
/ET { } bind def
/BDC { mark 3 1 roll /BDC pdfmark } bind def
/EMC { mark /EMC pdfmark } bind def
/cairo_store_point { /cairo_point_y exch def /cairo_point_x exch def } def
/Tj { show currentpoint cairo_store_point } bind def
/TJ {
  {
    dup
    type /stringtype eq
    { show } { -0.001 mul 0 cairo_font_matrix dtransform rmoveto } ifelse
  } forall
  currentpoint cairo_store_point
} bind def
/cairo_selectfont { cairo_font_matrix aload pop pop pop 0 0 6 array astore
    cairo_font exch selectfont cairo_point_x cairo_point_y moveto } bind def
/Tf { pop /cairo_font exch def /cairo_font_matrix where
      { pop cairo_selectfont } if } bind def
/Td { matrix translate cairo_font_matrix matrix concatmatrix dup
      /cairo_font_matrix exch def dup 4 get exch 5 get cairo_store_point
      /cairo_font where { pop cairo_selectfont } if } bind def
/Tm { 2 copy 8 2 roll 6 array astore /cairo_font_matrix exch def
      cairo_store_point /cairo_font where { pop cairo_selectfont } if } bind def
/g { setgray } bind def
/rg { setrgbcolor } bind def
/d1 { setcachedevice } bind def
/cairo_data_source {
  CairoDataIndex CairoData length lt
    { CairoData CairoDataIndex get /CairoDataIndex CairoDataIndex 1 add def }
    { () } ifelse
} def
/cairo_flush_ascii85_file { cairo_ascii85_file status { cairo_ascii85_file flushfile } if } def
/cairo_image { image cairo_flush_ascii85_file } def
/cairo_imagemask { imagemask cairo_flush_ascii85_file } def
%%EndProlog
%%BeginSetup
%%EndSetup
%%Page: 1 1
%%BeginPageSetup
%%PageBoundingBox: 0 30 384 354
%%EndPageSetup
q 0 30 384 324 rectclip
1 0 0 -1 0 384 cm q
0.976471 0.984314 0.988235 rg
366.484 238.289 m 365.57 275.883 322.348 282.727 225.789 282.246 c 218.363
 282.207 190.133 245.23 182.07 245.121 c 163.742 244.863 100.109 206.871
 83.715 200.039 c 71.023 194.75 79.664 61.598 86.445 51.141 c 93.23 40.688
 132.012 31.754 136.992 33.383 c 141.973 35.012 137.652 98.922 149.285 107.148
 c 205.293 146.766 256.016 177.551 296.223 191.012 c 346.52 207.848 366.953
 219.156 366.484 238.289 c h
366.484 238.289 m f
0.913725 0.760784 0.470588 rg
23.609 68.898 m 26.609 66.18 111.629 67.863 115.133 70.266 c 118.637 72.668
 115.133 160.426 121.965 165.891 c 128.797 171.355 168 187.984 195.73 200.039
 c 227.152 213.699 253.105 224.629 253.105 234.191 c 253.105 243.754 242.176
 279.27 242.176 279.27 c 242.176 279.27 198.461 283.371 186.168 280.637 
c 173.875 277.906 109.668 254.684 96.008 251.949 c 82.348 249.219 26.352
 257.582 20.891 248.02 c 15.426 238.457 11.414 203.973 11.316 190.477 c 
11.215 176.984 14.574 143.488 19.512 124.906 c 24.445 106.328 20.609 71.617
 23.609 68.898 c h
23.609 68.898 m f
0.976471 0.984314 0.988235 rg
362.953 315.27 m 327.996 315.27 l 327.996 281.938 l 304.547 281.938 l 304.547
 315.27 l 229.09 315.27 l 229.09 293.34 l 205.641 293.34 l 205.641 315.27
 l 75.188 315.27 l 75.188 293.34 l 51.742 293.34 l 51.742 315.27 l 21.047
 315.27 l 11.391 315.27 3.566 323.094 3.566 332.75 c 3.566 342.402 11.391
 350.227 21.047 350.227 c 362.953 350.227 l 372.605 350.227 380.434 342.402
 380.434 332.75 c 380.434 323.094 372.605 315.27 362.953 315.27 c h
362.953 315.27 m f
0.917647 0.658824 0.584314 rg
372.531 330.852 m 372.531 332.137 373.574 333.18 374.859 333.18 c 376.141
 333.18 377.184 332.137 377.184 330.852 c 377.184 329.566 376.141 328.527
 374.859 328.527 c 373.574 328.527 372.531 329.566 372.531 330.852 c h
372.531 330.852 m f
359.863 318.184 m 361.148 318.184 362.188 317.141 362.188 315.855 c 362.188
 315.652 362.152 315.457 362.105 315.27 c 357.621 315.27 l 357.57 315.457
 357.535 315.652 357.535 315.855 c 357.535 317.141 358.578 318.184 359.863
 318.184 c h
359.863 318.184 m f
367.645 325.398 m 368.926 325.398 369.969 324.355 369.969 323.07 c 369.969
 321.789 368.926 320.746 367.645 320.746 c 366.359 320.746 365.316 321.789
 365.316 323.07 c 365.316 324.355 366.359 325.398 367.645 325.398 c h
367.645 325.398 m f
359.863 328.527 m 358.578 328.527 357.535 329.566 357.535 330.852 c 357.535
 332.137 358.578 333.18 359.863 333.18 c 361.148 333.18 362.188 332.137 
362.188 330.852 c 362.188 329.566 361.148 328.527 359.863 328.527 c h
359.863 328.527 m f
344.867 318.184 m 346.152 318.184 347.191 317.141 347.191 315.855 c 347.191
 315.652 347.16 315.457 347.109 315.27 c 342.625 315.27 l 342.574 315.457
 342.543 315.652 342.543 315.855 c 342.543 317.141 343.582 318.184 344.867
 318.184 c h
344.867 318.184 m f
350.32 323.07 m 350.32 324.355 351.363 325.398 352.648 325.398 c 353.93
 325.398 354.973 324.355 354.973 323.07 c 354.973 321.789 353.93 320.746
 352.648 320.746 c 351.363 320.746 350.32 321.789 350.32 323.07 c h
350.32 323.07 m f
344.867 328.527 m 343.582 328.527 342.543 329.566 342.543 330.852 c 342.543
 332.137 343.582 333.18 344.867 333.18 c 346.152 333.18 347.191 332.137 
347.191 330.852 c 347.191 329.566 346.152 328.527 344.867 328.527 c h
344.867 328.527 m f
327.996 287.23 m 327.996 284.5 l 327.715 284.887 327.547 285.355 327.547
 285.867 c 327.547 286.375 327.715 286.848 327.996 287.23 c h
327.996 287.23 m f
327.996 302.227 m 327.996 299.496 l 327.715 299.879 327.547 300.352 327.547
 300.859 c 327.547 301.371 327.715 301.844 327.996 302.227 c h
327.996 302.227 m f
327.996 314.492 m 327.715 314.875 327.547 315.344 327.547 315.855 c 327.547
 317.141 328.586 318.184 329.871 318.184 c 331.156 318.184 332.195 317.141
 332.195 315.855 c 332.195 315.652 332.164 315.457 332.113 315.27 c 327.996
 315.27 l h
327.996 314.492 m f
335.324 323.07 m 335.324 324.355 336.367 325.398 337.652 325.398 c 338.934
 325.398 339.977 324.355 339.977 323.07 c 339.977 321.789 338.934 320.746
 337.652 320.746 c 336.367 320.746 335.324 321.789 335.324 323.07 c h
335.324 323.07 m f
329.871 328.527 m 328.586 328.527 327.547 329.566 327.547 330.852 c 327.547
 332.137 328.586 333.18 329.871 333.18 c 331.156 333.18 332.195 332.137 
332.195 330.852 c 332.195 329.566 331.156 328.527 329.871 328.527 c h
329.871 328.527 m f
314.875 283.539 m 313.59 283.539 312.551 284.582 312.551 285.867 c 312.551
 287.152 313.59 288.191 314.875 288.191 c 316.16 288.191 317.203 287.152
 317.203 285.867 c 317.203 284.582 316.16 283.539 314.875 283.539 c h
314.875 283.539 m f
322.656 290.754 m 321.371 290.754 320.332 291.797 320.332 293.082 c 320.332
 294.363 321.371 295.406 322.656 295.406 c 323.941 295.406 324.98 294.367
 324.98 293.082 c 324.98 291.797 323.941 290.754 322.656 290.754 c h
322.656 290.754 m f
314.875 298.535 m 313.59 298.535 312.551 299.578 312.551 300.863 c 312.551
 302.145 313.59 303.188 314.875 303.188 c 316.16 303.188 317.203 302.145
 317.203 300.863 c 317.203 299.578 316.16 298.535 314.875 298.535 c h
314.875 298.535 m f
322.656 305.75 m 321.371 305.75 320.332 306.793 320.332 308.078 c 320.332
 309.359 321.371 310.402 322.656 310.402 c 323.941 310.402 324.98 309.359
 324.98 308.078 c 324.98 306.793 323.941 305.75 322.656 305.75 c h
322.656 305.75 m f
314.875 313.531 m 313.59 313.531 312.551 314.57 312.551 315.855 c 312.551
 317.141 313.59 318.184 314.875 318.184 c 316.16 318.184 317.203 317.141
 317.203 315.855 c 317.203 314.57 316.16 313.531 314.875 313.531 c h
314.875 313.531 m f
322.656 320.746 m 321.371 320.746 320.332 321.789 320.332 323.07 c 320.332
 324.355 321.371 325.398 322.656 325.398 c 323.941 325.398 324.98 324.355
 324.98 323.07 c 324.98 321.789 323.941 320.746 322.656 320.746 c h
322.656 320.746 m f
314.875 328.527 m 313.59 328.527 312.551 329.566 312.551 330.852 c 312.551
 332.137 313.59 333.18 314.875 333.18 c 316.16 333.18 317.203 332.137 317.203
 330.852 c 317.203 329.566 316.16 328.527 314.875 328.527 c h
314.875 328.527 m f
307.66 290.754 m 306.375 290.754 305.336 291.797 305.336 293.082 c 305.336
 294.363 306.375 295.406 307.66 295.406 c 308.945 295.406 309.988 294.367
 309.988 293.082 c 309.988 291.797 308.945 290.754 307.66 290.754 c h
307.66 290.754 m f
307.66 305.75 m 306.375 305.75 305.336 306.793 305.336 308.078 c 305.336
 309.359 306.375 310.402 307.66 310.402 c 308.945 310.402 309.988 309.359
 309.988 308.078 c 309.988 306.793 308.945 305.75 307.66 305.75 c h
307.66 305.75 m f
299.879 318.184 m 301.164 318.184 302.207 317.141 302.207 315.855 c 302.207
 315.652 302.172 315.457 302.121 315.27 c 297.637 315.27 l 297.59 315.457
 297.555 315.652 297.555 315.855 c 297.555 317.141 298.598 318.184 299.879
 318.184 c h
299.879 318.184 m f
307.66 325.398 m 308.945 325.398 309.988 324.355 309.988 323.07 c 309.988
 321.789 308.945 320.746 307.66 320.746 c 306.375 320.746 305.336 321.789
 305.336 323.07 c 305.336 324.355 306.375 325.398 307.66 325.398 c h
307.66 325.398 m f
299.879 328.527 m 298.598 328.527 297.555 329.566 297.555 330.852 c 297.555
 332.137 298.598 333.18 299.879 333.18 c 301.164 333.18 302.207 332.137 
302.207 330.852 c 302.207 329.566 301.164 328.527 299.879 328.527 c h
299.879 328.527 m f
284.887 318.184 m 286.168 318.184 287.211 317.141 287.211 315.855 c 287.211
 315.652 287.176 315.457 287.125 315.27 c 282.645 315.27 l 282.594 315.457
 282.559 315.652 282.559 315.855 c 282.559 317.141 283.602 318.184 284.887
 318.184 c h
284.887 318.184 m f
290.34 323.07 m 290.34 324.355 291.379 325.398 292.664 325.398 c 293.949
 325.398 294.992 324.355 294.992 323.07 c 294.992 321.789 293.949 320.746
 292.664 320.746 c 291.379 320.746 290.34 321.789 290.34 323.07 c h
290.34 323.07 m f
284.887 328.527 m 283.602 328.527 282.559 329.566 282.559 330.852 c 282.559
 332.137 283.602 333.18 284.887 333.18 c 286.168 333.18 287.211 332.137 
287.211 330.852 c 287.211 329.566 286.168 328.527 284.887 328.527 c h
284.887 328.527 m f
269.891 318.184 m 271.172 318.184 272.215 317.141 272.215 315.855 c 272.215
 315.652 272.18 315.457 272.133 315.27 c 267.648 315.27 l 267.598 315.457
 267.562 315.652 267.562 315.855 c 267.562 317.141 268.605 318.184 269.891
 318.184 c h
269.891 318.184 m f
275.344 323.07 m 275.344 324.355 276.383 325.398 277.668 325.398 c 278.953
 325.398 279.996 324.355 279.996 323.07 c 279.996 321.789 278.953 320.746
 277.668 320.746 c 276.383 320.746 275.344 321.789 275.344 323.07 c h
275.344 323.07 m f
269.891 328.527 m 268.605 328.527 267.562 329.566 267.562 330.852 c 267.562
 332.137 268.605 333.18 269.891 333.18 c 271.172 333.18 272.215 332.137 
272.215 330.852 c 272.215 329.566 271.172 328.527 269.891 328.527 c h
269.891 328.527 m f
254.895 318.184 m 256.18 318.184 257.219 317.141 257.219 315.855 c 257.219
 315.652 257.184 315.457 257.137 315.27 c 252.652 315.27 l 252.602 315.457
 252.566 315.652 252.566 315.855 c 252.566 317.141 253.609 318.184 254.895
 318.184 c h
254.895 318.184 m f
260.348 323.07 m 260.348 324.355 261.391 325.398 262.672 325.398 c 263.957
 325.398 265 324.355 265 323.07 c 265 321.789 263.957 320.746 262.672 320.746
 c 261.391 320.746 260.348 321.789 260.348 323.07 c h
260.348 323.07 m f
254.895 328.527 m 253.609 328.527 252.566 329.566 252.566 330.852 c 252.566
 332.137 253.609 333.18 254.895 333.18 c 256.18 333.18 257.219 332.137 257.219
 330.852 c 257.219 329.566 256.18 328.527 254.895 328.527 c h
254.895 328.527 m f
239.898 318.184 m 241.184 318.184 242.223 317.141 242.223 315.855 c 242.223
 315.652 242.191 315.457 242.141 315.27 c 237.656 315.27 l 237.605 315.457
 237.574 315.652 237.574 315.855 c 237.574 317.141 238.613 318.184 239.898
 318.184 c h
239.898 318.184 m f
245.352 323.07 m 245.352 324.355 246.395 325.398 247.68 325.398 c 248.961
 325.398 250.004 324.355 250.004 323.07 c 250.004 321.789 248.961 320.746
 247.68 320.746 c 246.395 320.746 245.352 321.789 245.352 323.07 c h
245.352 323.07 m f
239.898 328.527 m 238.613 328.527 237.574 329.566 237.574 330.852 c 237.574
 332.137 238.613 333.18 239.898 333.18 c 241.184 333.18 242.223 332.137 
242.223 330.852 c 242.223 329.566 241.184 328.527 239.898 328.527 c h
239.898 328.527 m f
224.902 298.535 m 223.617 298.535 222.578 299.578 222.578 300.863 c 222.578
 302.145 223.617 303.188 224.902 303.188 c 226.188 303.188 227.23 302.145
 227.23 300.863 c 227.23 299.578 226.188 298.535 224.902 298.535 c h
224.902 298.535 m f
224.902 313.531 m 223.617 313.531 222.578 314.57 222.578 315.855 c 222.578
 317.141 223.617 318.184 224.902 318.184 c 226.188 318.184 227.23 317.141
 227.23 315.855 c 227.23 314.57 226.188 313.531 224.902 313.531 c h
224.902 313.531 m f
230.355 323.07 m 230.355 324.355 231.398 325.398 232.684 325.398 c 233.969
 325.398 235.008 324.355 235.008 323.07 c 235.008 321.789 233.969 320.746
 232.684 320.746 c 231.398 320.746 230.355 321.789 230.355 323.07 c h
230.355 323.07 m f
224.902 328.527 m 223.617 328.527 222.578 329.566 222.578 330.852 c 222.578
 332.137 223.617 333.18 224.902 333.18 c 226.188 333.18 227.23 332.137 227.23
 330.852 c 227.23 329.566 226.188 328.527 224.902 328.527 c h
224.902 328.527 m f
217.688 295.406 m 218.883 295.406 219.859 294.5 219.988 293.34 c 215.387
 293.34 l 215.516 294.5 216.492 295.406 217.688 295.406 c h
217.688 295.406 m f
209.906 298.535 m 208.621 298.535 207.582 299.578 207.582 300.863 c 207.582
 302.145 208.621 303.188 209.906 303.188 c 211.191 303.188 212.234 302.145
 212.234 300.863 c 212.234 299.578 211.191 298.535 209.906 298.535 c h
209.906 298.535 m f
217.688 305.75 m 216.402 305.75 215.363 306.793 215.363 308.078 c 215.363
 309.359 216.402 310.402 217.688 310.402 c 218.973 310.402 220.012 309.359
 220.012 308.078 c 220.012 306.793 218.973 305.75 217.688 305.75 c h
217.688 305.75 m f
209.906 313.531 m 208.621 313.531 207.582 314.57 207.582 315.855 c 207.582
 317.141 208.621 318.184 209.906 318.184 c 211.191 318.184 212.234 317.141
 212.234 315.855 c 212.234 314.57 211.191 313.531 209.906 313.531 c h
209.906 313.531 m f
217.688 320.746 m 216.402 320.746 215.363 321.789 215.363 323.07 c 215.363
 324.355 216.402 325.398 217.688 325.398 c 218.973 325.398 220.012 324.355
 220.012 323.07 c 220.012 321.789 218.973 320.746 217.688 320.746 c h
217.688 320.746 m f
209.906 333.18 m 211.191 333.18 212.234 332.137 212.234 330.852 c 212.234
 329.566 211.191 328.527 209.906 328.527 c 208.621 328.527 207.582 329.566
 207.582 330.852 c 207.582 332.137 208.621 333.18 209.906 333.18 c h
209.906 333.18 m f
194.91 318.184 m 196.195 318.184 197.238 317.141 197.238 315.855 c 197.238
 315.652 197.203 315.457 197.152 315.27 c 192.672 315.27 l 192.621 315.457
 192.586 315.652 192.586 315.855 c 192.586 317.141 193.629 318.184 194.91
 318.184 c h
194.91 318.184 m f
200.367 323.07 m 200.367 324.355 201.406 325.398 202.691 325.398 c 203.977
 325.398 205.016 324.355 205.016 323.07 c 205.016 321.789 203.977 320.746
 202.691 320.746 c 201.406 320.746 200.367 321.789 200.367 323.07 c h
200.367 323.07 m f
194.91 328.527 m 193.629 328.527 192.586 329.566 192.586 330.852 c 192.586
 332.137 193.629 333.18 194.91 333.18 c 196.195 333.18 197.238 332.137 197.238
 330.852 c 197.238 329.566 196.195 328.527 194.91 328.527 c h
194.91 328.527 m f
179.918 318.184 m 181.199 318.184 182.242 317.141 182.242 315.855 c 182.242
 315.652 182.207 315.457 182.156 315.27 c 177.676 315.27 l 177.625 315.457
 177.59 315.652 177.59 315.855 c 177.59 317.141 178.633 318.184 179.918 
318.184 c h
179.918 318.184 m f
185.371 323.07 m 185.371 324.355 186.41 325.398 187.695 325.398 c 188.98
 325.398 190.023 324.355 190.023 323.07 c 190.023 321.789 188.98 320.746
 187.695 320.746 c 186.41 320.746 185.371 321.789 185.371 323.07 c h
185.371 323.07 m f
179.918 328.527 m 178.633 328.527 177.59 329.566 177.59 330.852 c 177.59
 332.137 178.633 333.18 179.918 333.18 c 181.199 333.18 182.242 332.137 
182.242 330.852 c 182.242 329.566 181.199 328.527 179.918 328.527 c h
179.918 328.527 m f
164.922 318.184 m 166.207 318.184 167.246 317.141 167.246 315.855 c 167.246
 315.652 167.211 315.457 167.164 315.27 c 162.68 315.27 l 162.629 315.457
 162.594 315.652 162.594 315.855 c 162.594 317.141 163.637 318.184 164.922
 318.184 c h
164.922 318.184 m f
170.375 323.07 m 170.375 324.355 171.418 325.398 172.699 325.398 c 173.984
 325.398 175.027 324.355 175.027 323.07 c 175.027 321.789 173.984 320.746
 172.699 320.746 c 171.418 320.746 170.375 321.789 170.375 323.07 c h
170.375 323.07 m f
164.922 328.527 m 163.637 328.527 162.594 329.566 162.594 330.852 c 162.594
 332.137 163.637 333.18 164.922 333.18 c 166.207 333.18 167.246 332.137 
167.246 330.852 c 167.246 329.566 166.207 328.527 164.922 328.527 c h
164.922 328.527 m f
149.926 318.184 m 151.211 318.184 152.25 317.141 152.25 315.855 c 152.25
 315.652 152.215 315.457 152.168 315.27 c 147.684 315.27 l 147.633 315.457
 147.598 315.652 147.598 315.855 c 147.598 317.141 148.641 318.184 149.926
 318.184 c h
149.926 318.184 m f
155.379 323.07 m 155.379 324.355 156.422 325.398 157.703 325.398 c 158.988
 325.398 160.031 324.355 160.031 323.07 c 160.031 321.789 158.988 320.746
 157.703 320.746 c 156.422 320.746 155.379 321.789 155.379 323.07 c h
155.379 323.07 m f
149.926 328.527 m 148.641 328.527 147.598 329.566 147.598 330.852 c 147.598
 332.137 148.641 333.18 149.926 333.18 c 151.211 333.18 152.25 332.137 152.25
 330.852 c 152.25 329.566 151.211 328.527 149.926 328.527 c h
149.926 328.527 m f
134.93 318.184 m 136.215 318.184 137.254 317.141 137.254 315.855 c 137.254
 315.652 137.223 315.457 137.172 315.27 c 132.688 315.27 l 132.637 315.457
 132.605 315.652 132.605 315.855 c 132.605 317.141 133.645 318.184 134.93
 318.184 c h
134.93 318.184 m f
140.383 323.07 m 140.383 324.355 141.426 325.398 142.711 325.398 c 143.992
 325.398 145.035 324.355 145.035 323.07 c 145.035 321.789 143.992 320.746
 142.711 320.746 c 141.426 320.746 140.383 321.789 140.383 323.07 c h
140.383 323.07 m f
134.93 328.527 m 133.645 328.527 132.605 329.566 132.605 330.852 c 132.605
 332.137 133.645 333.18 134.93 333.18 c 136.215 333.18 137.254 332.137 137.254
 330.852 c 137.254 329.566 136.215 328.527 134.93 328.527 c h
134.93 328.527 m f
119.934 318.184 m 121.219 318.184 122.262 317.141 122.262 315.855 c 122.262
 315.652 122.227 315.457 122.176 315.27 c 117.691 315.27 l 117.645 315.457
 117.609 315.652 117.609 315.855 c 117.609 317.141 118.648 318.184 119.934
 318.184 c h
119.934 318.184 m f
125.387 323.07 m 125.387 324.355 126.43 325.398 127.715 325.398 c 129 325.398
 130.039 324.355 130.039 323.07 c 130.039 321.789 129 320.746 127.715 320.746
 c 126.43 320.746 125.387 321.789 125.387 323.07 c h
125.387 323.07 m f
119.934 328.527 m 118.648 328.527 117.609 329.566 117.609 330.852 c 117.609
 332.137 118.648 333.18 119.934 333.18 c 121.219 333.18 122.262 332.137 
122.262 330.852 c 122.262 329.566 121.219 328.527 119.934 328.527 c h
119.934 328.527 m f
104.938 318.184 m 106.223 318.184 107.266 317.141 107.266 315.855 c 107.266
 315.652 107.23 315.457 107.18 315.27 c 102.695 315.27 l 102.648 315.457
 102.613 315.652 102.613 315.855 c 102.613 317.141 103.652 318.184 104.938
 318.184 c h
104.938 318.184 m f
110.391 323.07 m 110.391 324.355 111.434 325.398 112.719 325.398 c 114.004
 325.398 115.043 324.355 115.043 323.07 c 115.043 321.789 114.004 320.746
 112.719 320.746 c 111.434 320.746 110.391 321.789 110.391 323.07 c h
110.391 323.07 m f
104.938 328.527 m 103.652 328.527 102.613 329.566 102.613 330.852 c 102.613
 332.137 103.652 333.18 104.938 333.18 c 106.223 333.18 107.266 332.137 
107.266 330.852 c 107.266 329.566 106.223 328.527 104.938 328.527 c h
104.938 328.527 m f
89.941 318.184 m 91.227 318.184 92.27 317.141 92.27 315.855 c 92.27 315.652
 92.234 315.457 92.184 315.27 c 87.703 315.27 l 87.652 315.457 87.617 315.652
 87.617 315.855 c 87.617 317.141 88.66 318.184 89.941 318.184 c h
89.941 318.184 m f
95.398 323.07 m 95.398 324.355 96.438 325.398 97.723 325.398 c 99.008 325.398
 100.047 324.355 100.047 323.07 c 100.047 321.789 99.008 320.746 97.723 
320.746 c 96.438 320.746 95.398 321.789 95.398 323.07 c h
95.398 323.07 m f
89.941 328.527 m 88.66 328.527 87.617 329.566 87.617 330.852 c 87.617 332.137
 88.66 333.18 89.941 333.18 c 91.227 333.18 92.27 332.137 92.27 330.852 
c 92.27 329.566 91.227 328.527 89.941 328.527 c h
89.941 328.527 m f
72.621 300.859 m 72.621 302.145 73.664 303.188 74.949 303.188 c 75.031 
303.188 75.109 303.172 75.188 303.164 c 75.188 298.559 l 75.109 298.551 
75.031 298.535 74.949 298.535 c 73.664 298.535 72.621 299.578 72.621 300.859
 c h
72.621 300.859 m f
75.188 313.555 m 75.109 313.547 75.031 313.531 74.949 313.531 c 73.664 
313.531 72.621 314.57 72.621 315.855 c 72.621 317.141 73.664 318.184 74.949
 318.184 c 76.23 318.184 77.273 317.141 77.273 315.855 c 77.273 315.652 
77.238 315.457 77.188 315.27 c 75.188 315.27 l h
75.188 313.555 m f
80.402 323.07 m 80.402 324.355 81.441 325.398 82.727 325.398 c 84.012 325.398
 85.055 324.355 85.055 323.07 c 85.055 321.789 84.012 320.746 82.727 320.746
 c 81.441 320.746 80.402 321.789 80.402 323.07 c h
80.402 323.07 m f
74.949 328.527 m 73.664 328.527 72.621 329.566 72.621 330.852 c 72.621 
332.137 73.664 333.18 74.949 333.18 c 76.23 333.18 77.273 332.137 77.273
 330.852 c 77.273 329.566 76.234 328.527 74.949 328.527 c h
74.949 328.527 m f
67.734 295.406 m 68.93 295.406 69.902 294.5 70.031 293.34 c 65.434 293.34
 l 65.562 294.5 66.535 295.406 67.734 295.406 c h
67.734 295.406 m f
59.953 298.535 m 58.668 298.535 57.625 299.578 57.625 300.863 c 57.625 
302.145 58.668 303.188 59.953 303.188 c 61.238 303.188 62.277 302.145 62.277
 300.863 c 62.277 299.578 61.238 298.535 59.953 298.535 c h
59.953 298.535 m f
67.734 305.75 m 66.449 305.75 65.406 306.793 65.406 308.078 c 65.406 309.359
 66.449 310.402 67.734 310.402 c 69.016 310.402 70.059 309.359 70.059 308.078
 c 70.059 306.793 69.016 305.75 67.734 305.75 c h
67.734 305.75 m f
59.953 313.531 m 58.668 313.531 57.625 314.57 57.625 315.855 c 57.625 317.141
 58.668 318.184 59.953 318.184 c 61.238 318.184 62.277 317.141 62.277 315.855
 c 62.277 314.57 61.238 313.531 59.953 313.531 c h
59.953 313.531 m f
67.734 320.746 m 66.449 320.746 65.406 321.789 65.406 323.07 c 65.406 324.355
 66.449 325.398 67.734 325.398 c 69.016 325.398 70.059 324.355 70.059 323.07
 c 70.059 321.789 69.016 320.746 67.734 320.746 c h
67.734 320.746 m f
59.953 328.527 m 58.668 328.527 57.625 329.566 57.625 330.852 c 57.625 
332.137 58.668 333.18 59.953 333.18 c 61.238 333.18 62.277 332.137 62.277
 330.852 c 62.277 329.566 61.238 328.527 59.953 328.527 c h
59.953 328.527 m f
51.742 295.176 m 52.043 295.32 52.379 295.406 52.734 295.406 c 53.934 295.406
 54.906 294.5 55.035 293.34 c 51.742 293.34 l h
51.742 295.176 m f
52.738 305.75 m 52.379 305.75 52.043 305.84 51.742 305.984 c 51.742 310.172
 l 52.043 310.316 52.379 310.402 52.738 310.402 c 54.02 310.402 55.062 309.363
 55.062 308.078 c 55.062 306.793 54.02 305.75 52.738 305.75 c h
52.738 305.75 m f
44.957 318.184 m 46.242 318.184 47.281 317.141 47.281 315.855 c 47.281 
315.652 47.246 315.457 47.199 315.27 c 42.715 315.27 l 42.664 315.457 42.629
 315.652 42.629 315.855 c 42.629 317.141 43.672 318.184 44.957 318.184 c
 h
44.957 318.184 m f
52.738 320.746 m 51.453 320.746 50.41 321.789 50.41 323.07 c 50.41 324.355
 51.453 325.398 52.738 325.398 c 54.02 325.398 55.062 324.355 55.062 323.07
 c 55.062 321.789 54.02 320.746 52.738 320.746 c h
52.738 320.746 m f
44.957 328.527 m 43.672 328.527 42.629 329.566 42.629 330.852 c 42.629 
332.137 43.672 333.18 44.957 333.18 c 46.242 333.18 47.281 332.137 47.281
 330.852 c 47.281 329.566 46.242 328.527 44.957 328.527 c h
44.957 328.527 m f
29.961 318.184 m 31.246 318.184 32.285 317.141 32.285 315.855 c 32.285 
315.652 32.254 315.457 32.203 315.27 c 27.719 315.27 l 27.668 315.457 27.637
 315.652 27.637 315.855 c 27.637 317.141 28.676 318.184 29.961 318.184 c
 h
29.961 318.184 m f
35.414 323.07 m 35.414 324.355 36.457 325.398 37.742 325.398 c 39.023 325.398
 40.066 324.355 40.066 323.07 c 40.066 321.789 39.023 320.746 37.742 320.746
 c 36.457 320.746 35.414 321.789 35.414 323.07 c h
35.414 323.07 m f
29.961 328.527 m 28.676 328.527 27.637 329.566 27.637 330.852 c 27.637 
332.137 28.676 333.18 29.961 333.18 c 31.246 333.18 32.285 332.137 32.285
 330.852 c 32.285 329.566 31.246 328.527 29.961 328.527 c h
29.961 328.527 m f
14.965 318.184 m 16.25 318.184 17.293 317.141 17.293 315.855 c 17.293 315.797
 17.277 315.742 17.273 315.684 c 15.793 316.008 14.383 316.523 13.07 317.195
 c 13.492 317.793 14.18 318.184 14.965 318.184 c h
14.965 318.184 m f
20.418 323.07 m 20.418 324.355 21.461 325.398 22.746 325.398 c 24.031 325.398
 25.07 324.355 25.07 323.07 c 25.07 321.789 24.031 320.746 22.746 320.746
 c 21.461 320.746 20.418 321.789 20.418 323.07 c h
20.418 323.07 m f
14.965 328.527 m 13.68 328.527 12.641 329.566 12.641 330.852 c 12.641 332.137
 13.68 333.18 14.965 333.18 c 16.25 333.18 17.293 332.137 17.293 330.852
 c 17.293 329.566 16.25 328.527 14.965 328.527 c h
14.965 328.527 m f
7.75 325.398 m 9.035 325.398 10.078 324.355 10.078 323.07 c 10.078 321.973
 9.309 321.055 8.281 320.812 c 7.309 321.852 6.461 323.012 5.762 324.266
 c 6.168 324.941 6.902 325.398 7.75 325.398 c h
7.75 325.398 m f
93.809 89.141 m 99.23 94.559 99.23 103.348 93.809 108.766 c 88.391 114.184
 79.605 114.184 74.184 108.766 c 68.766 103.348 68.766 94.559 74.184 89.141
 c 79.605 83.719 88.391 83.719 93.809 89.141 c h
93.809 89.141 m f
87.191 132.801 m 94.652 134.562 99.27 142.039 97.504 149.496 c 95.742 156.957
 88.266 161.574 80.809 159.809 c 73.352 158.047 68.734 150.57 70.496 143.113
 c 72.258 135.652 79.734 131.035 87.191 132.801 c h
87.191 132.801 m f
0.192157 0.215686 0.239216 rg
84.016 116.402 m 74.398 116.402 66.57 108.574 66.57 98.953 c 66.57 89.336
 74.398 81.508 84.016 81.508 c 93.637 81.508 101.461 89.336 101.461 98.953
 c 101.461 108.574 93.637 116.402 84.016 116.402 c h
84.016 88.641 m 78.328 88.641 73.703 93.27 73.703 98.953 c 73.703 104.641
 78.328 109.266 84.016 109.266 c 89.703 109.266 94.328 104.641 94.328 98.953
 c 94.328 93.27 89.703 88.641 84.016 88.641 c h
84.016 88.641 m f
84.016 163.695 m 74.398 163.695 66.57 155.867 66.57 146.25 c 66.57 136.629
 74.398 128.801 84.016 128.801 c 93.637 128.801 101.461 136.629 101.461 
146.25 c 101.461 155.867 93.637 163.695 84.016 163.695 c h
84.016 135.938 m 78.328 135.938 73.703 140.562 73.703 146.25 c 73.703 151.934
 78.328 156.562 84.016 156.562 c 89.703 156.562 94.328 151.934 94.328 146.25
 c 94.328 140.562 89.703 135.938 84.016 135.938 c h
84.016 135.938 m f
362.953 311.703 m 331.562 311.703 l 331.562 285.723 l 343.02 283.121 354.27
 280.07 365.289 276.539 c 370.105 274.992 373.344 270.27 373.344 264.785
 c 373.344 260.809 371.574 257.07 368.613 254.789 c 367.906 254.242 367.141
 253.801 366.352 253.453 c 368.309 248.988 369.348 243.977 369.484 238.363
 c 370.02 216.438 346.594 204.707 297.176 188.164 c 269.742 178.98 235.406
 160.906 192.984 133.273 c 192.707 132.934 192.371 132.633 191.965 132.402
 c 191.703 132.254 191.43 132.156 191.152 132.078 c 178.496 123.797 165.133
 114.684 151.016 104.699 c 145.203 100.586 143.891 73.504 143.105 57.32 
c 142.145 37.527 141.699 31.766 137.922 30.531 c 133.75 29.164 119.855 32.371
 111.535 34.855 c 101.293 37.918 88.188 42.941 83.93 49.508 c 82.496 51.723
 81.191 57.449 80.047 64.902 c 76.539 64.809 72.914 64.727 69.234 64.664
 c 57.59 64.461 46.715 64.449 38.617 64.629 c 23.484 64.965 22.566 65.797
 21.594 66.676 c 19.398 68.664 19.293 73.109 19.289 86.848 c 19.289 98.98
 19.285 114.074 16.613 124.137 c 11.652 142.809 8.215 176.738 8.316 190.5
 c 8.387 200.363 10.68 223.609 14.453 238.656 c 10.859 240.695 8.383 244.805
 8.383 249.523 c 8.383 249.887 l 8.383 256.52 13.301 262.004 19.352 262.117
 c 19.887 262.125 l 23.473 292.586 l 23.684 294.383 25.207 295.734 27.016
 295.734 c 27.035 295.734 l 48.176 295.617 l 48.176 311.703 l 21.047 311.703
 l 9.441 311.703 0 321.145 0 332.75 c 0 344.352 9.441 353.793 21.047 353.793
 c 362.953 353.793 l 374.559 353.793 384 344.352 384 332.75 c 384 321.145
 374.559 311.703 362.953 311.703 c h
88.965 52.773 m 94.418 44.363 128.18 35.832 135.289 36.141 c 136.219 39.203
 136.711 49.336 137.113 57.609 c 138.383 83.781 139.957 104.223 147.555 
109.598 c 151.355 112.285 155.098 114.906 158.793 117.473 c 142.383 144.672
 l 141.363 146.359 141.906 148.551 143.594 149.566 c 144.168 149.918 144.805
 150.082 145.434 150.082 c 146.641 150.082 147.82 149.469 148.488 148.355
 c 164.676 121.535 l 171.969 126.547 179.051 131.309 185.934 135.828 c 170.566
 162.992 l 169.594 164.707 170.199 166.883 171.914 167.852 c 172.469 168.168
 173.074 168.316 173.668 168.316 c 174.91 168.316 176.117 167.664 176.773
 166.504 c 191.918 139.738 l 199.168 144.434 206.18 148.844 212.969 152.988
 c 198.281 180.945 l 197.367 182.688 198.039 184.844 199.781 185.762 c 200.312
 186.039 200.879 186.168 201.438 186.168 c 202.719 186.168 203.961 185.477
 204.598 184.262 c 219.086 156.68 l 248.82 174.449 274.043 186.746 295.273
 193.855 c 347.309 211.273 363.883 222.051 363.488 238.215 c 363.352 243.793
 362.137 248.641 359.836 252.852 c 359.75 252.871 359.664 252.879 359.582
 252.902 c 323.609 262.34 286.262 268.074 248.031 270.062 c 251.312 258.656
 256.105 240.848 256.105 234.191 c 256.105 223.496 236.934 214.668 200.199
 198.711 c 196.93 197.289 l 193.547 195.82 189.992 194.281 186.352 192.703
 c 161.18 181.805 129.891 168.254 123.941 163.629 c 123.465 162.93 122.035
 159.488 121.133 143.074 c 120.52 131.914 120.309 117.969 120.121 105.668
 c 119.613 72.336 119.16 69.387 116.832 67.793 c 115.961 67.199 114.883 
66.457 99.938 65.664 c 95.84 65.445 91.141 65.25 86.078 65.082 c 87.105 
58.441 88.113 54.082 88.965 52.773 c h
78.754 295.445 m 102.492 295.309 l 104.453 295.301 106.039 293.707 106.039
 291.742 c 106.039 267.859 l 188.855 294.504 l 189.633 294.754 190.438 294.91
 191.242 294.973 c 194.867 295.258 198.477 295.5 202.074 295.707 c 202.074
 311.703 l 78.754 311.703 l h
232.656 296.562 m 256.062 296.516 278.871 294.828 300.98 291.492 c 300.98
 311.703 l 232.656 311.703 l h
22.41 125.676 m 25.281 114.859 25.285 99.332 25.289 86.852 c 25.293 81.008
 25.293 73.883 25.797 71.348 c 29.879 70.672 45.363 70.246 69.5 70.668 c
 92.188 71.066 108.484 71.988 112.887 72.738 c 113.684 77.039 113.918 92.23
 114.121 105.758 c 114.777 148.863 115.777 164.781 120.09 168.23 c 126.402
 173.281 156.984 186.523 183.965 198.207 c 187.605 199.785 191.156 201.32
 194.535 202.793 c 197.809 204.211 l 212.391 210.547 226.168 216.531 235.828
 221.867 c 248.25 228.727 250.105 232.535 250.105 234.191 c 250.105 240.105
 245.227 258.219 241.703 270.359 c 225.52 271.027 209.184 271.027 192.73
 270.352 c 192.418 270.34 192.105 270.277 191.797 270.172 c 96.09 237.156
 l 94.973 236.773 93.828 236.574 92.633 236.594 c 20.273 237.285 l 16.836
 223.527 14.395 200.93 14.316 190.457 c 14.215 177.02 17.57 143.898 22.41
 125.676 c h
362.953 346.66 m 21.047 346.66 l 13.375 346.66 7.133 340.418 7.133 332.75
 c 7.133 325.078 13.375 318.836 21.047 318.836 c 51.742 318.836 l 53.711
 318.836 55.309 317.238 55.309 315.27 c 55.309 295.578 l 71.621 295.484 
l 71.621 315.27 l 71.621 317.238 73.219 318.836 75.188 318.836 c 205.641
 318.836 l 207.609 318.836 209.207 317.238 209.207 315.27 c 209.207 296.066
 l 214.676 296.305 220.113 296.461 225.523 296.527 c 225.523 315.27 l 225.523
 317.238 227.117 318.836 229.09 318.836 c 304.547 318.836 l 306.516 318.836
 308.113 317.238 308.113 315.27 c 308.113 290.352 l 313.598 289.43 319.035
 288.406 324.426 287.281 c 324.426 315.27 l 324.426 317.238 326.023 318.836
 327.992 318.836 c 362.953 318.836 l 370.625 318.836 376.863 325.078 376.863
 332.746 c 376.867 340.418 370.625 346.66 362.953 346.66 c h
362.953 346.66 m f
Q Q
showpage
%%Trailer
end
%%EOF
