%!PS-Adobe-3.0 EPSF-3.0
%%Creator: cairo 1.16.0 (https://cairographics.org)
%%CreationDate: Wed Jul 15 13:24:20 2020
%%Pages: 1
%%DocumentData: Clean7Bit
%%LanguageLevel: 2
%%BoundingBox: 42 0 342 384
%%EndComments
%%BeginProlog
50 dict begin
/q { gsave } bind def
/Q { grestore } bind def
/cm { 6 array astore concat } bind def
/w { setlinewidth } bind def
/J { setlinecap } bind def
/j { setlinejoin } bind def
/M { setmiterlimit } bind def
/d { setdash } bind def
/m { moveto } bind def
/l { lineto } bind def
/c { curveto } bind def
/h { closepath } bind def
/re { exch dup neg 3 1 roll 5 3 roll moveto 0 rlineto
      0 exch rlineto 0 rlineto closepath } bind def
/S { stroke } bind def
/f { fill } bind def
/f* { eofill } bind def
/n { newpath } bind def
/W { clip } bind def
/W* { eoclip } bind def
/BT { } bind def
/ET { } bind def
/BDC { mark 3 1 roll /BDC pdfmark } bind def
/EMC { mark /EMC pdfmark } bind def
/cairo_store_point { /cairo_point_y exch def /cairo_point_x exch def } def
/Tj { show currentpoint cairo_store_point } bind def
/TJ {
  {
    dup
    type /stringtype eq
    { show } { -0.001 mul 0 cairo_font_matrix dtransform rmoveto } ifelse
  } forall
  currentpoint cairo_store_point
} bind def
/cairo_selectfont { cairo_font_matrix aload pop pop pop 0 0 6 array astore
    cairo_font exch selectfont cairo_point_x cairo_point_y moveto } bind def
/Tf { pop /cairo_font exch def /cairo_font_matrix where
      { pop cairo_selectfont } if } bind def
/Td { matrix translate cairo_font_matrix matrix concatmatrix dup
      /cairo_font_matrix exch def dup 4 get exch 5 get cairo_store_point
      /cairo_font where { pop cairo_selectfont } if } bind def
/Tm { 2 copy 8 2 roll 6 array astore /cairo_font_matrix exch def
      cairo_store_point /cairo_font where { pop cairo_selectfont } if } bind def
/g { setgray } bind def
/rg { setrgbcolor } bind def
/d1 { setcachedevice } bind def
/cairo_data_source {
  CairoDataIndex CairoData length lt
    { CairoData CairoDataIndex get /CairoDataIndex CairoDataIndex 1 add def }
    { () } ifelse
} def
/cairo_flush_ascii85_file { cairo_ascii85_file status { cairo_ascii85_file flushfile } if } def
/cairo_image { image cairo_flush_ascii85_file } def
/cairo_imagemask { imagemask cairo_flush_ascii85_file } def
%%EndProlog
%%BeginSetup
%%EndSetup
%%Page: 1 1
%%BeginPageSetup
%%PageBoundingBox: 42 0 342 384
%%EndPageSetup
q 42 0 300 384 rectclip
1 0 0 -1 0 384 cm q
0.913725 0.760784 0.470588 rg
324.914 116.746 m 324.914 116.746 286.129 112.328 286.129 72.105 c 278.949
 3.152 l 236.969 3.152 l 236.977 3.633 236.992 4.109 236.992 4.59 c 236.992
 41.086 217.141 70.668 192.648 70.668 c 168.156 70.668 148.301 41.086 148.301
 4.59 c 148.301 4.109 148.316 3.633 148.324 3.152 c 103.695 3.152 l 97.949
 72.105 l 97.949 109.453 74.238 116.746 59.164 116.746 c 45.926 358.941 
l 45.316 370.133 54.195 379.559 65.402 379.613 c 318.484 380.848 l 329.766
 380.902 338.766 371.449 338.152 360.184 c h
324.914 116.746 m f
0.976471 0.984314 0.988235 rg
328.434 196.34 m 328.434 197.086 328.793 197.746 329.344 198.172 c 329.152
 194.664 l 328.711 195.086 328.434 195.68 328.434 196.34 c h
328.434 196.34 m f
328.434 211.348 m 328.434 212.434 329.18 213.336 330.18 213.594 c 329.941
 209.18 l 329.062 209.512 328.434 210.355 328.434 211.348 c h
328.434 211.348 m f
330.766 228.688 m 330.844 228.688 330.922 228.672 331 228.664 c 330.75 
224.035 l 329.469 224.043 328.434 225.078 328.434 226.359 c 328.434 227.648
 329.477 228.688 330.766 228.688 c h
330.766 228.688 m f
330.766 243.699 m 331.141 243.699 331.492 243.602 331.805 243.445 c 331.574
 239.195 l 331.32 239.102 331.051 239.043 330.766 239.043 c 329.477 239.043
 328.438 240.086 328.438 241.371 c 328.434 242.656 329.477 243.699 330.766
 243.699 c h
330.766 243.699 m f
330.766 254.055 m 329.477 254.055 328.438 255.098 328.438 256.383 c 328.438
 257.668 329.477 258.711 330.766 258.711 c 331.508 258.711 332.16 258.355
 332.586 257.816 c 332.418 254.746 l 331.996 254.32 331.41 254.055 330.766
 254.055 c h
330.766 254.055 m f
330.766 269.066 m 329.477 269.066 328.438 270.109 328.438 271.395 c 328.438
 272.68 329.477 273.723 330.766 273.723 c 332.051 273.723 333.094 272.68
 333.094 271.395 c 333.094 270.109 332.051 269.066 330.766 269.066 c h
330.766 269.066 m f
330.766 284.078 m 329.477 284.078 328.438 285.117 328.438 286.406 c 328.438
 287.691 329.477 288.734 330.766 288.734 c 332.051 288.734 333.094 287.691
 333.094 286.406 c 333.094 285.117 332.051 284.078 330.766 284.078 c h
330.766 284.078 m f
330.766 299.086 m 329.477 299.086 328.438 300.129 328.438 301.414 c 328.438
 302.703 329.477 303.746 330.766 303.746 c 332.051 303.746 333.094 302.703
 333.094 301.414 c 333.094 300.129 332.051 299.086 330.766 299.086 c h
330.766 299.086 m f
330.766 314.098 m 329.477 314.098 328.438 315.141 328.438 316.426 c 328.438
 317.715 329.477 318.754 330.766 318.754 c 332.051 318.754 333.094 317.715
 333.094 316.426 c 333.094 315.141 332.051 314.098 330.766 314.098 c h
330.766 314.098 m f
330.766 329.109 m 329.477 329.109 328.438 330.152 328.438 331.438 c 328.438
 332.723 329.477 333.766 330.766 333.766 c 332.051 333.766 333.094 332.723
 333.094 331.438 c 333.094 330.152 332.051 329.109 330.766 329.109 c h
330.766 329.109 m f
337.078 340.449 m 336.895 337.031 l 336.48 337.449 336.223 338.023 336.223
 338.66 c 336.223 339.387 336.559 340.023 337.078 340.449 c h
337.078 340.449 m f
330.766 344.121 m 329.477 344.121 328.438 345.164 328.438 346.449 c 328.438
 347.734 329.477 348.777 330.766 348.777 c 332.051 348.777 333.094 347.734
 333.094 346.449 c 333.094 345.164 332.051 344.121 330.766 344.121 c h
330.766 344.121 m f
336.223 353.672 m 336.223 354.738 336.941 355.625 337.918 355.902 c 337.68
 351.516 l 336.828 351.859 336.223 352.695 336.223 353.672 c h
336.223 353.672 m f
330.766 359.133 m 329.477 359.133 328.438 360.176 328.438 361.461 c 328.438
 362.746 329.477 363.789 330.766 363.789 c 332.051 363.789 333.094 362.746
 333.094 361.461 c 333.094 360.176 332.051 359.133 330.766 359.133 c h
330.766 359.133 m f
336.223 368.684 m 336.223 368.961 336.281 369.227 336.371 369.473 c 336.789
 368.57 337.141 367.633 337.418 366.66 c 336.707 367.059 336.223 367.812
 336.223 368.684 c h
336.223 368.684 m f
330.766 374.145 m 329.477 374.145 328.438 375.184 328.438 376.473 c 328.438
 377.012 328.625 377.5 328.934 377.895 c 330.254 377.07 331.465 376.094 
332.547 374.992 c 332.121 374.477 331.484 374.145 330.766 374.145 c h
330.766 374.145 m f
315.754 118.953 m 314.469 118.953 313.426 119.996 313.426 121.281 c 313.426
 122.57 314.469 123.613 315.754 123.613 c 317.039 123.613 318.082 122.57
 318.082 121.281 c 318.082 119.996 317.039 118.953 315.754 118.953 c h
315.754 118.953 m f
323.539 126.176 m 322.254 126.176 321.211 127.219 321.211 128.508 c 321.211
 129.793 322.254 130.836 323.539 130.836 c 324.449 130.836 325.23 130.309
 325.613 129.547 c 325.484 127.23 l 325.07 126.598 324.355 126.176 323.539
 126.176 c h
323.539 126.176 m f
315.754 138.621 m 317.039 138.621 318.082 137.578 318.082 136.293 c 318.082
 135.008 317.039 133.965 315.754 133.965 c 314.469 133.965 313.426 135.008
 313.426 136.293 c 313.426 137.582 314.465 138.621 315.754 138.621 c h
315.754 138.621 m f
323.539 141.188 m 322.254 141.188 321.211 142.23 321.211 143.516 c 321.211
 144.805 322.254 145.844 323.539 145.844 c 324.828 145.844 325.867 144.801
 325.867 143.516 c 325.867 142.23 324.828 141.188 323.539 141.188 c h
323.539 141.188 m f
315.754 153.633 m 317.039 153.633 318.082 152.59 318.082 151.305 c 318.082
 150.02 317.039 148.977 315.754 148.977 c 314.469 148.977 313.426 150.02
 313.426 151.305 c 313.426 152.59 314.465 153.633 315.754 153.633 c h
315.754 153.633 m f
323.539 156.199 m 322.254 156.199 321.211 157.242 321.211 158.527 c 321.211
 159.812 322.254 160.855 323.539 160.855 c 324.828 160.855 325.867 159.812
 325.867 158.527 c 325.867 157.242 324.828 156.199 323.539 156.199 c h
323.539 156.199 m f
315.754 168.645 m 317.039 168.645 318.082 167.602 318.082 166.316 c 318.082
 165.031 317.039 163.988 315.754 163.988 c 314.469 163.988 313.426 165.031
 313.426 166.316 c 313.426 167.602 314.465 168.645 315.754 168.645 c h
315.754 168.645 m f
323.539 171.211 m 322.254 171.211 321.211 172.254 321.211 173.539 c 321.211
 174.824 322.254 175.867 323.539 175.867 c 324.828 175.867 325.867 174.824
 325.867 173.539 c 325.867 172.254 324.828 171.211 323.539 171.211 c h
323.539 171.211 m f
315.754 183.656 m 317.039 183.656 318.082 182.613 318.082 181.328 c 318.082
 180.039 317.039 179 315.754 179 c 314.469 179 313.426 180.039 313.426 181.328
 c 313.426 182.613 314.465 183.656 315.754 183.656 c h
315.754 183.656 m f
323.539 186.223 m 322.254 186.223 321.211 187.266 321.211 188.551 c 321.211
 189.836 322.254 190.879 323.539 190.879 c 324.828 190.879 325.867 189.836
 325.867 188.551 c 325.867 187.266 324.828 186.223 323.539 186.223 c h
323.539 186.223 m f
315.754 198.668 m 317.039 198.668 318.082 197.625 318.082 196.336 c 318.082
 195.051 317.039 194.008 315.754 194.008 c 314.469 194.008 313.426 195.051
 313.426 196.336 c 313.426 197.625 314.465 198.668 315.754 198.668 c h
315.754 198.668 m f
323.539 201.234 m 322.254 201.234 321.211 202.273 321.211 203.562 c 321.211
 204.848 322.254 205.891 323.539 205.891 c 324.828 205.891 325.867 204.848
 325.867 203.562 c 325.867 202.273 324.828 201.234 323.539 201.234 c h
323.539 201.234 m f
315.754 213.676 m 317.039 213.676 318.082 212.637 318.082 211.348 c 318.082
 210.062 317.039 209.02 315.754 209.02 c 314.469 209.02 313.426 210.062 
313.426 211.348 c 313.426 212.637 314.465 213.676 315.754 213.676 c h
315.754 213.676 m f
323.539 216.242 m 322.254 216.242 321.211 217.285 321.211 218.574 c 321.211
 219.859 322.254 220.902 323.539 220.902 c 324.828 220.902 325.867 219.859
 325.867 218.574 c 325.867 217.285 324.828 216.242 323.539 216.242 c h
323.539 216.242 m f
315.754 228.688 m 317.039 228.688 318.082 227.645 318.082 226.359 c 318.082
 225.074 317.039 224.031 315.754 224.031 c 314.469 224.031 313.426 225.074
 313.426 226.359 c 313.426 227.648 314.465 228.688 315.754 228.688 c h
315.754 228.688 m f
323.539 231.254 m 322.254 231.254 321.211 232.297 321.211 233.582 c 321.211
 234.871 322.254 235.914 323.539 235.914 c 324.828 235.914 325.867 234.871
 325.867 233.582 c 325.867 232.297 324.828 231.254 323.539 231.254 c h
323.539 231.254 m f
315.754 243.699 m 317.039 243.699 318.082 242.656 318.082 241.371 c 318.082
 240.086 317.039 239.043 315.754 239.043 c 314.469 239.043 313.426 240.086
 313.426 241.371 c 313.426 242.656 314.465 243.699 315.754 243.699 c h
315.754 243.699 m f
323.539 246.266 m 322.254 246.266 321.211 247.309 321.211 248.594 c 321.211
 249.879 322.254 250.922 323.539 250.922 c 324.828 250.922 325.867 249.879
 325.867 248.594 c 325.867 247.309 324.828 246.266 323.539 246.266 c h
323.539 246.266 m f
315.754 258.711 m 317.039 258.711 318.082 257.668 318.082 256.383 c 318.082
 255.098 317.039 254.055 315.754 254.055 c 314.469 254.055 313.426 255.098
 313.426 256.383 c 313.426 257.668 314.465 258.711 315.754 258.711 c h
315.754 258.711 m f
323.539 261.277 m 322.254 261.277 321.211 262.32 321.211 263.605 c 321.211
 264.891 322.254 265.934 323.539 265.934 c 324.828 265.934 325.867 264.891
 325.867 263.605 c 325.867 262.32 324.828 261.277 323.539 261.277 c h
323.539 261.277 m f
315.754 273.723 m 317.039 273.723 318.082 272.68 318.082 271.395 c 318.082
 270.105 317.039 269.066 315.754 269.066 c 314.469 269.066 313.426 270.105
 313.426 271.395 c 313.426 272.68 314.465 273.723 315.754 273.723 c h
315.754 273.723 m f
323.539 276.289 m 322.254 276.289 321.211 277.332 321.211 278.617 c 321.211
 279.902 322.254 280.945 323.539 280.945 c 324.828 280.945 325.867 279.902
 325.867 278.617 c 325.867 277.332 324.828 276.289 323.539 276.289 c h
323.539 276.289 m f
315.754 288.734 m 317.039 288.734 318.082 287.691 318.082 286.402 c 318.082
 285.117 317.039 284.074 315.754 284.074 c 314.469 284.074 313.426 285.117
 313.426 286.402 c 313.426 287.691 314.465 288.734 315.754 288.734 c h
315.754 288.734 m f
323.539 291.301 m 322.254 291.301 321.211 292.34 321.211 293.629 c 321.211
 294.914 322.254 295.957 323.539 295.957 c 324.828 295.957 325.867 294.914
 325.867 293.629 c 325.867 292.34 324.828 291.301 323.539 291.301 c h
323.539 291.301 m f
315.754 303.742 m 317.039 303.742 318.082 302.703 318.082 301.414 c 318.082
 300.129 317.039 299.086 315.754 299.086 c 314.469 299.086 313.426 300.129
 313.426 301.414 c 313.426 302.703 314.465 303.742 315.754 303.742 c h
315.754 303.742 m f
323.539 306.309 m 322.254 306.309 321.211 307.352 321.211 308.641 c 321.211
 309.926 322.254 310.969 323.539 310.969 c 324.828 310.969 325.867 309.926
 325.867 308.641 c 325.867 307.352 324.828 306.309 323.539 306.309 c h
323.539 306.309 m f
315.754 318.754 m 317.039 318.754 318.082 317.711 318.082 316.426 c 318.082
 315.141 317.039 314.098 315.754 314.098 c 314.469 314.098 313.426 315.141
 313.426 316.426 c 313.426 317.715 314.465 318.754 315.754 318.754 c h
315.754 318.754 m f
323.539 321.32 m 322.254 321.32 321.211 322.363 321.211 323.648 c 321.211
 324.938 322.254 325.98 323.539 325.98 c 324.828 325.98 325.867 324.938 
325.867 323.648 c 325.867 322.363 324.828 321.32 323.539 321.32 c h
323.539 321.32 m f
315.754 333.766 m 317.039 333.766 318.082 332.723 318.082 331.438 c 318.082
 330.152 317.039 329.109 315.754 329.109 c 314.469 329.109 313.426 330.152
 313.426 331.438 c 313.426 332.723 314.465 333.766 315.754 333.766 c h
315.754 333.766 m f
323.539 336.332 m 322.254 336.332 321.211 337.375 321.211 338.66 c 321.211
 339.945 322.254 340.992 323.539 340.992 c 324.828 340.992 325.867 339.945
 325.867 338.66 c 325.867 337.375 324.828 336.332 323.539 336.332 c h
323.539 336.332 m f
315.754 348.777 m 317.039 348.777 318.082 347.734 318.082 346.449 c 318.082
 345.164 317.039 344.121 315.754 344.121 c 314.469 344.121 313.426 345.164
 313.426 346.449 c 313.426 347.734 314.465 348.777 315.754 348.777 c h
315.754 348.777 m f
323.539 351.344 m 322.254 351.344 321.211 352.387 321.211 353.672 c 321.211
 354.957 322.254 356 323.539 356 c 324.828 356 325.867 354.957 325.867 353.672
 c 325.867 352.387 324.828 351.344 323.539 351.344 c h
323.539 351.344 m f
315.754 363.789 m 317.039 363.789 318.082 362.746 318.082 361.461 c 318.082
 360.172 317.039 359.133 315.754 359.133 c 314.469 359.133 313.426 360.172
 313.426 361.461 c 313.426 362.746 314.465 363.789 315.754 363.789 c h
315.754 363.789 m f
323.539 371.012 m 324.828 371.012 325.867 369.969 325.867 368.684 c 325.867
 367.395 324.828 366.355 323.539 366.355 c 322.254 366.355 321.211 367.395
 321.211 368.684 c 321.211 369.969 322.254 371.012 323.539 371.012 c h
323.539 371.012 m f
315.754 378.801 m 317.039 378.801 318.082 377.758 318.082 376.469 c 318.082
 375.184 317.039 374.141 315.754 374.141 c 314.469 374.141 313.426 375.184
 313.426 376.469 c 313.426 377.758 314.465 378.801 315.754 378.801 c h
315.754 378.801 m f
298.414 106.273 m 298.414 107.559 299.457 108.602 300.742 108.602 c 301.555
 108.602 302.27 108.184 302.684 107.551 c 301.48 106.652 300.289 105.672
 299.133 104.594 c 298.691 105.016 298.414 105.609 298.414 106.273 c h
298.414 106.273 m f
306.203 113.496 m 306.203 114.781 307.242 115.824 308.531 115.824 c 309.816
 115.824 310.859 114.781 310.859 113.496 c 310.859 113.035 310.719 112.609
 310.488 112.246 c 309.797 111.914 309.094 111.562 308.387 111.18 c 307.168
 111.258 306.203 112.258 306.203 113.496 c h
306.203 113.496 m f
300.742 123.609 m 302.027 123.609 303.07 122.57 303.07 121.281 c 303.07
 119.996 302.027 118.953 300.742 118.953 c 299.457 118.953 298.414 119.996
 298.414 121.281 c 298.414 122.57 299.457 123.609 300.742 123.609 c h
300.742 123.609 m f
308.531 126.176 m 307.242 126.176 306.203 127.219 306.203 128.508 c 306.203
 129.793 307.242 130.836 308.531 130.836 c 309.816 130.836 310.859 129.793
 310.859 128.508 c 310.859 127.219 309.816 126.176 308.531 126.176 c h
308.531 126.176 m f
300.742 138.621 m 302.027 138.621 303.07 137.578 303.07 136.293 c 303.07
 135.008 302.027 133.965 300.742 133.965 c 299.457 133.965 298.414 135.008
 298.414 136.293 c 298.414 137.582 299.457 138.621 300.742 138.621 c h
300.742 138.621 m f
308.531 141.188 m 307.242 141.188 306.203 142.23 306.203 143.516 c 306.203
 144.805 307.242 145.844 308.531 145.844 c 309.816 145.844 310.859 144.801
 310.859 143.516 c 310.859 142.23 309.816 141.188 308.531 141.188 c h
308.531 141.188 m f
300.742 153.633 m 302.027 153.633 303.07 152.59 303.07 151.305 c 303.07
 150.02 302.027 148.977 300.742 148.977 c 299.457 148.977 298.414 150.02
 298.414 151.305 c 298.414 152.59 299.457 153.633 300.742 153.633 c h
300.742 153.633 m f
308.531 156.199 m 307.242 156.199 306.203 157.242 306.203 158.527 c 306.203
 159.812 307.242 160.855 308.531 160.855 c 309.816 160.855 310.859 159.812
 310.859 158.527 c 310.859 157.242 309.816 156.199 308.531 156.199 c h
308.531 156.199 m f
300.742 168.645 m 302.027 168.645 303.07 167.602 303.07 166.316 c 303.07
 165.031 302.027 163.988 300.742 163.988 c 299.457 163.988 298.414 165.031
 298.414 166.316 c 298.414 167.602 299.457 168.645 300.742 168.645 c h
300.742 168.645 m f
308.531 171.211 m 307.242 171.211 306.203 172.254 306.203 173.539 c 306.203
 174.824 307.242 175.867 308.531 175.867 c 309.816 175.867 310.859 174.824
 310.859 173.539 c 310.859 172.254 309.816 171.211 308.531 171.211 c h
308.531 171.211 m f
300.742 183.656 m 302.027 183.656 303.07 182.613 303.07 181.328 c 303.07
 180.039 302.027 179 300.742 179 c 299.457 179 298.414 180.039 298.414 181.328
 c 298.414 182.613 299.457 183.656 300.742 183.656 c h
300.742 183.656 m f
308.531 186.223 m 307.242 186.223 306.203 187.266 306.203 188.551 c 306.203
 189.836 307.242 190.879 308.531 190.879 c 309.816 190.879 310.859 189.836
 310.859 188.551 c 310.859 187.266 309.816 186.223 308.531 186.223 c h
308.531 186.223 m f
300.742 198.668 m 302.027 198.668 303.07 197.625 303.07 196.336 c 303.07
 195.051 302.027 194.008 300.742 194.008 c 299.969 194.008 299.293 194.387
 298.867 194.965 c 299.027 197.902 l 299.453 198.371 300.059 198.668 300.742
 198.668 c h
300.742 198.668 m f
308.531 201.234 m 307.242 201.234 306.203 202.273 306.203 203.562 c 306.203
 204.848 307.242 205.891 308.531 205.891 c 309.816 205.891 310.859 204.848
 310.859 203.562 c 310.859 202.273 309.816 201.234 308.531 201.234 c h
308.531 201.234 m f
300.742 209.02 m 300.344 209.02 299.977 209.129 299.648 209.305 c 299.875
 213.508 l 300.145 213.617 300.438 213.68 300.742 213.68 c 302.027 213.68
 303.07 212.637 303.07 211.348 c 303.07 210.062 302.027 209.02 300.742 209.02
 c h
300.742 209.02 m f
308.531 216.242 m 307.242 216.242 306.203 217.285 306.203 218.574 c 306.203
 219.859 307.242 220.902 308.531 220.902 c 309.816 220.902 310.859 219.859
 310.859 218.574 c 310.859 217.285 309.816 216.242 308.531 216.242 c h
308.531 216.242 m f
300.742 224.031 m 300.641 224.031 300.547 224.047 300.449 224.062 c 300.703
 228.684 l 300.715 228.684 300.727 228.688 300.742 228.688 c 302.027 228.688
 303.07 227.645 303.07 226.359 c 303.07 225.074 302.027 224.031 300.742 
224.031 c h
300.742 224.031 m f
308.531 231.254 m 307.242 231.254 306.203 232.297 306.203 233.582 c 306.203
 234.871 307.242 235.914 308.531 235.914 c 309.816 235.914 310.859 234.871
 310.859 233.582 c 310.859 232.297 309.816 231.254 308.531 231.254 c h
308.531 231.254 m f
301.27 239.109 m 301.508 243.559 l 302.414 243.242 303.07 242.387 303.07
 241.371 c 303.07 240.266 302.301 239.348 301.27 239.109 c h
301.27 239.109 m f
308.531 246.266 m 307.242 246.266 306.203 247.309 306.203 248.594 c 306.203
 249.879 307.242 250.922 308.531 250.922 c 309.816 250.922 310.859 249.879
 310.859 248.594 c 310.859 247.309 309.816 246.266 308.531 246.266 c h
308.531 246.266 m f
302.105 254.504 m 302.301 258.102 l 302.77 257.676 303.07 257.066 303.07
 256.383 c 303.07 255.609 302.688 254.926 302.105 254.504 c h
302.105 254.504 m f
308.531 261.277 m 307.242 261.277 306.203 262.32 306.203 263.605 c 306.203
 264.891 307.242 265.934 308.531 265.934 c 309.816 265.934 310.859 264.891
 310.859 263.605 c 310.859 262.32 309.816 261.277 308.531 261.277 c h
308.531 261.277 m f
302.992 270.828 m 303.039 271.691 l 303.051 271.594 303.07 271.496 303.07
 271.395 c 303.07 271.199 303.039 271.012 302.992 270.828 c h
302.992 270.828 m f
308.531 276.289 m 307.242 276.289 306.203 277.332 306.203 278.617 c 306.203
 279.902 307.242 280.945 308.531 280.945 c 309.816 280.945 310.859 279.902
 310.859 278.617 c 310.859 277.332 309.816 276.289 308.531 276.289 c h
308.531 276.289 m f
308.531 291.301 m 307.242 291.301 306.203 292.34 306.203 293.629 c 306.203
 294.914 307.242 295.957 308.531 295.957 c 309.816 295.957 310.859 294.914
 310.859 293.629 c 310.859 292.34 309.816 291.301 308.531 291.301 c h
308.531 291.301 m f
308.531 306.309 m 307.242 306.309 306.203 307.352 306.203 308.641 c 306.203
 309.926 307.242 310.969 308.531 310.969 c 309.816 310.969 310.859 309.926
 310.859 308.641 c 310.859 307.352 309.816 306.309 308.531 306.309 c h
308.531 306.309 m f
308.531 321.32 m 307.242 321.32 306.203 322.363 306.203 323.648 c 306.203
 324.938 307.242 325.98 308.531 325.98 c 309.816 325.98 310.859 324.938 
310.859 323.648 c 310.859 322.363 309.816 321.32 308.531 321.32 c h
308.531 321.32 m f
308.531 336.332 m 307.242 336.332 306.203 337.375 306.203 338.66 c 306.203
 339.945 307.242 340.992 308.531 340.992 c 309.816 340.992 310.859 339.945
 310.859 338.66 c 310.859 337.375 309.816 336.332 308.531 336.332 c h
308.531 336.332 m f
300.742 344.121 m 299.457 344.121 298.414 345.164 298.414 346.449 c 298.414
 347.734 299.457 348.777 300.742 348.777 c 302.027 348.777 303.07 347.734
 303.07 346.449 c 303.07 345.164 302.027 344.121 300.742 344.121 c h
300.742 344.121 m f
308.531 351.344 m 307.242 351.344 306.203 352.387 306.203 353.672 c 306.203
 354.957 307.242 356 308.531 356 c 309.816 356 310.859 354.957 310.859 353.672
 c 310.859 352.387 309.816 351.344 308.531 351.344 c h
308.531 351.344 m f
300.742 359.133 m 299.457 359.133 298.414 360.176 298.414 361.461 c 298.414
 362.746 299.457 363.789 300.742 363.789 c 302.027 363.789 303.07 362.746
 303.07 361.461 c 303.07 360.176 302.027 359.133 300.742 359.133 c h
300.742 359.133 m f
308.531 366.355 m 307.242 366.355 306.203 367.398 306.203 368.684 c 306.203
 369.969 307.242 371.012 308.531 371.012 c 309.816 371.012 310.859 369.969
 310.859 368.684 c 310.859 367.398 309.816 366.355 308.531 366.355 c h
308.531 366.355 m f
300.742 374.145 m 299.457 374.145 298.414 375.184 298.414 376.473 c 298.414
 377.758 299.457 378.801 300.742 378.801 c 302.027 378.801 303.07 377.758
 303.07 376.473 c 303.07 375.184 302.027 374.145 300.742 374.145 c h
300.742 374.145 m f
293.609 98.246 m 293.746 100.789 l 294.258 100.738 294.719 100.527 295.074
 100.203 c 294.574 99.57 294.082 98.926 293.609 98.246 c h
293.609 98.246 m f
294.32 111.316 m 294.551 115.57 l 295.316 115.191 295.848 114.406 295.848
 113.496 c 295.848 112.492 295.211 111.645 294.32 111.316 c h
294.32 111.316 m f
295.164 126.859 m 295.332 129.949 l 295.648 129.551 295.848 129.055 295.848
 128.504 c 295.848 127.863 295.586 127.281 295.164 126.859 c h
295.164 126.859 m f
293.52 351.344 m 292.234 351.344 291.191 352.387 291.191 353.672 c 291.191
 354.957 292.234 356 293.52 356 c 294.805 356 295.848 354.957 295.848 353.672
 c 295.848 352.387 294.805 351.344 293.52 351.344 c h
293.52 351.344 m f
285.73 359.133 m 284.445 359.133 283.402 360.176 283.402 361.461 c 283.402
 362.746 284.445 363.789 285.73 363.789 c 287.016 363.789 288.059 362.746
 288.059 361.461 c 288.059 360.176 287.016 359.133 285.73 359.133 c h
285.73 359.133 m f
293.52 366.355 m 292.234 366.355 291.191 367.398 291.191 368.684 c 291.191
 369.969 292.234 371.012 293.52 371.012 c 294.805 371.012 295.848 369.969
 295.848 368.684 c 295.848 367.398 294.805 366.355 293.52 366.355 c h
293.52 366.355 m f
285.73 374.145 m 284.445 374.145 283.402 375.184 283.402 376.473 c 283.402
 377.758 284.445 378.801 285.73 378.801 c 287.016 378.801 288.059 377.758
 288.059 376.473 c 288.059 375.184 287.016 374.145 285.73 374.145 c h
285.73 374.145 m f
271.188 348.73 m 270.234 348.727 l 270.391 348.758 270.555 348.777 270.719
 348.777 c 270.879 348.777 271.035 348.762 271.188 348.73 c h
271.188 348.73 m f
278.508 351.344 m 277.223 351.344 276.18 352.387 276.18 353.672 c 276.18
 354.957 277.223 356 278.508 356 c 279.793 356 280.836 354.957 280.836 353.672
 c 280.836 352.387 279.793 351.344 278.508 351.344 c h
278.508 351.344 m f
270.719 359.133 m 269.434 359.133 268.391 360.176 268.391 361.461 c 268.391
 362.746 269.434 363.789 270.719 363.789 c 272.004 363.789 273.047 362.746
 273.047 361.461 c 273.047 360.176 272.004 359.133 270.719 359.133 c h
270.719 359.133 m f
278.508 366.355 m 277.223 366.355 276.18 367.398 276.18 368.684 c 276.18
 369.969 277.223 371.012 278.508 371.012 c 279.793 371.012 280.836 369.969
 280.836 368.684 c 280.836 367.398 279.793 366.355 278.508 366.355 c h
278.508 366.355 m f
270.719 374.145 m 269.434 374.145 268.391 375.184 268.391 376.473 c 268.391
 377.758 269.434 378.801 270.719 378.801 c 272.004 378.801 273.047 377.758
 273.047 376.473 c 273.047 375.184 272.004 374.145 270.719 374.145 c h
270.719 374.145 m f
256.41 348.66 m 254.984 348.652 l 255.215 348.727 255.453 348.777 255.707
 348.777 c 255.953 348.777 256.188 348.73 256.41 348.66 c h
256.41 348.66 m f
263.496 351.344 m 262.211 351.344 261.168 352.387 261.168 353.672 c 261.168
 354.957 262.211 356 263.496 356 c 264.781 356 265.824 354.957 265.824 353.672
 c 265.824 352.387 264.781 351.344 263.496 351.344 c h
263.496 351.344 m f
255.707 359.133 m 254.422 359.133 253.379 360.176 253.379 361.461 c 253.379
 362.746 254.422 363.789 255.707 363.789 c 256.996 363.789 258.035 362.746
 258.035 361.461 c 258.035 360.176 256.996 359.133 255.707 359.133 c h
255.707 359.133 m f
263.496 366.355 m 262.211 366.355 261.168 367.398 261.168 368.684 c 261.168
 369.969 262.211 371.012 263.496 371.012 c 264.781 371.012 265.824 369.969
 265.824 368.684 c 265.824 367.398 264.781 366.355 263.496 366.355 c h
263.496 366.355 m f
255.707 374.145 m 254.422 374.145 253.379 375.184 253.379 376.473 c 253.379
 377.758 254.422 378.801 255.707 378.801 c 256.996 378.801 258.035 377.758
 258.035 376.473 c 258.035 375.184 256.996 374.145 255.707 374.145 c h
255.707 374.145 m f
241.617 348.586 m 239.758 348.578 l 240.047 348.703 240.363 348.777 240.699
 348.777 c 241.023 348.777 241.336 348.707 241.617 348.586 c h
241.617 348.586 m f
248.484 351.344 m 247.199 351.344 246.156 352.387 246.156 353.672 c 246.156
 354.957 247.199 356 248.484 356 c 249.77 356 250.812 354.957 250.812 353.672
 c 250.812 352.387 249.77 351.344 248.484 351.344 c h
248.484 351.344 m f
240.699 359.133 m 239.41 359.133 238.371 360.176 238.371 361.461 c 238.371
 362.746 239.41 363.789 240.699 363.789 c 241.984 363.789 243.027 362.746
 243.027 361.461 c 243.027 360.176 241.984 359.133 240.699 359.133 c h
240.699 359.133 m f
248.484 366.355 m 247.199 366.355 246.156 367.398 246.156 368.684 c 246.156
 369.969 247.199 371.012 248.484 371.012 c 249.77 371.012 250.812 369.969
 250.812 368.684 c 250.812 367.398 249.77 366.355 248.484 366.355 c h
248.484 366.355 m f
240.699 374.145 m 239.41 374.145 238.371 375.184 238.371 376.473 c 238.371
 377.758 239.41 378.801 240.699 378.801 c 241.984 378.801 243.027 377.758
 243.027 376.473 c 243.027 375.184 241.984 374.145 240.699 374.145 c h
240.699 374.145 m f
226.742 348.516 m 224.613 348.504 l 224.934 348.672 225.297 348.777 225.688
 348.777 c 226.07 348.777 226.422 348.676 226.742 348.516 c h
226.742 348.516 m f
233.473 351.344 m 232.188 351.344 231.145 352.387 231.145 353.672 c 231.145
 354.957 232.188 356 233.473 356 c 234.762 356 235.801 354.957 235.801 353.672
 c 235.801 352.387 234.762 351.344 233.473 351.344 c h
233.473 351.344 m f
225.688 359.133 m 224.402 359.133 223.359 360.176 223.359 361.461 c 223.359
 362.746 224.402 363.789 225.688 363.789 c 226.973 363.789 228.016 362.746
 228.016 361.461 c 228.016 360.176 226.973 359.133 225.688 359.133 c h
225.688 359.133 m f
233.473 366.355 m 232.188 366.355 231.145 367.398 231.145 368.684 c 231.145
 369.969 232.188 371.012 233.473 371.012 c 234.762 371.012 235.801 369.969
 235.801 368.684 c 235.801 367.398 234.762 366.355 233.473 366.355 c h
233.473 366.355 m f
225.688 374.145 m 224.402 374.145 223.359 375.184 223.359 376.473 c 223.359
 377.758 224.402 378.801 225.688 378.801 c 226.973 378.801 228.016 377.758
 228.016 376.473 c 228.016 375.184 226.973 374.145 225.688 374.145 c h
225.688 374.145 m f
211.863 348.441 m 209.465 348.43 l 209.816 348.645 210.23 348.777 210.676
 348.777 c 211.113 348.777 211.516 348.648 211.863 348.441 c h
211.863 348.441 m f
218.465 351.344 m 217.176 351.344 216.137 352.387 216.137 353.672 c 216.137
 354.957 217.176 356 218.465 356 c 219.75 356 220.793 354.957 220.793 353.672
 c 220.793 352.387 219.75 351.344 218.465 351.344 c h
218.465 351.344 m f
210.676 359.133 m 209.391 359.133 208.348 360.176 208.348 361.461 c 208.348
 362.746 209.391 363.789 210.676 363.789 c 211.961 363.789 213.004 362.746
 213.004 361.461 c 213.004 360.176 211.961 359.133 210.676 359.133 c h
210.676 359.133 m f
218.465 366.355 m 217.176 366.355 216.137 367.398 216.137 368.684 c 216.137
 369.969 217.176 371.012 218.465 371.012 c 219.75 371.012 220.793 369.969
 220.793 368.684 c 220.793 367.398 219.75 366.355 218.465 366.355 c h
218.465 366.355 m f
210.676 374.145 m 209.391 374.145 208.348 375.184 208.348 376.473 c 208.348
 377.758 209.391 378.801 210.676 378.801 c 211.961 378.801 213.004 377.758
 213.004 376.473 c 213.004 375.184 211.961 374.145 210.676 374.145 c h
210.676 374.145 m f
196.98 348.367 m 194.332 348.355 l 194.711 348.621 195.168 348.777 195.664
 348.777 c 196.152 348.777 196.605 348.625 196.98 348.367 c h
196.98 348.367 m f
203.453 351.344 m 202.168 351.344 201.125 352.387 201.125 353.672 c 201.125
 354.957 202.168 356 203.453 356 c 204.738 356 205.781 354.957 205.781 353.672
 c 205.781 352.387 204.738 351.344 203.453 351.344 c h
203.453 351.344 m f
195.664 359.133 m 194.379 359.133 193.336 360.176 193.336 361.461 c 193.336
 362.746 194.379 363.789 195.664 363.789 c 196.949 363.789 197.992 362.746
 197.992 361.461 c 197.992 360.176 196.949 359.133 195.664 359.133 c h
195.664 359.133 m f
203.453 366.355 m 202.168 366.355 201.125 367.398 201.125 368.684 c 201.125
 369.969 202.168 371.012 203.453 371.012 c 204.738 371.012 205.781 369.969
 205.781 368.684 c 205.781 367.398 204.738 366.355 203.453 366.355 c h
203.453 366.355 m f
195.664 374.145 m 194.379 374.145 193.336 375.184 193.336 376.473 c 193.336
 377.758 194.379 378.801 195.664 378.801 c 196.949 378.801 197.992 377.758
 197.992 376.473 c 197.992 375.184 196.949 374.145 195.664 374.145 c h
195.664 374.145 m f
182.059 348.297 m 179.23 348.281 l 179.625 348.586 180.117 348.777 180.652
 348.777 c 181.184 348.777 181.664 348.594 182.059 348.297 c h
182.059 348.297 m f
188.441 351.344 m 187.156 351.344 186.113 352.387 186.113 353.672 c 186.113
 354.957 187.156 356 188.441 356 c 189.727 356 190.77 354.957 190.77 353.672
 c 190.77 352.387 189.727 351.344 188.441 351.344 c h
188.441 351.344 m f
180.652 359.133 m 179.367 359.133 178.324 360.176 178.324 361.461 c 178.324
 362.746 179.367 363.789 180.652 363.789 c 181.938 363.789 182.98 362.746
 182.98 361.461 c 182.98 360.176 181.938 359.133 180.652 359.133 c h
180.652 359.133 m f
188.441 366.355 m 187.156 366.355 186.113 367.398 186.113 368.684 c 186.113
 369.969 187.156 371.012 188.441 371.012 c 189.727 371.012 190.77 369.969
 190.77 368.684 c 190.77 367.398 189.727 366.355 188.441 366.355 c h
188.441 366.355 m f
180.652 374.145 m 179.367 374.145 178.324 375.184 178.324 376.473 c 178.324
 377.758 179.367 378.801 180.652 378.801 c 181.938 378.801 182.98 377.758
 182.98 376.473 c 182.98 375.184 181.938 374.145 180.652 374.145 c h
180.652 374.145 m f
167.133 348.223 m 164.133 348.207 l 164.539 348.559 165.062 348.777 165.641
 348.777 c 166.215 348.777 166.73 348.562 167.133 348.223 c h
167.133 348.223 m f
173.43 351.344 m 172.145 351.344 171.102 352.387 171.102 353.672 c 171.102
 354.957 172.145 356 173.43 356 c 174.715 356 175.758 354.957 175.758 353.672
 c 175.758 352.387 174.715 351.344 173.43 351.344 c h
173.43 351.344 m f
165.641 359.133 m 164.355 359.133 163.312 360.176 163.312 361.461 c 163.312
 362.746 164.355 363.789 165.641 363.789 c 166.93 363.789 167.969 362.746
 167.969 361.461 c 167.969 360.176 166.93 359.133 165.641 359.133 c h
165.641 359.133 m f
173.43 366.355 m 172.145 366.355 171.102 367.398 171.102 368.684 c 171.102
 369.969 172.145 371.012 173.43 371.012 c 174.715 371.012 175.758 369.969
 175.758 368.684 c 175.758 367.398 174.715 366.355 173.43 366.355 c h
173.43 366.355 m f
165.641 374.145 m 164.355 374.145 163.312 375.184 163.312 376.473 c 163.312
 377.758 164.355 378.801 165.641 378.801 c 166.93 378.801 167.969 377.758
 167.969 376.473 c 167.969 375.184 166.93 374.145 165.641 374.145 c h
165.641 374.145 m f
152.211 348.148 m 149.031 348.133 l 149.449 348.531 150.008 348.777 150.629
 348.777 c 151.242 348.777 151.797 348.535 152.211 348.148 c h
152.211 348.148 m f
158.418 351.344 m 157.133 351.344 156.09 352.387 156.09 353.672 c 156.09
 354.957 157.133 356 158.418 356 c 159.703 356 160.746 354.957 160.746 353.672
 c 160.746 352.387 159.703 351.344 158.418 351.344 c h
158.418 351.344 m f
150.633 359.133 m 149.344 359.133 148.305 360.176 148.305 361.461 c 148.305
 362.746 149.344 363.789 150.633 363.789 c 151.918 363.789 152.961 362.746
 152.961 361.461 c 152.961 360.176 151.918 359.133 150.633 359.133 c h
150.633 359.133 m f
158.418 366.355 m 157.133 366.355 156.09 367.398 156.09 368.684 c 156.09
 369.969 157.133 371.012 158.418 371.012 c 159.703 371.012 160.746 369.969
 160.746 368.684 c 160.746 367.398 159.703 366.355 158.418 366.355 c h
158.418 366.355 m f
150.633 374.145 m 149.344 374.145 148.305 375.184 148.305 376.473 c 148.305
 377.758 149.344 378.801 150.633 378.801 c 151.918 378.801 152.961 377.758
 152.961 376.473 c 152.961 375.184 151.918 374.145 150.633 374.145 c h
150.633 374.145 m f
135.621 348.777 m 136.27 348.777 136.859 348.508 137.281 348.078 c 133.945
 348.059 l 134.367 348.5 134.961 348.777 135.621 348.777 c h
135.621 348.777 m f
143.406 351.344 m 142.121 351.344 141.078 352.387 141.078 353.672 c 141.078
 354.957 142.121 356 143.406 356 c 144.691 356 145.734 354.957 145.734 353.672
 c 145.734 352.387 144.691 351.344 143.406 351.344 c h
143.406 351.344 m f
135.621 359.133 m 134.336 359.133 133.293 360.176 133.293 361.461 c 133.293
 362.746 134.336 363.789 135.621 363.789 c 136.906 363.789 137.949 362.746
 137.949 361.461 c 137.949 360.176 136.906 359.133 135.621 359.133 c h
135.621 359.133 m f
143.406 366.355 m 142.121 366.355 141.078 367.398 141.078 368.684 c 141.078
 369.969 142.121 371.012 143.406 371.012 c 144.691 371.012 145.734 369.969
 145.734 368.684 c 145.734 367.398 144.691 366.355 143.406 366.355 c h
143.406 366.355 m f
135.621 374.145 m 134.336 374.145 133.293 375.184 133.293 376.473 c 133.293
 377.758 134.336 378.801 135.621 378.801 c 136.906 378.801 137.949 377.758
 137.949 376.473 c 137.949 375.184 136.906 374.145 135.621 374.145 c h
135.621 374.145 m f
120.609 348.777 m 121.293 348.777 121.906 348.477 122.332 348.004 c 118.871
 347.988 l 119.301 348.469 119.914 348.777 120.609 348.777 c h
120.609 348.777 m f
128.398 351.344 m 127.109 351.344 126.066 352.387 126.066 353.672 c 126.066
 354.957 127.109 356 128.398 356 c 129.684 356 130.727 354.957 130.727 353.672
 c 130.727 352.387 129.684 351.344 128.398 351.344 c h
128.398 351.344 m f
120.609 359.133 m 119.324 359.133 118.281 360.176 118.281 361.461 c 118.281
 362.746 119.324 363.789 120.609 363.789 c 121.895 363.789 122.938 362.746
 122.938 361.461 c 122.938 360.176 121.895 359.133 120.609 359.133 c h
120.609 359.133 m f
128.398 366.355 m 127.109 366.355 126.066 367.398 126.066 368.684 c 126.066
 369.969 127.109 371.012 128.398 371.012 c 129.684 371.012 130.727 369.969
 130.727 368.684 c 130.727 367.398 129.684 366.355 128.398 366.355 c h
128.398 366.355 m f
120.609 374.145 m 119.324 374.145 118.281 375.184 118.281 376.473 c 118.281
 377.758 119.324 378.801 120.609 378.801 c 121.895 378.801 122.938 377.758
 122.938 376.473 c 122.938 375.184 121.895 374.145 120.609 374.145 c h
120.609 374.145 m f
105.598 348.777 m 106.316 348.777 106.953 348.445 107.379 347.93 c 103.801
 347.914 l 104.227 348.438 104.871 348.777 105.598 348.777 c h
105.598 348.777 m f
113.387 351.344 m 112.102 351.344 111.059 352.387 111.059 353.672 c 111.059
 354.957 112.102 356 113.387 356 c 114.672 356 115.715 354.957 115.715 353.672
 c 115.715 352.387 114.672 351.344 113.387 351.344 c h
113.387 351.344 m f
105.598 359.133 m 104.312 359.133 103.27 360.176 103.27 361.461 c 103.27
 362.746 104.312 363.789 105.598 363.789 c 106.883 363.789 107.926 362.746
 107.926 361.461 c 107.926 360.176 106.883 359.133 105.598 359.133 c h
105.598 359.133 m f
113.387 366.355 m 112.102 366.355 111.059 367.398 111.059 368.684 c 111.059
 369.969 112.102 371.012 113.387 371.012 c 114.672 371.012 115.715 369.969
 115.715 368.684 c 115.715 367.398 114.672 366.355 113.387 366.355 c h
113.387 366.355 m f
105.598 374.145 m 104.312 374.145 103.27 375.184 103.27 376.473 c 103.27
 377.758 104.312 378.801 105.598 378.801 c 106.883 378.801 107.926 377.758
 107.926 376.473 c 107.926 375.184 106.883 374.145 105.598 374.145 c h
105.598 374.145 m f
90.586 348.777 m 91.34 348.777 92.004 348.414 92.43 347.855 c 88.73 347.84
 l 89.152 348.406 89.824 348.777 90.586 348.777 c h
90.586 348.777 m f
98.375 351.344 m 97.09 351.344 96.047 352.387 96.047 353.672 c 96.047 354.957
 97.09 356 98.375 356 c 99.66 356 100.703 354.957 100.703 353.672 c 100.703
 352.387 99.66 351.344 98.375 351.344 c h
98.375 351.344 m f
90.586 359.133 m 89.301 359.133 88.258 360.176 88.258 361.461 c 88.258 
362.746 89.301 363.789 90.586 363.789 c 91.871 363.789 92.914 362.746 92.914
 361.461 c 92.914 360.176 91.871 359.133 90.586 359.133 c h
90.586 359.133 m f
98.375 366.355 m 97.09 366.355 96.047 367.398 96.047 368.684 c 96.047 369.969
 97.09 371.012 98.375 371.012 c 99.66 371.012 100.703 369.969 100.703 368.684
 c 100.703 367.398 99.66 366.355 98.375 366.355 c h
98.375 366.355 m f
90.586 374.145 m 89.301 374.145 88.258 375.184 88.258 376.473 c 88.258 
377.758 89.301 378.801 90.586 378.801 c 91.871 378.801 92.914 377.758 92.914
 376.473 c 92.914 375.184 91.871 374.145 90.586 374.145 c h
90.586 374.145 m f
75.574 348.777 m 76.363 348.777 77.059 348.383 77.477 347.785 c 73.656 
347.766 l 74.078 348.375 74.777 348.777 75.574 348.777 c h
75.574 348.777 m f
83.363 351.344 m 82.078 351.344 81.035 352.387 81.035 353.672 c 81.035 
354.957 82.078 356 83.363 356 c 84.648 356 85.691 354.957 85.691 353.672
 c 85.691 352.387 84.648 351.344 83.363 351.344 c h
83.363 351.344 m f
75.574 359.133 m 74.289 359.133 73.246 360.176 73.246 361.461 c 73.246 
362.746 74.289 363.789 75.574 363.789 c 76.859 363.789 77.902 362.746 77.902
 361.461 c 77.902 360.176 76.859 359.133 75.574 359.133 c h
75.574 359.133 m f
83.363 366.355 m 82.078 366.355 81.035 367.398 81.035 368.684 c 81.035 
369.969 82.078 371.012 83.363 371.012 c 84.648 371.012 85.691 369.969 85.691
 368.684 c 85.691 367.398 84.648 366.355 83.363 366.355 c h
83.363 366.355 m f
75.574 374.145 m 74.289 374.145 73.246 375.184 73.246 376.473 c 73.246 
377.758 74.289 378.801 75.574 378.801 c 76.859 378.801 77.902 377.758 77.902
 376.473 c 77.902 375.184 76.859 374.145 75.574 374.145 c h
75.574 374.145 m f
60.566 348.777 m 61.383 348.777 62.102 348.352 62.516 347.711 c 58.602 
347.691 l 59.016 348.344 59.738 348.777 60.566 348.777 c h
60.566 348.777 m f
66.023 353.672 m 66.023 354.957 67.066 356 68.352 356 c 69.637 356 70.68
 354.957 70.68 353.672 c 70.68 352.387 69.637 351.344 68.352 351.344 c 67.066
 351.344 66.023 352.387 66.023 353.672 c h
66.023 353.672 m f
60.566 359.133 m 59.277 359.133 58.234 360.176 58.234 361.461 c 58.234 
362.746 59.277 363.789 60.566 363.789 c 61.852 363.789 62.895 362.746 62.895
 361.461 c 62.895 360.176 61.852 359.133 60.566 359.133 c h
60.566 359.133 m f
68.352 371.012 m 69.637 371.012 70.68 369.969 70.68 368.684 c 70.68 367.395
 69.637 366.355 68.352 366.355 c 67.066 366.355 66.023 367.395 66.023 368.684
 c 66.023 369.969 67.066 371.012 68.352 371.012 c h
68.352 371.012 m f
62.895 376.473 m 62.895 375.184 61.852 374.145 60.566 374.145 c 59.277 
374.145 58.234 375.184 58.234 376.473 c 58.234 377.758 59.277 378.801 60.566
 378.801 c 61.852 378.801 62.895 377.758 62.895 376.473 c h
62.895 376.473 m f
47.543 347.637 m 46.543 347.633 l 46.492 348.578 l 46.934 348.383 47.297
 348.051 47.543 347.637 c h
47.543 347.637 m f
53.34 351.344 m 52.055 351.344 51.012 352.387 51.012 353.672 c 51.012 354.957
 52.055 356 53.34 356 c 54.625 356 55.668 354.957 55.668 353.672 c 55.668
 352.387 54.625 351.344 53.34 351.344 c h
53.34 351.344 m f
47.883 361.461 m 47.883 360.301 47.031 359.348 45.918 359.168 c 45.852 
360.711 45.969 362.219 46.242 363.672 c 47.191 363.379 47.883 362.504 47.883
 361.461 c h
47.883 361.461 m f
53.34 366.355 m 52.055 366.355 51.012 367.398 51.012 368.684 c 51.012 369.969
 52.055 371.012 53.34 371.012 c 54.625 371.012 55.668 369.969 55.668 368.684
 c 55.668 367.398 54.625 366.355 53.34 366.355 c h
53.34 366.355 m f
257.566 283.27 m 127.73 283.27 l 119.156 283.27 112.203 276.316 112.203
 267.742 c 112.203 169.512 l 112.203 160.938 119.156 153.984 127.73 153.984
 c 257.566 153.984 l 266.141 153.984 273.09 160.938 273.09 169.512 c 273.09
 267.742 l 273.09 276.316 266.141 283.27 257.566 283.27 c h
257.566 283.27 m f
0.192157 0.215686 0.239216 rg
259.555 286.422 m 125.742 286.422 l 116.539 286.422 109.051 278.938 109.051
 269.734 c 109.051 167.52 l 109.051 158.316 116.539 150.832 125.742 150.832
 c 259.555 150.832 l 268.758 150.832 276.246 158.316 276.246 167.52 c 276.246
 269.734 l 276.246 278.934 268.758 286.422 259.555 286.422 c h
125.742 157.141 m 120.016 157.141 115.359 161.797 115.359 167.52 c 115.359
 269.734 l 115.359 275.457 120.016 280.113 125.742 280.113 c 259.555 280.113
 l 265.281 280.113 269.938 275.457 269.938 269.734 c 269.938 167.52 l 269.938
 161.797 265.281 157.141 259.555 157.141 c h
125.742 157.141 m f
208.617 218.625 m 213.832 214.129 217.141 207.484 217.141 200.078 c 217.141
 186.57 206.152 175.582 192.648 175.582 c 180.969 175.582 170.859 183.891
 168.613 195.336 c 167.98 198.559 170.078 201.684 173.301 202.316 c 176.523
 202.945 179.648 200.852 180.281 197.629 c 181.438 191.746 186.637 187.473
 192.648 187.473 c 199.598 187.473 205.25 193.129 205.25 200.078 c 205.25
 207.027 199.598 212.68 192.648 212.68 c 189.363 212.68 186.703 215.34 186.703
 218.625 c 186.703 221.91 189.363 224.57 192.648 224.57 c 199.598 224.57
 205.25 230.227 205.25 237.176 c 205.25 244.125 199.598 249.777 192.648 
249.777 c 186.395 249.777 181.027 245.117 180.164 238.941 c 180.086 238.359
 180.043 237.766 180.043 237.176 c 180.043 233.891 177.383 231.227 174.098
 231.227 c 170.816 231.227 168.152 233.891 168.152 237.176 c 168.152 238.312
 168.23 239.461 168.391 240.582 c 170.066 252.605 180.496 261.668 192.648
 261.668 c 206.156 261.668 217.141 250.68 217.141 237.176 c 217.141 229.77
 213.832 223.121 208.617 218.625 c h
208.617 218.625 m f
318.215 384 m 318.176 384 318.137 384 318.098 384 c 65.676 383.977 l 59.285
 383.945 53.355 381.367 48.973 376.715 c 44.59 372.066 42.371 365.992 42.719
 359.613 c 56.016 116.574 l 56.109 114.902 57.492 113.582 59.168 113.59 
c 68.656 113.637 91.598 111.004 94.797 72.105 c 98 33.207 100.555 2.891 
100.555 2.891 c 100.691 1.258 102.055 0 103.699 0 c 148.324 0 l 149.168 
0 149.977 0.34 150.57 0.941 c 151.164 1.543 151.492 2.355 151.477 3.199 
c 151.469 3.762 l 151.461 4.039 151.453 4.312 151.453 4.59 c 151.453 39.285
 169.934 67.516 192.648 67.516 c 215.359 67.516 233.84 39.289 233.84 4.59
 c 233.84 4.316 233.832 4.043 233.828 3.77 c 233.816 3.199 l 233.805 2.355
 234.129 1.543 234.723 0.941 c 235.316 0.34 236.125 0 236.969 0 c 278.949
 0 l 280.562 0 281.918 1.219 282.086 2.828 c 282.086 2.828 287.984 71.969
 288.004 72.078 c 293.594 108.34 323.809 113.441 325.277 113.613 c 326.801
 113.793 327.98 115.043 328.066 116.574 c 341.281 359.641 l 341.629 366.062
 339.383 372.164 334.949 376.824 c 330.539 381.453 324.602 384 318.215 384
 c h
62.156 119.801 m 49.02 359.957 l 48.766 364.594 50.379 369.012 53.566 372.391
 c 56.75 375.773 61.062 377.645 65.707 377.668 c 318.129 377.691 l 318.215
 377.691 l 322.855 377.691 327.176 375.84 330.379 372.473 c 333.602 369.086
 335.238 364.652 334.98 359.984 c 321.902 119.43 l 318.164 118.66 310.934
 115.859 303.75 111.316 c 294.258 105.312 284.66 94.328 281.688 72.273 c
 276.105 6.309 l 240.133 6.309 l 239.844 23.938 235.07 40.488 226.625 53.074
 c 217.645 66.453 205.578 73.824 192.648 73.824 c 179.719 73.824 167.652
 66.453 158.672 53.074 c 150.223 40.488 145.453 23.938 145.16 6.309 c 106.598
 6.309 l 106.598 6.309 104.578 31.305 101.363 73.129 c 98.145 114.953 74.266
 119.008 62.156 119.801 c h
62.156 119.801 m f
Q Q
showpage
%%Trailer
end
%%EOF
