%!PS-Adobe-3.0 EPSF-3.0
%%Creator: cairo 1.16.0 (https://cairographics.org)
%%CreationDate: Wed Jul 15 13:24:21 2020
%%Pages: 1
%%DocumentData: Clean7Bit
%%LanguageLevel: 2
%%BoundingBox: 14 0 370 384
%%EndComments
%%BeginProlog
50 dict begin
/q { gsave } bind def
/Q { grestore } bind def
/cm { 6 array astore concat } bind def
/w { setlinewidth } bind def
/J { setlinecap } bind def
/j { setlinejoin } bind def
/M { setmiterlimit } bind def
/d { setdash } bind def
/m { moveto } bind def
/l { lineto } bind def
/c { curveto } bind def
/h { closepath } bind def
/re { exch dup neg 3 1 roll 5 3 roll moveto 0 rlineto
      0 exch rlineto 0 rlineto closepath } bind def
/S { stroke } bind def
/f { fill } bind def
/f* { eofill } bind def
/n { newpath } bind def
/W { clip } bind def
/W* { eoclip } bind def
/BT { } bind def
/ET { } bind def
/BDC { mark 3 1 roll /BDC pdfmark } bind def
/EMC { mark /EMC pdfmark } bind def
/cairo_store_point { /cairo_point_y exch def /cairo_point_x exch def } def
/Tj { show currentpoint cairo_store_point } bind def
/TJ {
  {
    dup
    type /stringtype eq
    { show } { -0.001 mul 0 cairo_font_matrix dtransform rmoveto } ifelse
  } forall
  currentpoint cairo_store_point
} bind def
/cairo_selectfont { cairo_font_matrix aload pop pop pop 0 0 6 array astore
    cairo_font exch selectfont cairo_point_x cairo_point_y moveto } bind def
/Tf { pop /cairo_font exch def /cairo_font_matrix where
      { pop cairo_selectfont } if } bind def
/Td { matrix translate cairo_font_matrix matrix concatmatrix dup
      /cairo_font_matrix exch def dup 4 get exch 5 get cairo_store_point
      /cairo_font where { pop cairo_selectfont } if } bind def
/Tm { 2 copy 8 2 roll 6 array astore /cairo_font_matrix exch def
      cairo_store_point /cairo_font where { pop cairo_selectfont } if } bind def
/g { setgray } bind def
/rg { setrgbcolor } bind def
/d1 { setcachedevice } bind def
/cairo_data_source {
  CairoDataIndex CairoData length lt
    { CairoData CairoDataIndex get /CairoDataIndex CairoDataIndex 1 add def }
    { () } ifelse
} def
/cairo_flush_ascii85_file { cairo_ascii85_file status { cairo_ascii85_file flushfile } if } def
/cairo_image { image cairo_flush_ascii85_file } def
/cairo_imagemask { imagemask cairo_flush_ascii85_file } def
%%EndProlog
%%BeginSetup
%%EndSetup
%%Page: 1 1
%%BeginPageSetup
%%PageBoundingBox: 14 0 370 384
%%EndPageSetup
q 14 0 356 384 rectclip
1 0 0 -1 0 384 cm q
0.976471 0.984314 0.988235 rg
133.656 381 m 112.398 381 95.164 363.77 95.164 342.512 c 95.164 41.488 
l 95.164 20.23 112.398 3 133.656 3 c 154.91 3 172.145 20.23 172.145 41.488
 c 172.145 342.512 l 172.145 363.766 154.91 381 133.656 381 c h
133.656 381 m f
237.059 381 m 215.801 381 198.57 363.77 198.57 342.512 c 198.57 41.488 
l 198.57 20.23 215.801 3 237.059 3 c 258.316 3 275.547 20.23 275.547 41.488
 c 275.547 342.512 l 275.547 363.766 258.316 381 237.059 381 c h
237.059 381 m f
0.917647 0.658824 0.584314 rg
160.766 14.172 m 160.199 13.613 159.613 13.074 159.016 12.551 c 159.258
 13.367 159.922 13.996 160.766 14.172 c h
160.766 14.172 m f
161.238 29.223 m 162.523 29.223 163.566 28.18 163.566 26.895 c 163.566 
25.609 162.523 24.566 161.238 24.566 c 159.953 24.566 158.91 25.609 158.91
 26.895 c 158.91 28.18 159.953 29.223 161.238 29.223 c h
161.238 29.223 m f
169.02 36.438 m 170.305 36.438 171.348 35.398 171.348 34.113 c 171.348 
32.828 170.305 31.785 169.02 31.785 c 167.734 31.785 166.695 32.828 166.695
 34.113 c 166.695 35.398 167.734 36.438 169.02 36.438 c h
169.02 36.438 m f
161.238 44.223 m 162.523 44.223 163.566 43.18 163.566 41.895 c 163.566 
40.609 162.523 39.566 161.238 39.566 c 159.953 39.566 158.91 40.609 158.91
 41.895 c 158.91 43.18 159.953 44.223 161.238 44.223 c h
161.238 44.223 m f
169.02 51.438 m 170.305 51.438 171.348 50.398 171.348 49.113 c 171.348 
47.828 170.305 46.785 169.02 46.785 c 167.734 46.785 166.695 47.828 166.695
 49.113 c 166.695 50.398 167.734 51.438 169.02 51.438 c h
169.02 51.438 m f
161.238 59.223 m 162.523 59.223 163.566 58.18 163.566 56.895 c 163.566 
55.609 162.523 54.566 161.238 54.566 c 159.953 54.566 158.91 55.609 158.91
 56.895 c 158.91 58.18 159.953 59.223 161.238 59.223 c h
161.238 59.223 m f
169.02 66.438 m 170.305 66.438 171.348 65.398 171.348 64.113 c 171.348 
62.828 170.305 61.785 169.02 61.785 c 167.734 61.785 166.695 62.828 166.695
 64.113 c 166.695 65.398 167.734 66.438 169.02 66.438 c h
169.02 66.438 m f
161.238 74.223 m 162.523 74.223 163.566 73.18 163.566 71.895 c 163.566 
70.609 162.523 69.566 161.238 69.566 c 159.953 69.566 158.91 70.609 158.91
 71.895 c 158.91 73.18 159.953 74.223 161.238 74.223 c h
161.238 74.223 m f
169.02 81.438 m 170.305 81.438 171.348 80.398 171.348 79.113 c 171.348 
77.828 170.305 76.785 169.02 76.785 c 167.734 76.785 166.695 77.828 166.695
 79.113 c 166.695 80.398 167.734 81.438 169.02 81.438 c h
169.02 81.438 m f
161.238 89.223 m 162.523 89.223 163.566 88.18 163.566 86.895 c 163.566 
85.609 162.523 84.566 161.238 84.566 c 159.953 84.566 158.91 85.609 158.91
 86.895 c 158.91 88.18 159.953 89.223 161.238 89.223 c h
161.238 89.223 m f
169.02 96.438 m 170.305 96.438 171.348 95.398 171.348 94.113 c 171.348 
92.828 170.305 91.785 169.02 91.785 c 167.734 91.785 166.695 92.828 166.695
 94.113 c 166.695 95.398 167.734 96.438 169.02 96.438 c h
169.02 96.438 m f
169.02 111.438 m 170.305 111.438 171.348 110.398 171.348 109.113 c 171.348
 107.828 170.305 106.785 169.02 106.785 c 167.734 106.785 166.695 107.828
 166.695 109.113 c 166.695 110.398 167.734 111.438 169.02 111.438 c h
169.02 111.438 m f
161.238 164.223 m 162.523 164.223 163.566 163.18 163.566 161.895 c 163.566
 160.609 162.523 159.566 161.238 159.566 c 159.953 159.566 158.91 160.609
 158.91 161.895 c 158.91 163.18 159.953 164.223 161.238 164.223 c h
161.238 164.223 m f
169.02 171.438 m 170.305 171.438 171.348 170.398 171.348 169.113 c 171.348
 167.828 170.305 166.785 169.02 166.785 c 167.734 166.785 166.695 167.828
 166.695 169.113 c 166.695 170.398 167.734 171.438 169.02 171.438 c h
169.02 171.438 m f
161.238 179.223 m 162.523 179.223 163.566 178.18 163.566 176.895 c 163.566
 175.609 162.523 174.566 161.238 174.566 c 159.953 174.566 158.91 175.609
 158.91 176.895 c 158.91 178.18 159.953 179.223 161.238 179.223 c h
161.238 179.223 m f
169.02 186.438 m 170.305 186.438 171.348 185.398 171.348 184.113 c 171.348
 182.828 170.305 181.785 169.02 181.785 c 167.734 181.785 166.695 182.828
 166.695 184.113 c 166.695 185.398 167.734 186.438 169.02 186.438 c h
169.02 186.438 m f
161.238 194.223 m 162.523 194.223 163.566 193.18 163.566 191.895 c 163.566
 190.609 162.523 189.566 161.238 189.566 c 159.953 189.566 158.91 190.609
 158.91 191.895 c 158.91 193.18 159.953 194.223 161.238 194.223 c h
161.238 194.223 m f
169.02 201.438 m 170.305 201.438 171.348 200.398 171.348 199.113 c 171.348
 197.828 170.305 196.785 169.02 196.785 c 167.734 196.785 166.695 197.828
 166.695 199.113 c 166.695 200.398 167.734 201.438 169.02 201.438 c h
169.02 201.438 m f
161.238 209.223 m 162.523 209.223 163.566 208.18 163.566 206.895 c 163.566
 205.609 162.523 204.566 161.238 204.566 c 159.953 204.566 158.91 205.609
 158.91 206.895 c 158.91 208.18 159.953 209.223 161.238 209.223 c h
161.238 209.223 m f
169.02 216.438 m 170.305 216.438 171.348 215.398 171.348 214.113 c 171.348
 212.828 170.305 211.785 169.02 211.785 c 167.734 211.785 166.695 212.828
 166.695 214.113 c 166.695 215.398 167.734 216.438 169.02 216.438 c h
169.02 216.438 m f
161.238 224.223 m 162.523 224.223 163.566 223.18 163.566 221.895 c 163.566
 220.609 162.523 219.566 161.238 219.566 c 159.953 219.566 158.91 220.609
 158.91 221.895 c 158.91 223.18 159.953 224.223 161.238 224.223 c h
161.238 224.223 m f
169.02 231.438 m 170.305 231.438 171.348 230.398 171.348 229.113 c 171.348
 227.828 170.305 226.785 169.02 226.785 c 167.734 226.785 166.695 227.828
 166.695 229.113 c 166.695 230.398 167.734 231.438 169.02 231.438 c h
169.02 231.438 m f
161.238 239.223 m 162.523 239.223 163.566 238.18 163.566 236.895 c 163.566
 235.609 162.523 234.566 161.238 234.566 c 159.953 234.566 158.91 235.609
 158.91 236.895 c 158.91 238.18 159.953 239.223 161.238 239.223 c h
161.238 239.223 m f
169.02 246.438 m 170.305 246.438 171.348 245.398 171.348 244.113 c 171.348
 242.828 170.305 241.785 169.02 241.785 c 167.734 241.785 166.695 242.828
 166.695 244.113 c 166.695 245.398 167.734 246.438 169.02 246.438 c h
169.02 246.438 m f
161.238 254.223 m 162.523 254.223 163.566 253.18 163.566 251.895 c 163.566
 250.609 162.523 249.566 161.238 249.566 c 159.953 249.566 158.91 250.609
 158.91 251.895 c 158.91 253.18 159.953 254.223 161.238 254.223 c h
161.238 254.223 m f
169.02 261.438 m 170.305 261.438 171.348 260.398 171.348 259.113 c 171.348
 257.828 170.305 256.785 169.02 256.785 c 167.734 256.785 166.695 257.828
 166.695 259.113 c 166.695 260.398 167.734 261.438 169.02 261.438 c h
169.02 261.438 m f
161.238 269.223 m 162.523 269.223 163.566 268.18 163.566 266.895 c 163.566
 265.609 162.523 264.566 161.238 264.566 c 159.953 264.566 158.91 265.609
 158.91 266.895 c 158.91 268.18 159.953 269.223 161.238 269.223 c h
161.238 269.223 m f
169.02 276.438 m 170.305 276.438 171.348 275.398 171.348 274.113 c 171.348
 272.828 170.305 271.785 169.02 271.785 c 167.734 271.785 166.695 272.828
 166.695 274.113 c 166.695 275.398 167.734 276.438 169.02 276.438 c h
169.02 276.438 m f
161.238 284.223 m 162.523 284.223 163.566 283.18 163.566 281.895 c 163.566
 280.609 162.523 279.566 161.238 279.566 c 159.953 279.566 158.91 280.609
 158.91 281.895 c 158.91 283.18 159.953 284.223 161.238 284.223 c h
161.238 284.223 m f
169.02 291.438 m 170.305 291.438 171.348 290.398 171.348 289.113 c 171.348
 287.828 170.305 286.785 169.02 286.785 c 167.734 286.785 166.695 287.828
 166.695 289.113 c 166.695 290.398 167.734 291.438 169.02 291.438 c h
169.02 291.438 m f
171.348 304.113 m 171.348 302.828 170.305 301.785 169.02 301.785 c 167.953
 301.785 167.062 302.508 166.789 303.488 c 162.234 298.988 l 163.02 298.617
 163.566 297.82 163.566 296.895 c 163.566 295.609 162.523 294.566 161.238
 294.566 c 160.301 294.566 159.496 295.125 159.129 295.926 c 154.527 291.379
 l 155.566 291.148 156.348 290.223 156.348 289.113 c 156.348 287.828 155.305
 286.785 154.02 286.785 c 153.871 286.785 153.727 286.801 153.59 286.828
 c 153.59 290.453 l 94.84 232.441 l 94.84 272.332 l 153.59 332.188 l 153.59
 336.395 l 153.73 336.422 153.871 336.438 154.02 336.438 c 155.043 336.438
 155.898 335.777 156.215 334.859 c 160.867 339.602 l 159.758 339.781 158.91
 340.734 158.91 341.895 c 158.91 343.176 159.953 344.219 161.238 344.219
 c 162.379 344.219 163.324 343.395 163.523 342.309 c 168.102 346.973 l 167.273
 347.332 166.695 348.152 166.695 349.109 c 166.695 350.395 167.734 351.438
 169.02 351.438 c 169.961 351.438 170.77 350.875 171.137 350.066 c 172.18
 351.129 l 172.18 308.812 l 169.672 306.332 l 170.637 306.051 171.348 305.168
 171.348 304.113 c h
171.348 304.113 m f
161.238 354.566 m 159.953 354.566 158.91 355.609 158.91 356.895 c 158.91
 358.18 159.953 359.223 161.238 359.223 c 162.523 359.223 163.566 358.18
 163.566 356.895 c 163.566 355.609 162.523 354.566 161.238 354.566 c h
161.238 354.566 m f
158.949 371.508 m 159.656 370.891 160.34 370.258 161 369.59 c 159.957 369.699
 159.121 370.484 158.949 371.508 c h
158.949 371.508 m f
146.238 14.223 m 147.523 14.223 148.566 13.18 148.566 11.895 c 148.566 
10.609 147.523 9.566 146.238 9.566 c 144.953 9.566 143.91 10.609 143.91 
11.895 c 143.91 13.18 144.953 14.223 146.238 14.223 c h
146.238 14.223 m f
154.02 21.438 m 155.305 21.438 156.348 20.398 156.348 19.113 c 156.348 
17.828 155.305 16.785 154.02 16.785 c 152.734 16.785 151.695 17.828 151.695
 19.113 c 151.695 20.398 152.734 21.438 154.02 21.438 c h
154.02 21.438 m f
154.02 31.785 m 153.434 31.785 152.902 32.012 152.492 32.371 c 152.805 
33.656 153.055 34.961 153.234 36.293 c 153.48 36.383 153.742 36.438 154.02
 36.438 c 155.305 36.438 156.348 35.398 156.348 34.113 c 156.348 32.828 
155.305 31.785 154.02 31.785 c h
154.02 31.785 m f
154.02 46.785 m 153.871 46.785 153.727 46.801 153.586 46.828 c 153.586 
51.395 l 153.727 51.422 153.871 51.438 154.02 51.438 c 155.305 51.438 156.348
 50.398 156.348 49.113 c 156.348 47.828 155.305 46.785 154.02 46.785 c h
154.02 46.785 m f
154.02 61.785 m 153.871 61.785 153.727 61.801 153.586 61.828 c 153.586 
66.395 l 153.727 66.422 153.871 66.438 154.02 66.438 c 155.305 66.438 156.348
 65.398 156.348 64.113 c 156.348 62.828 155.305 61.785 154.02 61.785 c h
154.02 61.785 m f
154.02 76.785 m 153.871 76.785 153.727 76.801 153.586 76.828 c 153.586 
81.395 l 153.727 81.422 153.871 81.438 154.02 81.438 c 155.305 81.438 156.348
 80.398 156.348 79.113 c 156.348 77.828 155.305 76.785 154.02 76.785 c h
154.02 76.785 m f
154.02 91.785 m 153.871 91.785 153.727 91.801 153.586 91.828 c 153.586 
96.395 l 153.727 96.422 153.871 96.438 154.02 96.438 c 155.305 96.438 156.348
 95.398 156.348 94.113 c 156.348 92.828 155.305 91.785 154.02 91.785 c h
154.02 91.785 m f
156.348 154.113 m 156.348 152.828 155.305 151.785 154.02 151.785 c 153.871
 151.785 153.727 151.801 153.586 151.828 c 153.586 156.395 l 153.727 156.422
 153.871 156.438 154.02 156.438 c 155.305 156.438 156.348 155.398 156.348
 154.113 c h
156.348 154.113 m f
153.586 171.395 m 153.727 171.422 153.871 171.438 154.02 171.438 c 155.305
 171.438 156.348 170.398 156.348 169.113 c 156.348 167.828 155.305 166.785
 154.02 166.785 c 153.871 166.785 153.727 166.801 153.586 166.828 c h
153.586 171.395 m f
153.586 186.395 m 153.727 186.422 153.871 186.438 154.02 186.438 c 155.305
 186.438 156.348 185.398 156.348 184.113 c 156.348 182.828 155.305 181.785
 154.02 181.785 c 153.871 181.785 153.727 181.801 153.586 181.828 c h
153.586 186.395 m f
153.586 201.395 m 153.727 201.422 153.871 201.438 154.02 201.438 c 155.305
 201.438 156.348 200.395 156.348 199.113 c 156.348 197.828 155.305 196.785
 154.02 196.785 c 153.871 196.785 153.727 196.801 153.586 196.828 c h
153.586 201.395 m f
153.586 216.395 m 153.727 216.422 153.871 216.438 154.02 216.438 c 155.305
 216.438 156.348 215.395 156.348 214.113 c 156.348 212.828 155.305 211.785
 154.02 211.785 c 153.871 211.785 153.727 211.801 153.586 211.828 c h
153.586 216.395 m f
153.586 231.395 m 153.727 231.422 153.871 231.438 154.02 231.438 c 155.305
 231.438 156.348 230.395 156.348 229.113 c 156.348 227.828 155.305 226.785
 154.02 226.785 c 153.871 226.785 153.727 226.801 153.586 226.828 c h
153.586 231.395 m f
153.586 246.395 m 153.727 246.422 153.871 246.438 154.02 246.438 c 155.305
 246.438 156.348 245.395 156.348 244.113 c 156.348 242.828 155.305 241.785
 154.02 241.785 c 153.871 241.785 153.727 241.801 153.586 241.828 c h
153.586 246.395 m f
153.586 261.395 m 153.727 261.422 153.871 261.438 154.02 261.438 c 155.305
 261.438 156.348 260.395 156.348 259.113 c 156.348 257.828 155.305 256.785
 154.02 256.785 c 153.871 256.785 153.727 256.801 153.586 256.828 c h
153.586 261.395 m f
153.586 276.395 m 153.727 276.422 153.871 276.438 154.02 276.438 c 155.305
 276.438 156.348 275.395 156.348 274.113 c 156.348 272.828 155.305 271.785
 154.02 271.785 c 153.871 271.785 153.727 271.801 153.586 271.828 c h
153.586 276.395 m f
154.02 346.785 m 153.777 346.785 153.551 346.832 153.332 346.902 c 153.172
 348.285 152.945 349.645 152.648 350.98 c 153.031 351.266 153.504 351.438
 154.02 351.438 c 155.305 351.438 156.348 350.395 156.348 349.113 c 156.348
 347.828 155.305 346.785 154.02 346.785 c h
154.02 346.785 m f
154.02 361.785 m 152.734 361.785 151.695 362.828 151.695 364.113 c 151.695
 365.398 152.734 366.438 154.02 366.438 c 155.305 366.438 156.348 365.398
 156.348 364.113 c 156.348 362.828 155.305 361.785 154.02 361.785 c h
154.02 361.785 m f
146.238 369.566 m 144.953 369.566 143.91 370.609 143.91 371.895 c 143.91
 373.18 144.953 374.223 146.238 374.223 c 147.523 374.223 148.566 373.18
 148.566 371.895 c 148.566 370.609 147.523 369.566 146.238 369.566 c h
146.238 369.566 m f
139.02 6.438 m 140.305 6.438 141.348 5.398 141.348 4.113 c 141.348 3.992
 141.328 3.879 141.312 3.766 c 139.871 3.473 138.402 3.273 136.906 3.148
 c 136.773 3.441 136.691 3.766 136.691 4.113 c 136.695 5.398 137.734 6.438
 139.02 6.438 c h
139.02 6.438 m f
139.02 376.785 m 137.734 376.785 136.695 377.828 136.695 379.113 c 136.695
 379.785 136.984 380.387 137.441 380.812 c 138.652 380.695 139.844 380.516
 141.016 380.289 c 141.223 379.941 141.348 379.543 141.348 379.113 c 141.348
 377.828 140.305 376.785 139.02 376.785 c h
139.02 376.785 m f
126.348 4.113 m 126.348 3.977 126.328 3.844 126.309 3.715 c 125.656 3.84
 125.012 3.977 124.375 4.133 c 125.016 4.293 125.648 4.473 126.273 4.66 
c 126.316 4.484 126.348 4.301 126.348 4.113 c h
126.348 4.113 m f
126.051 380.23 m 126.199 379.957 126.297 379.648 126.324 379.32 c 125.684
 379.52 125.035 379.703 124.375 379.867 c 124.926 380.004 125.488 380.117
 126.051 380.23 c h
126.051 380.23 m f
160.387 104.055 m 160.648 104.16 160.938 104.223 161.238 104.223 c 162.523
 104.223 163.562 103.18 163.562 101.895 c 163.562 100.609 162.523 99.566
 161.238 99.566 c 159.953 99.566 158.91 100.609 158.91 101.895 c 158.91 
102.203 158.973 102.5 159.086 102.77 c 94.84 39.332 l 94.84 79.219 l 153.586
 139.078 l 153.586 141.395 l 153.727 141.422 153.871 141.438 154.02 141.438
 c 154.551 141.438 155.035 141.254 155.43 140.953 c 159.621 145.227 l 159.184
 145.648 158.91 146.238 158.91 146.895 c 158.91 148.18 159.953 149.223 161.238
 149.223 c 161.879 149.223 162.457 148.961 162.879 148.543 c 167.082 152.828
 l 166.836 153.195 166.691 153.637 166.691 154.113 c 166.691 155.398 167.734
 156.438 169.02 156.438 c 169.477 156.438 169.902 156.301 170.266 156.07
 c 172.18 158.02 l 172.18 115.699 l h
160.387 104.055 m f
0.976471 0.984314 0.988235 rg
158.91 296.895 m 158.91 298.18 159.953 299.223 161.238 299.223 c 161.594
 299.223 161.93 299.133 162.23 298.988 c 159.129 295.926 l 158.992 296.223
 158.91 296.547 158.91 296.895 c h
158.91 296.895 m f
166.695 304.113 m 166.695 305.398 167.734 306.438 169.02 306.438 c 169.246
 306.438 169.461 306.395 169.672 306.336 c 166.789 303.488 l 166.734 303.688
 166.695 303.895 166.695 304.113 c h
166.695 304.113 m f
161.238 309.566 m 159.953 309.566 158.91 310.609 158.91 311.895 c 158.91
 313.18 159.953 314.223 161.238 314.223 c 162.523 314.223 163.566 313.18
 163.566 311.895 c 163.566 310.609 162.523 309.566 161.238 309.566 c h
161.238 309.566 m f
169.02 316.785 m 167.734 316.785 166.695 317.828 166.695 319.113 c 166.695
 320.398 167.734 321.438 169.02 321.438 c 170.305 321.438 171.348 320.398
 171.348 319.113 c 171.348 317.828 170.305 316.785 169.02 316.785 c h
169.02 316.785 m f
161.238 324.566 m 159.953 324.566 158.91 325.609 158.91 326.895 c 158.91
 328.18 159.953 329.223 161.238 329.223 c 162.523 329.223 163.566 328.18
 163.566 326.895 c 163.566 325.609 162.523 324.566 161.238 324.566 c h
161.238 324.566 m f
171.348 334.113 m 171.348 332.828 170.305 331.785 169.02 331.785 c 167.734
 331.785 166.695 332.828 166.695 334.113 c 166.695 335.398 167.734 336.438
 169.02 336.438 c 170.305 336.438 171.348 335.398 171.348 334.113 c h
171.348 334.113 m f
161.238 339.566 m 161.109 339.566 160.988 339.586 160.867 339.605 c 163.523
 342.309 l 163.547 342.176 163.566 342.035 163.566 341.895 c 163.566 340.609
 162.523 339.566 161.238 339.566 c h
161.238 339.566 m f
171.348 349.113 m 171.348 347.828 170.305 346.785 169.02 346.785 c 168.691
 346.785 168.383 346.855 168.102 346.977 c 171.137 350.07 l 171.27 349.777
 171.348 349.453 171.348 349.113 c h
171.348 349.113 m f
153.586 291.395 m 153.727 291.422 153.871 291.438 154.02 291.438 c 154.195
 291.438 154.363 291.414 154.527 291.379 c 153.586 290.453 l h
153.586 291.395 m f
154.02 301.785 m 153.871 301.785 153.727 301.801 153.586 301.828 c 153.586
 306.395 l 153.727 306.422 153.871 306.438 154.02 306.438 c 155.305 306.438
 156.348 305.398 156.348 304.113 c 156.348 302.828 155.305 301.785 154.02
 301.785 c h
154.02 301.785 m f
154.02 316.785 m 153.871 316.785 153.727 316.801 153.586 316.828 c 153.586
 321.395 l 153.727 321.422 153.871 321.438 154.02 321.438 c 155.305 321.438
 156.348 320.398 156.348 319.113 c 156.348 317.828 155.305 316.785 154.02
 316.785 c h
154.02 316.785 m f
154.02 331.785 m 153.871 331.785 153.727 331.801 153.586 331.828 c 153.586
 332.188 l 156.211 334.863 l 156.293 334.625 156.348 334.379 156.348 334.113
 c 156.348 332.828 155.305 331.785 154.02 331.785 c h
154.02 331.785 m f
160.387 104.055 m 159.086 102.77 l 159.324 103.359 159.797 103.82 160.387
 104.055 c h
160.387 104.055 m f
161.238 114.566 m 159.953 114.566 158.91 115.609 158.91 116.895 c 158.91
 118.18 159.953 119.223 161.238 119.223 c 162.523 119.223 163.566 118.18
 163.566 116.895 c 163.566 115.609 162.523 114.566 161.238 114.566 c h
161.238 114.566 m f
169.02 121.785 m 167.734 121.785 166.695 122.828 166.695 124.113 c 166.695
 125.398 167.734 126.438 169.02 126.438 c 170.305 126.438 171.348 125.398
 171.348 124.113 c 171.348 122.828 170.305 121.785 169.02 121.785 c h
169.02 121.785 m f
163.566 131.895 m 163.566 130.609 162.523 129.566 161.238 129.566 c 159.953
 129.566 158.91 130.609 158.91 131.895 c 158.91 133.18 159.953 134.223 161.238
 134.223 c 162.523 134.223 163.566 133.18 163.566 131.895 c h
163.566 131.895 m f
169.02 141.438 m 170.305 141.438 171.348 140.398 171.348 139.113 c 171.348
 137.828 170.305 136.785 169.02 136.785 c 167.734 136.785 166.695 137.828
 166.695 139.113 c 166.695 140.398 167.734 141.438 169.02 141.438 c h
169.02 141.438 m f
163.566 146.895 m 163.566 145.609 162.523 144.566 161.238 144.566 c 160.609
 144.566 160.039 144.82 159.621 145.227 c 162.879 148.543 l 163.301 148.121
 163.566 147.539 163.566 146.895 c h
163.566 146.895 m f
171.348 154.113 m 171.348 152.828 170.305 151.785 169.02 151.785 c 168.211
 151.785 167.5 152.199 167.082 152.824 c 170.266 156.07 l 170.914 155.656
 171.348 154.938 171.348 154.113 c h
171.348 154.113 m f
156.348 109.113 m 156.348 107.828 155.305 106.785 154.02 106.785 c 153.871
 106.785 153.727 106.801 153.586 106.828 c 153.586 111.395 l 153.727 111.422
 153.871 111.438 154.02 111.438 c 155.305 111.438 156.348 110.398 156.348
 109.113 c h
156.348 109.113 m f
154.02 126.438 m 155.305 126.438 156.348 125.398 156.348 124.113 c 156.348
 122.828 155.305 121.785 154.02 121.785 c 153.871 121.785 153.727 121.801
 153.586 121.828 c 153.586 126.395 l 153.727 126.422 153.871 126.438 154.02
 126.438 c h
154.02 126.438 m f
156.348 139.113 m 156.348 137.828 155.305 136.785 154.02 136.785 c 153.871
 136.785 153.727 136.801 153.586 136.828 c 153.586 139.078 l 155.43 140.953
 l 155.984 140.527 156.348 139.863 156.348 139.113 c h
156.348 139.113 m f
0.917647 0.658824 0.584314 rg
271.238 111.207 m 271.543 111.352 271.875 111.438 272.234 111.438 c 273.516
 111.438 274.559 110.398 274.559 109.113 c 274.559 107.828 273.516 106.785
 272.234 106.785 c 270.949 106.785 269.906 107.828 269.906 109.113 c 269.906
 109.48 270 109.824 270.152 110.137 c 264.129 104.188 l 264.234 104.203 
264.34 104.223 264.449 104.223 c 265.734 104.223 266.777 103.18 266.777 
101.895 c 266.777 100.609 265.734 99.57 264.449 99.57 c 263.164 99.57 262.125
 100.609 262.125 101.895 c 262.125 102.016 262.141 102.129 262.16 102.242
 c 198.449 39.332 l 198.449 79.219 l 256.801 138.672 l 256.801 141.395 l
 256.941 141.422 257.086 141.438 257.234 141.438 c 257.867 141.438 258.441
 141.184 258.859 140.773 c 263.055 145.043 l 262.492 145.469 262.125 146.137
 262.125 146.895 c 262.125 148.18 263.164 149.223 264.449 149.223 c 265.195
 149.223 265.848 148.867 266.273 148.324 c 270.473 152.605 l 270.125 153.012
 269.906 153.535 269.906 154.113 c 269.906 155.398 270.949 156.441 272.234
 156.441 c 272.797 156.441 273.305 156.23 273.707 155.898 c 275.789 158.023
 l 275.789 115.703 l h
271.238 111.207 m f
263.977 14.172 m 263.414 13.613 262.828 13.074 262.23 12.551 c 262.473 
13.367 263.137 13.996 263.977 14.172 c h
263.977 14.172 m f
264.449 29.223 m 265.734 29.223 266.777 28.18 266.777 26.895 c 266.777 
25.609 265.734 24.566 264.449 24.566 c 263.164 24.566 262.125 25.609 262.125
 26.895 c 262.125 28.18 263.164 29.223 264.449 29.223 c h
264.449 29.223 m f
272.234 36.438 m 273.52 36.438 274.559 35.398 274.559 34.113 c 274.559 
32.828 273.52 31.785 272.234 31.785 c 270.949 31.785 269.906 32.828 269.906
 34.113 c 269.906 35.398 270.949 36.438 272.234 36.438 c h
272.234 36.438 m f
264.449 44.223 m 265.734 44.223 266.777 43.18 266.777 41.895 c 266.777 
40.609 265.734 39.566 264.449 39.566 c 263.164 39.566 262.125 40.609 262.125
 41.895 c 262.125 43.18 263.164 44.223 264.449 44.223 c h
264.449 44.223 m f
272.234 51.438 m 273.52 51.438 274.559 50.398 274.559 49.113 c 274.559 
47.828 273.52 46.785 272.234 46.785 c 270.949 46.785 269.906 47.828 269.906
 49.113 c 269.906 50.398 270.949 51.438 272.234 51.438 c h
272.234 51.438 m f
264.449 59.223 m 265.734 59.223 266.777 58.18 266.777 56.895 c 266.777 
55.609 265.734 54.566 264.449 54.566 c 263.164 54.566 262.125 55.609 262.125
 56.895 c 262.125 58.18 263.164 59.223 264.449 59.223 c h
264.449 59.223 m f
272.234 66.438 m 273.52 66.438 274.559 65.398 274.559 64.113 c 274.559 
62.828 273.52 61.785 272.234 61.785 c 270.949 61.785 269.906 62.828 269.906
 64.113 c 269.906 65.398 270.949 66.438 272.234 66.438 c h
272.234 66.438 m f
264.449 74.223 m 265.734 74.223 266.777 73.18 266.777 71.895 c 266.777 
70.609 265.734 69.566 264.449 69.566 c 263.164 69.566 262.125 70.609 262.125
 71.895 c 262.125 73.18 263.164 74.223 264.449 74.223 c h
264.449 74.223 m f
272.234 81.438 m 273.52 81.438 274.559 80.398 274.559 79.113 c 274.559 
77.828 273.52 76.785 272.234 76.785 c 270.949 76.785 269.906 77.828 269.906
 79.113 c 269.906 80.398 270.949 81.438 272.234 81.438 c h
272.234 81.438 m f
264.449 89.223 m 265.734 89.223 266.777 88.18 266.777 86.895 c 266.777 
85.609 265.734 84.566 264.449 84.566 c 263.164 84.566 262.125 85.609 262.125
 86.895 c 262.125 88.18 263.164 89.223 264.449 89.223 c h
264.449 89.223 m f
272.234 96.438 m 273.52 96.438 274.559 95.398 274.559 94.113 c 274.559 
92.828 273.52 91.785 272.234 91.785 c 270.949 91.785 269.906 92.828 269.906
 94.113 c 269.906 95.398 270.949 96.438 272.234 96.438 c h
272.234 96.438 m f
264.449 164.223 m 265.734 164.223 266.777 163.18 266.777 161.895 c 266.777
 160.609 265.734 159.566 264.449 159.566 c 263.164 159.566 262.125 160.609
 262.125 161.895 c 262.125 163.18 263.164 164.223 264.449 164.223 c h
264.449 164.223 m f
272.234 171.438 m 273.52 171.438 274.559 170.398 274.559 169.113 c 274.559
 167.828 273.52 166.785 272.234 166.785 c 270.949 166.785 269.906 167.828
 269.906 169.113 c 269.906 170.398 270.949 171.438 272.234 171.438 c h
272.234 171.438 m f
264.449 179.223 m 265.734 179.223 266.777 178.18 266.777 176.895 c 266.777
 175.609 265.734 174.566 264.449 174.566 c 263.164 174.566 262.125 175.609
 262.125 176.895 c 262.125 178.18 263.164 179.223 264.449 179.223 c h
264.449 179.223 m f
272.234 186.438 m 273.52 186.438 274.559 185.398 274.559 184.113 c 274.559
 182.828 273.52 181.785 272.234 181.785 c 270.949 181.785 269.906 182.828
 269.906 184.113 c 269.906 185.398 270.949 186.438 272.234 186.438 c h
272.234 186.438 m f
264.449 194.223 m 265.734 194.223 266.777 193.18 266.777 191.895 c 266.777
 190.609 265.734 189.566 264.449 189.566 c 263.164 189.566 262.125 190.609
 262.125 191.895 c 262.125 193.18 263.164 194.223 264.449 194.223 c h
264.449 194.223 m f
272.234 201.438 m 273.52 201.438 274.559 200.398 274.559 199.113 c 274.559
 197.828 273.52 196.785 272.234 196.785 c 270.949 196.785 269.906 197.828
 269.906 199.113 c 269.906 200.398 270.949 201.438 272.234 201.438 c h
272.234 201.438 m f
264.449 209.223 m 265.734 209.223 266.777 208.18 266.777 206.895 c 266.777
 205.609 265.734 204.566 264.449 204.566 c 263.164 204.566 262.125 205.609
 262.125 206.895 c 262.125 208.18 263.164 209.223 264.449 209.223 c h
264.449 209.223 m f
272.234 216.438 m 273.52 216.438 274.559 215.398 274.559 214.113 c 274.559
 212.828 273.52 211.785 272.234 211.785 c 270.949 211.785 269.906 212.828
 269.906 214.113 c 269.906 215.398 270.949 216.438 272.234 216.438 c h
272.234 216.438 m f
264.449 224.223 m 265.734 224.223 266.777 223.18 266.777 221.895 c 266.777
 220.609 265.734 219.566 264.449 219.566 c 263.164 219.566 262.125 220.609
 262.125 221.895 c 262.125 223.18 263.164 224.223 264.449 224.223 c h
264.449 224.223 m f
272.234 231.438 m 273.52 231.438 274.559 230.398 274.559 229.113 c 274.559
 227.828 273.52 226.785 272.234 226.785 c 270.949 226.785 269.906 227.828
 269.906 229.113 c 269.906 230.398 270.949 231.438 272.234 231.438 c h
272.234 231.438 m f
264.449 239.223 m 265.734 239.223 266.777 238.18 266.777 236.895 c 266.777
 235.609 265.734 234.566 264.449 234.566 c 263.164 234.566 262.125 235.609
 262.125 236.895 c 262.125 238.18 263.164 239.223 264.449 239.223 c h
264.449 239.223 m f
272.234 246.438 m 273.52 246.438 274.559 245.398 274.559 244.113 c 274.559
 242.828 273.52 241.785 272.234 241.785 c 270.949 241.785 269.906 242.828
 269.906 244.113 c 269.906 245.398 270.949 246.438 272.234 246.438 c h
272.234 246.438 m f
264.449 254.223 m 265.734 254.223 266.777 253.18 266.777 251.895 c 266.777
 250.609 265.734 249.566 264.449 249.566 c 263.164 249.566 262.125 250.609
 262.125 251.895 c 262.125 253.18 263.164 254.223 264.449 254.223 c h
264.449 254.223 m f
272.234 261.438 m 273.52 261.438 274.559 260.398 274.559 259.113 c 274.559
 257.828 273.52 256.785 272.234 256.785 c 270.949 256.785 269.906 257.828
 269.906 259.113 c 269.906 260.398 270.949 261.438 272.234 261.438 c h
272.234 261.438 m f
264.449 269.223 m 265.734 269.223 266.777 268.18 266.777 266.895 c 266.777
 265.609 265.734 264.566 264.449 264.566 c 263.164 264.566 262.125 265.609
 262.125 266.895 c 262.125 268.18 263.164 269.223 264.449 269.223 c h
264.449 269.223 m f
272.234 276.438 m 273.52 276.438 274.559 275.398 274.559 274.113 c 274.559
 272.828 273.52 271.785 272.234 271.785 c 270.949 271.785 269.906 272.828
 269.906 274.113 c 269.906 275.398 270.949 276.438 272.234 276.438 c h
272.234 276.438 m f
264.449 284.223 m 265.734 284.223 266.777 283.18 266.777 281.895 c 266.777
 280.609 265.734 279.566 264.449 279.566 c 263.164 279.566 262.125 280.609
 262.125 281.895 c 262.125 283.18 263.164 284.223 264.449 284.223 c h
264.449 284.223 m f
272.234 291.438 m 273.52 291.438 274.559 290.398 274.559 289.113 c 274.559
 287.828 273.52 286.785 272.234 286.785 c 270.949 286.785 269.906 287.828
 269.906 289.113 c 269.906 290.398 270.949 291.438 272.234 291.438 c h
272.234 291.438 m f
274.559 304.113 m 274.559 302.828 273.52 301.785 272.234 301.785 c 271.277
 301.785 270.453 302.363 270.098 303.191 c 265.699 298.852 l 266.348 298.438
 266.777 297.719 266.777 296.895 c 266.777 295.609 265.734 294.566 264.453
 294.566 c 263.617 294.566 262.891 295.012 262.48 295.672 c 258.039 291.285
 l 258.926 290.957 259.562 290.113 259.562 289.113 c 259.562 287.828 258.52
 286.785 257.234 286.785 c 257.086 286.785 256.941 286.801 256.801 286.828
 c 256.801 290.062 l 198.449 232.445 l 198.449 272.332 l 256.84 331.824 
l 256.828 331.828 256.812 331.828 256.801 331.828 c 256.801 336.395 l 256.941
 336.422 257.086 336.438 257.234 336.438 c 258.367 336.438 259.312 335.625
 259.516 334.551 c 264.441 339.57 l 263.16 339.574 262.125 340.613 262.125
 341.895 c 262.125 343.18 263.168 344.223 264.453 344.223 c 265.719 344.223
 266.746 343.207 266.773 341.945 c 271.617 346.879 l 270.633 347.152 269.906
 348.043 269.906 349.113 c 269.906 350.398 270.949 351.438 272.234 351.438
 c 273.289 351.438 274.168 350.734 274.453 349.773 c 275.789 351.133 l 275.789
 308.812 l 273.18 306.234 l 273.992 305.871 274.559 305.059 274.559 304.113
 c h
274.559 304.113 m f
264.449 354.566 m 263.164 354.566 262.125 355.609 262.125 356.895 c 262.125
 358.18 263.164 359.223 264.449 359.223 c 265.734 359.223 266.777 358.18
 266.777 356.895 c 266.777 355.609 265.734 354.566 264.449 354.566 c h
264.449 354.566 m f
262.164 371.508 m 262.867 370.891 263.555 370.258 264.211 369.59 c 263.172
 369.699 262.336 370.484 262.164 371.508 c h
262.164 371.508 m f
249.449 14.223 m 250.734 14.223 251.777 13.18 251.777 11.895 c 251.777 
10.609 250.734 9.566 249.449 9.566 c 248.164 9.566 247.125 10.609 247.125
 11.895 c 247.125 13.18 248.164 14.223 249.449 14.223 c h
249.449 14.223 m f
257.234 21.438 m 258.52 21.438 259.559 20.398 259.559 19.113 c 259.559 
17.828 258.52 16.785 257.234 16.785 c 255.949 16.785 254.906 17.828 254.906
 19.113 c 254.906 20.398 255.949 21.438 257.234 21.438 c h
257.234 21.438 m f
257.234 31.785 m 256.645 31.785 256.113 32.012 255.703 32.371 c 256.02 
33.656 256.27 34.961 256.449 36.293 c 256.695 36.383 256.957 36.438 257.234
 36.438 c 258.52 36.438 259.559 35.398 259.559 34.113 c 259.559 32.828 258.52
 31.785 257.234 31.785 c h
257.234 31.785 m f
257.234 46.785 m 257.086 46.785 256.941 46.801 256.801 46.828 c 256.801
 51.395 l 256.941 51.422 257.086 51.438 257.234 51.438 c 258.52 51.438 259.559
 50.398 259.559 49.113 c 259.559 47.828 258.52 46.785 257.234 46.785 c h
257.234 46.785 m f
257.234 61.785 m 257.086 61.785 256.941 61.801 256.801 61.828 c 256.801
 66.395 l 256.941 66.422 257.086 66.438 257.234 66.438 c 258.52 66.438 259.559
 65.398 259.559 64.113 c 259.559 62.828 258.52 61.785 257.234 61.785 c h
257.234 61.785 m f
257.234 76.785 m 257.086 76.785 256.941 76.801 256.801 76.828 c 256.801
 81.395 l 256.941 81.422 257.086 81.438 257.234 81.438 c 258.52 81.438 259.559
 80.398 259.559 79.113 c 259.559 77.828 258.52 76.785 257.234 76.785 c h
257.234 76.785 m f
257.234 91.785 m 257.086 91.785 256.941 91.801 256.801 91.828 c 256.801
 96.395 l 256.941 96.422 257.086 96.438 257.234 96.438 c 258.52 96.438 259.559
 95.398 259.559 94.113 c 259.559 92.828 258.52 91.785 257.234 91.785 c h
257.234 91.785 m f
259.559 154.113 m 259.559 152.828 258.52 151.785 257.234 151.785 c 257.086
 151.785 256.941 151.801 256.801 151.828 c 256.801 156.395 l 256.941 156.422
 257.086 156.438 257.234 156.438 c 258.52 156.438 259.559 155.398 259.559
 154.113 c h
259.559 154.113 m f
256.801 171.395 m 256.941 171.422 257.086 171.438 257.234 171.438 c 258.516
 171.438 259.559 170.398 259.559 169.113 c 259.559 167.828 258.516 166.785
 257.234 166.785 c 257.086 166.785 256.941 166.801 256.801 166.828 c h
256.801 171.395 m f
256.801 186.395 m 256.941 186.422 257.086 186.438 257.234 186.438 c 258.516
 186.438 259.559 185.398 259.559 184.113 c 259.559 182.828 258.516 181.785
 257.234 181.785 c 257.086 181.785 256.941 181.801 256.801 181.828 c h
256.801 186.395 m f
256.801 201.395 m 256.941 201.422 257.086 201.438 257.234 201.438 c 258.516
 201.438 259.559 200.395 259.559 199.113 c 259.559 197.828 258.516 196.785
 257.234 196.785 c 257.086 196.785 256.941 196.801 256.801 196.828 c h
256.801 201.395 m f
256.801 216.395 m 256.941 216.422 257.086 216.438 257.234 216.438 c 258.516
 216.438 259.559 215.395 259.559 214.113 c 259.559 212.828 258.516 211.785
 257.234 211.785 c 257.086 211.785 256.941 211.801 256.801 211.828 c h
256.801 216.395 m f
256.801 231.395 m 256.941 231.422 257.086 231.438 257.234 231.438 c 258.516
 231.438 259.559 230.395 259.559 229.113 c 259.559 227.828 258.516 226.785
 257.234 226.785 c 257.086 226.785 256.941 226.801 256.801 226.828 c h
256.801 231.395 m f
256.801 246.395 m 256.941 246.422 257.086 246.438 257.234 246.438 c 258.516
 246.438 259.559 245.395 259.559 244.113 c 259.559 242.828 258.516 241.785
 257.234 241.785 c 257.086 241.785 256.941 241.801 256.801 241.828 c h
256.801 246.395 m f
256.801 261.395 m 256.941 261.422 257.086 261.438 257.234 261.438 c 258.516
 261.438 259.559 260.395 259.559 259.113 c 259.559 257.828 258.516 256.785
 257.234 256.785 c 257.086 256.785 256.941 256.801 256.801 256.828 c h
256.801 261.395 m f
256.801 276.395 m 256.941 276.422 257.086 276.438 257.234 276.438 c 258.516
 276.438 259.559 275.395 259.559 274.113 c 259.559 272.828 258.516 271.785
 257.234 271.785 c 257.086 271.785 256.941 271.801 256.801 271.828 c h
256.801 276.395 m f
257.234 346.785 m 256.992 346.785 256.762 346.832 256.543 346.902 c 256.387
 348.285 256.16 349.645 255.859 350.98 c 256.246 351.266 256.719 351.438
 257.234 351.438 c 258.52 351.438 259.559 350.395 259.559 349.113 c 259.559
 347.828 258.52 346.785 257.234 346.785 c h
257.234 346.785 m f
257.234 361.785 m 255.949 361.785 254.906 362.828 254.906 364.113 c 254.906
 365.398 255.949 366.438 257.234 366.438 c 258.52 366.438 259.559 365.398
 259.559 364.113 c 259.559 362.828 258.52 361.785 257.234 361.785 c h
257.234 361.785 m f
249.449 369.566 m 248.164 369.566 247.125 370.609 247.125 371.895 c 247.125
 373.18 248.164 374.223 249.449 374.223 c 250.734 374.223 251.777 373.18
 251.777 371.895 c 251.777 370.609 250.734 369.566 249.449 369.566 c h
249.449 369.566 m f
242.234 6.438 m 243.52 6.438 244.559 5.398 244.559 4.113 c 244.559 3.992
 244.543 3.879 244.523 3.766 c 243.086 3.473 241.613 3.273 240.121 3.148
 c 239.988 3.441 239.906 3.766 239.906 4.113 c 239.906 5.398 240.949 6.438
 242.234 6.438 c h
242.234 6.438 m f
242.234 376.785 m 240.949 376.785 239.906 377.828 239.906 379.113 c 239.906
 379.785 240.199 380.387 240.656 380.812 c 241.867 380.695 243.059 380.516
 244.23 380.289 c 244.434 379.941 244.562 379.543 244.562 379.113 c 244.559
 377.828 243.52 376.785 242.234 376.785 c h
242.234 376.785 m f
229.559 4.113 m 229.559 3.977 229.543 3.844 229.52 3.715 c 228.871 3.84
 228.227 3.977 227.59 4.133 c 228.23 4.293 228.859 4.473 229.488 4.66 c 
229.531 4.484 229.559 4.301 229.559 4.113 c h
229.559 4.113 m f
229.262 380.23 m 229.414 379.957 229.508 379.648 229.539 379.32 c 228.895
 379.52 228.246 379.703 227.59 379.867 c 228.141 380.004 228.703 380.117
 229.262 380.23 c h
229.262 380.23 m f
0.976471 0.984314 0.988235 rg
262.125 296.895 m 262.125 298.18 263.164 299.223 264.449 299.223 c 264.809
 299.223 265.145 299.133 265.445 298.988 c 262.34 295.926 l 262.207 296.223
 262.125 296.547 262.125 296.895 c h
262.125 296.895 m f
269.906 304.113 m 269.906 305.398 270.949 306.438 272.234 306.438 c 272.461
 306.438 272.676 306.395 272.883 306.336 c 270 303.488 l 269.945 303.688
 269.906 303.895 269.906 304.113 c h
269.906 304.113 m f
264.449 309.566 m 263.164 309.566 262.125 310.609 262.125 311.895 c 262.125
 313.18 263.164 314.223 264.449 314.223 c 265.734 314.223 266.777 313.18
 266.777 311.895 c 266.777 310.609 265.734 309.566 264.449 309.566 c h
264.449 309.566 m f
272.234 316.785 m 270.949 316.785 269.906 317.828 269.906 319.113 c 269.906
 320.398 270.949 321.438 272.234 321.438 c 273.52 321.438 274.559 320.398
 274.559 319.113 c 274.559 317.828 273.52 316.785 272.234 316.785 c h
272.234 316.785 m f
264.449 324.566 m 263.164 324.566 262.125 325.609 262.125 326.895 c 262.125
 328.18 263.164 329.223 264.449 329.223 c 265.734 329.223 266.777 328.18
 266.777 326.895 c 266.777 325.609 265.734 324.566 264.449 324.566 c h
264.449 324.566 m f
274.559 334.113 m 274.559 332.828 273.52 331.785 272.234 331.785 c 270.949
 331.785 269.906 332.828 269.906 334.113 c 269.906 335.398 270.949 336.438
 272.234 336.438 c 273.52 336.438 274.559 335.398 274.559 334.113 c h
274.559 334.113 m f
264.449 339.566 m 264.324 339.566 264.203 339.586 264.082 339.605 c 266.734
 342.309 l 266.762 342.176 266.777 342.035 266.777 341.895 c 266.777 340.609
 265.734 339.566 264.449 339.566 c h
264.449 339.566 m f
274.559 349.113 m 274.559 347.828 273.52 346.785 272.234 346.785 c 271.906
 346.785 271.598 346.855 271.316 346.977 c 274.352 350.07 l 274.48 349.777
 274.559 349.453 274.559 349.113 c h
274.559 349.113 m f
256.801 291.395 m 256.941 291.422 257.086 291.438 257.234 291.438 c 257.406
 291.438 257.574 291.414 257.738 291.379 c 256.801 290.453 l h
256.801 291.395 m f
257.234 301.785 m 257.086 301.785 256.941 301.801 256.801 301.828 c 256.801
 306.395 l 256.941 306.422 257.086 306.438 257.234 306.438 c 258.52 306.438
 259.559 305.398 259.559 304.113 c 259.559 302.828 258.52 301.785 257.234
 301.785 c h
257.234 301.785 m f
257.234 316.785 m 257.086 316.785 256.941 316.801 256.801 316.828 c 256.801
 321.395 l 256.941 321.422 257.086 321.438 257.234 321.438 c 258.52 321.438
 259.559 320.398 259.559 319.113 c 259.559 317.828 258.52 316.785 257.234
 316.785 c h
257.234 316.785 m f
257.234 331.785 m 257.086 331.785 256.941 331.801 256.801 331.828 c 256.801
 332.188 l 259.426 334.863 l 259.508 334.625 259.562 334.379 259.562 334.113
 c 259.559 332.828 258.52 331.785 257.234 331.785 c h
257.234 331.785 m f
263.598 104.055 m 262.297 102.77 l 262.535 103.359 263.008 103.82 263.598
 104.055 c h
263.598 104.055 m f
264.449 114.566 m 263.164 114.566 262.125 115.609 262.125 116.895 c 262.125
 118.18 263.164 119.223 264.449 119.223 c 265.734 119.223 266.777 118.18
 266.777 116.895 c 266.777 115.609 265.734 114.566 264.449 114.566 c h
264.449 114.566 m f
272.234 121.785 m 270.949 121.785 269.906 122.828 269.906 124.113 c 269.906
 125.398 270.949 126.438 272.234 126.438 c 273.52 126.438 274.559 125.398
 274.559 124.113 c 274.559 122.828 273.52 121.785 272.234 121.785 c h
272.234 121.785 m f
266.777 131.895 m 266.777 130.609 265.734 129.566 264.453 129.566 c 263.168
 129.566 262.125 130.609 262.125 131.895 c 262.125 133.18 263.168 134.223
 264.453 134.223 c 265.734 134.223 266.777 133.18 266.777 131.895 c h
266.777 131.895 m f
272.234 141.438 m 273.52 141.438 274.559 140.398 274.559 139.113 c 274.559
 137.828 273.52 136.785 272.234 136.785 c 270.949 136.785 269.906 137.828
 269.906 139.113 c 269.906 140.398 270.949 141.438 272.234 141.438 c h
272.234 141.438 m f
266.777 146.895 m 266.777 145.609 265.734 144.566 264.453 144.566 c 263.824
 144.566 263.254 144.82 262.836 145.227 c 266.094 148.543 l 266.516 148.121
 266.777 147.539 266.777 146.895 c h
266.777 146.895 m f
274.559 154.113 m 274.559 152.828 273.52 151.785 272.234 151.785 c 271.426
 151.785 270.715 152.199 270.297 152.824 c 273.48 156.07 l 274.129 155.656
 274.559 154.938 274.559 154.113 c h
274.559 154.113 m f
259.559 109.113 m 259.559 107.828 258.52 106.785 257.234 106.785 c 257.086
 106.785 256.941 106.801 256.801 106.828 c 256.801 111.395 l 256.941 111.422
 257.086 111.438 257.234 111.438 c 258.52 111.438 259.559 110.398 259.559
 109.113 c h
259.559 109.113 m f
257.234 126.438 m 258.52 126.438 259.559 125.398 259.559 124.113 c 259.559
 122.828 258.52 121.785 257.234 121.785 c 257.086 121.785 256.941 121.801
 256.801 121.828 c 256.801 126.395 l 256.941 126.422 257.086 126.438 257.234
 126.438 c h
257.234 126.438 m f
259.559 139.113 m 259.559 137.828 258.52 136.785 257.234 136.785 c 257.086
 136.785 256.941 136.801 256.801 136.828 c 256.801 139.078 l 258.645 140.953
 l 259.195 140.527 259.559 139.863 259.559 139.113 c h
259.559 139.113 m f
0.192157 0.215686 0.239216 rg
133.656 384 m 110.777 384 92.164 365.387 92.164 342.512 c 92.164 41.488
 l 92.164 18.613 110.777 0 133.656 0 c 156.531 0 175.145 18.613 175.145 
41.488 c 175.145 342.512 l 175.145 365.387 156.531 384 133.656 384 c h
133.656 6 m 114.086 6 98.164 21.922 98.164 41.488 c 98.164 342.512 l 98.164
 362.078 114.086 378 133.656 378 c 153.223 378 169.145 362.078 169.145 342.512
 c 169.145 41.488 l 169.145 21.922 153.223 6 133.656 6 c h
133.656 6 m f
237.059 384 m 214.18 384 195.57 365.387 195.57 342.512 c 195.57 41.488 
l 195.57 18.613 214.18 0 237.059 0 c 259.938 0 278.547 18.613 278.547 41.488
 c 278.547 342.512 l 278.547 365.387 259.938 384 237.059 384 c h
237.059 6 m 217.488 6 201.57 21.922 201.57 41.488 c 201.57 342.512 l 201.57
 362.078 217.492 378 237.059 378 c 256.629 378 272.547 362.078 272.547 342.512
 c 272.547 41.488 l 272.547 21.922 256.625 6 237.059 6 c h
237.059 6 m f
0.913725 0.760784 0.470588 rg
31.559 4.797 28.605 73.195 re f
0.192157 0.215686 0.239216 rg
48.547 291.773 m 48.547 80.992 l 60.164 80.992 l 61.82 80.992 63.164 79.648
 63.164 77.992 c 63.164 4.797 l 63.164 3.141 61.82 1.797 60.164 1.797 c 
31.559 1.797 l 29.902 1.797 28.559 3.141 28.559 4.797 c 28.559 77.992 l 
28.559 79.652 29.902 80.992 31.559 80.992 c 42.547 80.992 l 42.547 291.773
 l 26.852 293.289 14.535 306.551 14.535 322.641 c 14.535 324.297 15.879 
325.641 17.535 325.641 c 42.547 325.641 l 42.547 371.113 l 42.547 372.77
 43.891 374.113 45.547 374.113 c 47.203 374.113 48.547 372.77 48.547 371.113
 c 48.547 325.641 l 73.559 325.641 l 75.215 325.641 76.559 324.297 76.559
 322.641 c 76.559 306.551 64.246 293.289 48.547 291.773 c h
34.559 7.797 m 57.164 7.797 l 57.164 74.992 l 34.559 74.992 l h
34.559 7.797 m f
0.913725 0.760784 0.470588 rg
324.461 4.797 28.609 73.195 re f
0.192157 0.215686 0.239216 rg
341.449 291.773 m 341.449 80.992 l 353.066 80.992 l 354.723 80.992 356.066
 79.648 356.066 77.992 c 356.066 4.797 l 356.066 3.141 354.723 1.797 353.066
 1.797 c 324.461 1.797 l 322.805 1.797 321.461 3.141 321.461 4.797 c 321.461
 77.992 l 321.461 79.652 322.805 80.992 324.461 80.992 c 335.449 80.992 
l 335.449 291.773 l 319.754 293.289 307.438 306.551 307.438 322.641 c 307.438
 324.297 308.781 325.641 310.438 325.641 c 335.449 325.641 l 335.449 371.113
 l 335.449 372.77 336.793 374.113 338.449 374.113 c 340.105 374.113 341.449
 372.77 341.449 371.113 c 341.449 325.641 l 366.461 325.641 l 368.117 325.641
 369.461 324.297 369.461 322.641 c 369.461 306.551 357.148 293.289 341.449
 291.773 c h
327.461 7.797 m 350.07 7.797 l 350.07 74.992 l 327.461 74.992 l h
327.461 7.797 m f
Q Q
showpage
%%Trailer
end
%%EOF
