%!PS-Adobe-3.0 EPSF-3.0
%%Creator: cairo 1.16.0 (https://cairographics.org)
%%CreationDate: Wed Jul 15 13:24:22 2020
%%Pages: 1
%%DocumentData: Clean7Bit
%%LanguageLevel: 2
%%BoundingBox: 0 22 384 362
%%EndComments
%%BeginProlog
50 dict begin
/q { gsave } bind def
/Q { grestore } bind def
/cm { 6 array astore concat } bind def
/w { setlinewidth } bind def
/J { setlinecap } bind def
/j { setlinejoin } bind def
/M { setmiterlimit } bind def
/d { setdash } bind def
/m { moveto } bind def
/l { lineto } bind def
/c { curveto } bind def
/h { closepath } bind def
/re { exch dup neg 3 1 roll 5 3 roll moveto 0 rlineto
      0 exch rlineto 0 rlineto closepath } bind def
/S { stroke } bind def
/f { fill } bind def
/f* { eofill } bind def
/n { newpath } bind def
/W { clip } bind def
/W* { eoclip } bind def
/BT { } bind def
/ET { } bind def
/BDC { mark 3 1 roll /BDC pdfmark } bind def
/EMC { mark /EMC pdfmark } bind def
/cairo_store_point { /cairo_point_y exch def /cairo_point_x exch def } def
/Tj { show currentpoint cairo_store_point } bind def
/TJ {
  {
    dup
    type /stringtype eq
    { show } { -0.001 mul 0 cairo_font_matrix dtransform rmoveto } ifelse
  } forall
  currentpoint cairo_store_point
} bind def
/cairo_selectfont { cairo_font_matrix aload pop pop pop 0 0 6 array astore
    cairo_font exch selectfont cairo_point_x cairo_point_y moveto } bind def
/Tf { pop /cairo_font exch def /cairo_font_matrix where
      { pop cairo_selectfont } if } bind def
/Td { matrix translate cairo_font_matrix matrix concatmatrix dup
      /cairo_font_matrix exch def dup 4 get exch 5 get cairo_store_point
      /cairo_font where { pop cairo_selectfont } if } bind def
/Tm { 2 copy 8 2 roll 6 array astore /cairo_font_matrix exch def
      cairo_store_point /cairo_font where { pop cairo_selectfont } if } bind def
/g { setgray } bind def
/rg { setrgbcolor } bind def
/d1 { setcachedevice } bind def
/cairo_data_source {
  CairoDataIndex CairoData length lt
    { CairoData CairoDataIndex get /CairoDataIndex CairoDataIndex 1 add def }
    { () } ifelse
} def
/cairo_flush_ascii85_file { cairo_ascii85_file status { cairo_ascii85_file flushfile } if } def
/cairo_image { image cairo_flush_ascii85_file } def
/cairo_imagemask { imagemask cairo_flush_ascii85_file } def
%%EndProlog
%%BeginSetup
%%EndSetup
%%Page: 1 1
%%BeginPageSetup
%%PageBoundingBox: 0 22 384 362
%%EndPageSetup
q 0 22 384 340 rectclip
1 0 0 -1 0 384 cm q
0.913725 0.760784 0.470588 rg
200.891 265.801 m 185.105 247.059 195.188 197.051 201.492 191.23 c 207.906
 185.312 339.219 147.312 337.832 143.172 c 315.055 75.082 250.68 26.062 
174.918 26.062 c 80.027 26.062 3.105 102.988 3.105 197.879 c 3.105 216.328
 5.637 234.227 11.395 250.762 c 18.148 270.148 40.996 312.742 67.473 323.824
 c 83.543 330.551 106.828 311.707 125.348 315.82 c 143.871 319.934 160.832
 338.312 181.113 346.426 c 205.598 356.223 237.406 345.375 244.797 315.207
 c 253.043 281.523 214.395 281.84 200.891 265.801 c h
200.891 265.801 m f
0.917647 0.658824 0.584314 rg
292.645 72.41 m 292.645 72.41 271.316 84.598 271.316 87.648 c 271.316 90.695
 292.645 113.039 300.77 132.336 c 328.191 120.148 l f
0.976471 0.984314 0.988235 rg
239.941 291.289 m 238.66 291.289 237.617 292.332 237.617 293.617 c 237.617
 294.902 238.66 295.945 239.941 295.945 c 241.172 295.945 242.168 294.988
 242.254 293.781 c 241.684 292.926 241.055 292.109 240.379 291.336 c 240.238
 291.309 240.094 291.289 239.941 291.289 c h
239.941 291.289 m f
239.941 306.289 m 238.66 306.289 237.617 307.332 237.617 308.617 c 237.617
 309.902 238.66 310.941 239.941 310.941 c 241.227 310.941 242.27 309.902
 242.27 308.617 c 242.27 307.332 241.227 306.289 239.941 306.289 c h
239.941 306.289 m f
239.941 321.289 m 238.66 321.289 237.617 322.328 237.617 323.613 c 237.617
 324.898 238.66 325.941 239.941 325.941 c 240.27 325.941 240.582 325.871
 240.867 325.75 c 241.328 324.855 241.766 323.938 242.176 322.992 c 241.902
 322.012 241.012 321.289 239.941 321.289 c h
239.941 321.289 m f
224.945 280.945 m 225.125 280.945 225.301 280.922 225.473 280.879 c 224.594
 280.438 223.711 280 222.824 279.566 c 223.188 280.379 224 280.945 224.945
 280.945 c h
224.945 280.945 m f
230.398 285.836 m 230.398 287.121 231.441 288.164 232.727 288.164 c 233.789
 288.164 234.672 287.449 234.953 286.477 c 233.773 285.621 232.539 284.816
 231.258 284.047 c 230.738 284.473 230.398 285.113 230.398 285.836 c h
230.398 285.836 m f
224.945 291.289 m 223.66 291.289 222.617 292.332 222.617 293.617 c 222.617
 294.902 223.66 295.945 224.945 295.945 c 226.23 295.945 227.27 294.902 
227.27 293.617 c 227.27 292.332 226.23 291.289 224.945 291.289 c h
224.945 291.289 m f
232.727 298.508 m 231.441 298.508 230.402 299.551 230.402 300.836 c 230.402
 302.117 231.441 303.16 232.727 303.16 c 234.012 303.16 235.055 302.121 
235.055 300.836 c 235.055 299.551 234.012 298.508 232.727 298.508 c h
232.727 298.508 m f
224.945 306.289 m 223.66 306.289 222.617 307.332 222.617 308.617 c 222.617
 309.902 223.66 310.941 224.945 310.941 c 226.23 310.941 227.27 309.902 
227.27 308.617 c 227.27 307.332 226.23 306.289 224.945 306.289 c h
224.945 306.289 m f
232.727 313.508 m 231.441 313.508 230.402 314.547 230.402 315.832 c 230.402
 317.117 231.441 318.16 232.727 318.16 c 234.012 318.16 235.055 317.117 
235.055 315.832 c 235.055 314.547 234.012 313.508 232.727 313.508 c h
232.727 313.508 m f
224.945 321.289 m 223.66 321.289 222.617 322.328 222.617 323.613 c 222.617
 324.898 223.66 325.941 224.945 325.941 c 226.23 325.941 227.27 324.898 
227.27 323.613 c 227.27 322.328 226.23 321.289 224.945 321.289 c h
224.945 321.289 m f
232.727 328.504 m 231.441 328.504 230.402 329.547 230.402 330.832 c 230.402
 332.117 231.441 333.156 232.727 333.156 c 234.012 333.156 235.055 332.117
 235.055 330.832 c 235.055 329.547 234.012 328.504 232.727 328.504 c h
232.727 328.504 m f
224.945 340.938 m 226.23 340.938 227.27 339.898 227.27 338.613 c 227.27
 337.328 226.23 336.285 224.945 336.285 c 223.66 336.285 222.617 337.328
 222.617 338.613 c 222.617 339.898 223.66 340.938 224.945 340.938 c h
224.945 340.938 m f
220.055 285.836 m 220.055 284.977 219.582 284.23 218.887 283.828 c 218.105
 285.188 217.266 286.484 216.371 287.719 c 216.754 287.996 217.219 288.164
 217.727 288.164 c 219.012 288.164 220.055 287.121 220.055 285.836 c h
220.055 285.836 m f
212.273 293.617 m 212.273 293.309 212.211 293.016 212.102 292.746 c 211.074
 293.781 210.004 294.762 208.891 295.68 c 209.211 295.844 209.566 295.945
 209.945 295.945 c 211.23 295.945 212.273 294.902 212.273 293.617 c h
212.273 293.617 m f
217.727 298.508 m 216.445 298.508 215.402 299.551 215.402 300.836 c 215.402
 302.117 216.445 303.16 217.727 303.16 c 219.012 303.16 220.055 302.121 
220.055 300.836 c 220.055 299.551 219.012 298.508 217.727 298.508 c h
217.727 298.508 m f
209.945 306.289 m 208.66 306.289 207.621 307.332 207.621 308.617 c 207.621
 309.902 208.66 310.941 209.945 310.941 c 211.23 310.941 212.273 309.902
 212.273 308.617 c 212.273 307.332 211.23 306.289 209.945 306.289 c h
209.945 306.289 m f
217.727 313.508 m 216.445 313.508 215.402 314.547 215.402 315.832 c 215.402
 317.117 216.445 318.16 217.727 318.16 c 219.012 318.16 220.055 317.117 
220.055 315.832 c 220.055 314.547 219.012 313.508 217.727 313.508 c h
217.727 313.508 m f
209.945 321.289 m 208.66 321.289 207.621 322.328 207.621 323.613 c 207.621
 324.898 208.66 325.941 209.945 325.941 c 211.23 325.941 212.273 324.898
 212.273 323.613 c 212.273 322.328 211.23 321.289 209.945 321.289 c h
209.945 321.289 m f
217.727 328.504 m 216.445 328.504 215.402 329.547 215.402 330.832 c 215.402
 332.117 216.445 333.156 217.727 333.156 c 219.012 333.156 220.055 332.117
 220.055 330.832 c 220.055 329.547 219.012 328.504 217.727 328.504 c h
217.727 328.504 m f
209.945 336.285 m 208.66 336.285 207.621 337.328 207.621 338.613 c 207.621
 339.898 208.66 340.938 209.945 340.938 c 211.23 340.938 212.273 339.898
 212.273 338.613 c 212.273 337.328 211.23 336.285 209.945 336.285 c h
209.945 336.285 m f
217.727 343.504 m 216.445 343.504 215.402 344.543 215.402 345.828 c 215.402
 346.332 215.566 346.793 215.836 347.176 c 217.258 346.68 218.652 346.121
 220.02 345.492 c 219.855 344.367 218.898 343.504 217.727 343.504 c h
217.727 343.504 m f
202.73 303.16 m 204.016 303.16 205.055 302.117 205.055 300.832 c 205.055
 300.109 204.719 299.473 204.199 299.043 c 202.977 299.809 201.723 300.516
 200.438 301.16 c 200.598 302.289 201.555 303.16 202.73 303.16 c h
202.73 303.16 m f
194.949 306.289 m 193.664 306.289 192.621 307.332 192.621 308.617 c 192.621
 309.902 193.664 310.941 194.949 310.941 c 196.234 310.941 197.273 309.902
 197.273 308.617 c 197.273 307.332 196.234 306.289 194.949 306.289 c h
194.949 306.289 m f
202.73 313.508 m 201.445 313.508 200.402 314.547 200.402 315.832 c 200.402
 317.117 201.445 318.16 202.73 318.16 c 204.016 318.16 205.055 317.117 205.055
 315.832 c 205.055 314.547 204.016 313.508 202.73 313.508 c h
202.73 313.508 m f
194.949 325.941 m 196.234 325.941 197.273 324.898 197.273 323.613 c 197.273
 322.328 196.234 321.289 194.949 321.289 c 193.664 321.289 192.621 322.328
 192.621 323.613 c 192.621 324.898 193.664 325.941 194.949 325.941 c h
194.949 325.941 m f
202.73 328.504 m 201.445 328.504 200.402 329.547 200.402 330.832 c 200.402
 332.117 201.445 333.156 202.73 333.156 c 204.016 333.156 205.055 332.117
 205.055 330.832 c 205.055 329.547 204.016 328.504 202.73 328.504 c h
202.73 328.504 m f
194.949 340.938 m 196.234 340.938 197.273 339.898 197.273 338.613 c 197.273
 337.328 196.234 336.285 194.949 336.285 c 193.664 336.285 192.621 337.328
 192.621 338.613 c 192.621 339.898 193.664 340.938 194.949 340.938 c h
194.949 340.938 m f
202.73 348.156 m 204.016 348.156 205.055 347.113 205.055 345.828 c 205.055
 344.543 204.016 343.504 202.73 343.504 c 201.445 343.504 200.402 344.543
 200.402 345.828 c 200.402 347.113 201.445 348.156 202.73 348.156 c h
202.73 348.156 m f
179.949 306.289 m 178.664 306.289 177.625 307.332 177.625 308.617 c 177.625
 309.902 178.664 310.941 179.949 310.941 c 181.234 310.941 182.277 309.902
 182.277 308.617 c 182.277 307.332 181.234 306.289 179.949 306.289 c h
179.949 306.289 m f
187.73 318.16 m 189.016 318.16 190.059 317.117 190.059 315.832 c 190.059
 314.547 189.016 313.504 187.73 313.504 c 186.445 313.504 185.406 314.547
 185.406 315.832 c 185.406 317.117 186.445 318.16 187.73 318.16 c h
187.73 318.16 m f
179.949 321.289 m 178.664 321.289 177.625 322.328 177.625 323.613 c 177.625
 324.898 178.664 325.941 179.949 325.941 c 181.234 325.941 182.277 324.898
 182.277 323.613 c 182.277 322.328 181.234 321.289 179.949 321.289 c h
179.949 321.289 m f
187.73 333.156 m 189.016 333.156 190.059 332.117 190.059 330.832 c 190.059
 329.547 189.016 328.504 187.73 328.504 c 186.445 328.504 185.406 329.547
 185.406 330.832 c 185.406 332.117 186.445 333.156 187.73 333.156 c h
187.73 333.156 m f
179.949 336.285 m 178.664 336.285 177.625 337.328 177.625 338.613 c 177.625
 339.898 178.664 340.938 179.949 340.938 c 181.234 340.938 182.277 339.898
 182.277 338.613 c 182.277 337.328 181.234 336.285 179.949 336.285 c h
179.949 336.285 m f
187.73 348.156 m 189.016 348.156 190.059 347.113 190.059 345.828 c 190.059
 344.543 189.016 343.504 187.73 343.504 c 186.445 343.504 185.406 344.543
 185.406 345.828 c 185.406 347.113 186.445 348.156 187.73 348.156 c h
187.73 348.156 m f
162.625 308.617 m 162.625 309.902 163.668 310.941 164.953 310.941 c 166.234
 310.941 167.277 309.902 167.277 308.617 c 167.277 307.332 166.234 306.289
 164.953 306.289 c 163.668 306.289 162.625 307.332 162.625 308.617 c h
162.625 308.617 m f
172.734 313.508 m 171.449 313.508 170.406 314.547 170.406 315.832 c 170.406
 317.117 171.449 318.16 172.734 318.16 c 174.02 318.16 175.059 317.117 175.059
 315.832 c 175.059 314.547 174.02 313.508 172.734 313.508 c h
172.734 313.508 m f
164.953 325.941 m 166.234 325.941 167.277 324.898 167.277 323.613 c 167.277
 322.328 166.234 321.289 164.953 321.289 c 163.668 321.289 162.625 322.328
 162.625 323.613 c 162.625 324.898 163.668 325.941 164.953 325.941 c h
164.953 325.941 m f
172.734 328.504 m 171.449 328.504 170.406 329.547 170.406 330.832 c 170.406
 332.117 171.449 333.156 172.734 333.156 c 174.02 333.156 175.059 332.117
 175.059 330.832 c 175.059 329.547 174.02 328.504 172.734 328.504 c h
172.734 328.504 m f
164.953 336.285 m 164.359 336.285 163.824 336.516 163.414 336.879 c 164.66
 337.684 165.914 338.473 167.18 339.246 c 167.238 339.043 167.277 338.832
 167.277 338.613 c 167.277 337.328 166.234 336.285 164.953 336.285 c h
164.953 336.285 m f
157.734 303.16 m 158.375 303.16 158.949 302.902 159.371 302.488 c 158.039
 301.938 156.723 301.344 155.422 300.715 c 155.418 300.754 155.41 300.793
 155.41 300.832 c 155.406 302.117 156.449 303.16 157.734 303.16 c h
157.734 303.16 m f
149.953 306.289 m 148.668 306.289 147.629 307.332 147.629 308.617 c 147.629
 309.902 148.668 310.941 149.953 310.941 c 151.238 310.941 152.281 309.902
 152.281 308.617 c 152.281 307.332 151.238 306.289 149.953 306.289 c h
149.953 306.289 m f
155.406 315.832 m 155.406 317.117 156.449 318.16 157.734 318.16 c 159.02
 318.16 160.062 317.117 160.062 315.832 c 160.062 314.547 159.02 313.508
 157.734 313.508 c 156.449 313.508 155.406 314.547 155.406 315.832 c h
155.406 315.832 m f
149.953 321.289 m 148.668 321.289 147.629 322.328 147.629 323.613 c 147.629
 324.898 148.668 325.941 149.953 325.941 c 151.238 325.941 152.281 324.898
 152.281 323.613 c 152.281 322.328 151.238 321.289 149.953 321.289 c h
149.953 321.289 m f
160.062 330.832 m 160.062 329.547 159.02 328.504 157.734 328.504 c 156.449
 328.504 155.41 329.547 155.41 330.832 c 155.41 331.121 155.469 331.395 
155.562 331.648 c 156.305 332.148 157.043 332.652 157.789 333.152 c 159.047
 333.125 160.062 332.098 160.062 330.832 c h
160.062 330.832 m f
134.953 291.289 m 133.672 291.289 132.629 292.332 132.629 293.617 c 132.629
 294.902 133.672 295.945 134.953 295.945 c 136.238 295.945 137.281 294.902
 137.281 293.617 c 137.281 292.332 136.238 291.289 134.953 291.289 c h
134.953 291.289 m f
142.738 298.508 m 141.453 298.508 140.41 299.551 140.41 300.836 c 140.41
 302.117 141.453 303.16 142.738 303.16 c 144.02 303.16 145.062 302.121 145.062
 300.836 c 145.062 299.551 144.02 298.508 142.738 298.508 c h
142.738 298.508 m f
134.953 306.289 m 133.672 306.289 132.629 307.332 132.629 308.617 c 132.629
 309.902 133.672 310.941 134.953 310.941 c 136.238 310.941 137.281 309.902
 137.281 308.617 c 137.281 307.332 136.238 306.289 134.953 306.289 c h
134.953 306.289 m f
142.738 313.508 m 141.453 313.508 140.41 314.547 140.41 315.832 c 140.41
 317.117 141.453 318.16 142.738 318.16 c 144.02 318.16 145.062 317.117 145.062
 315.832 c 145.062 314.547 144.02 313.508 142.738 313.508 c h
142.738 313.508 m f
119.957 291.289 m 118.672 291.289 117.629 292.332 117.629 293.617 c 117.629
 294.902 118.672 295.945 119.957 295.945 c 121.242 295.945 122.281 294.902
 122.281 293.617 c 122.281 292.332 121.242 291.289 119.957 291.289 c h
119.957 291.289 m f
127.738 298.508 m 126.453 298.508 125.414 299.551 125.414 300.836 c 125.414
 302.117 126.453 303.16 127.738 303.16 c 129.023 303.16 130.066 302.121 
130.066 300.836 c 130.066 299.551 129.023 298.508 127.738 298.508 c h
127.738 298.508 m f
122.281 308.617 m 122.281 307.332 121.242 306.289 119.957 306.289 c 118.672
 306.289 117.629 307.332 117.629 308.617 c 117.629 309.902 118.672 310.941
 119.957 310.941 c 121.242 310.941 122.281 309.902 122.281 308.617 c h
122.281 308.617 m f
127.738 313.508 m 126.453 313.508 125.414 314.547 125.414 315.832 c 125.414
 315.836 125.414 315.836 125.414 315.836 c 126.855 316.16 128.285 316.574
 129.707 317.059 c 129.93 316.703 130.066 316.285 130.066 315.832 c 130.066
 314.547 129.023 313.508 127.738 313.508 c h
127.738 313.508 m f
112.738 283.508 m 111.457 283.508 110.414 284.551 110.414 285.836 c 110.414
 287.121 111.457 288.164 112.738 288.164 c 114.023 288.164 115.066 287.121
 115.066 285.836 c 115.066 284.551 114.023 283.508 112.738 283.508 c h
112.738 283.508 m f
104.957 291.289 m 103.672 291.289 102.633 292.332 102.633 293.617 c 102.633
 294.902 103.672 295.945 104.957 295.945 c 106.242 295.945 107.285 294.902
 107.285 293.617 c 107.285 292.332 106.242 291.289 104.957 291.289 c h
104.957 291.289 m f
112.738 298.508 m 111.457 298.508 110.414 299.551 110.414 300.836 c 110.414
 302.117 111.457 303.16 112.738 303.16 c 114.023 303.16 115.066 302.121 
115.066 300.836 c 115.066 299.551 114.023 298.508 112.738 298.508 c h
112.738 298.508 m f
104.957 306.289 m 103.672 306.289 102.633 307.332 102.633 308.617 c 102.633
 309.902 103.672 310.941 104.957 310.941 c 106.242 310.941 107.285 309.902
 107.285 308.617 c 107.285 307.332 106.242 306.289 104.957 306.289 c h
104.957 306.289 m f
112.738 313.508 m 111.457 313.508 110.414 314.547 110.414 315.832 c 110.414
 316.008 110.438 316.18 110.477 316.348 c 112.008 316.012 113.531 315.738
 115.039 315.547 c 114.895 314.398 113.926 313.508 112.738 313.508 c h
112.738 313.508 m f
89.961 276.293 m 88.676 276.293 87.633 277.336 87.633 278.621 c 87.633 
279.902 88.676 280.945 89.961 280.945 c 91.246 280.945 92.285 279.902 92.285
 278.621 c 92.285 277.336 91.246 276.293 89.961 276.293 c h
89.961 276.293 m f
97.742 283.508 m 96.457 283.508 95.414 284.551 95.414 285.836 c 95.414 
287.121 96.457 288.164 97.742 288.164 c 99.027 288.164 100.066 287.121 100.066
 285.836 c 100.066 284.551 99.027 283.508 97.742 283.508 c h
97.742 283.508 m f
89.961 291.289 m 88.676 291.289 87.633 292.332 87.633 293.617 c 87.633 
294.902 88.676 295.945 89.961 295.945 c 91.246 295.945 92.285 294.902 92.285
 293.617 c 92.285 292.332 91.246 291.289 89.961 291.289 c h
89.961 291.289 m f
97.742 298.508 m 96.457 298.508 95.414 299.551 95.414 300.836 c 95.414 
302.117 96.457 303.16 97.742 303.16 c 99.027 303.16 100.066 302.121 100.066
 300.836 c 100.066 299.551 99.027 298.508 97.742 298.508 c h
97.742 298.508 m f
89.961 306.289 m 88.676 306.289 87.633 307.332 87.633 308.617 c 87.633 
309.902 88.676 310.941 89.961 310.941 c 91.246 310.941 92.285 309.902 92.285
 308.617 c 92.285 307.332 91.246 306.289 89.961 306.289 c h
89.961 306.289 m f
97.742 313.508 m 96.457 313.508 95.414 314.547 95.414 315.832 c 95.414 
317.117 96.457 318.16 97.742 318.16 c 99.027 318.16 100.066 317.117 100.066
 315.832 c 100.066 314.547 99.027 313.508 97.742 313.508 c h
97.742 313.508 m f
89.961 321.289 m 88.801 321.289 87.848 322.137 87.672 323.242 c 88.992 
322.871 90.324 322.469 91.668 322.047 c 91.242 321.582 90.637 321.289 89.961
 321.289 c h
89.961 321.289 m f
74.961 280.945 m 76.246 280.945 77.289 279.902 77.289 278.621 c 77.289 
277.762 76.82 277.023 76.133 276.621 c 75.023 276.988 73.918 277.355 72.816
 277.711 c 72.699 277.992 72.633 278.297 72.633 278.617 c 72.637 279.902
 73.676 280.945 74.961 280.945 c h
74.961 280.945 m f
82.742 283.508 m 81.457 283.508 80.418 284.551 80.418 285.836 c 80.418 
287.121 81.457 288.164 82.742 288.164 c 84.027 288.164 85.07 287.121 85.07
 285.836 c 85.07 284.551 84.027 283.508 82.742 283.508 c h
82.742 283.508 m f
74.961 291.289 m 73.676 291.289 72.637 292.332 72.637 293.617 c 72.637 
294.902 73.676 295.945 74.961 295.945 c 76.246 295.945 77.289 294.902 77.289
 293.617 c 77.289 292.332 76.246 291.289 74.961 291.289 c h
74.961 291.289 m f
82.742 298.508 m 81.457 298.508 80.418 299.551 80.418 300.836 c 80.418 
302.117 81.457 303.16 82.742 303.16 c 84.027 303.16 85.07 302.121 85.07 
300.836 c 85.07 299.551 84.027 298.508 82.742 298.508 c h
82.742 298.508 m f
74.961 306.289 m 73.676 306.289 72.637 307.332 72.637 308.617 c 72.637 
309.902 73.676 310.941 74.961 310.941 c 76.246 310.941 77.289 309.902 77.289
 308.617 c 77.289 307.332 76.246 306.289 74.961 306.289 c h
74.961 306.289 m f
82.742 313.508 m 81.457 313.508 80.418 314.547 80.418 315.832 c 80.418 
317.117 81.457 318.16 82.742 318.16 c 84.027 318.16 85.07 317.117 85.07 
315.832 c 85.07 314.547 84.027 313.508 82.742 313.508 c h
82.742 313.508 m f
74.961 321.289 m 73.676 321.289 72.637 322.328 72.637 323.613 c 72.637 
324.223 72.875 324.773 73.258 325.191 c 74.355 325.285 75.473 325.301 76.613
 325.254 c 77.027 324.832 77.289 324.254 77.289 323.613 c 77.289 322.328
 76.246 321.289 74.961 321.289 c h
74.961 321.289 m f
67.746 283.508 m 66.461 283.508 65.418 284.551 65.418 285.836 c 65.418 
287.121 66.461 288.164 67.746 288.164 c 69.031 288.164 70.07 287.121 70.07
 285.836 c 70.07 284.551 69.031 283.508 67.746 283.508 c h
67.746 283.508 m f
59.965 291.289 m 58.68 291.289 57.637 292.332 57.637 293.617 c 57.637 294.902
 58.68 295.945 59.965 295.945 c 61.246 295.945 62.289 294.902 62.289 293.617
 c 62.289 292.332 61.246 291.289 59.965 291.289 c h
59.965 291.289 m f
67.746 298.508 m 66.461 298.508 65.418 299.551 65.418 300.836 c 65.418 
302.117 66.461 303.16 67.746 303.16 c 69.031 303.16 70.07 302.121 70.07 
300.836 c 70.07 299.551 69.031 298.508 67.746 298.508 c h
67.746 298.508 m f
59.965 306.289 m 58.68 306.289 57.637 307.332 57.637 308.617 c 57.637 309.902
 58.68 310.941 59.965 310.941 c 61.246 310.941 62.289 309.902 62.289 308.617
 c 62.289 307.332 61.246 306.289 59.965 306.289 c h
59.965 306.289 m f
67.746 313.508 m 66.461 313.508 65.418 314.547 65.418 315.832 c 65.418 
317.117 66.461 318.16 67.746 318.16 c 69.031 318.16 70.07 317.117 70.07 
315.832 c 70.07 314.547 69.031 313.508 67.746 313.508 c h
67.746 313.508 m f
42.664 278.375 m 42.656 278.457 42.641 278.535 42.641 278.621 c 42.641 
279.902 43.68 280.945 44.965 280.945 c 45.613 280.945 46.199 280.68 46.621
 280.25 c 46.566 280.227 46.512 280.211 46.457 280.191 c 45.184 279.656 
43.918 279.047 42.664 278.375 c h
42.664 278.375 m f
52.746 283.508 m 51.461 283.508 50.422 284.551 50.422 285.836 c 50.422 
287.121 51.461 288.164 52.746 288.164 c 54.031 288.164 55.074 287.121 55.074
 285.836 c 55.074 284.551 54.031 283.508 52.746 283.508 c h
52.746 283.508 m f
44.965 291.289 m 43.68 291.289 42.641 292.332 42.641 293.617 c 42.641 294.902
 43.68 295.945 44.965 295.945 c 46.25 295.945 47.293 294.902 47.293 293.617
 c 47.293 292.332 46.25 291.289 44.965 291.289 c h
44.965 291.289 m f
52.746 303.16 m 54.031 303.16 55.074 302.117 55.074 300.832 c 55.074 299.551
 54.031 298.508 52.746 298.508 c 51.461 298.508 50.422 299.551 50.422 300.832
 c 50.418 302.117 51.461 303.16 52.746 303.16 c h
52.746 303.16 m f
44.965 306.289 m 44.812 306.289 44.664 306.305 44.516 306.336 c 45.406 
307.305 46.305 308.258 47.215 309.184 c 47.258 309 47.293 308.812 47.293
 308.617 c 47.293 307.332 46.25 306.289 44.965 306.289 c h
44.965 306.289 m f
52.746 313.508 m 52.457 313.508 52.184 313.566 51.93 313.66 c 52.953 314.566
 53.988 315.426 55.031 316.254 c 55.055 316.117 55.074 315.977 55.074 315.832
 c 55.074 314.547 54.031 313.508 52.746 313.508 c h
52.746 313.508 m f
29.965 280.945 m 31.25 280.945 32.293 279.902 32.293 278.621 c 32.293 277.336
 31.25 276.293 29.965 276.293 c 28.684 276.293 27.641 277.336 27.641 278.621
 c 27.641 279.902 28.684 280.945 29.965 280.945 c h
29.965 280.945 m f
35.422 285.836 m 35.422 287.121 36.465 288.164 37.746 288.164 c 39.031 
288.164 40.074 287.121 40.074 285.836 c 40.074 284.551 39.031 283.508 37.746
 283.508 c 36.465 283.508 35.422 284.551 35.422 285.836 c h
35.422 285.836 m f
37.949 298.527 m 38.641 299.414 39.336 300.289 40.043 301.152 c 40.059 
301.047 40.074 300.945 40.074 300.836 c 40.074 299.617 39.137 298.633 37.949
 298.527 c h
37.949 298.527 m f
13.691 250.566 m 13.367 250.117 13.047 249.668 12.727 249.219 c 12.879 
249.777 13.223 250.254 13.691 250.566 c h
13.691 250.566 m f
15.734 261.434 m 16.184 262.418 16.652 263.422 17.137 264.441 c 17.234 
264.188 17.293 263.914 17.293 263.621 c 17.293 262.605 16.641 261.754 15.734
 261.434 c h
15.734 261.434 m f
25.078 270.836 m 25.078 269.555 24.035 268.512 22.75 268.512 c 21.465 268.512
 20.426 269.555 20.426 270.836 c 20.426 270.906 20.438 270.973 20.445 271.043
 c 20.723 271.57 21 272.102 21.285 272.633 c 21.688 272.961 22.191 273.164
 22.75 273.164 c 24.035 273.164 25.078 272.121 25.078 270.836 c h
25.078 270.836 m f
0.192157 0.215686 0.239216 rg
31.445 249.918 m 30.16 249.918 28.961 249.117 28.516 247.836 c 23.434 233.285
 20.859 216.926 20.859 199.211 c 20.859 112.219 91.805 41.445 179.012 41.445
 c 180.727 41.445 182.117 42.836 182.117 44.547 c 182.117 46.262 180.727
 47.652 179.012 47.652 c 95.227 47.652 27.066 115.641 27.066 199.211 c 27.066
 216.227 29.523 231.898 34.375 245.793 c 34.941 247.41 34.086 249.18 32.469
 249.742 c 32.129 249.863 31.785 249.918 31.445 249.918 c h
31.445 249.918 m f
0.976471 0.984314 0.988235 rg
157.602 253.605 m 158.426 271.949 144.227 287.492 125.879 288.316 c 107.535
 289.145 91.996 274.941 91.168 256.598 c 90.344 238.254 104.543 222.715 
122.887 221.887 c 141.234 221.062 156.773 235.262 157.602 253.605 c h
157.602 253.605 m f
0.192157 0.215686 0.239216 rg
383.93 313.977 m 384.605 293.293 380.254 276.281 380.078 275.52 c 379.707
 273.938 378.184 272.906 376.582 273.156 c 345.805 277.922 312.215 279.008
 276.438 276.418 c 273.918 267.441 271.297 257.676 268.582 247.137 c 261.879
 221.125 255.82 195.129 251.625 176.547 c 257.547 174.629 263.508 172.715
 269.188 170.891 c 330.488 151.188 339.047 147.801 340.574 144.789 c 340.988
 143.965 341.062 143.043 340.777 142.188 c 316.918 70.875 250.266 22.961
 174.918 22.961 c 128.195 22.961 84.27 41.156 51.23 74.191 c 18.195 107.23
 0 151.156 0 197.879 c 0 217.52 2.848 235.652 8.465 251.781 c 15.211 271.148
 38.215 314.941 66.273 326.688 c 75.707 330.637 86.887 326.93 97.699 323.34
 c 107.004 320.254 116.625 317.062 124.676 318.852 c 134.293 320.988 143.664
 327.336 153.586 334.059 c 161.914 339.703 170.531 345.539 179.961 349.309
 c 186.172 351.793 192.836 353.027 199.484 353.027 c 207.75 353.027 215.988
 351.121 223.309 347.359 c 235.707 340.98 244.41 329.824 247.809 315.945
 c 248.297 313.949 248.621 312.074 248.82 310.285 c 258.961 311.621 269.984
 312.969 281.457 314.207 c 281.793 315.203 282.125 316.176 282.457 317.133
 c 292.617 346.461 298.305 351.5 302.125 352.613 c 311.824 355.441 328.328
 358.938 343.34 360.371 c 347.992 360.816 352.168 361.039 355.875 361.039
 c 367.48 361.039 374.508 358.855 377.223 354.438 c 384.078 343.305 383.961
 317.23 383.953 316.129 c 383.953 315.734 383.945 314.047 383.93 313.977
 c h
262.566 248.668 m 265.074 258.398 267.5 267.477 269.844 275.895 c 263.648
 275.371 257.395 274.75 251.074 274.012 c 250.43 273.938 249.848 273.867
 249.324 273.812 c 235.551 218.02 l 235.293 216.969 234.504 216.129 233.473
 215.805 c 199.125 204.988 l 200.746 198.637 202.527 194.5 203.555 193.547
 c 206.012 191.621 224.91 185.234 245.695 178.469 c 249.895 197.059 255.914
 222.852 262.566 248.668 c h
149.031 228.535 m 151.559 220.789 156.262 206.738 159.207 198.93 c 191.82
 209.199 l 190.898 213.895 190.207 218.832 189.816 223.406 c 188.824 234.949
 188.637 256.07 198.516 267.801 c 203.465 273.676 211.285 277.445 218.852
 281.09 c 230.516 286.715 240.938 291.738 242.602 303.195 c 217.07 299.711
 198.426 296.527 194.844 295.906 c 156.875 271.254 l 159.285 266.395 160.652
 260.926 160.652 255.145 c 160.652 244.645 156.172 235.18 149.031 228.535
 c h
154.445 255.145 m 154.445 260.543 153.012 265.605 150.52 269.992 c 150.137
 270.484 149.793 271.043 149.547 271.586 c 144.16 279.828 134.859 285.289
 124.301 285.289 c 107.676 285.289 94.152 271.766 94.152 255.145 c 94.152
 238.523 107.676 225 124.301 225 c 140.922 225 154.445 238.52 154.445 255.145
 c h
161.488 193.141 m 162.414 190.934 163.234 189.16 163.883 188.074 c 167.016
 183.93 204.641 168.047 240.41 154.566 c 241.188 158.168 242.539 164.379
 244.332 172.391 c 215.562 181.746 202.004 186.535 199.391 188.949 c 197.008
 191.148 194.867 196.559 193.188 203.121 c h
323.945 118.637 m 302.332 128.246 l 296.762 116.547 287.25 104.273 280.789
 95.934 c 278.461 92.93 275.879 89.598 274.801 87.898 c 277.137 85.617 284.801
 80.594 292.066 76.332 c 304.723 88.523 315.527 102.754 323.945 118.637 
c h
241.781 314.469 m 238.816 326.574 231.246 336.297 220.473 341.84 c 208.836
 347.824 194.555 348.461 182.266 343.547 c 173.457 340.023 165.125 334.379
 157.066 328.918 c 146.641 321.855 136.793 315.184 126.02 312.793 c 123.922
 312.324 121.793 312.121 119.641 312.121 c 111.809 312.121 103.672 314.82
 95.746 317.449 c 85.57 320.824 75.961 324.012 68.672 320.961 c 67.793 320.594
 66.922 320.188 66.055 319.75 c 72.859 314.41 81.746 306.484 81.746 301.48
 c 81.746 294.781 62.164 272.598 56.328 270.102 c 54 269.102 50.156 269.109
 39.324 276.746 c 35.98 279.102 32.91 281.523 30.965 283.102 c 22.984 270.387
 17.07 257.621 14.328 249.738 c 8.938 234.27 6.207 216.82 6.207 197.879 
c 6.207 104.852 81.891 29.168 174.918 29.168 c 217.449 29.168 257.109 45
 287.305 71.922 c 268.219 83.16 268.211 86.051 268.211 87.648 c 268.211 
89.75 269.801 91.891 275.883 99.734 c 282.68 108.508 292.949 121.762 297.906
 133.539 c 298.23 134.309 298.852 134.914 299.625 135.219 c 299.992 135.367
 300.379 135.438 300.77 135.438 c 301.199 135.438 301.629 135.348 302.027
 135.172 c 326.758 124.18 l 329.555 129.965 332.043 135.953 334.199 142.129
 c 326.703 145.883 293.973 156.402 267.285 164.98 c 261.145 166.953 255.488
 168.777 250.262 170.469 c 247.453 157.891 245.77 149.949 245.73 149.754
 c 245.543 148.871 244.98 148.109 244.188 147.676 c 243.395 147.242 242.453
 147.172 241.605 147.488 c 241.414 147.559 222.059 154.805 202.422 162.836
 c 161.828 179.441 159.645 183.082 158.598 184.832 c 154.996 190.832 146.996
 214.809 143.828 224.508 c 138.184 220.895 131.484 218.793 124.301 218.793
 c 104.254 218.793 87.949 235.098 87.949 255.145 c 87.949 275.188 104.254
 291.492 124.301 291.492 c 136.344 291.492 147.031 285.602 153.648 276.559
 c 192 301.453 l 192.348 301.68 192.738 301.836 193.145 301.906 c 193.625
 301.992 213.898 305.559 242.668 309.461 c 242.504 311.031 242.215 312.691
 241.781 314.469 c h
248.973 304.051 m 247.762 288.148 233.977 281.492 221.547 275.5 c 214.25
 271.984 207.355 268.66 203.262 263.801 c 197.102 256.484 194.453 241.953
 196 223.934 c 196.402 219.23 197.031 214.902 197.77 211.07 c 229.945 221.199
 l 243.82 277.41 l 243.949 277.973 244.23 278.5 244.656 278.926 c 245.328
 279.598 246.25 279.906 247.156 279.82 c 247.715 279.867 249 280.02 250.352
 280.176 c 257.527 281.016 264.621 281.703 271.637 282.266 c 274.32 291.684
 276.887 300.195 279.32 307.734 c 268.66 306.559 258.426 305.297 248.973
 304.051 c h
278.234 282.754 m 312.516 285.094 344.828 284.094 374.609 279.73 c 375.688
 285.316 377.855 298.57 377.566 313.145 c 349.82 313.973 316.602 311.656
 286.086 308.461 c 283.609 300.926 280.984 292.332 278.234 282.754 c h
371.941 351.184 m 370.344 353.781 362.148 355.934 343.93 354.191 c 329.324
 352.797 313.281 349.402 303.863 346.652 c 303.008 346.402 298.234 343.711
 288.324 315.105 c 288.305 315.047 288.281 314.984 288.262 314.922 c 318.211
 317.988 350.547 320.168 377.715 319.363 c 377.5 328.008 376.238 344.199
 371.941 351.184 c h
371.941 351.184 m f
Q Q
showpage
%%Trailer
end
%%EOF
