%!PS-Adobe-3.0 EPSF-3.0
%%Creator: cairo 1.16.0 (https://cairographics.org)
%%CreationDate: Wed Jul 15 13:24:23 2020
%%Pages: 1
%%DocumentData: Clean7Bit
%%LanguageLevel: 2
%%BoundingBox: 23 0 361 384
%%EndComments
%%BeginProlog
50 dict begin
/q { gsave } bind def
/Q { grestore } bind def
/cm { 6 array astore concat } bind def
/w { setlinewidth } bind def
/J { setlinecap } bind def
/j { setlinejoin } bind def
/M { setmiterlimit } bind def
/d { setdash } bind def
/m { moveto } bind def
/l { lineto } bind def
/c { curveto } bind def
/h { closepath } bind def
/re { exch dup neg 3 1 roll 5 3 roll moveto 0 rlineto
      0 exch rlineto 0 rlineto closepath } bind def
/S { stroke } bind def
/f { fill } bind def
/f* { eofill } bind def
/n { newpath } bind def
/W { clip } bind def
/W* { eoclip } bind def
/BT { } bind def
/ET { } bind def
/BDC { mark 3 1 roll /BDC pdfmark } bind def
/EMC { mark /EMC pdfmark } bind def
/cairo_store_point { /cairo_point_y exch def /cairo_point_x exch def } def
/Tj { show currentpoint cairo_store_point } bind def
/TJ {
  {
    dup
    type /stringtype eq
    { show } { -0.001 mul 0 cairo_font_matrix dtransform rmoveto } ifelse
  } forall
  currentpoint cairo_store_point
} bind def
/cairo_selectfont { cairo_font_matrix aload pop pop pop 0 0 6 array astore
    cairo_font exch selectfont cairo_point_x cairo_point_y moveto } bind def
/Tf { pop /cairo_font exch def /cairo_font_matrix where
      { pop cairo_selectfont } if } bind def
/Td { matrix translate cairo_font_matrix matrix concatmatrix dup
      /cairo_font_matrix exch def dup 4 get exch 5 get cairo_store_point
      /cairo_font where { pop cairo_selectfont } if } bind def
/Tm { 2 copy 8 2 roll 6 array astore /cairo_font_matrix exch def
      cairo_store_point /cairo_font where { pop cairo_selectfont } if } bind def
/g { setgray } bind def
/rg { setrgbcolor } bind def
/d1 { setcachedevice } bind def
/cairo_data_source {
  CairoDataIndex CairoData length lt
    { CairoData CairoDataIndex get /CairoDataIndex CairoDataIndex 1 add def }
    { () } ifelse
} def
/cairo_flush_ascii85_file { cairo_ascii85_file status { cairo_ascii85_file flushfile } if } def
/cairo_image { image cairo_flush_ascii85_file } def
/cairo_imagemask { imagemask cairo_flush_ascii85_file } def
%%EndProlog
%%BeginSetup
%%EndSetup
%%Page: 1 1
%%BeginPageSetup
%%PageBoundingBox: 23 0 361 384
%%EndPageSetup
q 23 0 338 384 rectclip
1 0 0 -1 0 384 cm q
0.913725 0.760784 0.470588 rg
164.371 24.688 m 164.371 51.668 l 219.629 51.668 l 219.629 24.688 l 223.34
 24.688 l 228.07 24.688 231.906 20.852 231.906 16.121 c 231.906 11.652 l
 231.906 6.922 228.07 3.086 223.34 3.086 c 160.66 3.086 l 155.93 3.086 152.094
 6.922 152.094 11.652 c 152.094 16.121 l 152.094 20.852 155.93 24.688 160.66
 24.688 c h
164.371 24.688 m f
0.917647 0.658824 0.584314 rg
309.102 98.07 m 373.801 162.77 373.801 267.668 309.102 332.363 c 244.406
 397.062 139.508 397.062 74.809 332.363 c 10.113 267.668 10.113 162.77 74.809
 98.07 c 139.508 33.375 244.406 33.375 309.102 98.07 c h
309.102 98.07 m f
0.976471 0.984314 0.988235 rg
347.137 156.91 m 346.676 155.684 346.203 154.465 345.711 153.25 c 345.453
 153.633 345.301 154.094 345.301 154.59 c 345.301 155.719 346.086 156.656
 347.137 156.91 c h
347.137 156.91 m f
347.695 167.621 m 346.375 167.621 345.301 168.691 345.301 170.012 c 345.301
 171.332 346.375 172.402 347.695 172.402 c 349.016 172.402 350.086 171.332
 350.086 170.012 c 350.086 168.691 349.016 167.621 347.695 167.621 c h
347.695 167.621 m f
353.633 178.625 m 353.531 178.168 353.426 177.711 353.32 177.258 c 353.316
 177.316 353.301 177.371 353.301 177.434 c 353.305 177.871 353.43 178.273
 353.633 178.625 c h
353.633 178.625 m f
347.695 183.039 m 346.375 183.039 345.301 184.113 345.301 185.434 c 345.301
 186.754 346.375 187.824 347.695 187.824 c 349.016 187.824 350.086 186.754
 350.086 185.434 c 350.086 184.113 349.016 183.039 347.695 183.039 c h
347.695 183.039 m f
355.695 190.461 m 354.375 190.461 353.305 191.531 353.305 192.855 c 353.305
 194.176 354.375 195.246 355.695 195.246 c 355.973 195.246 356.234 195.191
 356.48 195.102 c 356.293 193.555 356.082 192.012 355.852 190.477 c 355.801
 190.473 355.75 190.461 355.695 190.461 c h
355.695 190.461 m f
347.695 198.461 m 346.375 198.461 345.301 199.535 345.301 200.855 c 345.301
 202.176 346.375 203.246 347.695 203.246 c 349.016 203.246 350.086 202.176
 350.086 200.855 c 350.086 199.535 349.016 198.461 347.695 198.461 c h
347.695 198.461 m f
355.695 205.883 m 354.375 205.883 353.305 206.953 353.305 208.277 c 353.305
 209.598 354.375 210.668 355.695 210.668 c 356.477 210.668 357.164 210.285
 357.602 209.707 c 357.566 208.699 357.527 207.695 357.477 206.691 c 357.039
 206.199 356.406 205.883 355.695 205.883 c h
355.695 205.883 m f
347.695 213.883 m 346.375 213.883 345.301 214.953 345.301 216.277 c 345.301
 217.598 346.375 218.668 347.695 218.668 c 349.016 218.668 350.086 217.598
 350.086 216.277 c 350.086 214.953 349.016 213.883 347.695 213.883 c h
347.695 213.883 m f
355.695 221.305 m 354.375 221.305 353.305 222.375 353.305 223.695 c 353.305
 225.02 354.375 226.09 355.695 226.09 c 356.348 226.09 356.941 225.824 357.375
 225.398 c 357.438 224.332 357.492 223.262 357.539 222.188 c 357.098 221.652
 356.441 221.305 355.695 221.305 c h
355.695 221.305 m f
347.695 229.305 m 346.375 229.305 345.301 230.375 345.301 231.695 c 345.301
 233.02 346.375 234.09 347.695 234.09 c 349.016 234.09 350.086 233.02 350.086
 231.695 c 350.086 230.375 349.016 229.305 347.695 229.305 c h
347.695 229.305 m f
355.695 236.727 m 354.375 236.727 353.305 237.797 353.305 239.117 c 353.305
 240.41 354.332 241.457 355.613 241.5 c 355.859 239.945 356.09 238.383 356.297
 236.812 c 356.102 236.762 355.902 236.727 355.695 236.727 c h
355.695 236.727 m f
347.695 244.727 m 346.375 244.727 345.301 245.797 345.301 247.117 c 345.301
 248.438 346.375 249.512 347.695 249.512 c 349.016 249.512 350.086 248.438
 350.086 247.117 c 350.086 245.797 349.016 244.727 347.695 244.727 c h
347.695 244.727 m f
347.695 260.148 m 346.375 260.148 345.301 261.219 345.301 262.539 c 345.301
 263.859 346.375 264.93 347.695 264.93 c 349.016 264.93 350.086 263.859 
350.086 262.539 c 350.086 261.219 349.016 260.148 347.695 260.148 c h
347.695 260.148 m f
345.301 277.961 m 345.301 278.02 345.316 278.078 345.32 278.137 c 345.586
 277.48 345.863 276.832 346.121 276.172 c 345.625 276.609 345.301 277.246
 345.301 277.961 c h
345.301 277.961 m f
331.672 126.055 m 331.098 125.156 330.512 124.262 329.918 123.375 c 329.898
 123.496 329.879 123.621 329.879 123.746 c 329.879 124.859 330.645 125.789
 331.672 126.055 c h
331.672 126.055 m f
332.273 136.777 m 330.953 136.777 329.883 137.848 329.883 139.168 c 329.883
 140.488 330.953 141.562 332.273 141.562 c 333.594 141.562 334.664 140.488
 334.664 139.168 c 334.664 137.848 333.594 136.777 332.273 136.777 c h
332.273 136.777 m f
340.273 144.199 m 338.953 144.199 337.883 145.27 337.883 146.59 c 337.883
 147.91 338.953 148.98 340.273 148.98 c 341.594 148.98 342.664 147.91 342.664
 146.59 c 342.664 146.391 342.633 146.203 342.59 146.02 c 342.461 145.738
 342.328 145.461 342.199 145.184 c 341.766 144.59 341.066 144.199 340.273
 144.199 c h
340.273 144.199 m f
332.273 152.199 m 330.953 152.199 329.883 153.27 329.883 154.59 c 329.883
 155.91 330.953 156.98 332.273 156.98 c 333.594 156.98 334.664 155.91 334.664
 154.59 c 334.664 153.27 333.594 152.199 332.273 152.199 c h
332.273 152.199 m f
340.273 159.617 m 338.953 159.617 337.883 160.691 337.883 162.012 c 337.883
 163.332 338.953 164.402 340.273 164.402 c 341.594 164.402 342.664 163.332
 342.664 162.012 c 342.664 160.691 341.594 159.617 340.273 159.617 c h
340.273 159.617 m f
332.273 167.621 m 330.953 167.621 329.883 168.691 329.883 170.012 c 329.883
 171.332 330.953 172.402 332.273 172.402 c 333.594 172.402 334.664 171.332
 334.664 170.012 c 334.664 168.691 333.594 167.621 332.273 167.621 c h
332.273 167.621 m f
340.273 175.039 m 338.953 175.039 337.883 176.113 337.883 177.434 c 337.883
 178.754 338.953 179.824 340.273 179.824 c 341.594 179.824 342.664 178.754
 342.664 177.434 c 342.664 176.113 341.594 175.039 340.273 175.039 c h
340.273 175.039 m f
332.273 183.039 m 330.953 183.039 329.883 184.113 329.883 185.434 c 329.883
 186.754 330.953 187.824 332.273 187.824 c 333.594 187.824 334.664 186.754
 334.664 185.434 c 334.664 184.113 333.594 183.039 332.273 183.039 c h
332.273 183.039 m f
340.273 190.461 m 338.953 190.461 337.883 191.531 337.883 192.855 c 337.883
 194.176 338.953 195.246 340.273 195.246 c 341.594 195.246 342.664 194.176
 342.664 192.855 c 342.664 191.531 341.594 190.461 340.273 190.461 c h
340.273 190.461 m f
332.273 198.461 m 330.953 198.461 329.883 199.535 329.883 200.855 c 329.883
 202.176 330.953 203.246 332.273 203.246 c 333.594 203.246 334.664 202.176
 334.664 200.855 c 334.664 199.535 333.594 198.461 332.273 198.461 c h
332.273 198.461 m f
340.273 205.883 m 338.953 205.883 337.883 206.953 337.883 208.277 c 337.883
 209.598 338.953 210.668 340.273 210.668 c 341.594 210.668 342.664 209.598
 342.664 208.277 c 342.664 206.953 341.594 205.883 340.273 205.883 c h
340.273 205.883 m f
332.273 213.883 m 330.953 213.883 329.883 214.953 329.883 216.277 c 329.883
 217.598 330.953 218.668 332.273 218.668 c 333.594 218.668 334.664 217.598
 334.664 216.277 c 334.664 214.953 333.594 213.883 332.273 213.883 c h
332.273 213.883 m f
340.273 221.305 m 338.953 221.305 337.883 222.375 337.883 223.695 c 337.883
 225.02 338.953 226.09 340.273 226.09 c 341.594 226.09 342.664 225.02 342.664
 223.695 c 342.664 222.375 341.594 221.305 340.273 221.305 c h
340.273 221.305 m f
332.273 229.305 m 330.953 229.305 329.883 230.375 329.883 231.695 c 329.883
 233.02 330.953 234.09 332.273 234.09 c 333.594 234.09 334.664 233.02 334.664
 231.695 c 334.664 230.375 333.594 229.305 332.273 229.305 c h
332.273 229.305 m f
340.273 236.727 m 338.953 236.727 337.883 237.797 337.883 239.117 c 337.883
 240.438 338.953 241.512 340.273 241.512 c 341.594 241.512 342.664 240.438
 342.664 239.117 c 342.664 237.797 341.594 236.727 340.273 236.727 c h
340.273 236.727 m f
332.273 244.727 m 330.953 244.727 329.883 245.797 329.883 247.117 c 329.883
 248.438 330.953 249.512 332.273 249.512 c 333.594 249.512 334.664 248.438
 334.664 247.117 c 334.664 245.797 333.594 244.727 332.273 244.727 c h
332.273 244.727 m f
340.273 252.148 m 338.953 252.148 337.883 253.219 337.883 254.539 c 337.883
 255.859 338.953 256.93 340.273 256.93 c 341.594 256.93 342.664 255.859 
342.664 254.539 c 342.664 253.219 341.594 252.148 340.273 252.148 c h
340.273 252.148 m f
332.273 260.148 m 330.953 260.148 329.883 261.219 329.883 262.539 c 329.883
 263.859 330.953 264.93 332.273 264.93 c 333.594 264.93 334.664 263.859 
334.664 262.539 c 334.664 261.219 333.594 260.148 332.273 260.148 c h
332.273 260.148 m f
340.273 267.566 m 338.953 267.566 337.883 268.641 337.883 269.961 c 337.883
 271.281 338.953 272.352 340.273 272.352 c 341.594 272.352 342.664 271.281
 342.664 269.961 c 342.664 268.641 341.594 267.566 340.273 267.566 c h
340.273 267.566 m f
332.273 275.57 m 330.953 275.57 329.883 276.641 329.883 277.961 c 329.883
 279.281 330.953 280.352 332.273 280.352 c 333.594 280.352 334.664 279.281
 334.664 277.961 c 334.664 276.641 333.594 275.57 332.273 275.57 c h
332.273 275.57 m f
340.273 282.988 m 338.953 282.988 337.883 284.062 337.883 285.383 c 337.883
 286.703 338.953 287.773 340.273 287.773 c 340.555 287.773 340.82 287.715
 341.07 287.629 c 341.562 286.613 342.043 285.598 342.516 284.57 c 342.184
 283.652 341.309 282.988 340.273 282.988 c h
340.273 282.988 m f
332.273 290.988 m 330.953 290.988 329.883 292.062 329.883 293.383 c 329.883
 294.703 330.953 295.773 332.273 295.773 c 333.594 295.773 334.664 294.703
 334.664 293.383 c 334.664 292.062 333.594 290.988 332.273 290.988 c h
332.273 290.988 m f
314.461 108.328 m 314.461 109.648 315.531 110.719 316.852 110.719 c 317.945
 110.719 318.855 109.98 319.141 108.98 c 318.293 107.965 317.43 106.961 
316.559 105.965 c 315.375 106.109 314.461 107.105 314.461 108.328 c h
314.461 108.328 m f
322.461 115.746 m 322.461 117.066 323.531 118.141 324.852 118.141 c 325.285
 118.141 325.688 118.016 326.039 117.812 c 325.109 116.535 324.164 115.273
 323.199 114.027 c 322.746 114.461 322.461 115.07 322.461 115.746 c h
322.461 115.746 m f
316.852 126.141 m 318.172 126.141 319.242 125.07 319.242 123.75 c 319.242
 122.426 318.172 121.355 316.852 121.355 c 315.531 121.355 314.461 122.426
 314.461 123.75 c 314.461 125.07 315.531 126.141 316.852 126.141 c h
316.852 126.141 m f
324.852 128.777 m 323.531 128.777 322.461 129.848 322.461 131.168 c 322.461
 132.488 323.531 133.562 324.852 133.562 c 326.172 133.562 327.246 132.488
 327.246 131.168 c 327.246 129.848 326.172 128.777 324.852 128.777 c h
324.852 128.777 m f
316.852 141.562 m 318.172 141.562 319.242 140.492 319.242 139.168 c 319.242
 137.848 318.172 136.777 316.852 136.777 c 316.02 136.777 315.289 137.203
 314.859 137.848 c 315.262 139.027 315.648 140.215 316.023 141.406 c 316.281
 141.5 316.559 141.562 316.852 141.562 c h
316.852 141.562 m f
324.852 144.199 m 323.531 144.199 322.461 145.27 322.461 146.59 c 322.461
 147.91 323.531 148.98 324.852 148.98 c 326.172 148.98 327.246 147.91 327.246
 146.59 c 327.246 145.27 326.172 144.199 324.852 144.199 c h
324.852 144.199 m f
324.852 159.617 m 323.531 159.617 322.461 160.691 322.461 162.012 c 322.461
 163.332 323.531 164.402 324.852 164.402 c 326.172 164.402 327.246 163.332
 327.246 162.012 c 327.246 160.691 326.172 159.617 324.852 159.617 c h
324.852 159.617 m f
324.852 175.039 m 324.082 175.039 323.402 175.41 322.965 175.977 c 323.062
 177.043 323.152 178.109 323.23 179.18 c 323.656 179.578 324.223 179.824
 324.852 179.824 c 326.172 179.824 327.246 178.754 327.246 177.434 c 327.246
 176.113 326.172 175.039 324.852 175.039 c h
324.852 175.039 m f
324.852 190.461 m 324.422 190.461 324.02 190.586 323.672 190.785 c 323.672
 190.953 323.68 191.117 323.68 191.281 c 323.68 192.492 323.656 193.695 
323.633 194.902 c 323.992 195.113 324.406 195.246 324.852 195.246 c 326.172
 195.246 327.246 194.176 327.246 192.855 c 327.246 191.531 326.172 190.461
 324.852 190.461 c h
324.852 190.461 m f
324.852 205.883 m 324.07 205.883 323.383 206.266 322.945 206.844 c 322.867
 207.664 322.789 208.484 322.699 209.301 c 323.086 210.105 323.898 210.668
 324.852 210.668 c 326.172 210.668 327.246 209.598 327.246 208.273 c 327.246
 206.953 326.172 205.883 324.852 205.883 c h
324.852 205.883 m f
324.852 221.305 m 323.531 221.305 322.461 222.375 322.461 223.695 c 322.461
 225.02 323.531 226.09 324.852 226.09 c 326.172 226.09 327.246 225.02 327.246
 223.695 c 327.246 222.375 326.172 221.305 324.852 221.305 c h
324.852 221.305 m f
319.242 231.699 m 319.242 231.305 319.141 230.938 318.969 230.609 c 318.719
 231.633 318.465 232.656 318.195 233.676 c 318.828 233.246 319.242 232.52
 319.242 231.699 c h
319.242 231.699 m f
324.852 236.727 m 323.531 236.727 322.461 237.797 322.461 239.117 c 322.461
 240.438 323.531 241.512 324.852 241.512 c 326.172 241.512 327.246 240.438
 327.246 239.117 c 327.246 237.797 326.172 236.727 324.852 236.727 c h
324.852 236.727 m f
316.852 244.727 m 315.531 244.727 314.461 245.797 314.461 247.117 c 314.461
 248.438 315.531 249.512 316.852 249.512 c 318.172 249.512 319.242 248.438
 319.242 247.117 c 319.242 245.797 318.172 244.727 316.852 244.727 c h
316.852 244.727 m f
324.852 252.148 m 323.531 252.148 322.461 253.219 322.461 254.539 c 322.461
 255.859 323.531 256.93 324.852 256.93 c 326.172 256.93 327.246 255.859 
327.246 254.539 c 327.246 253.219 326.172 252.148 324.852 252.148 c h
324.852 252.148 m f
316.852 260.148 m 315.531 260.148 314.461 261.219 314.461 262.539 c 314.461
 263.859 315.531 264.93 316.852 264.93 c 318.172 264.93 319.242 263.859 
319.242 262.539 c 319.242 261.219 318.172 260.148 316.852 260.148 c h
316.852 260.148 m f
324.852 267.566 m 323.531 267.566 322.461 268.641 322.461 269.961 c 322.461
 271.281 323.531 272.352 324.852 272.352 c 326.172 272.352 327.246 271.281
 327.246 269.961 c 327.246 268.641 326.172 267.566 324.852 267.566 c h
324.852 267.566 m f
316.852 275.57 m 315.531 275.57 314.461 276.641 314.461 277.961 c 314.461
 279.281 315.531 280.352 316.852 280.352 c 318.172 280.352 319.242 279.281
 319.242 277.961 c 319.242 276.641 318.172 275.57 316.852 275.57 c h
316.852 275.57 m f
324.852 282.988 m 323.531 282.988 322.461 284.062 322.461 285.383 c 322.461
 286.703 323.531 287.773 324.852 287.773 c 326.172 287.773 327.246 286.703
 327.246 285.383 c 327.246 284.062 326.172 282.988 324.852 282.988 c h
324.852 282.988 m f
316.852 290.988 m 315.531 290.988 314.461 292.062 314.461 293.383 c 314.461
 294.703 315.531 295.773 316.852 295.773 c 318.172 295.773 319.242 294.703
 319.242 293.383 c 319.242 292.062 318.172 290.988 316.852 290.988 c h
316.852 290.988 m f
324.852 298.41 m 323.531 298.41 322.461 299.48 322.461 300.805 c 322.461
 302.125 323.531 303.195 324.852 303.195 c 326.172 303.195 327.246 302.125
 327.246 300.805 c 327.246 299.48 326.172 298.41 324.852 298.41 c h
324.852 298.41 m f
316.852 306.41 m 315.531 306.41 314.461 307.484 314.461 308.805 c 314.461
 310.125 315.531 311.195 316.852 311.195 c 318.172 311.195 319.242 310.125
 319.242 308.805 c 319.242 307.484 318.172 306.41 316.852 306.41 c h
316.852 306.41 m f
322.461 316.223 m 322.461 316.547 322.527 316.859 322.645 317.141 c 323.488
 316.059 324.32 314.965 325.141 313.859 c 325.043 313.848 324.949 313.832
 324.852 313.832 c 323.531 313.832 322.461 314.902 322.461 316.223 c h
322.461 316.223 m f
314.461 324.227 m 314.461 324.918 314.758 325.539 315.23 325.977 c 316.293
 324.797 317.336 323.598 318.363 322.387 c 317.949 322.047 317.426 321.832
 316.852 321.832 c 315.531 321.832 314.461 322.902 314.461 324.227 c h
314.461 324.227 m f
299.039 92.906 m 299.039 94.227 300.109 95.297 301.43 95.297 c 302.73 95.297
 303.785 94.254 303.816 92.961 c 302.926 92.145 302.027 91.34 301.121 90.543
 c 299.945 90.699 299.039 91.691 299.039 92.906 c h
299.039 92.906 m f
307.039 100.324 m 307.039 101.648 308.109 102.719 309.43 102.719 c 310.605
 102.719 311.578 101.867 311.781 100.75 c 310.883 99.816 309.977 98.887 
309.062 97.973 c 307.918 98.152 307.039 99.133 307.039 100.324 c h
307.039 100.324 m f
301.43 105.934 m 300.988 105.934 300.578 106.062 300.223 106.273 c 301.039
 107.637 301.836 109.008 302.613 110.395 c 303.332 109.984 303.824 109.215
 303.824 108.328 c 303.824 107.004 302.75 105.934 301.43 105.934 c h
301.43 105.934 m f
311.824 115.746 m 311.824 114.426 310.75 113.355 309.43 113.355 c 308.109
 113.355 307.039 114.426 307.039 115.746 c 307.039 117.066 308.109 118.141
 309.43 118.141 c 310.75 118.141 311.824 117.07 311.824 115.746 c h
311.824 115.746 m f
311.824 254.539 m 311.824 254.168 311.73 253.824 311.582 253.512 c 311.137
 254.609 310.684 255.703 310.215 256.789 c 311.148 256.461 311.824 255.582
 311.824 254.539 c h
311.824 254.539 m f
309.43 267.566 m 308.109 267.566 307.039 268.641 307.039 269.961 c 307.039
 271.281 308.109 272.352 309.43 272.352 c 310.75 272.352 311.824 271.281
 311.824 269.961 c 311.824 268.641 310.75 267.566 309.43 267.566 c h
309.43 267.566 m f
301.43 280.352 m 302.75 280.352 303.824 279.281 303.824 277.961 c 303.824
 276.641 302.75 275.57 301.43 275.57 c 301.121 275.57 300.824 275.633 300.555
 275.742 c 300.062 276.566 299.566 277.391 299.062 278.207 c 299.188 279.41
 300.191 280.352 301.43 280.352 c h
301.43 280.352 m f
309.43 282.988 m 308.109 282.988 307.039 284.062 307.039 285.383 c 307.039
 286.703 308.109 287.773 309.43 287.773 c 310.75 287.773 311.824 286.703
 311.824 285.383 c 311.824 284.062 310.75 282.988 309.43 282.988 c h
309.43 282.988 m f
301.43 290.988 m 300.109 290.988 299.039 292.062 299.039 293.383 c 299.039
 294.703 300.109 295.773 301.43 295.773 c 302.75 295.773 303.824 294.703
 303.824 293.383 c 303.824 292.062 302.75 290.988 301.43 290.988 c h
301.43 290.988 m f
309.43 298.41 m 308.109 298.41 307.039 299.48 307.039 300.805 c 307.039
 302.125 308.109 303.195 309.43 303.195 c 310.75 303.195 311.824 302.125
 311.824 300.805 c 311.824 299.48 310.75 298.41 309.43 298.41 c h
309.43 298.41 m f
301.43 306.41 m 300.109 306.41 299.039 307.484 299.039 308.805 c 299.039
 310.125 300.109 311.195 301.43 311.195 c 302.75 311.195 303.824 310.125
 303.824 308.805 c 303.824 307.484 302.75 306.41 301.43 306.41 c h
301.43 306.41 m f
309.43 313.832 m 308.109 313.832 307.039 314.902 307.039 316.227 c 307.039
 317.547 308.109 318.617 309.43 318.617 c 310.75 318.617 311.824 317.547
 311.824 316.227 c 311.824 314.902 310.75 313.832 309.43 313.832 c h
309.43 313.832 m f
301.43 321.832 m 300.109 321.832 299.039 322.902 299.039 324.227 c 299.039
 325.547 300.109 326.617 301.43 326.617 c 302.75 326.617 303.824 325.547
 303.824 324.227 c 303.824 322.902 302.75 321.832 301.43 321.832 c h
301.43 321.832 m f
309.43 329.254 m 308.109 329.254 307.039 330.324 307.039 331.645 c 307.039
 332.422 307.414 333.102 307.984 333.539 c 309.109 332.438 310.219 331.32
 311.312 330.184 c 310.875 329.621 310.199 329.254 309.43 329.254 c h
309.43 329.254 m f
301.43 337.254 m 300.109 337.254 299.039 338.324 299.039 339.645 c 299.039
 340.242 299.266 340.777 299.621 341.195 c 300.832 340.164 302.027 339.121
 303.203 338.055 c 302.766 337.566 302.137 337.254 301.43 337.254 c h
301.43 337.254 m f
283.617 77.484 m 283.617 78.805 284.688 79.875 286.008 79.875 c 286.426
 79.875 286.809 79.762 287.148 79.574 c 285.992 78.762 284.828 77.957 283.648
 77.172 c 283.633 77.277 283.617 77.379 283.617 77.484 c h
283.617 77.484 m f
294.008 87.297 m 294.836 87.297 295.566 86.875 295.996 86.238 c 294.758
 85.242 293.512 84.262 292.246 83.301 c 291.859 83.723 291.617 84.285 291.617
 84.906 c 291.617 86.227 292.688 87.297 294.008 87.297 c h
294.008 87.297 m f
295.055 98.184 m 295.504 98.84 295.949 99.5 296.387 100.164 c 296.328 99.289
 295.805 98.551 295.055 98.184 c h
295.055 98.184 m f
294.008 287.773 m 295.332 287.773 296.402 286.703 296.402 285.383 c 296.402
 284.672 296.086 284.039 295.594 283.602 c 294.715 284.91 293.816 286.203
 292.898 287.488 c 293.234 287.664 293.605 287.773 294.008 287.773 c h
294.008 287.773 m f
288.387 293.516 m 287.816 294.242 287.23 294.957 286.648 295.676 c 287.617
 295.406 288.328 294.555 288.387 293.516 c h
288.387 293.516 m f
294.008 298.41 m 292.688 298.41 291.617 299.48 291.617 300.805 c 291.617
 302.125 292.688 303.195 294.008 303.195 c 295.332 303.195 296.402 302.125
 296.402 300.805 c 296.402 299.48 295.332 298.41 294.008 298.41 c h
294.008 298.41 m f
286.008 306.41 m 284.688 306.41 283.617 307.484 283.617 308.805 c 283.617
 310.125 284.688 311.195 286.008 311.195 c 287.328 311.195 288.402 310.125
 288.402 308.805 c 288.402 307.484 287.328 306.41 286.008 306.41 c h
286.008 306.41 m f
294.008 313.832 m 292.688 313.832 291.617 314.902 291.617 316.227 c 291.617
 317.547 292.688 318.617 294.008 318.617 c 295.332 318.617 296.402 317.547
 296.402 316.227 c 296.402 314.902 295.332 313.832 294.008 313.832 c h
294.008 313.832 m f
286.008 321.832 m 284.688 321.832 283.617 322.902 283.617 324.227 c 283.617
 325.547 284.688 326.617 286.008 326.617 c 287.328 326.617 288.402 325.547
 288.402 324.227 c 288.402 322.902 287.328 321.832 286.008 321.832 c h
286.008 321.832 m f
294.008 329.254 m 292.688 329.254 291.617 330.324 291.617 331.645 c 291.617
 332.969 292.688 334.039 294.008 334.039 c 295.332 334.039 296.402 332.969
 296.402 331.645 c 296.402 330.324 295.332 329.254 294.008 329.254 c h
294.008 329.254 m f
286.008 337.254 m 284.688 337.254 283.617 338.324 283.617 339.645 c 283.617
 340.969 284.688 342.039 286.008 342.039 c 287.328 342.039 288.402 340.969
 288.402 339.645 c 288.402 338.324 287.328 337.254 286.008 337.254 c h
286.008 337.254 m f
291.617 347.066 m 291.617 347.246 291.641 347.418 291.676 347.586 c 292.824
 346.719 293.961 345.836 295.086 344.941 c 294.762 344.777 294.398 344.676
 294.012 344.676 c 292.688 344.676 291.617 345.746 291.617 347.066 c h
291.617 347.066 m f
278.59 313.832 m 277.266 313.832 276.195 314.902 276.195 316.227 c 276.195
 317.547 277.266 318.617 278.59 318.617 c 279.91 318.617 280.98 317.547 
280.98 316.227 c 280.98 314.902 279.91 313.832 278.59 313.832 c h
278.59 313.832 m f
270.586 321.832 m 269.266 321.832 268.195 322.902 268.195 324.227 c 268.195
 325.547 269.266 326.617 270.586 326.617 c 271.91 326.617 272.98 325.547
 272.98 324.227 c 272.98 322.902 271.91 321.832 270.586 321.832 c h
270.586 321.832 m f
278.59 329.254 m 277.266 329.254 276.195 330.324 276.195 331.645 c 276.195
 332.969 277.266 334.039 278.59 334.039 c 279.91 334.039 280.98 332.969 
280.98 331.645 c 280.98 330.324 279.91 329.254 278.59 329.254 c h
278.59 329.254 m f
270.586 337.254 m 269.266 337.254 268.195 338.324 268.195 339.645 c 268.195
 340.969 269.266 342.039 270.586 342.039 c 271.91 342.039 272.98 340.969
 272.98 339.645 c 272.98 338.324 271.91 337.254 270.586 337.254 c h
270.586 337.254 m f
278.59 344.676 m 277.266 344.676 276.195 345.746 276.195 347.066 c 276.195
 348.387 277.266 349.461 278.59 349.461 c 279.91 349.461 280.98 348.387 
280.98 347.066 c 280.98 345.746 279.91 344.676 278.59 344.676 c h
278.59 344.676 m f
270.586 352.676 m 269.266 352.676 268.195 353.746 268.195 355.066 c 268.195
 356.387 269.266 357.461 270.586 357.461 c 271.91 357.461 272.98 356.387
 272.98 355.066 c 272.98 353.746 271.91 352.676 270.586 352.676 c h
270.586 352.676 m f
264.926 317.836 m 264.766 317.969 264.605 318.105 264.449 318.238 c 264.625
 318.125 264.785 317.988 264.926 317.836 c h
264.926 317.836 m f
257.559 324.227 m 257.559 324.066 257.543 323.91 257.512 323.762 c 256.359
 324.629 255.199 325.48 254.027 326.316 c 254.367 326.504 254.75 326.617
 255.168 326.617 c 256.488 326.617 257.559 325.547 257.559 324.227 c h
257.559 324.227 m f
263.168 329.254 m 261.848 329.254 260.773 330.324 260.773 331.645 c 260.773
 332.969 261.848 334.039 263.168 334.039 c 264.488 334.039 265.559 332.969
 265.559 331.645 c 265.559 330.324 264.488 329.254 263.168 329.254 c h
263.168 329.254 m f
255.168 337.254 m 253.844 337.254 252.773 338.324 252.773 339.645 c 252.773
 340.969 253.844 342.039 255.168 342.039 c 256.488 342.039 257.559 340.969
 257.559 339.645 c 257.559 338.324 256.488 337.254 255.168 337.254 c h
255.168 337.254 m f
263.168 344.676 m 261.848 344.676 260.773 345.746 260.773 347.066 c 260.773
 348.387 261.848 349.461 263.168 349.461 c 264.488 349.461 265.559 348.387
 265.559 347.066 c 265.559 345.746 264.488 344.676 263.168 344.676 c h
263.168 344.676 m f
255.168 352.676 m 253.844 352.676 252.773 353.746 252.773 355.066 c 252.773
 356.387 253.844 357.461 255.168 357.461 c 256.488 357.461 257.559 356.387
 257.559 355.066 c 257.559 353.746 256.488 352.676 255.168 352.676 c h
255.168 352.676 m f
263.168 360.098 m 261.848 360.098 260.773 361.168 260.773 362.488 c 260.773
 363.809 261.848 364.879 263.168 364.879 c 263.176 364.879 263.18 364.879
 263.188 364.879 c 263.801 364.586 264.406 364.289 265.016 363.988 c 265.348
 363.578 265.559 363.059 265.559 362.488 c 265.559 361.168 264.488 360.098
 263.168 360.098 c h
263.168 360.098 m f
253.117 369.273 m 254.008 368.922 254.895 368.555 255.781 368.188 c 255.582
 368.133 255.379 368.098 255.168 368.098 c 254.289 368.098 253.531 368.574
 253.117 369.273 c h
253.117 369.273 m f
247.746 334.039 m 249.066 334.039 250.137 332.965 250.137 331.645 c 250.137
 330.828 249.727 330.113 249.105 329.68 c 247.879 330.488 246.641 331.281
 245.395 332.059 c 245.59 333.18 246.566 334.039 247.746 334.039 c h
247.746 334.039 m f
239.746 337.254 m 238.426 337.254 237.352 338.324 237.352 339.645 c 237.352
 340.969 238.426 342.039 239.746 342.039 c 241.066 342.039 242.137 340.969
 242.137 339.645 c 242.137 338.324 241.066 337.254 239.746 337.254 c h
239.746 337.254 m f
247.746 344.676 m 246.426 344.676 245.355 345.746 245.355 347.066 c 245.355
 348.387 246.426 349.461 247.746 349.461 c 249.066 349.461 250.137 348.387
 250.137 347.066 c 250.137 345.746 249.066 344.676 247.746 344.676 c h
247.746 344.676 m f
239.746 352.676 m 238.426 352.676 237.352 353.746 237.352 355.066 c 237.352
 356.387 238.426 357.461 239.746 357.461 c 241.066 357.461 242.137 356.387
 242.137 355.066 c 242.137 353.746 241.066 352.676 239.746 352.676 c h
239.746 352.676 m f
247.746 360.098 m 246.426 360.098 245.355 361.168 245.355 362.488 c 245.355
 363.809 246.426 364.879 247.746 364.879 c 249.066 364.879 250.137 363.809
 250.137 362.488 c 250.137 361.168 249.066 360.098 247.746 360.098 c h
247.746 360.098 m f
239.746 368.098 m 238.426 368.098 237.352 369.168 237.352 370.488 c 237.352
 371.809 238.426 372.879 239.746 372.879 c 241.066 372.879 242.137 371.809
 242.137 370.488 c 242.137 369.168 241.066 368.098 239.746 368.098 c h
239.746 368.098 m f
232.324 344.676 m 231.004 344.676 229.934 345.746 229.934 347.066 c 229.934
 348.387 231.004 349.461 232.324 349.461 c 233.645 349.461 234.715 348.387
 234.715 347.066 c 234.715 345.746 233.645 344.676 232.324 344.676 c h
232.324 344.676 m f
224.324 352.676 m 223.004 352.676 221.934 353.746 221.934 355.066 c 221.934
 356.387 223.004 357.461 224.324 357.461 c 225.645 357.461 226.715 356.387
 226.715 355.066 c 226.715 353.746 225.645 352.676 224.324 352.676 c h
224.324 352.676 m f
232.324 360.098 m 231.004 360.098 229.934 361.168 229.934 362.488 c 229.934
 363.809 231.004 364.879 232.324 364.879 c 233.645 364.879 234.715 363.809
 234.715 362.488 c 234.715 361.168 233.645 360.098 232.324 360.098 c h
232.324 360.098 m f
224.324 368.098 m 223.004 368.098 221.934 369.168 221.934 370.488 c 221.934
 371.809 223.004 372.879 224.324 372.879 c 225.645 372.879 226.715 371.809
 226.715 370.488 c 226.715 369.168 225.645 368.098 224.324 368.098 c h
224.324 368.098 m f
232.324 375.516 m 231.57 375.516 230.906 375.871 230.469 376.418 c 231.414
 376.191 232.359 375.969 233.297 375.727 c 233 375.594 232.672 375.516 232.324
 375.516 c h
232.324 375.516 m f
216.902 349.457 m 218.223 349.457 219.297 348.387 219.297 347.066 c 219.297
 346.465 219.066 345.922 218.699 345.5 c 217.312 346.047 215.914 346.57 
214.512 347.078 c 214.52 348.395 215.586 349.457 216.902 349.457 c h
216.902 349.457 m f
208.902 352.676 m 207.582 352.676 206.512 353.746 206.512 355.066 c 206.512
 356.387 207.582 357.461 208.902 357.461 c 210.223 357.461 211.293 356.387
 211.293 355.066 c 211.293 353.746 210.223 352.676 208.902 352.676 c h
208.902 352.676 m f
216.902 360.098 m 215.582 360.098 214.512 361.168 214.512 362.488 c 214.512
 363.809 215.582 364.879 216.902 364.879 c 218.223 364.879 219.297 363.809
 219.297 362.488 c 219.297 361.168 218.223 360.098 216.902 360.098 c h
216.902 360.098 m f
208.902 368.098 m 207.582 368.098 206.512 369.168 206.512 370.488 c 206.512
 371.809 207.582 372.879 208.902 372.879 c 210.223 372.879 211.293 371.809
 211.293 370.488 c 211.293 369.168 210.223 368.098 208.902 368.098 c h
208.902 368.098 m f
219.297 377.91 m 219.297 376.59 218.223 375.516 216.902 375.516 c 215.582
 375.516 214.512 376.586 214.512 377.91 c 214.512 378.441 214.688 378.926
 214.98 379.32 c 216.379 379.129 217.77 378.918 219.156 378.688 c 219.238
 378.441 219.297 378.184 219.297 377.91 c h
219.297 377.91 m f
193.48 357.461 m 194.801 357.461 195.871 356.391 195.871 355.066 c 195.871
 354.125 195.32 353.316 194.527 352.926 c 193.566 353.141 192.609 353.355
 191.645 353.555 c 191.301 353.969 191.09 354.492 191.09 355.066 c 191.09
 356.391 192.16 357.461 193.48 357.461 c h
193.48 357.461 m f
201.48 360.098 m 200.16 360.098 199.09 361.168 199.09 362.488 c 199.09 
363.809 200.16 364.879 201.48 364.879 c 202.801 364.879 203.875 363.809 
203.875 362.488 c 203.875 361.168 202.801 360.098 201.48 360.098 c h
201.48 360.098 m f
193.48 368.098 m 192.16 368.098 191.09 369.168 191.09 370.488 c 191.09 
371.809 192.16 372.879 193.48 372.879 c 194.801 372.879 195.871 371.809 
195.871 370.488 c 195.875 369.168 194.801 368.098 193.48 368.098 c h
193.48 368.098 m f
201.48 375.516 m 200.16 375.516 199.09 376.59 199.09 377.91 c 199.09 379.23
 200.16 380.301 201.48 380.301 c 202.801 380.301 203.875 379.23 203.875 
377.91 c 203.875 376.59 202.801 375.516 201.48 375.516 c h
201.48 375.516 m f
178.059 357.461 m 179.246 357.461 180.223 356.594 180.41 355.461 c 178.902
 355.664 177.387 355.852 175.863 356.016 c 176.23 356.863 177.074 357.461
 178.059 357.461 c h
178.059 357.461 m f
186.059 360.098 m 184.738 360.098 183.668 361.168 183.668 362.488 c 183.668
 363.809 184.738 364.879 186.059 364.879 c 187.383 364.879 188.453 363.809
 188.453 362.488 c 188.453 361.168 187.383 360.098 186.059 360.098 c h
186.059 360.098 m f
178.059 368.098 m 176.738 368.098 175.668 369.168 175.668 370.488 c 175.668
 371.809 176.738 372.879 178.059 372.879 c 179.379 372.879 180.449 371.809
 180.449 370.488 c 180.453 369.168 179.379 368.098 178.059 368.098 c h
178.059 368.098 m f
186.059 375.516 m 184.738 375.516 183.668 376.59 183.668 377.91 c 183.668
 379.23 184.738 380.301 186.059 380.301 c 187.383 380.301 188.453 379.23
 188.453 377.91 c 188.453 376.59 187.383 375.516 186.059 375.516 c h
186.059 375.516 m f
164.223 356.848 m 163.203 356.887 162.184 356.918 161.164 356.938 c 161.57
 357.262 162.078 357.461 162.637 357.461 c 163.246 357.461 163.797 357.227
 164.223 356.848 c h
164.223 356.848 m f
168.246 362.488 m 168.246 363.809 169.316 364.879 170.641 364.879 c 171.961
 364.879 173.031 363.809 173.031 362.488 c 173.031 361.168 171.961 360.094
 170.641 360.094 c 169.316 360.098 168.246 361.168 168.246 362.488 c h
168.246 362.488 m f
162.637 372.883 m 163.957 372.883 165.031 371.809 165.031 370.488 c 165.031
 369.168 163.957 368.098 162.637 368.098 c 161.316 368.098 160.246 369.168
 160.246 370.488 c 160.246 371.809 161.316 372.883 162.637 372.883 c h
162.637 372.883 m f
173.031 377.91 m 173.031 376.59 171.961 375.516 170.641 375.516 c 169.316
 375.516 168.246 376.586 168.246 377.91 c 168.246 378.422 168.41 378.895
 168.688 379.285 c 169.84 379.445 171 379.602 172.16 379.738 c 172.688 379.301
 173.031 378.648 173.031 377.91 c h
173.031 377.91 m f
147.215 357.461 m 147.895 357.461 148.504 357.176 148.941 356.719 c 147.723
 356.652 146.504 356.57 145.293 356.477 c 145.73 357.07 146.426 357.461 
147.215 357.461 c h
147.215 357.461 m f
152.824 362.488 m 152.824 363.809 153.898 364.879 155.219 364.879 c 156.539
 364.879 157.609 363.809 157.609 362.488 c 157.609 361.168 156.539 360.094
 155.219 360.094 c 153.898 360.098 152.824 361.168 152.824 362.488 c h
152.824 362.488 m f
147.215 368.098 m 145.895 368.098 144.824 369.168 144.824 370.488 c 144.824
 371.809 145.895 372.879 147.215 372.879 c 148.539 372.879 149.609 371.809
 149.609 370.488 c 149.609 369.168 148.539 368.098 147.215 368.098 c h
147.215 368.098 m f
155.219 375.516 m 154.477 375.516 153.824 375.859 153.387 376.387 c 154.762
 376.715 156.141 377.023 157.527 377.316 c 157.262 376.285 156.332 375.516
 155.219 375.516 c h
155.219 375.516 m f
131.797 357.461 m 133.051 357.461 134.07 356.488 134.168 355.258 c 132.598
 355.031 131.031 354.781 129.473 354.512 c 129.43 354.691 129.402 354.875
 129.402 355.066 c 129.402 356.391 130.473 357.461 131.797 357.461 c h
131.797 357.461 m f
137.406 362.488 m 137.406 363.809 138.477 364.879 139.797 364.879 c 141.117
 364.879 142.188 363.809 142.188 362.488 c 142.188 361.168 141.117 360.094
 139.797 360.094 c 138.477 360.098 137.406 361.168 137.406 362.488 c h
137.406 362.488 m f
131.797 368.098 m 131.078 368.098 130.445 368.418 130.004 368.918 c 131.391
 369.477 132.781 370.02 134.18 370.543 c 134.184 370.523 134.188 370.508
 134.188 370.488 c 134.188 369.168 133.117 368.098 131.797 368.098 c h
131.797 368.098 m f
113.98 355.066 m 113.98 356.391 115.055 357.461 116.375 357.461 c 117.695
 357.461 118.766 356.391 118.766 355.066 c 118.766 353.746 117.695 352.676
 116.375 352.676 c 115.055 352.676 113.98 353.746 113.98 355.066 c h
113.98 355.066 m f
121.984 362.488 m 121.984 363.809 123.055 364.879 124.375 364.879 c 125.695
 364.879 126.766 363.809 126.766 362.488 c 126.766 361.168 125.695 360.094
 124.375 360.094 c 123.055 360.098 121.984 361.168 121.984 362.488 c h
121.984 362.488 m f
100.953 352.676 m 100.559 352.676 100.195 352.777 99.867 352.945 c 101.012
 353.715 102.168 354.469 103.332 355.207 c 103.332 355.16 103.344 355.113
 103.344 355.066 c 103.344 353.746 102.273 352.676 100.953 352.676 c h
100.953 352.676 m f
87.352 341.18 m 85.957 340.52 84.57 339.844 83.195 339.145 c 83.16 339.309
 83.141 339.473 83.141 339.645 c 83.141 339.836 83.168 340.02 83.211 340.199
 c 83.914 340.812 84.633 341.418 85.348 342.02 c 85.41 342.023 85.469 342.039
 85.531 342.039 c 86.266 342.039 86.914 341.699 87.352 341.18 c h
87.352 341.18 m f
95.926 347.066 m 95.926 345.746 94.852 344.676 93.531 344.676 c 92.336 
344.676 91.352 345.559 91.176 346.707 c 92.289 347.562 93.41 348.402 94.543
 349.23 c 95.355 348.848 95.926 348.027 95.926 347.066 c h
95.926 347.066 m f
275.684 131.492 m 321.922 177.734 321.922 252.703 275.684 298.941 c 229.441
 345.184 154.473 345.184 108.23 298.941 c 61.992 252.703 61.992 177.734 
108.23 131.492 c 154.473 85.254 229.441 85.254 275.684 131.492 c h
275.684 131.492 m f
0.913725 0.760784 0.470588 rg
207.938 209.5 m 211.094 218.398 206.438 228.172 197.539 231.328 c 188.641
 234.48 178.867 229.824 175.715 220.926 c 172.559 212.027 177.215 202.258
 186.113 199.102 c 195.012 195.949 204.781 200.605 207.938 209.5 c h
207.938 209.5 m f
0.192157 0.215686 0.239216 rg
247.797 159.762 m 246.59 158.555 244.637 158.555 243.434 159.762 c 204.113
 199.082 l 200.734 196.543 196.543 195.031 192 195.031 c 180.867 195.031
 171.812 204.09 171.812 215.219 c 171.812 226.352 180.867 235.41 192 235.41
 c 203.133 235.41 212.188 226.352 212.188 215.219 c 212.188 210.852 210.789
 206.805 208.418 203.496 c 247.797 164.121 l 249 162.918 249 160.965 247.797
 159.762 c h
192 229.238 m 184.27 229.238 177.98 222.953 177.98 215.219 c 177.98 207.492
 184.27 201.199 192 201.199 c 199.73 201.199 206.02 207.488 206.02 215.219
 c 206.02 222.953 199.73 229.238 192 229.238 c h
192 229.238 m f
192 93.715 m 125 93.715 70.492 148.219 70.492 215.219 c 70.492 282.223 
125 336.727 192 336.727 c 259 336.727 313.508 282.223 313.508 215.219 c 
313.508 148.219 259 93.715 192 93.715 c h
194.832 330.523 m 194.832 303.953 l 194.832 302.25 193.449 300.867 191.746
 300.867 c 190.043 300.867 188.66 302.25 188.66 303.953 c 188.66 330.508
 l 127.586 328.762 78.25 279.309 76.699 218.188 c 103.852 218.188 l 105.555
 218.188 106.938 216.809 106.938 215.105 c 106.938 213.402 105.555 212.02
 103.852 212.02 c 76.707 212.02 l 78.379 151.004 127.664 101.676 188.66 
99.934 c 188.66 127.477 l 188.66 129.18 190.043 130.559 191.746 130.559 
c 193.449 130.559 194.832 129.18 194.832 127.477 c 194.832 99.918 l 256.469
 101.41 306.266 151.496 307.312 213.238 c 279.641 213.238 l 277.938 213.238
 276.555 214.621 276.555 216.324 c 276.555 218.027 277.938 219.406 279.641
 219.406 c 307.254 219.406 l 305.074 280.133 255.73 329.051 194.832 330.523
 c h
194.832 330.523 m f
314.762 99.402 m 324.57 87.75 l 329.098 82.367 328.402 74.309 323.023 69.781
 c 295.539 46.645 l 292.934 44.449 289.629 43.398 286.234 43.695 c 282.844
 43.988 279.766 45.582 277.57 48.188 c 265.102 63.008 l 251.695 56.555 237.461
 51.934 222.715 49.234 c 222.715 27.773 l 223.34 27.773 l 229.766 27.773
 234.992 22.547 234.992 16.121 c 234.992 11.652 l 234.992 5.227 229.766 
0 223.34 0 c 160.66 0 l 154.234 0 149.008 5.227 149.008 11.652 c 149.008
 16.117 l 149.008 22.543 154.234 27.77 160.66 27.77 c 161.285 27.77 l 161.285
 49.234 l 146.555 51.93 132.34 56.543 118.953 62.98 c 106.43 48.102 l 104.234
 45.496 101.156 43.902 97.766 43.609 c 94.371 43.312 91.066 44.363 88.461
 46.559 c 60.977 69.691 l 55.594 74.219 54.902 82.281 59.43 87.66 c 69.277
 99.359 l 39.543 130.809 23.223 171.758 23.223 215.223 c 23.223 260.305 
40.777 302.688 72.656 334.566 c 104.535 366.445 146.918 384 192 384 c 237.082
 384 279.465 366.445 311.344 334.566 c 343.223 302.688 360.781 260.305 360.781
 215.223 c 360.781 171.777 344.473 130.848 314.762 99.402 c h
160.66 21.602 m 157.637 21.602 155.176 19.145 155.176 16.117 c 155.176 
11.652 l 155.176 8.629 157.637 6.168 160.66 6.168 c 223.34 6.168 l 226.363
 6.168 228.82 8.629 228.82 11.652 c 228.82 16.117 l 228.82 19.145 226.363
 21.602 223.34 21.602 c h
167.453 27.773 m 216.547 27.773 l 216.547 48.215 l 208.488 47.047 200.289
 46.441 192 46.441 c 183.711 46.441 175.512 47.047 167.453 48.215 c h
192 377.832 m 102.336 377.832 29.391 304.887 29.391 215.219 c 29.391 125.555
 102.336 52.609 192 52.609 c 281.664 52.609 354.609 125.559 354.609 215.219
 c 354.609 304.883 281.664 377.832 192 377.832 c h
192 377.832 m f
Q Q
showpage
%%Trailer
end
%%EOF
