%!PS-Adobe-3.0 EPSF-3.0
%%Creator: cairo 1.16.0 (https://cairographics.org)
%%CreationDate: Wed Jul 15 13:24:28 2020
%%Pages: 1
%%DocumentData: Clean7Bit
%%LanguageLevel: 2
%%BoundingBox: 0 0 384 384
%%EndComments
%%BeginProlog
50 dict begin
/q { gsave } bind def
/Q { grestore } bind def
/cm { 6 array astore concat } bind def
/w { setlinewidth } bind def
/J { setlinecap } bind def
/j { setlinejoin } bind def
/M { setmiterlimit } bind def
/d { setdash } bind def
/m { moveto } bind def
/l { lineto } bind def
/c { curveto } bind def
/h { closepath } bind def
/re { exch dup neg 3 1 roll 5 3 roll moveto 0 rlineto
      0 exch rlineto 0 rlineto closepath } bind def
/S { stroke } bind def
/f { fill } bind def
/f* { eofill } bind def
/n { newpath } bind def
/W { clip } bind def
/W* { eoclip } bind def
/BT { } bind def
/ET { } bind def
/BDC { mark 3 1 roll /BDC pdfmark } bind def
/EMC { mark /EMC pdfmark } bind def
/cairo_store_point { /cairo_point_y exch def /cairo_point_x exch def } def
/Tj { show currentpoint cairo_store_point } bind def
/TJ {
  {
    dup
    type /stringtype eq
    { show } { -0.001 mul 0 cairo_font_matrix dtransform rmoveto } ifelse
  } forall
  currentpoint cairo_store_point
} bind def
/cairo_selectfont { cairo_font_matrix aload pop pop pop 0 0 6 array astore
    cairo_font exch selectfont cairo_point_x cairo_point_y moveto } bind def
/Tf { pop /cairo_font exch def /cairo_font_matrix where
      { pop cairo_selectfont } if } bind def
/Td { matrix translate cairo_font_matrix matrix concatmatrix dup
      /cairo_font_matrix exch def dup 4 get exch 5 get cairo_store_point
      /cairo_font where { pop cairo_selectfont } if } bind def
/Tm { 2 copy 8 2 roll 6 array astore /cairo_font_matrix exch def
      cairo_store_point /cairo_font where { pop cairo_selectfont } if } bind def
/g { setgray } bind def
/rg { setrgbcolor } bind def
/d1 { setcachedevice } bind def
/cairo_data_source {
  CairoDataIndex CairoData length lt
    { CairoData CairoDataIndex get /CairoDataIndex CairoDataIndex 1 add def }
    { () } ifelse
} def
/cairo_flush_ascii85_file { cairo_ascii85_file status { cairo_ascii85_file flushfile } if } def
/cairo_image { image cairo_flush_ascii85_file } def
/cairo_imagemask { imagemask cairo_flush_ascii85_file } def
%%EndProlog
%%BeginSetup
%%EndSetup
%%Page: 1 1
%%BeginPageSetup
%%PageBoundingBox: 0 0 384 384
%%EndPageSetup
q 0 0 384 384 rectclip
1 0 0 -1 0 384 cm q
0.917647 0.658824 0.584314 rg
323.137 60.965 m 396.344 134.172 396.344 252.867 323.137 326.074 c 287.98
 361.23 240.297 380.98 190.582 380.98 c 140.863 380.98 93.18 361.23 58.023
 326.074 c -15.184 252.867 -15.184 134.172 58.023 60.965 c 131.234 -12.246
 249.926 -12.246 323.137 60.965 c h
323.137 60.965 m f
0.976471 0.984314 0.988235 rg
190.621 56.859 m 115.145 56.859 53.961 118.043 53.961 193.52 c 53.961 268.996
 115.145 330.184 190.621 330.184 c 266.098 330.184 327.285 268.996 327.285
 193.52 c 327.285 118.043 266.098 56.859 190.621 56.859 c h
190.621 276.219 m 144.945 276.219 107.922 239.195 107.922 193.52 c 107.922
 147.844 144.949 110.82 190.621 110.82 c 236.297 110.82 273.32 147.844 273.32
 193.52 c 273.32 239.195 236.297 276.219 190.621 276.219 c h
190.621 276.219 m f
222.246 180.41 m 229.469 197.828 221.199 217.801 203.781 225.023 c 186.359
 232.242 166.387 223.977 159.164 206.555 c 151.945 189.137 160.215 169.16
 177.633 161.941 c 195.051 154.723 215.027 162.988 222.246 180.41 c h
222.246 180.41 m f
0.913725 0.760784 0.470588 rg
327.848 86.234 m 231.043 183.039 l 204.723 180.098 l 201.051 153.047 l 
297.855 56.242 l h
327.848 86.234 m f
0.976471 0.984314 0.988235 rg
317.906 92.848 m 316.621 92.848 315.582 93.891 315.582 95.176 c 315.582
 96.078 316.098 96.852 316.848 97.234 c 319.969 94.117 l 319.582 93.367 
318.809 92.848 317.906 92.848 c h
317.906 92.848 m f
302.902 92.848 m 301.621 92.848 300.578 93.891 300.578 95.176 c 300.578
 96.461 301.621 97.504 302.902 97.504 c 304.188 97.504 305.23 96.461 305.23
 95.176 c 305.23 93.891 304.188 92.848 302.902 92.848 c h
302.902 92.848 m f
310.688 100.066 m 309.402 100.066 308.359 101.109 308.359 102.395 c 308.359
 103.297 308.879 104.07 309.629 104.457 c 312.75 101.336 l 312.363 100.586
 311.59 100.066 310.688 100.066 c h
310.688 100.066 m f
302.902 107.852 m 301.621 107.852 300.578 108.895 300.578 110.18 c 300.578
 111.082 301.094 111.852 301.844 112.238 c 304.965 109.117 l 304.578 108.367
 303.805 107.852 302.902 107.852 c h
302.902 107.852 m f
286.91 97.273 m 287.211 97.414 287.543 97.5 287.902 97.5 c 289.188 97.5
 290.227 96.461 290.227 95.176 c 290.227 94.816 290.141 94.484 290 94.184
 c h
286.91 97.273 m f
295.684 100.066 m 294.398 100.066 293.359 101.109 293.359 102.395 c 293.359
 103.68 294.398 104.723 295.684 104.723 c 296.969 104.723 298.012 103.68
 298.012 102.395 c 298.012 101.109 296.969 100.066 295.684 100.066 c h
295.684 100.066 m f
287.902 107.852 m 286.617 107.852 285.574 108.895 285.574 110.18 c 285.574
 111.465 286.617 112.504 287.902 112.504 c 289.188 112.504 290.227 111.465
 290.227 110.18 c 290.227 108.895 289.188 107.852 287.902 107.852 c h
287.902 107.852 m f
295.684 115.07 m 294.398 115.07 293.359 116.113 293.359 117.398 c 293.359
 118.301 293.875 119.07 294.625 119.457 c 297.746 116.34 l 297.359 115.586
 296.586 115.07 295.684 115.07 c h
295.684 115.07 m f
287.902 122.855 m 286.617 122.855 285.574 123.895 285.574 125.18 c 285.574
 126.082 286.094 126.855 286.844 127.242 c 289.961 124.121 l 289.574 123.371
 288.805 122.855 287.902 122.855 c h
287.902 122.855 m f
279.688 104.492 m 279.992 104.637 280.324 104.723 280.684 104.723 c 281.965
 104.723 283.008 103.68 283.008 102.395 c 283.008 102.035 282.922 101.703
 282.777 101.402 c h
279.688 104.492 m f
271.906 112.273 m 272.207 112.418 272.543 112.504 272.898 112.504 c 274.184
 112.504 275.227 111.461 275.227 110.176 c 275.227 109.82 275.137 109.488
 274.996 109.184 c h
271.906 112.273 m f
280.684 115.07 m 279.398 115.07 278.355 116.113 278.355 117.398 c 278.355
 118.684 279.398 119.727 280.684 119.727 c 281.965 119.727 283.008 118.684
 283.008 117.398 c 283.008 116.113 281.969 115.07 280.684 115.07 c h
280.684 115.07 m f
272.898 122.855 m 271.613 122.855 270.57 123.895 270.57 125.18 c 270.57
 126.465 271.613 127.508 272.898 127.508 c 274.184 127.508 275.227 126.465
 275.227 125.18 c 275.227 123.895 274.184 122.855 272.898 122.855 c h
272.898 122.855 m f
280.684 130.074 m 279.398 130.074 278.355 131.113 278.355 132.402 c 278.355
 133.301 278.875 134.074 279.621 134.461 c 282.742 131.34 l 282.355 130.59
 281.582 130.074 280.684 130.074 c h
280.684 130.074 m f
272.898 137.855 m 271.613 137.855 270.57 138.898 270.57 140.184 c 270.57
 141.086 271.09 141.859 271.84 142.246 c 274.961 139.125 l 274.574 138.375
 273.801 137.855 272.898 137.855 c h
272.898 137.855 m f
264.688 119.496 m 264.988 119.637 265.324 119.723 265.68 119.723 c 266.965
 119.723 268.004 118.684 268.004 117.398 c 268.004 117.039 267.918 116.707
 267.777 116.406 c h
264.688 119.496 m f
256.902 127.277 m 257.203 127.422 257.539 127.508 257.895 127.508 c 259.18
 127.508 260.223 126.465 260.223 125.18 c 260.223 124.824 260.137 124.492
 259.992 124.188 c h
256.902 127.277 m f
265.68 130.074 m 264.395 130.074 263.352 131.113 263.352 132.402 c 263.352
 133.688 264.395 134.727 265.68 134.727 c 266.965 134.727 268.004 133.688
 268.004 132.402 c 268.008 131.113 266.965 130.074 265.68 130.074 c h
265.68 130.074 m f
257.895 137.855 m 256.609 137.855 255.566 138.898 255.566 140.184 c 255.566
 141.469 256.609 142.512 257.895 142.512 c 259.18 142.512 260.223 141.469
 260.223 140.184 c 260.223 138.898 259.18 137.855 257.895 137.855 c h
257.895 137.855 m f
265.68 145.078 m 264.395 145.078 263.352 146.117 263.352 147.402 c 263.352
 148.305 263.871 149.078 264.621 149.465 c 267.738 146.344 l 267.352 145.594
 266.582 145.078 265.68 145.078 c h
265.68 145.078 m f
257.895 152.859 m 256.609 152.859 255.566 153.902 255.566 155.188 c 255.566
 156.09 256.086 156.863 256.836 157.25 c 259.957 154.129 l 259.57 153.379
 258.797 152.859 257.895 152.859 c h
257.895 152.859 m f
249.684 134.496 m 249.984 134.641 250.32 134.727 250.676 134.727 c 251.961
 134.727 253.004 133.684 253.004 132.398 c 253.004 132.043 252.914 131.711
 252.773 131.406 c h
249.684 134.496 m f
241.898 142.281 m 242.203 142.426 242.535 142.512 242.891 142.512 c 244.176
 142.512 245.219 141.469 245.219 140.184 c 245.219 139.828 245.133 139.492
 244.988 139.191 c h
241.898 142.281 m f
250.676 145.078 m 249.391 145.078 248.348 146.117 248.348 147.402 c 248.348
 148.688 249.391 149.73 250.676 149.73 c 251.961 149.73 253.004 148.688 
253.004 147.402 c 253.004 146.117 251.961 145.078 250.676 145.078 c h
250.676 145.078 m f
242.891 152.859 m 241.605 152.859 240.566 153.902 240.566 155.188 c 240.566
 156.473 241.605 157.516 242.891 157.516 c 244.176 157.516 245.219 156.473
 245.219 155.188 c 245.219 153.902 244.176 152.859 242.891 152.859 c h
242.891 152.859 m f
250.676 160.078 m 249.391 160.078 248.348 161.121 248.348 162.406 c 248.348
 163.309 248.867 164.082 249.617 164.469 c 252.738 161.348 l 252.352 160.598
 251.578 160.078 250.676 160.078 c h
250.676 160.078 m f
242.891 167.863 m 241.605 167.863 240.566 168.906 240.566 170.191 c 240.566
 171.094 241.082 171.863 241.832 172.25 c 244.953 169.129 l 244.566 168.383
 243.793 167.863 242.891 167.863 c h
242.891 167.863 m f
234.68 149.5 m 234.984 149.645 235.316 149.73 235.672 149.73 c 236.957 
149.73 238 148.688 238 147.402 c 238 147.047 237.914 146.711 237.77 146.41
 c h
234.68 149.5 m f
226.898 157.285 m 227.199 157.426 227.531 157.516 227.891 157.516 c 229.176
 157.516 230.215 156.473 230.215 155.188 c 230.215 154.832 230.129 154.496
 229.984 154.195 c h
226.898 157.285 m f
235.672 160.078 m 234.387 160.078 233.344 161.121 233.344 162.406 c 233.344
 163.691 234.387 164.734 235.672 164.734 c 236.957 164.734 238 163.691 238
 162.406 c 238 161.121 236.957 160.078 235.672 160.078 c h
235.672 160.078 m f
227.891 167.863 m 226.605 167.863 225.562 168.906 225.562 170.191 c 225.562
 171.477 226.605 172.516 227.891 172.516 c 229.176 172.516 230.215 171.477
 230.215 170.191 c 230.215 168.906 229.176 167.863 227.891 167.863 c h
227.891 167.863 m f
235.672 175.082 m 234.387 175.082 233.344 176.125 233.344 177.41 c 233.344
 178.312 233.863 179.086 234.613 179.469 c 237.734 176.352 l 237.348 175.602
 236.574 175.082 235.672 175.082 c h
235.672 175.082 m f
219.676 164.504 m 219.98 164.648 220.312 164.734 220.668 164.734 c 221.953
 164.734 222.996 163.691 222.996 162.406 c 222.996 162.051 222.91 161.715
 222.766 161.414 c h
219.676 164.504 m f
211.895 172.289 m 212.195 172.43 212.531 172.516 212.887 172.516 c 214.172
 172.516 215.215 171.477 215.215 170.191 c 215.215 169.836 215.125 169.5
 214.984 169.199 c h
211.895 172.289 m f
220.668 175.082 m 219.383 175.082 218.344 176.125 218.344 177.41 c 218.344
 178.695 219.383 179.738 220.668 179.738 c 221.953 179.738 222.996 178.695
 222.996 177.41 c 222.996 176.125 221.957 175.082 220.668 175.082 c h
220.668 175.082 m f
204.676 179.508 m 204.977 179.648 205.309 179.734 205.668 179.734 c 206.953
 179.734 207.992 178.695 207.992 177.41 c 207.992 177.051 207.906 176.719
 207.766 176.418 c h
204.676 179.508 m f
376.543 52.562 m 336.5 47.359 l 331.297 7.32 l 330.766 3.234 325.777 1.539
 322.867 4.449 c 292.969 34.348 l 292.848 91.012 l 291.836 92.027 l 349.512
 90.891 l 379.41 60.992 l 382.32 58.082 380.625 53.094 376.543 52.562 c 
h
376.543 52.562 m f
0.192157 0.215686 0.239216 rg
383.43 54.922 m 382.445 52.031 379.953 49.992 376.926 49.598 c 339.168 
44.691 l 334.262 6.934 l 333.867 3.906 331.828 1.414 328.938 0.43 c 326.047
 -0.555 322.91 0.176 320.754 2.336 c 291.32 31.77 l 261.398 13.062 226.785
 3.039 190.621 3.039 c 139.742 3.039 91.91 22.852 55.93 58.828 c 19.953 
94.805 0.141 142.641 0.141 193.52 c 0.141 244.398 19.953 292.234 55.93 328.211
 c 91.91 364.188 139.742 384 190.621 384 c 241.5 384 289.336 364.188 325.312
 328.211 c 361.289 292.234 381.102 244.398 381.102 193.52 c 381.102 157.219
 371 122.477 352.152 92.477 c 381.523 63.105 l 383.684 60.949 384.414 57.809
 383.43 54.922 c h
295.934 35.609 m 324.98 6.562 l 325.766 5.781 326.664 5.973 327.012 6.09
 c 327.363 6.211 328.191 6.605 328.332 7.703 c 333.348 46.285 l 294.953 
84.676 l h
207.371 177.387 m 204.211 154.113 l 289.285 69.039 l 288.84 91.352 l 288.664
 91.992 288.691 92.684 288.965 93.32 c 289.438 94.422 290.52 95.137 291.715
 95.137 c 291.734 95.137 291.758 95.133 291.781 95.133 c 315.23 94.625 l
 229.945 179.91 l h
190.621 378.02 m 88.887 378.02 6.121 295.254 6.121 193.52 c 6.121 91.785
 88.887 9.02 190.621 9.02 c 227.148 9.02 261.223 19.695 289.902 38.082 c
 289.457 60.41 l 198.934 150.934 l 198.273 151.594 197.961 152.523 198.086
 153.449 c 201.473 178.391 l 190.566 189.293 l 189.398 190.461 189.398 192.355
 190.566 193.523 c 191.152 194.105 191.918 194.398 192.684 194.398 c 193.449
 194.398 194.211 194.105 194.797 193.523 c 205.16 183.156 l 230.711 186.012
 l 230.82 186.023 230.934 186.031 231.043 186.031 c 231.832 186.031 232.594
 185.719 233.156 185.156 c 323.875 94.438 l 345.879 93.961 l 364.375 122.699
 375.121 156.875 375.121 193.52 c 375.121 295.254 292.355 378.02 190.621
 378.02 c h
377.297 58.879 m 348.246 87.93 l 299.094 88.996 l 337.574 50.512 l 376.156
 55.527 l 377.254 55.672 377.648 56.5 377.77 56.848 c 377.887 57.199 378.078
 58.094 377.297 58.879 c h
377.297 58.879 m f
256.012 187.23 m 255.246 187.23 254.48 186.941 253.898 186.355 c 252.73
 185.188 252.73 183.297 253.898 182.129 c 305.52 130.508 l 306.688 129.34
 308.582 129.34 309.75 130.508 c 310.918 131.676 310.918 133.566 309.75 
134.734 c 258.125 186.355 l 257.543 186.941 256.777 187.23 256.012 187.23
 c h
256.012 187.23 m f
265.762 196.98 m 265 196.98 264.234 196.691 263.648 196.105 c 262.48 194.938
 262.48 193.047 263.648 191.879 c 286.941 168.59 l 288.105 167.422 290 167.422
 291.168 168.59 c 292.336 169.758 292.336 171.648 291.168 172.816 c 267.879
 196.105 l 267.293 196.691 266.527 196.98 265.762 196.98 c h
265.762 196.98 m f
199.621 130.84 m 198.855 130.84 198.09 130.547 197.508 129.965 c 196.34
 128.797 196.34 126.906 197.508 125.738 c 249.129 74.113 l 250.293 72.949
 252.188 72.949 253.355 74.113 c 254.523 75.281 254.523 77.176 253.355 78.344
 c 201.734 129.965 l 201.152 130.547 200.387 130.84 199.621 130.84 c h
199.621 130.84 m f
189.871 121.09 m 189.105 121.09 188.34 120.797 187.758 120.215 c 186.59
 119.047 186.59 117.152 187.758 115.984 c 211.047 92.695 l 212.215 91.531
 214.105 91.531 215.273 92.695 c 216.441 93.863 216.441 95.758 215.273 96.926
 c 191.984 120.215 l 191.402 120.797 190.637 121.09 189.871 121.09 c h
189.871 121.09 m f
Q Q
showpage
%%Trailer
end
%%EOF
