%!PS-Adobe-3.0 EPSF-3.0
%%Creator: cairo 1.16.0 (https://cairographics.org)
%%CreationDate: Wed Jul 15 13:24:33 2020
%%Pages: 1
%%DocumentData: Clean7Bit
%%LanguageLevel: 2
%%BoundingBox: 0 104 384 280
%%EndComments
%%BeginProlog
50 dict begin
/q { gsave } bind def
/Q { grestore } bind def
/cm { 6 array astore concat } bind def
/w { setlinewidth } bind def
/J { setlinecap } bind def
/j { setlinejoin } bind def
/M { setmiterlimit } bind def
/d { setdash } bind def
/m { moveto } bind def
/l { lineto } bind def
/c { curveto } bind def
/h { closepath } bind def
/re { exch dup neg 3 1 roll 5 3 roll moveto 0 rlineto
      0 exch rlineto 0 rlineto closepath } bind def
/S { stroke } bind def
/f { fill } bind def
/f* { eofill } bind def
/n { newpath } bind def
/W { clip } bind def
/W* { eoclip } bind def
/BT { } bind def
/ET { } bind def
/BDC { mark 3 1 roll /BDC pdfmark } bind def
/EMC { mark /EMC pdfmark } bind def
/cairo_store_point { /cairo_point_y exch def /cairo_point_x exch def } def
/Tj { show currentpoint cairo_store_point } bind def
/TJ {
  {
    dup
    type /stringtype eq
    { show } { -0.001 mul 0 cairo_font_matrix dtransform rmoveto } ifelse
  } forall
  currentpoint cairo_store_point
} bind def
/cairo_selectfont { cairo_font_matrix aload pop pop pop 0 0 6 array astore
    cairo_font exch selectfont cairo_point_x cairo_point_y moveto } bind def
/Tf { pop /cairo_font exch def /cairo_font_matrix where
      { pop cairo_selectfont } if } bind def
/Td { matrix translate cairo_font_matrix matrix concatmatrix dup
      /cairo_font_matrix exch def dup 4 get exch 5 get cairo_store_point
      /cairo_font where { pop cairo_selectfont } if } bind def
/Tm { 2 copy 8 2 roll 6 array astore /cairo_font_matrix exch def
      cairo_store_point /cairo_font where { pop cairo_selectfont } if } bind def
/g { setgray } bind def
/rg { setrgbcolor } bind def
/d1 { setcachedevice } bind def
/cairo_data_source {
  CairoDataIndex CairoData length lt
    { CairoData CairoDataIndex get /CairoDataIndex CairoDataIndex 1 add def }
    { () } ifelse
} def
/cairo_flush_ascii85_file { cairo_ascii85_file status { cairo_ascii85_file flushfile } if } def
/cairo_image { image cairo_flush_ascii85_file } def
/cairo_imagemask { imagemask cairo_flush_ascii85_file } def
%%EndProlog
%%BeginSetup
%%EndSetup
%%Page: 1 1
%%BeginPageSetup
%%PageBoundingBox: 0 104 384 280
%%EndPageSetup
q 0 104 384 176 rectclip
1 0 0 -1 0 384 cm q
0.976471 0.984314 0.988235 rg
380.668 211.719 m 379.598 255.617 299.203 255.586 154.289 252.453 c 104.926
 251.383 5.461 266.551 5.461 215.637 c 5.461 201.855 7.426 182.059 14.859
 161.586 c 19.742 148.133 17.934 128.609 29.742 128.688 c 43.199 128.777
 40.707 170.984 81.441 160.801 c 111.078 153.395 104.824 105.281 122.172
 107.535 c 133.055 108.953 148.434 120.031 161.34 123.203 c 219.254 137.445
 260.129 156.082 297.637 168.637 c 344.555 184.34 381.105 193.871 380.668
 211.719 c h
380.668 211.719 m f
0.913725 0.760784 0.470588 rg
5.762 219.031 m 5.762 205.254 7.426 182.059 14.859 161.586 c 19.742 148.133
 17.934 128.609 29.742 128.688 c 43.199 128.777 40.707 170.988 81.441 160.805
 c 111.078 153.395 104.824 105.281 122.172 107.539 c 133.055 108.953 148.434
 120.031 161.34 123.203 c 251.348 151.25 l 251.348 151.25 134.824 152.477
 129.914 153.703 c 125.008 154.93 95.57 191.113 90.051 194.18 c 84.531 197.246
 56.934 185.594 51.414 188.66 c 45.895 191.727 39.762 219.324 39.762 219.324
 c h
5.762 219.031 m f
0.917647 0.658824 0.584314 rg
375.594 201.762 m 374.305 201.762 373.262 202.805 373.262 204.09 c 373.262
 205.379 374.305 206.422 375.594 206.422 c 376.879 206.422 377.922 205.379
 377.922 204.09 c 377.922 203.75 377.848 203.43 377.715 203.141 c 377.496
 202.844 377.266 202.551 377.02 202.262 c 376.625 201.953 376.133 201.762
 375.594 201.762 c h
375.594 201.762 m f
377.926 219.117 m 377.926 217.828 376.879 216.785 375.594 216.785 c 374.309
 216.785 373.262 217.828 373.262 219.117 c 373.262 220.402 374.309 221.445
 375.594 221.445 c 376.879 221.445 377.926 220.402 377.926 219.117 c h
377.926 219.117 m f
360.566 191.398 m 360.762 191.398 360.949 191.367 361.133 191.32 c 360.27
 190.906 359.387 190.492 358.477 190.078 c 358.855 190.855 359.645 191.398
 360.566 191.398 c h
360.566 191.398 m f
366.031 196.297 m 366.031 197.582 367.074 198.625 368.363 198.625 c 369.508
 198.625 370.457 197.797 370.652 196.707 c 369.52 195.934 368.301 195.168
 367 194.414 c 366.418 194.836 366.031 195.52 366.031 196.297 c h
366.031 196.297 m f
360.566 201.762 m 359.281 201.762 358.238 202.805 358.238 204.09 c 358.238
 205.379 359.281 206.422 360.566 206.422 c 361.855 206.422 362.898 205.379
 362.898 204.09 c 362.898 202.805 361.855 201.762 360.566 201.762 c h
360.566 201.762 m f
368.363 208.992 m 367.078 208.992 366.035 210.035 366.035 211.32 c 366.035
 212.609 367.078 213.652 368.363 213.652 c 369.652 213.652 370.695 212.609
 370.695 211.32 c 370.695 210.035 369.652 208.992 368.363 208.992 c h
368.363 208.992 m f
360.566 216.785 m 359.281 216.785 358.238 217.828 358.238 219.117 c 358.238
 220.402 359.281 221.445 360.566 221.445 c 361.855 221.445 362.898 220.402
 362.898 219.117 c 362.898 217.828 361.855 216.785 360.566 216.785 c h
360.566 216.785 m f
370.695 226.348 m 370.695 225.059 369.652 224.016 368.363 224.016 c 367.078
 224.016 366.035 225.059 366.035 226.348 c 366.035 227.633 367.078 228.676
 368.363 228.676 c 369.652 228.676 370.695 227.633 370.695 226.348 c h
370.695 226.348 m f
360.566 231.809 m 359.281 231.809 358.238 232.855 358.238 234.141 c 358.238
 235.426 359.281 236.473 360.566 236.473 c 361.855 236.473 362.898 235.426
 362.898 234.141 c 362.898 232.855 361.855 231.809 360.566 231.809 c h
360.566 231.809 m f
353.34 193.965 m 352.051 193.965 351.008 195.008 351.008 196.297 c 351.008
 197.582 352.051 198.625 353.34 198.625 c 354.625 198.625 355.668 197.582
 355.668 196.297 c 355.668 195.008 354.625 193.965 353.34 193.965 c h
353.34 193.965 m f
345.543 201.762 m 344.258 201.762 343.211 202.805 343.211 204.09 c 343.211
 205.379 344.258 206.422 345.543 206.422 c 346.828 206.422 347.875 205.379
 347.875 204.09 c 347.875 202.805 346.832 201.762 345.543 201.762 c h
345.543 201.762 m f
353.34 208.992 m 352.051 208.992 351.008 210.035 351.008 211.32 c 351.008
 212.609 352.051 213.652 353.34 213.652 c 354.625 213.652 355.668 212.609
 355.668 211.32 c 355.668 210.035 354.625 208.992 353.34 208.992 c h
353.34 208.992 m f
345.543 216.785 m 344.258 216.785 343.211 217.828 343.211 219.117 c 343.211
 220.402 344.258 221.445 345.543 221.445 c 346.828 221.445 347.875 220.402
 347.875 219.117 c 347.875 217.828 346.832 216.785 345.543 216.785 c h
345.543 216.785 m f
353.34 224.016 m 352.051 224.016 351.008 225.059 351.008 226.348 c 351.008
 227.633 352.051 228.676 353.34 228.676 c 354.625 228.676 355.668 227.633
 355.668 226.348 c 355.668 225.059 354.625 224.016 353.34 224.016 c h
353.34 224.016 m f
345.543 231.809 m 344.258 231.809 343.211 232.855 343.211 234.141 c 343.211
 235.426 344.258 236.473 345.543 236.473 c 346.828 236.473 347.875 235.426
 347.875 234.141 c 347.875 232.855 346.832 231.809 345.543 231.809 c h
345.543 231.809 m f
353.34 239.039 m 352.051 239.039 351.008 240.082 351.008 241.371 c 351.008
 242.086 351.336 242.715 351.84 243.141 c 353.152 242.695 354.41 242.227
 355.633 241.742 c 355.652 241.621 355.668 241.496 355.668 241.371 c 355.668
 240.082 354.625 239.039 353.34 239.039 c h
353.34 239.039 m f
332.77 204.66 m 331.617 205.117 330.418 205.559 329.172 205.988 c 329.555
 206.258 330.016 206.422 330.52 206.422 c 331.609 206.422 332.516 205.672
 332.77 204.66 c h
332.77 204.66 m f
338.312 208.992 m 337.027 208.992 335.984 210.035 335.984 211.32 c 335.984
 212.609 337.027 213.652 338.312 213.652 c 339.602 213.652 340.645 212.609
 340.645 211.32 c 340.645 210.035 339.602 208.992 338.312 208.992 c h
338.312 208.992 m f
330.52 216.785 m 329.23 216.785 328.188 217.828 328.188 219.117 c 328.188
 220.402 329.23 221.445 330.52 221.445 c 331.805 221.445 332.848 220.402
 332.848 219.117 c 332.848 217.828 331.805 216.785 330.52 216.785 c h
330.52 216.785 m f
338.312 224.016 m 337.027 224.016 335.984 225.059 335.984 226.348 c 335.984
 227.633 337.027 228.676 338.312 228.676 c 339.602 228.676 340.645 227.633
 340.645 226.348 c 340.645 225.059 339.602 224.016 338.312 224.016 c h
338.312 224.016 m f
330.52 231.809 m 329.23 231.809 328.188 232.855 328.188 234.141 c 328.188
 235.426 329.23 236.473 330.52 236.473 c 331.805 236.473 332.848 235.426
 332.848 234.141 c 332.848 232.855 331.805 231.809 330.52 231.809 c h
330.52 231.809 m f
338.312 239.039 m 337.027 239.039 335.984 240.082 335.984 241.371 c 335.984
 242.66 337.027 243.699 338.312 243.699 c 339.602 243.699 340.645 242.656
 340.645 241.371 c 340.645 240.082 339.602 239.039 338.312 239.039 c h
338.312 239.039 m f
330.52 246.836 m 329.383 246.836 328.438 247.648 328.23 248.723 c 329.691
 248.488 331.117 248.238 332.516 247.984 c 332.109 247.301 331.371 246.836
 330.52 246.836 c h
330.52 246.836 m f
323.289 208.992 m 322 208.992 320.957 210.035 320.957 211.32 c 320.957 
212.609 322 213.652 323.289 213.652 c 324.574 213.652 325.621 212.609 325.621
 211.32 c 325.621 210.035 324.574 208.992 323.289 208.992 c h
323.289 208.992 m f
315.492 216.785 m 314.207 216.785 313.164 217.828 313.164 219.117 c 313.164
 220.402 314.207 221.445 315.492 221.445 c 316.781 221.445 317.824 220.402
 317.824 219.117 c 317.824 217.828 316.781 216.785 315.492 216.785 c h
315.492 216.785 m f
323.289 224.016 m 322 224.016 320.957 225.059 320.957 226.348 c 320.957
 227.633 322 228.676 323.289 228.676 c 324.574 228.676 325.621 227.633 325.621
 226.348 c 325.621 225.059 324.574 224.016 323.289 224.016 c h
323.289 224.016 m f
315.492 231.809 m 314.207 231.809 313.164 232.855 313.164 234.141 c 313.164
 235.426 314.207 236.473 315.492 236.473 c 316.781 236.473 317.824 235.426
 317.824 234.141 c 317.824 232.855 316.781 231.809 315.492 231.809 c h
315.492 231.809 m f
323.289 239.039 m 322 239.039 320.957 240.082 320.957 241.371 c 320.957
 242.66 322 243.699 323.289 243.699 c 324.574 243.699 325.621 242.656 325.621
 241.371 c 325.621 240.082 324.574 239.039 323.289 239.039 c h
323.289 239.039 m f
315.492 246.836 m 314.207 246.836 313.164 247.879 313.164 249.164 c 313.164
 249.727 313.371 250.238 313.703 250.641 c 315.008 250.5 316.301 250.355
 317.57 250.203 c 317.727 249.891 317.824 249.539 317.824 249.164 c 317.824
 247.879 316.781 246.836 315.492 246.836 c h
315.492 246.836 m f
308.266 213.652 m 309.551 213.652 310.594 212.609 310.594 211.32 c 310.594
 211.176 310.578 211.035 310.551 210.898 c 309.055 211.207 307.531 211.5
 305.98 211.785 c 306.195 212.848 307.137 213.652 308.266 213.652 c h
308.266 213.652 m f
300.469 216.785 m 299.18 216.785 298.137 217.828 298.137 219.117 c 298.137
 220.402 299.18 221.445 300.469 221.445 c 301.754 221.445 302.797 220.402
 302.797 219.117 c 302.797 217.828 301.758 216.785 300.469 216.785 c h
300.469 216.785 m f
308.266 224.016 m 306.977 224.016 305.934 225.059 305.934 226.348 c 305.934
 227.633 306.977 228.676 308.266 228.676 c 309.551 228.676 310.594 227.633
 310.594 226.348 c 310.594 225.059 309.551 224.016 308.266 224.016 c h
308.266 224.016 m f
300.469 231.809 m 299.18 231.809 298.137 232.855 298.137 234.141 c 298.137
 235.426 299.18 236.473 300.469 236.473 c 301.754 236.473 302.797 235.426
 302.797 234.141 c 302.797 232.855 301.758 231.809 300.469 231.809 c h
300.469 231.809 m f
308.266 239.039 m 306.977 239.039 305.934 240.082 305.934 241.371 c 305.934
 242.66 306.977 243.699 308.266 243.699 c 309.551 243.699 310.594 242.656
 310.594 241.371 c 310.594 240.082 309.551 239.039 308.266 239.039 c h
308.266 239.039 m f
300.469 246.836 m 299.18 246.836 298.137 247.879 298.137 249.164 c 298.137
 250.453 299.18 251.496 300.469 251.496 c 301.754 251.496 302.797 250.453
 302.797 249.164 c 302.797 247.879 301.758 246.836 300.469 246.836 c h
300.469 246.836 m f
285.441 216.785 m 284.156 216.785 283.113 217.828 283.113 219.117 c 283.113
 220.402 284.156 221.445 285.441 221.445 c 286.73 221.445 287.773 220.402
 287.773 219.117 c 287.773 217.828 286.73 216.785 285.441 216.785 c h
285.441 216.785 m f
293.238 224.016 m 291.953 224.016 290.91 225.059 290.91 226.348 c 290.91
 227.633 291.953 228.676 293.238 228.676 c 294.527 228.676 295.57 227.633
 295.57 226.348 c 295.57 225.059 294.527 224.016 293.238 224.016 c h
293.238 224.016 m f
285.441 231.809 m 284.156 231.809 283.113 232.855 283.113 234.141 c 283.113
 235.426 284.156 236.473 285.441 236.473 c 286.73 236.473 287.773 235.426
 287.773 234.141 c 287.773 232.855 286.73 231.809 285.441 231.809 c h
285.441 231.809 m f
293.238 239.039 m 291.953 239.039 290.91 240.082 290.91 241.371 c 290.91
 242.66 291.953 243.699 293.238 243.699 c 294.527 243.699 295.57 242.656
 295.57 241.371 c 295.57 240.082 294.527 239.039 293.238 239.039 c h
293.238 239.039 m f
285.441 246.836 m 284.156 246.836 283.113 247.879 283.113 249.164 c 283.113
 250.453 284.156 251.496 285.441 251.496 c 286.73 251.496 287.773 250.453
 287.773 249.164 c 287.773 247.879 286.73 246.836 285.441 246.836 c h
285.441 246.836 m f
270.418 216.785 m 269.133 216.785 268.09 217.828 268.09 219.117 c 268.09
 220.402 269.133 221.445 270.418 221.445 c 271.707 221.445 272.75 220.402
 272.75 219.117 c 272.75 217.828 271.707 216.785 270.418 216.785 c h
270.418 216.785 m f
278.215 224.016 m 276.926 224.016 275.883 225.059 275.883 226.348 c 275.883
 227.633 276.926 228.676 278.215 228.676 c 279.5 228.676 280.543 227.633
 280.543 226.348 c 280.543 225.059 279.5 224.016 278.215 224.016 c h
278.215 224.016 m f
270.418 231.809 m 269.133 231.809 268.09 232.855 268.09 234.141 c 268.09
 235.426 269.133 236.473 270.418 236.473 c 271.707 236.473 272.75 235.426
 272.75 234.141 c 272.75 232.855 271.707 231.809 270.418 231.809 c h
270.418 231.809 m f
278.215 239.039 m 276.926 239.039 275.883 240.082 275.883 241.371 c 275.883
 242.66 276.926 243.699 278.215 243.699 c 279.5 243.699 280.543 242.656 
280.543 241.371 c 280.543 240.082 279.5 239.039 278.215 239.039 c h
278.215 239.039 m f
270.418 246.836 m 269.133 246.836 268.09 247.879 268.09 249.164 c 268.09
 250.453 269.133 251.496 270.418 251.496 c 271.707 251.496 272.75 250.453
 272.75 249.164 c 272.75 247.879 271.707 246.836 270.418 246.836 c h
270.418 246.836 m f
255.395 221.445 m 256.68 221.445 257.723 220.402 257.723 219.117 c 257.723
 218.418 257.41 217.797 256.918 217.367 c 255.836 217.438 254.746 217.508
 253.656 217.574 c 253.293 217.984 253.062 218.523 253.062 219.117 c 253.062
 220.402 254.105 221.445 255.395 221.445 c h
255.395 221.445 m f
263.188 224.016 m 261.902 224.016 260.859 225.059 260.859 226.348 c 260.859
 227.633 261.902 228.676 263.188 228.676 c 264.477 228.676 265.52 227.633
 265.52 226.348 c 265.52 225.059 264.477 224.016 263.188 224.016 c h
263.188 224.016 m f
255.395 231.809 m 254.105 231.809 253.062 232.855 253.062 234.141 c 253.062
 235.426 254.105 236.473 255.395 236.473 c 256.68 236.473 257.723 235.426
 257.723 234.141 c 257.723 232.855 256.68 231.809 255.395 231.809 c h
255.395 231.809 m f
263.188 239.039 m 261.902 239.039 260.859 240.082 260.859 241.371 c 260.859
 242.66 261.902 243.699 263.188 243.699 c 264.477 243.699 265.52 242.656
 265.52 241.371 c 265.52 240.082 264.477 239.039 263.188 239.039 c h
263.188 239.039 m f
255.395 246.836 m 254.105 246.836 253.062 247.879 253.062 249.164 c 253.062
 250.453 254.105 251.496 255.395 251.496 c 256.68 251.496 257.723 250.453
 257.723 249.164 c 257.723 247.879 256.68 246.836 255.395 246.836 c h
255.395 246.836 m f
240.367 221.445 m 241.656 221.445 242.699 220.402 242.699 219.117 c 242.699
 218.777 242.625 218.461 242.492 218.168 c 241.055 218.234 239.613 218.297
 238.176 218.359 c 238.094 218.598 238.039 218.848 238.039 219.117 c 238.039
 220.402 239.082 221.445 240.367 221.445 c h
240.367 221.445 m f
248.164 224.016 m 246.879 224.016 245.832 225.059 245.832 226.348 c 245.832
 227.633 246.879 228.676 248.164 228.676 c 249.449 228.676 250.496 227.633
 250.496 226.348 c 250.496 225.059 249.449 224.016 248.164 224.016 c h
248.164 224.016 m f
240.367 231.809 m 239.082 231.809 238.039 232.855 238.039 234.141 c 238.039
 235.426 239.082 236.473 240.367 236.473 c 241.656 236.473 242.699 235.426
 242.699 234.141 c 242.699 232.855 241.656 231.809 240.367 231.809 c h
240.367 231.809 m f
248.164 239.039 m 246.879 239.039 245.832 240.082 245.832 241.371 c 245.832
 242.66 246.879 243.699 248.164 243.699 c 249.449 243.699 250.496 242.656
 250.496 241.371 c 250.496 240.082 249.449 239.039 248.164 239.039 c h
248.164 239.039 m f
240.367 246.836 m 239.082 246.836 238.039 247.879 238.039 249.164 c 238.039
 250.453 239.082 251.496 240.367 251.496 c 241.656 251.496 242.699 250.453
 242.699 249.164 c 242.699 247.879 241.656 246.836 240.367 246.836 c h
240.367 246.836 m f
225.344 221.445 m 226.629 221.445 227.676 220.402 227.676 219.117 c 227.676
 218.984 227.656 218.859 227.637 218.734 c 226.102 218.781 224.57 218.824
 223.039 218.863 c 223.027 218.949 223.012 219.031 223.012 219.117 c 223.012
 220.402 224.059 221.445 225.344 221.445 c h
225.344 221.445 m f
233.141 224.016 m 231.852 224.016 230.809 225.059 230.809 226.348 c 230.809
 227.633 231.852 228.676 233.141 228.676 c 234.426 228.676 235.469 227.633
 235.469 226.348 c 235.469 225.059 234.426 224.016 233.141 224.016 c h
233.141 224.016 m f
225.344 231.809 m 224.059 231.809 223.012 232.855 223.012 234.141 c 223.012
 235.426 224.059 236.473 225.344 236.473 c 226.629 236.473 227.676 235.426
 227.676 234.141 c 227.676 232.855 226.633 231.809 225.344 231.809 c h
225.344 231.809 m f
233.141 239.039 m 231.852 239.039 230.809 240.082 230.809 241.371 c 230.809
 242.66 231.852 243.699 233.141 243.699 c 234.426 243.699 235.469 242.656
 235.469 241.371 c 235.469 240.082 234.426 239.039 233.141 239.039 c h
233.141 239.039 m f
225.344 246.836 m 224.059 246.836 223.012 247.879 223.012 249.164 c 223.012
 250.453 224.059 251.496 225.344 251.496 c 226.629 251.496 227.676 250.453
 227.676 249.164 c 227.676 247.879 226.633 246.836 225.344 246.836 c h
225.344 246.836 m f
210.32 221.445 m 211.605 221.445 212.648 220.402 212.648 219.117 c 212.648
 219.105 212.645 219.094 212.645 219.078 c 211.09 219.105 209.535 219.129
 207.992 219.145 c 208.008 220.418 209.043 221.445 210.32 221.445 c h
210.32 221.445 m f
218.113 224.016 m 216.828 224.016 215.785 225.059 215.785 226.348 c 215.785
 227.633 216.828 228.676 218.113 228.676 c 219.402 228.676 220.445 227.633
 220.445 226.348 c 220.445 225.059 219.402 224.016 218.113 224.016 c h
218.113 224.016 m f
210.32 231.809 m 209.031 231.809 207.988 232.855 207.988 234.141 c 207.988
 235.426 209.031 236.473 210.32 236.473 c 211.605 236.473 212.648 235.426
 212.648 234.141 c 212.648 232.855 211.605 231.809 210.32 231.809 c h
210.32 231.809 m f
218.113 239.039 m 216.828 239.039 215.785 240.082 215.785 241.371 c 215.785
 242.66 216.828 243.699 218.113 243.699 c 219.402 243.699 220.445 242.656
 220.445 241.371 c 220.445 240.082 219.402 239.039 218.113 239.039 c h
218.113 239.039 m f
210.32 246.836 m 209.031 246.836 207.988 247.879 207.988 249.164 c 207.988
 250.453 209.031 251.496 210.32 251.496 c 211.605 251.496 212.648 250.453
 212.648 249.164 c 212.648 247.879 211.605 246.836 210.32 246.836 c h
210.32 246.836 m f
195.293 221.445 m 196.543 221.445 197.551 220.465 197.613 219.23 c 196.055
 219.234 194.512 219.238 192.977 219.238 c 193.043 220.469 194.051 221.445
 195.293 221.445 c h
195.293 221.445 m f
203.09 224.016 m 201.801 224.016 200.758 225.059 200.758 226.348 c 200.758
 227.633 201.801 228.676 203.09 228.676 c 204.375 228.676 205.418 227.633
 205.418 226.348 c 205.418 225.059 204.375 224.016 203.09 224.016 c h
203.09 224.016 m f
195.293 231.809 m 194.008 231.809 192.965 232.855 192.965 234.141 c 192.965
 235.426 194.008 236.473 195.293 236.473 c 196.582 236.473 197.625 235.426
 197.625 234.141 c 197.625 232.855 196.582 231.809 195.293 231.809 c h
195.293 231.809 m f
203.09 239.039 m 201.801 239.039 200.758 240.082 200.758 241.371 c 200.758
 242.66 201.801 243.699 203.09 243.699 c 204.375 243.699 205.418 242.656
 205.418 241.371 c 205.418 240.082 204.375 239.039 203.09 239.039 c h
203.09 239.039 m f
195.293 251.496 m 196.582 251.496 197.625 250.453 197.625 249.168 c 197.625
 247.879 196.582 246.836 195.293 246.836 c 194.008 246.836 192.965 247.879
 192.965 249.168 c 192.965 250.453 194.008 251.496 195.293 251.496 c h
195.293 251.496 m f
180.27 221.445 m 181.523 221.445 182.543 220.449 182.59 219.207 c 181.023
 219.195 179.477 219.18 177.941 219.168 c 177.973 220.43 179 221.445 180.27
 221.445 c h
180.27 221.445 m f
188.066 224.016 m 186.777 224.016 185.734 225.059 185.734 226.348 c 185.734
 227.633 186.777 228.676 188.066 228.676 c 189.352 228.676 190.395 227.633
 190.395 226.348 c 190.395 225.059 189.352 224.016 188.066 224.016 c h
188.066 224.016 m f
180.27 231.809 m 178.98 231.809 177.938 232.855 177.938 234.141 c 177.938
 235.426 178.98 236.473 180.27 236.473 c 181.555 236.473 182.598 235.426
 182.598 234.141 c 182.598 232.855 181.555 231.809 180.27 231.809 c h
180.27 231.809 m f
188.066 239.039 m 186.777 239.039 185.734 240.082 185.734 241.371 c 185.734
 242.66 186.777 243.699 188.066 243.699 c 189.352 243.699 190.395 242.656
 190.395 241.371 c 190.395 240.082 189.352 239.039 188.066 239.039 c h
188.066 239.039 m f
180.27 246.836 m 178.98 246.836 177.938 247.879 177.938 249.164 c 177.938
 250.453 178.98 251.496 180.27 251.496 c 181.555 251.496 182.598 250.453
 182.598 249.164 c 182.598 247.879 181.555 246.836 180.27 246.836 c h
180.27 246.836 m f
165.242 221.445 m 166.531 221.445 167.574 220.402 167.574 219.117 c 167.574
 219.086 167.566 219.055 167.566 219.023 c 165.996 218.996 164.449 218.969
 162.934 218.938 c 162.926 218.996 162.914 219.055 162.914 219.117 c 162.914
 220.402 163.957 221.445 165.242 221.445 c h
165.242 221.445 m f
173.039 224.016 m 171.754 224.016 170.711 225.059 170.711 226.348 c 170.711
 227.633 171.754 228.676 173.039 228.676 c 174.328 228.676 175.371 227.633
 175.371 226.348 c 175.371 225.059 174.328 224.016 173.039 224.016 c h
173.039 224.016 m f
165.242 231.809 m 163.957 231.809 162.914 232.855 162.914 234.141 c 162.914
 235.426 163.957 236.473 165.242 236.473 c 166.531 236.473 167.574 235.426
 167.574 234.141 c 167.574 232.855 166.531 231.809 165.242 231.809 c h
165.242 231.809 m f
173.039 239.039 m 171.754 239.039 170.711 240.082 170.711 241.371 c 170.711
 242.66 171.754 243.699 173.039 243.699 c 174.328 243.699 175.371 242.656
 175.371 241.371 c 175.371 240.082 174.328 239.039 173.039 239.039 c h
173.039 239.039 m f
165.242 246.836 m 163.957 246.836 162.914 247.879 162.914 249.164 c 162.914
 250.453 163.957 251.496 165.242 251.496 c 166.531 251.496 167.574 250.453
 167.574 249.164 c 167.574 247.879 166.531 246.836 165.242 246.836 c h
165.242 246.836 m f
147.891 219.117 m 147.891 220.402 148.934 221.445 150.219 221.445 c 151.508
 221.445 152.551 220.402 152.551 219.117 c 152.551 218.973 152.531 218.828
 152.508 218.691 c 150.949 218.648 149.434 218.605 147.961 218.562 c 147.918
 218.742 147.891 218.926 147.891 219.117 c h
147.891 219.117 m f
155.684 226.348 m 155.684 227.633 156.727 228.676 158.016 228.676 c 159.301
 228.676 160.344 227.633 160.344 226.348 c 160.344 225.059 159.301 224.016
 158.016 224.016 c 156.727 224.016 155.684 225.059 155.684 226.348 c h
155.684 226.348 m f
150.219 231.809 m 148.934 231.809 147.891 232.855 147.891 234.141 c 147.891
 235.426 148.934 236.473 150.219 236.473 c 151.508 236.473 152.551 235.426
 152.551 234.141 c 152.551 232.855 151.508 231.809 150.219 231.809 c h
150.219 231.809 m f
158.016 243.699 m 159.301 243.699 160.344 242.656 160.344 241.371 c 160.344
 240.082 159.301 239.039 158.016 239.039 c 156.727 239.039 155.684 240.082
 155.684 241.371 c 155.684 242.66 156.727 243.699 158.016 243.699 c h
158.016 243.699 m f
150.219 246.836 m 148.934 246.836 147.891 247.879 147.891 249.164 c 147.891
 250.453 148.934 251.496 150.219 251.496 c 151.508 251.496 152.551 250.453
 152.551 249.164 c 152.551 247.879 151.508 246.836 150.219 246.836 c h
150.219 246.836 m f
135.195 221.445 m 136.48 221.445 137.523 220.402 137.523 219.117 c 137.523
 218.793 137.461 218.488 137.34 218.207 c 135.859 218.152 134.457 218.098
 133.137 218.047 c 132.969 218.367 132.863 218.727 132.863 219.117 c 132.863
 220.402 133.906 221.445 135.195 221.445 c h
135.195 221.445 m f
142.988 224.016 m 141.703 224.016 140.66 225.059 140.66 226.348 c 140.66
 227.633 141.703 228.676 142.988 228.676 c 144.277 228.676 145.32 227.633
 145.32 226.348 c 145.32 225.059 144.277 224.016 142.988 224.016 c h
142.988 224.016 m f
135.195 231.809 m 133.906 231.809 132.863 232.855 132.863 234.141 c 132.863
 235.426 133.906 236.473 135.195 236.473 c 136.48 236.473 137.523 235.426
 137.523 234.141 c 137.523 232.855 136.48 231.809 135.195 231.809 c h
135.195 231.809 m f
142.988 239.039 m 141.703 239.039 140.66 240.082 140.66 241.371 c 140.66
 242.66 141.703 243.699 142.988 243.699 c 144.277 243.699 145.32 242.656
 145.32 241.371 c 145.32 240.082 144.277 239.039 142.988 239.039 c h
142.988 239.039 m f
135.195 246.836 m 133.906 246.836 132.863 247.879 132.863 249.164 c 132.863
 250.453 133.906 251.496 135.195 251.496 c 136.48 251.496 137.523 250.453
 137.523 249.164 c 137.523 247.879 136.48 246.836 135.195 246.836 c h
135.195 246.836 m f
117.84 219.117 m 117.84 220.402 118.883 221.445 120.168 221.445 c 121.457
 221.445 122.5 220.402 122.5 219.117 c 122.5 218.508 122.262 217.957 121.879
 217.543 c 120.09 217.453 119.129 217.398 119.129 217.398 c 119.129 217.398
 118.941 217.402 118.59 217.41 c 118.133 217.836 117.84 218.441 117.84 219.117
 c h
117.84 219.117 m f
127.965 224.016 m 126.68 224.016 125.633 225.059 125.633 226.348 c 125.633
 227.633 126.68 228.676 127.965 228.676 c 129.25 228.676 130.297 227.633
 130.297 226.348 c 130.297 225.059 129.25 224.016 127.965 224.016 c h
127.965 224.016 m f
120.168 231.809 m 118.883 231.809 117.84 232.855 117.84 234.141 c 117.84
 235.426 118.883 236.473 120.168 236.473 c 121.457 236.473 122.5 235.426
 122.5 234.141 c 122.5 232.855 121.457 231.809 120.168 231.809 c h
120.168 231.809 m f
127.965 239.039 m 126.68 239.039 125.633 240.082 125.633 241.371 c 125.633
 242.66 126.68 243.699 127.965 243.699 c 129.25 243.699 130.297 242.656 
130.297 241.371 c 130.297 240.082 129.25 239.039 127.965 239.039 c h
127.965 239.039 m f
120.168 246.836 m 118.883 246.836 117.84 247.879 117.84 249.164 c 117.84
 250.453 118.883 251.496 120.168 251.496 c 121.457 251.496 122.5 250.453
 122.5 249.164 c 122.5 247.879 121.457 246.836 120.168 246.836 c h
120.168 246.836 m f
105.145 221.445 m 106.43 221.445 107.477 220.402 107.477 219.117 c 107.477
 218.543 107.262 218.023 106.918 217.621 c 105.781 217.637 104.578 217.656
 103.324 217.676 c 103.012 218.074 102.812 218.57 102.812 219.117 c 102.812
 220.402 103.859 221.445 105.145 221.445 c h
105.145 221.445 m f
112.941 224.016 m 111.652 224.016 110.609 225.059 110.609 226.348 c 110.609
 227.633 111.652 228.676 112.941 228.676 c 114.227 228.676 115.27 227.633
 115.27 226.348 c 115.27 225.059 114.227 224.016 112.941 224.016 c h
112.941 224.016 m f
105.145 231.809 m 103.859 231.809 102.812 232.855 102.812 234.141 c 102.812
 235.426 103.859 236.473 105.145 236.473 c 106.43 236.473 107.477 235.426
 107.477 234.141 c 107.477 232.855 106.434 231.809 105.145 231.809 c h
105.145 231.809 m f
112.941 239.039 m 111.652 239.039 110.609 240.082 110.609 241.371 c 110.609
 242.66 111.652 243.699 112.941 243.699 c 114.227 243.699 115.27 242.656
 115.27 241.371 c 115.27 240.082 114.227 239.039 112.941 239.039 c h
112.941 239.039 m f
105.145 246.836 m 103.859 246.836 102.812 247.879 102.812 249.164 c 102.812
 250.453 103.859 251.496 105.145 251.496 c 106.43 251.496 107.477 250.453
 107.477 249.164 c 107.477 247.879 106.434 246.836 105.145 246.836 c h
105.145 246.836 m f
90.121 221.445 m 91.406 221.445 92.449 220.402 92.449 219.117 c 92.449 
218.645 92.309 218.203 92.062 217.836 c 90.781 217.855 89.477 217.871 88.148
 217.887 c 87.922 218.242 87.789 218.664 87.789 219.117 c 87.789 220.402
 88.832 221.445 90.121 221.445 c h
90.121 221.445 m f
97.914 224.016 m 96.629 224.016 95.586 225.059 95.586 226.348 c 95.586 
227.633 96.629 228.676 97.914 228.676 c 99.203 228.676 100.246 227.633 100.246
 226.348 c 100.246 225.059 99.203 224.016 97.914 224.016 c h
97.914 224.016 m f
90.121 231.809 m 88.832 231.809 87.789 232.855 87.789 234.141 c 87.789 
235.426 88.832 236.473 90.121 236.473 c 91.406 236.473 92.449 235.426 92.449
 234.141 c 92.449 232.855 91.406 231.809 90.121 231.809 c h
90.121 231.809 m f
97.914 239.039 m 96.629 239.039 95.586 240.082 95.586 241.371 c 95.586 
242.66 96.629 243.699 97.914 243.699 c 99.203 243.699 100.246 242.656 100.246
 241.371 c 100.246 240.082 99.203 239.039 97.914 239.039 c h
97.914 239.039 m f
90.121 246.836 m 88.832 246.836 87.789 247.879 87.789 249.164 c 87.789 
250.453 88.832 251.496 90.121 251.496 c 91.406 251.496 92.449 250.453 92.449
 249.164 c 92.449 247.879 91.406 246.836 90.121 246.836 c h
90.121 246.836 m f
75.094 221.445 m 76.383 221.445 77.426 220.402 77.426 219.117 c 77.426 
218.711 77.312 218.332 77.129 218 c 75.77 218.012 74.41 218.023 73.043 218.031
 c 72.871 218.355 72.762 218.723 72.762 219.117 c 72.766 220.402 73.809 
221.445 75.094 221.445 c h
75.094 221.445 m f
82.891 224.016 m 81.602 224.016 80.559 225.059 80.559 226.348 c 80.559 
227.633 81.602 228.676 82.891 228.676 c 84.176 228.676 85.219 227.633 85.219
 226.348 c 85.219 225.059 84.176 224.016 82.891 224.016 c h
82.891 224.016 m f
75.094 231.809 m 73.809 231.809 72.766 232.855 72.766 234.141 c 72.766 
235.426 73.809 236.473 75.094 236.473 c 76.383 236.473 77.426 235.426 77.426
 234.141 c 77.426 232.855 76.383 231.809 75.094 231.809 c h
75.094 231.809 m f
82.891 239.039 m 81.602 239.039 80.559 240.082 80.559 241.371 c 80.559 
242.66 81.602 243.699 82.891 243.699 c 84.176 243.699 85.219 242.656 85.219
 241.371 c 85.219 240.082 84.176 239.039 82.891 239.039 c h
82.891 239.039 m f
75.094 246.836 m 73.809 246.836 72.766 247.879 72.766 249.164 c 72.766 
249.371 72.801 249.57 72.852 249.762 c 74.246 249.977 75.66 250.18 77.086
 250.363 c 77.297 250.012 77.426 249.605 77.426 249.164 c 77.426 247.879
 76.383 246.836 75.094 246.836 c h
75.094 246.836 m f
60.07 221.445 m 61.355 221.445 62.398 220.402 62.398 219.117 c 62.398 218.746
 62.305 218.398 62.152 218.086 c 60.75 218.09 59.359 218.094 57.984 218.094
 c 57.832 218.402 57.738 218.746 57.738 219.117 c 57.738 220.402 58.781 
221.445 60.07 221.445 c h
60.07 221.445 m f
67.867 224.016 m 66.578 224.016 65.535 225.059 65.535 226.348 c 65.535 
227.633 66.578 228.676 67.867 228.676 c 69.152 228.676 70.195 227.633 70.195
 226.348 c 70.195 225.059 69.152 224.016 67.867 224.016 c h
67.867 224.016 m f
60.07 236.473 m 61.355 236.473 62.398 235.43 62.398 234.141 c 62.398 232.855
 61.355 231.812 60.07 231.812 c 58.781 231.812 57.738 232.855 57.738 234.141
 c 57.738 235.43 58.781 236.473 60.07 236.473 c h
60.07 236.473 m f
67.867 239.039 m 66.578 239.039 65.535 240.082 65.535 241.371 c 65.535 
242.66 66.578 243.699 67.867 243.699 c 69.152 243.699 70.195 242.656 70.195
 241.371 c 70.195 240.082 69.152 239.039 67.867 239.039 c h
67.867 239.039 m f
60.07 246.836 m 59.836 246.836 59.617 246.879 59.406 246.945 c 60.18 247.156
 60.961 247.359 61.75 247.559 c 61.324 247.113 60.73 246.836 60.07 246.836
 c h
60.07 246.836 m f
45.043 221.445 m 46.332 221.445 47.375 220.402 47.375 219.117 c 47.375 
218.734 47.273 218.375 47.109 218.055 c 45.703 218.047 44.332 218.031 43.004
 218.016 c 42.824 218.344 42.715 218.715 42.715 219.117 c 42.715 220.402
 43.758 221.445 45.043 221.445 c h
45.043 221.445 m f
52.84 224.016 m 51.555 224.016 50.512 225.059 50.512 226.348 c 50.512 227.633
 51.555 228.676 52.84 228.676 c 54.129 228.676 55.172 227.633 55.172 226.348
 c 55.172 225.059 54.129 224.016 52.84 224.016 c h
52.84 224.016 m f
45.043 231.809 m 43.758 231.809 42.715 232.855 42.715 234.141 c 42.715 
235.426 43.758 236.473 45.043 236.473 c 46.332 236.473 47.375 235.426 47.375
 234.141 c 47.375 232.855 46.332 231.809 45.043 231.809 c h
45.043 231.809 m f
52.84 239.039 m 51.555 239.039 50.512 240.082 50.512 241.371 c 50.512 242.66
 51.555 243.699 52.84 243.699 c 54.129 243.699 55.172 242.656 55.172 241.371
 c 55.172 240.082 54.129 239.039 52.84 239.039 c h
52.84 239.039 m f
27.688 219.117 m 27.688 220.402 28.734 221.445 30.02 221.445 c 31.309 221.445
 32.352 220.402 32.352 219.117 c 32.352 218.613 32.188 218.148 31.914 217.766
 c 30.582 217.719 29.359 217.664 28.262 217.602 c 27.91 218.008 27.688 218.535
 27.688 219.117 c h
27.688 219.117 m f
37.816 228.676 m 39.102 228.676 40.145 227.633 40.145 226.348 c 40.145 
225.059 39.102 224.016 37.816 224.016 c 36.527 224.016 35.484 225.059 35.484
 226.348 c 35.484 227.633 36.527 228.676 37.816 228.676 c h
37.816 228.676 m f
0.913725 0.760784 0.470588 rg
377.402 226.656 m 281.887 251.059 195.434 237.812 189.855 239.902 c 184.277
 241.996 169.895 254.195 170.855 257.824 c 170.996 258.352 182.469 258.57
 202.645 258.934 c 204.738 271.5 l 205.223 274.395 208.191 276.547 211.699
 276.547 c 217.59 276.547 l 221.098 276.547 224.066 274.395 224.551 271.5
 c 226.57 259.375 l 235.32 259.551 244.965 259.758 255.395 260.016 c 257.309
 271.5 l 257.793 274.395 260.762 276.551 264.273 276.551 c 270.16 276.551
 l 273.668 276.551 276.641 274.395 277.121 271.5 c 279.031 260.043 l 288.688
 259.719 297.789 258.984 306.219 257.996 c 308.469 271.5 l 308.953 274.395
 311.922 276.551 315.43 276.551 c 321.32 276.551 l 324.828 276.551 327.797
 274.395 328.281 271.5 c 330.926 255.645 l 322.523 255.645 l 344.375 251.902
 359.727 246.805 365.551 244.086 c 376.008 239.207 381.73 225.551 377.402
 226.656 c h
377.402 226.656 m f
0.192157 0.215686 0.239216 rg
381.113 224.758 m 382.848 220.973 383.875 216.688 383.996 211.801 c 384.438
 193.617 355.324 184.074 315.023 170.871 c 309.758 169.148 304.301 167.359
 298.691 165.48 c 287.156 161.621 275.258 157.164 262.66 152.445 c 234.387
 141.859 202.34 129.859 162.133 119.973 c 156.379 118.559 149.867 115.359
 143.566 112.266 c 136.016 108.559 128.883 105.055 122.602 104.238 c 112.094
 102.871 108.414 113.957 104.527 125.691 c 100.145 138.934 95.18 153.938
 80.633 157.574 c 56.695 163.559 49.684 150.332 43.496 138.664 c 39.879 
131.844 36.465 125.402 29.762 125.359 c 29.73 125.359 29.695 125.359 29.664
 125.359 c 18.832 125.359 16.699 137.066 14.82 147.398 c 14.004 151.879 
13.16 156.516 11.73 160.449 c 3.379 183.457 2.133 204.898 2.133 215.637 
c 2.133 216.816 2.188 217.969 2.289 219.102 c 0.617 220.117 -0.223 221.758
 0.051 223.496 c 2.289 237.746 28.043 253.992 38.316 257.039 c 38.664 257.141
 39.051 257.242 39.461 257.34 c 41.91 272.047 l 42.668 276.586 46.977 279.875
 52.156 279.875 c 58.043 279.875 l 63.223 279.875 67.531 276.586 68.285 
272.047 c 70.227 260.414 l 73.043 260.559 75.977 260.688 79.004 260.809 
c 80.875 272.047 l 81.633 276.586 85.941 279.875 91.121 279.875 c 97.008
 279.875 l 102.188 279.875 106.496 276.586 107.25 272.047 c 108.988 261.641
 l 127.293 261.98 146.273 262.078 162.367 262.078 c 165.828 262.078 169.152
 262.074 172.309 262.066 c 173.574 262.062 174.371 262.062 174.617 262.062
 c 174.707 262.062 174.797 262.062 174.891 262.062 c 176.16 262.148 177.613
 262.219 179.285 262.277 c 184.375 262.469 191.309 262.547 199.883 262.613
 c 201.457 272.047 l 202.211 276.586 206.52 279.875 211.699 279.875 c 217.586
 279.875 l 222.766 279.875 227.074 276.586 227.832 272.047 c 229.359 262.883
 l 236.562 262.973 244.305 263.098 252.566 263.281 c 254.027 272.047 l 254.785
 276.582 259.094 279.875 264.27 279.875 c 270.16 279.875 l 275.336 279.875
 279.645 276.582 280.402 272.047 c 281.867 263.27 l 289.445 262.953 296.66
 262.395 303.457 261.664 c 305.188 272.047 l 305.941 276.582 310.25 279.875
 315.43 279.875 c 321.316 279.875 l 326.496 279.875 330.805 276.582 331.562
 272.047 c 334.098 256.828 l 350.738 253.309 362.258 249.293 366.957 247.102
 c 376.496 242.648 383.684 231.129 381.887 226.102 c 381.703 225.59 381.438
 225.141 381.113 224.758 c h
36.805 217.309 m 28.855 216.855 16.715 216.43 8.836 217.398 c 8.805 216.82
 8.785 216.234 8.785 215.637 c 8.785 211.836 8.949 206.633 9.559 200.473
 c 9.738 200.516 9.918 200.555 10.109 200.566 c 29.121 201.793 l 29.195 
201.797 29.266 201.801 29.34 201.801 c 31.078 201.801 32.543 200.449 32.656
 198.688 c 32.773 196.852 31.383 195.27 29.551 195.152 c 10.539 193.926 
l 10.469 193.922 10.406 193.934 10.34 193.934 c 10.848 190.281 11.512 186.398
 12.383 182.348 c 33.367 184.004 l 33.457 184.008 33.547 184.012 33.633 
184.012 c 35.352 184.012 36.809 182.691 36.945 180.949 c 37.09 179.117 35.723
 177.512 33.891 177.367 c 13.938 175.793 l 15.043 171.543 16.375 167.164
 17.984 162.719 c 19.605 158.258 20.504 153.344 21.367 148.59 c 23.418 137.332
 24.906 132.012 29.676 132.012 c 29.719 132.012 l 32.445 132.031 34.844 
136.547 37.617 141.781 c 42.844 151.637 50.305 165.715 69.695 165.715 c 
73.418 165.715 77.582 165.195 82.246 164.027 c 100.348 159.504 106.168 141.918
 110.844 127.781 c 114.461 116.867 116.926 110.207 121.746 110.836 c 126.934
 111.508 133.59 114.777 140.637 118.238 c 147.25 121.488 154.09 124.848 
160.547 126.434 c 185.727 132.625 207.715 139.668 227.59 146.672 c 194.691
 147.602 133.172 149.457 129.109 150.473 c 125.977 151.258 120.766 156.594
 105.652 173.336 c 99.254 180.422 90.488 190.129 88.484 191.246 c 86.445
 192.055 77.133 189.641 71.566 188.199 c 60.5 185.328 53.527 183.676 49.797
 185.75 c 43.922 189.016 38.938 207.98 36.805 217.309 c h
221.27 270.953 m 221.059 272.203 219.406 273.223 217.586 273.223 c 211.699
 273.223 l 209.879 273.223 208.23 272.203 208.02 270.953 c 206.641 262.664
 l 211.574 262.703 216.91 262.742 222.629 262.805 c h
273.84 270.953 m 273.629 272.203 271.98 273.223 270.16 273.223 c 264.273
 273.223 l 262.449 273.223 260.801 272.203 260.59 270.953 c 259.34 263.445
 l 259.391 263.445 259.441 263.445 259.492 263.449 c 262.383 263.523 265.234
 263.559 268.047 263.559 c 270.426 263.559 272.766 263.523 275.086 263.477
 c h
326.996 258.973 m 325 270.953 l 324.789 272.203 323.137 273.223 321.316
 273.223 c 315.43 273.223 l 313.609 273.223 311.961 272.203 311.75 270.953
 c 310.07 260.879 l 316.145 260.102 321.844 259.195 327.117 258.215 c h
364.145 241.07 m 351.945 246.762 310.352 258.098 259.664 256.797 c 238.324
 256.25 220.176 256.113 205.594 256.004 c 196.602 255.934 188.262 255.871
 182.035 255.707 c 182.758 254.789 183.566 253.742 184.465 252.543 c 188.207
 247.555 189.961 244.617 190.805 242.848 c 193.414 242.949 196.75 243.133
 200.191 243.32 c 230.555 244.992 300.98 248.871 374.508 230.812 c 372.809
 234.035 369.105 238.754 364.145 241.07 c h
377.344 211.637 m 377.23 216.277 376.094 220.418 373.887 224.109 c 300.973
 242.207 230.754 238.34 200.559 236.676 c 192.102 236.211 188.008 236.004
 185.707 236.191 c 181.438 235.816 173.086 235.621 156.051 235.582 c 139.047
 235.547 119.613 235.727 109.172 235.82 c 105.492 235.855 102.938 235.879
 102.008 235.879 c 96.887 235.879 76.176 226.828 70.539 222.602 c 67.059
 219.988 52.867 218.488 43.531 217.762 c 46.602 204.746 50.824 193.016 52.98
 191.594 c 55.016 190.781 64.332 193.195 69.898 194.641 c 80.965 197.508
 87.934 199.16 91.668 197.086 c 94.543 195.492 100.73 188.715 110.59 177.797
 c 117.594 170.039 128.125 158.375 130.832 156.914 c 136.441 156.031 201.617
 154.016 244.707 152.859 c 250.051 154.832 255.25 156.777 260.328 158.68
 c 272.98 163.418 284.934 167.895 296.578 171.793 c 302.199 173.672 307.672
 175.469 312.953 177.195 c 349.109 189.043 377.664 198.398 377.344 211.637
 c h
377.344 211.637 m f
0.917647 0.658824 0.584314 rg
215.926 204.91 m 192.008 204.91 l 148.926 170.875 l 172.848 170.875 l h
215.926 204.91 m f
267.441 201.23 m 243.523 201.23 l 200.445 167.195 l 224.363 167.195 l h
267.441 201.23 m f
Q Q
showpage
%%Trailer
end
%%EOF
