%!PS-Adobe-3.0 EPSF-3.0
%%Creator: cairo 1.16.0 (https://cairographics.org)
%%CreationDate: Wed Jul 15 13:24:34 2020
%%Pages: 1
%%DocumentData: Clean7Bit
%%LanguageLevel: 2
%%BoundingBox: 0 0 384 384
%%EndComments
%%BeginProlog
50 dict begin
/q { gsave } bind def
/Q { grestore } bind def
/cm { 6 array astore concat } bind def
/w { setlinewidth } bind def
/J { setlinecap } bind def
/j { setlinejoin } bind def
/M { setmiterlimit } bind def
/d { setdash } bind def
/m { moveto } bind def
/l { lineto } bind def
/c { curveto } bind def
/h { closepath } bind def
/re { exch dup neg 3 1 roll 5 3 roll moveto 0 rlineto
      0 exch rlineto 0 rlineto closepath } bind def
/S { stroke } bind def
/f { fill } bind def
/f* { eofill } bind def
/n { newpath } bind def
/W { clip } bind def
/W* { eoclip } bind def
/BT { } bind def
/ET { } bind def
/BDC { mark 3 1 roll /BDC pdfmark } bind def
/EMC { mark /EMC pdfmark } bind def
/cairo_store_point { /cairo_point_y exch def /cairo_point_x exch def } def
/Tj { show currentpoint cairo_store_point } bind def
/TJ {
  {
    dup
    type /stringtype eq
    { show } { -0.001 mul 0 cairo_font_matrix dtransform rmoveto } ifelse
  } forall
  currentpoint cairo_store_point
} bind def
/cairo_selectfont { cairo_font_matrix aload pop pop pop 0 0 6 array astore
    cairo_font exch selectfont cairo_point_x cairo_point_y moveto } bind def
/Tf { pop /cairo_font exch def /cairo_font_matrix where
      { pop cairo_selectfont } if } bind def
/Td { matrix translate cairo_font_matrix matrix concatmatrix dup
      /cairo_font_matrix exch def dup 4 get exch 5 get cairo_store_point
      /cairo_font where { pop cairo_selectfont } if } bind def
/Tm { 2 copy 8 2 roll 6 array astore /cairo_font_matrix exch def
      cairo_store_point /cairo_font where { pop cairo_selectfont } if } bind def
/g { setgray } bind def
/rg { setrgbcolor } bind def
/d1 { setcachedevice } bind def
/cairo_data_source {
  CairoDataIndex CairoData length lt
    { CairoData CairoDataIndex get /CairoDataIndex CairoDataIndex 1 add def }
    { () } ifelse
} def
/cairo_flush_ascii85_file { cairo_ascii85_file status { cairo_ascii85_file flushfile } if } def
/cairo_image { image cairo_flush_ascii85_file } def
/cairo_imagemask { imagemask cairo_flush_ascii85_file } def
%%EndProlog
%%BeginSetup
%%EndSetup
%%Page: 1 1
%%BeginPageSetup
%%PageBoundingBox: 0 0 384 384
%%EndPageSetup
q 0 0 384 384 rectclip
1 0 0 -1 0 384 cm q
0.913725 0.760784 0.470588 rg
356.348 3 m 313.66 3 l 312.473 3 311.328 3.207 310.254 3.574 c 73.746 3.574
 l 72.672 3.207 71.527 3 70.34 3 c 27.652 3 l 14.035 3 3 14.035 3 27.652
 c 3 62.688 l 3 84.445 11.398 104.977 26.652 120.492 c 41.883 135.988 62.227
 144.742 83.934 145.141 c 83.996 145.141 84.062 145.141 84.125 145.141 c
 84.816 145.141 85.492 145.062 86.148 144.93 c 99.113 186.047 122.734 222.863
 165.293 233.621 c 165.293 277.172 l 160.645 277.172 l 146.488 277.172 135.012
 288.648 135.012 302.805 c 135.012 314.559 l 248.73 314.559 l 248.73 302.805
 l 248.73 288.648 237.258 277.172 223.102 277.172 c 218.449 277.172 l 218.449
 233.602 l 260.98 222.812 284.559 185.977 297.484 144.852 c 298.254 145.039
 299.055 145.145 299.879 145.145 c 299.941 145.145 300.004 145.141 300.066
 145.141 c 321.773 144.742 342.117 135.988 357.348 120.496 c 372.602 104.977
 381 84.445 381 62.688 c 381 27.652 l 381 14.035 369.965 3 356.348 3 c h
23.25 62.688 m 23.25 31.828 l 23.25 27.09 27.09 23.25 31.828 23.25 c 70.629
 23.25 l 70.754 23.25 70.879 23.234 71.004 23.23 c 70.605 46.109 71.609 
85.746 80.652 124.711 c 48.68 122.227 23.25 95.141 23.25 62.688 c h
360.75 62.688 m 360.75 95.281 335.102 122.465 302.934 124.746 c 311.961
 85.754 312.941 46.086 312.527 23.207 c 312.805 23.23 313.086 23.25 313.371
 23.25 c 352.172 23.25 l 356.91 23.25 360.75 27.09 360.75 31.828 c h
360.75 62.688 m f
0.976471 0.984314 0.988235 rg
299.969 3.898 m 300.398 3.898 300.793 3.777 301.137 3.574 c 298.805 3.574
 l 299.148 3.773 299.543 3.898 299.969 3.898 c h
299.969 3.898 m f
310.078 8.789 m 310.078 10.074 309.039 11.117 307.754 11.117 c 306.469 
11.117 305.426 10.074 305.426 8.789 c 305.426 7.504 306.469 6.461 307.754
 6.461 c 309.039 6.461 310.078 7.504 310.078 8.789 c h
310.078 8.789 m f
302.297 16.57 m 302.297 17.855 301.254 18.898 299.969 18.898 c 298.684 
18.898 297.645 17.855 297.645 16.57 c 297.645 15.285 298.684 14.246 299.969
 14.246 c 301.254 14.246 302.297 15.285 302.297 16.57 c h
302.297 16.57 m f
310.078 23.789 m 310.078 25.074 309.039 26.117 307.754 26.117 c 306.469
 26.117 305.426 25.074 305.426 23.789 c 305.426 22.504 306.469 21.461 307.754
 21.461 c 309.039 21.461 310.078 22.504 310.078 23.789 c h
310.078 23.789 m f
302.297 31.57 m 302.297 32.855 301.254 33.898 299.969 33.898 c 298.684 
33.898 297.645 32.855 297.645 31.57 c 297.645 30.285 298.684 29.246 299.969
 29.246 c 301.254 29.246 302.297 30.285 302.297 31.57 c h
302.297 31.57 m f
310.078 38.789 m 310.078 40.074 309.039 41.117 307.754 41.117 c 306.469
 41.117 305.426 40.074 305.426 38.789 c 305.426 37.504 306.469 36.461 307.754
 36.461 c 309.039 36.461 310.078 37.504 310.078 38.789 c h
310.078 38.789 m f
299.969 44.246 m 298.684 44.246 297.645 45.285 297.645 46.57 c 297.645 
47.855 298.684 48.898 299.969 48.898 c 301.254 48.898 302.297 47.855 302.297
 46.57 c 302.297 45.285 301.254 44.246 299.969 44.246 c h
299.969 44.246 m f
307.754 51.461 m 306.469 51.461 305.426 52.504 305.426 53.789 c 305.426
 55.074 306.469 56.117 307.754 56.117 c 309.039 56.117 310.078 55.074 310.078
 53.789 c 310.078 52.504 309.039 51.461 307.754 51.461 c h
307.754 51.461 m f
299.969 59.246 m 298.684 59.246 297.645 60.285 297.645 61.57 c 297.645 
62.855 298.684 63.898 299.969 63.898 c 301.254 63.898 302.297 62.855 302.297
 61.57 c 302.297 60.285 301.254 59.246 299.969 59.246 c h
299.969 59.246 m f
307.754 66.461 m 306.469 66.461 305.426 67.504 305.426 68.789 c 305.426
 70.074 306.469 71.117 307.754 71.117 c 309.039 71.117 310.078 70.074 310.078
 68.789 c 310.078 67.504 309.039 66.461 307.754 66.461 c h
307.754 66.461 m f
299.969 74.246 m 298.684 74.246 297.645 75.285 297.645 76.57 c 297.645 
77.855 298.684 78.898 299.969 78.898 c 301.254 78.898 302.297 77.855 302.297
 76.57 c 302.297 75.285 301.254 74.246 299.969 74.246 c h
299.969 74.246 m f
307.754 81.461 m 306.469 81.461 305.426 82.504 305.426 83.789 c 305.426
 85.074 306.469 86.117 307.754 86.117 c 308.535 86.117 309.227 85.727 309.648
 85.133 c 309.734 84.383 309.816 83.637 309.898 82.895 c 309.547 82.051 
308.719 81.461 307.754 81.461 c h
307.754 81.461 m f
299.969 89.246 m 298.684 89.246 297.645 90.285 297.645 91.57 c 297.645 
92.855 298.684 93.898 299.969 93.898 c 301.254 93.898 302.297 92.855 302.297
 91.57 c 302.297 90.285 301.254 89.246 299.969 89.246 c h
299.969 89.246 m f
305.426 98.789 m 305.426 99.984 306.328 100.957 307.488 101.09 c 307.73
 99.555 307.957 98.027 308.18 96.504 c 308.039 96.48 307.898 96.461 307.754
 96.461 c 306.469 96.461 305.426 97.504 305.426 98.789 c h
305.426 98.789 m f
299.969 104.246 m 298.684 104.246 297.645 105.285 297.645 106.57 c 297.645
 107.855 298.684 108.898 299.969 108.898 c 301.254 108.898 302.297 107.855
 302.297 106.57 c 302.297 105.285 301.254 104.246 299.969 104.246 c h
299.969 104.246 m f
299.969 119.246 m 298.684 119.246 297.645 120.285 297.645 121.57 c 297.645
 122.855 298.684 123.898 299.969 123.898 c 301.254 123.898 302.297 122.855
 302.297 121.57 c 302.297 120.285 301.254 119.246 299.969 119.246 c h
299.969 119.246 m f
297.645 136.57 m 297.645 137.625 298.348 138.504 299.309 138.793 c 299.734
 137.305 300.145 135.816 300.547 134.324 c 300.359 134.277 300.172 134.246
 299.973 134.246 c 298.684 134.246 297.645 135.285 297.645 136.57 c h
297.645 136.57 m f
285.184 3.574 m 285.184 3.574 285.195 3.68 285.219 3.875 c 285.551 3.836
 285.859 3.734 286.137 3.574 c h
285.184 3.574 m f
295.078 8.789 m 295.078 10.074 294.039 11.117 292.754 11.117 c 291.469 
11.117 290.426 10.074 290.426 8.789 c 290.426 7.504 291.469 6.461 292.754
 6.461 c 294.039 6.461 295.078 7.504 295.078 8.789 c h
295.078 8.789 m f
286.062 14.527 m 286.137 15.762 286.207 17.086 286.273 18.5 c 286.891 18.082
 287.297 17.375 287.297 16.57 c 287.297 15.684 286.793 14.922 286.062 14.527
 c h
286.062 14.527 m f
295.078 23.789 m 295.078 25.074 294.039 26.117 292.754 26.117 c 291.469
 26.117 290.426 25.074 290.426 23.789 c 290.426 22.504 291.469 21.461 292.754
 21.461 c 294.039 21.461 295.078 22.504 295.078 23.789 c h
295.078 23.789 m f
286.629 29.941 m 286.645 30.988 286.656 32.062 286.664 33.156 c 287.055
 32.742 287.297 32.188 287.297 31.57 c 287.297 30.938 287.039 30.363 286.629
 29.941 c h
286.629 29.941 m f
295.078 38.789 m 295.078 40.074 294.039 41.117 292.754 41.117 c 291.469
 41.117 290.426 40.074 290.426 38.789 c 290.426 37.504 291.469 36.461 292.754
 36.461 c 294.039 36.461 295.078 37.504 295.078 38.789 c h
295.078 38.789 m f
286.566 44.887 m 286.539 46.02 286.508 47.172 286.469 48.34 c 286.973 47.914
 287.297 47.281 287.297 46.57 c 287.297 45.906 287.016 45.309 286.566 44.887
 c h
286.566 44.887 m f
292.754 51.461 m 291.469 51.461 290.426 52.504 290.426 53.789 c 290.426
 55.074 291.469 56.117 292.754 56.117 c 294.039 56.117 295.078 55.074 295.078
 53.789 c 295.078 52.504 294.039 51.461 292.754 51.461 c h
292.754 51.461 m f
287.297 61.57 m 287.297 60.633 286.738 59.828 285.934 59.461 c 285.844 
60.887 285.742 62.332 285.633 63.793 c 286.594 63.504 287.297 62.625 287.297
 61.57 c h
287.297 61.57 m f
292.754 66.461 m 291.469 66.461 290.426 67.504 290.426 68.789 c 290.426
 70.074 291.469 71.117 292.754 71.117 c 294.039 71.117 295.078 70.074 295.078
 68.789 c 295.078 67.504 294.039 66.461 292.754 66.461 c h
292.754 66.461 m f
287.297 76.57 m 287.297 75.289 286.254 74.246 284.973 74.246 c 284.875 
74.246 284.781 74.262 284.688 74.273 c 284.527 75.758 284.359 77.25 284.18
 78.75 c 284.43 78.84 284.691 78.898 284.973 78.898 c 286.254 78.898 287.297
 77.855 287.297 76.57 c h
287.297 76.57 m f
292.754 81.461 m 291.469 81.461 290.426 82.504 290.426 83.789 c 290.426
 85.074 291.469 86.117 292.754 86.117 c 294.039 86.117 295.078 85.074 295.078
 83.789 c 295.078 82.504 294.039 81.461 292.754 81.461 c h
292.754 81.461 m f
284.969 89.246 m 283.684 89.246 282.645 90.285 282.645 91.57 c 282.645 
92.855 283.684 93.898 284.969 93.898 c 286.254 93.898 287.297 92.855 287.297
 91.57 c 287.297 90.285 286.254 89.246 284.969 89.246 c h
284.969 89.246 m f
292.754 96.461 m 291.469 96.461 290.426 97.504 290.426 98.789 c 290.426
 100.074 291.469 101.117 292.754 101.117 c 294.039 101.117 295.078 100.074
 295.078 98.789 c 295.078 97.504 294.039 96.461 292.754 96.461 c h
292.754 96.461 m f
284.969 104.246 m 283.684 104.246 282.645 105.285 282.645 106.57 c 282.645
 107.855 283.684 108.898 284.969 108.898 c 286.254 108.898 287.297 107.855
 287.297 106.57 c 287.297 105.285 286.254 104.246 284.969 104.246 c h
284.969 104.246 m f
292.754 111.461 m 291.469 111.461 290.426 112.504 290.426 113.789 c 290.426
 115.074 291.469 116.117 292.754 116.117 c 294.039 116.117 295.078 115.074
 295.078 113.789 c 295.078 112.504 294.039 111.461 292.754 111.461 c h
292.754 111.461 m f
284.969 119.246 m 283.684 119.246 282.645 120.285 282.645 121.57 c 282.645
 122.855 283.684 123.898 284.969 123.898 c 286.254 123.898 287.297 122.855
 287.297 121.57 c 287.297 120.285 286.254 119.246 284.969 119.246 c h
284.969 119.246 m f
292.754 126.461 m 291.469 126.461 290.426 127.504 290.426 128.789 c 290.426
 130.074 291.469 131.117 292.754 131.117 c 294.039 131.117 295.078 130.074
 295.078 128.789 c 295.078 127.504 294.039 126.461 292.754 126.461 c h
292.754 126.461 m f
284.969 134.246 m 283.684 134.246 282.645 135.285 282.645 136.57 c 282.645
 137.855 283.684 138.898 284.969 138.898 c 286.254 138.898 287.297 137.855
 287.297 136.57 c 287.297 135.285 286.254 134.246 284.969 134.246 c h
284.969 134.246 m f
292.754 141.461 m 291.469 141.461 290.426 142.504 290.426 143.789 c 290.426
 145.074 291.469 146.117 292.754 146.117 c 294.039 146.117 295.078 145.074
 295.078 143.789 c 295.078 142.504 294.039 141.461 292.754 141.461 c h
292.754 141.461 m f
284.969 149.246 m 283.684 149.246 282.645 150.285 282.645 151.57 c 282.645
 152.855 283.684 153.898 284.969 153.898 c 286.254 153.898 287.297 152.855
 287.297 151.57 c 287.297 150.285 286.254 149.246 284.969 149.246 c h
284.969 149.246 m f
290.426 158.789 m 290.426 159.727 290.98 160.527 291.777 160.895 c 292.352
 159.469 292.906 158.027 293.449 156.582 c 293.23 156.512 292.996 156.461
 292.754 156.461 c 291.469 156.461 290.426 157.504 290.426 158.789 c h
290.426 158.789 m f
284.969 164.246 m 283.684 164.246 282.645 165.285 282.645 166.57 c 282.645
 167.855 283.684 168.898 284.969 168.898 c 286.254 168.898 287.297 167.855
 287.297 166.57 c 287.297 165.285 286.254 164.246 284.969 164.246 c h
284.969 164.246 m f
280.078 113.789 m 280.078 112.73 279.367 111.848 278.398 111.566 c 278.039
 113.066 277.664 114.566 277.277 116.066 c 277.434 116.098 277.59 116.117
 277.754 116.117 c 279.039 116.117 280.078 115.074 280.078 113.789 c h
280.078 113.789 m f
277.754 126.461 m 276.469 126.461 275.426 127.504 275.426 128.789 c 275.426
 130.074 276.469 131.117 277.754 131.117 c 279.039 131.117 280.078 130.074
 280.078 128.789 c 280.078 127.504 279.039 126.461 277.754 126.461 c h
277.754 126.461 m f
272.297 136.57 m 272.297 135.902 272.008 135.301 271.555 134.875 c 271.078
 136.219 270.59 137.555 270.086 138.887 c 271.316 138.824 272.297 137.816
 272.297 136.57 c h
272.297 136.57 m f
277.754 141.461 m 276.469 141.461 275.426 142.504 275.426 143.789 c 275.426
 145.074 276.469 146.117 277.754 146.117 c 279.039 146.117 280.078 145.074
 280.078 143.789 c 280.078 142.504 279.039 141.461 277.754 141.461 c h
277.754 141.461 m f
269.969 149.246 m 268.684 149.246 267.645 150.285 267.645 151.57 c 267.645
 152.855 268.684 153.898 269.969 153.898 c 271.254 153.898 272.297 152.855
 272.297 151.57 c 272.297 150.285 271.254 149.246 269.969 149.246 c h
269.969 149.246 m f
277.754 156.461 m 276.469 156.461 275.426 157.504 275.426 158.789 c 275.426
 160.074 276.469 161.117 277.754 161.117 c 279.039 161.117 280.078 160.074
 280.078 158.789 c 280.078 157.504 279.039 156.461 277.754 156.461 c h
277.754 156.461 m f
269.969 164.246 m 268.684 164.246 267.645 165.285 267.645 166.57 c 267.645
 167.855 268.684 168.898 269.969 168.898 c 271.254 168.898 272.297 167.855
 272.297 166.57 c 272.297 165.285 271.254 164.246 269.969 164.246 c h
269.969 164.246 m f
277.754 171.461 m 276.469 171.461 275.426 172.504 275.426 173.789 c 275.426
 175.074 276.469 176.117 277.754 176.117 c 279.039 176.117 280.078 175.074
 280.078 173.789 c 280.078 172.504 279.039 171.461 277.754 171.461 c h
277.754 171.461 m f
269.969 179.246 m 268.684 179.246 267.645 180.285 267.645 181.57 c 267.645
 182.855 268.684 183.898 269.969 183.898 c 271.254 183.898 272.297 182.855
 272.297 181.57 c 272.297 180.285 271.254 179.246 269.969 179.246 c h
269.969 179.246 m f
275.426 188.789 m 275.426 189.562 275.805 190.238 276.383 190.664 c 277.234
 189.383 278.066 188.082 278.879 186.766 c 278.543 186.578 278.164 186.461
 277.75 186.461 c 276.469 186.461 275.426 187.504 275.426 188.789 c h
275.426 188.789 m f
269.969 194.246 m 268.684 194.246 267.645 195.285 267.645 196.57 c 267.645
 197.855 268.684 198.898 269.969 198.898 c 270.145 198.898 270.312 198.875
 270.477 198.84 c 271.086 198.062 271.691 197.277 272.289 196.48 c 272.238
 195.238 271.223 194.246 269.969 194.246 c h
269.969 194.246 m f
262.754 161.117 m 264.039 161.117 265.078 160.074 265.078 158.789 c 265.078
 157.504 264.039 156.461 262.754 156.461 c 262.617 156.461 262.484 156.48
 262.352 156.504 c 261.797 157.598 261.23 158.688 260.652 159.77 c 261.023
 160.562 261.82 161.117 262.754 161.117 c h
262.754 161.117 m f
257.297 166.57 m 257.297 166.34 257.254 166.117 257.188 165.906 c 256.598
 166.895 255.996 167.879 255.383 168.855 c 256.469 168.664 257.297 167.715
 257.297 166.57 c h
257.297 166.57 m f
262.754 171.461 m 261.469 171.461 260.426 172.504 260.426 173.789 c 260.426
 175.074 261.469 176.117 262.754 176.117 c 264.039 176.117 265.078 175.074
 265.078 173.789 c 265.078 172.504 264.039 171.461 262.754 171.461 c h
262.754 171.461 m f
254.969 179.246 m 253.684 179.246 252.645 180.285 252.645 181.57 c 252.645
 182.855 253.684 183.898 254.969 183.898 c 256.254 183.898 257.297 182.855
 257.297 181.57 c 257.297 180.285 256.254 179.246 254.969 179.246 c h
254.969 179.246 m f
262.754 186.461 m 261.469 186.461 260.426 187.504 260.426 188.789 c 260.426
 190.074 261.469 191.117 262.754 191.117 c 264.039 191.117 265.078 190.074
 265.078 188.789 c 265.078 187.504 264.039 186.461 262.754 186.461 c h
262.754 186.461 m f
254.969 194.246 m 253.684 194.246 252.645 195.285 252.645 196.57 c 252.645
 197.855 253.684 198.898 254.969 198.898 c 256.254 198.898 257.297 197.855
 257.297 196.57 c 257.297 195.285 256.254 194.246 254.969 194.246 c h
254.969 194.246 m f
262.754 201.461 m 261.469 201.461 260.426 202.504 260.426 203.789 c 260.426
 205.074 261.469 206.117 262.754 206.117 c 264.039 206.117 265.078 205.074
 265.078 203.789 c 265.078 202.504 264.039 201.461 262.754 201.461 c h
262.754 201.461 m f
254.969 209.246 m 253.684 209.246 252.645 210.285 252.645 211.57 c 252.645
 212.855 253.684 213.898 254.969 213.898 c 256.254 213.898 257.297 212.855
 257.297 211.57 c 257.297 210.285 256.254 209.246 254.969 209.246 c h
254.969 209.246 m f
247.754 186.461 m 246.469 186.461 245.426 187.504 245.426 188.789 c 245.426
 190.074 246.469 191.117 247.754 191.117 c 249.039 191.117 250.078 190.074
 250.078 188.789 c 250.078 187.504 249.039 186.461 247.754 186.461 c h
247.754 186.461 m f
239.969 194.246 m 238.684 194.246 237.645 195.285 237.645 196.57 c 237.645
 197.855 238.684 198.898 239.969 198.898 c 241.254 198.898 242.297 197.855
 242.297 196.57 c 242.297 195.285 241.254 194.246 239.969 194.246 c h
239.969 194.246 m f
247.754 201.461 m 246.469 201.461 245.426 202.504 245.426 203.789 c 245.426
 205.074 246.469 206.117 247.754 206.117 c 249.039 206.117 250.078 205.074
 250.078 203.789 c 250.078 202.504 249.039 201.461 247.754 201.461 c h
247.754 201.461 m f
239.969 209.246 m 238.684 209.246 237.645 210.285 237.645 211.57 c 237.645
 212.855 238.684 213.898 239.969 213.898 c 241.254 213.898 242.297 212.855
 242.297 211.57 c 242.297 210.285 241.254 209.246 239.969 209.246 c h
239.969 209.246 m f
247.754 216.461 m 246.469 216.461 245.426 217.504 245.426 218.789 c 245.426
 219.781 246.051 220.621 246.926 220.957 c 247.992 220.246 249.043 219.516
 250.078 218.762 c 250.059 217.488 249.027 216.461 247.754 216.461 c h
247.754 216.461 m f
237.66 226.398 m 238.824 225.805 239.965 225.184 241.098 224.547 c 240.762
 224.359 240.383 224.242 239.973 224.242 c 238.742 224.246 237.75 225.195
 237.66 226.398 c h
237.66 226.398 m f
232.754 201.461 m 231.469 201.461 230.426 202.504 230.426 203.789 c 230.426
 205.074 231.469 206.117 232.754 206.117 c 234.039 206.117 235.078 205.074
 235.078 203.789 c 235.078 202.504 234.039 201.461 232.754 201.461 c h
232.754 201.461 m f
224.969 209.246 m 223.684 209.246 222.645 210.285 222.645 211.57 c 222.645
 212.855 223.684 213.898 224.969 213.898 c 226.254 213.898 227.297 212.855
 227.297 211.57 c 227.297 210.285 226.254 209.246 224.969 209.246 c h
224.969 209.246 m f
232.754 216.461 m 231.469 216.461 230.426 217.504 230.426 218.789 c 230.426
 220.074 231.469 221.117 232.754 221.117 c 234.039 221.117 235.078 220.074
 235.078 218.789 c 235.078 217.504 234.039 216.461 232.754 216.461 c h
232.754 216.461 m f
224.969 224.246 m 223.684 224.246 222.645 225.285 222.645 226.57 c 222.645
 227.855 223.684 228.898 224.969 228.898 c 226.254 228.898 227.297 227.855
 227.297 226.57 c 227.297 225.285 226.254 224.246 224.969 224.246 c h
224.969 224.246 m f
209.969 213.898 m 211.254 213.898 212.297 212.855 212.297 211.57 c 212.297
 211.25 212.23 210.941 212.113 210.664 c 210.766 211.402 209.406 212.129
 208.012 212.82 c 208.426 213.465 209.145 213.898 209.969 213.898 c h
209.969 213.898 m f
215.426 218.789 m 215.426 220.074 216.469 221.117 217.754 221.117 c 219.035
 221.117 220.078 220.074 220.078 218.789 c 220.078 217.504 219.035 216.461
 217.754 216.461 c 216.469 216.461 215.426 217.504 215.426 218.789 c h
215.426 218.789 m f
209.969 224.246 m 208.684 224.246 207.645 225.285 207.645 226.57 c 207.645
 227.855 208.684 228.898 209.969 228.898 c 211.254 228.898 212.297 227.855
 212.297 226.57 c 212.297 225.285 211.254 224.246 209.969 224.246 c h
209.969 224.246 m f
217.754 231.461 m 216.469 231.461 215.426 232.504 215.426 233.789 c 215.426
 235.074 216.469 236.117 217.754 236.117 c 217.996 236.117 218.227 236.07
 218.449 236 c 218.449 233.602 l 218.969 233.473 219.477 233.328 219.992
 233.188 c 219.727 232.195 218.828 231.461 217.754 231.461 c h
217.754 231.461 m f
209.969 239.246 m 208.684 239.246 207.645 240.285 207.645 241.57 c 207.645
 242.855 208.684 243.898 209.969 243.898 c 211.254 243.898 212.297 242.855
 212.297 241.57 c 212.297 240.285 211.254 239.246 209.969 239.246 c h
209.969 239.246 m f
217.754 251.117 m 217.996 251.117 218.227 251.066 218.449 250.996 c 218.449
 246.582 l 218.227 246.512 217.996 246.461 217.754 246.461 c 216.469 246.461
 215.426 247.504 215.426 248.789 c 215.426 250.074 216.469 251.117 217.754
 251.117 c h
217.754 251.117 m f
209.969 254.246 m 208.684 254.246 207.645 255.285 207.645 256.57 c 207.645
 257.855 208.684 258.898 209.969 258.898 c 211.254 258.898 212.297 257.855
 212.297 256.57 c 212.297 255.285 211.254 254.246 209.969 254.246 c h
209.969 254.246 m f
218.449 261.582 m 218.227 261.512 217.996 261.461 217.754 261.461 c 216.469
 261.461 215.426 262.504 215.426 263.789 c 215.426 263.859 215.441 263.926
 215.445 263.992 c 218.449 263.992 l h
218.449 261.582 m f
202.754 216.461 m 201.469 216.461 200.426 217.504 200.426 218.789 c 200.426
 220.074 201.469 221.117 202.754 221.117 c 204.039 221.117 205.078 220.074
 205.078 218.789 c 205.078 217.504 204.039 216.461 202.754 216.461 c h
202.754 216.461 m f
194.969 224.246 m 193.684 224.246 192.645 225.285 192.645 226.57 c 192.645
 227.855 193.684 228.898 194.969 228.898 c 196.254 228.898 197.297 227.855
 197.297 226.57 c 197.297 225.285 196.254 224.246 194.969 224.246 c h
194.969 224.246 m f
202.754 231.461 m 201.469 231.461 200.426 232.504 200.426 233.789 c 200.426
 235.074 201.469 236.117 202.754 236.117 c 204.039 236.117 205.078 235.074
 205.078 233.789 c 205.078 232.504 204.039 231.461 202.754 231.461 c h
202.754 231.461 m f
194.969 239.246 m 193.684 239.246 192.645 240.285 192.645 241.57 c 192.645
 242.855 193.684 243.898 194.969 243.898 c 196.254 243.898 197.297 242.855
 197.297 241.57 c 197.297 240.285 196.254 239.246 194.969 239.246 c h
194.969 239.246 m f
202.754 246.461 m 201.469 246.461 200.426 247.504 200.426 248.789 c 200.426
 250.074 201.469 251.117 202.754 251.117 c 204.039 251.117 205.078 250.074
 205.078 248.789 c 205.078 247.504 204.039 246.461 202.754 246.461 c h
202.754 246.461 m f
194.969 254.246 m 193.684 254.246 192.645 255.285 192.645 256.57 c 192.645
 257.855 193.684 258.898 194.969 258.898 c 196.254 258.898 197.297 257.855
 197.297 256.57 c 197.297 255.285 196.254 254.246 194.969 254.246 c h
194.969 254.246 m f
205.078 263.789 m 205.078 262.504 204.039 261.461 202.754 261.461 c 201.469
 261.461 200.426 262.504 200.426 263.789 c 200.426 263.859 200.441 263.926
 200.445 263.992 c 205.059 263.992 l 205.066 263.922 205.078 263.859 205.078
 263.789 c h
205.078 263.789 m f
189.695 220.066 m 188.738 220.355 187.773 220.637 186.797 220.906 c 187.09
 221.039 187.41 221.117 187.754 221.117 c 188.566 221.117 189.281 220.695
 189.695 220.066 c h
189.695 220.066 m f
179.969 224.246 m 178.684 224.246 177.645 225.285 177.645 226.57 c 177.645
 227.855 178.684 228.898 179.969 228.898 c 181.254 228.898 182.297 227.855
 182.297 226.57 c 182.297 225.285 181.254 224.246 179.969 224.246 c h
179.969 224.246 m f
187.754 231.461 m 186.469 231.461 185.426 232.504 185.426 233.789 c 185.426
 235.074 186.469 236.117 187.754 236.117 c 189.039 236.117 190.078 235.074
 190.078 233.789 c 190.078 232.504 189.039 231.461 187.754 231.461 c h
187.754 231.461 m f
179.969 239.246 m 178.684 239.246 177.645 240.285 177.645 241.57 c 177.645
 242.855 178.684 243.898 179.969 243.898 c 181.254 243.898 182.297 242.855
 182.297 241.57 c 182.297 240.285 181.254 239.246 179.969 239.246 c h
179.969 239.246 m f
187.754 246.461 m 186.469 246.461 185.426 247.504 185.426 248.789 c 185.426
 250.074 186.469 251.117 187.754 251.117 c 189.039 251.117 190.078 250.074
 190.078 248.789 c 190.078 247.504 189.039 246.461 187.754 246.461 c h
187.754 246.461 m f
179.969 254.246 m 178.684 254.246 177.645 255.285 177.645 256.57 c 177.645
 257.855 178.684 258.898 179.969 258.898 c 181.254 258.898 182.297 257.855
 182.297 256.57 c 182.297 255.285 181.254 254.246 179.969 254.246 c h
179.969 254.246 m f
190.078 263.789 m 190.078 262.504 189.039 261.461 187.754 261.461 c 186.469
 261.461 185.426 262.504 185.426 263.789 c 185.426 263.859 185.441 263.926
 185.445 263.992 c 190.059 263.992 l 190.066 263.922 190.078 263.859 190.078
 263.789 c h
190.078 263.789 m f
164.969 228.898 m 166.254 228.898 167.297 227.855 167.297 226.57 c 167.297
 225.895 167 225.289 166.539 224.863 c 165.391 225.004 164.234 225.129 163.062
 225.242 c 162.801 225.617 162.645 226.078 162.645 226.57 c 162.645 227.855
 163.684 228.898 164.969 228.898 c h
164.969 228.898 m f
172.754 231.461 m 171.469 231.461 170.426 232.504 170.426 233.789 c 170.426
 235.074 171.469 236.117 172.754 236.117 c 174.039 236.117 175.078 235.074
 175.078 233.789 c 175.078 232.504 174.039 231.461 172.754 231.461 c h
172.754 231.461 m f
165.07 239.254 m 165.07 243.887 l 166.309 243.836 167.297 242.82 167.297
 241.57 c 167.297 240.32 166.309 239.309 165.07 239.254 c h
165.07 239.254 m f
172.754 246.461 m 171.469 246.461 170.426 247.504 170.426 248.789 c 170.426
 250.074 171.469 251.117 172.754 251.117 c 174.039 251.117 175.078 250.074
 175.078 248.789 c 175.078 247.504 174.039 246.461 172.754 246.461 c h
172.754 246.461 m f
167.297 256.57 m 167.297 255.32 166.309 254.309 165.07 254.254 c 165.07
 258.887 l 166.309 258.836 167.297 257.82 167.297 256.57 c h
167.297 256.57 m f
175.078 263.789 m 175.078 262.504 174.039 261.461 172.754 261.461 c 171.469
 261.461 170.426 262.504 170.426 263.789 c 170.426 263.859 170.441 263.926
 170.445 263.992 c 175.059 263.992 l 175.066 263.922 175.078 263.859 175.078
 263.789 c h
175.078 263.789 m f
152.297 226.57 m 152.297 226.348 152.254 226.133 152.195 225.93 c 150.719
 225.973 149.23 226 147.719 226.008 c 147.684 226.16 147.66 226.316 147.652
 226.48 c 151.23 228.523 l 151.871 228.109 152.297 227.391 152.297 226.57
 c h
152.297 226.57 m f
157.754 231.461 m 157.402 231.461 157.07 231.547 156.77 231.688 c 160.059
 233.562 l 159.941 232.387 158.961 231.461 157.754 231.461 c h
157.754 231.461 m f
0.917647 0.658824 0.584314 rg
269.41 365.32 m 113.551 365.32 l 113.551 322.566 l 113.551 318.059 117.207
 314.402 121.715 314.402 c 261.246 314.402 l 265.754 314.402 269.41 318.059
 269.41 322.566 c h
269.41 365.32 m f
254.152 92.508 m 254.152 126.93 226.25 154.828 191.832 154.828 c 157.414
 154.828 129.512 126.93 129.512 92.508 c 129.512 58.09 157.414 30.191 191.832
 30.191 c 208.359 30.191 224.211 36.754 235.898 48.441 c 247.586 60.129 
254.152 75.98 254.152 92.508 c h
254.152 92.508 m f
0.976471 0.984314 0.988235 rg
236.777 92.508 m 236.777 117.332 216.652 137.457 191.832 137.457 c 167.008
 137.457 146.887 117.332 146.887 92.508 c 146.887 80.59 151.621 69.156 160.051
 60.727 c 168.48 52.301 179.91 47.562 191.832 47.562 c 216.652 47.562 236.777
 67.688 236.777 92.508 c h
236.777 92.508 m f
0.913725 0.760784 0.470588 rg
196.609 55.152 m 204.527 71.191 l 205.301 72.762 206.801 73.852 208.539
 74.105 c 226.238 76.676 l 230.609 77.312 232.355 82.684 229.191 85.766 
c 216.383 98.25 l 215.129 99.477 214.555 101.238 214.852 102.965 c 217.875
 120.598 l 218.621 124.949 214.051 128.27 210.145 126.215 c 194.312 117.891
 l 192.758 117.074 190.902 117.074 189.352 117.891 c 173.52 126.215 l 169.609
 128.27 165.043 124.949 165.789 120.598 c 168.812 102.965 l 169.109 101.238
 168.535 99.477 167.281 98.25 c 154.473 85.766 l 151.309 82.684 153.055 
77.312 157.426 76.676 c 175.125 74.105 l 176.859 73.852 178.359 72.762 179.137
 71.191 c 187.055 55.152 l 189.008 51.191 194.656 51.191 196.609 55.152 
c h
196.609 55.152 m f
0.192157 0.215686 0.239216 rg
191.832 140.453 m 165.395 140.453 143.887 118.945 143.887 92.508 c 143.887
 66.07 165.395 44.562 191.832 44.562 c 218.27 44.562 239.777 66.07 239.777
 92.508 c 239.777 118.945 218.27 140.453 191.832 140.453 c h
191.832 50.562 m 168.703 50.562 149.887 69.379 149.887 92.508 c 149.887
 115.641 168.703 134.457 191.832 134.457 c 214.961 134.457 233.777 115.641
 233.777 92.508 c 233.777 69.379 214.961 50.562 191.832 50.562 c h
191.832 50.562 m f
191.832 157.828 m 155.812 157.828 126.512 128.527 126.512 92.508 c 126.512
 56.492 155.812 27.191 191.832 27.191 c 227.848 27.191 257.152 56.492 257.152
 92.508 c 257.152 128.527 227.848 157.828 191.832 157.828 c h
191.832 33.188 m 159.121 33.188 132.512 59.801 132.512 92.508 c 132.512
 125.219 159.121 151.828 191.832 151.828 c 224.539 151.828 251.152 125.219
 251.152 92.508 c 251.152 59.801 224.539 33.188 191.832 33.188 c h
191.832 33.188 m f
356.348 0 m 27.652 0 l 12.402 0 0 12.402 0 27.652 c 0 62.688 l 0 85.238
 8.707 106.516 24.516 122.598 c 40.301 138.656 61.383 147.727 83.883 148.141
 c 84.125 148.141 l 84.141 148.141 84.156 148.141 84.176 148.141 c 88.984
 162.754 94.809 175.73 101.625 186.922 c 116.984 212.152 137.367 228.434
 162.242 235.355 c 162.242 273.598 l 160.594 273.598 l 144.805 273.598 131.961
 286.441 131.961 302.23 c 131.961 311.402 l 121.715 311.402 l 115.559 311.402
 110.555 316.41 110.555 322.566 c 110.555 352.961 l 106.777 352.961 l 98.219
 352.961 91.258 359.926 91.258 368.48 c 91.258 377.039 98.219 384 106.777
 384 c 276.867 384 l 285.422 384 292.383 377.039 292.383 368.48 c 292.383
 359.926 285.422 352.961 276.867 352.961 c 272.41 352.961 l 272.41 322.566
 l 272.41 316.41 267.402 311.402 261.25 311.402 c 251.68 311.402 l 251.68
 302.23 l 251.68 286.441 238.836 273.598 223.047 273.598 c 221.398 273.598
 l 221.398 235.52 l 221.539 235.43 221.672 235.328 221.797 235.219 c 246.465
 228.219 266.691 211.965 281.938 186.871 c 288.734 175.684 294.543 162.719
 299.34 148.121 c 299.52 148.133 299.695 148.145 299.879 148.145 c 300.117
 148.141 l 322.617 147.727 343.703 138.656 359.488 122.598 c 375.293 106.516
 384 85.238 384 62.688 c 384 27.652 l 384 12.402 371.598 0 356.348 0 c h
266.41 322.566 m 266.41 352.965 l 116.551 352.965 l 116.551 322.566 l 116.551
 319.719 118.867 317.406 121.715 317.406 c 261.246 317.406 l 264.094 317.402
 266.41 319.719 266.41 322.566 c h
315.504 26.25 m 352.172 26.25 l 355.246 26.25 357.75 28.75 357.75 31.828
 c 357.75 62.688 l 357.75 92.344 335.352 117.316 306.594 121.305 c 307.539
 116.996 308.422 112.594 309.223 108.07 c 314.773 76.699 315.703 46.27 315.504
 26.25 c h
74.266 108.113 m 75.066 112.602 75.941 116.973 76.883 121.254 c 48.375 
117.035 26.25 92.168 26.25 62.688 c 26.25 31.828 l 26.25 28.75 28.754 26.25
 31.828 26.25 c 67.926 26.25 l 67.738 46.277 68.688 76.727 74.266 108.113
 c h
28.793 118.391 m 14.094 103.438 6 83.656 6 62.688 c 6 27.652 l 6 15.711
 15.711 6 27.652 6 c 68.57 6 l 68.395 8.969 68.16 13.867 68.02 20.25 c 31.828
 20.25 l 25.445 20.25 20.25 25.441 20.25 31.828 c 20.25 62.688 l 20.25 95.945
 45.82 123.891 78.324 127.496 c 79.535 132.516 80.848 137.387 82.262 142.09
 c 61.996 141.285 43.066 132.91 28.793 118.391 c h
223.047 279.598 m 235.527 279.598 245.68 289.754 245.68 302.23 c 245.68
 310.984 l 137.961 310.984 l 137.961 302.23 l 137.961 289.75 148.113 279.598
 160.594 279.598 c 165.242 279.598 l 166.898 279.598 168.242 278.258 168.242
 276.598 c 168.242 236.625 l 176.637 237.699 185.098 238.242 193.23 238.242
 c 201.043 238.242 208.539 237.738 215.398 236.746 c 215.398 276.598 l 215.398
 278.258 216.742 279.598 218.398 279.598 c h
217.719 230.203 m 217.438 230.273 216.941 230.383 216.828 230.359 c 202.23
 232.789 184.266 232.863 166.59 230.363 c 166.469 230.344 166.031 230.219
 165.844 230.172 c 110.551 216.195 88.809 155.559 80.191 107.172 c 72.008
 61.211 73.902 17.246 74.582 6 c 308.836 6 l 309.523 17.227 311.445 61.086
 303.312 107.027 c 294.746 155.441 272.988 216.18 217.719 230.203 c h
378 62.688 m 378 83.656 369.906 103.438 355.207 118.391 c 340.816 133.031
 321.691 141.418 301.234 142.105 c 302.648 137.398 303.957 132.527 305.168
 127.508 c 337.906 124.133 363.75 96.117 363.75 62.688 c 363.75 31.828 l
 363.75 25.441 358.555 20.25 352.172 20.25 c 315.41 20.25 l 315.266 13.867
 315.023 8.969 314.848 6 c 356.348 6 l 368.289 6 378 15.711 378 27.652 c
 h
378 62.688 m f
Q Q
showpage
%%Trailer
end
%%EOF
