%!PS-Adobe-3.0 EPSF-3.0
%%Creator: cairo 1.16.0 (https://cairographics.org)
%%CreationDate: Wed Jul 15 13:24:35 2020
%%Pages: 1
%%DocumentData: Clean7Bit
%%LanguageLevel: 2
%%BoundingBox: 0 0 384 384
%%EndComments
%%BeginProlog
50 dict begin
/q { gsave } bind def
/Q { grestore } bind def
/cm { 6 array astore concat } bind def
/w { setlinewidth } bind def
/J { setlinecap } bind def
/j { setlinejoin } bind def
/M { setmiterlimit } bind def
/d { setdash } bind def
/m { moveto } bind def
/l { lineto } bind def
/c { curveto } bind def
/h { closepath } bind def
/re { exch dup neg 3 1 roll 5 3 roll moveto 0 rlineto
      0 exch rlineto 0 rlineto closepath } bind def
/S { stroke } bind def
/f { fill } bind def
/f* { eofill } bind def
/n { newpath } bind def
/W { clip } bind def
/W* { eoclip } bind def
/BT { } bind def
/ET { } bind def
/BDC { mark 3 1 roll /BDC pdfmark } bind def
/EMC { mark /EMC pdfmark } bind def
/cairo_store_point { /cairo_point_y exch def /cairo_point_x exch def } def
/Tj { show currentpoint cairo_store_point } bind def
/TJ {
  {
    dup
    type /stringtype eq
    { show } { -0.001 mul 0 cairo_font_matrix dtransform rmoveto } ifelse
  } forall
  currentpoint cairo_store_point
} bind def
/cairo_selectfont { cairo_font_matrix aload pop pop pop 0 0 6 array astore
    cairo_font exch selectfont cairo_point_x cairo_point_y moveto } bind def
/Tf { pop /cairo_font exch def /cairo_font_matrix where
      { pop cairo_selectfont } if } bind def
/Td { matrix translate cairo_font_matrix matrix concatmatrix dup
      /cairo_font_matrix exch def dup 4 get exch 5 get cairo_store_point
      /cairo_font where { pop cairo_selectfont } if } bind def
/Tm { 2 copy 8 2 roll 6 array astore /cairo_font_matrix exch def
      cairo_store_point /cairo_font where { pop cairo_selectfont } if } bind def
/g { setgray } bind def
/rg { setrgbcolor } bind def
/d1 { setcachedevice } bind def
/cairo_data_source {
  CairoDataIndex CairoData length lt
    { CairoData CairoDataIndex get /CairoDataIndex CairoDataIndex 1 add def }
    { () } ifelse
} def
/cairo_flush_ascii85_file { cairo_ascii85_file status { cairo_ascii85_file flushfile } if } def
/cairo_image { image cairo_flush_ascii85_file } def
/cairo_imagemask { imagemask cairo_flush_ascii85_file } def
%%EndProlog
%%BeginSetup
%%EndSetup
%%Page: 1 1
%%BeginPageSetup
%%PageBoundingBox: 0 0 384 384
%%EndPageSetup
q 0 0 384 384 rectclip
1 0 0 -1 0 384 cm q
0.917647 0.658824 0.584314 rg
29.73 355.668 m 28.355 354.289 l -5.426 320.508 -5.426 265.738 28.355 231.953
 c 28.355 231.953 106.5 168.898 137.898 136.492 c 169.293 104.082 231.977
 28.332 231.977 28.332 c 265.758 -5.449 320.527 -5.449 354.312 28.332 c 
355.688 29.711 l 389.469 63.492 389.469 118.262 355.688 152.047 c 355.688
 152.047 273.188 216.785 245.504 245.191 c 217.82 273.598 152.066 355.668
 152.066 355.668 c 118.285 389.449 63.516 389.449 29.73 355.668 c h
29.73 355.668 m f
0.976471 0.984314 0.988235 rg
378.129 68.645 m 378.012 68.922 377.949 69.227 377.949 69.551 c 377.949
 70.27 378.281 70.902 378.793 71.332 c 378.586 70.434 378.367 69.535 378.129
 68.645 c h
378.129 68.645 m f
380.273 86.883 m 380.504 86.883 380.719 86.84 380.93 86.777 c 380.855 85.27
 380.742 83.762 380.594 82.262 c 380.488 82.246 380.383 82.227 380.277 82.227
 c 378.992 82.227 377.949 83.27 377.949 84.555 c 377.949 85.84 378.988 86.883
 380.273 86.883 c h
380.273 86.883 m f
377.949 99.562 m 377.949 100.848 378.988 101.887 380.273 101.887 c 380.289
 101.887 380.305 101.883 380.32 101.883 c 380.516 100.355 380.672 98.828
 380.785 97.293 c 380.621 97.258 380.449 97.234 380.273 97.234 c 378.988
 97.234 377.949 98.273 377.949 99.562 c h
377.949 99.562 m f
365.27 41.863 m 365.441 41.863 365.609 41.844 365.773 41.805 c 364.969 
40.645 364.137 39.496 363.27 38.363 c 363.066 38.711 362.941 39.105 362.941
 39.535 c 362.941 40.82 363.984 41.863 365.27 41.863 c h
365.27 41.863 m f
365.27 56.871 m 366.555 56.871 367.598 55.828 367.598 54.543 c 367.598 
53.258 366.555 52.215 365.27 52.215 c 363.984 52.215 362.941 53.258 362.941
 54.543 c 362.941 55.828 363.984 56.871 365.27 56.871 c h
365.27 56.871 m f
373.055 64.09 m 374.34 64.09 375.383 63.047 375.383 61.762 c 375.383 60.477
 374.34 59.434 373.055 59.434 c 371.77 59.434 370.727 60.477 370.727 61.762
 c 370.727 63.051 371.77 64.09 373.055 64.09 c h
373.055 64.09 m f
365.27 71.875 m 366.555 71.875 367.598 70.836 367.598 69.551 c 367.598 
68.266 366.555 67.223 365.27 67.223 c 363.984 67.223 362.941 68.262 362.941
 69.551 c 362.941 70.836 363.984 71.875 365.27 71.875 c h
365.27 71.875 m f
373.055 79.098 m 374.34 79.098 375.383 78.055 375.383 76.77 c 375.383 75.484
 374.34 74.441 373.055 74.441 c 371.77 74.441 370.727 75.484 370.727 76.77
 c 370.727 78.055 371.77 79.098 373.055 79.098 c h
373.055 79.098 m f
365.27 86.883 m 366.555 86.883 367.598 85.84 367.598 84.555 c 367.598 83.27
 366.555 82.227 365.27 82.227 c 363.984 82.227 362.941 83.27 362.941 84.555
 c 362.941 85.84 363.984 86.883 365.27 86.883 c h
365.27 86.883 m f
373.055 94.102 m 374.34 94.102 375.383 93.059 375.383 91.773 c 375.383 
90.488 374.34 89.445 373.055 89.445 c 371.77 89.445 370.727 90.488 370.727
 91.773 c 370.727 93.062 371.77 94.102 373.055 94.102 c h
373.055 94.102 m f
365.27 101.887 m 366.555 101.887 367.598 100.848 367.598 99.562 c 367.598
 98.277 366.555 97.234 365.27 97.234 c 363.984 97.234 362.941 98.277 362.941
 99.562 c 362.941 100.848 363.984 101.887 365.27 101.887 c h
365.27 101.887 m f
373.055 109.109 m 374.34 109.109 375.383 108.066 375.383 106.781 c 375.383
 105.496 374.34 104.453 373.055 104.453 c 371.77 104.453 370.727 105.496
 370.727 106.781 c 370.727 108.066 371.77 109.109 373.055 109.109 c h
373.055 109.109 m f
350.262 26.859 m 350.945 26.859 351.551 26.562 351.977 26.094 c 350.84 
25.035 349.68 24.016 348.496 23.027 c 348.152 23.438 347.934 23.953 347.934
 24.531 c 347.934 25.816 348.977 26.859 350.262 26.859 c h
350.262 26.859 m f
358.047 34.078 m 358.547 34.078 359.008 33.918 359.387 33.652 c 358.375
 32.508 357.332 31.387 356.25 30.289 c 355.922 30.688 355.719 31.195 355.719
 31.75 c 355.719 33.039 356.762 34.078 358.047 34.078 c h
358.047 34.078 m f
352.238 40.75 m 352.457 40.398 352.59 39.984 352.59 39.535 c 352.59 38.566
 351.996 37.734 351.152 37.387 c 351.539 38.504 351.898 39.625 352.238 40.75
 c h
352.238 40.75 m f
358.047 49.086 m 359.332 49.086 360.375 48.043 360.375 46.758 c 360.375
 45.473 359.332 44.43 358.047 44.43 c 356.762 44.43 355.719 45.473 355.719
 46.758 c 355.719 48.043 356.762 49.086 358.047 49.086 c h
358.047 49.086 m f
358.047 59.438 m 356.957 59.438 356.047 60.191 355.797 61.203 c 355.82 
61.656 355.855 62.109 355.871 62.566 c 356.199 63.453 357.047 64.09 358.047
 64.09 c 359.332 64.09 360.375 63.047 360.375 61.762 c 360.375 60.477 359.332
 59.438 358.047 59.438 c h
358.047 59.438 m f
358.047 79.098 m 359.332 79.098 360.375 78.055 360.375 76.77 c 360.375 
75.484 359.332 74.441 358.047 74.441 c 356.762 74.441 355.719 75.484 355.719
 76.77 c 355.719 78.055 356.762 79.098 358.047 79.098 c h
358.047 79.098 m f
358.047 94.102 m 359.332 94.102 360.375 93.059 360.375 91.773 c 360.375
 90.488 359.332 89.445 358.047 89.445 c 356.762 89.445 355.719 90.488 355.719
 91.773 c 355.719 93.062 356.762 94.102 358.047 94.102 c h
358.047 94.102 m f
350.262 97.234 m 350.18 97.234 350.098 97.25 350.016 97.258 c 349.523 98.516
 349.004 99.77 348.453 101.008 c 348.879 101.539 349.527 101.887 350.262
 101.887 c 351.547 101.887 352.59 100.844 352.59 99.559 c 352.59 98.273 
351.547 97.234 350.262 97.234 c h
350.262 97.234 m f
343.043 19.074 m 343.145 19.074 343.238 19.055 343.336 19.043 c 342.664
 18.562 341.988 18.09 341.305 17.629 c 341.578 18.039 341.832 18.457 342.098
 18.867 c 342.387 18.996 342.703 19.074 343.043 19.074 c h
343.043 19.074 m f
335.258 157.258 m 333.973 157.258 332.93 158.297 332.93 159.586 c 332.93
 160.871 333.973 161.91 335.258 161.91 c 336.543 161.91 337.586 160.871 
337.586 159.586 c 337.586 158.297 336.543 157.258 335.258 157.258 c h
335.258 157.258 m f
328.035 149.473 m 326.75 149.473 325.707 150.516 325.707 151.801 c 325.707
 153.086 326.75 154.129 328.035 154.129 c 329.32 154.129 330.363 153.086
 330.363 151.801 c 330.363 150.516 329.32 149.473 328.035 149.473 c h
328.035 149.473 m f
320.25 157.258 m 318.965 157.258 317.922 158.297 317.922 159.586 c 317.922
 160.871 318.965 161.91 320.25 161.91 c 321.535 161.91 322.578 160.871 322.578
 159.586 c 322.578 158.297 321.535 157.258 320.25 157.258 c h
320.25 157.258 m f
328.035 164.477 m 326.75 164.477 325.707 165.52 325.707 166.805 c 325.707
 168.09 326.75 169.133 328.035 169.133 c 329.32 169.133 330.363 168.09 330.363
 166.805 c 330.363 165.52 329.32 164.477 328.035 164.477 c h
328.035 164.477 m f
320.25 172.262 m 318.965 172.262 317.922 173.305 317.922 174.59 c 317.922
 175.875 318.965 176.918 320.25 176.918 c 321.535 176.918 322.578 175.875
 322.578 174.59 c 322.578 173.305 321.535 172.262 320.25 172.262 c h
320.25 172.262 m f
305.609 146.867 m 306.434 146.738 307.113 146.18 307.41 145.422 c 306.816
 145.898 306.219 146.383 305.609 146.867 c h
305.609 146.867 m f
313.031 149.473 m 311.746 149.473 310.703 150.516 310.703 151.801 c 310.703
 153.086 311.746 154.129 313.031 154.129 c 314.316 154.129 315.355 153.086
 315.355 151.801 c 315.359 150.516 314.316 149.473 313.031 149.473 c h
313.031 149.473 m f
305.246 157.258 m 303.961 157.258 302.918 158.297 302.918 159.586 c 302.918
 160.871 303.961 161.91 305.246 161.91 c 306.531 161.91 307.574 160.871 
307.574 159.586 c 307.574 158.297 306.531 157.258 305.246 157.258 c h
305.246 157.258 m f
313.031 164.477 m 311.746 164.477 310.703 165.52 310.703 166.805 c 310.703
 168.09 311.746 169.133 313.031 169.133 c 314.316 169.133 315.355 168.09
 315.355 166.805 c 315.359 165.52 314.316 164.477 313.031 164.477 c h
313.031 164.477 m f
305.246 172.262 m 303.961 172.262 302.918 173.305 302.918 174.59 c 302.918
 175.875 303.961 176.918 305.246 176.918 c 306.531 176.918 307.574 175.875
 307.574 174.59 c 307.574 173.305 306.531 172.262 305.246 172.262 c h
305.246 172.262 m f
313.031 179.484 m 311.746 179.484 310.703 180.527 310.703 181.812 c 310.703
 183.098 311.746 184.141 313.031 184.141 c 314.316 184.141 315.355 183.098
 315.355 181.812 c 315.359 180.527 314.316 179.484 313.031 179.484 c h
313.031 179.484 m f
305.246 187.27 m 303.961 187.27 302.918 188.312 302.918 189.598 c 302.918
 190.883 303.961 191.922 305.246 191.922 c 306.531 191.922 307.574 190.883
 307.574 189.598 c 307.574 188.312 306.531 187.27 305.246 187.27 c h
305.246 187.27 m f
296.961 153.859 m 297.281 154.023 297.641 154.125 298.023 154.125 c 299.309
 154.125 300.352 153.086 300.352 151.801 c 300.352 151.586 300.312 151.383
 300.262 151.188 c 299.176 152.062 298.078 152.953 296.961 153.859 c h
296.961 153.859 m f
288.316 160.895 m 288.734 161.508 289.441 161.914 290.238 161.914 c 291.523
 161.914 292.566 160.871 292.566 159.586 c 292.566 158.953 292.312 158.387
 291.906 157.965 c 290.723 158.934 289.523 159.906 288.316 160.895 c h
288.316 160.895 m f
298.023 164.477 m 296.738 164.477 295.695 165.52 295.695 166.805 c 295.695
 168.09 296.738 169.133 298.023 169.133 c 299.309 169.133 300.352 168.09
 300.352 166.805 c 300.352 165.52 299.309 164.477 298.023 164.477 c h
298.023 164.477 m f
290.238 172.262 m 288.953 172.262 287.91 173.305 287.91 174.59 c 287.91
 175.875 288.953 176.918 290.238 176.918 c 291.523 176.918 292.566 175.875
 292.566 174.59 c 292.566 173.305 291.523 172.262 290.238 172.262 c h
290.238 172.262 m f
298.023 179.484 m 296.738 179.484 295.695 180.527 295.695 181.812 c 295.695
 183.098 296.738 184.141 298.023 184.141 c 299.309 184.141 300.352 183.098
 300.352 181.812 c 300.352 180.527 299.309 179.484 298.023 179.484 c h
298.023 179.484 m f
290.238 187.27 m 288.953 187.27 287.91 188.312 287.91 189.598 c 287.91 
190.883 288.953 191.922 290.238 191.922 c 291.523 191.922 292.566 190.883
 292.566 189.598 c 292.566 188.312 291.523 187.27 290.238 187.27 c h
290.238 187.27 m f
298.023 194.488 m 296.738 194.488 295.695 195.531 295.695 196.816 c 295.695
 197.926 296.473 198.848 297.508 199.082 c 298.453 198.297 299.398 197.512
 300.344 196.73 c 300.297 195.484 299.281 194.488 298.023 194.488 c h
298.023 194.488 m f
290.238 202.273 m 288.953 202.273 287.91 203.316 287.91 204.602 c 287.91
 205.328 288.25 205.969 288.77 206.395 c 289.93 205.418 291.094 204.441 
292.258 203.465 c 291.859 202.758 291.109 202.273 290.238 202.273 c h
290.238 202.273 m f
283.777 164.613 m 282.766 165.445 281.746 166.285 280.723 167.129 c 280.883
 168.258 281.844 169.133 283.02 169.133 c 284.305 169.133 285.344 168.09
 285.344 166.805 c 285.348 165.785 284.688 164.93 283.777 164.613 c h
283.777 164.613 m f
275.234 172.262 m 274.867 172.262 274.527 172.355 274.223 172.504 c 273.934
 172.742 273.648 172.977 273.363 173.215 c 273.078 173.602 272.906 174.074
 272.906 174.59 c 272.906 175.875 273.949 176.918 275.234 176.918 c 276.52
 176.918 277.559 175.875 277.559 174.59 c 277.559 173.305 276.52 172.262
 275.234 172.262 c h
275.234 172.262 m f
283.02 179.484 m 281.734 179.484 280.691 180.527 280.691 181.812 c 280.691
 183.098 281.734 184.141 283.02 184.141 c 284.305 184.141 285.344 183.098
 285.344 181.812 c 285.348 180.527 284.305 179.484 283.02 179.484 c h
283.02 179.484 m f
275.234 187.27 m 273.949 187.27 272.906 188.312 272.906 189.598 c 272.906
 190.883 273.949 191.922 275.234 191.922 c 276.52 191.922 277.559 190.883
 277.559 189.598 c 277.559 188.312 276.52 187.27 275.234 187.27 c h
275.234 187.27 m f
283.02 194.488 m 281.734 194.488 280.691 195.531 280.691 196.816 c 280.691
 198.102 281.734 199.145 283.02 199.145 c 284.305 199.145 285.344 198.102
 285.344 196.816 c 285.348 195.531 284.305 194.488 283.02 194.488 c h
283.02 194.488 m f
275.234 202.273 m 273.949 202.273 272.906 203.316 272.906 204.602 c 272.906
 205.887 273.949 206.93 275.234 206.93 c 276.52 206.93 277.559 205.887 277.559
 204.602 c 277.559 203.316 276.52 202.273 275.234 202.273 c h
275.234 202.273 m f
280.691 211.824 m 280.691 212.242 280.812 212.633 281.008 212.973 c 282.156
 211.992 283.312 211.008 284.477 210.023 c 284.078 209.699 283.574 209.496
 283.02 209.496 c 281.734 209.496 280.691 210.539 280.691 211.824 c h
280.691 211.824 m f
272.906 219.609 m 272.906 219.715 272.922 219.82 272.938 219.922 c 273.906
 219.078 274.887 218.234 275.871 217.383 c 275.668 217.32 275.457 217.281
 275.234 217.281 c 273.949 217.281 272.906 218.324 272.906 219.609 c h
272.906 219.609 m f
268.012 179.484 m 266.727 179.484 265.684 180.527 265.684 181.812 c 265.684
 183.098 266.727 184.141 268.012 184.141 c 269.297 184.141 270.34 183.098
 270.34 181.812 c 270.34 180.527 269.297 179.484 268.012 179.484 c h
268.012 179.484 m f
260.227 187.27 m 258.941 187.27 257.898 188.312 257.898 189.598 c 257.898
 190.883 258.941 191.922 260.227 191.922 c 261.512 191.922 262.555 190.883
 262.555 189.598 c 262.555 188.312 261.512 187.27 260.227 187.27 c h
260.227 187.27 m f
268.012 194.488 m 266.727 194.488 265.684 195.531 265.684 196.816 c 265.684
 198.102 266.727 199.145 268.012 199.145 c 269.297 199.145 270.34 198.102
 270.34 196.816 c 270.34 195.531 269.297 194.488 268.012 194.488 c h
268.012 194.488 m f
260.227 202.273 m 258.941 202.273 257.898 203.316 257.898 204.602 c 257.898
 205.887 258.941 206.93 260.227 206.93 c 261.512 206.93 262.555 205.887 
262.555 204.602 c 262.555 203.316 261.512 202.273 260.227 202.273 c h
260.227 202.273 m f
268.012 209.496 m 266.727 209.496 265.684 210.539 265.684 211.824 c 265.684
 213.109 266.727 214.152 268.012 214.152 c 269.297 214.152 270.34 213.109
 270.34 211.824 c 270.34 210.539 269.297 209.496 268.012 209.496 c h
268.012 209.496 m f
260.227 217.281 m 258.941 217.281 257.898 218.324 257.898 219.609 c 257.898
 220.895 258.941 221.938 260.227 221.938 c 261.512 221.938 262.555 220.895
 262.555 219.609 c 262.555 218.324 261.512 217.281 260.227 217.281 c h
260.227 217.281 m f
265.781 226.195 m 266.402 225.648 267.027 225.094 267.66 224.535 c 266.754
 224.676 266.027 225.332 265.781 226.195 c h
265.781 226.195 m f
253.008 194.488 m 251.723 194.488 250.68 195.531 250.68 196.816 c 250.68
 198.102 251.723 199.145 253.008 199.145 c 254.293 199.145 255.332 198.102
 255.332 196.816 c 255.336 195.531 254.293 194.488 253.008 194.488 c h
253.008 194.488 m f
245.223 202.273 m 243.938 202.273 242.895 203.316 242.895 204.602 c 242.895
 205.887 243.938 206.93 245.223 206.93 c 246.508 206.93 247.547 205.887 
247.547 204.602 c 247.547 203.316 246.508 202.273 245.223 202.273 c h
245.223 202.273 m f
253.008 209.496 m 251.723 209.496 250.68 210.539 250.68 211.824 c 250.68
 213.109 251.723 214.152 253.008 214.152 c 254.293 214.152 255.332 213.109
 255.332 211.824 c 255.336 210.539 254.293 209.496 253.008 209.496 c h
253.008 209.496 m f
245.223 217.281 m 243.938 217.281 242.895 218.324 242.895 219.609 c 242.895
 220.895 243.938 221.938 245.223 221.938 c 246.508 221.938 247.547 220.895
 247.547 219.609 c 247.547 218.324 246.508 217.281 245.223 217.281 c h
245.223 217.281 m f
253.008 224.5 m 251.723 224.5 250.68 225.543 250.68 226.828 c 250.68 228.113
 251.723 229.156 253.008 229.156 c 254.293 229.156 255.332 228.113 255.332
 226.828 c 255.336 225.543 254.293 224.5 253.008 224.5 c h
253.008 224.5 m f
245.223 232.285 m 243.938 232.285 242.895 233.328 242.895 234.613 c 242.895
 235.898 243.938 236.941 245.223 236.941 c 246.508 236.941 247.547 235.898
 247.547 234.613 c 247.547 233.328 246.508 232.285 245.223 232.285 c h
245.223 232.285 m f
238 209.496 m 236.715 209.496 235.672 210.539 235.672 211.824 c 235.672
 213.109 236.715 214.152 238 214.152 c 239.285 214.152 240.328 213.109 240.328
 211.824 c 240.328 210.539 239.285 209.496 238 209.496 c h
238 209.496 m f
230.215 217.281 m 228.93 217.281 227.887 218.324 227.887 219.609 c 227.887
 220.895 228.93 221.938 230.215 221.938 c 231.5 221.938 232.543 220.895 
232.543 219.609 c 232.543 218.324 231.5 217.281 230.215 217.281 c h
230.215 217.281 m f
238 224.5 m 236.715 224.5 235.672 225.543 235.672 226.828 c 235.672 228.113
 236.715 229.156 238 229.156 c 239.285 229.156 240.328 228.113 240.328 226.828
 c 240.328 225.543 239.285 224.5 238 224.5 c h
238 224.5 m f
230.215 232.285 m 228.93 232.285 227.887 233.328 227.887 234.613 c 227.887
 235.898 228.93 236.941 230.215 236.941 c 231.5 236.941 232.543 235.898 
232.543 234.613 c 232.543 233.328 231.5 232.285 230.215 232.285 c h
230.215 232.285 m f
238 239.508 m 236.715 239.508 235.672 240.551 235.672 241.836 c 235.672
 243.121 236.715 244.164 238 244.164 c 239.285 244.164 240.328 243.121 240.328
 241.836 c 240.328 240.551 239.285 239.508 238 239.508 c h
238 239.508 m f
230.215 247.293 m 228.93 247.293 227.887 248.336 227.887 249.621 c 227.887
 250.906 228.93 251.949 230.215 251.949 c 231.5 251.949 232.543 250.906 
232.543 249.621 c 232.543 248.336 231.5 247.293 230.215 247.293 c h
230.215 247.293 m f
227.906 264.449 m 228.527 263.738 229.148 263.039 229.762 262.344 c 228.75
 262.547 227.984 263.402 227.906 264.449 c h
227.906 264.449 m f
222.992 224.5 m 221.707 224.5 220.668 225.543 220.668 226.828 c 220.668
 228.113 221.707 229.156 222.992 229.156 c 224.281 229.156 225.32 228.113
 225.32 226.828 c 225.324 225.543 224.281 224.5 222.992 224.5 c h
222.992 224.5 m f
215.211 232.285 m 213.922 232.285 212.883 233.328 212.883 234.613 c 212.883
 235.898 213.922 236.941 215.211 236.941 c 216.496 236.941 217.535 235.898
 217.535 234.613 c 217.535 233.328 216.496 232.285 215.211 232.285 c h
215.211 232.285 m f
222.992 239.508 m 221.707 239.508 220.668 240.551 220.668 241.836 c 220.668
 243.121 221.707 244.164 222.992 244.164 c 224.281 244.164 225.32 243.121
 225.32 241.836 c 225.324 240.551 224.281 239.508 222.992 239.508 c h
222.992 239.508 m f
215.211 247.293 m 213.922 247.293 212.883 248.336 212.883 249.621 c 212.883
 250.906 213.922 251.949 215.211 251.949 c 216.496 251.949 217.535 250.906
 217.535 249.621 c 217.535 248.336 216.496 247.293 215.211 247.293 c h
215.211 247.293 m f
222.992 254.512 m 221.707 254.512 220.668 255.555 220.668 256.84 c 220.668
 258.125 221.707 259.168 222.992 259.168 c 224.281 259.168 225.32 258.125
 225.32 256.84 c 225.324 255.555 224.281 254.512 222.992 254.512 c h
222.992 254.512 m f
215.211 262.297 m 213.922 262.297 212.883 263.34 212.883 264.625 c 212.883
 265.91 213.922 266.953 215.211 266.953 c 216.496 266.953 217.535 265.91
 217.535 264.625 c 217.535 263.34 216.496 262.297 215.211 262.297 c h
215.211 262.297 m f
220.668 271.848 m 220.668 272.113 220.719 272.367 220.805 272.605 c 221.688
 271.582 222.566 270.566 223.438 269.562 c 223.293 269.535 223.145 269.52
 222.992 269.52 c 221.707 269.52 220.668 270.562 220.668 271.848 c h
220.668 271.848 m f
213.121 278.621 m 194.746 273.352 l 195.094 272.945 195.309 272.422 195.309
 271.848 c 195.309 270.562 194.27 269.52 192.984 269.52 c 191.699 269.52
 190.656 270.562 190.656 271.848 c 190.656 271.965 190.672 272.074 190.691
 272.188 c 35.215 227.594 l 21.059 237.109 11.219 251.406 5.957 270.781 
c 162.883 314.547 l 161.641 314.594 160.645 315.609 160.645 316.867 c 160.645
 318.152 161.684 319.191 162.969 319.191 c 164.254 319.191 165.297 318.152
 165.297 316.867 c 165.297 316.059 164.887 315.352 164.266 314.934 c 176.102
 318.234 l 176.523 318.812 177.203 319.191 177.977 319.191 c 178.297 319.191
 178.605 319.129 178.883 319.008 c 180.797 319.543 l 193.953 303.969 l 194.57
 303.684 195.035 303.137 195.215 302.473 c 199.898 296.93 l 199.98 296.941
 200.059 296.957 200.145 296.961 c 200.922 296.031 201.703 295.098 202.48
 294.168 c 202.465 294.094 202.441 294.023 202.418 293.949 c 206.758 288.812
 l 206.809 288.844 206.855 288.879 206.91 288.906 c 207.883 287.75 208.859
 286.594 209.832 285.449 c 209.793 285.402 209.746 285.363 209.707 285.32
 c 213.352 281.008 l 213.391 281.059 213.422 281.117 213.469 281.164 c 214.465
 279.992 215.461 278.828 216.449 277.672 c 216.09 277.441 215.664 277.305
 215.207 277.305 c 214.289 277.305 213.5 277.844 213.121 278.621 c h
213.121 278.621 m f
207.988 244.164 m 209.273 244.164 210.316 243.121 210.316 241.836 c 210.316
 240.551 209.273 239.508 207.988 239.508 c 206.703 239.508 205.66 240.551
 205.66 241.836 c 205.66 243.121 206.703 244.164 207.988 244.164 c h
207.988 244.164 m f
200.203 251.949 m 201.488 251.949 202.531 250.906 202.531 249.621 c 202.531
 248.336 201.488 247.293 200.203 247.293 c 198.918 247.293 197.875 248.336
 197.875 249.621 c 197.875 250.906 198.918 251.949 200.203 251.949 c h
200.203 251.949 m f
207.988 259.168 m 209.273 259.168 210.316 258.125 210.316 256.84 c 210.316
 255.555 209.273 254.512 207.988 254.512 c 206.703 254.512 205.66 255.555
 205.66 256.84 c 205.66 258.125 206.703 259.168 207.988 259.168 c h
207.988 259.168 m f
200.203 266.953 m 201.488 266.953 202.531 265.91 202.531 264.625 c 202.531
 263.34 201.488 262.297 200.203 262.297 c 198.918 262.297 197.875 263.34
 197.875 264.625 c 197.875 265.91 198.918 266.953 200.203 266.953 c h
200.203 266.953 m f
207.988 274.176 m 209.273 274.176 210.316 273.133 210.316 271.848 c 210.316
 270.562 209.273 269.52 207.988 269.52 c 206.703 269.52 205.66 270.562 205.66
 271.848 c 205.66 273.133 206.703 274.176 207.988 274.176 c h
207.988 274.176 m f
192.98 259.168 m 194.266 259.168 195.309 258.125 195.309 256.84 c 195.309
 255.555 194.266 254.512 192.98 254.512 c 191.695 254.512 190.656 255.555
 190.656 256.84 c 190.656 258.125 191.695 259.168 192.98 259.168 c h
192.98 259.168 m f
187.523 264.625 m 187.523 263.34 186.48 262.297 185.195 262.297 c 183.91
 262.297 182.871 263.34 182.871 264.625 c 182.871 265.91 183.91 266.953 
185.195 266.953 c 186.48 266.953 187.523 265.91 187.523 264.625 c h
187.523 264.625 m f
170.191 322.324 m 168.906 322.324 167.863 323.363 167.863 324.652 c 167.863
 325.938 168.906 326.977 170.191 326.977 c 171.477 326.977 172.52 325.938
 172.52 324.652 c 172.52 323.363 171.477 322.324 170.191 322.324 c h
170.191 322.324 m f
155.184 322.324 m 153.898 322.324 152.859 323.363 152.859 324.652 c 152.859
 325.938 153.898 326.977 155.184 326.977 c 156.469 326.977 157.512 325.938
 157.512 324.652 c 157.512 323.363 156.469 322.324 155.184 322.324 c h
155.184 322.324 m f
162.969 329.543 m 161.684 329.543 160.645 330.586 160.645 331.871 c 160.645
 333.156 161.684 334.199 162.969 334.199 c 164.254 334.199 165.297 333.156
 165.297 331.871 c 165.297 330.586 164.258 329.543 162.969 329.543 c h
162.969 329.543 m f
155.184 337.328 m 153.898 337.328 152.859 338.371 152.859 339.656 c 152.859
 340.941 153.898 341.984 155.184 341.984 c 156.469 341.984 157.512 340.941
 157.512 339.656 c 157.512 338.371 156.469 337.328 155.184 337.328 c h
155.184 337.328 m f
152.859 354.664 m 152.859 354.668 152.859 354.676 152.859 354.68 c 153.301
 354.129 153.926 353.355 154.707 352.387 c 153.648 352.605 152.859 353.543
 152.859 354.664 c h
152.859 354.664 m f
147.965 314.539 m 146.68 314.539 145.637 315.578 145.637 316.867 c 145.637
 318.152 146.68 319.191 147.965 319.191 c 149.25 319.191 150.293 318.152
 150.293 316.867 c 150.293 315.578 149.25 314.539 147.965 314.539 c h
147.965 314.539 m f
140.18 322.324 m 138.895 322.324 137.852 323.363 137.852 324.652 c 137.852
 325.938 138.895 326.977 140.18 326.977 c 141.465 326.977 142.508 325.938
 142.508 324.652 c 142.508 323.363 141.465 322.324 140.18 322.324 c h
140.18 322.324 m f
147.965 329.543 m 146.68 329.543 145.637 330.586 145.637 331.871 c 145.637
 333.156 146.68 334.199 147.965 334.199 c 149.25 334.199 150.293 333.156
 150.293 331.871 c 150.293 330.586 149.25 329.543 147.965 329.543 c h
147.965 329.543 m f
140.18 337.328 m 138.895 337.328 137.852 338.371 137.852 339.656 c 137.852
 340.941 138.895 341.984 140.18 341.984 c 141.465 341.984 142.508 340.941
 142.508 339.656 c 142.508 338.371 141.465 337.328 140.18 337.328 c h
140.18 337.328 m f
147.965 344.551 m 146.68 344.551 145.637 345.59 145.637 346.879 c 145.637
 348.164 146.68 349.203 147.965 349.203 c 149.25 349.203 150.293 348.164
 150.293 346.879 c 150.293 345.59 149.25 344.551 147.965 344.551 c h
147.965 344.551 m f
140.18 352.336 m 138.895 352.336 137.852 353.375 137.852 354.664 c 137.852
 355.949 138.895 356.988 140.18 356.988 c 141.465 356.988 142.508 355.949
 142.508 354.664 c 142.508 353.375 141.465 352.336 140.18 352.336 c h
140.18 352.336 m f
145.68 361.453 m 146.43 360.836 147.168 360.203 147.902 359.562 c 146.793
 359.59 145.879 360.395 145.68 361.453 c h
145.68 361.453 m f
132.957 329.543 m 131.672 329.543 130.629 330.586 130.629 331.871 c 130.629
 333.156 131.672 334.199 132.957 334.199 c 134.242 334.199 135.285 333.156
 135.285 331.871 c 135.285 330.586 134.246 329.543 132.957 329.543 c h
132.957 329.543 m f
125.172 337.328 m 123.887 337.328 122.844 338.371 122.844 339.656 c 122.844
 340.941 123.887 341.984 125.172 341.984 c 126.457 341.984 127.5 340.941
 127.5 339.656 c 127.5 338.371 126.457 337.328 125.172 337.328 c h
125.172 337.328 m f
132.957 344.551 m 131.672 344.551 130.629 345.59 130.629 346.879 c 130.629
 348.164 131.672 349.203 132.957 349.203 c 134.242 349.203 135.285 348.164
 135.285 346.879 c 135.285 345.59 134.246 344.551 132.957 344.551 c h
132.957 344.551 m f
125.172 352.336 m 123.887 352.336 122.844 353.375 122.844 354.664 c 122.844
 355.949 123.887 356.988 125.172 356.988 c 126.457 356.988 127.5 355.949
 127.5 354.664 c 127.5 353.375 126.457 352.336 125.172 352.336 c h
125.172 352.336 m f
132.957 359.555 m 131.672 359.555 130.629 360.598 130.629 361.883 c 130.629
 363.168 131.672 364.211 132.957 364.211 c 134.242 364.211 135.285 363.168
 135.285 361.883 c 135.285 360.598 134.246 359.555 132.957 359.555 c h
132.957 359.555 m f
125.172 367.34 m 123.887 367.34 122.844 368.383 122.844 369.668 c 122.844
 370.953 123.887 371.996 125.172 371.996 c 126.457 371.996 127.5 370.953
 127.5 369.668 c 127.5 368.383 126.457 367.34 125.172 367.34 c h
125.172 367.34 m f
117.953 344.551 m 116.668 344.551 115.625 345.59 115.625 346.879 c 115.625
 348.164 116.668 349.203 117.953 349.203 c 119.238 349.203 120.281 348.164
 120.281 346.879 c 120.281 345.59 119.238 344.551 117.953 344.551 c h
117.953 344.551 m f
110.168 352.336 m 108.883 352.336 107.84 353.375 107.84 354.664 c 107.84
 355.949 108.883 356.988 110.168 356.988 c 111.453 356.988 112.496 355.949
 112.496 354.664 c 112.496 353.375 111.453 352.336 110.168 352.336 c h
110.168 352.336 m f
117.953 359.555 m 116.668 359.555 115.625 360.598 115.625 361.883 c 115.625
 363.168 116.668 364.211 117.953 364.211 c 119.238 364.211 120.281 363.168
 120.281 361.883 c 120.281 360.598 119.238 359.555 117.953 359.555 c h
117.953 359.555 m f
110.168 367.34 m 108.883 367.34 107.84 368.383 107.84 369.668 c 107.84 
370.953 108.883 371.996 110.168 371.996 c 111.453 371.996 112.496 370.953
 112.496 369.668 c 112.496 368.383 111.453 367.34 110.168 367.34 c h
110.168 367.34 m f
117.953 374.562 m 116.668 374.562 115.625 375.602 115.625 376.891 c 115.625
 377.062 115.648 377.23 115.684 377.395 c 117.16 376.953 118.625 376.473
 120.078 375.949 c 119.719 375.133 118.902 374.562 117.953 374.562 c h
117.953 374.562 m f
101.176 348.367 m 101.602 348.875 102.23 349.203 102.945 349.203 c 104.23
 349.203 105.273 348.16 105.273 346.875 c 105.273 346.727 105.258 346.578
 105.23 346.438 c 103.891 347.121 102.539 347.758 101.176 348.367 c h
101.176 348.367 m f
95.16 352.336 m 93.875 352.336 92.832 353.375 92.832 354.664 c 92.832 355.949
 93.875 356.988 95.16 356.988 c 96.445 356.988 97.488 355.949 97.488 354.664
 c 97.488 353.375 96.445 352.336 95.16 352.336 c h
95.16 352.336 m f
102.945 359.555 m 101.66 359.555 100.617 360.598 100.617 361.883 c 100.617
 363.168 101.66 364.211 102.945 364.211 c 104.23 364.211 105.273 363.168
 105.273 361.883 c 105.273 360.598 104.23 359.555 102.945 359.555 c h
102.945 359.555 m f
95.16 367.34 m 93.875 367.34 92.832 368.383 92.832 369.668 c 92.832 370.953
 93.875 371.996 95.16 371.996 c 96.445 371.996 97.488 370.953 97.488 369.668
 c 97.488 368.383 96.445 367.34 95.16 367.34 c h
95.16 367.34 m f
102.945 374.562 m 101.66 374.562 100.617 375.602 100.617 376.891 c 100.617
 378.176 101.66 379.219 102.945 379.219 c 104.23 379.219 105.273 378.176
 105.273 376.891 c 105.273 375.602 104.23 374.562 102.945 374.562 c h
102.945 374.562 m f
77.867 355.07 m 78.062 356.16 79.008 356.988 80.156 356.988 c 81.441 356.988
 82.484 355.949 82.484 354.664 c 82.484 354.535 82.465 354.414 82.445 354.293
 c 80.926 354.59 79.398 354.855 77.867 355.07 c h
77.867 355.07 m f
87.941 359.555 m 86.656 359.555 85.613 360.598 85.613 361.883 c 85.613 
363.168 86.656 364.211 87.941 364.211 c 89.227 364.211 90.27 363.168 90.27
 361.883 c 90.27 360.598 89.227 359.555 87.941 359.555 c h
87.941 359.555 m f
80.156 367.34 m 78.871 367.34 77.828 368.383 77.828 369.668 c 77.828 370.953
 78.871 371.996 80.156 371.996 c 81.441 371.996 82.484 370.953 82.484 369.668
 c 82.484 368.383 81.441 367.34 80.156 367.34 c h
80.156 367.34 m f
87.941 374.562 m 86.656 374.562 85.613 375.602 85.613 376.891 c 85.613 
378.176 86.656 379.219 87.941 379.219 c 89.227 379.219 90.27 378.176 90.27
 376.891 c 90.27 375.602 89.227 374.562 87.941 374.562 c h
87.941 374.562 m f
65.148 356.988 m 65.98 356.988 66.707 356.551 67.117 355.895 c 65.801 355.914
 64.484 355.91 63.168 355.867 c 63.574 356.539 64.305 356.988 65.148 356.988
 c h
65.148 356.988 m f
72.934 359.555 m 71.648 359.555 70.605 360.598 70.605 361.883 c 70.605 
363.168 71.648 364.211 72.934 364.211 c 74.219 364.211 75.262 363.168 75.262
 361.883 c 75.262 360.598 74.219 359.555 72.934 359.555 c h
72.934 359.555 m f
65.148 367.34 m 63.863 367.34 62.82 368.383 62.82 369.668 c 62.82 370.953
 63.863 371.996 65.148 371.996 c 66.434 371.996 67.477 370.953 67.477 369.668
 c 67.477 368.383 66.434 367.34 65.148 367.34 c h
65.148 367.34 m f
72.934 374.562 m 71.648 374.562 70.605 375.602 70.605 376.891 c 70.605 
377.715 71.043 378.438 71.691 378.852 c 72.207 378.969 72.723 379.078 73.238
 379.188 c 74.379 379.035 75.262 378.07 75.262 376.891 c 75.262 375.602 
74.219 374.562 72.934 374.562 c h
72.934 374.562 m f
50.145 356.988 m 51.355 356.988 52.344 356.059 52.449 354.871 c 50.93 354.637
 49.418 354.359 47.91 354.043 c 47.855 354.242 47.816 354.445 47.816 354.664
 c 47.816 355.949 48.859 356.988 50.145 356.988 c h
50.145 356.988 m f
57.93 359.555 m 56.645 359.555 55.602 360.598 55.602 361.883 c 55.602 363.168
 56.645 364.211 57.93 364.211 c 59.215 364.211 60.254 363.168 60.254 361.883
 c 60.258 360.598 59.215 359.555 57.93 359.555 c h
57.93 359.555 m f
50.145 367.34 m 48.902 367.34 47.898 368.312 47.828 369.535 c 49.047 370.234
 50.277 370.902 51.52 371.539 c 52.094 371.113 52.473 370.438 52.473 369.668
 c 52.469 368.383 51.43 367.34 50.145 367.34 c h
50.145 367.34 m f
59.359 375.066 m 59.016 374.797 58.602 374.625 58.141 374.582 c 58.547 
374.75 58.953 374.906 59.359 375.066 c h
59.359 375.066 m f
35.137 352.336 m 33.852 352.336 32.809 353.375 32.809 354.664 c 32.809 
355.949 33.852 356.988 35.137 356.988 c 36.422 356.988 37.465 355.949 37.465
 354.664 c 37.465 353.375 36.422 352.336 35.137 352.336 c h
35.137 352.336 m f
42.922 359.555 m 41.637 359.555 40.594 360.598 40.594 361.883 c 40.594 
363.168 41.637 364.211 42.922 364.211 c 44.207 364.211 45.25 363.168 45.25
 361.883 c 45.25 360.598 44.207 359.555 42.922 359.555 c h
42.922 359.555 m f
25.59 346.875 m 25.59 348.16 26.633 349.203 27.918 349.203 c 28.75 349.203
 29.473 348.766 29.887 348.105 c 28.488 347.469 27.109 346.789 25.742 346.074
 c 25.648 346.324 25.59 346.594 25.59 346.875 c h
25.59 346.875 m f
360.367 106.883 m 360.367 106.848 360.375 106.816 360.375 106.781 c 360.375
 105.496 359.332 104.453 358.047 104.453 c 357.184 104.453 356.438 104.93
 356.035 105.633 c 204.48 61.809 l 168.258 103.605 l 318.008 145.168 l 318.27
 146.168 319.168 146.906 320.25 146.906 c 320.883 146.906 321.453 146.652
 321.875 146.242 c 340.746 151.48 l 340.73 151.586 340.715 151.691 340.715
 151.801 c 340.715 153.086 341.758 154.125 343.043 154.125 c 344.004 154.125
 344.828 153.543 345.184 152.711 c 351.457 154.453 l 353.004 153.406 354.453
 152.285 355.832 151.117 c 355.766 151.336 355.719 151.559 355.719 151.801
 c 355.719 151.863 355.734 151.926 355.738 151.992 c 356.562 151.168 357.359
 150.328 358.141 149.48 c 358.109 149.48 358.078 149.473 358.047 149.473
 c 357.91 149.473 357.773 149.488 357.645 149.512 c 366.359 141.426 371.547
 131.305 374.484 123.605 c 374.551 123.551 374.621 123.504 374.684 123.445
 c 374.918 122.863 375.145 122.277 375.371 121.688 c 375.363 121.566 375.344
 121.445 375.32 121.332 c 377.254 115.781 377.926 111.961 377.926 111.961
 c h
360.367 106.883 m f
0.917647 0.658824 0.584314 rg
365.27 116.895 m 366.555 116.895 367.598 115.852 367.598 114.566 c 367.598
 113.281 366.555 112.238 365.27 112.238 c 363.984 112.238 362.941 113.281
 362.941 114.566 c 362.941 115.852 363.984 116.895 365.27 116.895 c h
365.27 116.895 m f
373.055 119.461 m 371.77 119.461 370.727 120.5 370.727 121.789 c 370.727
 123.074 371.77 124.113 373.055 124.113 c 373.598 124.113 374.09 123.922
 374.484 123.609 c 374.789 122.812 375.07 122.043 375.328 121.301 c 375.105
 120.25 374.172 119.461 373.055 119.461 c h
373.055 119.461 m f
365.27 131.898 m 366.555 131.898 367.598 130.859 367.598 129.574 c 367.598
 128.289 366.555 127.246 365.27 127.246 c 363.984 127.246 362.941 128.289
 362.941 129.574 c 362.941 130.859 363.984 131.898 365.27 131.898 c h
365.27 131.898 m f
363.535 143.035 m 363.457 143.129 363.379 143.223 363.312 143.324 c 363.387
 143.227 363.465 143.133 363.535 143.035 c h
363.535 143.035 m f
355.719 106.781 m 355.719 108.066 356.762 109.109 358.047 109.109 c 359.297
 109.109 360.309 108.121 360.363 106.883 c 356.035 105.633 l 355.84 105.973
 355.719 106.359 355.719 106.781 c h
355.719 106.781 m f
350.262 112.238 m 348.977 112.238 347.934 113.281 347.934 114.566 c 347.934
 115.852 348.977 116.895 350.262 116.895 c 351.547 116.895 352.59 115.852
 352.59 114.566 c 352.59 113.281 351.547 112.238 350.262 112.238 c h
350.262 112.238 m f
358.047 119.461 m 356.762 119.461 355.719 120.5 355.719 121.789 c 355.719
 123.074 356.762 124.113 358.047 124.113 c 359.332 124.113 360.375 123.074
 360.375 121.789 c 360.375 120.5 359.332 119.461 358.047 119.461 c h
358.047 119.461 m f
350.262 127.246 m 348.977 127.246 347.934 128.285 347.934 129.57 c 347.934
 130.855 348.977 131.898 350.262 131.898 c 351.547 131.898 352.59 130.855
 352.59 129.57 c 352.59 128.285 351.547 127.246 350.262 127.246 c h
350.262 127.246 m f
358.047 134.465 m 356.762 134.465 355.719 135.508 355.719 136.793 c 355.719
 138.078 356.762 139.121 358.047 139.121 c 359.332 139.121 360.375 138.078
 360.375 136.793 c 360.375 135.508 359.332 134.465 358.047 134.465 c h
358.047 134.465 m f
350.262 146.906 m 351.547 146.906 352.59 145.863 352.59 144.578 c 352.59
 143.293 351.547 142.25 350.262 142.25 c 348.977 142.25 347.934 143.293 
347.934 144.578 c 347.934 145.863 348.977 146.906 350.262 146.906 c h
350.262 146.906 m f
355.828 151.137 m 356.453 150.605 357.059 150.062 357.648 149.512 c 356.777
 149.664 356.078 150.301 355.828 151.137 c h
355.828 151.137 m f
344.695 108.418 m 344.984 108.125 345.188 107.758 345.293 107.348 c 345.098
 107.707 344.898 108.062 344.695 108.418 c h
344.695 108.418 m f
343.043 119.461 m 341.758 119.461 340.715 120.5 340.715 121.789 c 340.715
 123.074 341.758 124.113 343.043 124.113 c 344.328 124.113 345.371 123.074
 345.371 121.789 c 345.371 120.5 344.328 119.461 343.043 119.461 c h
343.043 119.461 m f
332.93 129.574 m 332.93 130.859 333.973 131.898 335.258 131.898 c 336.543
 131.898 337.586 130.859 337.586 129.574 c 337.586 128.289 336.543 127.246
 335.258 127.246 c 333.973 127.246 332.93 128.285 332.93 129.574 c h
332.93 129.574 m f
343.043 134.465 m 341.758 134.465 340.715 135.508 340.715 136.793 c 340.715
 138.078 341.758 139.121 343.043 139.121 c 344.328 139.121 345.371 138.078
 345.371 136.793 c 345.371 135.508 344.328 134.465 343.043 134.465 c h
343.043 134.465 m f
335.258 146.906 m 336.543 146.906 337.586 145.863 337.586 144.578 c 337.586
 143.293 336.543 142.25 335.258 142.25 c 333.973 142.25 332.93 143.293 332.93
 144.578 c 332.93 145.863 333.973 146.906 335.258 146.906 c h
335.258 146.906 m f
345.371 151.801 m 345.371 150.516 344.328 149.473 343.043 149.473 c 341.867
 149.473 340.902 150.348 340.746 151.48 c 345.184 152.711 l 345.301 152.43
 345.371 152.125 345.371 151.801 c h
345.371 151.801 m f
325.707 136.793 m 325.707 138.078 326.75 139.121 328.035 139.121 c 329.32
 139.121 330.363 138.078 330.363 136.793 c 330.363 135.508 329.32 134.465
 328.035 134.465 c 326.75 134.465 325.707 135.508 325.707 136.793 c h
325.707 136.793 m f
322.578 144.578 m 322.578 143.293 321.535 142.25 320.25 142.25 c 318.965
 142.25 317.922 143.293 317.922 144.578 c 317.922 144.785 317.957 144.98
 318.008 145.168 c 321.875 146.242 l 322.309 145.82 322.578 145.23 322.578
 144.578 c h
322.578 144.578 m f
213.121 278.621 m 212.973 278.93 212.879 279.27 212.879 279.633 c 212.879
 280.152 213.059 280.629 213.348 281.016 c 214.93 279.141 l h
213.121 278.621 m f
197.875 279.633 m 197.875 280.918 198.918 281.961 200.203 281.961 c 201.488
 281.961 202.531 280.918 202.531 279.633 c 202.531 278.348 201.488 277.305
 200.203 277.305 c 198.918 277.305 197.875 278.348 197.875 279.633 c h
197.875 279.633 m f
207.988 284.523 m 206.703 284.523 205.66 285.566 205.66 286.855 c 205.66
 287.684 206.098 288.406 206.754 288.82 c 209.719 285.309 l 209.293 284.832
 208.68 284.523 207.988 284.523 c h
207.988 284.523 m f
200.203 292.309 m 198.918 292.309 197.875 293.352 197.875 294.637 c 197.875
 295.82 198.758 296.785 199.898 296.934 c 202.418 293.953 l 202.121 293.004
 201.25 292.309 200.203 292.309 c h
200.203 292.309 m f
192.98 274.176 m 193.691 274.176 194.316 273.852 194.746 273.352 c 190.688
 272.188 l 190.855 273.309 191.812 274.176 192.98 274.176 c h
192.98 274.176 m f
185.195 277.305 m 183.91 277.305 182.871 278.348 182.871 279.633 c 182.871
 280.918 183.91 281.961 185.195 281.961 c 186.48 281.961 187.523 280.918
 187.523 279.633 c 187.523 278.348 186.48 277.305 185.195 277.305 c h
185.195 277.305 m f
192.98 284.523 m 191.695 284.523 190.656 285.566 190.656 286.855 c 190.656
 288.141 191.695 289.18 192.98 289.18 c 194.266 289.18 195.309 288.141 195.309
 286.855 c 195.309 285.566 194.27 284.523 192.98 284.523 c h
192.98 284.523 m f
185.195 292.309 m 183.91 292.309 182.871 293.352 182.871 294.637 c 182.871
 295.926 183.91 296.965 185.195 296.965 c 186.48 296.965 187.523 295.926
 187.523 294.637 c 187.523 293.352 186.48 292.309 185.195 292.309 c h
185.195 292.309 m f
192.98 299.531 m 191.695 299.531 190.656 300.574 190.656 301.859 c 190.656
 303.145 191.695 304.188 192.98 304.188 c 193.332 304.188 193.66 304.105
 193.957 303.969 c 195.219 302.473 l 195.27 302.277 195.309 302.074 195.309
 301.859 c 195.309 300.574 194.27 299.531 192.98 299.531 c h
192.98 299.531 m f
185.195 311.973 m 186.48 311.973 187.523 310.93 187.523 309.645 c 187.523
 308.359 186.48 307.316 185.195 307.316 c 183.91 307.316 182.871 308.359
 182.871 309.645 c 182.871 310.93 183.91 311.973 185.195 311.973 c h
185.195 311.973 m f
177.977 269.52 m 177.512 269.52 177.082 269.66 176.719 269.891 c 176.422
 270.246 176.125 270.605 175.824 270.961 c 175.711 271.234 175.648 271.531
 175.648 271.848 c 175.648 273.133 176.691 274.176 177.977 274.176 c 179.262
 274.176 180.305 273.133 180.305 271.848 c 180.305 270.562 179.262 269.52
 177.977 269.52 c h
177.977 269.52 m f
170.191 281.961 m 171.477 281.961 172.52 280.918 172.52 279.633 c 172.52
 278.453 171.641 277.492 170.504 277.336 c 169.66 278.348 168.824 279.355
 167.992 280.359 c 168.297 281.285 169.16 281.961 170.191 281.961 c h
170.191 281.961 m f
177.977 284.523 m 176.691 284.523 175.648 285.566 175.648 286.855 c 175.648
 288.141 176.691 289.18 177.977 289.18 c 179.262 289.18 180.305 288.141 
180.305 286.855 c 180.305 285.566 179.262 284.523 177.977 284.523 c h
177.977 284.523 m f
170.191 292.309 m 168.906 292.309 167.863 293.352 167.863 294.637 c 167.863
 295.926 168.906 296.965 170.191 296.965 c 171.477 296.965 172.52 295.926
 172.52 294.637 c 172.52 293.352 171.477 292.309 170.191 292.309 c h
170.191 292.309 m f
177.977 299.531 m 176.691 299.531 175.648 300.574 175.648 301.859 c 175.648
 303.145 176.691 304.188 177.977 304.188 c 179.262 304.188 180.305 303.145
 180.305 301.859 c 180.305 300.574 179.262 299.531 177.977 299.531 c h
177.977 299.531 m f
170.191 307.316 m 168.906 307.316 167.863 308.359 167.863 309.645 c 167.863
 310.93 168.906 311.973 170.191 311.973 c 171.477 311.973 172.52 310.93 
172.52 309.645 c 172.52 308.359 171.477 307.316 170.191 307.316 c h
170.191 307.316 m f
180.305 316.863 m 180.305 315.578 179.262 314.535 177.977 314.535 c 176.691
 314.535 175.648 315.578 175.648 316.863 c 175.648 317.379 175.82 317.848
 176.102 318.23 c 178.887 319.008 l 179.719 318.652 180.305 317.828 180.305
 316.863 c h
180.305 316.863 m f
162.969 289.18 m 164.254 289.18 165.297 288.137 165.297 286.852 c 165.297
 286.031 164.871 285.312 164.227 284.898 c 163.238 286.094 162.258 287.277
 161.289 288.453 c 161.711 288.898 162.309 289.18 162.969 289.18 c h
162.969 289.18 m f
157.512 294.637 m 157.512 294.203 157.387 293.797 157.176 293.449 c 156.238
 294.586 155.312 295.711 154.402 296.82 c 154.648 296.91 154.91 296.965 
155.184 296.965 c 156.469 296.965 157.512 295.926 157.512 294.637 c h
157.512 294.637 m f
162.969 299.531 m 161.684 299.531 160.645 300.574 160.645 301.859 c 160.645
 303.145 161.684 304.188 162.969 304.188 c 164.254 304.188 165.297 303.145
 165.297 301.859 c 165.297 300.574 164.258 299.531 162.969 299.531 c h
162.969 299.531 m f
155.184 307.316 m 153.898 307.316 152.859 308.359 152.859 309.645 c 152.859
 310.93 153.898 311.973 155.184 311.973 c 156.469 311.973 157.512 310.93
 157.512 309.645 c 157.512 308.359 156.469 307.316 155.184 307.316 c h
155.184 307.316 m f
162.969 314.539 m 162.941 314.539 162.914 314.543 162.883 314.547 c 164.266
 314.934 l 163.895 314.684 163.449 314.539 162.969 314.539 c h
162.969 314.539 m f
150.293 301.859 m 150.293 301.852 150.289 301.848 150.289 301.84 c 149.652
 302.617 149.027 303.383 148.41 304.141 c 149.48 303.934 150.293 302.992
 150.293 301.859 c h
150.293 301.859 m f
0.192157 0.215686 0.239216 rg
357.809 27.594 m 356.43 26.215 l 339.523 9.309 317.051 0 293.145 0 c 269.238
 0 246.762 9.309 229.859 26.215 c 229.793 26.281 229.727 26.352 229.668 
26.422 c 229.043 27.18 166.703 102.453 135.746 134.406 c 104.836 166.312
 27.254 228.996 26.473 229.625 c 26.391 229.691 26.312 229.762 26.234 229.836
 c 9.332 246.742 0.02 269.219 0.02 293.121 c 0.02 317.027 9.332 339.504 
26.234 356.41 c 27.613 357.789 l 44.516 374.691 66.996 384.004 90.898 384.004
 c 114.805 384.004 137.281 374.691 154.188 357.789 c 154.266 357.711 154.336
 357.629 154.406 357.543 c 155.062 356.723 220.387 275.262 247.648 247.285
 c 274.879 219.344 356.715 155.051 357.539 154.402 c 357.633 154.332 357.723
 154.25 357.809 154.164 c 392.703 119.27 392.703 62.488 357.809 27.594 c
 h
234.191 30.352 m 249.953 14.641 270.883 5.992 293.145 5.992 c 315.449 5.992
 336.418 14.68 352.191 30.453 c 353.57 31.828 l 369.344 47.602 378.031 68.574
 378.031 90.879 c 378.031 97.023 377.367 103.066 376.082 108.926 c 209.469
 59.848 l 223.094 43.738 233.117 31.652 234.191 30.352 c h
30.363 234.184 m 30.875 233.77 32.875 232.148 36.004 229.598 c 79.168 242.348
 l 79.906 250.891 83.531 259.223 90.051 265.746 c 118.02 293.711 l 125.145
 300.84 134.621 304.762 144.699 304.762 c 154.781 304.762 164.254 300.84
 171.383 293.711 c 182.977 282.121 l 185.246 279.848 187.164 277.359 188.734
 274.719 c 209.75 280.926 l 199.656 292.812 189.199 305.395 179.898 316.699
 c 9.379 269.535 l 13.246 256.32 20.375 244.207 30.363 234.184 c h
149.832 353.664 m 134.074 369.363 113.148 378.008 90.898 378.008 c 68.594
 378.008 47.621 369.32 31.852 353.551 c 30.473 352.172 l 14.699 336.398 
6.012 315.426 6.012 293.121 c 6.012 287.07 6.656 281.121 7.902 275.344 c
 175.734 321.766 l 161.648 338.949 151.016 352.191 149.832 353.664 c h
243.359 243.098 m 235.695 250.961 225.074 262.988 213.723 276.262 c 213.836
 275.887 l 191.395 269.258 l 196.707 255.707 193.906 239.688 182.977 228.754
 c 155.008 200.789 l 140.297 186.078 116.355 186.078 101.645 200.789 c 90.055
 212.383 l 83.449 218.984 79.82 227.445 79.145 236.098 c 41.613 225.008 
l 64.531 206.207 116.09 163.309 140.051 138.578 c 147.914 130.461 157.777
 119.578 168.145 107.832 c 168.133 107.867 l 194.23 114.961 l 188.547 128.652
 191.254 145.039 202.375 156.156 c 230.34 184.121 l 237.695 191.477 247.359
 195.156 257.02 195.156 c 266.684 195.156 276.348 191.477 283.703 184.121
 c 295.297 172.527 l 302.758 165.066 306.43 155.227 306.32 145.426 c 345.699
 156.129 l 324.137 173.254 265.707 220.168 243.359 243.098 c h
353.695 149.801 m 353.398 150.035 352.656 150.621 351.535 151.504 c 305.707
 139.051 l 304.383 131.762 300.918 124.789 295.293 119.164 c 267.328 91.199
 l 252.613 76.484 228.676 76.484 213.965 91.199 c 202.371 102.789 l 200.301
 104.863 198.527 107.125 197.039 109.516 c 172.523 102.852 l 183.711 90.086
 195.223 76.648 205.234 64.848 c 374.586 114.73 l 370.703 127.836 363.609
 139.848 353.695 149.801 c h
353.695 149.801 m f
Q Q
showpage
%%Trailer
end
%%EOF
