%!PS-Adobe-3.0 EPSF-3.0
%%Creator: cairo 1.16.0 (https://cairographics.org)
%%CreationDate: Wed Jul 15 13:24:39 2020
%%Pages: 1
%%DocumentData: Clean7Bit
%%LanguageLevel: 2
%%BoundingBox: 0 0 384 384
%%EndComments
%%BeginProlog
50 dict begin
/q { gsave } bind def
/Q { grestore } bind def
/cm { 6 array astore concat } bind def
/w { setlinewidth } bind def
/J { setlinecap } bind def
/j { setlinejoin } bind def
/M { setmiterlimit } bind def
/d { setdash } bind def
/m { moveto } bind def
/l { lineto } bind def
/c { curveto } bind def
/h { closepath } bind def
/re { exch dup neg 3 1 roll 5 3 roll moveto 0 rlineto
      0 exch rlineto 0 rlineto closepath } bind def
/S { stroke } bind def
/f { fill } bind def
/f* { eofill } bind def
/n { newpath } bind def
/W { clip } bind def
/W* { eoclip } bind def
/BT { } bind def
/ET { } bind def
/BDC { mark 3 1 roll /BDC pdfmark } bind def
/EMC { mark /EMC pdfmark } bind def
/cairo_store_point { /cairo_point_y exch def /cairo_point_x exch def } def
/Tj { show currentpoint cairo_store_point } bind def
/TJ {
  {
    dup
    type /stringtype eq
    { show } { -0.001 mul 0 cairo_font_matrix dtransform rmoveto } ifelse
  } forall
  currentpoint cairo_store_point
} bind def
/cairo_selectfont { cairo_font_matrix aload pop pop pop 0 0 6 array astore
    cairo_font exch selectfont cairo_point_x cairo_point_y moveto } bind def
/Tf { pop /cairo_font exch def /cairo_font_matrix where
      { pop cairo_selectfont } if } bind def
/Td { matrix translate cairo_font_matrix matrix concatmatrix dup
      /cairo_font_matrix exch def dup 4 get exch 5 get cairo_store_point
      /cairo_font where { pop cairo_selectfont } if } bind def
/Tm { 2 copy 8 2 roll 6 array astore /cairo_font_matrix exch def
      cairo_store_point /cairo_font where { pop cairo_selectfont } if } bind def
/g { setgray } bind def
/rg { setrgbcolor } bind def
/d1 { setcachedevice } bind def
/cairo_data_source {
  CairoDataIndex CairoData length lt
    { CairoData CairoDataIndex get /CairoDataIndex CairoDataIndex 1 add def }
    { () } ifelse
} def
/cairo_flush_ascii85_file { cairo_ascii85_file status { cairo_ascii85_file flushfile } if } def
/cairo_image { image cairo_flush_ascii85_file } def
/cairo_imagemask { imagemask cairo_flush_ascii85_file } def
%%EndProlog
%%BeginSetup
%%EndSetup
%%Page: 1 1
%%BeginPageSetup
%%PageBoundingBox: 0 0 384 384
%%EndPageSetup
q 0 0 384 384 rectclip
1 0 0 -1 0 384 cm q
0.917647 0.658824 0.584314 rg
74.547 3.016 34.547 215.504 re f
274.906 3.016 34.547 215.504 re f
0.976471 0.984314 0.988235 rg
98.129 203.738 m 98.637 203.309 98.961 202.68 98.961 201.965 c 98.961 200.672
 97.914 199.625 96.621 199.625 c 95.332 199.625 94.281 200.672 94.281 201.965
 c 94.281 202.59 94.531 203.152 94.93 203.574 c 93.898 203.539 92.863 203.512
 91.82 203.512 c 88.746 203.512 85.711 203.672 82.719 203.977 c 83.41 203.566
 83.879 202.824 83.879 201.965 c 83.879 200.672 82.832 199.625 81.539 199.625
 c 80.246 199.625 79.199 200.672 79.199 201.965 c 79.199 203.016 79.898 
203.891 80.852 204.188 c 37.02 209.594 3.086 246.957 3.086 292.25 c 3.086
 341.258 42.812 380.984 91.82 380.984 c 140.828 380.984 180.555 341.254 
180.555 292.25 c 180.555 245.363 144.191 206.977 98.129 203.738 c h
91.82 352.301 m 58.652 352.301 31.77 325.414 31.77 292.25 c 31.77 259.082
 58.656 232.195 91.82 232.195 c 124.988 232.195 151.875 259.082 151.875 
292.25 c 151.875 325.414 124.988 352.301 91.82 352.301 c h
91.82 352.301 m f
103.879 181.965 m 105.172 181.965 106.219 180.918 106.219 179.625 c 106.219
 178.332 105.172 177.285 103.879 177.285 c 102.586 177.285 101.539 178.336
 101.539 179.625 c 101.539 180.918 102.586 181.965 103.879 181.965 c h
103.879 181.965 m f
103.879 197.047 m 105.172 197.047 106.219 196 106.219 194.707 c 106.219
 193.414 105.172 192.367 103.879 192.367 c 102.586 192.367 101.539 193.418
 101.539 194.707 c 101.539 196 102.586 197.047 103.879 197.047 c h
103.879 197.047 m f
96.621 174.141 m 97.914 174.141 98.961 173.094 98.961 171.801 c 98.961 
170.508 97.914 169.461 96.621 169.461 c 95.332 169.461 94.281 170.512 94.281
 171.801 c 94.281 173.094 95.332 174.141 96.621 174.141 c h
96.621 174.141 m f
88.797 181.965 m 90.09 181.965 91.137 180.918 91.137 179.625 c 91.137 178.332
 90.09 177.285 88.797 177.285 c 87.504 177.285 86.457 178.336 86.457 179.625
 c 86.457 180.918 87.504 181.965 88.797 181.965 c h
88.797 181.965 m f
96.621 189.223 m 97.914 189.223 98.961 188.176 98.961 186.883 c 98.961 
185.59 97.914 184.543 96.621 184.543 c 95.332 184.543 94.281 185.59 94.281
 186.883 c 94.281 188.176 95.332 189.223 96.621 189.223 c h
96.621 189.223 m f
88.797 197.047 m 90.09 197.047 91.137 196 91.137 194.707 c 91.137 193.414
 90.09 192.367 88.797 192.367 c 87.504 192.367 86.457 193.418 86.457 194.707
 c 86.457 196 87.504 197.047 88.797 197.047 c h
88.797 197.047 m f
81.539 174.141 m 82.832 174.141 83.879 173.094 83.879 171.801 c 83.879 
170.508 82.832 169.461 81.539 169.461 c 80.25 169.461 79.203 170.512 79.203
 171.801 c 79.199 173.094 80.25 174.141 81.539 174.141 c h
81.539 174.141 m f
76.055 179.625 m 76.055 178.629 75.426 177.781 74.547 177.445 c 74.547 
181.805 l 75.426 181.469 76.055 180.625 76.055 179.625 c h
76.055 179.625 m f
81.539 189.223 m 82.832 189.223 83.879 188.176 83.879 186.883 c 83.879 
185.59 82.832 184.543 81.539 184.543 c 80.25 184.543 79.203 185.59 79.203
 186.883 c 79.199 188.176 80.25 189.223 81.539 189.223 c h
81.539 189.223 m f
76.055 194.707 m 76.055 193.711 75.426 192.863 74.547 192.527 c 74.547 
196.887 l 75.426 196.551 76.055 195.707 76.055 194.707 c h
76.055 194.707 m f
304.238 181.965 m 305.527 181.965 306.574 180.918 306.574 179.625 c 306.574
 178.332 305.527 177.285 304.238 177.285 c 302.945 177.285 301.898 178.336
 301.898 179.625 c 301.898 180.918 302.945 181.965 304.238 181.965 c h
304.238 181.965 m f
304.238 197.047 m 305.527 197.047 306.574 196 306.574 194.707 c 306.574
 193.414 305.527 192.367 304.238 192.367 c 302.945 192.367 301.898 193.418
 301.898 194.707 c 301.898 196 302.945 197.047 304.238 197.047 c h
304.238 197.047 m f
296.98 174.141 m 298.273 174.141 299.32 173.094 299.32 171.801 c 299.32
 170.508 298.27 169.461 296.98 169.461 c 295.688 169.461 294.641 170.512
 294.641 171.801 c 294.641 173.094 295.688 174.141 296.98 174.141 c h
296.98 174.141 m f
289.156 181.965 m 290.449 181.965 291.496 180.918 291.496 179.625 c 291.496
 178.332 290.445 177.285 289.156 177.285 c 287.863 177.285 286.816 178.336
 286.816 179.625 c 286.816 180.918 287.863 181.965 289.156 181.965 c h
289.156 181.965 m f
296.98 189.223 m 298.273 189.223 299.32 188.176 299.32 186.883 c 299.32
 185.59 298.27 184.543 296.98 184.543 c 295.688 184.543 294.641 185.59 294.641
 186.883 c 294.641 188.176 295.688 189.223 296.98 189.223 c h
296.98 189.223 m f
289.156 197.047 m 290.449 197.047 291.496 196 291.496 194.707 c 291.496
 193.414 290.445 192.367 289.156 192.367 c 287.863 192.367 286.816 193.418
 286.816 194.707 c 286.816 196 287.863 197.047 289.156 197.047 c h
289.156 197.047 m f
281.898 174.141 m 283.191 174.141 284.238 173.094 284.238 171.801 c 284.238
 170.508 283.191 169.461 281.898 169.461 c 280.605 169.461 279.559 170.512
 279.559 171.801 c 279.559 173.094 280.605 174.141 281.898 174.141 c h
281.898 174.141 m f
276.414 179.625 m 276.414 178.629 275.785 177.781 274.906 177.445 c 274.906
 181.805 l 275.785 181.469 276.414 180.625 276.414 179.625 c h
276.414 179.625 m f
281.898 189.223 m 283.191 189.223 284.238 188.176 284.238 186.883 c 284.238
 185.59 283.191 184.543 281.898 184.543 c 280.605 184.543 279.559 185.59
 279.559 186.883 c 279.559 188.176 280.605 189.223 281.898 189.223 c h
281.898 189.223 m f
276.414 194.707 m 276.414 193.711 275.785 192.863 274.906 192.527 c 274.906
 196.887 l 275.785 196.551 276.414 195.707 276.414 194.707 c h
276.414 194.707 m f
298.488 203.738 m 298.992 203.312 299.32 202.68 299.32 201.965 c 299.32
 200.672 298.27 199.625 296.98 199.625 c 295.688 199.625 294.641 200.672
 294.641 201.965 c 294.641 202.59 294.887 203.156 295.289 203.574 c 294.254
 203.539 293.219 203.516 292.18 203.516 c 289.105 203.516 286.066 203.672
 283.074 203.977 c 283.766 203.57 284.238 202.824 284.238 201.965 c 284.238
 200.672 283.188 199.625 281.898 199.625 c 280.605 199.625 279.559 200.672
 279.559 201.965 c 279.559 203.016 280.254 203.895 281.207 204.188 c 237.375
 209.594 203.441 246.957 203.441 292.25 c 203.441 341.258 243.172 380.984
 292.176 380.984 c 341.184 380.984 380.91 341.254 380.91 292.25 c 380.914
 245.363 344.551 206.977 298.488 203.738 c h
292.18 352.301 m 259.012 352.301 232.125 325.414 232.125 292.25 c 232.125
 259.082 259.012 232.195 292.18 232.195 c 325.344 232.195 352.23 259.082
 352.23 292.25 c 352.23 325.414 325.344 352.301 292.18 352.301 c h
292.18 352.301 m f
0.192157 0.215686 0.239216 rg
112.109 202.762 m 112.109 3.016 l 112.109 1.352 110.758 0 109.094 0 c 74.547
 0 l 72.883 0 71.531 1.352 71.531 3.016 c 71.531 202.762 l 30.668 212.023
 0.07 248.629 0.07 292.25 c 0.07 342.84 41.23 384 91.82 384 c 142.414 384
 183.57 342.84 183.57 292.25 c 183.574 248.625 152.973 212.023 112.109 202.762
 c h
77.562 6.031 m 106.078 6.031 l 106.078 201.605 l 101.43 200.879 96.668 
200.496 91.82 200.496 c 86.973 200.496 82.211 200.879 77.562 201.605 c h
91.82 377.969 m 44.555 377.969 6.102 339.516 6.102 292.25 c 6.102 244.984
 44.555 206.531 91.82 206.531 c 139.086 206.531 177.539 244.984 177.539 
292.25 c 177.539 339.516 139.086 377.969 91.82 377.969 c h
91.82 377.969 m f
91.82 355.316 m 57.043 355.316 28.75 327.023 28.75 292.25 c 28.75 257.473
 57.047 229.18 91.82 229.18 c 126.598 229.18 154.891 257.473 154.891 292.25
 c 154.891 327.023 126.598 355.316 91.82 355.316 c h
91.82 235.211 m 60.371 235.211 34.785 260.797 34.785 292.25 c 34.785 323.699
 60.371 349.285 91.82 349.285 c 123.273 349.285 148.859 323.699 148.859 
292.25 c 148.859 260.797 123.27 235.211 91.82 235.211 c h
91.82 235.211 m f
312.469 202.762 m 312.469 3.016 l 312.469 1.352 311.117 0 309.453 0 c 274.906
 0 l 273.238 0 271.887 1.352 271.887 3.016 c 271.887 202.762 l 231.027 212.023
 200.426 248.629 200.426 292.25 c 200.426 342.84 241.586 384 292.18 384 
c 342.77 384 383.93 342.84 383.93 292.25 c 383.93 248.625 353.332 212.023
 312.469 202.762 c h
277.922 6.031 m 306.438 6.031 l 306.438 201.605 l 301.789 200.879 297.027
 200.496 292.18 200.496 c 287.332 200.496 282.57 200.879 277.922 201.605
 c h
292.18 377.969 m 244.914 377.969 206.461 339.516 206.461 292.25 c 206.461
 244.984 244.914 206.531 292.18 206.531 c 339.445 206.531 377.898 244.984
 377.898 292.25 c 377.898 339.516 339.445 377.969 292.18 377.969 c h
292.18 377.969 m f
292.18 355.316 m 257.402 355.316 229.109 327.023 229.109 292.25 c 229.109
 257.473 257.402 229.18 292.18 229.18 c 326.957 229.18 355.25 257.473 355.25
 292.25 c 355.25 327.023 326.957 355.316 292.18 355.316 c h
292.18 235.211 m 260.73 235.211 235.141 260.797 235.141 292.25 c 235.141
 323.699 260.73 349.285 292.18 349.285 c 323.629 349.285 349.215 323.699
 349.215 292.25 c 349.215 260.797 323.629 235.211 292.18 235.211 c h
292.18 235.211 m f
Q Q
showpage
%%Trailer
end
%%EOF
