%!PS-Adobe-3.0 EPSF-3.0
%%Creator: cairo 1.16.0 (https://cairographics.org)
%%CreationDate: Wed Jul 15 13:24:42 2020
%%Pages: 1
%%DocumentData: Clean7Bit
%%LanguageLevel: 2
%%BoundingBox: 0 36 384 348
%%EndComments
%%BeginProlog
50 dict begin
/q { gsave } bind def
/Q { grestore } bind def
/cm { 6 array astore concat } bind def
/w { setlinewidth } bind def
/J { setlinecap } bind def
/j { setlinejoin } bind def
/M { setmiterlimit } bind def
/d { setdash } bind def
/m { moveto } bind def
/l { lineto } bind def
/c { curveto } bind def
/h { closepath } bind def
/re { exch dup neg 3 1 roll 5 3 roll moveto 0 rlineto
      0 exch rlineto 0 rlineto closepath } bind def
/S { stroke } bind def
/f { fill } bind def
/f* { eofill } bind def
/n { newpath } bind def
/W { clip } bind def
/W* { eoclip } bind def
/BT { } bind def
/ET { } bind def
/BDC { mark 3 1 roll /BDC pdfmark } bind def
/EMC { mark /EMC pdfmark } bind def
/cairo_store_point { /cairo_point_y exch def /cairo_point_x exch def } def
/Tj { show currentpoint cairo_store_point } bind def
/TJ {
  {
    dup
    type /stringtype eq
    { show } { -0.001 mul 0 cairo_font_matrix dtransform rmoveto } ifelse
  } forall
  currentpoint cairo_store_point
} bind def
/cairo_selectfont { cairo_font_matrix aload pop pop pop 0 0 6 array astore
    cairo_font exch selectfont cairo_point_x cairo_point_y moveto } bind def
/Tf { pop /cairo_font exch def /cairo_font_matrix where
      { pop cairo_selectfont } if } bind def
/Td { matrix translate cairo_font_matrix matrix concatmatrix dup
      /cairo_font_matrix exch def dup 4 get exch 5 get cairo_store_point
      /cairo_font where { pop cairo_selectfont } if } bind def
/Tm { 2 copy 8 2 roll 6 array astore /cairo_font_matrix exch def
      cairo_store_point /cairo_font where { pop cairo_selectfont } if } bind def
/g { setgray } bind def
/rg { setrgbcolor } bind def
/d1 { setcachedevice } bind def
/cairo_data_source {
  CairoDataIndex CairoData length lt
    { CairoData CairoDataIndex get /CairoDataIndex CairoDataIndex 1 add def }
    { () } ifelse
} def
/cairo_flush_ascii85_file { cairo_ascii85_file status { cairo_ascii85_file flushfile } if } def
/cairo_image { image cairo_flush_ascii85_file } def
/cairo_imagemask { imagemask cairo_flush_ascii85_file } def
%%EndProlog
%%BeginSetup
%%EndSetup
%%Page: 1 1
%%BeginPageSetup
%%PageBoundingBox: 0 36 384 348
%%EndPageSetup
q 0 36 384 312 rectclip
1 0 0 -1 0 384 cm q
0.917647 0.658824 0.584314 rg
356.965 344.676 m 27.035 344.676 l 13.754 344.676 2.988 333.91 2.988 320.633
 c 2.988 81.457 l 2.988 68.176 13.754 57.41 27.035 57.41 c 356.965 57.41
 l 370.246 57.41 381.012 68.176 381.012 81.457 c 381.012 320.633 l 381.012
 333.91 370.246 344.676 356.965 344.676 c h
356.965 344.676 m f
0.976471 0.984314 0.988235 rg
381.012 305.801 m 381.012 301.441 l 380.957 301.422 380.902 301.406 380.852
 301.395 c 380.852 301.887 l 380.852 303.262 380.727 304.609 380.504 305.922
 c 380.68 305.898 380.852 305.859 381.012 305.801 c h
381.012 305.801 m f
381.012 316.449 m 380.762 316.359 380.496 316.301 380.215 316.301 c 378.93
 316.301 377.887 317.344 377.887 318.629 c 377.887 319.918 378.93 320.957
 380.215 320.957 c 380.492 320.957 380.758 320.902 381.008 320.812 c 381.008
 320.785 381.012 320.758 381.012 320.73 c h
381.012 316.449 m f
370.664 325.852 m 370.664 327.137 371.707 328.18 372.992 328.18 c 374.277
 328.18 375.32 327.137 375.32 325.852 c 375.32 324.566 374.277 323.523 372.992
 323.523 c 371.707 323.523 370.664 324.566 370.664 325.852 c h
370.664 325.852 m f
362.875 333.641 m 362.875 334.926 363.918 335.969 365.203 335.969 c 366.488
 335.969 367.531 334.926 367.531 333.641 c 367.531 332.355 366.488 331.312
 365.203 331.312 c 363.918 331.312 362.875 332.355 362.875 333.641 c h
362.875 333.641 m f
372.992 338.531 m 371.863 338.531 370.922 339.336 370.711 340.406 c 371.535
 339.832 372.324 339.211 373.066 338.543 c 373.043 338.539 373.016 338.531
 372.992 338.531 c h
372.992 338.531 m f
357.984 328.18 m 359.27 328.18 360.312 327.137 360.312 325.852 c 360.312
 325.762 360.293 325.68 360.285 325.59 c 359.18 325.746 358.051 325.832 
356.902 325.832 c 355.656 325.832 l 355.656 325.84 355.656 325.844 355.656
 325.852 c 355.652 327.137 356.695 328.18 357.984 328.18 c h
357.984 328.18 m f
347.867 333.641 m 347.867 334.926 348.91 335.969 350.195 335.969 c 351.48
 335.969 352.523 334.926 352.523 333.641 c 352.523 332.355 351.48 331.312
 350.195 331.312 c 348.91 331.312 347.867 332.355 347.867 333.641 c h
347.867 333.641 m f
360.312 340.863 m 360.312 339.574 359.27 338.531 357.984 338.531 c 356.699
 338.531 355.656 339.574 355.656 340.863 c 355.656 342.148 356.699 343.191
 357.984 343.191 c 359.27 343.188 360.312 342.148 360.312 340.863 c h
360.312 340.863 m f
342.973 328.18 m 344.258 328.18 345.301 327.137 345.301 325.852 c 345.301
 325.844 345.301 325.84 345.301 325.832 c 340.648 325.832 l 340.648 325.84
 340.645 325.848 340.645 325.852 c 340.645 327.137 341.688 328.18 342.973
 328.18 c h
342.973 328.18 m f
332.859 333.641 m 332.859 334.926 333.902 335.969 335.188 335.969 c 336.473
 335.969 337.516 334.926 337.516 333.641 c 337.516 332.355 336.473 331.312
 335.188 331.312 c 333.902 331.312 332.859 332.355 332.859 333.641 c h
332.859 333.641 m f
342.973 338.531 m 341.688 338.531 340.645 339.574 340.645 340.863 c 340.645
 342.148 341.688 343.191 342.973 343.191 c 344.258 343.191 345.301 342.148
 345.301 340.863 c 345.301 339.574 344.258 338.531 342.973 338.531 c h
342.973 338.531 m f
327.965 328.18 m 329.25 328.18 330.293 327.137 330.293 325.852 c 330.293
 325.844 330.289 325.84 330.289 325.832 c 325.637 325.832 l 325.637 325.84
 325.637 325.848 325.637 325.852 c 325.637 327.137 326.68 328.18 327.965
 328.18 c h
327.965 328.18 m f
317.852 333.641 m 317.852 334.926 318.891 335.969 320.176 335.969 c 321.465
 335.969 322.504 334.926 322.504 333.641 c 322.504 332.355 321.465 331.312
 320.176 331.312 c 318.891 331.312 317.852 332.355 317.852 333.641 c h
317.852 333.641 m f
327.965 338.531 m 326.68 338.531 325.637 339.574 325.637 340.863 c 325.637
 342.148 326.68 343.191 327.965 343.191 c 329.25 343.191 330.293 342.148
 330.293 340.863 c 330.293 339.574 329.25 338.531 327.965 338.531 c h
327.965 338.531 m f
312.957 328.18 m 314.242 328.18 315.285 327.137 315.285 325.852 c 315.285
 325.844 315.281 325.84 315.281 325.832 c 310.629 325.832 l 310.629 325.84
 310.629 325.848 310.629 325.852 c 310.629 327.137 311.672 328.18 312.957
 328.18 c h
312.957 328.18 m f
302.84 333.641 m 302.84 334.926 303.883 335.969 305.168 335.969 c 306.453
 335.969 307.496 334.926 307.496 333.641 c 307.496 332.355 306.453 331.312
 305.168 331.312 c 303.883 331.312 302.84 332.355 302.84 333.641 c h
302.84 333.641 m f
312.957 338.531 m 311.672 338.531 310.629 339.574 310.629 340.863 c 310.629
 342.148 311.672 343.191 312.957 343.191 c 314.242 343.191 315.285 342.148
 315.285 340.863 c 315.285 339.574 314.242 338.531 312.957 338.531 c h
312.957 338.531 m f
297.949 328.18 m 299.234 328.18 300.273 327.137 300.273 325.852 c 300.273
 325.844 300.273 325.84 300.273 325.832 c 295.621 325.832 l 295.621 325.84
 295.617 325.848 295.617 325.852 c 295.617 327.137 296.66 328.18 297.949
 328.18 c h
297.949 328.18 m f
287.832 333.641 m 287.832 334.926 288.875 335.969 290.16 335.969 c 291.445
 335.969 292.488 334.926 292.488 333.641 c 292.488 332.355 291.445 331.312
 290.16 331.312 c 288.875 331.312 287.832 332.355 287.832 333.641 c h
287.832 333.641 m f
297.949 338.531 m 296.66 338.531 295.621 339.574 295.621 340.863 c 295.621
 342.148 296.66 343.191 297.949 343.191 c 299.234 343.191 300.273 342.148
 300.273 340.863 c 300.273 339.574 299.234 338.531 297.949 338.531 c h
297.949 338.531 m f
282.938 328.18 m 284.223 328.18 285.266 327.137 285.266 325.852 c 285.266
 325.844 285.266 325.84 285.266 325.832 c 280.609 325.832 l 280.609 325.84
 280.609 325.848 280.609 325.852 c 280.609 327.137 281.652 328.18 282.938
 328.18 c h
282.938 328.18 m f
272.824 333.641 m 272.824 334.926 273.867 335.969 275.152 335.969 c 276.438
 335.969 277.48 334.926 277.48 333.641 c 277.48 332.355 276.438 331.312 
275.152 331.312 c 273.867 331.312 272.824 332.355 272.824 333.641 c h
272.824 333.641 m f
282.938 338.531 m 281.652 338.531 280.609 339.574 280.609 340.863 c 280.609
 342.148 281.652 343.191 282.938 343.191 c 284.223 343.191 285.266 342.148
 285.266 340.863 c 285.266 339.574 284.223 338.531 282.938 338.531 c h
282.938 338.531 m f
267.93 328.18 m 269.215 328.18 270.258 327.137 270.258 325.852 c 270.258
 325.844 270.254 325.84 270.254 325.832 c 265.602 325.832 l 265.602 325.84
 265.602 325.848 265.602 325.852 c 265.602 327.137 266.645 328.18 267.93
 328.18 c h
267.93 328.18 m f
257.812 333.641 m 257.812 334.926 258.855 335.969 260.141 335.969 c 261.426
 335.969 262.469 334.926 262.469 333.641 c 262.469 332.355 261.426 331.312
 260.141 331.312 c 258.855 331.312 257.812 332.355 257.812 333.641 c h
257.812 333.641 m f
267.93 338.531 m 266.645 338.531 265.602 339.574 265.602 340.863 c 265.602
 342.148 266.645 343.191 267.93 343.191 c 269.215 343.191 270.258 342.148
 270.258 340.863 c 270.258 339.574 269.215 338.531 267.93 338.531 c h
267.93 338.531 m f
252.922 328.18 m 254.207 328.18 255.25 327.137 255.25 325.852 c 255.25 
325.844 255.246 325.84 255.246 325.832 c 250.594 325.832 l 250.594 325.84
 250.594 325.848 250.594 325.852 c 250.594 327.137 251.633 328.18 252.922
 328.18 c h
252.922 328.18 m f
242.805 333.641 m 242.805 334.926 243.848 335.969 245.133 335.969 c 246.418
 335.969 247.461 334.926 247.461 333.641 c 247.461 332.355 246.418 331.312
 245.133 331.312 c 243.848 331.312 242.805 332.355 242.805 333.641 c h
242.805 333.641 m f
252.922 338.531 m 251.637 338.531 250.594 339.574 250.594 340.863 c 250.594
 342.148 251.637 343.191 252.922 343.191 c 254.207 343.191 255.25 342.148
 255.25 340.863 c 255.25 339.574 254.207 338.531 252.922 338.531 c h
252.922 338.531 m f
237.91 328.18 m 239.199 328.18 240.238 327.137 240.238 325.852 c 240.238
 325.844 240.238 325.84 240.238 325.832 c 235.586 325.832 l 235.586 325.84
 235.582 325.848 235.582 325.852 c 235.582 327.137 236.625 328.18 237.91
 328.18 c h
237.91 328.18 m f
227.797 333.641 m 227.797 334.926 228.84 335.969 230.125 335.969 c 231.41
 335.969 232.453 334.926 232.453 333.641 c 232.453 332.355 231.41 331.312
 230.125 331.312 c 228.84 331.312 227.797 332.355 227.797 333.641 c h
227.797 333.641 m f
237.91 338.531 m 236.625 338.531 235.582 339.574 235.582 340.863 c 235.582
 342.148 236.625 343.191 237.91 343.191 c 239.199 343.191 240.238 342.148
 240.238 340.863 c 240.238 339.574 239.199 338.531 237.91 338.531 c h
237.91 338.531 m f
222.902 328.18 m 224.188 328.18 225.23 327.137 225.23 325.852 c 225.23 
325.844 225.23 325.84 225.23 325.832 c 220.574 325.832 l 220.574 325.84 
220.574 325.848 220.574 325.852 c 220.574 327.137 221.617 328.18 222.902
 328.18 c h
222.902 328.18 m f
212.789 333.641 m 212.789 334.926 213.828 335.969 215.117 335.969 c 216.402
 335.969 217.445 334.926 217.445 333.641 c 217.445 332.355 216.402 331.312
 215.117 331.312 c 213.828 331.312 212.789 332.355 212.789 333.641 c h
212.789 333.641 m f
222.902 338.531 m 221.617 338.531 220.574 339.574 220.574 340.863 c 220.574
 342.148 221.617 343.191 222.902 343.191 c 224.188 343.191 225.23 342.148
 225.23 340.863 c 225.23 339.574 224.188 338.531 222.902 338.531 c h
222.902 338.531 m f
207.895 328.18 m 209.18 328.18 210.223 327.137 210.223 325.852 c 210.223
 325.844 210.219 325.84 210.219 325.832 c 205.566 325.832 l 205.566 325.84
 205.566 325.848 205.566 325.852 c 205.566 327.137 206.609 328.18 207.895
 328.18 c h
207.895 328.18 m f
197.777 333.641 m 197.777 334.926 198.82 335.969 200.105 335.969 c 201.391
 335.969 202.434 334.926 202.434 333.641 c 202.434 332.355 201.391 331.312
 200.105 331.312 c 198.82 331.312 197.777 332.355 197.777 333.641 c h
197.777 333.641 m f
207.895 338.531 m 206.609 338.531 205.566 339.574 205.566 340.863 c 205.566
 342.148 206.609 343.191 207.895 343.191 c 209.18 343.191 210.223 342.148
 210.223 340.863 c 210.223 339.574 209.18 338.531 207.895 338.531 c h
207.895 338.531 m f
192.887 328.18 m 194.172 328.18 195.215 327.137 195.215 325.852 c 195.215
 325.844 195.211 325.84 195.211 325.832 c 190.559 325.832 l 190.559 325.84
 190.555 325.848 190.555 325.852 c 190.555 327.137 191.598 328.18 192.887
 328.18 c h
192.887 328.18 m f
182.77 333.641 m 182.77 334.926 183.812 335.969 185.098 335.969 c 186.383
 335.969 187.426 334.926 187.426 333.641 c 187.426 332.355 186.383 331.312
 185.098 331.312 c 183.812 331.312 182.77 332.355 182.77 333.641 c h
182.77 333.641 m f
192.887 338.531 m 191.602 338.531 190.559 339.574 190.559 340.863 c 190.559
 342.148 191.602 343.191 192.887 343.191 c 194.172 343.191 195.215 342.148
 195.215 340.863 c 195.215 339.574 194.172 338.531 192.887 338.531 c h
192.887 338.531 m f
177.875 328.18 m 179.16 328.18 180.203 327.137 180.203 325.852 c 180.203
 325.844 180.203 325.84 180.203 325.832 c 175.551 325.832 l 175.551 325.84
 175.547 325.848 175.547 325.852 c 175.547 327.137 176.59 328.18 177.875
 328.18 c h
177.875 328.18 m f
167.762 333.641 m 167.762 334.926 168.805 335.969 170.09 335.969 c 171.375
 335.969 172.418 334.926 172.418 333.641 c 172.418 332.355 171.375 331.312
 170.09 331.312 c 168.805 331.312 167.762 332.355 167.762 333.641 c h
167.762 333.641 m f
177.875 338.531 m 176.59 338.531 175.547 339.574 175.547 340.863 c 175.547
 342.148 176.59 343.191 177.875 343.191 c 179.16 343.191 180.203 342.148
 180.203 340.863 c 180.203 339.574 179.16 338.531 177.875 338.531 c h
177.875 338.531 m f
162.867 328.18 m 164.152 328.18 165.195 327.137 165.195 325.852 c 165.195
 325.844 165.191 325.84 165.191 325.832 c 160.539 325.832 l 160.539 325.84
 160.539 325.848 160.539 325.852 c 160.539 327.137 161.582 328.18 162.867
 328.18 c h
162.867 328.18 m f
152.754 333.641 m 152.754 334.926 153.793 335.969 155.078 335.969 c 156.367
 335.969 157.406 334.926 157.406 333.641 c 157.406 332.355 156.367 331.312
 155.078 331.312 c 153.793 331.312 152.754 332.355 152.754 333.641 c h
152.754 333.641 m f
162.867 338.531 m 161.582 338.531 160.539 339.574 160.539 340.863 c 160.539
 342.148 161.582 343.191 162.867 343.191 c 164.152 343.191 165.195 342.148
 165.195 340.863 c 165.195 339.574 164.152 338.531 162.867 338.531 c h
162.867 338.531 m f
147.859 328.18 m 149.145 328.18 150.188 327.137 150.188 325.852 c 150.188
 325.844 150.184 325.84 150.184 325.832 c 145.531 325.832 l 145.531 325.84
 145.531 325.848 145.531 325.852 c 145.531 327.137 146.57 328.18 147.859
 328.18 c h
147.859 328.18 m f
137.742 333.641 m 137.742 334.926 138.785 335.969 140.07 335.969 c 141.355
 335.969 142.398 334.926 142.398 333.641 c 142.398 332.355 141.355 331.312
 140.07 331.312 c 138.785 331.312 137.742 332.355 137.742 333.641 c h
137.742 333.641 m f
147.859 338.531 m 146.574 338.531 145.531 339.574 145.531 340.863 c 145.531
 342.148 146.574 343.191 147.859 343.191 c 149.145 343.191 150.188 342.148
 150.188 340.863 c 150.188 339.574 149.145 338.531 147.859 338.531 c h
147.859 338.531 m f
132.852 328.18 m 134.137 328.18 135.176 327.137 135.176 325.852 c 135.176
 325.844 135.176 325.84 135.176 325.832 c 130.523 325.832 l 130.523 325.84
 130.52 325.848 130.52 325.852 c 130.52 327.137 131.562 328.18 132.852 328.18
 c h
132.852 328.18 m f
122.734 333.641 m 122.734 334.926 123.777 335.969 125.062 335.969 c 126.348
 335.969 127.391 334.926 127.391 333.641 c 127.391 332.355 126.348 331.312
 125.062 331.312 c 123.777 331.312 122.734 332.355 122.734 333.641 c h
122.734 333.641 m f
132.852 338.531 m 131.562 338.531 130.523 339.574 130.523 340.863 c 130.523
 342.148 131.562 343.191 132.852 343.191 c 134.137 343.191 135.176 342.148
 135.176 340.863 c 135.176 339.574 134.137 338.531 132.852 338.531 c h
132.852 338.531 m f
117.84 328.18 m 119.125 328.18 120.168 327.137 120.168 325.852 c 120.168
 325.844 120.168 325.84 120.168 325.832 c 115.512 325.832 l 115.512 325.84
 115.512 325.848 115.512 325.852 c 115.512 327.137 116.555 328.18 117.84
 328.18 c h
117.84 328.18 m f
107.727 333.641 m 107.727 334.926 108.77 335.969 110.055 335.969 c 111.34
 335.969 112.383 334.926 112.383 333.641 c 112.383 332.355 111.34 331.312
 110.055 331.312 c 108.77 331.312 107.727 332.355 107.727 333.641 c h
107.727 333.641 m f
117.84 338.531 m 116.555 338.531 115.512 339.574 115.512 340.863 c 115.512
 342.148 116.555 343.191 117.84 343.191 c 119.125 343.191 120.168 342.148
 120.168 340.863 c 120.168 339.574 119.125 338.531 117.84 338.531 c h
117.84 338.531 m f
102.832 328.18 m 104.117 328.18 105.16 327.137 105.16 325.852 c 105.16 
325.844 105.156 325.84 105.156 325.832 c 100.504 325.832 l 100.504 325.84
 100.504 325.848 100.504 325.852 c 100.504 327.137 101.547 328.18 102.832
 328.18 c h
102.832 328.18 m f
92.715 333.641 m 92.715 334.926 93.758 335.969 95.043 335.969 c 96.328 
335.969 97.371 334.926 97.371 333.641 c 97.371 332.355 96.328 331.312 95.043
 331.312 c 93.758 331.312 92.715 332.355 92.715 333.641 c h
92.715 333.641 m f
102.832 338.531 m 101.547 338.531 100.504 339.574 100.504 340.863 c 100.504
 342.148 101.547 343.191 102.832 343.191 c 104.117 343.191 105.16 342.148
 105.16 340.863 c 105.16 339.574 104.117 338.531 102.832 338.531 c h
102.832 338.531 m f
87.824 328.18 m 89.109 328.18 90.152 327.137 90.152 325.852 c 90.152 325.844
 90.148 325.84 90.148 325.832 c 85.496 325.832 l 85.496 325.84 85.496 325.848
 85.496 325.852 c 85.496 327.137 86.535 328.18 87.824 328.18 c h
87.824 328.18 m f
77.707 333.641 m 77.707 334.926 78.75 335.969 80.035 335.969 c 81.32 335.969
 82.363 334.926 82.363 333.641 c 82.363 332.355 81.32 331.312 80.035 331.312
 c 78.75 331.312 77.707 332.355 77.707 333.641 c h
77.707 333.641 m f
87.824 338.531 m 86.539 338.531 85.496 339.574 85.496 340.863 c 85.496 
342.148 86.539 343.191 87.824 343.191 c 89.109 343.191 90.152 342.148 90.152
 340.863 c 90.152 339.574 89.109 338.531 87.824 338.531 c h
87.824 338.531 m f
72.812 328.18 m 74.098 328.18 75.141 327.137 75.141 325.852 c 75.141 325.844
 75.141 325.84 75.141 325.832 c 70.488 325.832 l 70.488 325.84 70.484 325.848
 70.484 325.852 c 70.484 327.137 71.527 328.18 72.812 328.18 c h
72.812 328.18 m f
62.699 333.641 m 62.699 334.926 63.742 335.969 65.027 335.969 c 66.312 
335.969 67.355 334.926 67.355 333.641 c 67.355 332.355 66.312 331.312 65.027
 331.312 c 63.742 331.312 62.699 332.355 62.699 333.641 c h
62.699 333.641 m f
72.812 338.531 m 71.527 338.531 70.484 339.574 70.484 340.863 c 70.484 
342.148 71.527 343.191 72.812 343.191 c 74.098 343.191 75.141 342.148 75.141
 340.863 c 75.141 339.574 74.098 338.531 72.812 338.531 c h
72.812 338.531 m f
57.805 328.18 m 59.09 328.18 60.133 327.137 60.133 325.852 c 60.133 325.844
 60.133 325.84 60.133 325.832 c 55.48 325.832 l 55.48 325.84 55.477 325.848
 55.477 325.852 c 55.477 327.137 56.52 328.18 57.805 328.18 c h
57.805 328.18 m f
47.691 333.641 m 47.691 334.926 48.73 335.969 50.02 335.969 c 51.305 335.969
 52.348 334.926 52.348 333.641 c 52.348 332.355 51.305 331.312 50.02 331.312
 c 48.73 331.312 47.691 332.355 47.691 333.641 c h
47.691 333.641 m f
57.805 338.531 m 56.52 338.531 55.477 339.574 55.477 340.863 c 55.477 342.148
 56.52 343.191 57.805 343.191 c 59.09 343.191 60.133 342.148 60.133 340.863
 c 60.133 339.574 59.09 338.531 57.805 338.531 c h
57.805 338.531 m f
42.797 328.18 m 44.082 328.18 45.125 327.137 45.125 325.852 c 45.125 325.844
 45.121 325.84 45.121 325.832 c 40.469 325.832 l 40.469 325.84 40.469 325.848
 40.469 325.852 c 40.469 327.137 41.512 328.18 42.797 328.18 c h
42.797 328.18 m f
32.68 333.641 m 32.68 334.926 33.723 335.969 35.008 335.969 c 36.293 335.969
 37.336 334.926 37.336 333.641 c 37.336 332.355 36.293 331.312 35.008 331.312
 c 33.723 331.312 32.68 332.355 32.68 333.641 c h
32.68 333.641 m f
42.797 338.531 m 41.512 338.531 40.469 339.574 40.469 340.863 c 40.469 
342.148 41.512 343.191 42.797 343.191 c 44.082 343.191 45.125 342.148 45.125
 340.863 c 45.125 339.574 44.082 338.531 42.797 338.531 c h
42.797 338.531 m f
27.789 328.18 m 29.074 328.18 30.117 327.137 30.117 325.852 c 30.117 325.844
 30.113 325.84 30.113 325.832 c 26.777 325.832 l 26.336 325.832 25.898 325.816
 25.465 325.793 c 25.465 325.812 25.457 325.832 25.457 325.852 c 25.457 
327.137 26.5 328.18 27.789 328.18 c h
27.789 328.18 m f
17.672 333.641 m 17.672 334.926 18.715 335.969 20 335.969 c 21.285 335.969
 22.328 334.926 22.328 333.641 c 22.328 332.355 21.285 331.312 20 331.312
 c 18.715 331.312 17.672 332.355 17.672 333.641 c h
17.672 333.641 m f
30.117 340.863 m 30.117 339.574 29.074 338.531 27.789 338.531 c 26.5 338.531
 25.461 339.574 25.461 340.863 c 25.461 342.148 26.5 343.191 27.789 343.191
 c 29.074 343.188 30.117 342.148 30.117 340.863 c h
30.117 340.863 m f
3.02 304.852 m 3.012 304.773 3 304.699 2.988 304.621 c 2.988 304.793 l 
3 304.812 3.008 304.832 3.02 304.852 c h
3.02 304.852 m f
4.992 320.957 m 6.277 320.957 7.32 319.914 7.32 318.629 c 7.32 317.344 
6.277 316.301 4.992 316.301 c 4.133 316.301 3.395 316.77 2.988 317.457 c
 2.988 319.801 l 3.395 320.488 4.133 320.957 4.992 320.957 c h
4.992 320.957 m f
12.777 328.18 m 14.062 328.18 15.105 327.137 15.105 325.852 c 15.105 324.566
 14.062 323.523 12.777 323.523 c 11.492 323.523 10.449 324.566 10.449 325.852
 c 10.449 327.137 11.492 328.18 12.777 328.18 c h
12.777 328.18 m f
5.48 331.367 m 5.988 332.387 6.566 333.371 7.211 334.305 c 7.273 334.094
 7.32 333.871 7.32 333.641 c 7.32 332.523 6.531 331.59 5.48 331.367 c h
5.48 331.367 m f
15.105 340.863 m 15.105 339.574 14.062 338.531 12.777 338.531 c 12.273 
338.531 11.809 338.699 11.43 338.969 c 12.539 339.914 13.738 340.758 15.008
 341.492 c 15.066 341.289 15.105 341.082 15.105 340.863 c h
15.105 340.863 m f
0.917647 0.658824 0.584314 rg
155.227 307.629 m 79.746 307.629 l 63.809 307.629 50.891 294.711 50.891
 278.773 c 50.891 160.246 l 50.891 144.309 63.809 131.387 79.746 131.387
 c 155.227 131.387 l 171.16 131.387 184.082 144.309 184.082 160.246 c 184.082
 278.77 l 184.082 294.711 171.16 307.629 155.227 307.629 c h
155.227 307.629 m f
319.918 307.629 m 244.441 307.629 l 228.504 307.629 215.582 294.711 215.582
 278.773 c 215.582 160.246 l 215.582 144.309 228.504 131.387 244.441 131.387
 c 319.918 131.387 l 335.855 131.387 348.773 144.309 348.773 160.246 c 348.773
 278.77 l 348.773 294.711 335.855 307.629 319.918 307.629 c h
319.918 307.629 m f
0.976471 0.984314 0.988235 rg
155.227 307.629 m 79.746 307.629 l 63.809 307.629 50.891 294.711 50.891
 278.773 c 50.891 160.246 l 50.891 144.309 63.809 131.387 79.746 131.387
 c 155.227 131.387 l 171.16 131.387 184.082 144.309 184.082 160.246 c 184.082
 278.77 l 184.082 294.711 171.16 307.629 155.227 307.629 c h
155.227 307.629 m f
319.918 307.629 m 244.441 307.629 l 228.504 307.629 215.582 294.711 215.582
 278.773 c 215.582 160.246 l 215.582 144.309 228.504 131.387 244.441 131.387
 c 319.918 131.387 l 335.855 131.387 348.773 144.309 348.773 160.246 c 348.773
 278.77 l 348.773 294.711 335.855 307.629 319.918 307.629 c h
319.918 307.629 m f
138.492 290.898 m 63.016 290.898 l 47.078 290.898 34.16 277.977 34.16 262.039
 c 34.16 143.512 l 34.16 127.578 47.078 114.656 63.016 114.656 c 138.492
 114.656 l 154.43 114.656 167.352 127.578 167.352 143.512 c 167.352 262.039
 l 167.352 277.977 154.43 290.898 138.492 290.898 c h
138.492 290.898 m f
303.188 290.898 m 227.711 290.898 l 211.773 290.898 198.852 277.977 198.852
 262.039 c 198.852 143.512 l 198.852 127.578 211.773 114.656 227.711 114.656
 c 303.188 114.656 l 319.125 114.656 332.043 127.578 332.043 143.512 c 332.043
 262.039 l 332.043 277.977 319.125 290.898 303.188 290.898 c h
303.188 290.898 m f
0.192157 0.215686 0.239216 rg
261.074 260.508 m 241.766 260.508 240.422 260.059 239.668 259.805 c 237.695
 259.148 236.227 257.676 235.641 255.766 c 234.566 252.273 235.852 250.59
 242.027 242.504 c 247.242 235.676 256.949 222.965 273.203 199.738 c 278.387
 192.336 281.723 185.625 283.129 179.781 c 283.551 176.496 l 283.371 165.34
 274.238 156.32 263.039 156.32 c 253.254 156.32 244.789 163.273 242.906 
172.852 c 242.309 175.902 239.352 177.891 236.301 177.289 c 233.25 176.691
 231.262 173.73 231.863 170.684 c 234.777 155.836 247.891 145.062 263.039
 145.062 c 280.559 145.062 294.809 159.312 294.809 176.832 c 294.809 177.07
 294.793 177.309 294.766 177.547 c 294.258 181.5 l 294.234 181.688 294.203
 181.871 294.16 182.055 c 292.465 189.371 288.516 197.492 282.426 206.195
 c 266.141 229.461 256.363 242.277 251.074 249.199 c 261.062 249.289 277.973
 249.191 293.441 249 c 293.465 248.996 293.492 248.996 293.516 248.996 c
 296.59 248.996 299.102 251.473 299.141 254.555 c 299.18 257.664 296.691
 260.215 293.582 260.254 c 279.203 260.438 268.727 260.508 261.074 260.508
 c h
261.074 260.508 m f
100.754 261.578 m 81.359 261.578 65.582 245.797 65.582 226.402 c 65.582
 179.152 l 65.582 159.758 81.359 143.98 100.754 143.98 c 120.148 143.98 
135.93 159.758 135.93 179.152 c 135.93 226.402 l 135.93 245.797 120.148 
261.578 100.754 261.578 c h
100.754 155.234 m 87.566 155.234 76.836 165.965 76.836 179.152 c 76.836
 226.402 l 76.836 239.59 87.566 250.32 100.754 250.32 c 113.941 250.32 124.672
 239.59 124.672 226.402 c 124.672 179.152 l 124.672 165.965 113.945 155.234
 100.754 155.234 c h
100.754 155.234 m f
167.797 130.957 m 162.953 119.625 151.695 111.668 138.613 111.668 c 62.898
 111.668 l 45.402 111.668 31.168 125.898 31.168 143.395 c 31.168 262.16 
l 31.168 275.242 39.129 286.5 50.461 291.348 c 55.312 302.664 66.555 310.621
 79.629 310.621 c 155.344 310.621 l 172.836 310.621 187.07 296.387 187.07
 278.891 c 187.07 160.125 l 187.07 147.051 179.117 135.809 167.797 130.957
 c h
37.148 262.16 m 37.148 143.395 l 37.148 129.195 48.699 117.645 62.898 117.645
 c 138.613 117.645 l 152.809 117.645 164.363 129.195 164.363 143.395 c 164.363
 262.16 l 164.363 276.355 152.809 287.906 138.613 287.906 c 62.898 287.906
 l 48.699 287.91 37.148 276.355 37.148 262.16 c h
181.094 278.891 m 181.094 293.09 169.543 304.641 155.344 304.641 c 79.629
 304.641 l 70.891 304.641 63.164 300.254 58.508 293.578 c 59.945 293.777
 61.406 293.887 62.898 293.887 c 138.613 293.887 l 156.105 293.887 170.34
 279.656 170.34 262.16 c 170.34 143.395 l 170.34 141.902 170.227 140.434
 170.027 138.996 c 176.707 143.648 181.09 151.383 181.09 160.125 c 181.09
 278.891 l h
181.094 278.891 m f
332.496 130.965 m 327.648 119.633 316.391 111.668 303.305 111.668 c 227.59
 111.668 l 210.094 111.668 195.863 125.898 195.863 143.395 c 195.863 262.16
 l 195.863 275.242 203.82 286.496 215.152 291.344 c 220.004 302.664 231.246
 310.621 244.32 310.621 c 320.035 310.621 l 337.531 310.621 351.766 296.387
 351.766 278.891 c 351.766 160.125 l 351.766 147.055 343.812 135.816 332.496
 130.965 c h
201.84 262.16 m 201.84 143.395 l 201.84 129.195 213.395 117.645 227.59 
117.645 c 303.305 117.645 l 317.504 117.645 329.055 129.195 329.055 143.395
 c 329.055 262.16 l 329.055 276.355 317.504 287.906 303.305 287.906 c 227.59
 287.906 l 213.391 287.91 201.84 276.355 201.84 262.16 c h
345.785 278.891 m 345.785 293.09 334.234 304.641 320.035 304.641 c 244.32
 304.641 l 235.582 304.641 227.852 300.254 223.195 293.574 c 224.633 293.777
 226.098 293.887 227.59 293.887 c 303.305 293.887 l 320.801 293.887 335.035
 279.656 335.035 262.16 c 335.035 143.395 l 335.035 141.906 334.922 140.445
 334.723 139.012 c 341.398 143.668 345.785 151.387 345.785 160.125 c h
345.785 278.891 m f
357.062 54.422 m 327.211 54.422 l 327.211 50.328 l 327.211 42.609 320.938
 36.332 313.219 36.332 c 234.406 36.332 l 226.691 36.332 220.414 42.609 
220.414 50.328 c 220.414 54.422 l 162.52 54.422 l 162.52 50.328 l 162.52
 42.609 156.242 36.332 148.527 36.332 c 69.715 36.332 l 62 36.332 55.723
 42.609 55.723 50.328 c 55.723 54.422 l 26.938 54.422 l 12.086 54.422 0 
66.504 0 81.355 c 0 320.73 l 0 335.582 12.086 347.668 26.938 347.668 c 357.062
 347.668 l 371.918 347.668 384 335.582 384 320.73 c 384 81.355 l 384 66.504
 371.918 54.422 357.062 54.422 c h
378.02 320.73 m 378.02 332.285 368.617 341.688 357.062 341.688 c 26.938
 341.688 l 15.383 341.688 5.98 332.285 5.98 320.73 c 5.98 81.355 l 5.98 
69.801 15.379 60.398 26.938 60.398 c 55.723 60.398 l 55.723 76.066 l 55.723
 83.781 62 90.062 69.715 90.062 c 148.527 90.062 l 156.242 90.062 162.52
 83.785 162.52 76.066 c 162.52 60.398 l 220.414 60.398 l 220.414 76.066 
l 220.414 83.781 226.691 90.062 234.406 90.062 c 313.219 90.062 l 320.938
 90.062 327.211 83.785 327.211 76.066 c 327.211 60.398 l 357.062 60.398 
l 368.617 60.398 378.02 69.801 378.02 81.355 c h
378.02 320.73 m f
Q Q
showpage
%%Trailer
end
%%EOF
