%!PS-Adobe-3.0 EPSF-3.0
%%Creator: cairo 1.16.0 (https://cairographics.org)
%%CreationDate: Wed Jul 15 13:24:43 2020
%%Pages: 1
%%DocumentData: Clean7Bit
%%LanguageLevel: 2
%%BoundingBox: 15 0 369 384
%%EndComments
%%BeginProlog
50 dict begin
/q { gsave } bind def
/Q { grestore } bind def
/cm { 6 array astore concat } bind def
/w { setlinewidth } bind def
/J { setlinecap } bind def
/j { setlinejoin } bind def
/M { setmiterlimit } bind def
/d { setdash } bind def
/m { moveto } bind def
/l { lineto } bind def
/c { curveto } bind def
/h { closepath } bind def
/re { exch dup neg 3 1 roll 5 3 roll moveto 0 rlineto
      0 exch rlineto 0 rlineto closepath } bind def
/S { stroke } bind def
/f { fill } bind def
/f* { eofill } bind def
/n { newpath } bind def
/W { clip } bind def
/W* { eoclip } bind def
/BT { } bind def
/ET { } bind def
/BDC { mark 3 1 roll /BDC pdfmark } bind def
/EMC { mark /EMC pdfmark } bind def
/cairo_store_point { /cairo_point_y exch def /cairo_point_x exch def } def
/Tj { show currentpoint cairo_store_point } bind def
/TJ {
  {
    dup
    type /stringtype eq
    { show } { -0.001 mul 0 cairo_font_matrix dtransform rmoveto } ifelse
  } forall
  currentpoint cairo_store_point
} bind def
/cairo_selectfont { cairo_font_matrix aload pop pop pop 0 0 6 array astore
    cairo_font exch selectfont cairo_point_x cairo_point_y moveto } bind def
/Tf { pop /cairo_font exch def /cairo_font_matrix where
      { pop cairo_selectfont } if } bind def
/Td { matrix translate cairo_font_matrix matrix concatmatrix dup
      /cairo_font_matrix exch def dup 4 get exch 5 get cairo_store_point
      /cairo_font where { pop cairo_selectfont } if } bind def
/Tm { 2 copy 8 2 roll 6 array astore /cairo_font_matrix exch def
      cairo_store_point /cairo_font where { pop cairo_selectfont } if } bind def
/g { setgray } bind def
/rg { setrgbcolor } bind def
/d1 { setcachedevice } bind def
/cairo_data_source {
  CairoDataIndex CairoData length lt
    { CairoData CairoDataIndex get /CairoDataIndex CairoDataIndex 1 add def }
    { () } ifelse
} def
/cairo_flush_ascii85_file { cairo_ascii85_file status { cairo_ascii85_file flushfile } if } def
/cairo_image { image cairo_flush_ascii85_file } def
/cairo_imagemask { imagemask cairo_flush_ascii85_file } def
%%EndProlog
%%BeginSetup
%%EndSetup
%%Page: 1 1
%%BeginPageSetup
%%PageBoundingBox: 15 0 369 384
%%EndPageSetup
q 15 0 354 384 rectclip
1 0 0 -1 0 384 cm q
0.976471 0.984314 0.988235 rg
343.945 264.477 m 333.027 251.934 316.953 243.992 299.016 243.992 c 281.078
 243.992 265.008 251.934 254.09 264.477 c 244.988 274.938 239.465 288.59
 239.465 303.543 c 239.465 318.496 244.988 332.148 254.09 342.605 c 265.008
 355.152 281.078 363.094 299.016 363.094 c 316.953 363.094 333.027 355.152
 343.945 342.605 c 353.047 332.148 358.57 318.496 358.57 303.543 c 358.57
 288.59 353.047 274.938 343.945 264.477 c h
343.945 264.477 m f
0.917647 0.658824 0.584314 rg
353.73 280.02 m 353.684 279.918 353.633 279.816 353.59 279.711 c 353.629
 279.82 353.676 279.922 353.73 280.02 c h
353.73 280.02 m f
355.77 291.613 m 354.484 291.613 353.441 292.656 353.441 293.941 c 353.441
 295.227 354.484 296.273 355.77 296.273 c 356.742 296.273 357.574 295.676
 357.926 294.828 c 357.805 294.02 357.676 293.219 357.523 292.422 c 357.098
 291.93 356.473 291.613 355.77 291.613 c h
355.77 291.613 m f
355.77 306.633 m 354.484 306.633 353.441 307.676 353.441 308.965 c 353.441
 310.25 354.484 311.293 355.77 311.293 c 357.059 311.293 358.102 310.25 
358.102 308.965 c 358.102 307.676 357.059 306.633 355.77 306.633 c h
355.77 306.633 m f
353.441 323.984 m 353.441 324.695 353.766 325.32 354.266 325.75 c 354.809
 324.406 355.305 323.043 355.746 321.656 c 354.473 321.672 353.441 322.707
 353.441 323.984 c h
353.441 323.984 m f
348.543 273.457 m 349.125 273.457 349.648 273.238 350.055 272.887 c 349.262
 271.57 348.418 270.289 347.527 269.039 c 346.75 269.418 346.215 270.207
 346.215 271.125 c 346.215 272.414 347.258 273.457 348.543 273.457 c h
348.543 273.457 m f
348.543 288.477 m 349.832 288.477 350.875 287.434 350.875 286.148 c 350.875
 284.863 349.832 283.82 348.543 283.82 c 348.266 283.82 348.008 283.875 
347.758 283.965 c 347.77 284.41 347.789 284.852 347.789 285.301 c 347.789
 286.312 347.758 287.32 347.711 288.32 c 347.969 288.418 348.25 288.477 
348.543 288.477 c h
348.543 288.477 m f
343.082 308.965 m 343.082 308.836 343.062 308.715 343.043 308.594 c 342.707
 309.383 342.355 310.16 341.984 310.934 c 342.641 310.52 343.082 309.797
 343.082 308.965 c h
343.082 308.965 m f
348.543 313.863 m 347.258 313.863 346.215 314.906 346.215 316.191 c 346.215
 317.48 347.258 318.523 348.543 318.523 c 349.832 318.523 350.875 317.477
 350.875 316.191 c 350.875 314.906 349.832 313.863 348.543 313.863 c h
348.543 313.863 m f
340.75 321.656 m 339.465 321.656 338.422 322.699 338.422 323.984 c 338.422
 325.273 339.465 326.316 340.75 326.316 c 342.035 326.316 343.078 325.273
 343.078 323.984 c 343.082 322.699 342.039 321.656 340.75 321.656 c h
340.75 321.656 m f
348.543 333.543 m 349.832 333.543 350.875 332.5 350.875 331.215 c 350.875
 329.926 349.832 328.883 348.543 328.883 c 347.258 328.883 346.215 329.926
 346.215 331.215 c 346.215 332.5 347.258 333.543 348.543 333.543 c h
348.543 333.543 m f
340.75 336.676 m 339.465 336.676 338.422 337.719 338.422 339.008 c 338.422
 340.293 339.465 341.336 340.75 341.336 c 342.035 341.336 343.078 340.293
 343.078 339.008 c 343.082 337.719 342.039 336.676 340.75 336.676 c h
340.75 336.676 m f
331.191 331.215 m 331.191 332.5 332.234 333.543 333.52 333.543 c 334.809
 333.543 335.852 332.5 335.852 331.215 c 335.852 329.926 334.809 328.883
 333.52 328.883 c 332.234 328.883 331.191 329.926 331.191 331.215 c h
331.191 331.215 m f
325.727 336.676 m 324.441 336.676 323.398 337.719 323.398 339.008 c 323.398
 340.293 324.441 341.336 325.727 341.336 c 327.016 341.336 328.059 340.293
 328.059 339.008 c 328.059 337.719 327.016 336.676 325.727 336.676 c h
325.727 336.676 m f
333.523 348.566 m 334.809 348.566 335.852 347.523 335.852 346.234 c 335.852
 344.949 334.809 343.906 333.523 343.906 c 332.234 343.906 331.191 344.949
 331.191 346.234 c 331.191 347.523 332.234 348.566 333.523 348.566 c h
333.523 348.566 m f
325.727 351.699 m 324.441 351.699 323.398 352.742 323.398 354.027 c 323.398
 355.316 324.441 356.359 325.727 356.359 c 327.016 356.359 328.059 355.316
 328.059 354.027 c 328.059 352.742 327.016 351.699 325.727 351.699 c h
325.727 351.699 m f
312.992 339.469 m 311.828 340 310.641 340.5 309.438 340.957 c 309.805 341.195
 310.238 341.336 310.707 341.336 c 311.836 341.336 312.777 340.535 312.992
 339.469 c h
312.992 339.469 m f
316.172 346.234 m 316.172 347.523 317.215 348.566 318.5 348.566 c 319.785
 348.566 320.828 347.523 320.828 346.234 c 320.828 344.949 319.785 343.906
 318.5 343.906 c 317.215 343.906 316.172 344.949 316.172 346.234 c h
316.172 346.234 m f
310.707 351.699 m 309.422 351.699 308.375 352.742 308.375 354.027 c 308.375
 355.316 309.422 356.359 310.707 356.359 c 311.992 356.359 313.035 355.316
 313.035 354.027 c 313.039 352.742 311.992 351.699 310.707 351.699 c h
310.707 351.699 m f
318.5 358.926 m 317.465 358.926 316.598 359.605 316.293 360.543 c 317.488
 360.18 318.672 359.785 319.832 359.348 c 319.453 359.086 318.996 358.926
 318.5 358.926 c h
318.5 358.926 m f
295.684 351.699 m 294.398 351.699 293.355 352.742 293.355 354.027 c 293.355
 355.316 294.398 356.359 295.684 356.359 c 296.973 356.359 298.016 355.316
 298.016 354.027 c 298.016 352.742 296.973 351.699 295.684 351.699 c h
295.684 351.699 m f
305.809 361.258 m 305.809 359.969 304.766 358.926 303.48 358.926 c 302.191
 358.926 301.148 359.969 301.148 361.258 c 301.148 361.965 301.473 362.594
 301.973 363.02 c 303.066 362.965 304.156 362.883 305.238 362.77 c 305.59
 362.363 305.809 361.836 305.809 361.258 c h
305.809 361.258 m f
286.609 344.832 m 286.312 345.223 286.129 345.703 286.129 346.234 c 286.129
 347.523 287.172 348.562 288.457 348.562 c 289.742 348.562 290.789 347.52
 290.789 346.234 c 290.789 345.695 290.598 345.207 290.293 344.812 c 289.609
 344.836 288.926 344.852 288.238 344.852 c 287.691 344.852 287.148 344.844
 286.609 344.832 c h
286.609 344.832 m f
278.332 354.027 m 278.332 355.316 279.375 356.359 280.664 356.359 c 281.949
 356.359 282.992 355.316 282.992 354.027 c 282.992 352.742 281.949 351.699
 280.664 351.699 c 279.375 351.699 278.332 352.742 278.332 354.027 c h
278.332 354.027 m f
290.789 361.258 m 290.789 359.969 289.742 358.926 288.457 358.926 c 287.172
 358.926 286.129 359.969 286.129 361.258 c 286.129 361.41 286.145 361.559
 286.172 361.703 c 287.574 362.012 288.996 362.27 290.434 362.477 c 290.656
 362.121 290.789 361.707 290.789 361.258 c h
290.789 361.258 m f
265.641 341.336 m 266.129 341.336 266.582 341.184 266.957 340.926 c 265.738
 340.461 264.535 339.953 263.352 339.41 c 263.543 340.504 264.492 341.336
 265.641 341.336 c h
265.641 341.336 m f
271.105 346.234 m 271.105 347.523 272.148 348.566 273.434 348.566 c 274.723
 348.566 275.766 347.523 275.766 346.234 c 275.766 344.949 274.723 343.906
 273.434 343.906 c 272.148 343.906 271.105 344.949 271.105 346.234 c h
271.105 346.234 m f
265.641 351.699 m 265.207 351.699 264.805 351.824 264.457 352.031 c 265.59
 352.84 266.754 353.605 267.941 354.336 c 267.953 354.234 267.973 354.133
 267.973 354.027 c 267.973 352.742 266.93 351.699 265.641 351.699 c h
265.641 351.699 m f
250.621 336.676 m 250.289 336.676 249.977 336.746 249.695 336.871 c 250.543
 338.125 251.426 339.352 252.367 340.535 c 252.727 340.125 252.949 339.594
 252.949 339.008 c 252.949 337.719 251.906 336.676 250.621 336.676 c h
250.621 336.676 m f
260.742 346.234 m 260.742 344.949 259.699 343.906 258.414 343.906 c 257.539
 343.906 256.789 344.391 256.391 345.102 c 257.438 346.176 258.523 347.211
 259.648 348.203 c 260.305 347.793 260.742 347.066 260.742 346.234 c h
260.742 346.234 m f
358.617 296.395 m 351.762 295.918 344.961 296.578 338.461 298.27 c 335.613
 294.137 l 334.668 292.77 332.797 292.426 331.426 293.371 c 330.059 294.312
 329.715 296.188 330.66 297.555 c 332.453 300.16 l 325.043 302.914 318.16
 307.07 312.207 312.477 c 309.645 309.914 l 308.469 308.742 306.562 308.742
 305.387 309.914 c 304.211 311.09 304.211 312.996 305.387 314.172 c 307.949
 316.734 l 302.762 322.449 298.727 329.02 295.977 336.094 c 293.695 334.52
 l 292.328 333.578 290.453 333.922 289.512 335.289 c 288.566 336.656 288.91
 338.531 290.281 339.473 c 294 342.039 l 292.117 348.824 291.371 355.953
 291.867 363.145 c 291.977 364.73 293.301 365.945 294.867 365.945 c 294.938
 365.945 295.008 365.941 295.078 365.938 c 296.738 365.824 297.988 364.387
 297.871 362.727 c 297.473 356.941 297.977 351.203 299.289 345.688 c 301.074
 346.918 l 301.148 346.969 301.227 347.008 301.305 347.051 c 301.637 347.934
 302.48 348.566 303.48 348.566 c 304.766 348.566 305.809 347.523 305.809
 346.234 c 305.809 345.926 305.746 345.629 305.633 345.355 c 306.027 344.125
 305.609 342.734 304.492 341.965 c 301.094 339.621 l 303.543 332.805 307.289
 326.469 312.211 320.992 c 314.66 323.445 l 315.246 324.031 316.016 324.324
 316.789 324.324 c 317.559 324.324 318.328 324.031 318.914 323.445 c 320.09
 322.27 320.09 320.363 318.914 319.188 c 316.465 316.738 l 322.184 311.598
 328.844 307.746 336.004 305.305 c 338.102 308.352 l 338.688 309.199 339.629
 309.652 340.582 309.652 c 341.172 309.652 341.766 309.48 342.289 309.121
 c 343.656 308.176 344 306.301 343.059 304.934 c 342.133 303.594 l 343.691
 303.25 345.27 302.98 346.855 302.77 c 347.281 303.219 347.875 303.5 348.543
 303.5 c 349.375 303.5 350.102 303.059 350.516 302.402 c 353.059 302.227
 355.621 302.219 358.199 302.398 c 359.859 302.512 361.297 301.262 361.41
 299.605 c 361.527 297.945 360.273 296.508 358.617 296.395 c h
358.617 296.395 m f
288.391 297.172 m 288.977 297.758 289.746 298.051 290.516 298.051 c 291.285
 298.051 292.059 297.758 292.645 297.172 c 293.82 295.996 293.82 294.09 
292.645 292.914 c 290.082 290.352 l 295.516 284.371 299.684 277.449 302.438
 269.996 c 304.551 271.453 l 305.07 271.812 305.668 271.984 306.254 271.984
 c 307.211 271.984 308.152 271.531 308.734 270.684 c 309.68 269.316 309.336
 267.441 307.965 266.5 c 304.32 263.984 l 305.992 257.52 306.637 250.758
 306.164 243.941 c 306.047 242.285 304.621 241.039 302.953 241.148 c 301.293
 241.262 300.043 242.699 300.16 244.359 c 300.535 249.766 300.117 255.129
 298.992 260.309 c 297.172 259.055 l 295.805 258.109 293.93 258.453 292.988
 259.824 c 292.043 261.191 292.387 263.066 293.754 264.008 c 297.289 266.445
 l 294.855 273.648 290.988 280.348 285.824 286.094 c 283.371 283.641 l 282.195
 282.465 280.293 282.465 279.117 283.641 c 277.941 284.816 277.941 286.723
 279.117 287.898 c 281.566 290.348 l 276.062 295.297 269.68 299.055 262.824
 301.508 c 260.141 297.621 l 259.199 296.254 257.324 295.91 255.957 296.852
 c 254.59 297.797 254.246 299.668 255.188 301.039 c 256.746 303.297 l 251.27
 304.586 245.574 305.086 239.832 304.688 c 238.172 304.574 236.738 305.824
 236.625 307.48 c 236.508 309.137 237.758 310.574 239.418 310.691 c 240.871
 310.789 242.324 310.84 243.77 310.84 c 249.434 310.84 255.016 310.059 260.391
 308.578 c 262.633 311.832 l 263.219 312.68 264.156 313.133 265.113 313.133
 c 265.703 313.133 266.297 312.961 266.82 312.602 c 268.188 311.66 268.531
 309.785 267.59 308.414 c 266.344 306.613 l 273.461 303.863 280.082 299.828
 285.828 294.609 c h
288.391 297.172 m f
0.192157 0.215686 0.239216 rg
299.016 366.086 m 297.566 366.086 296.117 366.039 294.66 365.938 c 279.605
 364.891 265.441 358.445 254.777 347.781 c 244.113 337.117 237.668 322.953
 236.625 307.898 c 235.367 289.809 241.984 272.098 254.777 259.305 c 267.574
 246.512 285.285 239.895 303.371 241.148 c 318.43 242.191 332.59 248.641
 343.254 259.305 c 353.918 269.969 360.367 284.133 361.41 299.188 c 362.664
 317.277 356.047 334.988 343.254 347.781 c 331.488 359.543 315.566 366.086
 299.016 366.086 c h
299.02 247.016 m 284.059 247.016 269.668 252.93 259.035 263.562 c 247.473
 275.121 241.492 291.133 242.625 307.48 c 243.57 321.086 249.398 333.887
 259.035 343.523 c 268.672 353.16 281.473 358.988 295.078 359.934 c 311.43
 361.07 327.438 355.086 338.996 343.523 c 350.559 331.965 356.539 315.957
 355.406 299.605 c 354.461 286 348.633 273.199 338.996 263.562 c 329.359
 253.926 316.562 248.098 302.953 247.152 c 301.641 247.062 300.324 247.016
 299.02 247.016 c h
299.02 247.016 m f
0.913725 0.760784 0.470588 rg
54.723 360.398 m 124.797 290.41 l 128.523 286.281 132.414 282.305 136.469
 278.492 c 345.18 85.152 l 357.051 71.984 380.949 38.547 352.734 13.105 
c 325.418 -11.523 293.723 14.883 281.852 28.047 c 111.066 255.582 l 107.688
 260.012 104.137 264.293 100.414 268.422 c 37.816 345.152 l 32.676 343.488
 22.449 342.859 20.078 345.492 c 15.617 350.438 18.836 363.23 28.871 372.281
 c 38.91 381.332 51.965 383.211 56.426 378.266 c 58.797 375.637 56.91 365.34
 54.723 360.398 c h
54.723 360.398 m f
0.917647 0.658824 0.584314 rg
57.199 321.688 m 120.406 243.43 l 146.992 268.344 l 75.758 338.742 l h
57.199 321.688 m f
0.976471 0.984314 0.988235 rg
357.918 23.555 m 357.918 24.84 358.961 25.883 360.25 25.883 c 361.008 25.883
 361.676 25.516 362.098 24.957 c 361.457 23.715 360.727 22.48 359.902 21.258
 c 358.781 21.426 357.918 22.387 357.918 23.555 c h
357.918 23.555 m f
360.25 36.246 m 358.961 36.246 357.918 37.289 357.918 38.574 c 357.918 
39.859 358.961 40.906 360.25 40.906 c 361.535 40.906 362.578 39.859 362.578
 38.574 c 362.578 37.289 361.535 36.246 360.25 36.246 c h
360.25 36.246 m f
360.25 51.266 m 358.961 51.266 357.918 52.309 357.918 53.598 c 357.918 
54.883 358.961 55.926 360.25 55.926 c 361.535 55.926 362.578 54.883 362.578
 53.598 c 362.578 52.309 361.535 51.266 360.25 51.266 c h
360.25 51.266 m f
342.898 8.531 m 342.898 9.816 343.941 10.863 345.227 10.863 c 346.023 10.863
 346.719 10.465 347.141 9.855 c 345.832 9.246 344.414 8.625 342.961 8.016
 c 342.922 8.18 342.898 8.352 342.898 8.531 c h
342.898 8.531 m f
353.09 13.438 m 353.066 13.438 353.043 13.43 353.023 13.43 c 351.734 13.43
 350.691 14.473 350.691 15.762 c 350.691 17.047 351.734 18.09 353.023 18.09
 c 354.309 18.09 355.352 17.047 355.352 15.762 c 355.352 15.715 355.34 15.676
 355.34 15.633 c 354.633 14.895 353.879 14.164 353.09 13.438 c h
353.09 13.438 m f
345.227 21.223 m 343.941 21.223 342.898 22.266 342.898 23.555 c 342.898
 24.84 343.941 25.883 345.227 25.883 c 346.516 25.883 347.559 24.84 347.559
 23.555 c 347.559 22.266 346.516 21.223 345.227 21.223 c h
345.227 21.223 m f
353.023 28.453 m 351.734 28.453 350.691 29.496 350.691 30.781 c 350.691
 32.07 351.734 33.113 353.023 33.113 c 354.309 33.113 355.352 32.066 355.352
 30.781 c 355.352 29.496 354.309 28.453 353.023 28.453 c h
353.023 28.453 m f
345.227 36.246 m 343.941 36.246 342.898 37.289 342.898 38.574 c 342.898
 39.859 343.941 40.906 345.227 40.906 c 346.516 40.906 347.559 39.859 347.559
 38.574 c 347.559 37.289 346.516 36.246 345.227 36.246 c h
345.227 36.246 m f
353.023 43.473 m 351.734 43.473 350.691 44.516 350.691 45.805 c 350.691
 47.09 351.734 48.133 353.023 48.133 c 354.309 48.133 355.352 47.09 355.352
 45.805 c 355.352 44.516 354.309 43.473 353.023 43.473 c h
353.023 43.473 m f
345.227 51.266 m 343.941 51.266 342.898 52.309 342.898 53.598 c 342.898
 54.883 343.941 55.926 345.227 55.926 c 346.516 55.926 347.559 54.883 347.559
 53.598 c 347.559 52.309 346.516 51.266 345.227 51.266 c h
345.227 51.266 m f
353.023 58.496 m 351.734 58.496 350.691 59.539 350.691 60.824 c 350.691
 62.113 351.734 63.156 353.023 63.156 c 354.309 63.156 355.352 62.109 355.352
 60.824 c 355.352 59.539 354.309 58.496 353.023 58.496 c h
353.023 58.496 m f
345.227 66.289 m 343.941 66.289 342.898 67.332 342.898 68.617 c 342.898
 69.906 343.941 70.949 345.227 70.949 c 346.516 70.949 347.559 69.906 347.559
 68.617 c 347.559 67.332 346.516 66.289 345.227 66.289 c h
345.227 66.289 m f
350.691 75.848 m 350.691 76.516 350.977 77.113 351.43 77.539 c 352.316 
76.352 353.211 75.098 354.098 73.793 c 353.773 73.621 353.414 73.516 353.023
 73.516 c 351.734 73.516 350.691 74.559 350.691 75.848 c h
350.691 75.848 m f
345.227 81.309 m 343.941 81.309 342.898 82.352 342.898 83.641 c 342.898
 84.652 343.547 85.508 344.449 85.828 c 345.184 85.148 l 345.867 84.391 
346.59 83.562 347.344 82.676 c 346.977 81.871 346.168 81.309 345.227 81.309
 c h
345.227 81.309 m f
338 13.43 m 336.715 13.43 335.672 14.473 335.672 15.762 c 335.672 17.047
 336.715 18.09 338 18.09 c 339.285 18.09 340.328 17.047 340.328 15.762 c
 340.328 14.473 339.285 13.43 338 13.43 c h
338 13.43 m f
338 28.453 m 336.715 28.453 335.672 29.496 335.672 30.781 c 335.672 32.07
 336.715 33.113 338 33.113 c 339.285 33.113 340.328 32.066 340.328 30.781
 c 340.328 29.496 339.285 28.453 338 28.453 c h
338 28.453 m f
332.535 38.574 m 332.535 37.855 332.207 37.223 331.695 36.797 c 331.227
 38.156 330.715 39.523 330.156 40.898 c 330.172 40.898 330.188 40.906 330.207
 40.906 c 331.492 40.906 332.535 39.863 332.535 38.574 c h
332.535 38.574 m f
338 43.473 m 336.715 43.473 335.672 44.516 335.672 45.805 c 335.672 47.09
 336.715 48.133 338 48.133 c 339.285 48.133 340.328 47.09 340.328 45.805
 c 340.328 44.516 339.285 43.473 338 43.473 c h
338 43.473 m f
330.207 51.266 m 328.918 51.266 327.875 52.309 327.875 53.598 c 327.875
 54.883 328.918 55.926 330.207 55.926 c 331.492 55.926 332.535 54.883 332.535
 53.598 c 332.535 52.309 331.492 51.266 330.207 51.266 c h
330.207 51.266 m f
338 58.496 m 336.715 58.496 335.672 59.539 335.672 60.824 c 335.672 62.113
 336.715 63.156 338 63.156 c 339.285 63.156 340.328 62.109 340.328 60.824
 c 340.328 59.539 339.285 58.496 338 58.496 c h
338 58.496 m f
330.207 66.289 m 328.918 66.289 327.875 67.332 327.875 68.617 c 327.875
 69.906 328.918 70.949 330.207 70.949 c 331.492 70.949 332.535 69.906 332.535
 68.617 c 332.535 67.332 331.492 66.289 330.207 66.289 c h
330.207 66.289 m f
338 73.516 m 336.715 73.516 335.672 74.559 335.672 75.848 c 335.672 77.133
 336.715 78.176 338 78.176 c 339.285 78.176 340.328 77.133 340.328 75.848
 c 340.328 74.559 339.285 73.516 338 73.516 c h
338 73.516 m f
330.207 81.309 m 328.918 81.309 327.875 82.352 327.875 83.641 c 327.875
 84.926 328.918 85.969 330.207 85.969 c 331.492 85.969 332.535 84.926 332.535
 83.641 c 332.535 82.352 331.492 81.309 330.207 81.309 c h
330.207 81.309 m f
338 88.539 m 336.715 88.539 335.672 89.582 335.672 90.867 c 335.672 91.73
 336.145 92.473 336.84 92.879 c 340.094 89.863 l 339.719 89.082 338.926 
88.539 338 88.539 c h
338 88.539 m f
330.207 96.332 m 328.918 96.332 327.875 97.375 327.875 98.66 c 327.875 
99.367 328.199 99.992 328.695 100.422 c 332.078 97.285 l 331.656 96.711 
330.977 96.332 330.207 96.332 c h
330.207 96.332 m f
322.98 58.496 m 321.691 58.496 320.648 59.539 320.648 60.824 c 320.648 
62.113 321.691 63.156 322.98 63.156 c 324.266 63.156 325.309 62.109 325.309
 60.824 c 325.309 59.539 324.266 58.496 322.98 58.496 c h
322.98 58.496 m f
315.184 70.949 m 316.473 70.949 317.516 69.906 317.516 68.617 c 317.516
 67.656 316.934 66.832 316.102 66.477 c 315.254 67.742 314.391 68.996 313.516
 70.242 c 313.941 70.676 314.531 70.949 315.184 70.949 c h
315.184 70.949 m f
322.98 73.516 m 321.691 73.516 320.648 74.559 320.648 75.848 c 320.648 
77.133 321.691 78.176 322.98 78.176 c 324.266 78.176 325.309 77.133 325.309
 75.848 c 325.309 74.559 324.266 73.516 322.98 73.516 c h
322.98 73.516 m f
315.184 81.309 m 313.898 81.309 312.855 82.352 312.855 83.641 c 312.855
 84.926 313.898 85.969 315.184 85.969 c 316.473 85.969 317.516 84.926 317.516
 83.641 c 317.516 82.352 316.473 81.309 315.184 81.309 c h
315.184 81.309 m f
322.98 88.539 m 321.691 88.539 320.648 89.582 320.648 90.867 c 320.648 
92.156 321.691 93.199 322.98 93.199 c 324.266 93.199 325.309 92.156 325.309
 90.867 c 325.309 89.582 324.266 88.539 322.98 88.539 c h
322.98 88.539 m f
315.184 96.332 m 313.898 96.332 312.855 97.375 312.855 98.66 c 312.855 
99.949 313.898 100.992 315.184 100.992 c 316.473 100.992 317.516 99.949 
317.516 98.66 c 317.516 97.375 316.473 96.332 315.184 96.332 c h
315.184 96.332 m f
320.648 105.891 m 320.648 106.453 320.859 106.965 321.191 107.371 c 324.598
 104.219 l 324.176 103.812 323.609 103.559 322.98 103.559 c 321.691 103.559
 320.648 104.602 320.648 105.891 c h
320.648 105.891 m f
312.855 113.684 m 312.855 114.094 312.969 114.477 313.156 114.812 c 316.473
 111.742 l 316.102 111.496 315.66 111.352 315.184 111.352 c 313.898 111.352
 312.855 112.395 312.855 113.684 c h
312.855 113.684 m f
310.285 75.848 m 310.285 75.539 310.223 75.246 310.113 74.977 c 309.328
 76.043 308.539 77.105 307.742 78.156 c 307.812 78.16 307.883 78.176 307.957
 78.176 c 309.242 78.176 310.285 77.133 310.285 75.848 c h
310.285 75.848 m f
307.957 88.539 m 306.672 88.539 305.629 89.582 305.629 90.867 c 305.629
 92.156 306.672 93.199 307.957 93.199 c 309.242 93.199 310.285 92.156 310.285
 90.867 c 310.285 89.582 309.242 88.539 307.957 88.539 c h
307.957 88.539 m f
300.164 96.332 m 298.875 96.332 297.832 97.375 297.832 98.66 c 297.832 
99.949 298.875 100.992 300.164 100.992 c 301.449 100.992 302.492 99.949 
302.492 98.66 c 302.492 97.375 301.449 96.332 300.164 96.332 c h
300.164 96.332 m f
307.957 103.559 m 306.672 103.559 305.629 104.602 305.629 105.891 c 305.629
 107.176 306.672 108.219 307.957 108.219 c 309.242 108.219 310.285 107.176
 310.285 105.891 c 310.285 104.602 309.242 103.559 307.957 103.559 c h
307.957 103.559 m f
300.164 111.352 m 298.875 111.352 297.832 112.395 297.832 113.684 c 297.832
 114.969 298.875 116.012 300.164 116.012 c 301.449 116.012 302.492 114.969
 302.492 113.684 c 302.492 112.395 301.449 111.352 300.164 111.352 c h
300.164 111.352 m f
305.629 120.91 m 305.629 121.176 305.68 121.426 305.762 121.664 c 308.883
 118.773 l 308.598 118.652 308.285 118.582 307.957 118.582 c 306.672 118.582
 305.629 119.625 305.629 120.91 c h
305.629 120.91 m f
297.832 128.703 m 297.832 128.801 297.852 128.891 297.859 128.98 c 300.625
 126.422 l 300.477 126.391 300.32 126.375 300.164 126.375 c 298.875 126.375
 297.832 127.418 297.832 128.703 c h
297.832 128.703 m f
292.934 103.559 m 291.648 103.559 290.605 104.602 290.605 105.891 c 290.605
 107.176 291.648 108.219 292.934 108.219 c 294.223 108.219 295.266 107.176
 295.266 105.891 c 295.266 104.602 294.223 103.559 292.934 103.559 c h
292.934 103.559 m f
285.141 111.352 m 283.855 111.352 282.812 112.395 282.812 113.684 c 282.812
 114.969 283.855 116.012 285.141 116.012 c 286.43 116.012 287.473 114.969
 287.473 113.684 c 287.473 112.395 286.43 111.352 285.141 111.352 c h
285.141 111.352 m f
292.934 118.582 m 291.648 118.582 290.605 119.625 290.605 120.91 c 290.605
 122.199 291.648 123.242 292.934 123.242 c 294.223 123.242 295.266 122.199
 295.266 120.91 c 295.266 119.625 294.223 118.582 292.934 118.582 c h
292.934 118.582 m f
285.141 126.375 m 283.855 126.375 282.812 127.418 282.812 128.703 c 282.812
 129.992 283.855 131.035 285.141 131.035 c 286.43 131.035 287.473 129.992
 287.473 128.703 c 287.473 127.418 286.43 126.375 285.141 126.375 c h
285.141 126.375 m f
290.633 135.68 m 292.863 133.609 l 291.699 133.645 290.758 134.535 290.633
 135.68 c h
290.633 135.68 m f
283.07 142.684 m 284.273 141.566 l 283.746 141.777 283.324 142.18 283.07
 142.684 c h
283.07 142.684 m f
277.914 118.582 m 276.629 118.582 275.582 119.625 275.582 120.91 c 275.582
 122.199 276.629 123.242 277.914 123.242 c 279.199 123.242 280.242 122.199
 280.242 120.91 c 280.242 119.625 279.199 118.582 277.914 118.582 c h
277.914 118.582 m f
270.121 126.375 m 268.832 126.375 267.789 127.418 267.789 128.703 c 267.789
 129.992 268.832 131.035 270.121 131.035 c 271.406 131.035 272.449 129.992
 272.449 128.703 c 272.449 127.418 271.406 126.375 270.121 126.375 c h
270.121 126.375 m f
277.914 133.602 m 276.629 133.602 275.582 134.645 275.582 135.934 c 275.582
 137.219 276.629 138.262 277.914 138.262 c 279.199 138.262 280.242 137.219
 280.242 135.934 c 280.242 134.645 279.199 133.602 277.914 133.602 c h
277.914 133.602 m f
270.121 141.395 m 268.832 141.395 267.789 142.438 267.789 143.727 c 267.789
 145.012 268.832 146.055 270.121 146.055 c 271.406 146.055 272.449 145.012
 272.449 143.727 c 272.449 142.438 271.406 141.395 270.121 141.395 c h
270.121 141.395 m f
262.891 133.602 m 261.605 133.602 260.562 134.645 260.562 135.934 c 260.562
 137.219 261.605 138.262 262.891 138.262 c 264.18 138.262 265.223 137.219
 265.223 135.934 c 265.223 134.645 264.18 133.602 262.891 133.602 c h
262.891 133.602 m f
255.098 141.395 m 253.812 141.395 252.77 142.438 252.77 143.727 c 252.77
 145.012 253.812 146.055 255.098 146.055 c 256.387 146.055 257.43 145.012
 257.43 143.727 c 257.43 142.438 256.387 141.395 255.098 141.395 c h
255.098 141.395 m f
262.891 148.625 m 261.605 148.625 260.562 149.668 260.562 150.953 c 260.562
 152.242 261.605 153.285 262.891 153.285 c 264.18 153.285 265.223 152.242
 265.223 150.953 c 265.223 149.668 264.18 148.625 262.891 148.625 c h
262.891 148.625 m f
255.098 156.418 m 253.812 156.418 252.77 157.461 252.77 158.746 c 252.77
 160.035 253.812 161.078 255.098 161.078 c 256.387 161.078 257.43 160.035
 257.43 158.746 c 257.43 157.461 256.387 156.418 255.098 156.418 c h
255.098 156.418 m f
247.871 148.625 m 246.582 148.625 245.539 149.668 245.539 150.953 c 245.539
 152.242 246.582 153.285 247.871 153.285 c 249.156 153.285 250.199 152.242
 250.199 150.953 c 250.199 149.668 249.156 148.625 247.871 148.625 c h
247.871 148.625 m f
240.078 156.418 m 238.789 156.418 237.746 157.461 237.746 158.746 c 237.746
 160.035 238.789 161.078 240.078 161.078 c 241.363 161.078 242.406 160.035
 242.406 158.746 c 242.406 157.461 241.363 156.418 240.078 156.418 c h
240.078 156.418 m f
247.871 163.645 m 246.582 163.645 245.539 164.688 245.539 165.977 c 245.539
 167.262 246.582 168.305 247.871 168.305 c 249.156 168.305 250.199 167.262
 250.199 165.977 c 250.199 164.688 249.156 163.645 247.871 163.645 c h
247.871 163.645 m f
240.078 171.438 m 238.789 171.438 237.746 172.484 237.746 173.77 c 237.746
 175.055 238.789 176.098 240.078 176.098 c 241.363 176.098 242.406 175.055
 242.406 173.77 c 242.406 172.484 241.363 171.438 240.078 171.438 c h
240.078 171.438 m f
232.848 163.645 m 231.562 163.645 230.52 164.688 230.52 165.977 c 230.52
 167.262 231.562 168.305 232.848 168.305 c 234.137 168.305 235.18 167.262
 235.18 165.977 c 235.18 164.688 234.137 163.645 232.848 163.645 c h
232.848 163.645 m f
225.055 176.098 m 226.34 176.098 227.387 175.055 227.387 173.77 c 227.387
 172.484 226.34 171.438 225.055 171.438 c 224.98 171.438 224.91 171.453 
224.84 171.461 c 222.73 173.836 l 222.77 175.09 223.793 176.098 225.055 
176.098 c h
225.055 176.098 m f
232.848 178.668 m 231.562 178.668 230.52 179.711 230.52 180.996 c 230.52
 182.285 231.562 183.328 232.848 183.328 c 234.137 183.328 235.18 182.285
 235.18 180.996 c 235.18 179.711 234.137 178.668 232.848 178.668 c h
232.848 178.668 m f
225.055 186.461 m 223.77 186.461 222.727 187.504 222.727 188.789 c 222.727
 190.078 223.77 191.121 225.055 191.121 c 226.34 191.121 227.387 190.078
 227.387 188.789 c 227.387 187.504 226.344 186.461 225.055 186.461 c h
225.055 186.461 m f
217.828 183.328 m 219.113 183.328 220.156 182.285 220.156 180.996 c 220.156
 179.902 219.398 178.992 218.383 178.742 c 215.652 181.816 l 215.984 182.699
 216.828 183.328 217.828 183.328 c h
217.828 183.328 m f
210.035 191.121 m 211.32 191.121 212.363 190.078 212.363 188.789 c 212.363
 187.945 211.906 187.211 211.23 186.801 c 208.203 190.219 l 208.629 190.766
 209.285 191.121 210.035 191.121 c h
210.035 191.121 m f
217.828 193.688 m 216.539 193.688 215.496 194.734 215.496 196.02 c 215.496
 197.305 216.539 198.348 217.828 198.348 c 219.113 198.348 220.156 197.305
 220.156 196.02 c 220.156 194.734 219.113 193.688 217.828 193.688 c h
217.828 193.688 m f
210.035 201.48 m 208.746 201.48 207.703 202.527 207.703 203.812 c 207.703
 205.098 208.746 206.141 210.035 206.141 c 211.32 206.141 212.363 205.098
 212.363 203.812 c 212.363 202.527 211.32 201.48 210.035 201.48 c h
210.035 201.48 m f
205.137 196.02 m 205.137 195.395 204.887 194.828 204.484 194.41 c 201.41
 197.875 l 201.801 198.168 202.281 198.348 202.805 198.348 c 204.094 198.348
 205.137 197.305 205.137 196.02 c h
205.137 196.02 m f
197.344 203.812 m 197.344 203.43 197.242 203.078 197.082 202.758 c 194.211
 205.992 l 194.461 206.086 194.73 206.141 195.012 206.141 c 196.301 206.141
 197.344 205.098 197.344 203.812 c h
197.344 203.812 m f
202.805 208.711 m 201.52 208.711 200.477 209.754 200.477 211.039 c 200.477
 212.328 201.52 213.371 202.805 213.371 c 204.094 213.371 205.137 212.328
 205.137 211.039 c 205.137 209.754 204.094 208.711 202.805 208.711 c h
202.805 208.711 m f
195.012 216.504 m 193.727 216.504 192.684 217.547 192.684 218.832 c 192.684
 220.121 193.727 221.164 195.012 221.164 c 196.297 221.164 197.34 220.121
 197.34 218.832 c 197.344 217.547 196.301 216.504 195.012 216.504 c h
195.012 216.504 m f
190.113 211.039 m 190.113 210.91 190.098 210.781 190.074 210.656 c 187.68
 213.359 l 187.715 213.363 187.75 213.371 187.785 213.371 c 189.07 213.371
 190.113 212.328 190.113 211.039 c h
190.113 211.039 m f
182.203 219.535 m 180.938 220.957 l 181.543 220.688 182 220.172 182.203
 219.535 c h
182.203 219.535 m f
187.785 223.73 m 186.496 223.73 185.453 224.777 185.453 226.062 c 185.453
 227.348 186.496 228.391 187.785 228.391 c 189.07 228.391 190.113 227.348
 190.113 226.062 c 190.113 224.777 189.07 223.73 187.785 223.73 c h
187.785 223.73 m f
179.992 231.527 m 178.703 231.527 177.66 232.57 177.66 233.855 c 177.66
 235.141 178.703 236.184 179.992 236.184 c 181.277 236.184 182.32 235.141
 182.32 233.855 c 182.32 232.57 181.277 231.527 179.992 231.527 c h
179.992 231.527 m f
170.434 241.082 m 170.434 242.371 171.477 243.414 172.762 243.414 c 174.051
 243.414 175.094 242.371 175.094 241.082 c 175.094 239.797 174.051 238.754
 172.762 238.754 c 171.477 238.754 170.434 239.797 170.434 241.082 c h
170.434 241.082 m f
162.641 248.879 m 162.641 250.164 163.684 251.207 164.969 251.207 c 166.254
 251.207 167.297 250.164 167.297 248.879 c 167.297 247.59 166.254 246.547
 164.969 246.547 c 163.684 246.547 162.641 247.59 162.641 248.879 c h
162.641 248.879 m f
157.742 253.777 m 156.453 253.777 155.41 254.82 155.41 256.105 c 155.41
 257.395 156.453 258.434 157.742 258.434 c 157.879 258.434 158.012 258.418
 158.141 258.395 c 159.988 256.684 l 160.039 256.496 160.07 256.305 160.07
 256.105 c 160.07 254.82 159.027 253.777 157.742 253.777 c h
157.742 253.777 m f
149.945 261.57 m 148.66 261.57 147.617 262.613 147.617 263.898 c 147.617
 265.105 148.535 266.086 149.711 266.203 c 152.27 263.832 l 152.234 262.578
 151.211 261.57 149.945 261.57 c h
149.945 261.57 m f
0.192157 0.215686 0.239216 rg
354.75 10.871 m 342.141 -0.496 326.797 -3.008 310.375 3.613 c 295.426 9.637
 283.887 21.297 279.617 26.031 c 279.555 26.098 279.5 26.168 279.445 26.242
 c 108.672 253.758 l 105.359 258.102 101.828 262.355 98.176 266.406 c 98.145
 266.445 98.113 266.48 98.082 266.52 c 36.715 341.742 l 31.258 340.488 21.305
 339.637 17.844 343.477 c 11.773 350.207 15.984 364.711 26.855 374.516 c
 33.66 380.648 42.023 384 48.82 384 c 52.883 384 56.391 382.801 58.66 380.281
 c 62.078 376.492 60.094 366.523 58.234 361.145 c 126.926 292.539 l 126.961
 292.504 126.996 292.465 127.031 292.426 c 130.684 288.379 134.555 284.426
 138.516 280.699 c 347.227 87.359 l 347.293 87.297 347.355 87.234 347.418
 87.164 c 352.855 81.137 362.613 68.883 366.875 54.59 c 371.914 37.688 367.723
 22.57 354.75 10.871 c h
75.828 335.066 m 61.117 321.355 l 90.094 285.832 l 108.215 302.723 l h
51.973 361.617 m 54.156 366.555 55.148 374.711 54.191 376.25 c 51.227 379.539
 40.133 378.383 30.887 370.047 c 21.641 361.707 19.344 350.793 22.273 347.543
 c 22.941 346.996 24.98 346.707 27.477 346.707 c 30.477 346.707 34.137 347.125
 36.891 348.016 c 38.07 348.398 39.367 348.02 40.148 347.059 c 57.305 326.027
 l 71.566 339.32 l 52.598 358.27 l 51.715 359.148 51.469 360.477 51.973 
361.617 c h
134.41 276.301 m 130.328 280.137 126.363 284.188 122.617 288.34 c 112.477
 298.465 l 93.906 281.16 l 102.695 270.383 l 106.441 266.227 110.062 261.863
 113.473 257.391 c 120.758 247.684 l 142.961 268.375 l h
361.105 52.871 m 357.207 65.953 348.152 77.348 343.035 83.035 c 147.391
 264.273 l 124.391 242.844 l 284.176 29.961 l 290.605 22.863 322.84 -9.797
 350.719 15.34 c 362.004 25.516 365.496 38.145 361.105 52.871 c h
361.105 52.871 m f
Q Q
showpage
%%Trailer
end
%%EOF
