%!PS-Adobe-3.0 EPSF-3.0
%%Creator: cairo 1.16.0 (https://cairographics.org)
%%CreationDate: Wed Jul 15 13:24:45 2020
%%Pages: 1
%%DocumentData: Clean7Bit
%%LanguageLevel: 2
%%BoundingBox: 0 0 384 384
%%EndComments
%%BeginProlog
50 dict begin
/q { gsave } bind def
/Q { grestore } bind def
/cm { 6 array astore concat } bind def
/w { setlinewidth } bind def
/J { setlinecap } bind def
/j { setlinejoin } bind def
/M { setmiterlimit } bind def
/d { setdash } bind def
/m { moveto } bind def
/l { lineto } bind def
/c { curveto } bind def
/h { closepath } bind def
/re { exch dup neg 3 1 roll 5 3 roll moveto 0 rlineto
      0 exch rlineto 0 rlineto closepath } bind def
/S { stroke } bind def
/f { fill } bind def
/f* { eofill } bind def
/n { newpath } bind def
/W { clip } bind def
/W* { eoclip } bind def
/BT { } bind def
/ET { } bind def
/BDC { mark 3 1 roll /BDC pdfmark } bind def
/EMC { mark /EMC pdfmark } bind def
/cairo_store_point { /cairo_point_y exch def /cairo_point_x exch def } def
/Tj { show currentpoint cairo_store_point } bind def
/TJ {
  {
    dup
    type /stringtype eq
    { show } { -0.001 mul 0 cairo_font_matrix dtransform rmoveto } ifelse
  } forall
  currentpoint cairo_store_point
} bind def
/cairo_selectfont { cairo_font_matrix aload pop pop pop 0 0 6 array astore
    cairo_font exch selectfont cairo_point_x cairo_point_y moveto } bind def
/Tf { pop /cairo_font exch def /cairo_font_matrix where
      { pop cairo_selectfont } if } bind def
/Td { matrix translate cairo_font_matrix matrix concatmatrix dup
      /cairo_font_matrix exch def dup 4 get exch 5 get cairo_store_point
      /cairo_font where { pop cairo_selectfont } if } bind def
/Tm { 2 copy 8 2 roll 6 array astore /cairo_font_matrix exch def
      cairo_store_point /cairo_font where { pop cairo_selectfont } if } bind def
/g { setgray } bind def
/rg { setrgbcolor } bind def
/d1 { setcachedevice } bind def
/cairo_data_source {
  CairoDataIndex CairoData length lt
    { CairoData CairoDataIndex get /CairoDataIndex CairoDataIndex 1 add def }
    { () } ifelse
} def
/cairo_flush_ascii85_file { cairo_ascii85_file status { cairo_ascii85_file flushfile } if } def
/cairo_image { image cairo_flush_ascii85_file } def
/cairo_imagemask { imagemask cairo_flush_ascii85_file } def
%%EndProlog
%%BeginSetup
%%EndSetup
%%Page: 1 1
%%BeginPageSetup
%%PageBoundingBox: 0 0 384 384
%%EndPageSetup
q 0 0 384 384 rectclip
1 0 0 -1 0 384 cm q
0.917647 0.658824 0.584314 rg
373.219 303.348 m 344.512 316.266 l 337.777 319.293 330.168 316.59 327.977
 310.383 c 312.398 267.809 l 358.48 249.375 l 379.684 286.891 l 383.031 
292.656 380.039 300.281 373.219 303.348 c h
373.219 303.348 m f
0.192157 0.215686 0.239216 rg
179.598 87.266 m 179.035 81.973 178.496 76.434 177.98 70.918 c 176.035 
71.516 174.043 72.02 172.027 72.281 c 172.516 77.496 172.996 82.383 173.473
 86.926 c 175.52 86.977 177.559 87.078 179.598 87.266 c h
179.598 87.266 m f
0.913725 0.760784 0.470588 rg
294.727 172.68 m 254.543 159.227 198.25 146.582 183.125 123.051 c 175.422
 111.074 172.316 11.508 166.793 7.09 c 162.703 3.816 92.02 0.09 85.074 6.723
 c 84.262 7.5 83.414 10.66 82.578 15.605 c 56.777 14.812 24.113 14.824 22.277
 16.492 c 19.277 19.207 23.113 88.051 18.18 106.617 c 13.246 125.184 9.887
 158.66 9.988 172.148 c 10.09 185.633 14.098 243.465 19.559 253.02 c 25.02
 262.578 80.98 254.219 94.633 256.949 c 108.285 259.68 172.297 262.992 184.836
 264.07 c 196.797 265.098 238.652 263.918 240.633 263.863 c 325.711 263.441
 364.082 255.316 364.945 219.93 c 365.414 200.809 344.992 189.504 294.727
 172.68 c h
294.727 172.68 m f
0.976471 0.984314 0.988235 rg
361.891 214.781 m 360.605 214.781 359.562 215.824 359.562 217.113 c 359.562
 218.402 360.605 219.445 361.891 219.445 c 363.18 219.445 364.223 218.398
 364.223 217.113 c 364.223 215.824 363.18 214.781 361.891 214.781 c h
361.891 214.781 m f
359.562 232.141 m 359.562 233.402 360.566 234.426 361.816 234.465 c 362.426
 233.152 362.941 231.781 363.371 230.355 c 362.969 230.02 362.457 229.809
 361.891 229.809 c 360.605 229.812 359.562 230.855 359.562 232.141 c h
359.562 232.141 m f
354.66 206.98 m 353.371 206.98 352.328 208.027 352.328 209.312 c 352.328
 210.602 353.371 211.645 354.66 211.645 c 355.949 211.645 356.992 210.602
 356.992 209.312 c 356.992 208.027 355.949 206.98 354.66 206.98 c h
354.66 206.98 m f
346.859 214.781 m 345.574 214.781 344.531 215.824 344.531 217.113 c 344.531
 218.402 345.574 219.445 346.859 219.445 c 348.148 219.445 349.191 218.398
 349.191 217.113 c 349.191 215.824 348.148 214.781 346.859 214.781 c h
346.859 214.781 m f
354.66 222.012 m 353.371 222.012 352.328 223.055 352.328 224.344 c 352.328
 225.633 353.371 226.676 354.66 226.676 c 355.949 226.676 356.992 225.633
 356.992 224.344 c 356.992 223.059 355.949 222.012 354.66 222.012 c h
354.66 222.012 m f
346.859 229.812 m 345.574 229.812 344.531 230.855 344.531 232.145 c 344.531
 233.43 345.574 234.473 346.859 234.473 c 348.148 234.473 349.191 233.43
 349.191 232.145 c 349.191 230.855 348.148 229.812 346.859 229.812 c h
346.859 229.812 m f
354.66 237.043 m 353.371 237.043 352.328 238.086 352.328 239.375 c 352.328
 240.664 353.371 241.707 354.66 241.707 c 355.949 241.707 356.992 240.664
 356.992 239.375 c 356.992 238.086 355.949 237.043 354.66 237.043 c h
354.66 237.043 m f
346.859 244.844 m 345.574 244.844 344.531 245.887 344.531 247.176 c 344.531
 248.461 345.574 249.504 346.859 249.504 c 347.02 249.504 347.176 249.488
 347.324 249.457 c 347.766 249.207 348.199 248.949 348.621 248.688 c 348.973
 248.277 349.191 247.754 349.191 247.176 c 349.191 245.887 348.148 244.844
 346.859 244.844 c h
346.859 244.844 m f
331.832 219.445 m 333.117 219.445 334.16 218.398 334.16 217.113 c 334.16
 216.98 334.145 216.852 334.121 216.723 c 332.801 217.34 331.41 217.93 329.953
 218.48 c 330.375 219.062 331.059 219.445 331.832 219.445 c h
331.832 219.445 m f
339.629 222.012 m 338.34 222.012 337.297 223.055 337.297 224.344 c 337.297
 225.633 338.34 226.676 339.629 226.676 c 340.918 226.676 341.961 225.633
 341.961 224.344 c 341.961 223.059 340.918 222.012 339.629 222.012 c h
339.629 222.012 m f
331.832 229.812 m 330.543 229.812 329.5 230.855 329.5 232.145 c 329.5 233.43
 330.543 234.473 331.832 234.473 c 333.117 234.473 334.16 233.43 334.16 
232.145 c 334.16 230.855 333.117 229.812 331.832 229.812 c h
331.832 229.812 m f
339.629 237.043 m 338.34 237.043 337.297 238.086 337.297 239.375 c 337.297
 240.664 338.34 241.707 339.629 241.707 c 340.918 241.707 341.961 240.664
 341.961 239.375 c 341.961 238.086 340.918 237.043 339.629 237.043 c h
339.629 237.043 m f
331.832 244.844 m 330.543 244.844 329.5 245.887 329.5 247.176 c 329.5 248.461
 330.543 249.504 331.832 249.504 c 333.117 249.504 334.16 248.461 334.16
 247.176 c 334.16 245.887 333.117 244.844 331.832 244.844 c h
331.832 244.844 m f
339.629 252.074 m 338.484 252.074 337.535 252.902 337.34 253.992 c 338.613
 253.531 339.844 253.051 341.027 252.551 c 340.637 252.258 340.156 252.074
 339.629 252.074 c h
339.629 252.074 m f
324.598 222.012 m 323.312 222.012 322.266 223.055 322.266 224.344 c 322.266
 225.633 323.312 226.676 324.598 226.676 c 325.887 226.676 326.93 225.633
 326.93 224.344 c 326.93 223.059 325.887 222.012 324.598 222.012 c h
324.598 222.012 m f
316.801 229.812 m 315.512 229.812 314.469 230.855 314.469 232.145 c 314.469
 233.43 315.512 234.473 316.801 234.473 c 318.086 234.473 319.129 233.43
 319.129 232.145 c 319.129 230.855 318.086 229.812 316.801 229.812 c h
316.801 229.812 m f
324.598 237.043 m 323.312 237.043 322.266 238.086 322.266 239.375 c 322.266
 240.664 323.312 241.707 324.598 241.707 c 325.887 241.707 326.93 240.664
 326.93 239.375 c 326.93 238.086 325.887 237.043 324.598 237.043 c h
324.598 237.043 m f
316.801 244.844 m 315.512 244.844 314.469 245.887 314.469 247.176 c 314.469
 248.461 315.512 249.504 316.801 249.504 c 318.086 249.504 319.129 248.461
 319.129 247.176 c 319.129 245.887 318.086 244.844 316.801 244.844 c h
316.801 244.844 m f
324.598 252.074 m 323.312 252.074 322.266 253.117 322.266 254.406 c 322.266
 255.695 323.312 256.738 324.598 256.738 c 325.887 256.738 326.93 255.695
 326.93 254.406 c 326.93 253.117 325.887 252.074 324.598 252.074 c h
324.598 252.074 m f
309.566 226.676 m 310.855 226.676 311.898 225.633 311.898 224.344 c 311.898
 223.957 311.797 223.598 311.629 223.273 c 310.215 223.523 308.766 223.762
 307.273 223.984 c 307.254 224.102 307.234 224.223 307.234 224.344 c 307.234
 225.633 308.281 226.676 309.566 226.676 c h
309.566 226.676 m f
301.77 229.812 m 300.48 229.812 299.438 230.855 299.438 232.145 c 299.438
 233.43 300.48 234.473 301.77 234.473 c 303.055 234.473 304.102 233.43 304.102
 232.145 c 304.102 230.855 303.059 229.812 301.77 229.812 c h
301.77 229.812 m f
309.566 237.043 m 308.281 237.043 307.234 238.086 307.234 239.375 c 307.234
 240.664 308.281 241.707 309.566 241.707 c 310.855 241.707 311.898 240.664
 311.898 239.375 c 311.898 238.086 310.855 237.043 309.566 237.043 c h
309.566 237.043 m f
301.77 244.844 m 300.48 244.844 299.438 245.887 299.438 247.176 c 299.438
 248.461 300.48 249.504 301.77 249.504 c 303.055 249.504 304.102 248.461
 304.102 247.176 c 304.102 245.887 303.059 244.844 301.77 244.844 c h
301.77 244.844 m f
309.566 252.074 m 308.281 252.074 307.234 253.117 307.234 254.406 c 307.234
 255.695 308.281 256.738 309.566 256.738 c 310.855 256.738 311.898 255.695
 311.898 254.406 c 311.898 253.117 310.855 252.074 309.566 252.074 c h
309.566 252.074 m f
301.77 259.871 m 300.75 259.871 299.895 260.531 299.574 261.441 c 300.992
 261.301 302.383 261.148 303.754 260.996 c 303.344 260.324 302.613 259.871
 301.77 259.871 c h
301.77 259.871 m f
294.535 226.676 m 295.48 226.676 296.293 226.109 296.66 225.301 c 295.344
 225.434 294.004 225.562 292.633 225.684 c 293.055 226.281 293.75 226.676
 294.535 226.676 c h
294.535 226.676 m f
286.738 229.812 m 285.449 229.812 284.406 230.855 284.406 232.145 c 284.406
 233.43 285.449 234.473 286.738 234.473 c 288.023 234.473 289.07 233.43 
289.07 232.145 c 289.07 230.855 288.027 229.812 286.738 229.812 c h
286.738 229.812 m f
294.535 237.043 m 293.25 237.043 292.207 238.086 292.207 239.375 c 292.207
 240.664 293.25 241.707 294.535 241.707 c 295.824 241.707 296.867 240.664
 296.867 239.375 c 296.867 238.086 295.824 237.043 294.535 237.043 c h
294.535 237.043 m f
286.738 244.844 m 285.449 244.844 284.406 245.887 284.406 247.176 c 284.406
 248.461 285.449 249.504 286.738 249.504 c 288.023 249.504 289.07 248.461
 289.07 247.176 c 289.07 245.887 288.027 244.844 286.738 244.844 c h
286.738 244.844 m f
294.535 252.074 m 293.25 252.074 292.207 253.117 292.207 254.406 c 292.207
 255.695 293.25 256.738 294.535 256.738 c 295.824 256.738 296.867 255.695
 296.867 254.406 c 296.867 253.117 295.824 252.074 294.535 252.074 c h
294.535 252.074 m f
289.07 262.203 m 289.07 260.918 288.027 259.871 286.738 259.871 c 285.453
 259.871 284.406 260.914 284.406 262.203 c 284.406 262.352 284.426 262.492
 284.449 262.633 c 286.012 262.535 287.543 262.434 289.059 262.328 c 289.059
 262.285 289.07 262.246 289.07 262.203 c h
289.07 262.203 m f
280.211 226.555 m 279.812 226.578 279.41 226.598 279.012 226.621 c 279.172
 226.656 279.336 226.676 279.508 226.676 c 279.754 226.676 279.988 226.625
 280.211 226.555 c h
280.211 226.555 m f
271.707 229.812 m 270.418 229.812 269.375 230.855 269.375 232.145 c 269.375
 233.43 270.418 234.473 271.707 234.473 c 272.996 234.473 274.039 233.43
 274.039 232.145 c 274.039 230.855 272.996 229.812 271.707 229.812 c h
271.707 229.812 m f
279.508 237.043 m 278.219 237.043 277.176 238.086 277.176 239.375 c 277.176
 240.664 278.219 241.707 279.508 241.707 c 280.793 241.707 281.836 240.664
 281.836 239.375 c 281.836 238.086 280.793 237.043 279.508 237.043 c h
279.508 237.043 m f
271.707 244.844 m 270.418 244.844 269.375 245.887 269.375 247.176 c 269.375
 248.461 270.418 249.504 271.707 249.504 c 272.996 249.504 274.039 248.461
 274.039 247.176 c 274.039 245.887 272.996 244.844 271.707 244.844 c h
271.707 244.844 m f
279.508 252.074 m 278.219 252.074 277.176 253.117 277.176 254.406 c 277.176
 255.695 278.219 256.738 279.508 256.738 c 280.793 256.738 281.836 255.695
 281.836 254.406 c 281.836 253.117 280.793 252.074 279.508 252.074 c h
279.508 252.074 m f
274.039 262.203 m 274.039 260.918 272.996 259.871 271.707 259.871 c 270.422
 259.871 269.375 260.914 269.375 262.203 c 269.375 262.613 269.492 262.992
 269.676 263.324 c 271.074 263.277 272.461 263.223 273.824 263.168 c 273.961
 262.875 274.039 262.551 274.039 262.203 c h
274.039 262.203 m f
256.676 229.812 m 255.391 229.812 254.344 230.855 254.344 232.145 c 254.344
 233.43 255.391 234.473 256.676 234.473 c 257.965 234.473 259.008 233.43
 259.008 232.145 c 259.008 230.855 257.965 229.812 256.676 229.812 c h
256.676 229.812 m f
264.477 237.043 m 263.188 237.043 262.145 238.086 262.145 239.375 c 262.145
 240.664 263.188 241.707 264.477 241.707 c 265.762 241.707 266.805 240.664
 266.805 239.375 c 266.805 238.086 265.762 237.043 264.477 237.043 c h
264.477 237.043 m f
256.676 244.844 m 255.391 244.844 254.344 245.887 254.344 247.176 c 254.344
 248.461 255.391 249.504 256.676 249.504 c 257.965 249.504 259.008 248.461
 259.008 247.176 c 259.008 245.887 257.965 244.844 256.676 244.844 c h
256.676 244.844 m f
264.477 252.074 m 263.188 252.074 262.145 253.117 262.145 254.406 c 262.145
 255.695 263.188 256.738 264.477 256.738 c 265.762 256.738 266.805 255.695
 266.805 254.406 c 266.805 253.117 265.762 252.074 264.477 252.074 c h
264.477 252.074 m f
259.008 262.203 m 259.008 260.918 257.965 259.871 256.676 259.871 c 255.391
 259.871 254.348 260.914 254.348 262.203 c 254.348 262.777 254.562 263.301
 254.906 263.703 c 256.117 263.684 257.316 263.66 258.504 263.637 c 258.816
 263.242 259.008 262.746 259.008 262.203 c h
259.008 262.203 m f
249.445 237.043 m 248.156 237.043 247.113 238.086 247.113 239.375 c 247.113
 240.664 248.156 241.707 249.445 241.707 c 250.73 241.707 251.777 240.664
 251.777 239.375 c 251.777 238.086 250.73 237.043 249.445 237.043 c h
249.445 237.043 m f
249.445 256.738 m 250.73 256.738 251.777 255.695 251.777 254.406 c 251.777
 253.117 250.73 252.074 249.445 252.074 c 248.156 252.074 247.113 253.117
 247.113 254.406 c 247.113 255.695 248.156 256.738 249.445 256.738 c h
249.445 256.738 m f
243.301 263.844 m 243.719 263.422 243.977 262.844 243.977 262.203 c 243.977
 260.918 242.934 259.871 241.645 259.871 c 240.359 259.871 239.316 260.914
 239.316 262.203 c 239.316 262.863 239.59 263.457 240.031 263.879 c 240.328
 263.871 240.535 263.867 240.633 263.863 c 241.055 263.859 241.523 263.383
 242.016 262.547 c 241.703 263.855 l 242.242 263.852 242.77 263.848 243.301
 263.844 c h
243.301 263.844 m f
241.645 234.473 m 242.934 234.473 243.977 233.43 243.977 232.145 c 243.977
 230.855 242.934 229.812 241.645 229.812 c 240.359 229.812 239.312 230.855
 239.312 232.145 c 239.312 233.43 240.359 234.473 241.645 234.473 c h
241.645 234.473 m f
241.645 249.504 m 242.934 249.504 243.977 248.461 243.977 247.176 c 243.977
 245.887 242.934 244.844 241.645 244.844 c 240.359 244.844 239.312 245.887
 239.312 247.176 c 239.312 248.461 240.359 249.504 241.645 249.504 c h
241.645 249.504 m f
226.613 229.812 m 225.328 229.812 224.285 230.855 224.285 232.145 c 224.285
 233.43 225.328 234.473 226.613 234.473 c 227.902 234.473 228.945 233.43
 228.945 232.145 c 228.945 230.855 227.902 229.812 226.613 229.812 c h
226.613 229.812 m f
232.082 239.375 m 232.082 240.664 233.125 241.707 234.414 241.707 c 235.699
 241.707 236.746 240.664 236.746 239.375 c 236.746 238.086 235.699 237.043
 234.414 237.043 c 233.125 237.043 232.082 238.086 232.082 239.375 c h
232.082 239.375 m f
226.613 244.844 m 225.328 244.844 224.285 245.887 224.285 247.176 c 224.285
 248.461 225.328 249.504 226.613 249.504 c 227.902 249.504 228.945 248.461
 228.945 247.176 c 228.945 245.887 227.902 244.844 226.613 244.844 c h
226.613 244.844 m f
234.414 256.738 m 235.699 256.738 236.746 255.695 236.746 254.406 c 236.746
 253.117 235.699 252.074 234.414 252.074 c 233.125 252.074 232.082 253.117
 232.082 254.406 c 232.082 255.695 233.125 256.738 234.414 256.738 c h
234.414 256.738 m f
228.945 262.203 m 228.945 260.918 227.902 259.871 226.617 259.871 c 225.328
 259.871 224.285 260.914 224.285 262.203 c 224.285 263.07 224.762 263.816
 225.465 264.219 c 226.281 264.203 227.078 264.188 227.855 264.172 c 228.508
 263.758 228.945 263.035 228.945 262.203 c h
228.945 262.203 m f
211.586 229.812 m 210.297 229.812 209.254 230.855 209.254 232.145 c 209.254
 233.43 210.297 234.473 211.586 234.473 c 212.871 234.473 213.914 233.43
 213.914 232.145 c 213.914 230.855 212.871 229.812 211.586 229.812 c h
211.586 229.812 m f
219.383 237.043 m 218.094 237.043 217.051 238.086 217.051 239.375 c 217.051
 240.664 218.094 241.707 219.383 241.707 c 220.672 241.707 221.715 240.664
 221.715 239.375 c 221.715 238.086 220.672 237.043 219.383 237.043 c h
219.383 237.043 m f
211.586 244.844 m 210.297 244.844 209.254 245.887 209.254 247.176 c 209.254
 248.461 210.297 249.504 211.586 249.504 c 212.871 249.504 213.914 248.461
 213.914 247.176 c 213.914 245.887 212.871 244.844 211.586 244.844 c h
211.586 244.844 m f
219.383 252.074 m 218.094 252.074 217.051 253.117 217.051 254.406 c 217.051
 255.695 218.094 256.738 219.383 256.738 c 220.672 256.738 221.715 255.695
 221.715 254.406 c 221.715 253.117 220.672 252.074 219.383 252.074 c h
219.383 252.074 m f
213.918 262.203 m 213.918 260.918 212.871 259.871 211.586 259.871 c 210.297
 259.871 209.254 260.914 209.254 262.203 c 209.254 263.273 209.977 264.164
 210.961 264.441 c 211.391 264.438 211.824 264.43 212.254 264.426 c 213.211
 264.137 213.918 263.258 213.918 262.203 c h
213.918 262.203 m f
196.555 229.812 m 195.266 229.812 194.223 230.855 194.223 232.145 c 194.223
 233.43 195.266 234.473 196.555 234.473 c 197.84 234.473 198.883 233.43 
198.883 232.145 c 198.883 230.855 197.84 229.812 196.555 229.812 c h
196.555 229.812 m f
202.02 239.375 m 202.02 240.664 203.066 241.707 204.352 241.707 c 205.641
 241.707 206.684 240.664 206.684 239.375 c 206.684 238.086 205.641 237.043
 204.352 237.043 c 203.066 237.043 202.02 238.086 202.02 239.375 c h
202.02 239.375 m f
196.555 249.504 m 197.84 249.504 198.883 248.461 198.883 247.176 c 198.883
 245.887 197.84 244.844 196.555 244.844 c 195.266 244.844 194.223 245.887
 194.223 247.176 c 194.223 248.461 195.266 249.504 196.555 249.504 c h
196.555 249.504 m f
204.352 256.738 m 205.641 256.738 206.684 255.695 206.684 254.406 c 206.684
 253.117 205.641 252.074 204.352 252.074 c 203.066 252.074 202.02 253.117
 202.02 254.406 c 202.02 255.695 203.066 256.738 204.352 256.738 c h
204.352 256.738 m f
198.887 262.203 m 198.887 260.918 197.84 259.871 196.555 259.871 c 195.266
 259.871 194.223 260.914 194.223 262.203 c 194.223 263.297 194.977 264.207
 195.992 264.457 c 196.352 264.461 196.715 264.465 197.082 264.469 c 198.113
 264.23 198.887 263.309 198.887 262.203 c h
198.887 262.203 m f
181.523 229.812 m 180.234 229.812 179.191 230.855 179.191 232.145 c 179.191
 233.43 180.234 234.473 181.523 234.473 c 182.809 234.473 183.855 233.43
 183.855 232.145 c 183.855 230.855 182.812 229.812 181.523 229.812 c h
181.523 229.812 m f
186.988 239.375 m 186.988 240.664 188.035 241.707 189.32 241.707 c 190.609
 241.707 191.652 240.664 191.652 239.375 c 191.652 238.086 190.609 237.043
 189.32 237.043 c 188.035 237.043 186.988 238.086 186.988 239.375 c h
186.988 239.375 m f
181.523 249.504 m 182.809 249.504 183.855 248.461 183.855 247.176 c 183.855
 245.887 182.809 244.844 181.523 244.844 c 180.234 244.844 179.191 245.887
 179.191 247.176 c 179.191 248.461 180.234 249.504 181.523 249.504 c h
181.523 249.504 m f
189.32 256.738 m 190.609 256.738 191.652 255.695 191.652 254.406 c 191.652
 253.117 190.609 252.074 189.32 252.074 c 188.035 252.074 186.988 253.117
 186.988 254.406 c 186.988 255.695 188.035 256.738 189.32 256.738 c h
189.32 256.738 m f
183.855 262.203 m 183.855 260.918 182.812 259.871 181.523 259.871 c 180.234
 259.871 179.191 260.914 179.191 262.203 c 179.191 262.77 179.402 263.285
 179.738 263.688 c 181 263.777 182.121 263.855 183.082 263.93 c 183.551 
263.504 183.855 262.891 183.855 262.203 c h
183.855 262.203 m f
166.492 229.812 m 165.203 229.812 164.16 230.855 164.16 232.145 c 164.16
 233.43 165.203 234.473 166.492 234.473 c 167.777 234.473 168.824 233.43
 168.824 232.145 c 168.824 230.855 167.781 229.812 166.492 229.812 c h
166.492 229.812 m f
174.289 237.043 m 173.004 237.043 171.961 238.086 171.961 239.375 c 171.961
 240.664 173.004 241.707 174.289 241.707 c 175.578 241.707 176.621 240.664
 176.621 239.375 c 176.621 238.086 175.578 237.043 174.289 237.043 c h
174.289 237.043 m f
166.492 244.844 m 165.203 244.844 164.16 245.887 164.16 247.176 c 164.16
 248.461 165.203 249.504 166.492 249.504 c 167.777 249.504 168.824 248.461
 168.824 247.176 c 168.824 245.887 167.781 244.844 166.492 244.844 c h
166.492 244.844 m f
174.289 252.074 m 173.004 252.074 171.961 253.117 171.961 254.406 c 171.961
 255.695 173.004 256.738 174.289 256.738 c 175.578 256.738 176.621 255.695
 176.621 254.406 c 176.621 253.117 175.578 252.074 174.289 252.074 c h
174.289 252.074 m f
168.824 262.203 m 168.824 260.918 167.781 259.871 166.492 259.871 c 165.203
 259.871 164.16 260.914 164.16 262.203 c 164.16 262.371 164.18 262.531 164.211
 262.688 c 165.754 262.781 167.25 262.879 168.684 262.969 c 168.77 262.727
 168.824 262.473 168.824 262.203 c h
168.824 262.203 m f
151.461 229.812 m 150.172 229.812 149.129 230.855 149.129 232.145 c 149.129
 233.43 150.172 234.473 151.461 234.473 c 152.75 234.473 153.793 233.43 
153.793 232.145 c 153.793 230.855 152.75 229.812 151.461 229.812 c h
151.461 229.812 m f
159.258 237.043 m 157.973 237.043 156.93 238.086 156.93 239.375 c 156.93
 240.664 157.973 241.707 159.258 241.707 c 160.547 241.707 161.59 240.664
 161.59 239.375 c 161.59 238.086 160.547 237.043 159.258 237.043 c h
159.258 237.043 m f
151.461 244.844 m 150.172 244.844 149.129 245.887 149.129 247.176 c 149.129
 248.461 150.172 249.504 151.461 249.504 c 152.75 249.504 153.793 248.461
 153.793 247.176 c 153.793 245.887 152.75 244.844 151.461 244.844 c h
151.461 244.844 m f
159.258 252.074 m 157.973 252.074 156.93 253.117 156.93 254.406 c 156.93
 255.695 157.973 256.738 159.258 256.738 c 160.547 256.738 161.59 255.695
 161.59 254.406 c 161.59 253.117 160.547 252.074 159.258 252.074 c h
159.258 252.074 m f
151.461 259.871 m 150.336 259.871 149.398 260.668 149.18 261.727 c 150.727
 261.828 152.262 261.926 153.773 262.023 c 153.68 260.82 152.688 259.871
 151.461 259.871 c h
151.461 259.871 m f
144.23 226.676 m 144.918 226.676 145.531 226.371 145.957 225.895 c 144.754
 225.816 143.535 225.738 142.305 225.66 c 142.727 226.273 143.43 226.676
 144.23 226.676 c h
144.23 226.676 m f
136.43 229.812 m 135.145 229.812 134.098 230.855 134.098 232.145 c 134.098
 233.43 135.145 234.473 136.43 234.473 c 137.719 234.473 138.762 233.43 
138.762 232.145 c 138.762 230.855 137.719 229.812 136.43 229.812 c h
136.43 229.812 m f
144.23 237.043 m 142.941 237.043 141.898 238.086 141.898 239.375 c 141.898
 240.664 142.941 241.707 144.23 241.707 c 145.516 241.707 146.559 240.664
 146.559 239.375 c 146.559 238.086 145.516 237.043 144.23 237.043 c h
144.23 237.043 m f
136.43 244.844 m 135.145 244.844 134.098 245.887 134.098 247.176 c 134.098
 248.461 135.145 249.504 136.43 249.504 c 137.719 249.504 138.762 248.461
 138.762 247.176 c 138.762 245.887 137.719 244.844 136.43 244.844 c h
136.43 244.844 m f
144.23 252.074 m 142.941 252.074 141.898 253.117 141.898 254.406 c 141.898
 255.695 142.941 256.738 144.23 256.738 c 145.516 256.738 146.559 255.695
 146.559 254.406 c 146.559 253.117 145.516 252.074 144.23 252.074 c h
144.23 252.074 m f
136.43 259.871 m 135.695 259.871 135.051 260.219 134.625 260.75 c 135.887
 260.836 137.156 260.926 138.422 261.012 c 138.016 260.332 137.281 259.871
 136.43 259.871 c h
136.43 259.871 m f
129.199 226.676 m 130.277 226.676 131.176 225.938 131.441 224.941 c 129.926
 224.84 128.406 224.734 126.895 224.629 c 127.039 225.781 128.008 226.676
 129.199 226.676 c h
129.199 226.676 m f
121.398 229.812 m 120.113 229.812 119.066 230.855 119.066 232.145 c 119.066
 233.43 120.113 234.473 121.398 234.473 c 122.688 234.473 123.73 233.43 
123.73 232.145 c 123.73 230.855 122.688 229.812 121.398 229.812 c h
121.398 229.812 m f
129.199 237.043 m 127.91 237.043 126.867 238.086 126.867 239.375 c 126.867
 240.664 127.91 241.707 129.199 241.707 c 130.484 241.707 131.527 240.664
 131.527 239.375 c 131.527 238.086 130.484 237.043 129.199 237.043 c h
129.199 237.043 m f
121.398 244.844 m 120.113 244.844 119.066 245.887 119.066 247.176 c 119.066
 248.461 120.113 249.504 121.398 249.504 c 122.688 249.504 123.73 248.461
 123.73 247.176 c 123.73 245.887 122.688 244.844 121.398 244.844 c h
121.398 244.844 m f
129.199 252.074 m 127.91 252.074 126.867 253.117 126.867 254.406 c 126.867
 255.695 127.91 256.738 129.199 256.738 c 130.484 256.738 131.527 255.695
 131.527 254.406 c 131.527 253.117 130.484 252.074 129.199 252.074 c h
129.199 252.074 m f
114.168 226.676 m 115.453 226.676 116.5 225.633 116.5 224.344 c 116.5 224.184
 116.48 224.027 116.453 223.879 c 114.941 223.766 113.449 223.648 111.988
 223.535 c 111.895 223.789 111.836 224.059 111.836 224.344 c 111.836 225.633
 112.879 226.676 114.168 226.676 c h
114.168 226.676 m f
106.367 229.812 m 105.082 229.812 104.039 230.855 104.039 232.145 c 104.039
 233.43 105.082 234.473 106.367 234.473 c 107.656 234.473 108.699 233.43
 108.699 232.145 c 108.699 230.855 107.656 229.812 106.367 229.812 c h
106.367 229.812 m f
114.168 237.043 m 112.879 237.043 111.836 238.086 111.836 239.375 c 111.836
 240.664 112.879 241.707 114.168 241.707 c 115.453 241.707 116.5 240.664
 116.5 239.375 c 116.5 238.086 115.453 237.043 114.168 237.043 c h
114.168 237.043 m f
106.367 244.844 m 105.082 244.844 104.039 245.887 104.039 247.176 c 104.039
 248.461 105.082 249.504 106.367 249.504 c 107.656 249.504 108.699 248.461
 108.699 247.176 c 108.699 245.887 107.656 244.844 106.367 244.844 c h
106.367 244.844 m f
114.168 252.074 m 112.879 252.074 111.836 253.117 111.836 254.406 c 111.836
 255.695 112.879 256.738 114.168 256.738 c 115.453 256.738 116.5 255.695
 116.5 254.406 c 116.5 253.117 115.453 252.074 114.168 252.074 c h
114.168 252.074 m f
96.805 224.344 m 96.805 225.633 97.848 226.676 99.137 226.676 c 100.422
 226.676 101.469 225.633 101.469 224.344 c 101.469 223.629 101.137 222.996
 100.629 222.566 c 99.73 222.484 98.855 222.398 98.012 222.316 c 97.293 
222.711 96.805 223.469 96.805 224.344 c h
96.805 224.344 m f
91.336 229.812 m 90.051 229.812 89.008 230.855 89.008 232.145 c 89.008 
233.43 90.051 234.473 91.336 234.473 c 92.625 234.473 93.668 233.43 93.668
 232.145 c 93.668 230.855 92.625 229.812 91.336 229.812 c h
91.336 229.812 m f
99.137 237.043 m 97.848 237.043 96.805 238.086 96.805 239.375 c 96.805 
240.664 97.848 241.707 99.137 241.707 c 100.422 241.707 101.469 240.664 
101.469 239.375 c 101.469 238.086 100.422 237.043 99.137 237.043 c h
99.137 237.043 m f
93.668 247.172 m 93.668 245.887 92.625 244.84 91.34 244.84 c 90.051 244.84
 89.008 245.887 89.008 247.172 c 89.008 248.461 90.051 249.504 91.34 249.504
 c 92.625 249.504 93.668 248.461 93.668 247.172 c h
93.668 247.172 m f
99.137 256.738 m 100.422 256.738 101.469 255.695 101.469 254.406 c 101.469
 253.117 100.422 252.074 99.137 252.074 c 97.848 252.074 96.805 253.117 
96.805 254.406 c 96.805 255.695 97.848 256.738 99.137 256.738 c h
99.137 256.738 m f
84.105 222.012 m 82.816 222.012 81.773 223.055 81.773 224.344 c 81.773 
225.633 82.816 226.676 84.105 226.676 c 85.395 226.676 86.438 225.633 86.438
 224.344 c 86.438 223.059 85.395 222.012 84.105 222.012 c h
84.105 222.012 m f
76.309 229.812 m 75.02 229.812 73.977 230.855 73.977 232.145 c 73.977 233.43
 75.02 234.473 76.309 234.473 c 77.594 234.473 78.637 233.43 78.637 232.145
 c 78.637 230.855 77.594 229.812 76.309 229.812 c h
76.309 229.812 m f
84.105 237.043 m 82.816 237.043 81.773 238.086 81.773 239.375 c 81.773 
240.664 82.816 241.707 84.105 241.707 c 85.395 241.707 86.438 240.664 86.438
 239.375 c 86.438 238.086 85.395 237.043 84.105 237.043 c h
84.105 237.043 m f
76.309 244.844 m 75.02 244.844 73.977 245.887 73.977 247.176 c 73.977 248.461
 75.02 249.504 76.309 249.504 c 77.594 249.504 78.637 248.461 78.637 247.176
 c 78.637 245.887 77.594 244.844 76.309 244.844 c h
76.309 244.844 m f
86.438 254.406 m 86.438 253.117 85.395 252.074 84.105 252.074 c 82.816 
252.074 81.773 253.117 81.773 254.406 c 81.773 255.25 82.23 255.984 82.902
 256.395 c 83.746 256.379 84.562 256.371 85.352 256.371 c 86.004 255.957
 86.438 255.234 86.438 254.406 c h
86.438 254.406 m f
69.074 222.012 m 67.789 222.012 66.742 223.055 66.742 224.344 c 66.742 
225.633 67.789 226.676 69.074 226.676 c 70.363 226.676 71.406 225.633 71.406
 224.344 c 71.406 223.059 70.363 222.012 69.074 222.012 c h
69.074 222.012 m f
61.277 229.812 m 59.988 229.812 58.945 230.855 58.945 232.145 c 58.945 
233.43 59.988 234.473 61.277 234.473 c 62.562 234.473 63.605 233.43 63.605
 232.145 c 63.605 230.855 62.562 229.812 61.277 229.812 c h
61.277 229.812 m f
69.074 237.043 m 67.789 237.043 66.742 238.086 66.742 239.375 c 66.742 
240.664 67.789 241.707 69.074 241.707 c 70.363 241.707 71.406 240.664 71.406
 239.375 c 71.406 238.086 70.363 237.043 69.074 237.043 c h
69.074 237.043 m f
61.277 244.844 m 59.988 244.844 58.945 245.887 58.945 247.176 c 58.945 
248.461 59.988 249.504 61.277 249.504 c 62.562 249.504 63.605 248.461 63.605
 247.176 c 63.605 245.887 62.562 244.844 61.277 244.844 c h
61.277 244.844 m f
69.074 252.074 m 67.789 252.074 66.742 253.117 66.742 254.406 c 66.742 
255.695 67.789 256.738 69.074 256.738 c 70.363 256.738 71.406 255.695 71.406
 254.406 c 71.406 253.117 70.363 252.074 69.074 252.074 c h
69.074 252.074 m f
54.043 222.012 m 52.758 222.012 51.711 223.055 51.711 224.344 c 51.711 
225.633 52.758 226.676 54.043 226.676 c 55.332 226.676 56.375 225.633 56.375
 224.344 c 56.375 223.059 55.332 222.012 54.043 222.012 c h
54.043 222.012 m f
43.914 232.141 m 43.914 233.43 44.957 234.473 46.246 234.473 c 47.531 234.473
 48.578 233.43 48.578 232.141 c 48.578 230.855 47.531 229.809 46.246 229.809
 c 44.957 229.809 43.914 230.855 43.914 232.141 c h
43.914 232.141 m f
54.043 237.043 m 52.758 237.043 51.711 238.086 51.711 239.375 c 51.711 
240.664 52.758 241.707 54.043 241.707 c 55.332 241.707 56.375 240.664 56.375
 239.375 c 56.375 238.086 55.332 237.043 54.043 237.043 c h
54.043 237.043 m f
46.246 249.504 m 47.531 249.504 48.578 248.461 48.578 247.176 c 48.578 
245.887 47.531 244.844 46.246 244.844 c 44.957 244.844 43.914 245.887 43.914
 247.176 c 43.914 248.461 44.957 249.504 46.246 249.504 c h
46.246 249.504 m f
54.043 252.074 m 52.758 252.074 51.711 253.117 51.711 254.406 c 51.711 
255.695 52.758 256.738 54.043 256.738 c 55.332 256.738 56.375 255.695 56.375
 254.406 c 56.375 253.117 55.332 252.074 54.043 252.074 c h
54.043 252.074 m f
39.012 222.012 m 37.727 222.012 36.684 223.055 36.684 224.344 c 36.684 
225.633 37.727 226.676 39.012 226.676 c 40.301 226.676 41.344 225.633 41.344
 224.344 c 41.344 223.059 40.301 222.012 39.012 222.012 c h
39.012 222.012 m f
31.215 229.812 m 29.926 229.812 28.883 230.855 28.883 232.145 c 28.883 
233.43 29.926 234.473 31.215 234.473 c 32.5 234.473 33.547 233.43 33.547
 232.145 c 33.547 230.855 32.504 229.812 31.215 229.812 c h
31.215 229.812 m f
39.012 241.707 m 40.301 241.707 41.344 240.664 41.344 239.375 c 41.344 
238.086 40.301 237.043 39.012 237.043 c 37.727 237.043 36.684 238.086 36.684
 239.375 c 36.684 240.664 37.727 241.707 39.012 241.707 c h
39.012 241.707 m f
31.215 244.844 m 29.926 244.844 28.883 245.887 28.883 247.176 c 28.883 
248.461 29.926 249.504 31.215 249.504 c 32.5 249.504 33.547 248.461 33.547
 247.176 c 33.547 245.887 32.504 244.844 31.215 244.844 c h
31.215 244.844 m f
39.012 256.738 m 40.301 256.738 41.344 255.695 41.344 254.406 c 41.344 
253.117 40.301 252.074 39.012 252.074 c 37.727 252.074 36.684 253.117 36.684
 254.406 c 36.684 255.695 37.727 256.738 39.012 256.738 c h
39.012 256.738 m f
23.98 222.012 m 22.695 222.012 21.652 223.055 21.652 224.344 c 21.652 225.633
 22.695 226.676 23.98 226.676 c 25.27 226.676 26.312 225.633 26.312 224.344
 c 26.312 223.059 25.27 222.012 23.98 222.012 c h
23.98 222.012 m f
16.184 229.812 m 15.582 229.812 15.035 230.047 14.621 230.422 c 14.793 
231.719 14.969 232.988 15.152 234.223 c 15.465 234.379 15.812 234.473 16.184
 234.473 c 17.473 234.473 18.516 233.43 18.516 232.145 c 18.516 230.855 
17.473 229.812 16.184 229.812 c h
16.184 229.812 m f
23.98 237.043 m 22.695 237.043 21.652 238.086 21.652 239.375 c 21.652 240.664
 22.695 241.707 23.98 241.707 c 25.27 241.707 26.312 240.664 26.312 239.375
 c 26.312 238.086 25.27 237.043 23.98 237.043 c h
23.98 237.043 m f
17.039 245.008 m 17.332 246.363 17.633 247.598 17.938 248.695 c 18.293 
248.285 18.516 247.758 18.516 247.172 c 18.516 246.188 17.902 245.352 17.039
 245.008 c h
17.039 245.008 m f
26.312 254.406 m 26.312 253.117 25.27 252.074 23.98 252.074 c 22.695 252.074
 21.652 253.117 21.652 254.406 c 21.652 254.594 21.68 254.773 21.719 254.945
 c 22.695 255.477 23.926 255.914 25.367 256.273 c 25.938 255.848 26.312 
255.172 26.312 254.406 c h
26.312 254.406 m f
272.262 307.57 m 262.082 307.57 253.379 313.98 249.961 322.977 c 184.902
 322.977 l 181.484 313.98 172.777 307.57 162.602 307.57 c 152.422 307.57
 143.715 313.98 140.301 322.977 c 75.336 322.977 l 71.922 314 63.23 307.605
 53.074 307.605 c 39.945 307.605 29.262 318.285 29.262 331.418 c 29.262 
344.547 39.941 355.23 53.074 355.23 c 63.23 355.23 71.922 348.832 75.336
 339.859 c 140.301 339.859 l 143.715 348.852 152.422 355.266 162.602 355.266
 c 172.777 355.266 181.484 348.852 184.902 339.859 c 249.961 339.859 l 253.379
 348.852 262.082 355.266 272.262 355.266 c 285.414 355.266 296.109 344.566
 296.109 331.418 c 296.109 318.266 285.414 307.57 272.262 307.57 c h
272.262 307.57 m f
0.192157 0.215686 0.239216 rg
272.262 278.836 m 248.301 278.836 228.047 294.957 221.734 316.918 c 213.125
 316.918 l 206.816 294.957 186.562 278.836 162.598 278.836 c 138.637 278.836
 118.383 294.957 112.07 316.918 c 103.602 316.918 l 97.289 294.957 77.035
 278.836 53.074 278.836 c 24.078 278.836 0.488 302.422 0.488 331.418 c 0.488
 360.414 24.078 384 53.074 384 c 77.039 384 97.289 367.879 103.602 345.918
 c 112.07 345.918 l 118.383 367.879 138.637 384 162.598 384 c 186.562 384
 206.816 367.879 213.125 345.918 c 221.734 345.918 l 228.047 367.879 248.297
 384 272.262 384 c 301.258 384 324.844 360.414 324.844 331.418 c 324.844
 302.422 301.258 278.836 272.262 278.836 c h
162.602 307.57 m 170.297 307.57 177.148 311.238 181.508 316.918 c 143.691
 316.918 l 148.055 311.238 154.902 307.57 162.602 307.57 c h
53.074 355.23 m 39.945 355.23 29.262 344.547 29.262 331.418 c 29.262 318.289
 39.945 307.605 53.074 307.605 c 60.75 307.605 67.582 311.262 71.938 316.918
 c 59.344 316.918 l 51.492 316.918 45.102 323.305 45.102 331.156 c 45.102
 331.68 l 45.102 339.531 51.492 345.918 59.344 345.918 c 71.938 345.918 
l 67.582 351.574 60.75 355.23 53.074 355.23 c h
162.602 355.266 m 154.902 355.266 148.055 351.594 143.691 345.918 c 181.508
 345.918 l 177.148 351.598 170.297 355.266 162.602 355.266 c h
184.902 339.859 m 59.34 339.859 l 54.832 339.859 51.164 336.188 51.164 
331.68 c 51.164 331.156 l 51.164 326.645 54.832 322.977 59.34 322.977 c 
265.352 322.977 l 269.863 322.977 273.531 326.645 273.531 331.156 c 273.531
 331.68 l 273.531 336.188 269.863 339.859 265.352 339.859 c h
272.262 355.266 m 264.566 355.266 257.715 351.594 253.355 345.918 c 265.352
 345.918 l 273.203 345.918 279.59 339.531 279.59 331.68 c 279.59 331.156
 l 279.59 323.305 273.203 316.918 265.352 316.918 c 253.355 316.918 l 257.715
 311.238 264.566 307.57 272.262 307.57 c 285.414 307.57 296.109 318.266 
296.109 331.418 c 296.109 344.566 285.414 355.266 272.262 355.266 c h
272.262 355.266 m f
0.917647 0.658824 0.584314 rg
180.957 63.375 m 181.688 67.039 179.082 70.531 175.359 70.879 c 66.23 81.078
 l 56.902 81.906 48.668 75.02 47.84 65.691 c 47.012 56.363 53.898 48.133
 63.227 47.301 c 171.961 36.531 l 175.18 36.23 178.105 38.41 178.734 41.582
 c h
180.957 63.375 m f
185.352 111.723 m 186.078 115.391 183.477 118.879 179.754 119.227 c 74.164
 129.703 l 64.836 130.535 56.605 123.645 55.773 114.316 c 54.945 104.992
 61.832 96.758 71.16 95.93 c 175.773 85.672 l 178.992 85.371 181.918 87.551
 182.547 90.719 c h
185.352 111.723 m f
0.192157 0.215686 0.239216 rg
381.758 285.266 m 366.996 258.883 l 367.234 258.738 367.477 258.598 367.707
 258.449 c 373.293 254.895 374.941 247.484 371.387 241.898 c 369.652 239.176
 367 237.398 364.09 236.691 c 366.539 231.84 367.824 226.297 367.977 220.004
 c 368.512 198.074 345.094 186.344 295.688 169.805 c 287.762 167.152 279.379
 164.582 270.508 161.863 c 236.16 151.328 197.227 139.391 185.672 121.414
 c 185.465 121.09 185.258 120.672 185.051 120.18 c 185.645 119.699 186.188
 119.152 186.648 118.531 c 188.199 116.453 188.816 113.816 188.348 111.27
 c 186 90.383 l 185.961 90.129 l 185.027 85.422 180.719 82.207 175.922 82.656
 c 119.043 88.211 l 118.996 85.203 118.953 82.195 118.914 79.199 c 175.645
 73.898 l 178.27 73.652 180.68 72.297 182.258 70.184 c 183.805 68.109 184.422
 65.48 183.961 62.938 c 181.75 41.273 l 181.707 40.992 l 180.965 37.246 
178.082 34.457 174.523 33.691 c 172.465 13.422 171.086 6.645 168.684 4.723
 c 164.285 1.203 128.602 0.207 127.086 0.164 c 101.574 -0.52 86.738 0.949
 82.984 4.531 c 82.293 5.191 81.305 6.156 80.059 12.5 c 76.129 12.391 72.035
 12.297 67.875 12.227 c 56.238 12.023 45.367 12.012 37.273 12.191 c 22.137
 12.527 21.215 13.359 20.242 14.246 c 18.215 16.082 17.934 20.227 17.93 
48.348 c 17.926 69.484 17.922 95.789 15.254 105.84 c 10.293 124.5 6.859 
158.414 6.961 172.168 c 7.035 182.359 10.398 237.957 16.055 252.613 c 13.926
 254.488 12.441 257.109 12.07 260.145 c 11.27 266.719 15.949 272.695 22.523
 273.496 c 24.355 273.719 67.754 278.914 97.867 274.277 c 101.23 273.844
 116.379 275.172 129.742 276.348 c 152.836 278.375 183.82 281.098 212.789
 281.098 c 215.121 281.098 217.449 281.078 219.75 281.043 c 245.969 280.621
 281.074 278.176 311.168 273.707 c 325.109 310.992 l 326.355 314.52 329.012
 317.305 332.582 318.832 c 334.496 319.652 336.566 320.059 338.664 320.059
 c 340.988 320.059 343.348 319.559 345.566 318.562 c 373.961 305.785 l 378.234
 303.863 381.465 300.336 382.824 296.109 c 384.023 292.367 383.637 288.5
 381.758 285.266 c h
176.5 88.688 m 176.605 88.676 176.707 88.672 176.812 88.672 c 178.324 88.672
 179.648 89.711 179.996 91.203 c 182.34 112.062 l 182.379 112.312 l 182.559
 113.234 182.352 114.156 181.789 114.906 c 181.23 115.66 180.406 116.125
 179.453 116.211 c 73.895 126.688 l 70.195 127.016 66.578 125.883 63.727
 123.496 c 60.875 121.109 59.121 117.754 58.793 114.051 c 58.465 110.344
 59.594 106.734 61.984 103.883 c 64.367 101.027 67.723 99.277 71.453 98.945
 c h
177.945 63.684 m 177.988 63.965 l 178.168 64.887 177.961 65.809 177.398
 66.559 c 176.84 67.312 176.016 67.773 175.078 67.863 c 65.961 78.059 l 
58.316 78.746 51.539 73.07 50.859 65.422 c 50.527 61.719 51.66 58.109 54.047
 55.254 c 56.434 52.402 59.789 50.648 63.523 50.316 c 172.246 39.551 l 172.352
 39.539 172.453 39.535 172.555 39.535 c 174.066 39.535 175.387 40.566 175.738
 42.055 c h
87.285 8.824 m 89.102 7.574 99.238 5.535 126.031 6.199 c 146.078 6.695 
161.535 8.383 164.77 9.469 c 165.977 12.078 167.25 22.043 168.453 33.836
 c 118.359 38.797 l 117.902 17.887 117.211 16.559 115.461 15.355 c 114.59
 14.762 113.508 14.02 98.559 13.223 c 94.863 13.027 90.672 12.848 86.168
 12.691 c 86.562 10.797 86.938 9.477 87.285 8.824 c h
219.363 257.066 m 189.723 257.547 156.27 254.605 131.84 252.461 c 110.41
 250.578 99.863 249.715 94.25 250.574 c 67.395 254.707 25.836 249.746 25.418
 249.695 c 24.059 249.531 22.73 249.609 21.465 249.883 c 16.984 237.625 
13.129 187.051 13.02 172.125 c 12.922 158.699 16.273 125.602 21.109 107.395
 c 23.98 96.578 23.984 70.957 23.988 48.352 c 23.992 36.395 23.992 22.988
 24.637 18.934 c 34.859 17.277 100.641 18.328 111.387 20.32 c 111.84 23.16
 112.121 30.406 112.316 39.395 c 62.957 44.285 l 57.641 44.758 52.824 47.273
 49.398 51.367 c 45.977 55.461 44.348 60.645 44.82 65.961 c 45.746 76.336
 54.484 84.176 64.723 84.176 c 65.312 84.176 65.91 84.148 66.512 84.094 
c 112.863 79.762 l 112.898 82.773 112.945 85.785 112.992 88.801 c 70.895
 92.91 l 65.574 93.383 60.762 95.898 57.336 99.992 c 53.91 104.086 52.285
 109.27 52.758 114.586 c 53.23 119.902 55.746 124.719 59.84 128.145 c 63.465
 131.18 67.949 132.801 72.641 132.801 c 73.246 132.801 73.855 132.773 74.465
 132.719 c 114.293 128.766 l 115.406 145.785 117.004 148.598 118.68 149.938
 c 124.992 154.988 155.562 168.227 182.535 179.906 c 186.172 181.48 189.715
 183.016 193.086 184.48 c 196.359 185.902 l 210.934 192.234 224.699 198.215
 234.352 203.547 c 246.754 210.395 248.605 214.184 248.605 215.832 c 248.605
 222.082 243.18 243.371 239.633 256.406 c 232.805 256.734 226.012 256.961
 219.363 257.066 c h
246 256.074 m 249.25 244.023 254.664 222.891 254.664 215.832 c 254.664 
205.121 235.5 196.301 198.773 180.344 c 195.5 178.926 l 192.125 177.457 
188.582 175.922 184.945 174.348 c 159.914 163.508 128.828 150.047 122.66
 145.359 c 122.23 144.555 121.188 141.273 120.328 128.168 c 179.414 122.309
 l 179.785 123.262 180.172 124.066 180.574 124.691 c 193.328 144.531 231.66
 156.289 268.73 167.656 c 277.566 170.363 285.91 172.922 293.766 175.551
 c 345.75 192.953 362.312 203.719 361.918 219.855 c 361.75 226.758 359.934
 232.543 356.438 237.379 c 355.891 237.621 355.352 237.891 354.832 238.223
 c 343.18 245.637 294.473 253.316 246 256.074 c h
377.051 294.254 m 376.219 296.852 374.184 299.039 371.473 300.258 c 343.078
 313.035 l 340.402 314.238 337.445 314.32 334.965 313.262 c 332.969 312.41
 331.5 310.887 330.805 308.922 c 317.285 272.758 l 335.426 269.82 351.285
 266.113 361.586 261.625 c 376.492 288.266 l 377.523 290.043 377.723 292.168
 377.051 294.254 c h
377.051 294.254 m f
Q Q
showpage
%%Trailer
end
%%EOF
