%!PS-Adobe-3.0 EPSF-3.0
%%Creator: cairo 1.16.0 (https://cairographics.org)
%%CreationDate: Fri Feb 12 12:12:35 2021
%%Pages: 1
%%DocumentData: Clean7Bit
%%LanguageLevel: 2
%%BoundingBox: 17 0 367 384
%%EndComments
%%BeginProlog
50 dict begin
/q { gsave } bind def
/Q { grestore } bind def
/cm { 6 array astore concat } bind def
/w { setlinewidth } bind def
/J { setlinecap } bind def
/j { setlinejoin } bind def
/M { setmiterlimit } bind def
/d { setdash } bind def
/m { moveto } bind def
/l { lineto } bind def
/c { curveto } bind def
/h { closepath } bind def
/re { exch dup neg 3 1 roll 5 3 roll moveto 0 rlineto
      0 exch rlineto 0 rlineto closepath } bind def
/S { stroke } bind def
/f { fill } bind def
/f* { eofill } bind def
/n { newpath } bind def
/W { clip } bind def
/W* { eoclip } bind def
/BT { } bind def
/ET { } bind def
/BDC { mark 3 1 roll /BDC pdfmark } bind def
/EMC { mark /EMC pdfmark } bind def
/cairo_store_point { /cairo_point_y exch def /cairo_point_x exch def } def
/Tj { show currentpoint cairo_store_point } bind def
/TJ {
  {
    dup
    type /stringtype eq
    { show } { -0.001 mul 0 cairo_font_matrix dtransform rmoveto } ifelse
  } forall
  currentpoint cairo_store_point
} bind def
/cairo_selectfont { cairo_font_matrix aload pop pop pop 0 0 6 array astore
    cairo_font exch selectfont cairo_point_x cairo_point_y moveto } bind def
/Tf { pop /cairo_font exch def /cairo_font_matrix where
      { pop cairo_selectfont } if } bind def
/Td { matrix translate cairo_font_matrix matrix concatmatrix dup
      /cairo_font_matrix exch def dup 4 get exch 5 get cairo_store_point
      /cairo_font where { pop cairo_selectfont } if } bind def
/Tm { 2 copy 8 2 roll 6 array astore /cairo_font_matrix exch def
      cairo_store_point /cairo_font where { pop cairo_selectfont } if } bind def
/g { setgray } bind def
/rg { setrgbcolor } bind def
/d1 { setcachedevice } bind def
/cairo_data_source {
  CairoDataIndex CairoData length lt
    { CairoData CairoDataIndex get /CairoDataIndex CairoDataIndex 1 add def }
    { () } ifelse
} def
/cairo_flush_ascii85_file { cairo_ascii85_file status { cairo_ascii85_file flushfile } if } def
/cairo_image { image cairo_flush_ascii85_file } def
/cairo_imagemask { imagemask cairo_flush_ascii85_file } def
%%EndProlog
%%BeginSetup
%%EndSetup
%%Page: 1 1
%%BeginPageSetup
%%PageBoundingBox: 17 0 367 384
%%EndPageSetup
q 17 0 350 384 rectclip
1 0 0 -1 0 384 cm q
0.976471 0.984314 0.988235 rg
203.777 240.504 m 208.375 245.668 215.215 248.961 222.844 248.973 c 236.59
 249 247.68 238.387 247.609 225.27 c 247.539 212.367 236.699 201.855 223.262
 201.488 c 224.012 197.207 224.402 192.809 224.402 188.324 c 224.402 105.047
 l 224.402 62.871 189.895 28.363 147.719 28.363 c 120.16 28.363 l 77.984
 28.363 43.477 62.871 43.477 105.047 c 43.477 188.324 l 43.477 192.812 43.871
 197.211 44.621 201.488 c 31.227 201.906 20.438 212.398 20.371 225.27 c 
20.297 238.387 31.387 249 45.137 248.973 c 52.738 248.961 59.559 245.691
 64.152 240.555 c 75.297 252.496 90.184 260.898 106.891 263.848 c 106.922
 300.336 l 62.059 308.676 34.207 344.703 34.207 380.723 c 133.988 380.738
 l 233.773 380.723 l 233.773 344.723 205.949 308.711 161.125 300.348 c 161.094
 263.828 l 177.785 260.863 192.652 252.445 203.777 240.504 c h
203.777 240.504 m f
0.913725 0.760784 0.470588 rg
168.461 301.969 m 168.461 301.969 170.949 326.148 134.562 326.148 c 98.172
 326.148 100.434 301.969 100.434 301.969 c 58.168 311.781 34.414 345.902
 34.414 380.723 c 134.199 380.738 l 233.98 380.723 l 233.98 345.902 210.723
 311.785 168.461 301.969 c h
168.461 301.969 m f
0.976471 0.984314 0.988235 rg
169.992 366.082 m 149.887 366.082 l 147.824 366.082 146.148 364.406 146.148
 362.34 c 146.148 355.328 l 146.148 353.262 147.824 351.586 149.887 351.586
 c 169.992 351.586 l 172.059 351.586 173.734 353.262 173.734 355.328 c 173.734
 362.34 l 173.734 364.406 172.059 366.082 169.992 366.082 c h
169.992 366.082 m f
0.913725 0.760784 0.470588 rg
212.734 61.031 m 208.156 28.367 179.918 3.016 146.043 3.016 c 121.84 3.016
 l 87.965 3.016 59.727 28.367 55.145 61.031 c 55.145 61.031 55.773 62.188
 55.773 62.824 c 55.773 71.746 62.129 81.629 133.98 81.629 c 205.832 81.629
 212.184 71.746 212.184 62.824 c 212.184 62.188 212.734 61.031 212.734 61.031
 c h
212.734 61.031 m f
0.917647 0.658824 0.584314 rg
353.848 278.02 m 252.117 278.02 l 246.715 278.02 242.336 282.398 242.336
 287.801 c 242.336 320.406 l 242.336 325.809 246.715 330.188 252.117 330.188
 c 287.984 330.188 l 287.984 380.984 l 317.98 380.984 l 317.98 330.188 l
 353.848 330.188 l 359.25 330.188 363.629 325.809 363.629 320.406 c 363.629
 287.801 l 363.629 282.398 359.25 278.02 353.848 278.02 c h
353.848 278.02 m f
0.976471 0.984314 0.988235 rg
350.574 280.621 m 350.574 281.98 351.68 283.086 353.039 283.086 c 354.402
 283.086 355.504 281.98 355.504 280.621 c 355.504 279.258 354.402 278.156
 353.039 278.156 c 351.68 278.156 350.574 279.258 350.574 280.621 c h
350.574 280.621 m f
361.285 285.801 m 359.922 285.801 358.82 286.906 358.82 288.266 c 358.82
 289.629 359.922 290.73 361.285 290.73 c 362.395 290.73 363.32 289.996 363.629
 288.984 c 363.629 287.801 l 363.629 287.699 363.617 287.602 363.613 287.5
 c 363.289 286.516 362.375 285.801 361.285 285.801 c h
361.285 285.801 m f
355.504 296.512 m 355.504 297.875 354.402 298.977 353.039 298.977 c 351.676
 298.977 350.574 297.875 350.574 296.512 c 350.574 295.148 351.676 294.047
 353.039 294.047 c 354.402 294.047 355.504 295.148 355.504 296.512 c h
355.504 296.512 m f
361.285 301.695 m 359.922 301.695 358.82 302.797 358.82 304.16 c 358.82
 305.52 359.922 306.625 361.285 306.625 c 362.395 306.625 363.32 305.887
 363.629 304.879 c 363.629 303.441 l 363.32 302.43 362.395 301.695 361.285
 301.695 c h
361.285 301.695 m f
353.039 309.938 m 351.68 309.938 350.574 311.043 350.574 312.402 c 350.574
 313.766 351.676 314.867 353.039 314.867 c 354.402 314.867 355.504 313.766
 355.504 312.402 c 355.504 311.043 354.402 309.938 353.039 309.938 c h
353.039 309.938 m f
361.285 317.586 m 359.922 317.586 358.82 318.688 358.82 320.051 c 358.82
 321.41 359.922 322.516 361.285 322.516 c 362.367 322.516 363.277 321.812
 363.609 320.84 c 363.613 320.695 363.629 320.555 363.629 320.406 c 363.629
 319.332 l 363.32 318.324 362.395 317.586 361.285 317.586 c h
361.285 317.586 m f
355.504 328.293 m 355.504 326.934 354.402 325.828 353.039 325.828 c 351.68
 325.828 350.574 326.934 350.574 328.293 c 350.574 329.059 350.93 329.734
 351.48 330.188 c 353.848 330.188 l 354.117 330.188 354.383 330.168 354.648
 330.148 c 355.168 329.695 355.504 329.035 355.504 328.293 c h
355.504 328.293 m f
347.859 320.051 m 347.859 321.41 346.754 322.516 345.395 322.516 c 344.031
 322.516 342.93 321.41 342.93 320.051 c 342.93 318.688 344.031 317.586 345.395
 317.586 c 346.754 317.586 347.859 318.688 347.859 320.051 c h
347.859 320.051 m f
339.613 328.293 m 339.613 326.934 338.508 325.828 337.148 325.828 c 335.785
 325.828 334.684 326.934 334.684 328.293 c 334.684 329.059 335.039 329.734
 335.59 330.188 c 338.707 330.188 l 339.254 329.734 339.613 329.059 339.613
 328.293 c h
339.613 328.293 m f
327.035 320.051 m 327.035 321.41 328.141 322.516 329.5 322.516 c 330.863
 322.516 331.965 321.41 331.965 320.051 c 331.965 318.688 330.863 317.586
 329.5 317.586 c 328.141 317.586 327.035 318.688 327.035 320.051 c h
327.035 320.051 m f
323.723 328.293 m 323.723 326.934 322.617 325.828 321.258 325.828 c 319.895
 325.828 318.793 326.934 318.793 328.293 c 318.793 329.059 319.148 329.734
 319.695 330.188 c 322.816 330.188 l 323.363 329.734 323.723 329.059 323.723
 328.293 c h
323.723 328.293 m f
316.074 320.051 m 316.074 321.41 314.973 322.516 313.609 322.516 c 312.25
 322.516 311.145 321.41 311.145 320.051 c 311.145 318.688 312.25 317.586
 313.609 317.586 c 314.973 317.586 316.074 318.688 316.074 320.051 c h
316.074 320.051 m f
307.832 328.293 m 307.832 326.934 306.727 325.828 305.367 325.828 c 304.004
 325.828 302.898 326.934 302.898 328.293 c 302.898 329.059 303.258 329.734
 303.805 330.188 c 306.926 330.188 l 307.473 329.734 307.832 329.059 307.832
 328.293 c h
307.832 328.293 m f
295.254 320.051 m 295.254 321.41 296.355 322.516 297.719 322.516 c 299.082
 322.516 300.184 321.41 300.184 320.051 c 300.184 318.688 299.082 317.586
 297.719 317.586 c 296.359 317.586 295.254 318.688 295.254 320.051 c h
295.254 320.051 m f
291.938 328.293 m 291.938 326.934 290.836 325.828 289.473 325.828 c 288.113
 325.828 287.008 326.934 287.008 328.293 c 287.008 329.059 287.367 329.734
 287.914 330.188 c 291.031 330.188 l 291.582 329.734 291.938 329.059 291.938
 328.293 c h
291.938 328.293 m f
284.293 320.051 m 284.293 321.41 283.188 322.516 281.828 322.516 c 280.465
 322.516 279.363 321.41 279.363 320.051 c 279.363 318.688 280.465 317.586
 281.828 317.586 c 283.188 317.586 284.293 318.688 284.293 320.051 c h
284.293 320.051 m f
276.047 328.293 m 276.047 326.934 274.945 325.828 273.582 325.828 c 272.223
 325.828 271.117 326.934 271.117 328.293 c 271.117 329.059 271.473 329.734
 272.023 330.188 c 275.141 330.188 l 275.691 329.734 276.047 329.059 276.047
 328.293 c h
276.047 328.293 m f
263.473 320.051 m 263.473 321.41 264.574 322.516 265.938 322.516 c 267.297
 322.516 268.402 321.41 268.402 320.051 c 268.402 318.688 267.297 317.586
 265.938 317.586 c 264.574 317.586 263.473 318.688 263.473 320.051 c h
263.473 320.051 m f
260.156 328.293 m 260.156 326.934 259.055 325.828 257.691 325.828 c 256.332
 325.828 255.227 326.934 255.227 328.293 c 255.227 329.059 255.586 329.734
 256.133 330.188 c 259.25 330.188 l 259.801 329.734 260.156 329.059 260.156
 328.293 c h
260.156 328.293 m f
252.512 320.051 m 252.512 321.41 251.406 322.516 250.047 322.516 c 248.684
 322.516 247.582 321.41 247.582 320.051 c 247.582 318.688 248.684 317.586
 250.047 317.586 c 251.406 317.586 252.512 318.688 252.512 320.051 c h
252.512 320.051 m f
0.917647 0.658824 0.584314 rg
159.477 271.035 m 159.039 270.082 158.078 269.418 156.961 269.418 c 155.426
 269.418 154.18 270.66 154.18 272.195 c 154.18 273.73 155.426 274.977 156.961
 274.977 c 158.078 274.977 159.039 274.309 159.477 273.355 c h
159.477 271.035 m f
136.266 272.195 m 136.266 273.73 137.512 274.973 139.047 274.973 c 140.582
 274.973 141.824 273.73 141.824 272.195 c 141.824 270.66 140.582 269.418
 139.047 269.418 c 137.512 269.418 136.266 270.66 136.266 272.195 c h
136.266 272.195 m f
132.523 281.523 m 132.562 283.059 131.348 284.332 129.812 284.371 c 128.277
 284.406 127.004 283.191 126.969 281.66 c 126.93 280.125 128.145 278.852
 129.68 278.812 c 131.215 278.777 132.488 279.992 132.523 281.523 c h
132.523 281.523 m f
123.91 272.195 m 123.91 273.73 122.668 274.973 121.133 274.973 c 119.598
 274.973 118.355 273.73 118.355 272.195 c 118.355 270.66 119.598 269.418
 121.133 269.418 c 122.668 269.418 123.91 270.66 123.91 272.195 c h
123.91 272.195 m f
111.836 278.695 m 110.301 278.695 109.055 279.938 109.055 281.473 c 109.055
 283.008 110.301 284.254 111.836 284.254 c 113.371 284.254 114.613 283.008
 114.613 281.473 c 114.613 279.938 113.371 278.695 111.836 278.695 c h
111.836 278.695 m f
147.668 278.695 m 146.133 278.695 144.891 279.938 144.891 281.473 c 144.891
 283.008 146.133 284.254 147.668 284.254 c 149.203 284.254 150.449 283.008
 150.449 281.473 c 150.445 279.938 149.203 278.695 147.668 278.695 c h
147.668 278.695 m f
0.192157 0.215686 0.239216 rg
234.004 263.586 m 234.004 249.789 l 237.328 248.398 240.363 246.379 242.953
 243.781 c 247.938 238.777 250.664 232.199 250.625 225.254 c 250.566 214.398
 243.738 205.027 234.004 200.82 c 234.227 107.168 l 234.227 85.773 226.484
 66.156 213.66 50.957 c 205.105 21.32 177.59 0 146.043 0 c 121.84 0 l 90.004
 0 62.281 21.711 54 51.773 c 41.582 66.852 34.113 86.152 34.113 107.168 
c 34.113 151.336 l 34.113 152.727 34.703 154.039 35.688 154.98 c 35.688 
200.16 l 25.055 203.961 17.414 213.773 17.352 225.254 c 17.316 232.199 20.039
 238.777 25.023 243.781 c 28.055 246.82 31.691 249.07 35.691 250.441 c 35.691
 263.586 l 35.691 276.609 46.285 287.207 59.312 287.207 c 103.895 287.207
 l 103.906 297.859 l 102.23 298.211 100.582 298.617 98.945 299.047 c 98.906
 299.055 98.871 299.07 98.832 299.078 c 98.562 299.148 98.293 299.223 98.023
 299.297 c 97.977 298.402 97.551 297.57 96.828 297.035 c 96.066 296.465 
95.082 296.289 94.172 296.559 c 84.66 299.367 77.656 302.242 71.473 305.875
 c 70.547 306.418 69.984 307.406 69.984 308.477 c 69.984 311.898 l 63.109
 316.457 56.887 321.895 51.461 328.18 c 38.387 343.309 31.191 361.969 31.191
 380.723 c 31.191 382.391 32.539 383.738 34.207 383.738 c 72.941 383.746
 l 72.961 383.746 72.98 383.75 73 383.75 c 117.527 383.754 l 189.016 383.754
 l 189.055 383.754 189.094 383.754 189.133 383.754 c 195.441 383.75 l 195.461
 383.75 195.48 383.746 195.5 383.746 c 233.773 383.738 l 235.438 383.738
 236.789 382.391 236.789 380.723 c 236.789 361.977 229.598 343.328 216.539
 328.199 c 211.23 322.051 205.156 316.707 198.457 312.203 c 198.457 308.473
 l 198.457 307.406 197.891 306.414 196.969 305.875 c 189.875 301.707 182.215
 298.395 174.203 296.031 c 173.293 295.762 172.305 295.938 171.543 296.508
 c 170.781 297.078 170.332 297.973 170.332 298.922 c 170.332 299.398 l 170.113
 299.336 169.895 299.277 169.676 299.219 c 169.465 299.129 169.234 299.074
 169 299.035 c 167.395 298.617 165.777 298.219 164.137 297.871 c 164.129
 287.203 l 210.383 287.203 l 223.41 287.207 234.004 276.609 234.004 263.586
 c h
69.984 377.711 m 37.293 377.707 l 38.273 356.801 49.371 334.293 69.984 
319.191 c h
198.461 319.527 m 218.777 334.629 229.715 356.961 230.688 377.707 c 198.461
 377.711 l h
121.84 6.031 m 146.043 6.031 l 176.297 6.031 202.488 27.484 208.875 56.664
 c 206.383 55.773 203.379 55.125 200.277 54.57 c 193.566 53.375 184.25 52.375
 172.586 51.602 c 152.832 50.293 132.82 50.074 132.559 50.074 c 132.363 
50.074 113.047 50.293 93.977 51.605 c 82.711 52.379 73.711 53.379 67.227
 54.574 c 64.27 55.121 61.41 55.762 59.016 56.629 c 65.414 27.469 91.594
 6.031 121.84 6.031 c h
97.117 57.441 m 115.07 56.305 132.449 56.109 132.559 56.105 c 132.738 56.109
 150.766 56.305 169.383 57.445 c 201.355 59.402 207.871 62.41 209.168 63.395
 c 209.137 66.398 208.625 69.73 200.09 72.727 c 188.801 76.688 167.176 78.613
 133.98 78.613 c 100.781 78.613 79.156 76.688 67.871 72.727 c 59.312 69.723
 58.82 66.379 58.793 63.371 c 59.945 62.508 66.148 59.406 97.117 57.441 
c h
45.129 245.957 m 45.086 245.957 l 39.039 245.957 33.438 243.672 29.297 
239.523 c 25.457 235.668 23.355 230.613 23.387 225.285 c 23.441 214.883 
31.609 206.234 42.164 204.727 c 43.641 211.77 46.051 218.473 49.262 224.703
 c 42.426 221.609 36.027 219.934 35.621 219.828 c 34.012 219.41 32.363 220.383
 31.945 221.996 c 31.531 223.609 32.5 225.254 34.113 225.672 c 34.254 225.707
 48.297 229.379 56.043 235.625 c 56.055 235.633 56.062 235.641 56.07 235.645
 c 57.301 237.305 58.586 238.914 59.938 240.473 c 56.023 243.863 50.82 245.945
 45.129 245.957 c h
173.734 355.328 m 173.734 362.34 l 173.734 364.406 172.059 366.082 169.996
 366.082 c 149.891 366.082 l 147.824 366.082 146.148 364.406 146.148 362.34
 c 146.148 355.328 l 146.148 353.262 147.824 351.586 149.891 351.586 c 169.996
 351.586 l 172.059 351.586 173.734 353.262 173.734 355.328 c h
170.336 309.273 m 170.336 337.547 l 98.102 337.547 l 98.059 310.223 l 102.48
 321.387 116.043 328.652 134.023 328.652 c 152.508 328.652 166.32 320.973
 170.336 309.273 c h
165.34 304.336 m 163.648 316.875 148.324 322.617 134.023 322.617 c 119.719
 322.617 104.391 316.871 102.707 304.32 c 104.273 303.949 105.855 303.605
 107.477 303.305 c 108.906 303.035 109.941 301.789 109.941 300.336 c 109.91
 267.367 l 113.27 267.797 116.691 268.023 120.164 268.023 c 147.723 268.023
 l 151.23 268.023 154.688 267.793 158.082 267.352 c 158.109 300.352 l 158.109
 301.805 159.145 303.047 160.57 303.316 c 162.191 303.617 163.777 303.965
 165.34 304.336 c h
147.723 261.992 m 120.164 261.992 l 79.543 261.992 46.496 228.945 46.496
 188.324 c 46.496 152.863 l 85.359 129.938 115.355 107.059 135.945 84.645
 c 154.293 84.602 169.156 83.941 180.738 82.652 c 196.996 93.008 210.594
 111.133 221.387 136.91 c 221.387 188.324 l 221.387 228.945 188.34 261.992
 147.723 261.992 c h
211.586 235.949 m 211.762 235.859 211.934 235.754 212.094 235.625 c 219.824
 229.395 233.883 225.707 234.027 225.668 c 235.637 225.254 236.609 223.605
 236.191 221.996 c 235.773 220.383 234.129 219.41 232.516 219.828 c 232.102
 219.934 225.5 221.664 218.539 224.855 c 221.793 218.578 224.234 211.816
 225.723 204.711 c 236.324 206.18 244.535 214.852 244.594 225.285 c 244.621
 230.613 242.523 235.668 238.68 239.523 c 234.543 243.672 228.938 245.957
 222.895 245.957 c 222.848 245.957 l 217.129 245.945 211.914 243.844 207.992
 240.422 c 209.242 238.977 210.441 237.484 211.586 235.949 c h
211.586 235.949 m f
168.145 153.754 m 163.188 153.605 159.039 157.727 158.879 162.961 c 158.719
 168.195 162.609 172.559 167.57 172.711 c 172.527 172.859 176.676 168.742
 176.836 163.508 c 176.992 158.273 173.105 153.906 168.145 153.754 c h
168.145 153.754 m f
100.699 153.754 m 95.742 153.605 91.594 157.727 91.434 162.961 c 91.277
 168.195 95.164 172.559 100.125 172.711 c 105.082 172.859 109.23 168.742
 109.391 163.508 c 109.551 158.273 105.66 153.906 100.699 153.754 c h
100.699 153.754 m f
157.977 138.109 m 158.023 138.059 162.867 133.039 167.98 133.234 c 173.09
 133.426 177.477 138.832 177.574 138.953 c 178.172 139.707 179.055 140.102
 179.945 140.102 c 180.598 140.102 181.254 139.891 181.809 139.453 c 183.117
 138.426 183.344 136.527 182.312 135.219 c 182.066 134.906 176.156 127.504
 168.207 127.207 c 160.266 126.902 153.836 133.703 153.566 133.992 c 152.43
 135.211 152.492 137.117 153.711 138.254 c 154.93 139.391 156.84 139.324
 157.977 138.109 c h
157.977 138.109 m f
100.762 127.207 m 92.832 126.906 86.391 133.703 86.121 133.992 c 84.988
 135.207 85.055 137.109 86.266 138.246 c 87.477 139.387 89.383 139.324 90.527
 138.117 c 90.574 138.066 95.379 133.043 100.535 133.234 c 105.652 133.426
 110.051 138.852 110.129 138.953 c 110.727 139.707 111.609 140.102 112.5
 140.102 c 113.152 140.102 113.809 139.891 114.363 139.453 c 115.672 138.426
 115.898 136.527 114.867 135.219 c 114.621 134.902 108.715 127.504 100.762
 127.207 c h
100.762 127.207 m f
136.047 149.508 m 138.555 161.598 140.918 173.016 135.094 177.812 c 133.809
 178.871 133.621 180.773 134.684 182.059 c 135.277 182.785 136.141 183.16
 137.012 183.16 c 137.688 183.16 138.367 182.934 138.93 182.469 c 147.566
 175.359 144.84 162.207 141.953 148.285 c 140.953 143.441 139.914 138.434
 139.371 133.684 c 139.184 132.031 137.688 130.828 136.031 131.031 c 134.375
 131.219 133.188 132.715 133.379 134.371 c 133.953 139.391 135.016 144.535
 136.047 149.508 c h
136.047 149.508 m f
123.07 181.645 m 123.504 181.863 123.965 181.965 124.418 181.965 c 125.523
 181.965 126.59 181.355 127.117 180.297 c 128.379 177.773 l 129.125 176.281
 128.523 174.473 127.031 173.727 c 125.539 172.98 123.73 173.586 122.984
 175.074 c 121.723 177.598 l 120.977 179.09 121.582 180.902 123.07 181.645
 c h
123.07 181.645 m f
134.871 213.379 m 141.809 213.379 148.125 209.734 152.203 203.375 c 153.102
 201.973 152.691 200.109 151.289 199.211 c 149.887 198.312 148.02 198.719
 147.121 200.121 c 144.18 204.715 139.715 207.348 134.871 207.348 c 130.027
 207.348 125.559 204.715 122.617 200.121 c 121.719 198.719 119.855 198.312
 118.449 199.211 c 117.047 200.109 116.641 201.973 117.539 203.375 c 121.609
 209.734 127.93 213.379 134.871 213.379 c h
134.871 213.379 m f
353.848 275 m 252.117 275 l 245.059 275 239.316 280.742 239.316 287.801
 c 239.316 320.406 l 239.316 327.465 245.059 333.203 252.117 333.203 c 284.965
 333.203 l 284.965 380.984 l 284.965 382.648 286.316 384 287.984 384 c 289.648
 384 291 382.648 291 380.984 c 291 333.203 l 314.965 333.203 l 314.965 380.984
 l 314.965 382.648 316.316 384 317.98 384 c 319.648 384 320.996 382.648 
320.996 380.984 c 320.996 333.203 l 353.848 333.203 l 360.906 333.203 366.648
 327.465 366.648 320.406 c 366.648 287.801 l 366.648 280.742 360.906 275
 353.848 275 c h
360.613 320.406 m 360.613 324.137 357.578 327.172 353.848 327.172 c 252.117
 327.172 l 248.387 327.172 245.352 324.137 245.352 320.406 c 245.352 287.801
 l 245.352 284.07 248.387 281.035 252.117 281.035 c 353.848 281.035 l 357.578
 281.035 360.613 284.07 360.613 287.801 c h
360.613 320.406 m f
Q Q
showpage
%%Trailer
end
%%EOF
