%!PS-Adobe-3.0 EPSF-3.0
%%Creator: cairo 1.16.0 (https://cairographics.org)
%%CreationDate: Fri Feb 12 12:12:36 2021
%%Pages: 1
%%DocumentData: Clean7Bit
%%LanguageLevel: 2
%%BoundingBox: 0 47 384 337
%%EndComments
%%BeginProlog
50 dict begin
/q { gsave } bind def
/Q { grestore } bind def
/cm { 6 array astore concat } bind def
/w { setlinewidth } bind def
/J { setlinecap } bind def
/j { setlinejoin } bind def
/M { setmiterlimit } bind def
/d { setdash } bind def
/m { moveto } bind def
/l { lineto } bind def
/c { curveto } bind def
/h { closepath } bind def
/re { exch dup neg 3 1 roll 5 3 roll moveto 0 rlineto
      0 exch rlineto 0 rlineto closepath } bind def
/S { stroke } bind def
/f { fill } bind def
/f* { eofill } bind def
/n { newpath } bind def
/W { clip } bind def
/W* { eoclip } bind def
/BT { } bind def
/ET { } bind def
/BDC { mark 3 1 roll /BDC pdfmark } bind def
/EMC { mark /EMC pdfmark } bind def
/cairo_store_point { /cairo_point_y exch def /cairo_point_x exch def } def
/Tj { show currentpoint cairo_store_point } bind def
/TJ {
  {
    dup
    type /stringtype eq
    { show } { -0.001 mul 0 cairo_font_matrix dtransform rmoveto } ifelse
  } forall
  currentpoint cairo_store_point
} bind def
/cairo_selectfont { cairo_font_matrix aload pop pop pop 0 0 6 array astore
    cairo_font exch selectfont cairo_point_x cairo_point_y moveto } bind def
/Tf { pop /cairo_font exch def /cairo_font_matrix where
      { pop cairo_selectfont } if } bind def
/Td { matrix translate cairo_font_matrix matrix concatmatrix dup
      /cairo_font_matrix exch def dup 4 get exch 5 get cairo_store_point
      /cairo_font where { pop cairo_selectfont } if } bind def
/Tm { 2 copy 8 2 roll 6 array astore /cairo_font_matrix exch def
      cairo_store_point /cairo_font where { pop cairo_selectfont } if } bind def
/g { setgray } bind def
/rg { setrgbcolor } bind def
/d1 { setcachedevice } bind def
/cairo_data_source {
  CairoDataIndex CairoData length lt
    { CairoData CairoDataIndex get /CairoDataIndex CairoDataIndex 1 add def }
    { () } ifelse
} def
/cairo_flush_ascii85_file { cairo_ascii85_file status { cairo_ascii85_file flushfile } if } def
/cairo_image { image cairo_flush_ascii85_file } def
/cairo_imagemask { imagemask cairo_flush_ascii85_file } def
%%EndProlog
%%BeginSetup
%%EndSetup
%%Page: 1 1
%%BeginPageSetup
%%PageBoundingBox: 0 47 384 337
%%EndPageSetup
q 0 47 384 290 rectclip
1 0 0 -1 0 384 cm q
0.913725 0.760784 0.470588 rg
12.312 50.793 m 7.188 50.793 3.035 54.945 3.035 60.07 c 3.035 323.93 l 
3.035 329.055 7.188 333.207 12.312 333.207 c 371.688 333.207 l 376.812 333.207
 380.965 329.055 380.965 323.93 c 380.965 60.07 l 380.965 54.945 376.812
 50.793 371.688 50.793 c h
12.312 50.793 m f
0.976471 0.984314 0.988235 rg
108.32 50.793 m 108.418 185.383 l 120.289 191.875 l 132.16 185.383 l 144.039
 191.875 l 155.91 185.383 l 167.789 191.875 l 180.16 185.09 l 180.16 50.793
 l f
378.922 58.336 m 378.922 59.703 377.812 60.816 376.441 60.816 c 375.074
 60.816 373.965 59.703 373.965 58.336 c 373.965 56.965 375.074 55.855 376.441
 55.855 c 377.812 55.855 378.922 56.965 378.922 58.336 c h
378.922 58.336 m f
378.922 74.32 m 378.922 75.691 377.812 76.801 376.441 76.801 c 375.074 
76.801 373.965 75.691 373.965 74.32 c 373.965 72.949 375.074 71.84 376.441
 71.84 c 377.812 71.84 378.922 72.949 378.922 74.32 c h
378.922 74.32 m f
376.441 92.785 m 377.812 92.785 378.922 91.676 378.922 90.309 c 378.922
 88.938 377.812 87.828 376.441 87.828 c 375.074 87.828 373.965 88.938 373.965
 90.309 c 373.965 91.676 375.074 92.785 376.441 92.785 c h
376.441 92.785 m f
376.441 108.773 m 377.812 108.773 378.922 107.664 378.922 106.293 c 378.922
 104.922 377.812 103.812 376.441 103.812 c 375.074 103.812 373.965 104.922
 373.965 106.293 c 373.965 107.66 375.074 108.773 376.441 108.773 c h
376.441 108.773 m f
376.441 124.758 m 377.812 124.758 378.922 123.648 378.922 122.277 c 378.922
 120.91 377.812 119.801 376.441 119.801 c 375.074 119.801 373.965 120.91
 373.965 122.277 c 373.965 123.648 375.074 124.758 376.441 124.758 c h
376.441 124.758 m f
376.441 140.746 m 377.812 140.746 378.922 139.633 378.922 138.266 c 378.922
 136.895 377.812 135.785 376.441 135.785 c 375.074 135.785 373.965 136.895
 373.965 138.266 c 373.965 139.633 375.074 140.746 376.441 140.746 c h
376.441 140.746 m f
378.922 154.25 m 378.922 155.621 377.812 156.73 376.441 156.73 c 375.074
 156.73 373.965 155.621 373.965 154.25 c 373.965 152.883 375.074 151.773
 376.441 151.773 c 377.812 151.773 378.922 152.883 378.922 154.25 c h
378.922 154.25 m f
378.922 170.238 m 378.922 171.605 377.812 172.715 376.441 172.715 c 375.074
 172.715 373.965 171.605 373.965 170.238 c 373.965 168.867 375.074 167.758
 376.441 167.758 c 377.812 167.758 378.922 168.867 378.922 170.238 c h
378.922 170.238 m f
378.922 186.223 m 378.922 187.594 377.812 188.703 376.441 188.703 c 375.074
 188.703 373.965 187.594 373.965 186.223 c 373.965 184.855 375.074 183.742
 376.441 183.742 c 377.812 183.742 378.922 184.855 378.922 186.223 c h
378.922 186.223 m f
378.922 202.211 m 378.922 203.578 377.812 204.688 376.441 204.688 c 375.074
 204.688 373.965 203.578 373.965 202.211 c 373.965 200.84 375.074 199.73
 376.441 199.73 c 377.812 199.73 378.922 200.84 378.922 202.211 c h
378.922 202.211 m f
376.441 220.676 m 377.812 220.676 378.922 219.566 378.922 218.195 c 378.922
 216.824 377.812 215.715 376.441 215.715 c 375.074 215.715 373.965 216.824
 373.965 218.195 c 373.965 219.566 375.074 220.676 376.441 220.676 c h
376.441 220.676 m f
376.441 236.66 m 377.812 236.66 378.922 235.551 378.922 234.18 c 378.922
 232.812 377.812 231.703 376.441 231.703 c 375.074 231.703 373.965 232.812
 373.965 234.18 c 373.965 235.551 375.074 236.66 376.441 236.66 c h
376.441 236.66 m f
376.441 252.648 m 377.812 252.648 378.922 251.535 378.922 250.168 c 378.922
 248.797 377.812 247.688 376.441 247.688 c 375.074 247.688 373.965 248.797
 373.965 250.168 c 373.965 251.535 375.074 252.648 376.441 252.648 c h
376.441 252.648 m f
376.441 268.633 m 377.812 268.633 378.922 267.523 378.922 266.152 c 378.922
 264.785 377.812 263.672 376.441 263.672 c 375.074 263.672 373.965 264.785
 373.965 266.152 c 373.965 267.523 375.074 268.633 376.441 268.633 c h
376.441 268.633 m f
378.922 282.141 m 378.922 283.508 377.812 284.617 376.441 284.617 c 375.074
 284.617 373.965 283.508 373.965 282.141 c 373.965 280.77 375.074 279.66
 376.441 279.66 c 377.812 279.66 378.922 280.77 378.922 282.141 c h
378.922 282.141 m f
378.922 298.125 m 378.922 299.496 377.812 300.605 376.441 300.605 c 375.074
 300.605 373.965 299.496 373.965 298.125 c 373.965 296.758 375.074 295.645
 376.441 295.645 c 377.812 295.645 378.922 296.758 378.922 298.125 c h
378.922 298.125 m f
378.922 314.113 m 378.922 315.48 377.812 316.59 376.441 316.59 c 375.074
 316.59 373.965 315.48 373.965 314.113 c 373.965 312.742 375.074 311.633
 376.441 311.633 c 377.812 311.633 378.922 312.742 378.922 314.113 c h
378.922 314.113 m f
362.938 58.336 m 362.938 59.703 361.828 60.816 360.457 60.816 c 359.09 
60.816 357.977 59.703 357.977 58.336 c 357.977 56.965 359.09 55.855 360.457
 55.855 c 361.828 55.855 362.938 56.965 362.938 58.336 c h
362.938 58.336 m f
368.75 63.547 m 367.383 63.547 366.273 64.656 366.273 66.027 c 366.273 
67.395 367.383 68.504 368.75 68.504 c 370.121 68.504 371.23 67.395 371.23
 66.027 c 371.23 64.656 370.121 63.547 368.75 63.547 c h
368.75 63.547 m f
362.938 74.32 m 362.938 75.691 361.828 76.801 360.457 76.801 c 359.09 76.801
 357.977 75.691 357.977 74.32 c 357.977 72.949 359.09 71.84 360.457 71.84
 c 361.828 71.84 362.938 72.949 362.938 74.32 c h
362.938 74.32 m f
371.23 82.012 m 371.23 83.383 370.121 84.492 368.75 84.492 c 367.383 84.492
 366.273 83.383 366.273 82.012 c 366.273 80.645 367.383 79.531 368.75 79.531
 c 370.121 79.531 371.23 80.645 371.23 82.012 c h
371.23 82.012 m f
360.457 87.828 m 359.09 87.828 357.977 88.938 357.977 90.309 c 357.977 
91.676 359.09 92.785 360.457 92.785 c 361.828 92.785 362.938 91.676 362.938
 90.309 c 362.938 88.938 361.828 87.828 360.457 87.828 c h
360.457 87.828 m f
371.23 98 m 371.23 99.367 370.121 100.477 368.75 100.477 c 367.383 100.477
 366.273 99.367 366.273 98 c 366.273 96.629 367.383 95.52 368.75 95.52 c
 370.121 95.52 371.23 96.629 371.23 98 c h
371.23 98 m f
360.457 103.812 m 359.09 103.812 357.977 104.922 357.977 106.293 c 357.977
 107.66 359.09 108.773 360.457 108.773 c 361.828 108.773 362.938 107.66 
362.938 106.293 c 362.938 104.922 361.828 103.812 360.457 103.812 c h
360.457 103.812 m f
371.23 113.984 m 371.23 115.355 370.121 116.465 368.75 116.465 c 367.383
 116.465 366.273 115.355 366.273 113.984 c 366.273 112.617 367.383 111.504
 368.75 111.504 c 370.121 111.504 371.23 112.617 371.23 113.984 c h
371.23 113.984 m f
371.23 129.973 m 371.23 131.34 370.121 132.449 368.75 132.449 c 367.383
 132.449 366.273 131.34 366.273 129.973 c 366.273 128.602 367.383 127.492
 368.75 127.492 c 370.121 127.492 371.23 128.602 371.23 129.973 c h
371.23 129.973 m f
360.457 135.785 m 359.09 135.785 357.977 136.895 357.977 138.266 c 357.977
 139.633 359.09 140.746 360.457 140.746 c 361.828 140.746 362.938 139.633
 362.938 138.266 c 362.938 136.895 361.828 135.785 360.457 135.785 c h
360.457 135.785 m f
368.75 143.477 m 367.383 143.477 366.273 144.586 366.273 145.957 c 366.273
 147.328 367.383 148.438 368.75 148.438 c 370.121 148.438 371.23 147.328
 371.23 145.957 c 371.23 144.59 370.121 143.477 368.75 143.477 c h
368.75 143.477 m f
362.938 154.25 m 362.938 155.621 361.828 156.73 360.457 156.73 c 359.09
 156.73 357.977 155.621 357.977 154.25 c 357.977 152.883 359.09 151.773 
360.457 151.773 c 361.828 151.773 362.938 152.883 362.938 154.25 c h
362.938 154.25 m f
368.75 159.465 m 367.383 159.465 366.273 160.574 366.273 161.941 c 366.273
 163.312 367.383 164.422 368.75 164.422 c 370.121 164.422 371.23 163.312
 371.23 161.941 c 371.23 160.574 370.121 159.465 368.75 159.465 c h
368.75 159.465 m f
362.938 170.238 m 362.938 171.605 361.828 172.715 360.457 172.715 c 359.09
 172.715 357.977 171.605 357.977 170.238 c 357.977 168.867 359.09 167.758
 360.457 167.758 c 361.828 167.758 362.938 168.867 362.938 170.238 c h
362.938 170.238 m f
368.75 175.449 m 367.383 175.449 366.273 176.559 366.273 177.93 c 366.273
 179.297 367.383 180.406 368.75 180.406 c 370.121 180.406 371.23 179.297
 371.23 177.93 c 371.23 176.559 370.121 175.449 368.75 175.449 c h
368.75 175.449 m f
362.938 186.223 m 362.938 187.594 361.828 188.703 360.457 188.703 c 359.09
 188.703 357.977 187.594 357.977 186.223 c 357.977 184.855 359.09 183.742
 360.457 183.742 c 361.828 183.742 362.938 184.855 362.938 186.223 c h
362.938 186.223 m f
368.75 191.434 m 367.383 191.434 366.273 192.547 366.273 193.914 c 366.273
 195.285 367.383 196.395 368.75 196.395 c 370.121 196.395 371.23 195.285
 371.23 193.914 c 371.23 192.547 370.121 191.434 368.75 191.434 c h
368.75 191.434 m f
362.938 202.211 m 362.938 203.578 361.828 204.688 360.457 204.688 c 359.09
 204.688 357.977 203.578 357.977 202.211 c 357.977 200.84 359.09 199.73 
360.457 199.73 c 361.828 199.73 362.938 200.84 362.938 202.211 c h
362.938 202.211 m f
371.23 209.902 m 371.23 211.27 370.121 212.379 368.75 212.379 c 367.383
 212.379 366.273 211.27 366.273 209.902 c 366.273 208.531 367.383 207.422
 368.75 207.422 c 370.121 207.422 371.23 208.531 371.23 209.902 c h
371.23 209.902 m f
360.457 215.715 m 359.09 215.715 357.977 216.824 357.977 218.195 c 357.977
 219.566 359.09 220.676 360.457 220.676 c 361.828 220.676 362.938 219.566
 362.938 218.195 c 362.938 216.824 361.828 215.715 360.457 215.715 c h
360.457 215.715 m f
371.23 225.887 m 371.23 227.258 370.121 228.367 368.75 228.367 c 367.383
 228.367 366.273 227.258 366.273 225.887 c 366.273 224.52 367.383 223.406
 368.75 223.406 c 370.121 223.406 371.23 224.52 371.23 225.887 c h
371.23 225.887 m f
360.457 231.703 m 359.09 231.703 357.977 232.812 357.977 234.18 c 357.977
 235.551 359.09 236.66 360.457 236.66 c 361.828 236.66 362.938 235.551 362.938
 234.18 c 362.938 232.812 361.828 231.703 360.457 231.703 c h
360.457 231.703 m f
371.23 241.875 m 371.23 243.242 370.121 244.352 368.75 244.352 c 367.383
 244.352 366.273 243.242 366.273 241.875 c 366.273 240.504 367.383 239.395
 368.75 239.395 c 370.121 239.395 371.23 240.504 371.23 241.875 c h
371.23 241.875 m f
360.457 247.688 m 359.09 247.688 357.977 248.797 357.977 250.168 c 357.977
 251.535 359.09 252.648 360.457 252.648 c 361.828 252.648 362.938 251.535
 362.938 250.168 c 362.938 248.797 361.828 247.688 360.457 247.688 c h
360.457 247.688 m f
371.23 257.859 m 371.23 259.23 370.121 260.34 368.75 260.34 c 367.383 260.34
 366.273 259.23 366.273 257.859 c 366.273 256.492 367.383 255.379 368.75
 255.379 c 370.121 255.379 371.23 256.492 371.23 257.859 c h
371.23 257.859 m f
360.457 263.672 m 359.09 263.672 357.977 264.785 357.977 266.152 c 357.977
 267.523 359.09 268.633 360.457 268.633 c 361.828 268.633 362.938 267.523
 362.938 266.152 c 362.938 264.785 361.828 263.672 360.457 263.672 c h
360.457 263.672 m f
368.75 271.367 m 367.383 271.367 366.273 272.477 366.273 273.844 c 366.273
 275.215 367.383 276.324 368.75 276.324 c 370.121 276.324 371.23 275.215
 371.23 273.844 c 371.23 272.477 370.121 271.367 368.75 271.367 c h
368.75 271.367 m f
362.938 282.141 m 362.938 283.508 361.828 284.617 360.457 284.617 c 359.09
 284.617 357.977 283.508 357.977 282.141 c 357.977 280.77 359.09 279.66 
360.457 279.66 c 361.828 279.66 362.938 280.77 362.938 282.141 c h
362.938 282.141 m f
368.75 287.352 m 367.383 287.352 366.273 288.461 366.273 289.832 c 366.273
 291.199 367.383 292.312 368.75 292.312 c 370.121 292.312 371.23 291.199
 371.23 289.832 c 371.23 288.461 370.121 287.352 368.75 287.352 c h
368.75 287.352 m f
362.938 298.125 m 362.938 299.496 361.828 300.605 360.457 300.605 c 359.09
 300.605 357.977 299.496 357.977 298.125 c 357.977 296.758 359.09 295.645
 360.457 295.645 c 361.828 295.645 362.938 296.758 362.938 298.125 c h
362.938 298.125 m f
368.75 303.34 m 367.383 303.34 366.273 304.449 366.273 305.816 c 366.273
 307.188 367.383 308.297 368.75 308.297 c 370.121 308.297 371.23 307.188
 371.23 305.816 c 371.23 304.449 370.121 303.34 368.75 303.34 c h
368.75 303.34 m f
362.938 314.113 m 362.938 315.48 361.828 316.59 360.457 316.59 c 359.09
 316.59 357.977 315.48 357.977 314.113 c 357.977 312.742 359.09 311.633 
360.457 311.633 c 361.828 311.633 362.938 312.742 362.938 314.113 c h
362.938 314.113 m f
368.75 319.324 m 367.383 319.324 366.273 320.434 366.273 321.805 c 366.273
 323.172 367.383 324.281 368.75 324.281 c 370.121 324.281 371.23 323.172
 371.23 321.805 c 371.23 320.434 370.121 319.324 368.75 319.324 c h
368.75 319.324 m f
360.457 327.617 m 359.09 327.617 357.977 328.727 357.977 330.098 c 357.977
 331.469 359.09 332.578 360.457 332.578 c 361.828 332.578 362.938 331.469
 362.938 330.098 c 362.938 328.727 361.828 327.617 360.457 327.617 c h
360.457 327.617 m f
346.949 58.336 m 346.949 59.703 345.84 60.816 344.473 60.816 c 343.102 
60.816 341.992 59.703 341.992 58.336 c 341.992 56.965 343.102 55.855 344.473
 55.855 c 345.84 55.855 346.949 56.965 346.949 58.336 c h
346.949 58.336 m f
352.766 63.547 m 351.395 63.547 350.285 64.656 350.285 66.027 c 350.285
 67.395 351.395 68.504 352.766 68.504 c 354.133 68.504 355.246 67.395 355.246
 66.027 c 355.246 64.656 354.133 63.547 352.766 63.547 c h
352.766 63.547 m f
346.949 74.32 m 346.949 75.691 345.84 76.801 344.473 76.801 c 343.102 76.801
 341.992 75.691 341.992 74.32 c 341.992 72.949 343.102 71.84 344.473 71.84
 c 345.84 71.84 346.949 72.949 346.949 74.32 c h
346.949 74.32 m f
352.766 79.531 m 351.395 79.531 350.285 80.645 350.285 82.012 c 350.285
 83.383 351.395 84.492 352.766 84.492 c 354.133 84.492 355.246 83.383 355.246
 82.012 c 355.246 80.645 354.133 79.531 352.766 79.531 c h
352.766 79.531 m f
344.473 87.828 m 343.102 87.828 341.992 88.938 341.992 90.309 c 341.992
 91.676 343.102 92.785 344.473 92.785 c 345.84 92.785 346.949 91.676 346.949
 90.309 c 346.949 88.938 345.84 87.828 344.473 87.828 c h
344.473 87.828 m f
352.766 95.52 m 351.395 95.52 350.285 96.629 350.285 98 c 350.285 99.367
 351.395 100.477 352.766 100.477 c 354.133 100.477 355.246 99.367 355.246
 98 c 355.246 96.629 354.133 95.52 352.766 95.52 c h
352.766 95.52 m f
344.473 103.812 m 343.102 103.812 341.992 104.922 341.992 106.293 c 341.992
 107.66 343.102 108.773 344.473 108.773 c 345.84 108.773 346.949 107.66 
346.949 106.293 c 346.949 104.922 345.84 103.812 344.473 103.812 c h
344.473 103.812 m f
344.473 135.785 m 343.102 135.785 341.992 136.895 341.992 138.266 c 341.992
 139.633 343.102 140.746 344.473 140.746 c 345.84 140.746 346.949 139.633
 346.949 138.266 c 346.949 136.895 345.84 135.785 344.473 135.785 c h
344.473 135.785 m f
352.766 143.477 m 351.395 143.477 350.285 144.586 350.285 145.957 c 350.285
 147.328 351.395 148.438 352.766 148.438 c 354.133 148.438 355.246 147.328
 355.246 145.957 c 355.246 144.59 354.133 143.477 352.766 143.477 c h
352.766 143.477 m f
346.949 154.25 m 346.949 155.621 345.84 156.73 344.473 156.73 c 343.102
 156.73 341.992 155.621 341.992 154.25 c 341.992 152.883 343.102 151.773
 344.473 151.773 c 345.84 151.773 346.949 152.883 346.949 154.25 c h
346.949 154.25 m f
352.766 159.465 m 351.395 159.465 350.285 160.574 350.285 161.941 c 350.285
 163.312 351.395 164.422 352.766 164.422 c 354.133 164.422 355.246 163.312
 355.246 161.941 c 355.246 160.574 354.133 159.465 352.766 159.465 c h
352.766 159.465 m f
346.949 170.238 m 346.949 171.605 345.84 172.715 344.473 172.715 c 343.102
 172.715 341.992 171.605 341.992 170.238 c 341.992 168.867 343.102 167.758
 344.473 167.758 c 345.84 167.758 346.949 168.867 346.949 170.238 c h
346.949 170.238 m f
352.766 175.449 m 351.395 175.449 350.285 176.559 350.285 177.93 c 350.285
 179.297 351.395 180.406 352.766 180.406 c 354.133 180.406 355.246 179.297
 355.246 177.93 c 355.246 176.559 354.133 175.449 352.766 175.449 c h
352.766 175.449 m f
346.949 186.223 m 346.949 187.594 345.84 188.703 344.473 188.703 c 343.102
 188.703 341.992 187.594 341.992 186.223 c 341.992 184.855 343.102 183.742
 344.473 183.742 c 345.84 183.742 346.949 184.855 346.949 186.223 c h
346.949 186.223 m f
352.766 191.434 m 351.395 191.434 350.285 192.547 350.285 193.914 c 350.285
 195.285 351.395 196.395 352.766 196.395 c 354.133 196.395 355.246 195.285
 355.246 193.914 c 355.246 192.547 354.133 191.434 352.766 191.434 c h
352.766 191.434 m f
346.949 202.211 m 346.949 203.578 345.84 204.688 344.473 204.688 c 343.102
 204.688 341.992 203.578 341.992 202.211 c 341.992 200.84 343.102 199.73
 344.473 199.73 c 345.84 199.73 346.949 200.84 346.949 202.211 c h
346.949 202.211 m f
352.766 207.422 m 351.395 207.422 350.285 208.531 350.285 209.902 c 350.285
 211.27 351.395 212.379 352.766 212.379 c 354.133 212.379 355.246 211.27
 355.246 209.902 c 355.246 208.531 354.133 207.422 352.766 207.422 c h
352.766 207.422 m f
344.473 215.715 m 343.102 215.715 341.992 216.824 341.992 218.195 c 341.992
 219.566 343.102 220.676 344.473 220.676 c 345.84 220.676 346.949 219.566
 346.949 218.195 c 346.949 216.824 345.84 215.715 344.473 215.715 c h
344.473 215.715 m f
352.766 223.406 m 351.395 223.406 350.285 224.52 350.285 225.887 c 350.285
 227.258 351.395 228.367 352.766 228.367 c 354.133 228.367 355.246 227.258
 355.246 225.887 c 355.246 224.52 354.133 223.406 352.766 223.406 c h
352.766 223.406 m f
344.473 231.703 m 343.102 231.703 341.992 232.812 341.992 234.18 c 341.992
 235.551 343.102 236.66 344.473 236.66 c 345.84 236.66 346.949 235.551 346.949
 234.18 c 346.949 232.812 345.84 231.703 344.473 231.703 c h
344.473 231.703 m f
352.766 239.395 m 351.395 239.395 350.285 240.504 350.285 241.875 c 350.285
 243.242 351.395 244.352 352.766 244.352 c 354.133 244.352 355.246 243.242
 355.246 241.875 c 355.246 240.504 354.133 239.395 352.766 239.395 c h
352.766 239.395 m f
344.473 247.688 m 343.102 247.688 341.992 248.797 341.992 250.168 c 341.992
 251.535 343.102 252.648 344.473 252.648 c 345.84 252.648 346.949 251.535
 346.949 250.168 c 346.949 248.797 345.84 247.688 344.473 247.688 c h
344.473 247.688 m f
352.766 255.379 m 351.395 255.379 350.285 256.492 350.285 257.859 c 350.285
 259.23 351.395 260.34 352.766 260.34 c 354.133 260.34 355.246 259.23 355.246
 257.859 c 355.246 256.492 354.133 255.379 352.766 255.379 c h
352.766 255.379 m f
344.473 263.672 m 343.102 263.672 341.992 264.785 341.992 266.152 c 341.992
 267.523 343.102 268.633 344.473 268.633 c 345.84 268.633 346.949 267.523
 346.949 266.152 c 346.949 264.785 345.84 263.672 344.473 263.672 c h
344.473 263.672 m f
352.766 271.367 m 351.395 271.367 350.285 272.477 350.285 273.844 c 350.285
 275.215 351.395 276.324 352.766 276.324 c 354.133 276.324 355.246 275.215
 355.246 273.844 c 355.246 272.477 354.133 271.367 352.766 271.367 c h
352.766 271.367 m f
346.949 282.141 m 346.949 283.508 345.84 284.617 344.473 284.617 c 343.102
 284.617 341.992 283.508 341.992 282.141 c 341.992 280.77 343.102 279.66
 344.473 279.66 c 345.84 279.66 346.949 280.77 346.949 282.141 c h
346.949 282.141 m f
352.766 287.352 m 351.395 287.352 350.285 288.461 350.285 289.832 c 350.285
 291.199 351.395 292.312 352.766 292.312 c 354.133 292.312 355.246 291.199
 355.246 289.832 c 355.246 288.461 354.133 287.352 352.766 287.352 c h
352.766 287.352 m f
346.949 298.125 m 346.949 299.496 345.84 300.605 344.473 300.605 c 343.102
 300.605 341.992 299.496 341.992 298.125 c 341.992 296.758 343.102 295.645
 344.473 295.645 c 345.84 295.645 346.949 296.758 346.949 298.125 c h
346.949 298.125 m f
352.766 303.34 m 351.395 303.34 350.285 304.449 350.285 305.816 c 350.285
 307.188 351.395 308.297 352.766 308.297 c 354.133 308.297 355.246 307.188
 355.246 305.816 c 355.246 304.449 354.133 303.34 352.766 303.34 c h
352.766 303.34 m f
346.949 314.113 m 346.949 315.48 345.84 316.59 344.473 316.59 c 343.102
 316.59 341.992 315.48 341.992 314.113 c 341.992 312.742 343.102 311.633
 344.473 311.633 c 345.84 311.633 346.949 312.742 346.949 314.113 c h
346.949 314.113 m f
352.766 319.324 m 351.395 319.324 350.285 320.434 350.285 321.805 c 350.285
 323.172 351.395 324.281 352.766 324.281 c 354.133 324.281 355.246 323.172
 355.246 321.805 c 355.246 320.434 354.133 319.324 352.766 319.324 c h
352.766 319.324 m f
344.473 327.617 m 343.102 327.617 341.992 328.727 341.992 330.098 c 341.992
 331.469 343.102 332.578 344.473 332.578 c 345.84 332.578 346.949 331.469
 346.949 330.098 c 346.949 328.727 345.84 327.617 344.473 327.617 c h
344.473 327.617 m f
330.84 57.938 m 331.059 59.289 330.141 60.559 328.789 60.777 c 327.438 
60.996 326.164 60.078 325.945 58.727 c 325.727 57.375 326.648 56.102 328
 55.883 c 329.352 55.664 330.621 56.586 330.84 57.938 c h
330.84 57.938 m f
336.777 63.547 m 335.41 63.547 334.301 64.656 334.301 66.027 c 334.301 
67.395 335.41 68.504 336.777 68.504 c 338.148 68.504 339.258 67.395 339.258
 66.027 c 339.258 64.656 338.148 63.547 336.777 63.547 c h
336.777 63.547 m f
330.84 73.918 m 331.059 75.27 330.141 76.539 328.789 76.758 c 327.438 76.977
 326.164 76.059 325.945 74.707 c 325.727 73.355 326.648 72.082 328 71.863
 c 329.352 71.645 330.621 72.566 330.84 73.918 c h
330.84 73.918 m f
339.258 82.012 m 339.258 83.383 338.148 84.492 336.777 84.492 c 335.41 
84.492 334.301 83.383 334.301 82.012 c 334.301 80.645 335.41 79.531 336.777
 79.531 c 338.148 79.531 339.258 80.645 339.258 82.012 c h
339.258 82.012 m f
328.484 87.828 m 327.117 87.828 326.004 88.938 326.004 90.309 c 326.004
 91.676 327.117 92.785 328.484 92.785 c 329.855 92.785 330.965 91.676 330.965
 90.309 c 330.965 88.938 329.855 87.828 328.484 87.828 c h
328.484 87.828 m f
339.258 98 m 339.258 99.367 338.148 100.477 336.777 100.477 c 335.41 100.477
 334.301 99.367 334.301 98 c 334.301 96.629 335.41 95.52 336.777 95.52 c
 338.148 95.52 339.258 96.629 339.258 98 c h
339.258 98 m f
328.484 103.812 m 327.117 103.812 326.004 104.922 326.004 106.293 c 326.004
 107.66 327.117 108.773 328.484 108.773 c 329.855 108.773 330.965 107.66
 330.965 106.293 c 330.965 104.922 329.855 103.812 328.484 103.812 c h
328.484 103.812 m f
328.484 135.785 m 327.117 135.785 326.004 136.895 326.004 138.266 c 326.004
 139.633 327.117 140.746 328.484 140.746 c 329.855 140.746 330.965 139.633
 330.965 138.266 c 330.965 136.895 329.855 135.785 328.484 135.785 c h
328.484 135.785 m f
336.777 143.477 m 335.41 143.477 334.301 144.586 334.301 145.957 c 334.301
 147.328 335.41 148.438 336.777 148.438 c 338.148 148.438 339.258 147.328
 339.258 145.957 c 339.258 144.59 338.148 143.477 336.777 143.477 c h
336.777 143.477 m f
330.836 153.828 m 331.055 155.18 330.137 156.449 328.785 156.668 c 327.434
 156.887 326.16 155.965 325.941 154.613 c 325.727 153.262 326.645 151.992
 327.996 151.773 c 329.348 151.555 330.621 152.477 330.836 153.828 c h
330.836 153.828 m f
336.777 159.465 m 335.41 159.465 334.301 160.574 334.301 161.941 c 334.301
 163.312 335.41 164.422 336.777 164.422 c 338.148 164.422 339.258 163.312
 339.258 161.941 c 339.258 160.574 338.148 159.465 336.777 159.465 c h
336.777 159.465 m f
330.836 169.809 m 331.055 171.16 330.137 172.434 328.785 172.648 c 327.434
 172.867 326.16 171.949 325.941 170.598 c 325.723 169.246 326.645 167.973
 327.996 167.754 c 329.348 167.539 330.617 168.457 330.836 169.809 c h
330.836 169.809 m f
336.777 175.449 m 335.41 175.449 334.301 176.559 334.301 177.93 c 334.301
 179.297 335.41 180.406 336.777 180.406 c 338.148 180.406 339.258 179.297
 339.258 177.93 c 339.258 176.559 338.148 175.449 336.777 175.449 c h
336.777 175.449 m f
330.836 185.789 m 331.055 187.141 330.133 188.414 328.781 188.633 c 327.43
 188.848 326.16 187.93 325.941 186.578 c 325.723 185.227 326.645 183.953
 327.996 183.738 c 329.348 183.52 330.617 184.438 330.836 185.789 c h
330.836 185.789 m f
336.777 191.434 m 335.41 191.434 334.301 192.547 334.301 193.914 c 334.301
 195.285 335.41 196.395 336.777 196.395 c 338.148 196.395 339.258 195.285
 339.258 193.914 c 339.258 192.547 338.148 191.434 336.777 191.434 c h
336.777 191.434 m f
330.836 201.77 m 331.055 203.121 330.133 204.395 328.781 204.613 c 327.43
 204.828 326.16 203.91 325.941 202.559 c 325.723 201.207 326.645 199.934
 327.996 199.719 c 329.348 199.5 330.617 200.418 330.836 201.77 c h
330.836 201.77 m f
339.258 209.902 m 339.258 211.27 338.148 212.379 336.777 212.379 c 335.41
 212.379 334.301 211.27 334.301 209.902 c 334.301 208.531 335.41 207.422
 336.777 207.422 c 338.148 207.422 339.258 208.531 339.258 209.902 c h
339.258 209.902 m f
328.484 215.715 m 327.117 215.715 326.004 216.824 326.004 218.195 c 326.004
 219.566 327.117 220.676 328.484 220.676 c 329.855 220.676 330.965 219.566
 330.965 218.195 c 330.965 216.824 329.855 215.715 328.484 215.715 c h
328.484 215.715 m f
339.258 225.887 m 339.258 227.258 338.148 228.367 336.777 228.367 c 335.41
 228.367 334.301 227.258 334.301 225.887 c 334.301 224.52 335.41 223.406
 336.777 223.406 c 338.148 223.406 339.258 224.52 339.258 225.887 c h
339.258 225.887 m f
328.484 231.703 m 327.117 231.703 326.004 232.812 326.004 234.18 c 326.004
 235.551 327.117 236.66 328.484 236.66 c 329.855 236.66 330.965 235.551 
330.965 234.18 c 330.965 232.812 329.855 231.703 328.484 231.703 c h
328.484 231.703 m f
339.258 241.875 m 339.258 243.242 338.148 244.352 336.777 244.352 c 335.41
 244.352 334.301 243.242 334.301 241.875 c 334.301 240.504 335.41 239.395
 336.777 239.395 c 338.148 239.395 339.258 240.504 339.258 241.875 c h
339.258 241.875 m f
328.484 247.688 m 327.117 247.688 326.004 248.797 326.004 250.168 c 326.004
 251.535 327.117 252.648 328.484 252.648 c 329.855 252.648 330.965 251.535
 330.965 250.168 c 330.965 248.797 329.855 247.688 328.484 247.688 c h
328.484 247.688 m f
339.258 257.859 m 339.258 259.23 338.148 260.34 336.777 260.34 c 335.41
 260.34 334.301 259.23 334.301 257.859 c 334.301 256.492 335.41 255.379 
336.777 255.379 c 338.148 255.379 339.258 256.492 339.258 257.859 c h
339.258 257.859 m f
328.484 263.672 m 327.117 263.672 326.004 264.785 326.004 266.152 c 326.004
 267.523 327.117 268.633 328.484 268.633 c 329.855 268.633 330.965 267.523
 330.965 266.152 c 330.965 264.785 329.855 263.672 328.484 263.672 c h
328.484 263.672 m f
336.777 271.367 m 335.41 271.367 334.301 272.477 334.301 273.844 c 334.301
 275.215 335.41 276.324 336.777 276.324 c 338.148 276.324 339.258 275.215
 339.258 273.844 c 339.258 272.477 338.148 271.367 336.777 271.367 c h
336.777 271.367 m f
330.832 281.68 m 331.051 283.031 330.133 284.305 328.781 284.52 c 327.43
 284.738 326.156 283.82 325.938 282.469 c 325.723 281.117 326.641 279.844
 327.992 279.625 c 329.344 279.41 330.617 280.328 330.832 281.68 c h
330.832 281.68 m f
336.777 287.352 m 335.41 287.352 334.301 288.461 334.301 289.832 c 334.301
 291.199 335.41 292.312 336.777 292.312 c 338.148 292.312 339.258 291.199
 339.258 289.832 c 339.258 288.461 338.148 287.352 336.777 287.352 c h
336.777 287.352 m f
330.832 297.66 m 331.051 299.012 330.133 300.285 328.781 300.504 c 327.43
 300.723 326.156 299.801 325.938 298.449 c 325.719 297.098 326.641 295.828
 327.992 295.609 c 329.344 295.391 330.613 296.309 330.832 297.66 c h
330.832 297.66 m f
336.777 303.34 m 335.41 303.34 334.301 304.449 334.301 305.816 c 334.301
 307.188 335.41 308.297 336.777 308.297 c 338.148 308.297 339.258 307.188
 339.258 305.816 c 339.258 304.449 338.148 303.34 336.777 303.34 c h
336.777 303.34 m f
330.832 313.645 m 331.051 314.996 330.129 316.266 328.777 316.484 c 327.426
 316.703 326.156 315.785 325.938 314.434 c 325.719 313.082 326.641 311.809
 327.992 311.59 c 329.344 311.371 330.613 312.293 330.832 313.645 c h
330.832 313.645 m f
336.777 319.324 m 335.41 319.324 334.301 320.434 334.301 321.805 c 334.301
 323.172 335.41 324.281 336.777 324.281 c 338.148 324.281 339.258 323.172
 339.258 321.805 c 339.258 320.434 338.148 319.324 336.777 319.324 c h
336.777 319.324 m f
328.484 327.617 m 327.117 327.617 326.004 328.727 326.004 330.098 c 326.004
 331.469 327.117 332.578 328.484 332.578 c 329.855 332.578 330.965 331.469
 330.965 330.098 c 330.965 328.727 329.855 327.617 328.484 327.617 c h
328.484 327.617 m f
312.5 55.855 m 311.129 55.855 310.02 56.965 310.02 58.336 c 310.02 59.703
 311.129 60.812 312.5 60.812 c 313.867 60.812 314.977 59.703 314.977 58.336
 c 314.98 56.965 313.867 55.855 312.5 55.855 c h
312.5 55.855 m f
320.793 63.547 m 319.422 63.547 318.312 64.656 318.312 66.027 c 318.312
 67.395 319.422 68.504 320.793 68.504 c 322.164 68.504 323.273 67.395 323.273
 66.027 c 323.273 64.656 322.164 63.547 320.793 63.547 c h
320.793 63.547 m f
312.5 71.84 m 311.129 71.84 310.02 72.949 310.02 74.32 c 310.02 75.691 
311.129 76.801 312.5 76.801 c 313.867 76.801 314.977 75.691 314.977 74.32
 c 314.98 72.953 313.867 71.84 312.5 71.84 c h
312.5 71.84 m f
323.273 82.012 m 323.273 83.383 322.164 84.492 320.793 84.492 c 319.422
 84.492 318.312 83.383 318.312 82.012 c 318.312 80.645 319.422 79.531 320.793
 79.531 c 322.164 79.531 323.273 80.645 323.273 82.012 c h
323.273 82.012 m f
312.5 87.828 m 311.129 87.828 310.02 88.938 310.02 90.309 c 310.02 91.676
 311.129 92.785 312.5 92.785 c 313.867 92.785 314.977 91.676 314.977 90.309
 c 314.98 88.938 313.867 87.828 312.5 87.828 c h
312.5 87.828 m f
323.273 98 m 323.273 99.367 322.164 100.477 320.793 100.477 c 319.422 100.477
 318.312 99.367 318.312 98 c 318.312 96.629 319.422 95.52 320.793 95.52 
c 322.164 95.52 323.273 96.629 323.273 98 c h
323.273 98 m f
312.5 103.812 m 311.129 103.812 310.02 104.922 310.02 106.293 c 310.02 
107.66 311.129 108.773 312.5 108.773 c 313.867 108.773 314.977 107.66 314.977
 106.293 c 314.98 104.922 313.867 103.812 312.5 103.812 c h
312.5 103.812 m f
312.5 135.785 m 311.129 135.785 310.02 136.895 310.02 138.266 c 310.02 
139.633 311.129 140.746 312.5 140.746 c 313.867 140.746 314.977 139.633 
314.977 138.266 c 314.98 136.895 313.867 135.785 312.5 135.785 c h
312.5 135.785 m f
320.793 143.477 m 319.422 143.477 318.312 144.586 318.312 145.957 c 318.312
 147.328 319.422 148.438 320.793 148.438 c 322.164 148.438 323.273 147.328
 323.273 145.957 c 323.273 144.59 322.164 143.477 320.793 143.477 c h
320.793 143.477 m f
312.5 151.773 m 311.129 151.773 310.02 152.883 310.02 154.25 c 310.02 155.621
 311.129 156.73 312.5 156.73 c 313.867 156.73 314.977 155.621 314.977 154.25
 c 314.98 152.883 313.867 151.773 312.5 151.773 c h
312.5 151.773 m f
320.793 159.465 m 319.422 159.465 318.312 160.574 318.312 161.941 c 318.312
 163.312 319.422 164.422 320.793 164.422 c 322.164 164.422 323.273 163.312
 323.273 161.941 c 323.273 160.574 322.164 159.465 320.793 159.465 c h
320.793 159.465 m f
312.5 167.758 m 311.129 167.758 310.02 168.867 310.02 170.238 c 310.02 
171.605 311.129 172.715 312.5 172.715 c 313.867 172.715 314.977 171.605 
314.977 170.238 c 314.98 168.867 313.867 167.758 312.5 167.758 c h
312.5 167.758 m f
320.793 175.449 m 319.422 175.449 318.312 176.559 318.312 177.93 c 318.312
 179.297 319.422 180.406 320.793 180.406 c 322.164 180.406 323.273 179.297
 323.273 177.93 c 323.273 176.559 322.164 175.449 320.793 175.449 c h
320.793 175.449 m f
312.5 183.742 m 311.129 183.742 310.02 184.852 310.02 186.223 c 310.02 
187.594 311.129 188.703 312.5 188.703 c 313.867 188.703 314.977 187.594 
314.977 186.223 c 314.98 184.855 313.867 183.742 312.5 183.742 c h
312.5 183.742 m f
320.793 191.434 m 319.422 191.434 318.312 192.547 318.312 193.914 c 318.312
 195.285 319.422 196.395 320.793 196.395 c 322.164 196.395 323.273 195.285
 323.273 193.914 c 323.273 192.547 322.164 191.434 320.793 191.434 c h
320.793 191.434 m f
312.5 199.73 m 311.129 199.73 310.02 200.84 310.02 202.211 c 310.02 203.578
 311.129 204.688 312.5 204.688 c 313.867 204.688 314.977 203.578 314.977
 202.211 c 314.98 200.84 313.867 199.73 312.5 199.73 c h
312.5 199.73 m f
323.273 209.902 m 323.273 211.27 322.164 212.379 320.793 212.379 c 319.422
 212.379 318.312 211.27 318.312 209.902 c 318.312 208.531 319.422 207.422
 320.793 207.422 c 322.164 207.422 323.273 208.531 323.273 209.902 c h
323.273 209.902 m f
312.5 215.715 m 311.129 215.715 310.02 216.824 310.02 218.195 c 310.02 
219.566 311.129 220.676 312.5 220.676 c 313.867 220.676 314.977 219.566 
314.977 218.195 c 314.98 216.824 313.867 215.715 312.5 215.715 c h
312.5 215.715 m f
323.273 225.887 m 323.273 227.258 322.164 228.367 320.793 228.367 c 319.422
 228.367 318.312 227.258 318.312 225.887 c 318.312 224.52 319.422 223.406
 320.793 223.406 c 322.164 223.406 323.273 224.52 323.273 225.887 c h
323.273 225.887 m f
312.5 231.703 m 311.129 231.703 310.02 232.812 310.02 234.18 c 310.02 235.551
 311.129 236.66 312.5 236.66 c 313.867 236.66 314.977 235.551 314.977 234.18
 c 314.98 232.812 313.867 231.703 312.5 231.703 c h
312.5 231.703 m f
323.273 241.875 m 323.273 243.242 322.164 244.352 320.793 244.352 c 319.422
 244.352 318.312 243.242 318.312 241.875 c 318.312 240.504 319.422 239.395
 320.793 239.395 c 322.164 239.395 323.273 240.504 323.273 241.875 c h
323.273 241.875 m f
312.5 247.688 m 311.129 247.688 310.02 248.797 310.02 250.168 c 310.02 
251.535 311.129 252.648 312.5 252.648 c 313.867 252.648 314.977 251.535 
314.977 250.168 c 314.98 248.797 313.867 247.688 312.5 247.688 c h
312.5 247.688 m f
323.273 257.859 m 323.273 259.23 322.164 260.34 320.793 260.34 c 319.422
 260.34 318.312 259.23 318.312 257.859 c 318.312 256.492 319.422 255.379
 320.793 255.379 c 322.164 255.379 323.273 256.492 323.273 257.859 c h
323.273 257.859 m f
312.5 263.672 m 311.129 263.672 310.02 264.785 310.02 266.152 c 310.02 
267.523 311.129 268.633 312.5 268.633 c 313.867 268.633 314.977 267.523 
314.977 266.152 c 314.98 264.785 313.867 263.672 312.5 263.672 c h
312.5 263.672 m f
320.793 271.367 m 319.422 271.367 318.312 272.477 318.312 273.844 c 318.312
 275.215 319.422 276.324 320.793 276.324 c 322.164 276.324 323.273 275.215
 323.273 273.844 c 323.273 272.477 322.164 271.367 320.793 271.367 c h
320.793 271.367 m f
312.5 279.66 m 311.129 279.66 310.02 280.77 310.02 282.141 c 310.02 283.508
 311.129 284.617 312.5 284.617 c 313.867 284.617 314.977 283.508 314.977
 282.141 c 314.98 280.77 313.867 279.66 312.5 279.66 c h
312.5 279.66 m f
320.793 287.352 m 319.422 287.352 318.312 288.461 318.312 289.832 c 318.312
 291.199 319.422 292.312 320.793 292.312 c 322.164 292.312 323.273 291.199
 323.273 289.832 c 323.273 288.461 322.164 287.352 320.793 287.352 c h
320.793 287.352 m f
312.5 295.645 m 311.129 295.645 310.02 296.758 310.02 298.125 c 310.02 
299.496 311.129 300.605 312.5 300.605 c 313.867 300.605 314.977 299.496 
314.977 298.125 c 314.98 296.758 313.867 295.645 312.5 295.645 c h
312.5 295.645 m f
320.793 303.34 m 319.422 303.34 318.312 304.449 318.312 305.816 c 318.312
 307.188 319.422 308.297 320.793 308.297 c 322.164 308.297 323.273 307.188
 323.273 305.816 c 323.273 304.449 322.164 303.34 320.793 303.34 c h
320.793 303.34 m f
312.5 311.633 m 311.129 311.633 310.02 312.742 310.02 314.109 c 310.02 
315.48 311.129 316.59 312.5 316.59 c 313.867 316.59 314.977 315.48 314.977
 314.109 c 314.98 312.742 313.867 311.633 312.5 311.633 c h
312.5 311.633 m f
320.793 319.324 m 319.422 319.324 318.312 320.434 318.312 321.805 c 318.312
 323.172 319.422 324.281 320.793 324.281 c 322.164 324.281 323.273 323.172
 323.273 321.805 c 323.273 320.434 322.164 319.324 320.793 319.324 c h
320.793 319.324 m f
312.5 327.617 m 311.129 327.617 310.02 328.727 310.02 330.098 c 310.02 
331.469 311.129 332.578 312.5 332.578 c 313.867 332.578 314.977 331.469 
314.977 330.098 c 314.98 328.727 313.867 327.617 312.5 327.617 c h
312.5 327.617 m f
298.992 58.336 m 298.992 59.703 297.883 60.816 296.512 60.816 c 295.145
 60.816 294.035 59.703 294.035 58.336 c 294.035 56.965 295.145 55.855 296.512
 55.855 c 297.883 55.855 298.992 56.965 298.992 58.336 c h
298.992 58.336 m f
304.809 63.547 m 303.438 63.547 302.328 64.656 302.328 66.027 c 302.328
 67.395 303.438 68.504 304.809 68.504 c 306.176 68.504 307.285 67.395 307.285
 66.027 c 307.285 64.656 306.176 63.547 304.809 63.547 c h
304.809 63.547 m f
298.992 74.32 m 298.992 75.691 297.883 76.801 296.512 76.801 c 295.145 
76.801 294.035 75.691 294.035 74.32 c 294.035 72.949 295.145 71.84 296.512
 71.84 c 297.883 71.84 298.992 72.949 298.992 74.32 c h
298.992 74.32 m f
304.809 79.531 m 303.438 79.531 302.328 80.645 302.328 82.012 c 302.328
 83.383 303.438 84.492 304.809 84.492 c 306.176 84.492 307.285 83.383 307.285
 82.012 c 307.285 80.645 306.176 79.531 304.809 79.531 c h
304.809 79.531 m f
296.512 87.828 m 295.145 87.828 294.035 88.938 294.035 90.309 c 294.035
 91.676 295.145 92.785 296.512 92.785 c 297.883 92.785 298.992 91.676 298.992
 90.309 c 298.992 88.938 297.883 87.828 296.512 87.828 c h
296.512 87.828 m f
304.809 95.52 m 303.438 95.52 302.328 96.629 302.328 98 c 302.328 99.367
 303.438 100.477 304.809 100.477 c 306.176 100.477 307.285 99.367 307.285
 98 c 307.285 96.629 306.176 95.52 304.809 95.52 c h
304.809 95.52 m f
296.512 103.812 m 295.145 103.812 294.035 104.922 294.035 106.293 c 294.035
 107.66 295.145 108.773 296.512 108.773 c 297.883 108.773 298.992 107.66
 298.992 106.293 c 298.992 104.922 297.883 103.812 296.512 103.812 c h
296.512 103.812 m f
304.809 111.504 m 303.438 111.504 302.328 112.617 302.328 113.984 c 302.328
 115.355 303.438 116.465 304.809 116.465 c 306.176 116.465 307.285 115.355
 307.285 113.984 c 307.285 112.617 306.176 111.504 304.809 111.504 c h
304.809 111.504 m f
296.512 119.801 m 295.145 119.801 294.035 120.91 294.035 122.277 c 294.035
 123.648 295.145 124.758 296.512 124.758 c 297.883 124.758 298.992 123.648
 298.992 122.277 c 298.992 120.91 297.883 119.801 296.512 119.801 c h
296.512 119.801 m f
304.809 127.492 m 303.438 127.492 302.328 128.602 302.328 129.969 c 302.328
 131.34 303.438 132.449 304.809 132.449 c 306.176 132.449 307.285 131.34
 307.285 129.969 c 307.285 128.602 306.176 127.492 304.809 127.492 c h
304.809 127.492 m f
296.512 135.785 m 295.145 135.785 294.035 136.895 294.035 138.266 c 294.035
 139.633 295.145 140.746 296.512 140.746 c 297.883 140.746 298.992 139.633
 298.992 138.266 c 298.992 136.895 297.883 135.785 296.512 135.785 c h
296.512 135.785 m f
304.809 143.477 m 303.438 143.477 302.328 144.586 302.328 145.957 c 302.328
 147.328 303.438 148.438 304.809 148.438 c 306.176 148.438 307.285 147.328
 307.285 145.957 c 307.285 144.59 306.176 143.477 304.809 143.477 c h
304.809 143.477 m f
298.992 154.25 m 298.992 155.621 297.883 156.73 296.512 156.73 c 295.145
 156.73 294.035 155.621 294.035 154.25 c 294.035 152.883 295.145 151.773
 296.512 151.773 c 297.883 151.773 298.992 152.883 298.992 154.25 c h
298.992 154.25 m f
304.809 159.465 m 303.438 159.465 302.328 160.574 302.328 161.941 c 302.328
 163.312 303.438 164.422 304.809 164.422 c 306.176 164.422 307.285 163.312
 307.285 161.941 c 307.285 160.574 306.176 159.465 304.809 159.465 c h
304.809 159.465 m f
298.992 170.238 m 298.992 171.605 297.883 172.715 296.512 172.715 c 295.145
 172.715 294.035 171.605 294.035 170.238 c 294.035 168.867 295.145 167.758
 296.512 167.758 c 297.883 167.758 298.992 168.867 298.992 170.238 c h
298.992 170.238 m f
304.809 175.449 m 303.438 175.449 302.328 176.559 302.328 177.93 c 302.328
 179.297 303.438 180.406 304.809 180.406 c 306.176 180.406 307.285 179.297
 307.285 177.93 c 307.285 176.559 306.176 175.449 304.809 175.449 c h
304.809 175.449 m f
298.992 186.223 m 298.992 187.594 297.883 188.703 296.512 188.703 c 295.145
 188.703 294.035 187.594 294.035 186.223 c 294.035 184.855 295.145 183.742
 296.512 183.742 c 297.883 183.742 298.992 184.855 298.992 186.223 c h
298.992 186.223 m f
304.809 191.434 m 303.438 191.434 302.328 192.547 302.328 193.914 c 302.328
 195.285 303.438 196.395 304.809 196.395 c 306.176 196.395 307.285 195.285
 307.285 193.914 c 307.285 192.547 306.176 191.434 304.809 191.434 c h
304.809 191.434 m f
298.992 202.211 m 298.992 203.578 297.883 204.688 296.512 204.688 c 295.145
 204.688 294.035 203.578 294.035 202.211 c 294.035 200.84 295.145 199.73
 296.512 199.73 c 297.883 199.73 298.992 200.84 298.992 202.211 c h
298.992 202.211 m f
304.809 207.422 m 303.438 207.422 302.328 208.531 302.328 209.902 c 302.328
 211.27 303.438 212.379 304.809 212.379 c 306.176 212.379 307.285 211.27
 307.285 209.902 c 307.285 208.531 306.176 207.422 304.809 207.422 c h
304.809 207.422 m f
296.512 215.715 m 295.145 215.715 294.035 216.824 294.035 218.195 c 294.035
 219.566 295.145 220.676 296.512 220.676 c 297.883 220.676 298.992 219.566
 298.992 218.195 c 298.992 216.824 297.883 215.715 296.512 215.715 c h
296.512 215.715 m f
304.809 223.406 m 303.438 223.406 302.328 224.52 302.328 225.887 c 302.328
 227.258 303.438 228.367 304.809 228.367 c 306.176 228.367 307.285 227.258
 307.285 225.887 c 307.285 224.52 306.176 223.406 304.809 223.406 c h
304.809 223.406 m f
296.512 231.703 m 295.145 231.703 294.035 232.812 294.035 234.18 c 294.035
 235.551 295.145 236.66 296.512 236.66 c 297.883 236.66 298.992 235.551 
298.992 234.18 c 298.992 232.812 297.883 231.703 296.512 231.703 c h
296.512 231.703 m f
304.809 239.395 m 303.438 239.395 302.328 240.504 302.328 241.875 c 302.328
 243.242 303.438 244.352 304.809 244.352 c 306.176 244.352 307.285 243.242
 307.285 241.875 c 307.285 240.504 306.176 239.395 304.809 239.395 c h
304.809 239.395 m f
296.512 247.688 m 295.145 247.688 294.035 248.797 294.035 250.168 c 294.035
 251.535 295.145 252.648 296.512 252.648 c 297.883 252.648 298.992 251.535
 298.992 250.168 c 298.992 248.797 297.883 247.688 296.512 247.688 c h
296.512 247.688 m f
304.809 255.379 m 303.438 255.379 302.328 256.492 302.328 257.859 c 302.328
 259.23 303.438 260.34 304.809 260.34 c 306.176 260.34 307.285 259.23 307.285
 257.859 c 307.285 256.492 306.176 255.379 304.809 255.379 c h
304.809 255.379 m f
296.512 263.672 m 295.145 263.672 294.035 264.785 294.035 266.152 c 294.035
 267.523 295.145 268.633 296.512 268.633 c 297.883 268.633 298.992 267.523
 298.992 266.152 c 298.992 264.785 297.883 263.672 296.512 263.672 c h
296.512 263.672 m f
304.809 271.367 m 303.438 271.367 302.328 272.477 302.328 273.844 c 302.328
 275.215 303.438 276.324 304.809 276.324 c 306.176 276.324 307.285 275.215
 307.285 273.844 c 307.285 272.477 306.176 271.367 304.809 271.367 c h
304.809 271.367 m f
298.992 282.141 m 298.992 283.508 297.883 284.617 296.512 284.617 c 295.145
 284.617 294.035 283.508 294.035 282.141 c 294.035 280.77 295.145 279.66
 296.512 279.66 c 297.883 279.66 298.992 280.77 298.992 282.141 c h
298.992 282.141 m f
304.809 287.352 m 303.438 287.352 302.328 288.461 302.328 289.832 c 302.328
 291.199 303.438 292.312 304.809 292.312 c 306.176 292.312 307.285 291.199
 307.285 289.832 c 307.285 288.461 306.176 287.352 304.809 287.352 c h
304.809 287.352 m f
298.992 298.125 m 298.992 299.496 297.883 300.605 296.512 300.605 c 295.145
 300.605 294.035 299.496 294.035 298.125 c 294.035 296.758 295.145 295.645
 296.512 295.645 c 297.883 295.645 298.992 296.758 298.992 298.125 c h
298.992 298.125 m f
304.809 303.34 m 303.438 303.34 302.328 304.449 302.328 305.816 c 302.328
 307.188 303.438 308.297 304.809 308.297 c 306.176 308.297 307.285 307.188
 307.285 305.816 c 307.285 304.449 306.176 303.34 304.809 303.34 c h
304.809 303.34 m f
298.992 314.113 m 298.992 315.48 297.883 316.59 296.512 316.59 c 295.145
 316.59 294.035 315.48 294.035 314.113 c 294.035 312.742 295.145 311.633
 296.512 311.633 c 297.883 311.633 298.992 312.742 298.992 314.113 c h
298.992 314.113 m f
304.809 319.324 m 303.438 319.324 302.328 320.434 302.328 321.805 c 302.328
 323.172 303.438 324.281 304.809 324.281 c 306.176 324.281 307.285 323.172
 307.285 321.805 c 307.285 320.434 306.176 319.324 304.809 319.324 c h
304.809 319.324 m f
296.512 327.617 m 295.145 327.617 294.035 328.727 294.035 330.098 c 294.035
 331.469 295.145 332.578 296.512 332.578 c 297.883 332.578 298.992 331.469
 298.992 330.098 c 298.992 328.727 297.883 327.617 296.512 327.617 c h
296.512 327.617 m f
288.82 63.547 m 287.453 63.547 286.34 64.656 286.34 66.027 c 286.34 67.395
 287.453 68.504 288.82 68.504 c 290.191 68.504 291.301 67.395 291.301 66.027
 c 291.301 64.656 290.191 63.547 288.82 63.547 c h
288.82 63.547 m f
291.301 82.012 m 291.301 83.383 290.191 84.492 288.82 84.492 c 287.453 
84.492 286.34 83.383 286.34 82.012 c 286.34 80.645 287.453 79.531 288.82
 79.531 c 290.191 79.531 291.301 80.645 291.301 82.012 c h
291.301 82.012 m f
291.301 98 m 291.301 99.367 290.191 100.477 288.82 100.477 c 287.453 100.477
 286.34 99.367 286.34 98 c 286.34 96.629 287.453 95.52 288.82 95.52 c 290.191
 95.52 291.301 96.629 291.301 98 c h
291.301 98 m f
291.301 113.984 m 291.301 115.355 290.191 116.465 288.82 116.465 c 287.453
 116.465 286.34 115.355 286.34 113.984 c 286.34 112.617 287.453 111.504 
288.82 111.504 c 290.191 111.504 291.301 112.617 291.301 113.984 c h
291.301 113.984 m f
291.301 129.973 m 291.301 131.34 290.191 132.449 288.82 132.449 c 287.453
 132.449 286.34 131.34 286.34 129.973 c 286.34 128.602 287.453 127.492 288.82
 127.492 c 290.191 127.492 291.301 128.602 291.301 129.973 c h
291.301 129.973 m f
288.82 143.477 m 287.453 143.477 286.34 144.586 286.34 145.957 c 286.34
 147.328 287.453 148.438 288.82 148.438 c 290.191 148.438 291.301 147.328
 291.301 145.957 c 291.301 144.59 290.191 143.477 288.82 143.477 c h
288.82 143.477 m f
288.82 159.465 m 287.453 159.465 286.34 160.574 286.34 161.941 c 286.34
 163.312 287.453 164.422 288.82 164.422 c 290.191 164.422 291.301 163.312
 291.301 161.941 c 291.301 160.574 290.191 159.465 288.82 159.465 c h
288.82 159.465 m f
288.82 175.449 m 287.453 175.449 286.34 176.559 286.34 177.93 c 286.34 
179.297 287.453 180.406 288.82 180.406 c 290.191 180.406 291.301 179.297
 291.301 177.93 c 291.301 176.559 290.191 175.449 288.82 175.449 c h
288.82 175.449 m f
288.82 191.434 m 287.453 191.434 286.34 192.547 286.34 193.914 c 286.34
 195.285 287.453 196.395 288.82 196.395 c 290.191 196.395 291.301 195.285
 291.301 193.914 c 291.301 192.547 290.191 191.434 288.82 191.434 c h
288.82 191.434 m f
291.301 209.902 m 291.301 211.27 290.191 212.379 288.82 212.379 c 287.453
 212.379 286.34 211.27 286.34 209.902 c 286.34 208.531 287.453 207.422 288.82
 207.422 c 290.191 207.422 291.301 208.531 291.301 209.902 c h
291.301 209.902 m f
291.301 225.887 m 291.301 227.258 290.191 228.367 288.82 228.367 c 287.453
 228.367 286.34 227.258 286.34 225.887 c 286.34 224.52 287.453 223.406 288.82
 223.406 c 290.191 223.406 291.301 224.52 291.301 225.887 c h
291.301 225.887 m f
291.301 241.875 m 291.301 243.242 290.191 244.352 288.82 244.352 c 287.453
 244.352 286.34 243.242 286.34 241.875 c 286.34 240.504 287.453 239.395 
288.82 239.395 c 290.191 239.395 291.301 240.504 291.301 241.875 c h
291.301 241.875 m f
291.301 257.859 m 291.301 259.23 290.191 260.34 288.82 260.34 c 287.453
 260.34 286.34 259.23 286.34 257.859 c 286.34 256.492 287.453 255.379 288.82
 255.379 c 290.191 255.379 291.301 256.492 291.301 257.859 c h
291.301 257.859 m f
288.82 271.367 m 287.453 271.367 286.34 272.477 286.34 273.844 c 286.34
 275.215 287.453 276.324 288.82 276.324 c 290.191 276.324 291.301 275.215
 291.301 273.844 c 291.301 272.477 290.191 271.367 288.82 271.367 c h
288.82 271.367 m f
288.82 287.352 m 287.453 287.352 286.34 288.461 286.34 289.832 c 286.34
 291.199 287.453 292.312 288.82 292.312 c 290.191 292.312 291.301 291.199
 291.301 289.832 c 291.301 288.461 290.191 287.352 288.82 287.352 c h
288.82 287.352 m f
288.82 303.34 m 287.453 303.34 286.34 304.449 286.34 305.816 c 286.34 307.188
 287.453 308.297 288.82 308.297 c 290.191 308.297 291.301 307.188 291.301
 305.816 c 291.301 304.449 290.191 303.34 288.82 303.34 c h
288.82 303.34 m f
288.82 324.285 m 290.191 324.285 291.301 323.172 291.301 321.805 c 291.301
 320.434 290.191 319.324 288.82 319.324 c 287.453 319.324 286.34 320.434
 286.34 321.805 c 286.34 323.172 287.453 324.285 288.82 324.285 c h
288.82 324.285 m f
0.192157 0.215686 0.239216 rg
352.809 110.422 m 314.527 110.422 l 308.16 110.422 302.984 115.602 302.984
 121.965 c 302.984 128.328 308.16 133.508 314.527 133.508 c 352.809 133.508
 l 359.172 133.508 364.352 128.328 364.352 121.965 c 364.352 115.602 359.172
 110.422 352.809 110.422 c h
352.809 110.422 m f
114.281 260.039 m 50.809 260.039 l 49.133 260.039 47.777 261.398 47.777
 263.074 c 47.777 264.75 49.133 266.109 50.809 266.109 c 114.281 266.109
 l 115.957 266.109 117.316 264.75 117.316 263.074 c 117.316 261.398 115.957
 260.039 114.281 260.039 c h
114.281 260.039 m f
114.281 285.43 m 50.809 285.43 l 49.133 285.43 47.777 286.789 47.777 288.465
 c 47.777 290.141 49.133 291.5 50.809 291.5 c 114.281 291.5 l 115.957 291.5
 117.316 290.141 117.316 288.465 c 117.316 286.789 115.957 285.43 114.281
 285.43 c h
114.281 285.43 m f
373.273 47.758 m 10.727 47.758 l 4.812 47.758 0 52.57 0 58.488 c 0 325.512
 l 0 331.43 4.812 336.242 10.727 336.242 c 373.273 336.242 l 379.188 336.242
 384 331.43 384 325.512 c 384 58.488 l 384 52.57 379.188 47.758 373.273 
47.758 c h
177.129 53.828 m 177.129 183.293 l 167.785 188.414 l 157.363 182.719 l 
156.457 182.223 155.359 182.227 154.453 182.723 c 144.035 188.418 l 133.617
 182.723 l 132.711 182.227 131.613 182.227 130.707 182.723 c 120.289 188.418
 l 111.449 183.582 l 111.355 53.828 l h
10.727 330.172 m 8.16 330.172 6.07 328.082 6.07 325.512 c 6.07 58.488 l
 6.07 55.918 8.16 53.828 10.727 53.828 c 105.289 53.828 l 105.383 185.387
 l 105.383 186.496 105.988 187.516 106.961 188.047 c 118.836 194.539 l 119.742
 195.031 120.84 195.031 121.746 194.539 c 132.164 188.84 l 142.582 194.539
 l 143.035 194.785 143.539 194.91 144.039 194.91 c 144.539 194.91 145.039
 194.785 145.492 194.539 c 155.91 188.84 l 166.336 194.539 l 167.242 195.035
 168.34 195.031 169.246 194.535 c 181.621 187.75 l 182.594 187.219 183.195
 186.195 183.195 185.09 c 183.195 53.828 l 277.754 53.828 l 280.324 53.828
 282.414 55.918 282.414 58.488 c 282.414 325.512 l 282.414 328.082 280.324
 330.172 277.754 330.172 c h
377.93 325.512 m 377.93 328.082 375.84 330.172 373.273 330.172 c 287.402
 330.172 l 288.086 328.762 288.48 327.184 288.48 325.512 c 288.48 58.488
 l 288.48 56.816 288.086 55.238 287.402 53.828 c 373.273 53.828 l 375.84
 53.828 377.93 55.918 377.93 58.488 c h
377.93 325.512 m f
Q Q
showpage
%%Trailer
end
%%EOF
