%!PS-Adobe-3.0 EPSF-3.0
%%Creator: cairo 1.16.0 (https://cairographics.org)
%%CreationDate: Fri Feb 12 12:12:37 2021
%%Pages: 1
%%DocumentData: Clean7Bit
%%LanguageLevel: 2
%%BoundingBox: 0 29 384 355
%%EndComments
%%BeginProlog
50 dict begin
/q { gsave } bind def
/Q { grestore } bind def
/cm { 6 array astore concat } bind def
/w { setlinewidth } bind def
/J { setlinecap } bind def
/j { setlinejoin } bind def
/M { setmiterlimit } bind def
/d { setdash } bind def
/m { moveto } bind def
/l { lineto } bind def
/c { curveto } bind def
/h { closepath } bind def
/re { exch dup neg 3 1 roll 5 3 roll moveto 0 rlineto
      0 exch rlineto 0 rlineto closepath } bind def
/S { stroke } bind def
/f { fill } bind def
/f* { eofill } bind def
/n { newpath } bind def
/W { clip } bind def
/W* { eoclip } bind def
/BT { } bind def
/ET { } bind def
/BDC { mark 3 1 roll /BDC pdfmark } bind def
/EMC { mark /EMC pdfmark } bind def
/cairo_store_point { /cairo_point_y exch def /cairo_point_x exch def } def
/Tj { show currentpoint cairo_store_point } bind def
/TJ {
  {
    dup
    type /stringtype eq
    { show } { -0.001 mul 0 cairo_font_matrix dtransform rmoveto } ifelse
  } forall
  currentpoint cairo_store_point
} bind def
/cairo_selectfont { cairo_font_matrix aload pop pop pop 0 0 6 array astore
    cairo_font exch selectfont cairo_point_x cairo_point_y moveto } bind def
/Tf { pop /cairo_font exch def /cairo_font_matrix where
      { pop cairo_selectfont } if } bind def
/Td { matrix translate cairo_font_matrix matrix concatmatrix dup
      /cairo_font_matrix exch def dup 4 get exch 5 get cairo_store_point
      /cairo_font where { pop cairo_selectfont } if } bind def
/Tm { 2 copy 8 2 roll 6 array astore /cairo_font_matrix exch def
      cairo_store_point /cairo_font where { pop cairo_selectfont } if } bind def
/g { setgray } bind def
/rg { setrgbcolor } bind def
/d1 { setcachedevice } bind def
/cairo_data_source {
  CairoDataIndex CairoData length lt
    { CairoData CairoDataIndex get /CairoDataIndex CairoDataIndex 1 add def }
    { () } ifelse
} def
/cairo_flush_ascii85_file { cairo_ascii85_file status { cairo_ascii85_file flushfile } if } def
/cairo_image { image cairo_flush_ascii85_file } def
/cairo_imagemask { imagemask cairo_flush_ascii85_file } def
%%EndProlog
%%BeginSetup
%%EndSetup
%%Page: 1 1
%%BeginPageSetup
%%PageBoundingBox: 0 29 384 355
%%EndPageSetup
q 0 29 384 326 rectclip
1 0 0 -1 0 384 cm q
0.917647 0.658824 0.584314 rg
371.137 115.531 m 365.754 115.531 361.391 111.168 361.391 105.785 c 361.391
 52.066 l 307.891 52.066 l 302.508 52.066 298.145 47.707 298.145 42.324 
c 298.145 36.941 302.508 32.578 307.891 32.578 c 371.137 32.578 l 376.52
 32.578 380.879 36.941 380.879 42.324 c 380.879 105.785 l 380.883 111.168
 376.52 115.531 371.137 115.531 c h
371.137 115.531 m f
12.863 115.531 m 7.48 115.531 3.117 111.168 3.117 105.785 c 3.117 42.324
 l 3.117 36.941 7.48 32.578 12.863 32.578 c 75.961 32.578 l 81.344 32.578
 85.707 36.941 85.707 42.324 c 85.707 47.703 81.344 52.066 75.961 52.066
 c 22.609 52.066 l 22.609 105.785 l 22.609 111.168 18.246 115.531 12.863
 115.531 c h
12.863 115.531 m f
75.961 351.422 m 12.863 351.422 l 7.48 351.422 3.117 347.059 3.117 341.676
 c 3.117 278.211 l 3.117 272.832 7.48 268.469 12.863 268.469 c 18.246 268.469
 22.609 272.832 22.609 278.211 c 22.609 331.93 l 75.961 331.93 l 81.344 
331.93 85.707 336.293 85.707 341.676 c 85.707 347.059 81.344 351.422 75.961
 351.422 c h
75.961 351.422 m f
371.137 351.422 m 307.891 351.422 l 302.512 351.422 298.148 347.059 298.148
 341.676 c 298.148 336.293 302.512 331.934 307.891 331.934 c 361.391 331.934
 l 361.391 278.215 l 361.391 272.832 365.754 268.469 371.137 268.469 c 376.52
 268.469 380.883 272.832 380.883 278.215 c 380.883 341.676 l 380.883 347.059
 376.52 351.422 371.137 351.422 c h
371.137 351.422 m f
0.192157 0.215686 0.239216 rg
83.883 172.57 m 67.656 172.57 l 64.18 172.57 61.359 169.754 61.359 166.273
 c 61.359 85.488 l 61.359 82.008 64.18 79.191 67.656 79.191 c 83.883 79.191
 l 87.363 79.191 90.184 82.008 90.184 85.488 c 90.184 166.273 l 90.18 169.754
 87.363 172.57 83.883 172.57 c h
83.883 172.57 m f
83.883 304.809 m 67.656 304.809 l 64.18 304.809 61.359 301.992 61.359 298.512
 c 61.359 217.727 l 61.359 214.246 64.18 211.43 67.656 211.43 c 83.883 211.43
 l 87.363 211.43 90.184 214.246 90.184 217.727 c 90.184 298.512 l 90.18 
301.992 87.363 304.809 83.883 304.809 c h
83.883 304.809 m f
170.406 172.57 m 154.176 172.57 l 150.699 172.57 147.879 169.754 147.879
 166.273 c 147.879 85.488 l 147.879 82.008 150.699 79.191 154.176 79.191
 c 170.406 79.191 l 173.883 79.191 176.703 82.008 176.703 85.488 c 176.703
 166.273 l 176.703 169.754 173.883 172.57 170.406 172.57 c h
170.406 172.57 m f
170.406 287.016 m 154.176 287.016 l 150.699 287.016 147.879 284.195 147.879
 280.719 c 147.879 217.727 l 147.879 214.25 150.699 211.43 154.176 211.43
 c 170.406 211.43 l 173.883 211.43 176.703 214.246 176.703 217.727 c 176.703
 280.719 l 176.703 284.195 173.883 287.016 170.406 287.016 c h
170.406 287.016 m f
316.344 172.57 m 300.117 172.57 l 296.641 172.57 293.82 169.754 293.82 
166.273 c 293.82 85.488 l 293.82 82.008 296.637 79.191 300.117 79.191 c 
316.344 79.191 l 319.82 79.191 322.641 82.008 322.641 85.488 c 322.641 166.273
 l 322.641 169.754 319.82 172.57 316.344 172.57 c h
316.344 172.57 m f
316.344 304.809 m 300.117 304.809 l 296.641 304.809 293.82 301.992 293.82
 298.512 c 293.82 217.727 l 293.82 214.246 296.637 211.43 300.117 211.43
 c 316.344 211.43 l 319.82 211.43 322.641 214.246 322.641 217.727 c 322.641
 298.512 l 322.641 301.992 319.82 304.809 316.344 304.809 c h
316.344 304.809 m f
275.332 172.57 m 269 172.57 l 266.441 172.57 264.367 170.496 264.367 167.938
 c 264.367 83.82 l 264.367 81.262 266.441 79.191 269 79.191 c 275.332 79.191
 l 277.891 79.191 279.965 81.262 279.965 83.82 c 279.965 167.938 l 279.965
 170.496 277.891 172.57 275.332 172.57 c h
275.332 172.57 m f
275.332 287.016 m 269 287.016 l 266.441 287.016 264.367 284.941 264.367
 282.383 c 264.367 216.062 l 264.367 213.504 266.441 211.43 269 211.43 c
 275.332 211.43 l 277.891 211.43 279.965 213.504 279.965 216.062 c 279.965
 282.383 l 279.965 284.941 277.891 287.016 275.332 287.016 c h
275.332 287.016 m f
201.523 172.57 m 195.191 172.57 l 192.633 172.57 190.559 170.496 190.559
 167.938 c 190.559 83.82 l 190.559 81.262 192.633 79.191 195.191 79.191 
c 201.523 79.191 l 204.082 79.191 206.156 81.262 206.156 83.82 c 206.156
 167.938 l 206.156 170.496 204.082 172.57 201.523 172.57 c h
201.523 172.57 m f
201.523 287.016 m 195.191 287.016 l 192.633 287.016 190.559 284.941 190.559
 282.383 c 190.559 216.062 l 190.559 213.504 192.633 211.43 195.191 211.43
 c 201.523 211.43 l 204.082 211.43 206.156 213.504 206.156 216.062 c 206.156
 282.383 l 206.156 284.941 204.082 287.016 201.523 287.016 c h
201.523 287.016 m f
129.395 172.57 m 123.062 172.57 l 120.504 172.57 118.43 170.496 118.43 
167.938 c 118.43 83.82 l 118.43 81.262 120.504 79.191 123.062 79.191 c 129.395
 79.191 l 131.953 79.191 134.027 81.262 134.027 83.82 c 134.027 167.938 
l 134.027 170.496 131.953 172.57 129.395 172.57 c h
129.395 172.57 m f
129.395 287.016 m 123.062 287.016 l 120.504 287.016 118.43 284.941 118.43
 282.383 c 118.43 216.062 l 118.43 213.504 120.504 211.43 123.062 211.43
 c 129.395 211.43 l 131.953 211.43 134.027 213.504 134.027 216.062 c 134.027
 282.383 l 134.027 284.941 131.953 287.016 129.395 287.016 c h
129.395 287.016 m f
245.879 172.57 m 239.547 172.57 l 236.988 172.57 234.914 170.496 234.914
 167.938 c 234.914 83.82 l 234.914 81.262 236.988 79.191 239.547 79.191 
c 245.879 79.191 l 248.438 79.191 250.512 81.262 250.512 83.82 c 250.512
 167.938 l 250.512 170.496 248.438 172.57 245.879 172.57 c h
245.879 172.57 m f
245.879 287.016 m 239.547 287.016 l 236.988 287.016 234.914 284.941 234.914
 282.383 c 234.914 216.062 l 234.914 213.504 236.988 211.43 239.547 211.43
 c 245.879 211.43 l 248.438 211.43 250.512 213.504 250.512 216.062 c 250.512
 282.383 l 250.512 284.941 248.438 287.016 245.879 287.016 c h
245.879 287.016 m f
371.137 118.648 m 364.043 118.648 358.273 112.879 358.273 105.785 c 358.273
 55.188 l 307.891 55.188 l 300.797 55.188 295.027 49.414 295.027 42.324 
c 295.027 35.23 300.801 29.461 307.891 29.461 c 371.137 29.461 l 378.23 
29.461 384 35.23 384 42.324 c 384 105.785 l 384 112.879 378.23 118.648 371.137
 118.648 c h
307.891 35.695 m 304.238 35.695 301.266 38.668 301.266 42.324 c 301.266
 45.977 304.238 48.949 307.891 48.949 c 361.391 48.949 l 363.113 48.949 
364.508 50.348 364.508 52.07 c 364.508 105.789 l 364.508 109.441 367.484
 112.414 371.137 112.414 c 374.789 112.414 377.766 109.441 377.766 105.789
 c 377.766 42.324 l 377.766 38.668 374.789 35.695 371.137 35.695 c h
307.891 35.695 m f
12.863 118.648 m 5.77 118.648 0 112.879 0 105.785 c 0 42.324 l 0 35.23 
5.77 29.461 12.863 29.461 c 75.961 29.461 l 83.055 29.461 88.824 35.23 88.824
 42.324 c 88.824 49.414 83.055 55.188 75.961 55.188 c 25.727 55.188 l 25.727
 105.785 l 25.727 112.879 19.957 118.648 12.863 118.648 c h
12.863 35.695 m 9.211 35.695 6.238 38.668 6.238 42.324 c 6.238 105.785 
l 6.238 109.441 9.211 112.414 12.863 112.414 c 16.52 112.414 19.492 109.441
 19.492 105.785 c 19.492 52.066 l 19.492 50.348 20.887 48.949 22.609 48.949
 c 75.961 48.949 l 79.617 48.949 82.59 45.977 82.59 42.324 c 82.59 38.668
 79.617 35.695 75.961 35.695 c h
12.863 35.695 m f
75.961 354.539 m 12.863 354.539 l 5.77 354.539 0 348.77 0 341.676 c 0 278.215
 l 0 271.121 5.77 265.348 12.863 265.348 c 19.957 265.348 25.727 271.121
 25.727 278.215 c 25.727 328.812 l 75.961 328.812 l 83.055 328.812 88.824
 334.586 88.824 341.676 c 88.824 348.77 83.055 354.539 75.961 354.539 c 
h
12.863 271.586 m 9.211 271.586 6.238 274.559 6.238 278.215 c 6.238 341.68
 l 6.238 345.332 9.211 348.305 12.863 348.305 c 75.961 348.305 l 79.613 
348.305 82.586 345.332 82.586 341.68 c 82.586 338.023 79.613 335.051 75.961
 335.051 c 22.609 335.051 l 20.887 335.051 19.492 333.656 19.492 331.934
 c 19.492 278.215 l 19.492 274.559 16.516 271.586 12.863 271.586 c h
12.863 271.586 m f
371.137 354.539 m 307.891 354.539 l 300.801 354.539 295.027 348.77 295.027
 341.676 c 295.027 334.582 300.801 328.812 307.891 328.812 c 358.273 328.812
 l 358.273 278.211 l 358.273 271.121 364.043 265.348 371.137 265.348 c 378.23
 265.348 384 271.117 384 278.211 c 384 341.676 l 384 348.77 378.23 354.539
 371.137 354.539 c h
307.891 335.051 m 304.238 335.051 301.266 338.023 301.266 341.676 c 301.266
 345.332 304.238 348.305 307.891 348.305 c 371.137 348.305 l 374.789 348.305
 377.762 345.332 377.762 341.676 c 377.762 278.215 l 377.762 274.559 374.789
 271.586 371.137 271.586 c 367.48 271.586 364.508 274.559 364.508 278.215
 c 364.508 331.934 l 364.508 333.652 363.113 335.051 361.391 335.051 c h
307.891 335.051 m f
0.917647 0.658824 0.584314 rg
373.07 195.117 m 10.934 195.117 l 9.211 195.117 7.812 193.723 7.812 192
 c 7.812 190.277 9.211 188.883 10.934 188.883 c 373.07 188.883 l 374.789
 188.883 376.188 190.277 376.188 192 c 376.188 193.723 374.789 195.117 373.07
 195.117 c h
373.07 195.117 m f
Q Q
showpage
%%Trailer
end
%%EOF
