%!PS-Adobe-3.0 EPSF-3.0
%%Creator: cairo 1.16.0 (https://cairographics.org)
%%CreationDate: Fri Feb 12 12:12:38 2021
%%Pages: 1
%%DocumentData: Clean7Bit
%%LanguageLevel: 2
%%BoundingBox: 22 0 362 384
%%EndComments
%%BeginProlog
50 dict begin
/q { gsave } bind def
/Q { grestore } bind def
/cm { 6 array astore concat } bind def
/w { setlinewidth } bind def
/J { setlinecap } bind def
/j { setlinejoin } bind def
/M { setmiterlimit } bind def
/d { setdash } bind def
/m { moveto } bind def
/l { lineto } bind def
/c { curveto } bind def
/h { closepath } bind def
/re { exch dup neg 3 1 roll 5 3 roll moveto 0 rlineto
      0 exch rlineto 0 rlineto closepath } bind def
/S { stroke } bind def
/f { fill } bind def
/f* { eofill } bind def
/n { newpath } bind def
/W { clip } bind def
/W* { eoclip } bind def
/BT { } bind def
/ET { } bind def
/BDC { mark 3 1 roll /BDC pdfmark } bind def
/EMC { mark /EMC pdfmark } bind def
/cairo_store_point { /cairo_point_y exch def /cairo_point_x exch def } def
/Tj { show currentpoint cairo_store_point } bind def
/TJ {
  {
    dup
    type /stringtype eq
    { show } { -0.001 mul 0 cairo_font_matrix dtransform rmoveto } ifelse
  } forall
  currentpoint cairo_store_point
} bind def
/cairo_selectfont { cairo_font_matrix aload pop pop pop 0 0 6 array astore
    cairo_font exch selectfont cairo_point_x cairo_point_y moveto } bind def
/Tf { pop /cairo_font exch def /cairo_font_matrix where
      { pop cairo_selectfont } if } bind def
/Td { matrix translate cairo_font_matrix matrix concatmatrix dup
      /cairo_font_matrix exch def dup 4 get exch 5 get cairo_store_point
      /cairo_font where { pop cairo_selectfont } if } bind def
/Tm { 2 copy 8 2 roll 6 array astore /cairo_font_matrix exch def
      cairo_store_point /cairo_font where { pop cairo_selectfont } if } bind def
/g { setgray } bind def
/rg { setrgbcolor } bind def
/d1 { setcachedevice } bind def
/cairo_data_source {
  CairoDataIndex CairoData length lt
    { CairoData CairoDataIndex get /CairoDataIndex CairoDataIndex 1 add def }
    { () } ifelse
} def
/cairo_flush_ascii85_file { cairo_ascii85_file status { cairo_ascii85_file flushfile } if } def
/cairo_image { image cairo_flush_ascii85_file } def
/cairo_imagemask { imagemask cairo_flush_ascii85_file } def
%%EndProlog
%%BeginSetup
%%EndSetup
%%Page: 1 1
%%BeginPageSetup
%%PageBoundingBox: 22 0 362 384
%%EndPageSetup
q 22 0 340 384 rectclip
1 0 0 -1 0 384 cm q
0.917647 0.658824 0.584314 rg
338.852 66.039 m 45.148 66.039 l 34.559 66.039 25.977 74.621 25.977 85.211
 c 25.977 134.062 l 25.977 144.383 34.133 152.797 44.352 153.215 c 44.352
 362.898 l 44.352 372.691 52.289 380.629 62.078 380.629 c 321.918 380.629
 l 331.711 380.629 339.645 372.691 339.645 362.898 c 339.645 153.215 l 349.867
 152.797 358.023 144.383 358.023 134.062 c 358.023 85.211 l 358.023 74.621
 349.441 66.039 338.852 66.039 c h
338.852 66.039 m f
0.913725 0.760784 0.470588 rg
295.18 66.23 m 325.531 66.23 l 325.531 28.48 l 325.531 19.422 320.848 11.309
 313 6.777 c 305.156 2.246 295.785 2.246 287.938 6.777 c 192 62.168 l 96.062
 6.777 l 88.215 2.246 78.844 2.246 70.996 6.777 c 63.152 11.309 58.465 19.422
 58.465 28.48 c 58.465 65.066 l 88.82 65.066 l 88.82 37.645 l 147.336 71.43
 l 147.336 152.152 l 160.836 152.152 l 160.836 380.484 l 223.676 380.484
 l 223.676 152.148 l 234.48 152.148 l 234.48 72.688 l 295.18 37.645 l h
295.18 66.23 m f
0.976471 0.984314 0.988235 rg
332.676 155.574 m 332.676 157 333.828 158.152 335.254 158.152 c 336.676
 158.152 337.828 157 337.828 155.574 c 337.828 154.746 337.43 154.012 336.816
 153.543 c 333.688 153.543 l 333.078 154.012 332.676 154.746 332.676 155.574
 c h
332.676 155.574 m f
326.633 161.617 m 325.211 161.617 324.059 162.77 324.059 164.195 c 324.059
 165.617 325.211 166.77 326.633 166.77 c 328.059 166.77 329.211 165.617 
329.211 164.195 c 329.211 162.77 328.059 161.617 326.633 161.617 c h
326.633 161.617 m f
335.254 169.609 m 333.832 169.609 332.676 170.766 332.676 172.188 c 332.676
 173.609 333.828 174.766 335.254 174.766 c 336.676 174.766 337.828 173.609
 337.828 172.188 c 337.828 170.766 336.676 169.609 335.254 169.609 c h
335.254 169.609 m f
326.633 178.227 m 325.211 178.227 324.059 179.383 324.059 180.805 c 324.059
 182.227 325.211 183.383 326.633 183.383 c 328.059 183.383 329.211 182.227
 329.211 180.805 c 329.211 179.383 328.059 178.227 326.633 178.227 c h
326.633 178.227 m f
335.254 186.223 m 333.832 186.223 332.676 187.375 332.676 188.797 c 332.676
 190.223 333.828 191.375 335.254 191.375 c 336.676 191.375 337.828 190.223
 337.828 188.797 c 337.828 187.375 336.676 186.223 335.254 186.223 c h
335.254 186.223 m f
326.633 194.84 m 325.211 194.84 324.059 195.992 324.059 197.418 c 324.059
 198.84 325.211 199.992 326.633 199.992 c 328.059 199.992 329.211 198.84
 329.211 197.418 c 329.211 195.992 328.059 194.84 326.633 194.84 c h
326.633 194.84 m f
335.254 202.832 m 333.832 202.832 332.676 203.988 332.676 205.41 c 332.676
 206.832 333.828 207.984 335.254 207.984 c 336.676 207.984 337.828 206.832
 337.828 205.41 c 337.828 203.988 336.676 202.832 335.254 202.832 c h
335.254 202.832 m f
326.633 211.453 m 325.211 211.453 324.059 212.605 324.059 214.027 c 324.059
 215.449 325.211 216.605 326.633 216.605 c 328.059 216.605 329.211 215.449
 329.211 214.027 c 329.211 212.605 328.059 211.453 326.633 211.453 c h
326.633 211.453 m f
335.254 219.445 m 333.832 219.445 332.676 220.598 332.676 222.02 c 332.676
 223.445 333.828 224.598 335.254 224.598 c 336.676 224.598 337.828 223.445
 337.828 222.02 c 337.828 220.598 336.676 219.445 335.254 219.445 c h
335.254 219.445 m f
326.633 228.062 m 325.211 228.062 324.059 229.215 324.059 230.637 c 324.059
 232.062 325.211 233.215 326.633 233.215 c 328.059 233.215 329.211 232.062
 329.211 230.637 c 329.211 229.215 328.059 228.062 326.633 228.062 c h
326.633 228.062 m f
335.254 236.055 m 333.832 236.055 332.676 237.211 332.676 238.633 c 332.676
 240.055 333.828 241.207 335.254 241.207 c 336.676 241.207 337.828 240.055
 337.828 238.633 c 337.828 237.211 336.676 236.055 335.254 236.055 c h
335.254 236.055 m f
326.633 244.672 m 325.211 244.672 324.059 245.828 324.059 247.25 c 324.059
 248.672 325.211 249.828 326.633 249.828 c 328.059 249.828 329.211 248.672
 329.211 247.25 c 329.211 245.828 328.059 244.672 326.633 244.672 c h
326.633 244.672 m f
335.254 252.668 m 333.832 252.668 332.676 253.82 332.676 255.242 c 332.676
 256.668 333.828 257.82 335.254 257.82 c 336.676 257.82 337.828 256.668 
337.828 255.242 c 337.828 253.82 336.676 252.668 335.254 252.668 c h
335.254 252.668 m f
326.633 261.285 m 325.211 261.285 324.059 262.438 324.059 263.859 c 324.059
 265.285 325.211 266.438 326.633 266.438 c 328.059 266.438 329.211 265.285
 329.211 263.859 c 329.211 262.438 328.059 261.285 326.633 261.285 c h
326.633 261.285 m f
335.254 269.277 m 333.832 269.277 332.676 270.43 332.676 271.855 c 332.676
 273.277 333.828 274.43 335.254 274.43 c 336.676 274.43 337.828 273.277 
337.828 271.855 c 337.828 270.43 336.676 269.277 335.254 269.277 c h
335.254 269.277 m f
329.211 280.473 m 329.211 281.895 328.059 283.051 326.633 283.051 c 325.211
 283.051 324.059 281.895 324.059 280.473 c 324.059 279.051 325.211 277.895
 326.633 277.895 c 328.059 277.895 329.211 279.051 329.211 280.473 c h
329.211 280.473 m f
335.254 285.891 m 333.832 285.891 332.676 287.043 332.676 288.465 c 332.676
 289.887 333.828 291.043 335.254 291.043 c 336.676 291.043 337.828 289.887
 337.828 288.465 c 337.828 287.043 336.676 285.891 335.254 285.891 c h
335.254 285.891 m f
326.633 294.508 m 325.211 294.508 324.059 295.66 324.059 297.082 c 324.059
 298.508 325.211 299.66 326.633 299.66 c 328.059 299.66 329.211 298.508 
329.211 297.082 c 329.211 295.66 328.059 294.508 326.633 294.508 c h
326.633 294.508 m f
335.254 302.5 m 333.832 302.5 332.676 303.652 332.676 305.078 c 332.676
 306.5 333.828 307.652 335.254 307.652 c 336.676 307.652 337.828 306.5 337.828
 305.078 c 337.828 303.652 336.676 302.5 335.254 302.5 c h
335.254 302.5 m f
326.633 311.117 m 325.211 311.117 324.059 312.273 324.059 313.695 c 324.059
 315.117 325.211 316.273 326.633 316.273 c 328.059 316.273 329.211 315.117
 329.211 313.695 c 329.211 312.273 328.059 311.117 326.633 311.117 c h
326.633 311.117 m f
335.254 319.113 m 333.832 319.113 332.676 320.266 332.676 321.688 c 332.676
 323.109 333.828 324.266 335.254 324.266 c 336.676 324.266 337.828 323.109
 337.828 321.688 c 337.828 320.266 336.676 319.113 335.254 319.113 c h
335.254 319.113 m f
326.633 327.73 m 325.211 327.73 324.059 328.883 324.059 330.309 c 324.059
 331.73 325.211 332.883 326.633 332.883 c 328.059 332.883 329.211 331.73
 329.211 330.309 c 329.211 328.883 328.059 327.73 326.633 327.73 c h
326.633 327.73 m f
335.254 335.723 m 333.832 335.723 332.676 336.875 332.676 338.297 c 332.676
 339.723 333.828 340.875 335.254 340.875 c 336.676 340.875 337.828 339.723
 337.828 338.297 c 337.828 336.875 336.676 335.723 335.254 335.723 c h
335.254 335.723 m f
326.633 344.34 m 325.211 344.34 324.059 345.496 324.059 346.918 c 324.059
 348.34 325.211 349.492 326.633 349.492 c 328.059 349.492 329.211 348.34
 329.211 346.918 c 329.211 345.496 328.059 344.34 326.633 344.34 c h
326.633 344.34 m f
335.254 352.332 m 333.832 352.332 332.676 353.488 332.676 354.91 c 332.676
 356.332 333.828 357.488 335.254 357.488 c 336.676 357.488 337.828 356.332
 337.828 354.91 c 337.828 353.488 336.676 352.332 335.254 352.332 c h
335.254 352.332 m f
326.633 360.953 m 325.211 360.953 324.059 362.105 324.059 363.527 c 324.059
 364.953 325.211 366.105 326.633 366.105 c 328.059 366.105 329.211 364.953
 329.211 363.527 c 329.211 362.105 328.059 360.953 326.633 360.953 c h
326.633 360.953 m f
316.066 155.574 m 316.066 157 317.219 158.152 318.641 158.152 c 320.066
 158.152 321.219 157 321.219 155.574 c 321.219 154.746 320.816 154.012 320.207
 153.543 c 317.074 153.543 l 316.465 154.012 316.066 154.746 316.066 155.574
 c h
316.066 155.574 m f
310.023 161.617 m 308.598 161.617 307.445 162.77 307.445 164.195 c 307.445
 165.617 308.598 166.77 310.023 166.77 c 311.445 166.77 312.598 165.617 
312.598 164.195 c 312.598 162.77 311.445 161.617 310.023 161.617 c h
310.023 161.617 m f
321.219 172.188 m 321.219 173.609 320.066 174.766 318.641 174.766 c 317.219
 174.766 316.062 173.609 316.062 172.188 c 316.062 170.766 317.219 169.609
 318.641 169.609 c 320.066 169.609 321.219 170.766 321.219 172.188 c h
321.219 172.188 m f
310.023 178.227 m 308.598 178.227 307.445 179.383 307.445 180.805 c 307.445
 182.227 308.598 183.383 310.023 183.383 c 311.445 183.383 312.598 182.227
 312.598 180.805 c 312.598 179.383 311.445 178.227 310.023 178.227 c h
310.023 178.227 m f
318.641 186.223 m 317.219 186.223 316.062 187.375 316.062 188.797 c 316.062
 190.223 317.219 191.375 318.641 191.375 c 320.062 191.375 321.219 190.223
 321.219 188.797 c 321.219 187.375 320.066 186.223 318.641 186.223 c h
318.641 186.223 m f
310.023 194.84 m 308.598 194.84 307.445 195.992 307.445 197.418 c 307.445
 198.84 308.598 199.992 310.023 199.992 c 311.445 199.992 312.598 198.84
 312.598 197.418 c 312.598 195.992 311.445 194.84 310.023 194.84 c h
310.023 194.84 m f
318.641 202.832 m 317.219 202.832 316.062 203.988 316.062 205.41 c 316.062
 206.832 317.219 207.984 318.641 207.984 c 320.062 207.984 321.219 206.832
 321.219 205.41 c 321.219 203.988 320.066 202.832 318.641 202.832 c h
318.641 202.832 m f
310.023 211.453 m 308.598 211.453 307.445 212.605 307.445 214.027 c 307.445
 215.449 308.598 216.605 310.023 216.605 c 311.445 216.605 312.598 215.449
 312.598 214.027 c 312.598 212.605 311.445 211.453 310.023 211.453 c h
310.023 211.453 m f
318.641 219.445 m 317.219 219.445 316.062 220.598 316.062 222.02 c 316.062
 223.445 317.219 224.598 318.641 224.598 c 320.062 224.598 321.219 223.445
 321.219 222.02 c 321.219 220.598 320.066 219.445 318.641 219.445 c h
318.641 219.445 m f
310.023 228.062 m 308.598 228.062 307.445 229.215 307.445 230.637 c 307.445
 232.062 308.598 233.215 310.023 233.215 c 311.445 233.215 312.598 232.062
 312.598 230.637 c 312.598 229.215 311.445 228.062 310.023 228.062 c h
310.023 228.062 m f
318.641 236.055 m 317.219 236.055 316.062 237.211 316.062 238.633 c 316.062
 240.055 317.219 241.207 318.641 241.207 c 320.062 241.207 321.219 240.055
 321.219 238.633 c 321.219 237.211 320.066 236.055 318.641 236.055 c h
318.641 236.055 m f
310.023 244.672 m 308.598 244.672 307.445 245.828 307.445 247.25 c 307.445
 248.672 308.598 249.828 310.023 249.828 c 311.445 249.828 312.598 248.672
 312.598 247.25 c 312.598 245.828 311.445 244.672 310.023 244.672 c h
310.023 244.672 m f
318.641 252.668 m 317.219 252.668 316.062 253.82 316.062 255.242 c 316.062
 256.668 317.219 257.82 318.641 257.82 c 320.062 257.82 321.219 256.668 
321.219 255.242 c 321.219 253.82 320.066 252.668 318.641 252.668 c h
318.641 252.668 m f
310.023 261.285 m 308.598 261.285 307.445 262.438 307.445 263.859 c 307.445
 265.285 308.598 266.438 310.023 266.438 c 311.445 266.438 312.598 265.285
 312.598 263.859 c 312.598 262.438 311.445 261.285 310.023 261.285 c h
310.023 261.285 m f
318.641 269.277 m 317.219 269.277 316.062 270.43 316.062 271.855 c 316.062
 273.277 317.219 274.43 318.641 274.43 c 320.062 274.43 321.219 273.277 
321.219 271.855 c 321.219 270.43 320.066 269.277 318.641 269.277 c h
318.641 269.277 m f
310.023 277.895 m 308.598 277.895 307.445 279.051 307.445 280.473 c 307.445
 281.898 308.598 283.051 310.023 283.051 c 311.445 283.051 312.598 281.898
 312.598 280.473 c 312.598 279.051 311.445 277.895 310.023 277.895 c h
310.023 277.895 m f
318.641 285.891 m 317.219 285.891 316.062 287.043 316.062 288.465 c 316.062
 289.887 317.219 291.043 318.641 291.043 c 320.062 291.043 321.219 289.887
 321.219 288.465 c 321.219 287.043 320.066 285.891 318.641 285.891 c h
318.641 285.891 m f
310.023 294.508 m 308.598 294.508 307.445 295.66 307.445 297.082 c 307.445
 298.508 308.598 299.66 310.023 299.66 c 311.445 299.66 312.598 298.508 
312.598 297.082 c 312.598 295.66 311.445 294.508 310.023 294.508 c h
310.023 294.508 m f
318.641 302.5 m 317.219 302.5 316.062 303.652 316.062 305.078 c 316.062
 306.5 317.219 307.652 318.641 307.652 c 320.062 307.652 321.219 306.5 321.219
 305.078 c 321.219 303.652 320.066 302.5 318.641 302.5 c h
318.641 302.5 m f
310.023 311.117 m 308.598 311.117 307.445 312.273 307.445 313.695 c 307.445
 315.117 308.598 316.273 310.023 316.273 c 311.445 316.273 312.598 315.117
 312.598 313.695 c 312.598 312.273 311.445 311.117 310.023 311.117 c h
310.023 311.117 m f
318.641 319.113 m 317.219 319.113 316.062 320.266 316.062 321.688 c 316.062
 323.109 317.219 324.266 318.641 324.266 c 320.062 324.266 321.219 323.109
 321.219 321.688 c 321.219 320.266 320.066 319.113 318.641 319.113 c h
318.641 319.113 m f
310.023 327.73 m 308.598 327.73 307.445 328.883 307.445 330.309 c 307.445
 331.73 308.598 332.883 310.023 332.883 c 311.445 332.883 312.598 331.73
 312.598 330.309 c 312.598 328.883 311.445 327.73 310.023 327.73 c h
310.023 327.73 m f
318.641 335.723 m 317.219 335.723 316.062 336.875 316.062 338.297 c 316.062
 339.723 317.219 340.875 318.641 340.875 c 320.062 340.875 321.219 339.723
 321.219 338.297 c 321.219 336.875 320.066 335.723 318.641 335.723 c h
318.641 335.723 m f
310.023 344.34 m 308.598 344.34 307.445 345.496 307.445 346.918 c 307.445
 348.34 308.598 349.492 310.023 349.492 c 311.445 349.492 312.598 348.34
 312.598 346.918 c 312.598 345.496 311.445 344.34 310.023 344.34 c h
310.023 344.34 m f
318.641 352.332 m 317.219 352.332 316.062 353.488 316.062 354.91 c 316.062
 356.332 317.219 357.488 318.641 357.488 c 320.062 357.488 321.219 356.332
 321.219 354.91 c 321.219 353.488 320.066 352.332 318.641 352.332 c h
318.641 352.332 m f
310.023 360.953 m 308.598 360.953 307.445 362.105 307.445 363.527 c 307.445
 364.953 308.598 366.105 310.023 366.105 c 311.445 366.105 312.598 364.953
 312.598 363.527 c 312.598 362.105 311.445 360.953 310.023 360.953 c h
310.023 360.953 m f
318.641 368.945 m 317.219 368.945 316.062 370.098 316.062 371.523 c 316.062
 372.945 317.219 374.098 318.641 374.098 c 320.062 374.098 321.219 372.945
 321.219 371.523 c 321.219 370.098 320.066 368.945 318.641 368.945 c h
318.641 368.945 m f
299.453 155.574 m 299.453 157 300.605 158.152 302.031 158.152 c 303.453
 158.152 304.605 157 304.605 155.574 c 304.605 154.746 304.207 154.012 303.594
 153.543 c 300.465 153.543 l 299.855 154.012 299.453 154.746 299.453 155.574
 c h
299.453 155.574 m f
293.41 161.617 m 291.988 161.617 290.836 162.77 290.836 164.195 c 290.836
 165.617 291.988 166.77 293.41 166.77 c 294.836 166.77 295.988 165.617 295.988
 164.195 c 295.988 162.77 294.836 161.617 293.41 161.617 c h
293.41 161.617 m f
302.031 169.609 m 300.609 169.609 299.453 170.766 299.453 172.188 c 299.453
 173.609 300.605 174.766 302.031 174.766 c 303.453 174.766 304.605 173.609
 304.605 172.188 c 304.605 170.766 303.453 169.609 302.031 169.609 c h
302.031 169.609 m f
293.41 178.227 m 291.988 178.227 290.836 179.383 290.836 180.805 c 290.836
 182.227 291.988 183.383 293.41 183.383 c 294.836 183.383 295.988 182.227
 295.988 180.805 c 295.988 179.383 294.836 178.227 293.41 178.227 c h
293.41 178.227 m f
302.031 186.223 m 300.609 186.223 299.453 187.375 299.453 188.797 c 299.453
 190.223 300.605 191.375 302.031 191.375 c 303.453 191.375 304.605 190.223
 304.605 188.797 c 304.605 187.375 303.453 186.223 302.031 186.223 c h
302.031 186.223 m f
302.031 202.832 m 300.609 202.832 299.453 203.988 299.453 205.41 c 299.453
 206.832 300.605 207.984 302.031 207.984 c 303.453 207.984 304.605 206.832
 304.605 205.41 c 304.605 203.988 303.453 202.832 302.031 202.832 c h
302.031 202.832 m f
302.031 219.445 m 300.609 219.445 299.453 220.598 299.453 222.02 c 299.453
 223.445 300.605 224.598 302.031 224.598 c 303.453 224.598 304.605 223.445
 304.605 222.02 c 304.605 220.598 303.453 219.445 302.031 219.445 c h
302.031 219.445 m f
302.031 236.055 m 300.609 236.055 299.453 237.211 299.453 238.633 c 299.453
 240.055 300.605 241.207 302.031 241.207 c 303.453 241.207 304.605 240.055
 304.605 238.633 c 304.605 237.211 303.453 236.055 302.031 236.055 c h
302.031 236.055 m f
302.031 252.668 m 300.609 252.668 299.453 253.82 299.453 255.242 c 299.453
 256.668 300.605 257.82 302.031 257.82 c 303.453 257.82 304.605 256.668 
304.605 255.242 c 304.605 253.82 303.453 252.668 302.031 252.668 c h
302.031 252.668 m f
302.031 269.277 m 300.609 269.277 299.453 270.43 299.453 271.855 c 299.453
 273.277 300.605 274.43 302.031 274.43 c 303.453 274.43 304.605 273.277 
304.605 271.855 c 304.605 270.43 303.453 269.277 302.031 269.277 c h
302.031 269.277 m f
302.031 285.891 m 300.609 285.891 299.453 287.043 299.453 288.465 c 299.453
 289.887 300.605 291.043 302.031 291.043 c 303.453 291.043 304.605 289.887
 304.605 288.465 c 304.605 287.043 303.453 285.891 302.031 285.891 c h
302.031 285.891 m f
302.031 302.5 m 300.609 302.5 299.453 303.652 299.453 305.078 c 299.453
 306.5 300.605 307.652 302.031 307.652 c 303.453 307.652 304.605 306.5 304.605
 305.078 c 304.605 303.652 303.453 302.5 302.031 302.5 c h
302.031 302.5 m f
302.031 319.113 m 300.609 319.113 299.453 320.266 299.453 321.688 c 299.453
 323.109 300.605 324.266 302.031 324.266 c 303.453 324.266 304.605 323.109
 304.605 321.688 c 304.605 320.266 303.453 319.113 302.031 319.113 c h
302.031 319.113 m f
302.031 335.723 m 300.609 335.723 299.453 336.875 299.453 338.297 c 299.453
 339.723 300.605 340.875 302.031 340.875 c 303.453 340.875 304.605 339.723
 304.605 338.297 c 304.605 336.875 303.453 335.723 302.031 335.723 c h
302.031 335.723 m f
302.031 352.332 m 300.609 352.332 299.453 353.488 299.453 354.91 c 299.453
 356.332 300.605 357.488 302.031 357.488 c 303.453 357.488 304.605 356.332
 304.605 354.91 c 304.605 353.488 303.453 352.332 302.031 352.332 c h
302.031 352.332 m f
302.031 368.945 m 300.609 368.945 299.453 370.098 299.453 371.523 c 299.453
 372.945 300.605 374.098 302.031 374.098 c 303.453 374.098 304.605 372.945
 304.605 371.523 c 304.605 370.098 303.453 368.945 302.031 368.945 c h
302.031 368.945 m f
282.844 155.574 m 282.844 157 283.996 158.152 285.418 158.152 c 286.844
 158.152 287.996 157 287.996 155.574 c 287.996 154.746 287.598 154.012 286.984
 153.543 c 283.855 153.543 l 283.242 154.012 282.844 154.746 282.844 155.574
 c h
282.844 155.574 m f
276.801 161.617 m 275.379 161.617 274.223 162.77 274.223 164.195 c 274.223
 165.617 275.379 166.77 276.801 166.77 c 278.223 166.77 279.379 165.617 
279.379 164.195 c 279.379 162.77 278.223 161.617 276.801 161.617 c h
276.801 161.617 m f
285.418 174.762 m 286.844 174.762 287.996 173.609 287.996 172.188 c 287.996
 170.766 286.844 169.609 285.418 169.609 c 283.996 169.609 282.844 170.762
 282.844 172.188 c 282.844 173.609 283.996 174.762 285.418 174.762 c h
285.418 174.762 m f
266.23 155.574 m 266.23 157 267.383 158.152 268.809 158.152 c 270.23 158.152
 271.387 157 271.387 155.574 c 271.387 154.746 270.984 154.012 270.375 153.543
 c 267.242 153.543 l 266.633 154.012 266.23 154.746 266.23 155.574 c h
266.23 155.574 m f
257.613 164.195 m 257.613 165.617 258.766 166.77 260.191 166.77 c 261.613
 166.77 262.766 165.617 262.766 164.195 c 262.766 162.77 261.613 161.617
 260.191 161.617 c 258.766 161.617 257.613 162.77 257.613 164.195 c h
257.613 164.195 m f
271.383 172.188 m 271.383 170.766 270.23 169.609 268.809 169.609 c 267.383
 169.609 266.23 170.766 266.23 172.188 c 266.23 173.609 267.383 174.766 
268.809 174.766 c 270.23 174.762 271.383 173.609 271.383 172.188 c h
271.383 172.188 m f
249.621 155.574 m 249.621 157 250.773 158.152 252.195 158.152 c 253.621
 158.152 254.773 157 254.773 155.574 c 254.773 154.746 254.371 154.012 253.762
 153.543 c 250.633 153.543 l 250.02 154.012 249.621 154.746 249.621 155.574
 c h
249.621 155.574 m f
241 164.195 m 241 165.617 242.156 166.77 243.578 166.77 c 245 166.77 246.156
 165.617 246.156 164.195 c 246.156 162.77 245 161.617 243.578 161.617 c 
242.156 161.617 241 162.77 241 164.195 c h
241 164.195 m f
254.773 172.188 m 254.773 173.609 253.621 174.766 252.195 174.766 c 250.773
 174.766 249.621 173.609 249.621 172.188 c 249.621 170.766 250.773 169.609
 252.195 169.609 c 253.621 169.609 254.773 170.766 254.773 172.188 c h
254.773 172.188 m f
233.008 155.574 m 233.008 157 234.16 158.152 235.586 158.152 c 237.008 
158.152 238.16 157 238.16 155.574 c 238.16 154.746 237.762 154.012 237.148
 153.543 c 234.02 153.543 l 233.41 154.012 233.008 154.746 233.008 155.574
 c h
233.008 155.574 m f
224.391 164.195 m 224.391 165.617 225.543 166.77 226.969 166.77 c 228.391
 166.77 229.543 165.617 229.543 164.195 c 229.543 162.77 228.391 161.617
 226.969 161.617 c 225.543 161.617 224.391 162.77 224.391 164.195 c h
224.391 164.195 m f
235.586 169.609 m 234.164 169.609 233.008 170.766 233.008 172.188 c 233.008
 173.609 234.164 174.766 235.586 174.766 c 237.008 174.766 238.164 173.609
 238.164 172.188 c 238.16 170.766 237.008 169.609 235.586 169.609 c h
235.586 169.609 m f
216.398 155.574 m 216.398 157 217.551 158.152 218.973 158.152 c 220.398
 158.152 221.551 157 221.551 155.574 c 221.551 154.746 221.152 154.012 220.539
 153.543 c 217.41 153.543 l 216.797 154.012 216.398 154.746 216.398 155.574
 c h
216.398 155.574 m f
207.777 164.195 m 207.777 165.617 208.934 166.77 210.355 166.77 c 211.777
 166.77 212.934 165.617 212.934 164.195 c 212.934 162.77 211.777 161.617
 210.355 161.617 c 208.934 161.617 207.777 162.77 207.777 164.195 c h
207.777 164.195 m f
218.973 169.609 m 217.551 169.609 216.398 170.766 216.398 172.188 c 216.398
 173.609 217.551 174.766 218.973 174.766 c 220.398 174.766 221.551 173.609
 221.551 172.188 c 221.551 170.766 220.398 169.609 218.973 169.609 c h
218.973 169.609 m f
199.785 155.574 m 199.785 157 200.941 158.152 202.363 158.152 c 203.785
 158.152 204.941 157 204.941 155.574 c 204.941 154.746 204.539 154.012 203.93
 153.543 c 200.797 153.543 l 200.188 154.012 199.785 154.746 199.785 155.574
 c h
199.785 155.574 m f
191.168 164.195 m 191.168 165.617 192.32 166.77 193.746 166.77 c 195.168
 166.77 196.32 165.617 196.32 164.195 c 196.32 162.77 195.168 161.617 193.746
 161.617 c 192.32 161.617 191.168 162.77 191.168 164.195 c h
191.168 164.195 m f
202.363 169.609 m 200.941 169.609 199.785 170.766 199.785 172.188 c 199.785
 173.609 200.938 174.766 202.363 174.766 c 203.785 174.766 204.938 173.609
 204.938 172.188 c 204.941 170.766 203.785 169.609 202.363 169.609 c h
202.363 169.609 m f
183.176 155.574 m 183.176 157 184.328 158.152 185.75 158.152 c 187.176 
158.152 188.328 157 188.328 155.574 c 188.328 154.746 187.926 154.012 187.316
 153.543 c 184.188 153.543 l 183.574 154.012 183.176 154.746 183.176 155.574
 c h
183.176 155.574 m f
174.555 164.195 m 174.555 165.617 175.711 166.77 177.133 166.77 c 178.555
 166.77 179.711 165.617 179.711 164.195 c 179.711 162.77 178.555 161.617
 177.133 161.617 c 175.711 161.617 174.555 162.77 174.555 164.195 c h
174.555 164.195 m f
185.75 169.609 m 184.328 169.609 183.176 170.766 183.176 172.188 c 183.176
 173.609 184.328 174.766 185.75 174.766 c 187.176 174.766 188.328 173.609
 188.328 172.188 c 188.328 170.766 187.176 169.609 185.75 169.609 c h
185.75 169.609 m f
166.562 155.574 m 166.562 157 167.719 158.152 169.141 158.152 c 170.562
 158.152 171.719 157 171.719 155.574 c 171.719 154.746 171.316 154.012 170.707
 153.543 c 167.574 153.543 l 166.965 154.012 166.562 154.746 166.562 155.574
 c h
166.562 155.574 m f
169.141 169.609 m 167.719 169.609 166.562 170.766 166.562 172.188 c 166.562
 173.609 167.719 174.766 169.141 174.766 c 170.562 174.766 171.719 173.609
 171.719 172.188 c 171.719 170.766 170.562 169.609 169.141 169.609 c h
169.141 169.609 m f
149.953 155.574 m 149.953 157 151.105 158.152 152.531 158.152 c 153.953
 158.152 155.105 157 155.105 155.574 c 155.105 154.746 154.707 154.012 154.094
 153.543 c 150.965 153.543 l 150.352 154.012 149.953 154.746 149.953 155.574
 c h
149.953 155.574 m f
141.336 164.195 m 141.336 165.617 142.488 166.77 143.91 166.77 c 145.336
 166.77 146.488 165.617 146.488 164.195 c 146.488 162.77 145.336 161.617
 143.91 161.617 c 142.488 161.617 141.336 162.77 141.336 164.195 c h
141.336 164.195 m f
152.527 169.609 m 151.105 169.609 149.953 170.766 149.953 172.188 c 149.953
 173.609 151.105 174.766 152.527 174.766 c 153.953 174.766 155.105 173.609
 155.105 172.188 c 155.105 170.766 153.953 169.609 152.527 169.609 c h
152.527 169.609 m f
133.34 155.574 m 133.34 157 134.496 158.152 135.918 158.152 c 137.34 158.152
 138.496 157 138.496 155.574 c 138.496 154.746 138.094 154.012 137.484 153.543
 c 134.352 153.543 l 133.742 154.012 133.34 154.746 133.34 155.574 c h
133.34 155.574 m f
124.723 164.195 m 124.723 165.617 125.879 166.77 127.301 166.77 c 128.723
 166.77 129.875 165.617 129.875 164.195 c 129.875 162.77 128.723 161.617
 127.301 161.617 c 125.879 161.617 124.723 162.77 124.723 164.195 c h
124.723 164.195 m f
135.918 169.609 m 134.496 169.609 133.34 170.766 133.34 172.188 c 133.34
 173.609 134.496 174.766 135.918 174.766 c 137.34 174.766 138.496 173.609
 138.496 172.188 c 138.496 170.766 137.34 169.609 135.918 169.609 c h
135.918 169.609 m f
116.73 155.574 m 116.73 157 117.883 158.152 119.309 158.152 c 120.73 158.152
 121.883 157 121.883 155.574 c 121.883 154.746 121.484 154.012 120.871 153.543
 c 117.742 153.543 l 117.129 154.012 116.73 154.746 116.73 155.574 c h
116.73 155.574 m f
108.113 164.195 m 108.113 165.617 109.266 166.77 110.688 166.77 c 112.113
 166.77 113.266 165.617 113.266 164.195 c 113.266 162.77 112.113 161.617
 110.688 161.617 c 109.266 161.617 108.113 162.77 108.113 164.195 c h
108.113 164.195 m f
119.309 169.609 m 117.883 169.609 116.73 170.766 116.73 172.188 c 116.73
 173.609 117.883 174.766 119.309 174.766 c 120.73 174.766 121.883 173.609
 121.883 172.188 c 121.883 170.766 120.73 169.609 119.309 169.609 c h
119.309 169.609 m f
100.117 155.574 m 100.117 157 101.273 158.152 102.695 158.152 c 104.117
 158.152 105.273 157 105.273 155.574 c 105.273 154.746 104.871 154.012 104.262
 153.543 c 101.129 153.543 l 100.52 154.012 100.117 154.746 100.117 155.574
 c h
100.117 155.574 m f
91.5 164.195 m 91.5 165.617 92.652 166.77 94.078 166.77 c 95.5 166.77 96.652
 165.617 96.652 164.195 c 96.652 162.77 95.5 161.617 94.078 161.617 c 92.652
 161.617 91.5 162.77 91.5 164.195 c h
91.5 164.195 m f
105.273 172.188 m 105.273 173.609 104.117 174.766 102.695 174.766 c 101.273
 174.766 100.117 173.609 100.117 172.188 c 100.117 170.766 101.273 169.609
 102.695 169.609 c 104.117 169.609 105.273 170.766 105.273 172.188 c h
105.273 172.188 m f
83.508 155.574 m 83.508 157 84.66 158.152 86.086 158.152 c 87.508 158.152
 88.66 157 88.66 155.574 c 88.66 154.746 88.262 154.012 87.648 153.543 c
 84.52 153.543 l 83.91 154.012 83.508 154.746 83.508 155.574 c h
83.508 155.574 m f
74.891 164.195 m 74.891 165.617 76.043 166.77 77.465 166.77 c 78.891 166.77
 80.043 165.617 80.043 164.195 c 80.043 162.77 78.891 161.617 77.465 161.617
 c 76.043 161.617 74.891 162.77 74.891 164.195 c h
74.891 164.195 m f
86.086 169.609 m 84.66 169.609 83.508 170.766 83.508 172.188 c 83.508 173.609
 84.66 174.766 86.086 174.766 c 87.508 174.766 88.66 173.609 88.66 172.188
 c 88.66 170.766 87.508 169.609 86.086 169.609 c h
86.086 169.609 m f
66.895 155.574 m 66.895 157 68.051 158.152 69.473 158.152 c 70.898 158.152
 72.051 157 72.051 155.574 c 72.051 154.746 71.648 154.012 71.039 153.543
 c 67.906 153.543 l 67.297 154.012 66.895 154.746 66.895 155.574 c h
66.895 155.574 m f
58.277 164.195 m 58.277 165.617 59.43 166.77 60.855 166.77 c 62.277 166.77
 63.43 165.617 63.43 164.195 c 63.43 162.77 62.277 161.617 60.855 161.617
 c 59.43 161.617 58.277 162.77 58.277 164.195 c h
58.277 164.195 m f
69.473 169.609 m 68.051 169.609 66.895 170.766 66.895 172.188 c 66.895 
173.609 68.051 174.766 69.473 174.766 c 70.898 174.766 72.051 173.609 72.051
 172.188 c 72.051 170.766 70.895 169.609 69.473 169.609 c h
69.473 169.609 m f
50.285 155.574 m 50.285 157 51.438 158.152 52.863 158.152 c 54.285 158.152
 55.438 157 55.438 155.574 c 55.438 154.746 55.039 154.012 54.426 153.543
 c 51.297 153.543 l 50.688 154.012 50.285 154.746 50.285 155.574 c h
50.285 155.574 m f
52.863 169.609 m 51.441 169.609 50.285 170.766 50.285 172.188 c 50.285 
173.609 51.438 174.766 52.863 174.766 c 54.285 174.766 55.438 173.609 55.438
 172.188 c 55.438 170.766 54.285 169.609 52.863 169.609 c h
52.863 169.609 m f
60.867 178.262 m 59.445 178.262 58.289 179.418 58.289 180.84 c 58.289 182.262
 59.441 183.418 60.867 183.418 c 62.289 183.418 63.441 182.262 63.441 180.84
 c 63.441 179.418 62.289 178.262 60.867 178.262 c h
60.867 178.262 m f
77.496 178.262 m 76.074 178.262 74.918 179.418 74.918 180.84 c 74.918 182.262
 76.074 183.418 77.496 183.418 c 78.918 183.418 80.074 182.262 80.074 180.84
 c 80.07 179.418 78.918 178.262 77.496 178.262 c h
77.496 178.262 m f
94.125 178.262 m 92.703 178.262 91.547 179.418 91.547 180.84 c 91.547 182.262
 92.703 183.418 94.125 183.418 c 95.547 183.418 96.703 182.262 96.703 180.84
 c 96.703 179.418 95.547 178.262 94.125 178.262 c h
94.125 178.262 m f
110.754 178.262 m 109.332 178.262 108.176 179.418 108.176 180.84 c 108.176
 182.262 109.332 183.418 110.754 183.418 c 112.176 183.418 113.332 182.262
 113.332 180.84 c 113.332 179.418 112.176 178.262 110.754 178.262 c h
110.754 178.262 m f
127.383 178.262 m 125.961 178.262 124.805 179.418 124.805 180.84 c 124.805
 182.262 125.961 183.418 127.383 183.418 c 128.805 183.418 129.961 182.262
 129.961 180.84 c 129.961 179.418 128.805 178.262 127.383 178.262 c h
127.383 178.262 m f
144.012 178.262 m 142.59 178.262 141.438 179.418 141.438 180.84 c 141.438
 182.262 142.59 183.418 144.012 183.418 c 145.434 183.418 146.59 182.262
 146.59 180.84 c 146.59 179.418 145.434 178.262 144.012 178.262 c h
144.012 178.262 m f
177.16 178.262 m 175.738 178.262 174.582 179.418 174.582 180.84 c 174.582
 182.262 175.738 183.418 177.16 183.418 c 178.582 183.418 179.738 182.262
 179.738 180.84 c 179.738 179.418 178.582 178.262 177.16 178.262 c h
177.16 178.262 m f
193.754 178.262 m 192.332 178.262 191.176 179.418 191.176 180.84 c 191.176
 182.262 192.328 183.418 193.754 183.418 c 195.176 183.418 196.332 182.262
 196.332 180.84 c 196.328 179.418 195.176 178.262 193.754 178.262 c h
193.754 178.262 m f
210.348 178.262 m 208.922 178.262 207.77 179.418 207.77 180.84 c 207.77
 182.262 208.922 183.418 210.348 183.418 c 211.77 183.418 212.922 182.262
 212.922 180.84 c 212.922 179.418 211.77 178.262 210.348 178.262 c h
210.348 178.262 m f
226.941 178.262 m 225.516 178.262 224.363 179.418 224.363 180.84 c 224.363
 182.262 225.516 183.418 226.941 183.418 c 228.363 183.418 229.516 182.262
 229.516 180.84 c 229.516 179.418 228.363 178.262 226.941 178.262 c h
226.941 178.262 m f
243.531 178.262 m 242.109 178.262 240.957 179.418 240.957 180.84 c 240.957
 182.262 242.109 183.418 243.531 183.418 c 244.957 183.418 246.109 182.262
 246.109 180.84 c 246.109 179.418 244.957 178.262 243.531 178.262 c h
243.531 178.262 m f
260.125 178.262 m 258.703 178.262 257.551 179.418 257.551 180.84 c 257.551
 182.262 258.703 183.418 260.125 183.418 c 261.551 183.418 262.703 182.262
 262.703 180.84 c 262.703 179.418 261.551 178.262 260.125 178.262 c h
260.125 178.262 m f
276.719 178.262 m 275.297 178.262 274.141 179.418 274.141 180.84 c 274.141
 182.262 275.297 183.418 276.719 183.418 c 278.141 183.418 279.297 182.262
 279.297 180.84 c 279.297 179.418 278.141 178.262 276.719 178.262 c h
276.719 178.262 m f
0.192157 0.215686 0.239216 rg
338.852 62.668 m 328.906 62.668 l 328.906 28.48 l 328.906 18.203 323.59
 8.996 314.688 3.855 c 305.785 -1.285 295.156 -1.285 286.254 3.855 c 192
 58.273 l 97.746 3.855 l 88.844 -1.285 78.215 -1.285 69.312 3.855 c 60.41
 8.996 55.094 18.203 55.094 28.48 c 55.094 62.668 l 45.148 62.668 l 32.719
 62.668 22.602 72.777 22.602 85.211 c 22.602 134.062 l 22.602 145.07 30.535
 154.254 40.98 156.215 c 40.98 362.898 l 40.98 374.535 50.445 384 62.082
 384 c 321.918 384 l 333.555 384 343.02 374.535 343.02 362.898 c 343.02 
156.215 l 353.465 154.254 361.398 145.07 361.398 134.062 c 361.398 85.211
 l 361.398 72.777 351.285 62.668 338.852 62.668 c h
289.625 9.695 m 296.418 5.777 304.523 5.777 311.316 9.695 c 318.105 13.617
 322.16 20.641 322.16 28.48 c 322.16 62.668 l 298.551 62.668 l 298.551 37.645
 l 298.551 36.438 297.91 35.324 296.867 34.723 c 295.824 34.121 294.539 
34.121 293.492 34.723 c 245.094 62.664 l 197.879 62.664 l h
291.809 62.668 m 258.586 62.668 l 291.809 43.484 l h
152.215 149.863 m 152.215 69.41 l 231.785 69.41 l 231.785 149.863 l h
219.949 156.609 m 219.949 377.254 l 164.07 377.254 l 164.07 156.609 l h
61.84 28.48 m 61.84 20.641 65.895 13.617 72.684 9.695 c 79.473 5.777 87.582
 5.777 94.375 9.695 c 186.121 62.668 l 138.906 62.668 l 90.504 34.723 l 
89.461 34.121 88.176 34.121 87.133 34.723 c 86.09 35.324 85.445 36.438 85.445
 37.645 c 85.445 62.668 l 61.84 62.668 l h
125.414 62.668 m 92.191 62.668 l 92.191 43.484 l h
29.348 134.062 m 29.348 85.211 l 29.348 76.5 36.438 69.41 45.148 69.41 
c 145.469 69.41 l 145.469 149.863 l 45.148 149.863 l 36.438 149.863 29.348
 142.773 29.348 134.062 c h
47.727 362.898 m 47.727 156.609 l 157.324 156.609 l 157.324 377.254 l 62.082
 377.254 l 54.164 377.254 47.727 370.816 47.727 362.898 c h
321.918 377.254 m 226.695 377.254 l 226.695 156.609 l 336.273 156.609 l
 336.273 362.898 l 336.273 370.816 329.836 377.254 321.918 377.254 c h
354.652 134.062 m 354.652 142.773 347.562 149.863 338.852 149.863 c 238.527
 149.863 l 238.527 69.41 l 338.852 69.41 l 347.562 69.41 354.652 76.5 354.652
 85.211 c h
354.652 134.062 m f
Q Q
showpage
%%Trailer
end
%%EOF
