%!PS-Adobe-3.0 EPSF-3.0
%%Creator: cairo 1.16.0 (https://cairographics.org)
%%CreationDate: Fri Feb 12 12:12:39 2021
%%Pages: 1
%%DocumentData: Clean7Bit
%%LanguageLevel: 2
%%BoundingBox: 0 8 384 376
%%EndComments
%%BeginProlog
50 dict begin
/q { gsave } bind def
/Q { grestore } bind def
/cm { 6 array astore concat } bind def
/w { setlinewidth } bind def
/J { setlinecap } bind def
/j { setlinejoin } bind def
/M { setmiterlimit } bind def
/d { setdash } bind def
/m { moveto } bind def
/l { lineto } bind def
/c { curveto } bind def
/h { closepath } bind def
/re { exch dup neg 3 1 roll 5 3 roll moveto 0 rlineto
      0 exch rlineto 0 rlineto closepath } bind def
/S { stroke } bind def
/f { fill } bind def
/f* { eofill } bind def
/n { newpath } bind def
/W { clip } bind def
/W* { eoclip } bind def
/BT { } bind def
/ET { } bind def
/BDC { mark 3 1 roll /BDC pdfmark } bind def
/EMC { mark /EMC pdfmark } bind def
/cairo_store_point { /cairo_point_y exch def /cairo_point_x exch def } def
/Tj { show currentpoint cairo_store_point } bind def
/TJ {
  {
    dup
    type /stringtype eq
    { show } { -0.001 mul 0 cairo_font_matrix dtransform rmoveto } ifelse
  } forall
  currentpoint cairo_store_point
} bind def
/cairo_selectfont { cairo_font_matrix aload pop pop pop 0 0 6 array astore
    cairo_font exch selectfont cairo_point_x cairo_point_y moveto } bind def
/Tf { pop /cairo_font exch def /cairo_font_matrix where
      { pop cairo_selectfont } if } bind def
/Td { matrix translate cairo_font_matrix matrix concatmatrix dup
      /cairo_font_matrix exch def dup 4 get exch 5 get cairo_store_point
      /cairo_font where { pop cairo_selectfont } if } bind def
/Tm { 2 copy 8 2 roll 6 array astore /cairo_font_matrix exch def
      cairo_store_point /cairo_font where { pop cairo_selectfont } if } bind def
/g { setgray } bind def
/rg { setrgbcolor } bind def
/d1 { setcachedevice } bind def
/cairo_data_source {
  CairoDataIndex CairoData length lt
    { CairoData CairoDataIndex get /CairoDataIndex CairoDataIndex 1 add def }
    { () } ifelse
} def
/cairo_flush_ascii85_file { cairo_ascii85_file status { cairo_ascii85_file flushfile } if } def
/cairo_image { image cairo_flush_ascii85_file } def
/cairo_imagemask { imagemask cairo_flush_ascii85_file } def
%%EndProlog
%%BeginSetup
%%EndSetup
%%Page: 1 1
%%BeginPageSetup
%%PageBoundingBox: 0 8 384 376
%%EndPageSetup
q 0 8 384 368 rectclip
1 0 0 -1 0 384 cm q
0.913725 0.760784 0.470588 rg
20.102 107.969 343.801 248.672 re f
0.917647 0.658824 0.584314 rg
137.391 196.906 m 65.117 196.906 l 60.906 196.906 57.492 200.324 57.492
 204.535 c 57.492 356.641 l 145.02 356.641 l 145.02 204.535 l 145.02 200.324
 141.605 196.906 137.391 196.906 c h
137.391 196.906 m f
319.043 301.996 m 186.859 301.996 l 182.734 301.996 179.391 298.652 179.391
 294.527 c 179.391 204.379 l 179.391 200.254 182.734 196.91 186.859 196.91
 c 319.043 196.91 l 323.168 196.91 326.512 200.254 326.512 204.379 c 326.512
 294.527 l 326.512 298.652 323.168 301.996 319.043 301.996 c h
319.043 301.996 m f
0.976471 0.984314 0.988235 rg
310.137 286.816 m 195.766 286.816 l 195.324 286.816 194.965 286.457 194.965
 286.016 c 194.965 212.887 l 194.965 212.445 195.324 212.086 195.766 212.086
 c 310.141 212.086 l 310.582 212.086 310.941 212.445 310.941 212.887 c 310.941
 286.016 l 310.938 286.461 310.582 286.816 310.137 286.816 c h
310.137 286.816 m f
0.917647 0.658824 0.584314 rg
380.598 89.945 m 363.629 21.566 l 362.145 15.73 356.887 11.648 350.863 
11.656 c 31.629 12.066 l 25.531 12.074 20.238 16.277 18.84 22.215 c 3.457
 89.945 l 3.039 89.945 l 3.039 89.945 3.031 119.773 3.031 119.887 c 3.031
 140.754 19.945 157.668 40.812 157.668 c 61.68 157.668 78.598 140.754 78.598
 119.887 c 78.598 119.773 78.59 119.664 78.59 119.551 c 78.605 119.551 l
 78.605 119.664 78.598 119.773 78.598 119.887 c 78.598 140.754 95.516 157.668
 116.383 157.668 c 137.25 157.668 154.164 140.754 154.164 119.887 c 154.164
 119.773 154.156 119.664 154.156 119.551 c 154.172 119.551 l 154.172 119.664
 154.164 119.773 154.164 119.887 c 154.164 140.754 171.082 157.668 191.949
 157.668 c 212.816 157.668 229.734 140.754 229.734 119.887 c 229.844 119.941
 l 229.844 140.816 246.762 157.734 267.637 157.734 c 287.793 157.734 304.262
 141.953 305.367 122.07 c 306.5 141.922 322.949 157.668 343.082 157.668 
c 363.949 157.668 380.867 140.754 380.867 119.887 c 380.867 119.773 380.969
 89.945 380.969 89.945 c h
380.598 89.945 m f
1 g
305.82 89.246 m 305.434 86.199 l 305.434 84.16 l 305.172 84.16 l 295.945
 11.715 l 228.809 11.812 l 228.809 89.266 l 230.035 89.266 l 230.035 123.781
 l 231.961 142.848 248.059 157.734 267.637 157.734 c 287.797 157.734 304.266
 141.953 305.367 122.07 c 305.383 122.336 305.41 122.594 305.434 122.859
 c 305.434 89.246 l h
305.82 89.246 m f
153.281 11.91 m 87.625 12.008 l 77.75 89.305 l 78.828 89.305 l 78.828 124.012
 l 80.883 142.938 96.91 157.668 116.383 157.668 c 137.25 157.668 154.168
 140.754 154.168 119.887 c 154.168 119.773 154.16 119.664 154.156 119.551
 c 154.176 119.551 l 154.172 119.664 154.168 119.773 154.168 119.887 c 154.168
 120.574 154.188 121.258 154.223 121.938 c 154.223 82.914 l 153.281 82.914
 l h
153.281 11.91 m f
0.976471 0.984314 0.988235 rg
376.043 90.918 m 374.766 90.918 373.73 91.953 373.73 93.23 c 373.73 94.508
 374.766 95.547 376.043 95.547 c 377.32 95.547 378.359 94.508 378.359 93.23
 c 378.359 91.953 377.32 90.918 376.043 90.918 c h
376.043 90.918 m f
368.305 103.285 m 369.582 103.285 370.617 102.25 370.617 100.973 c 370.617
 99.695 369.582 98.656 368.305 98.656 c 367.023 98.656 365.988 99.691 365.988
 100.973 c 365.988 102.25 367.023 103.285 368.305 103.285 c h
368.305 103.285 m f
376.043 110.465 m 377.32 110.465 378.359 109.43 378.359 108.152 c 378.359
 106.871 377.32 105.836 376.043 105.836 c 374.766 105.836 373.73 106.871
 373.73 108.152 c 373.73 109.43 374.766 110.465 376.043 110.465 c h
376.043 110.465 m f
368.305 118.207 m 369.582 118.207 370.617 117.172 370.617 115.891 c 370.617
 114.613 369.582 113.578 368.305 113.578 c 367.023 113.578 365.988 114.613
 365.988 115.891 c 365.988 117.168 367.023 118.207 368.305 118.207 c h
368.305 118.207 m f
376.043 125.387 m 377.32 125.387 378.359 124.348 378.359 123.07 c 378.359
 121.793 377.32 120.758 376.043 120.758 c 374.766 120.758 373.73 121.793
 373.73 123.07 c 373.73 124.348 374.766 125.387 376.043 125.387 c h
376.043 125.387 m f
368.305 133.125 m 369.582 133.125 370.617 132.09 370.617 130.812 c 370.617
 129.535 369.582 128.496 368.305 128.496 c 367.023 128.496 365.988 129.535
 365.988 130.812 c 365.988 132.09 367.023 133.125 368.305 133.125 c h
368.305 133.125 m f
368.305 143.418 m 367.023 143.418 365.988 144.453 365.988 145.73 c 365.988
 147 367.008 148.023 368.27 148.043 c 369.086 147.312 369.867 146.547 370.617
 145.75 c 370.617 145.742 370.617 145.738 370.617 145.73 c 370.617 144.453
 369.582 143.418 368.305 143.418 c h
368.305 143.418 m f
361.125 95.547 m 362.402 95.547 363.438 94.508 363.438 93.23 c 363.438 
91.953 362.402 90.918 361.125 90.918 c 359.848 90.918 358.809 91.953 358.809
 93.23 c 358.809 94.508 359.848 95.547 361.125 95.547 c h
361.125 95.547 m f
353.383 103.285 m 354.66 103.285 355.699 102.25 355.699 100.973 c 355.699
 99.695 354.66 98.656 353.383 98.656 c 352.105 98.656 351.07 99.691 351.07
 100.973 c 351.07 102.25 352.105 103.285 353.383 103.285 c h
353.383 103.285 m f
363.438 108.152 m 363.438 109.43 362.402 110.465 361.125 110.465 c 359.848
 110.465 358.809 109.43 358.809 108.152 c 358.809 106.871 359.848 105.836
 361.125 105.836 c 362.402 105.836 363.438 106.871 363.438 108.152 c h
363.438 108.152 m f
353.383 118.207 m 354.66 118.207 355.699 117.172 355.699 115.891 c 355.699
 114.613 354.66 113.578 353.383 113.578 c 352.105 113.578 351.07 114.613
 351.07 115.891 c 351.07 117.168 352.105 118.207 353.383 118.207 c h
353.383 118.207 m f
363.438 123.07 m 363.438 124.348 362.402 125.387 361.125 125.387 c 359.848
 125.387 358.809 124.348 358.809 123.07 c 358.809 121.793 359.848 120.758
 361.125 120.758 c 362.402 120.758 363.438 121.793 363.438 123.07 c h
363.438 123.07 m f
353.383 133.125 m 354.66 133.125 355.699 132.09 355.699 130.812 c 355.699
 129.535 354.66 128.496 353.383 128.496 c 352.105 128.496 351.07 129.535
 351.07 130.812 c 351.07 132.09 352.105 133.125 353.383 133.125 c h
353.383 133.125 m f
363.438 137.992 m 363.438 139.27 362.402 140.305 361.125 140.305 c 359.848
 140.305 358.809 139.27 358.809 137.992 c 358.809 136.711 359.848 135.676
 361.125 135.676 c 362.402 135.676 363.438 136.711 363.438 137.992 c h
363.438 137.992 m f
353.383 148.047 m 354.66 148.047 355.699 147.008 355.699 145.73 c 355.699
 144.453 354.66 143.418 353.383 143.418 c 352.105 143.418 351.07 144.453
 351.07 145.73 c 351.07 147.008 352.105 148.047 353.383 148.047 c h
353.383 148.047 m f
346.207 95.547 m 347.484 95.547 348.52 94.508 348.52 93.23 c 348.52 91.953
 347.484 90.918 346.207 90.918 c 344.926 90.918 343.891 91.953 343.891 93.23
 c 343.891 94.508 344.926 95.547 346.207 95.547 c h
346.207 95.547 m f
338.465 98.656 m 337.188 98.656 336.148 99.695 336.148 100.973 c 336.148
 102.25 337.188 103.285 338.465 103.285 c 339.742 103.285 340.777 102.25
 340.777 100.973 c 340.777 99.695 339.742 98.656 338.465 98.656 c h
338.465 98.656 m f
348.52 108.152 m 348.52 109.43 347.484 110.465 346.207 110.465 c 344.926
 110.465 343.891 109.43 343.891 108.152 c 343.891 106.871 344.926 105.836
 346.207 105.836 c 347.484 105.836 348.52 106.871 348.52 108.152 c h
348.52 108.152 m f
338.465 118.207 m 339.742 118.207 340.777 117.172 340.777 115.891 c 340.777
 114.613 339.742 113.578 338.465 113.578 c 337.188 113.578 336.148 114.613
 336.148 115.891 c 336.148 117.168 337.188 118.207 338.465 118.207 c h
338.465 118.207 m f
348.52 123.07 m 348.52 124.348 347.484 125.387 346.207 125.387 c 344.926
 125.387 343.891 124.348 343.891 123.07 c 343.891 121.793 344.926 120.758
 346.207 120.758 c 347.484 120.758 348.52 121.793 348.52 123.07 c h
348.52 123.07 m f
338.465 133.125 m 339.742 133.125 340.777 132.09 340.777 130.812 c 340.777
 129.535 339.742 128.496 338.465 128.496 c 337.188 128.496 336.148 129.535
 336.148 130.812 c 336.148 132.09 337.188 133.125 338.465 133.125 c h
338.465 133.125 m f
348.52 137.992 m 348.52 139.27 347.484 140.305 346.207 140.305 c 344.926
 140.305 343.891 139.27 343.891 137.992 c 343.891 136.711 344.926 135.676
 346.207 135.676 c 347.484 135.676 348.52 136.711 348.52 137.992 c h
348.52 137.992 m f
338.465 148.047 m 339.742 148.047 340.777 147.008 340.777 145.73 c 340.777
 144.453 339.742 143.418 338.465 143.418 c 337.188 143.418 336.148 144.453
 336.148 145.73 c 336.148 147.008 337.188 148.047 338.465 148.047 c h
338.465 148.047 m f
346.207 155.223 m 347.484 155.223 348.52 154.188 348.52 152.91 c 348.52
 151.633 347.484 150.594 346.207 150.594 c 344.926 150.594 343.891 151.633
 343.891 152.91 c 343.891 154.188 344.926 155.223 346.207 155.223 c h
346.207 155.223 m f
331.285 95.547 m 332.562 95.547 333.602 94.508 333.602 93.23 c 333.602 
91.953 332.562 90.918 331.285 90.918 c 330.008 90.918 328.973 91.953 328.973
 93.23 c 328.973 94.508 330.008 95.547 331.285 95.547 c h
331.285 95.547 m f
325.859 100.973 m 325.859 102.25 324.824 103.285 323.543 103.285 c 322.266
 103.285 321.23 102.25 321.23 100.973 c 321.23 99.695 322.266 98.656 323.543
 98.656 c 324.824 98.656 325.859 99.695 325.859 100.973 c h
325.859 100.973 m f
331.285 110.465 m 332.562 110.465 333.602 109.43 333.602 108.152 c 333.602
 106.871 332.562 105.836 331.285 105.836 c 330.008 105.836 328.973 106.871
 328.973 108.152 c 328.973 109.43 330.008 110.465 331.285 110.465 c h
331.285 110.465 m f
323.543 118.207 m 324.824 118.207 325.859 117.172 325.859 115.891 c 325.859
 114.613 324.824 113.578 323.543 113.578 c 322.266 113.578 321.23 114.613
 321.23 115.891 c 321.23 117.168 322.266 118.207 323.543 118.207 c h
323.543 118.207 m f
331.285 125.387 m 332.562 125.387 333.602 124.348 333.602 123.07 c 333.602
 121.793 332.562 120.758 331.285 120.758 c 330.008 120.758 328.973 121.793
 328.973 123.07 c 328.973 124.348 330.008 125.387 331.285 125.387 c h
331.285 125.387 m f
325.859 130.812 m 325.859 132.09 324.824 133.125 323.543 133.125 c 322.266
 133.125 321.23 132.09 321.23 130.812 c 321.23 129.531 322.266 128.496 323.543
 128.496 c 324.824 128.496 325.859 129.531 325.859 130.812 c h
325.859 130.812 m f
331.285 140.305 m 332.562 140.305 333.602 139.27 333.602 137.992 c 333.602
 136.711 332.562 135.676 331.285 135.676 c 330.008 135.676 328.973 136.711
 328.973 137.992 c 328.973 139.27 330.008 140.305 331.285 140.305 c h
331.285 140.305 m f
325.859 145.73 m 325.859 147.008 324.824 148.047 323.543 148.047 c 322.266
 148.047 321.23 147.008 321.23 145.73 c 321.23 144.453 322.266 143.418 323.543
 143.418 c 324.824 143.418 325.859 144.453 325.859 145.73 c h
325.859 145.73 m f
331.285 155.223 m 332.562 155.223 333.602 154.188 333.602 152.91 c 333.602
 151.633 332.562 150.594 331.285 150.594 c 330.008 150.594 328.973 151.633
 328.973 152.91 c 328.973 154.188 330.008 155.223 331.285 155.223 c h
331.285 155.223 m f
316.367 95.547 m 317.645 95.547 318.68 94.508 318.68 93.23 c 318.68 91.953
 317.645 90.918 316.367 90.918 c 315.086 90.918 314.051 91.953 314.051 93.23
 c 314.051 94.508 315.086 95.547 316.367 95.547 c h
316.367 95.547 m f
308.625 103.285 m 309.902 103.285 310.941 102.25 310.941 100.973 c 310.941
 99.695 309.902 98.656 308.625 98.656 c 307.348 98.656 306.309 99.691 306.309
 100.973 c 306.309 102.25 307.348 103.285 308.625 103.285 c h
308.625 103.285 m f
316.367 110.465 m 317.645 110.465 318.68 109.43 318.68 108.152 c 318.68
 106.871 317.645 105.836 316.367 105.836 c 315.086 105.836 314.051 106.871
 314.051 108.152 c 314.051 109.43 315.086 110.465 316.367 110.465 c h
316.367 110.465 m f
308.625 118.207 m 309.902 118.207 310.941 117.172 310.941 115.891 c 310.941
 114.613 309.902 113.578 308.625 113.578 c 307.348 113.578 306.309 114.613
 306.309 115.891 c 306.309 117.168 307.348 118.207 308.625 118.207 c h
308.625 118.207 m f
316.367 125.387 m 317.645 125.387 318.68 124.348 318.68 123.07 c 318.68
 121.793 317.645 120.758 316.367 120.758 c 315.086 120.758 314.051 121.793
 314.051 123.07 c 314.051 124.348 315.086 125.387 316.367 125.387 c h
316.367 125.387 m f
310.941 130.812 m 310.941 129.535 309.902 128.496 308.625 128.496 c 307.746
 128.496 306.992 128.992 306.598 129.715 c 306.887 130.785 307.215 131.84
 307.59 132.871 c 307.902 133.027 308.25 133.125 308.625 133.125 c 309.902
 133.125 310.941 132.09 310.941 130.812 c h
310.941 130.812 m f
316.367 140.305 m 317.645 140.305 318.68 139.27 318.68 137.992 c 318.68
 136.711 317.645 135.676 316.367 135.676 c 315.086 135.676 314.051 136.711
 314.051 137.992 c 314.051 139.27 315.086 140.305 316.367 140.305 c h
316.367 140.305 m f
226.848 90.918 m 225.57 90.918 224.535 91.953 224.535 93.23 c 224.535 94.508
 225.57 95.547 226.848 95.547 c 228.125 95.547 229.164 94.508 229.164 93.23
 c 229.16 91.953 228.125 90.918 226.848 90.918 c h
226.848 90.918 m f
219.105 103.285 m 220.387 103.285 221.422 102.25 221.422 100.973 c 221.422
 99.695 220.387 98.656 219.105 98.656 c 217.828 98.656 216.793 99.691 216.793
 100.973 c 216.793 102.25 217.828 103.285 219.105 103.285 c h
219.105 103.285 m f
229.164 108.152 m 229.164 109.43 228.125 110.465 226.848 110.465 c 225.57
 110.465 224.535 109.43 224.535 108.152 c 224.535 106.871 225.57 105.836
 226.848 105.836 c 228.125 105.836 229.164 106.871 229.164 108.152 c h
229.164 108.152 m f
219.105 118.207 m 220.387 118.207 221.422 117.172 221.422 115.891 c 221.422
 114.613 220.387 113.578 219.105 113.578 c 217.828 113.578 216.793 114.613
 216.793 115.891 c 216.793 117.168 217.828 118.207 219.105 118.207 c h
219.105 118.207 m f
229.164 123.07 m 229.164 124.348 228.125 125.387 226.848 125.387 c 225.57
 125.387 224.535 124.348 224.535 123.07 c 224.535 121.793 225.57 120.758
 226.848 120.758 c 228.125 120.758 229.164 121.793 229.164 123.07 c h
229.164 123.07 m f
219.105 133.125 m 220.387 133.125 221.422 132.09 221.422 130.812 c 221.422
 129.535 220.387 128.496 219.105 128.496 c 217.828 128.496 216.793 129.535
 216.793 130.812 c 216.793 132.09 217.828 133.125 219.105 133.125 c h
219.105 133.125 m f
211.93 95.547 m 213.207 95.547 214.242 94.508 214.242 93.23 c 214.242 91.953
 213.207 90.918 211.93 90.918 c 210.648 90.918 209.613 91.953 209.613 93.23
 c 209.613 94.508 210.648 95.547 211.93 95.547 c h
211.93 95.547 m f
204.188 103.285 m 205.465 103.285 206.504 102.25 206.504 100.973 c 206.504
 99.695 205.465 98.656 204.188 98.656 c 202.91 98.656 201.871 99.691 201.871
 100.973 c 201.871 102.25 202.91 103.285 204.188 103.285 c h
204.188 103.285 m f
214.242 108.152 m 214.242 109.43 213.207 110.465 211.93 110.465 c 210.648
 110.465 209.613 109.43 209.613 108.152 c 209.613 106.871 210.648 105.836
 211.93 105.836 c 213.207 105.836 214.242 106.871 214.242 108.152 c h
214.242 108.152 m f
204.188 118.207 m 205.465 118.207 206.504 117.172 206.504 115.891 c 206.504
 114.613 205.465 113.578 204.188 113.578 c 202.91 113.578 201.871 114.613
 201.871 115.891 c 201.871 117.168 202.91 118.207 204.188 118.207 c h
204.188 118.207 m f
214.242 123.07 m 214.242 124.348 213.207 125.387 211.93 125.387 c 210.648
 125.387 209.613 124.348 209.613 123.07 c 209.613 121.793 210.648 120.758
 211.93 120.758 c 213.207 120.758 214.242 121.793 214.242 123.07 c h
214.242 123.07 m f
204.188 133.125 m 205.465 133.125 206.504 132.09 206.504 130.812 c 206.504
 129.535 205.465 128.496 204.188 128.496 c 202.91 128.496 201.871 129.535
 201.871 130.812 c 201.871 132.09 202.91 133.125 204.188 133.125 c h
204.188 133.125 m f
214.242 137.992 m 214.242 139.27 213.207 140.305 211.93 140.305 c 210.648
 140.305 209.613 139.27 209.613 137.992 c 209.613 136.711 210.648 135.676
 211.93 135.676 c 213.207 135.676 214.242 136.711 214.242 137.992 c h
214.242 137.992 m f
204.188 148.047 m 205.465 148.047 206.504 147.008 206.504 145.73 c 206.504
 144.453 205.465 143.418 204.188 143.418 c 202.91 143.418 201.871 144.453
 201.871 145.73 c 201.871 147.008 202.91 148.047 204.188 148.047 c h
204.188 148.047 m f
197.008 95.547 m 198.285 95.547 199.324 94.508 199.324 93.23 c 199.324 
91.953 198.285 90.918 197.008 90.918 c 195.73 90.918 194.695 91.953 194.695
 93.23 c 194.695 94.508 195.73 95.547 197.008 95.547 c h
197.008 95.547 m f
189.297 98.562 m 190.574 98.598 191.586 99.656 191.555 100.938 c 191.52
 102.215 190.457 103.227 189.18 103.191 c 187.902 103.16 186.891 102.098
 186.926 100.82 c 186.957 99.543 188.02 98.531 189.297 98.562 c h
189.297 98.562 m f
197.008 110.465 m 198.285 110.465 199.324 109.43 199.324 108.152 c 199.324
 106.871 198.285 105.836 197.008 105.836 c 195.73 105.836 194.695 106.871
 194.695 108.152 c 194.695 109.43 195.73 110.465 197.008 110.465 c h
197.008 110.465 m f
189.27 118.207 m 190.547 118.207 191.582 117.172 191.582 115.891 c 191.582
 114.613 190.547 113.578 189.27 113.578 c 187.988 113.578 186.953 114.613
 186.953 115.891 c 186.953 117.168 187.988 118.207 189.27 118.207 c h
189.27 118.207 m f
197.008 125.387 m 198.285 125.387 199.324 124.348 199.324 123.07 c 199.324
 121.793 198.285 120.758 197.008 120.758 c 195.73 120.758 194.695 121.793
 194.695 123.07 c 194.695 124.348 195.73 125.387 197.008 125.387 c h
197.008 125.387 m f
191.633 130.793 m 191.66 132.07 190.648 133.129 189.371 133.16 c 188.094
 133.191 187.031 132.176 187.004 130.898 c 186.973 129.621 187.984 128.559
 189.266 128.531 c 190.543 128.5 191.602 129.516 191.633 130.793 c h
191.633 130.793 m f
197.008 140.305 m 198.285 140.305 199.324 139.27 199.324 137.992 c 199.324
 136.711 198.285 135.676 197.008 135.676 c 195.73 135.676 194.695 136.711
 194.695 137.992 c 194.695 139.27 195.73 140.305 197.008 140.305 c h
197.008 140.305 m f
191.633 145.715 m 191.66 146.996 190.648 148.055 189.371 148.086 c 188.094
 148.113 187.031 147.102 187.004 145.824 c 186.973 144.543 187.988 143.484
 189.266 143.457 c 190.543 143.426 191.602 144.438 191.633 145.715 c h
191.633 145.715 m f
197.008 155.223 m 198.285 155.223 199.324 154.188 199.324 152.91 c 199.324
 151.633 198.285 150.594 197.008 150.594 c 195.73 150.594 194.695 151.633
 194.695 152.91 c 194.695 154.188 195.73 155.223 197.008 155.223 c h
197.008 155.223 m f
182.09 95.547 m 183.367 95.547 184.402 94.508 184.402 93.23 c 184.402 91.953
 183.367 90.918 182.09 90.918 c 180.812 90.918 179.773 91.953 179.773 93.23
 c 179.773 94.508 180.812 95.547 182.09 95.547 c h
182.09 95.547 m f
174.348 103.285 m 175.625 103.285 176.664 102.25 176.664 100.973 c 176.664
 99.695 175.625 98.656 174.348 98.656 c 173.07 98.656 172.035 99.691 172.035
 100.973 c 172.035 102.25 173.07 103.285 174.348 103.285 c h
174.348 103.285 m f
184.402 108.152 m 184.402 109.43 183.367 110.465 182.09 110.465 c 180.809
 110.465 179.773 109.43 179.773 108.152 c 179.773 106.871 180.809 105.836
 182.09 105.836 c 183.367 105.836 184.402 106.871 184.402 108.152 c h
184.402 108.152 m f
174.348 118.207 m 175.625 118.207 176.664 117.172 176.664 115.891 c 176.664
 114.613 175.625 113.578 174.348 113.578 c 173.07 113.578 172.035 114.613
 172.035 115.891 c 172.035 117.168 173.07 118.207 174.348 118.207 c h
174.348 118.207 m f
184.402 123.07 m 184.402 124.348 183.367 125.387 182.09 125.387 c 180.809
 125.387 179.773 124.348 179.773 123.07 c 179.773 121.793 180.809 120.758
 182.09 120.758 c 183.367 120.758 184.402 121.793 184.402 123.07 c h
184.402 123.07 m f
174.348 133.125 m 175.625 133.125 176.664 132.09 176.664 130.812 c 176.664
 129.535 175.625 128.496 174.348 128.496 c 173.07 128.496 172.035 129.535
 172.035 130.812 c 172.035 132.09 173.07 133.125 174.348 133.125 c h
174.348 133.125 m f
184.402 137.992 m 184.402 139.27 183.367 140.305 182.09 140.305 c 180.809
 140.305 179.773 139.27 179.773 137.992 c 179.773 136.711 180.809 135.676
 182.09 135.676 c 183.367 135.676 184.402 136.711 184.402 137.992 c h
184.402 137.992 m f
174.348 148.047 m 175.625 148.047 176.664 147.008 176.664 145.73 c 176.664
 144.453 175.625 143.418 174.348 143.418 c 173.07 143.418 172.035 144.453
 172.035 145.73 c 172.035 147.008 173.07 148.047 174.348 148.047 c h
174.348 148.047 m f
182.09 155.223 m 183.367 155.223 184.402 154.188 184.402 152.91 c 184.402
 151.633 183.367 150.594 182.09 150.594 c 180.812 150.594 179.773 151.633
 179.773 152.91 c 179.773 154.188 180.812 155.223 182.09 155.223 c h
182.09 155.223 m f
167.168 95.547 m 168.445 95.547 169.484 94.508 169.484 93.23 c 169.484 
91.953 168.445 90.918 167.168 90.918 c 165.891 90.918 164.855 91.953 164.855
 93.23 c 164.855 94.508 165.891 95.547 167.168 95.547 c h
167.168 95.547 m f
161.742 100.973 m 161.742 102.25 160.707 103.285 159.43 103.285 c 158.148
 103.285 157.113 102.25 157.113 100.973 c 157.113 99.695 158.148 98.656 
159.43 98.656 c 160.707 98.656 161.742 99.695 161.742 100.973 c h
161.742 100.973 m f
169.484 108.152 m 169.484 109.43 168.445 110.465 167.168 110.465 c 165.891
 110.465 164.855 109.43 164.855 108.152 c 164.855 106.871 165.891 105.836
 167.168 105.836 c 168.445 105.836 169.484 106.871 169.484 108.152 c h
169.484 108.152 m f
159.43 118.207 m 160.707 118.207 161.742 117.172 161.742 115.891 c 161.742
 114.613 160.707 113.578 159.43 113.578 c 158.148 113.578 157.113 114.613
 157.113 115.891 c 157.113 117.168 158.148 118.207 159.43 118.207 c h
159.43 118.207 m f
169.484 123.07 m 169.484 124.348 168.445 125.387 167.168 125.387 c 165.891
 125.387 164.855 124.348 164.855 123.07 c 164.855 121.793 165.891 120.758
 167.168 120.758 c 168.445 120.758 169.484 121.793 169.484 123.07 c h
169.484 123.07 m f
161.742 130.812 m 161.742 132.09 160.707 133.125 159.43 133.125 c 158.148
 133.125 157.113 132.09 157.113 130.812 c 157.113 129.531 158.148 128.496
 159.43 128.496 c 160.707 128.496 161.742 129.531 161.742 130.812 c h
161.742 130.812 m f
169.484 137.992 m 169.484 139.27 168.445 140.305 167.168 140.305 c 165.891
 140.305 164.855 139.27 164.855 137.992 c 164.855 136.711 165.891 135.676
 167.168 135.676 c 168.445 135.676 169.484 136.711 169.484 137.992 c h
169.484 137.992 m f
69.91 103.285 m 71.188 103.285 72.227 102.25 72.227 100.973 c 72.227 99.695
 71.188 98.656 69.91 98.656 c 68.633 98.656 67.598 99.691 67.598 100.973
 c 67.598 102.25 68.633 103.285 69.91 103.285 c h
69.91 103.285 m f
69.91 118.207 m 71.188 118.207 72.227 117.172 72.227 115.891 c 72.227 114.613
 71.188 113.578 69.91 113.578 c 68.633 113.578 67.598 114.613 67.598 115.891
 c 67.598 117.168 68.633 118.207 69.91 118.207 c h
69.91 118.207 m f
69.91 133.125 m 71.188 133.125 72.227 132.09 72.227 130.812 c 72.227 129.535
 71.188 128.496 69.91 128.496 c 68.633 128.496 67.598 129.535 67.598 130.812
 c 67.598 132.09 68.633 133.125 69.91 133.125 c h
69.91 133.125 m f
62.73 90.918 m 61.453 90.918 60.418 91.953 60.418 93.23 c 60.418 94.508
 61.453 95.547 62.73 95.547 c 64.008 95.547 65.047 94.508 65.047 93.23 c
 65.047 91.953 64.008 90.918 62.73 90.918 c h
62.73 90.918 m f
54.992 103.285 m 56.27 103.285 57.305 102.25 57.305 100.973 c 57.305 99.695
 56.27 98.656 54.992 98.656 c 53.711 98.656 52.676 99.691 52.676 100.973
 c 52.676 102.25 53.711 103.285 54.992 103.285 c h
54.992 103.285 m f
65.047 108.152 m 65.047 109.43 64.008 110.465 62.73 110.465 c 61.453 110.465
 60.418 109.43 60.418 108.152 c 60.418 106.871 61.453 105.836 62.73 105.836
 c 64.008 105.836 65.047 106.871 65.047 108.152 c h
65.047 108.152 m f
54.992 118.207 m 56.27 118.207 57.305 117.172 57.305 115.891 c 57.305 114.613
 56.27 113.578 54.992 113.578 c 53.711 113.578 52.676 114.613 52.676 115.891
 c 52.676 117.168 53.711 118.207 54.992 118.207 c h
54.992 118.207 m f
65.047 123.07 m 65.047 124.348 64.008 125.387 62.73 125.387 c 61.453 125.387
 60.418 124.348 60.418 123.07 c 60.418 121.793 61.453 120.758 62.73 120.758
 c 64.008 120.758 65.047 121.793 65.047 123.07 c h
65.047 123.07 m f
54.992 133.125 m 56.27 133.125 57.305 132.09 57.305 130.812 c 57.305 129.535
 56.27 128.496 54.992 128.496 c 53.711 128.496 52.676 129.535 52.676 130.812
 c 52.676 132.09 53.711 133.125 54.992 133.125 c h
54.992 133.125 m f
65.047 137.992 m 65.047 139.27 64.008 140.305 62.73 140.305 c 61.453 140.305
 60.418 139.27 60.418 137.992 c 60.418 136.711 61.453 135.676 62.73 135.676
 c 64.008 135.676 65.047 136.711 65.047 137.992 c h
65.047 137.992 m f
54.992 148.047 m 56.27 148.047 57.305 147.008 57.305 145.73 c 57.305 144.453
 56.27 143.418 54.992 143.418 c 53.711 143.418 52.676 144.453 52.676 145.73
 c 52.676 147.008 53.711 148.047 54.992 148.047 c h
54.992 148.047 m f
47.812 95.547 m 49.09 95.547 50.125 94.508 50.125 93.23 c 50.125 91.953
 49.09 90.918 47.812 90.918 c 46.535 90.918 45.496 91.953 45.496 93.23 c
 45.496 94.508 46.535 95.547 47.812 95.547 c h
47.812 95.547 m f
40.07 103.285 m 41.348 103.285 42.387 102.25 42.387 100.973 c 42.387 99.695
 41.348 98.656 40.07 98.656 c 38.793 98.656 37.758 99.691 37.758 100.973
 c 37.758 102.25 38.793 103.285 40.07 103.285 c h
40.07 103.285 m f
50.125 108.152 m 50.125 109.43 49.09 110.465 47.812 110.465 c 46.535 110.465
 45.496 109.43 45.496 108.152 c 45.496 106.871 46.535 105.836 47.812 105.836
 c 49.09 105.836 50.125 106.871 50.125 108.152 c h
50.125 108.152 m f
40.07 118.207 m 41.348 118.207 42.387 117.172 42.387 115.891 c 42.387 114.613
 41.348 113.578 40.07 113.578 c 38.793 113.578 37.758 114.613 37.758 115.891
 c 37.758 117.168 38.793 118.207 40.07 118.207 c h
40.07 118.207 m f
50.125 123.07 m 50.125 124.348 49.09 125.387 47.812 125.387 c 46.535 125.387
 45.496 124.348 45.496 123.07 c 45.496 121.793 46.535 120.758 47.812 120.758
 c 49.09 120.758 50.125 121.793 50.125 123.07 c h
50.125 123.07 m f
40.07 133.125 m 41.348 133.125 42.387 132.09 42.387 130.812 c 42.387 129.535
 41.348 128.496 40.07 128.496 c 38.793 128.496 37.758 129.535 37.758 130.812
 c 37.758 132.09 38.793 133.125 40.07 133.125 c h
40.07 133.125 m f
50.125 137.992 m 50.125 139.27 49.09 140.305 47.812 140.305 c 46.535 140.305
 45.496 139.27 45.496 137.992 c 45.496 136.711 46.535 135.676 47.812 135.676
 c 49.09 135.676 50.125 136.711 50.125 137.992 c h
50.125 137.992 m f
40.07 148.047 m 41.348 148.047 42.387 147.008 42.387 145.73 c 42.387 144.453
 41.348 143.418 40.07 143.418 c 38.793 143.418 37.758 144.453 37.758 145.73
 c 37.758 147.008 38.793 148.047 40.07 148.047 c h
40.07 148.047 m f
47.812 155.223 m 49.09 155.223 50.125 154.188 50.125 152.91 c 50.125 151.633
 49.09 150.594 47.812 150.594 c 46.535 150.594 45.496 151.633 45.496 152.91
 c 45.496 154.188 46.535 155.223 47.812 155.223 c h
47.812 155.223 m f
32.891 95.547 m 34.172 95.547 35.207 94.508 35.207 93.23 c 35.207 91.953
 34.172 90.918 32.891 90.918 c 31.613 90.918 30.578 91.953 30.578 93.23 
c 30.578 94.508 31.613 95.547 32.891 95.547 c h
32.891 95.547 m f
27.465 100.973 m 27.465 102.25 26.43 103.285 25.152 103.285 c 23.871 103.285
 22.836 102.25 22.836 100.973 c 22.836 99.695 23.871 98.656 25.152 98.656
 c 26.43 98.656 27.465 99.695 27.465 100.973 c h
27.465 100.973 m f
35.207 108.152 m 35.207 109.43 34.172 110.465 32.891 110.465 c 31.613 110.465
 30.578 109.43 30.578 108.152 c 30.578 106.871 31.613 105.836 32.891 105.836
 c 34.172 105.836 35.207 106.871 35.207 108.152 c h
35.207 108.152 m f
25.152 118.207 m 26.43 118.207 27.465 117.172 27.465 115.891 c 27.465 114.613
 26.43 113.578 25.152 113.578 c 23.871 113.578 22.836 114.613 22.836 115.891
 c 22.836 117.168 23.875 118.207 25.152 118.207 c h
25.152 118.207 m f
35.207 123.07 m 35.207 124.348 34.172 125.387 32.891 125.387 c 31.613 125.387
 30.578 124.348 30.578 123.07 c 30.578 121.793 31.613 120.758 32.891 120.758
 c 34.172 120.758 35.207 121.793 35.207 123.07 c h
35.207 123.07 m f
27.465 130.812 m 27.465 132.09 26.43 133.125 25.152 133.125 c 23.871 133.125
 22.836 132.09 22.836 130.812 c 22.836 129.531 23.871 128.496 25.152 128.496
 c 26.43 128.496 27.465 129.531 27.465 130.812 c h
27.465 130.812 m f
35.207 137.992 m 35.207 139.27 34.172 140.305 32.891 140.305 c 31.613 140.305
 30.578 139.27 30.578 137.992 c 30.578 136.711 31.613 135.676 32.891 135.676
 c 34.172 135.676 35.207 136.711 35.207 137.992 c h
35.207 137.992 m f
27.465 145.73 m 27.465 147.008 26.43 148.047 25.152 148.047 c 23.871 148.047
 22.836 147.008 22.836 145.73 c 22.836 144.453 23.871 143.418 25.152 143.418
 c 26.43 143.418 27.465 144.453 27.465 145.73 c h
27.465 145.73 m f
32.891 155.223 m 34.172 155.223 35.207 154.188 35.207 152.91 c 35.207 151.633
 34.172 150.594 32.891 150.594 c 31.613 150.594 30.578 151.633 30.578 152.91
 c 30.578 154.188 31.613 155.223 32.891 155.223 c h
32.891 155.223 m f
17.973 95.547 m 19.25 95.547 20.285 94.508 20.285 93.23 c 20.285 91.953
 19.25 90.918 17.973 90.918 c 16.695 90.918 15.656 91.953 15.656 93.23 c
 15.66 94.508 16.695 95.547 17.973 95.547 c h
17.973 95.547 m f
12.516 100.969 m 12.52 102.246 11.488 103.285 10.207 103.293 c 8.93 103.297
 7.891 102.266 7.887 100.984 c 7.879 99.707 8.914 98.668 10.191 98.66 c 
11.469 98.656 12.508 99.688 12.516 100.969 c h
12.516 100.969 m f
17.973 110.465 m 19.25 110.465 20.285 109.43 20.285 108.152 c 20.285 106.871
 19.25 105.836 17.973 105.836 c 16.695 105.836 15.656 106.871 15.656 108.152
 c 15.66 109.43 16.695 110.465 17.973 110.465 c h
17.973 110.465 m f
10.23 118.207 m 11.512 118.207 12.547 117.172 12.547 115.891 c 12.547 114.613
 11.512 113.578 10.23 113.578 c 8.953 113.578 7.918 114.613 7.918 115.891
 c 7.918 117.168 8.953 118.207 10.23 118.207 c h
10.23 118.207 m f
17.973 125.387 m 19.25 125.387 20.285 124.348 20.285 123.07 c 20.285 121.793
 19.25 120.758 17.973 120.758 c 16.695 120.758 15.656 121.793 15.656 123.07
 c 15.66 124.348 16.695 125.387 17.973 125.387 c h
17.973 125.387 m f
10.238 128.445 m 11.516 128.449 12.547 129.492 12.543 130.77 c 12.539 132.047
 11.496 133.078 10.219 133.074 c 8.941 133.07 7.91 132.027 7.914 130.75 
c 7.918 129.473 8.961 128.441 10.238 128.445 c h
10.238 128.445 m f
17.973 140.305 m 19.25 140.305 20.285 139.27 20.285 137.992 c 20.285 136.711
 19.25 135.676 17.973 135.676 c 16.695 135.676 15.656 136.711 15.656 137.992
 c 15.66 139.27 16.695 140.305 17.973 140.305 c h
17.973 140.305 m f
0.917647 0.658824 0.584314 rg
142.934 96.438 m 144.211 96.438 145.246 95.398 145.246 94.121 c 145.246
 92.844 144.211 91.805 142.934 91.805 c 141.652 91.805 140.617 92.844 140.617
 94.121 c 140.617 95.398 141.656 96.438 142.934 96.438 c h
142.934 96.438 m f
150.676 103.617 m 151.953 103.617 152.992 102.582 152.992 101.301 c 152.992
 100.023 151.953 98.988 150.676 98.988 c 149.398 98.988 148.359 100.023 
148.359 101.301 c 148.359 102.582 149.398 103.617 150.676 103.617 c h
150.676 103.617 m f
142.934 111.359 m 144.211 111.359 145.246 110.324 145.246 109.047 c 145.246
 107.766 144.211 106.73 142.934 106.73 c 141.652 106.73 140.617 107.766 
140.617 109.047 c 140.617 110.324 141.656 111.359 142.934 111.359 c h
142.934 111.359 m f
150.672 113.875 m 151.949 113.887 152.977 114.938 152.961 116.215 c 152.949
 117.492 151.898 118.52 150.621 118.504 c 149.344 118.488 148.316 117.441
 148.332 116.164 c 148.344 114.887 149.395 113.859 150.672 113.875 c h
150.672 113.875 m f
142.934 126.285 m 144.211 126.285 145.246 125.246 145.246 123.969 c 145.246
 122.691 144.211 121.656 142.934 121.656 c 141.652 121.656 140.617 122.691
 140.617 123.969 c 140.617 125.246 141.656 126.285 142.934 126.285 c h
142.934 126.285 m f
150.676 128.836 m 149.398 128.836 148.359 129.871 148.359 131.148 c 148.359
 132.43 149.398 133.465 150.676 133.465 c 151.066 133.465 151.426 133.359
 151.75 133.191 c 152.125 132.191 152.453 131.172 152.746 130.133 c 152.371
 129.367 151.59 128.836 150.676 128.836 c h
150.676 128.836 m f
142.934 141.207 m 144.211 141.207 145.246 140.172 145.246 138.895 c 145.246
 137.613 144.211 136.578 142.934 136.578 c 141.652 136.578 140.617 137.613
 140.617 138.895 c 140.617 140.172 141.656 141.207 142.934 141.207 c h
142.934 141.207 m f
128.008 96.438 m 129.289 96.438 130.324 95.398 130.324 94.121 c 130.324
 92.844 129.289 91.805 128.008 91.805 c 126.73 91.805 125.695 92.844 125.695
 94.121 c 125.695 95.398 126.73 96.438 128.008 96.438 c h
128.008 96.438 m f
135.754 103.617 m 137.031 103.617 138.066 102.582 138.066 101.301 c 138.066
 100.023 137.031 98.988 135.754 98.988 c 134.473 98.988 133.438 100.023 
133.438 101.301 c 133.438 102.582 134.473 103.617 135.754 103.617 c h
135.754 103.617 m f
128.008 111.359 m 129.289 111.359 130.324 110.324 130.324 109.047 c 130.324
 107.766 129.289 106.73 128.008 106.73 c 126.73 106.73 125.695 107.766 125.695
 109.047 c 125.695 110.324 126.73 111.359 128.008 111.359 c h
128.008 111.359 m f
135.754 118.543 m 137.031 118.543 138.066 117.504 138.066 116.227 c 138.066
 114.949 137.031 113.91 135.754 113.91 c 134.473 113.91 133.438 114.949 
133.438 116.227 c 133.438 117.504 134.473 118.543 135.754 118.543 c h
135.754 118.543 m f
128.008 126.285 m 129.289 126.285 130.324 125.246 130.324 123.969 c 130.324
 122.691 129.289 121.656 128.008 121.656 c 126.73 121.656 125.695 122.691
 125.695 123.969 c 125.695 125.246 126.73 126.285 128.008 126.285 c h
128.008 126.285 m f
135.754 133.465 m 137.031 133.465 138.066 132.43 138.066 131.148 c 138.066
 129.871 137.031 128.836 135.754 128.836 c 134.473 128.836 133.438 129.871
 133.438 131.148 c 133.438 132.43 134.473 133.465 135.754 133.465 c h
135.754 133.465 m f
128.008 141.207 m 129.289 141.207 130.324 140.172 130.324 138.895 c 130.324
 137.613 129.289 136.578 128.008 136.578 c 126.73 136.578 125.695 137.613
 125.695 138.895 c 125.695 140.172 126.73 141.207 128.008 141.207 c h
128.008 141.207 m f
135.754 148.391 m 137.031 148.391 138.066 147.352 138.066 146.074 c 138.066
 144.797 137.031 143.762 135.754 143.762 c 134.473 143.762 133.438 144.797
 133.438 146.074 c 133.438 147.352 134.473 148.391 135.754 148.391 c h
135.754 148.391 m f
128.008 151.504 m 126.73 151.504 125.695 152.539 125.695 153.816 c 125.695
 154.879 126.41 155.762 127.383 156.035 c 128.227 155.781 129.055 155.492
 129.871 155.18 c 130.152 154.797 130.324 154.328 130.324 153.816 c 130.324
 152.539 129.289 151.504 128.008 151.504 c h
128.008 151.504 m f
113.086 91.809 m 111.805 91.809 110.77 92.844 110.77 94.121 c 110.77 95.402
 111.805 96.438 113.086 96.438 c 114.363 96.438 115.398 95.402 115.398 94.121
 c 115.398 92.844 114.363 91.809 113.086 91.809 c h
113.086 91.809 m f
120.828 103.617 m 122.105 103.617 123.145 102.582 123.145 101.301 c 123.145
 100.023 122.105 98.988 120.828 98.988 c 119.551 98.988 118.512 100.023 
118.512 101.301 c 118.512 102.582 119.551 103.617 120.828 103.617 c h
120.828 103.617 m f
113.086 111.359 m 114.363 111.359 115.398 110.324 115.398 109.047 c 115.398
 107.766 114.363 106.73 113.086 106.73 c 111.805 106.73 110.77 107.766 110.77
 109.047 c 110.77 110.324 111.805 111.359 113.086 111.359 c h
113.086 111.359 m f
123.145 116.227 m 123.145 117.504 122.105 118.543 120.828 118.543 c 119.551
 118.543 118.512 117.504 118.512 116.227 c 118.512 114.949 119.551 113.91
 120.828 113.91 c 122.105 113.91 123.145 114.949 123.145 116.227 c h
123.145 116.227 m f
113.086 126.285 m 114.363 126.285 115.398 125.246 115.398 123.969 c 115.398
 122.691 114.363 121.656 113.086 121.656 c 111.805 121.656 110.77 122.691
 110.77 123.969 c 110.77 125.246 111.805 126.285 113.086 126.285 c h
113.086 126.285 m f
120.828 133.465 m 122.105 133.465 123.145 132.43 123.145 131.148 c 123.145
 129.871 122.105 128.836 120.828 128.836 c 119.551 128.836 118.512 129.871
 118.512 131.148 c 118.512 132.43 119.551 133.465 120.828 133.465 c h
120.828 133.465 m f
113.086 141.207 m 114.363 141.207 115.398 140.172 115.398 138.895 c 115.398
 137.613 114.363 136.578 113.086 136.578 c 111.805 136.578 110.77 137.613
 110.77 138.895 c 110.77 140.172 111.805 141.207 113.086 141.207 c h
113.086 141.207 m f
120.828 148.391 m 122.105 148.391 123.145 147.352 123.145 146.074 c 123.145
 144.797 122.105 143.762 120.828 143.762 c 119.551 143.762 118.512 144.797
 118.512 146.074 c 118.512 147.352 119.551 148.391 120.828 148.391 c h
120.828 148.391 m f
113.086 156.133 m 114.363 156.133 115.398 155.098 115.398 153.816 c 115.398
 152.539 114.363 151.504 113.086 151.504 c 111.805 151.504 110.77 152.539
 110.77 153.816 c 110.77 155.098 111.805 156.133 113.086 156.133 c h
113.086 156.133 m f
98.16 96.438 m 99.441 96.438 100.477 95.398 100.477 94.121 c 100.477 92.844
 99.441 91.805 98.16 91.805 c 96.883 91.805 95.844 92.844 95.844 94.121 
c 95.848 95.398 96.883 96.438 98.16 96.438 c h
98.16 96.438 m f
105.902 103.617 m 107.184 103.617 108.219 102.582 108.219 101.301 c 108.219
 100.023 107.184 98.988 105.902 98.988 c 104.625 98.988 103.59 100.023 103.59
 101.301 c 103.59 102.582 104.625 103.617 105.902 103.617 c h
105.902 103.617 m f
98.16 111.359 m 99.441 111.359 100.477 110.324 100.477 109.047 c 100.477
 107.766 99.441 106.73 98.16 106.73 c 96.883 106.73 95.844 107.766 95.844
 109.047 c 95.848 110.324 96.883 111.359 98.16 111.359 c h
98.16 111.359 m f
105.902 118.543 m 107.184 118.543 108.219 117.504 108.219 116.227 c 108.219
 114.949 107.184 113.91 105.902 113.91 c 104.625 113.91 103.59 114.949 103.59
 116.227 c 103.59 117.504 104.625 118.543 105.902 118.543 c h
105.902 118.543 m f
98.16 126.285 m 99.441 126.285 100.477 125.246 100.477 123.969 c 100.477
 122.691 99.441 121.656 98.16 121.656 c 96.883 121.656 95.844 122.691 95.844
 123.969 c 95.848 125.246 96.883 126.285 98.16 126.285 c h
98.16 126.285 m f
105.902 133.465 m 107.184 133.465 108.219 132.43 108.219 131.148 c 108.219
 129.871 107.184 128.836 105.902 128.836 c 104.625 128.836 103.59 129.871
 103.59 131.148 c 103.59 132.43 104.625 133.465 105.902 133.465 c h
105.902 133.465 m f
98.16 141.207 m 99.441 141.207 100.477 140.172 100.477 138.895 c 100.477
 137.613 99.441 136.578 98.16 136.578 c 96.883 136.578 95.844 137.613 95.844
 138.895 c 95.848 140.172 96.883 141.207 98.16 141.207 c h
98.16 141.207 m f
105.902 148.391 m 107.184 148.391 108.219 147.352 108.219 146.074 c 108.219
 144.797 107.184 143.762 105.902 143.762 c 104.625 143.762 103.59 144.797
 103.59 146.074 c 103.59 147.352 104.625 148.391 105.902 148.391 c h
105.902 148.391 m f
83.238 96.438 m 84.516 96.438 85.551 95.398 85.551 94.121 c 85.551 92.844
 84.516 91.805 83.238 91.805 c 81.957 91.805 80.922 92.844 80.922 94.121
 c 80.922 95.398 81.957 96.438 83.238 96.438 c h
83.238 96.438 m f
90.98 103.617 m 92.258 103.617 93.293 102.582 93.293 101.301 c 93.293 100.023
 92.258 98.988 90.98 98.988 c 89.699 98.988 88.664 100.023 88.664 101.301
 c 88.664 102.582 89.703 103.617 90.98 103.617 c h
90.98 103.617 m f
83.238 111.359 m 84.516 111.359 85.551 110.324 85.551 109.047 c 85.551 
107.766 84.516 106.73 83.238 106.73 c 81.957 106.73 80.922 107.766 80.922
 109.047 c 80.922 110.324 81.957 111.359 83.238 111.359 c h
83.238 111.359 m f
90.965 113.859 m 92.242 113.867 93.27 114.914 93.262 116.191 c 93.25 117.469
 92.203 118.5 90.926 118.488 c 89.648 118.477 88.617 117.434 88.629 116.156
 c 88.641 114.875 89.684 113.848 90.965 113.859 c h
90.965 113.859 m f
83.238 126.285 m 84.516 126.285 85.551 125.246 85.551 123.969 c 85.551 
122.691 84.516 121.656 83.238 121.656 c 81.957 121.656 80.922 122.691 80.922
 123.969 c 80.922 125.246 81.957 126.285 83.238 126.285 c h
83.238 126.285 m f
90.98 133.465 m 92.258 133.465 93.293 132.43 93.293 131.148 c 93.293 129.871
 92.258 128.836 90.98 128.836 c 89.699 128.836 88.664 129.871 88.664 131.148
 c 88.664 132.43 89.703 133.465 90.98 133.465 c h
90.98 133.465 m f
292.172 91.809 m 290.895 91.809 289.859 92.844 289.859 94.121 c 289.859
 95.402 290.895 96.438 292.172 96.438 c 293.453 96.438 294.488 95.402 294.488
 94.121 c 294.488 92.844 293.453 91.809 292.172 91.809 c h
292.172 91.809 m f
299.918 98.988 m 298.637 98.988 297.602 100.023 297.602 101.301 c 297.602
 102.582 298.637 103.617 299.918 103.617 c 301.195 103.617 302.23 102.582
 302.23 101.301 c 302.23 100.023 301.195 98.988 299.918 98.988 c h
299.918 98.988 m f
292.172 111.359 m 293.453 111.359 294.488 110.324 294.488 109.047 c 294.488
 107.766 293.453 106.73 292.172 106.73 c 290.895 106.73 289.859 107.766 
289.859 109.047 c 289.859 110.324 290.895 111.359 292.172 111.359 c h
292.172 111.359 m f
299.918 113.91 m 298.637 113.91 297.602 114.949 297.602 116.227 c 297.602
 117.504 298.637 118.543 299.918 118.543 c 301.195 118.543 302.23 117.504
 302.23 116.227 c 302.23 114.949 301.195 113.91 299.918 113.91 c h
299.918 113.91 m f
292.172 126.285 m 293.453 126.285 294.488 125.246 294.488 123.969 c 294.488
 122.691 293.453 121.656 292.172 121.656 c 290.895 121.656 289.859 122.691
 289.859 123.969 c 289.859 125.246 290.895 126.285 292.172 126.285 c h
292.172 126.285 m f
299.918 133.465 m 301.195 133.465 302.23 132.43 302.23 131.148 c 302.23
 129.871 301.195 128.836 299.918 128.836 c 298.637 128.836 297.602 129.871
 297.602 131.148 c 297.602 132.43 298.637 133.465 299.918 133.465 c h
299.918 133.465 m f
292.172 141.207 m 293.453 141.207 294.488 140.172 294.488 138.895 c 294.488
 137.613 293.453 136.578 292.172 136.578 c 290.895 136.578 289.859 137.613
 289.859 138.895 c 289.859 140.172 290.895 141.207 292.172 141.207 c h
292.172 141.207 m f
277.25 96.438 m 278.527 96.438 279.566 95.398 279.566 94.121 c 279.566 
92.844 278.527 91.805 277.25 91.805 c 275.973 91.805 274.934 92.844 274.934
 94.121 c 274.934 95.398 275.973 96.438 277.25 96.438 c h
277.25 96.438 m f
284.992 103.617 m 286.27 103.617 287.309 102.582 287.309 101.301 c 287.309
 100.023 286.27 98.988 284.992 98.988 c 283.715 98.988 282.676 100.023 282.676
 101.301 c 282.676 102.582 283.715 103.617 284.992 103.617 c h
284.992 103.617 m f
277.25 111.359 m 278.527 111.359 279.566 110.324 279.566 109.047 c 279.566
 107.766 278.527 106.73 277.25 106.73 c 275.973 106.73 274.934 107.766 274.934
 109.047 c 274.934 110.324 275.973 111.359 277.25 111.359 c h
277.25 111.359 m f
287.309 116.227 m 287.309 117.504 286.27 118.543 284.992 118.543 c 283.715
 118.543 282.676 117.504 282.676 116.227 c 282.676 114.949 283.715 113.91
 284.992 113.91 c 286.27 113.91 287.309 114.949 287.309 116.227 c h
287.309 116.227 m f
277.25 126.285 m 278.527 126.285 279.566 125.246 279.566 123.969 c 279.566
 122.691 278.527 121.656 277.25 121.656 c 275.973 121.656 274.934 122.691
 274.934 123.969 c 274.934 125.246 275.973 126.285 277.25 126.285 c h
277.25 126.285 m f
284.992 133.465 m 286.27 133.465 287.309 132.43 287.309 131.148 c 287.309
 129.871 286.27 128.836 284.992 128.836 c 283.715 128.836 282.676 129.871
 282.676 131.148 c 282.676 132.43 283.715 133.465 284.992 133.465 c h
284.992 133.465 m f
277.25 141.207 m 278.527 141.207 279.566 140.172 279.566 138.895 c 279.566
 137.613 278.527 136.578 277.25 136.578 c 275.973 136.578 274.934 137.613
 274.934 138.895 c 274.934 140.172 275.973 141.207 277.25 141.207 c h
277.25 141.207 m f
284.992 148.391 m 286.27 148.391 287.309 147.352 287.309 146.074 c 287.309
 144.797 286.27 143.762 284.992 143.762 c 283.715 143.762 282.676 144.797
 282.676 146.074 c 282.676 147.352 283.715 148.391 284.992 148.391 c h
284.992 148.391 m f
277.25 156.133 m 278.527 156.133 279.566 155.098 279.566 153.816 c 279.566
 152.539 278.527 151.504 277.25 151.504 c 275.973 151.504 274.934 152.539
 274.934 153.816 c 274.934 155.098 275.973 156.133 277.25 156.133 c h
277.25 156.133 m f
262.324 91.809 m 261.047 91.809 260.012 92.844 260.012 94.121 c 260.012
 95.402 261.047 96.438 262.324 96.438 c 263.605 96.438 264.641 95.402 264.641
 94.121 c 264.641 92.844 263.605 91.809 262.324 91.809 c h
262.324 91.809 m f
270.066 103.617 m 271.348 103.617 272.383 102.582 272.383 101.301 c 272.383
 100.023 271.348 98.988 270.066 98.988 c 268.789 98.988 267.754 100.023 
267.754 101.301 c 267.754 102.582 268.789 103.617 270.066 103.617 c h
270.066 103.617 m f
262.324 111.359 m 263.605 111.359 264.641 110.324 264.641 109.047 c 264.641
 107.766 263.602 106.73 262.324 106.73 c 261.047 106.73 260.012 107.766 
260.012 109.047 c 260.012 110.324 261.047 111.359 262.324 111.359 c h
262.324 111.359 m f
270.066 118.543 m 271.348 118.543 272.383 117.504 272.383 116.227 c 272.383
 114.949 271.348 113.91 270.066 113.91 c 268.789 113.91 267.754 114.949 
267.754 116.227 c 267.754 117.504 268.789 118.543 270.066 118.543 c h
270.066 118.543 m f
262.324 126.285 m 263.605 126.285 264.641 125.246 264.641 123.969 c 264.641
 122.691 263.602 121.656 262.324 121.656 c 261.047 121.656 260.012 122.691
 260.012 123.969 c 260.012 125.246 261.047 126.285 262.324 126.285 c h
262.324 126.285 m f
270.066 133.465 m 271.348 133.465 272.383 132.43 272.383 131.148 c 272.383
 129.871 271.348 128.836 270.066 128.836 c 268.789 128.836 267.754 129.871
 267.754 131.148 c 267.754 132.43 268.789 133.465 270.066 133.465 c h
270.066 133.465 m f
262.324 141.207 m 263.605 141.207 264.641 140.172 264.641 138.895 c 264.641
 137.613 263.602 136.578 262.324 136.578 c 261.047 136.578 260.012 137.613
 260.012 138.895 c 260.012 140.172 261.047 141.207 262.324 141.207 c h
262.324 141.207 m f
270.066 148.391 m 271.348 148.391 272.383 147.352 272.383 146.074 c 272.383
 144.797 271.348 143.762 270.066 143.762 c 268.789 143.762 267.754 144.797
 267.754 146.074 c 267.754 147.352 268.789 148.391 270.066 148.391 c h
270.066 148.391 m f
262.324 156.133 m 263.605 156.133 264.641 155.098 264.641 153.816 c 264.641
 152.539 263.602 151.504 262.324 151.504 c 261.047 151.504 260.012 152.539
 260.012 153.816 c 260.012 155.098 261.047 156.133 262.324 156.133 c h
262.324 156.133 m f
247.402 96.438 m 248.68 96.438 249.719 95.398 249.719 94.121 c 249.719 
92.844 248.68 91.805 247.402 91.805 c 246.121 91.805 245.086 92.844 245.086
 94.121 c 245.086 95.398 246.121 96.438 247.402 96.438 c h
247.402 96.438 m f
255.145 103.617 m 256.422 103.617 257.461 102.582 257.461 101.301 c 257.461
 100.023 256.422 98.988 255.145 98.988 c 253.867 98.988 252.828 100.023 
252.828 101.301 c 252.828 102.582 253.867 103.617 255.145 103.617 c h
255.145 103.617 m f
247.402 111.359 m 248.68 111.359 249.719 110.324 249.719 109.047 c 249.719
 107.766 248.68 106.73 247.402 106.73 c 246.121 106.73 245.086 107.766 245.086
 109.047 c 245.086 110.324 246.121 111.359 247.402 111.359 c h
247.402 111.359 m f
255.109 113.848 m 256.387 113.867 257.41 114.918 257.391 116.195 c 257.375
 117.477 256.324 118.496 255.043 118.48 c 253.766 118.461 252.742 117.41
 252.762 116.133 c 252.781 114.852 253.832 113.832 255.109 113.848 c h
255.109 113.848 m f
247.402 126.285 m 248.68 126.285 249.719 125.246 249.719 123.969 c 249.719
 122.691 248.68 121.656 247.402 121.656 c 246.121 121.656 245.086 122.691
 245.086 123.969 c 245.086 125.246 246.121 126.285 247.402 126.285 c h
247.402 126.285 m f
255.145 133.465 m 256.422 133.465 257.461 132.43 257.461 131.148 c 257.461
 129.871 256.422 128.836 255.145 128.836 c 253.867 128.836 252.828 129.871
 252.828 131.148 c 252.828 132.43 253.867 133.465 255.145 133.465 c h
255.145 133.465 m f
247.402 141.207 m 248.68 141.207 249.719 140.172 249.719 138.895 c 249.719
 137.613 248.68 136.578 247.402 136.578 c 246.121 136.578 245.086 137.613
 245.086 138.895 c 245.086 140.172 246.121 141.207 247.402 141.207 c h
247.402 141.207 m f
255.145 148.391 m 256.422 148.391 257.461 147.352 257.461 146.074 c 257.461
 144.797 256.422 143.762 255.145 143.762 c 253.867 143.762 252.828 144.797
 252.828 146.074 c 252.828 147.352 253.867 148.391 255.145 148.391 c h
255.145 148.391 m f
234.793 94.121 m 234.793 95.398 233.758 96.438 232.477 96.438 c 231.199
 96.438 230.164 95.398 230.164 94.121 c 230.164 92.844 231.199 91.805 232.477
 91.805 c 233.758 91.805 234.793 92.844 234.793 94.121 c h
234.793 94.121 m f
240.219 103.617 m 241.5 103.617 242.535 102.582 242.535 101.301 c 242.535
 100.023 241.5 98.988 240.219 98.988 c 238.941 98.988 237.906 100.023 237.906
 101.301 c 237.906 102.582 238.941 103.617 240.219 103.617 c h
240.219 103.617 m f
232.477 111.359 m 233.758 111.359 234.793 110.324 234.793 109.047 c 234.793
 107.766 233.758 106.73 232.477 106.73 c 231.199 106.73 230.164 107.766 
230.164 109.047 c 230.164 110.324 231.199 111.359 232.477 111.359 c h
232.477 111.359 m f
240.219 118.543 m 241.5 118.543 242.535 117.504 242.535 116.227 c 242.535
 114.949 241.5 113.91 240.219 113.91 c 238.941 113.91 237.906 114.949 237.906
 116.227 c 237.906 117.504 238.941 118.543 240.219 118.543 c h
240.219 118.543 m f
232.477 126.285 m 233.758 126.285 234.793 125.246 234.793 123.969 c 234.793
 122.691 233.758 121.656 232.477 121.656 c 231.199 121.656 230.164 122.691
 230.164 123.969 c 230.164 125.246 231.199 126.285 232.477 126.285 c h
232.477 126.285 m f
240.219 133.465 m 241.5 133.465 242.535 132.43 242.535 131.148 c 242.535
 129.871 241.5 128.836 240.219 128.836 c 238.941 128.836 237.906 129.871
 237.906 131.148 c 237.906 132.43 238.941 133.465 240.219 133.465 c h
240.219 133.465 m f
0.976471 0.984314 0.988235 rg
353.383 158.336 m 352.105 158.336 351.07 159.371 351.07 160.652 c 351.07
 161.93 352.105 162.965 353.383 162.965 c 354.66 162.965 355.699 161.93 
355.699 160.652 c 355.699 159.371 354.664 158.336 353.383 158.336 c h
353.383 158.336 m f
361.125 165.516 m 359.848 165.516 358.809 166.551 358.809 167.828 c 358.809
 169.109 359.848 170.145 361.125 170.145 c 362.402 170.145 363.438 169.109
 363.438 167.828 c 363.438 166.551 362.402 165.516 361.125 165.516 c h
361.125 165.516 m f
353.383 173.258 m 352.105 173.258 351.07 174.293 351.07 175.57 c 351.07
 176.848 352.105 177.883 353.383 177.883 c 354.66 177.883 355.699 176.848
 355.699 175.57 c 355.699 174.293 354.664 173.258 353.383 173.258 c h
353.383 173.258 m f
363.438 182.75 m 363.438 184.027 362.402 185.062 361.125 185.062 c 359.848
 185.062 358.809 184.027 358.809 182.75 c 358.809 181.473 359.848 180.434
 361.125 180.434 c 362.402 180.434 363.438 181.473 363.438 182.75 c h
363.438 182.75 m f
353.383 188.176 m 352.105 188.176 351.07 189.211 351.07 190.492 c 351.07
 191.77 352.105 192.805 353.383 192.805 c 354.66 192.805 355.699 191.77 
355.699 190.492 c 355.699 189.211 354.664 188.176 353.383 188.176 c h
353.383 188.176 m f
361.125 195.355 m 359.848 195.355 358.809 196.391 358.809 197.668 c 358.809
 198.945 359.848 199.984 361.125 199.984 c 362.402 199.984 363.438 198.945
 363.438 197.668 c 363.438 196.391 362.402 195.355 361.125 195.355 c h
361.125 195.355 m f
353.383 203.094 m 352.105 203.094 351.07 204.133 351.07 205.41 c 351.07
 206.688 352.105 207.723 353.383 207.723 c 354.66 207.723 355.699 206.688
 355.699 205.41 c 355.699 204.133 354.664 203.094 353.383 203.094 c h
353.383 203.094 m f
363.438 212.59 m 363.438 213.867 362.402 214.902 361.125 214.902 c 359.848
 214.902 358.809 213.867 358.809 212.59 c 358.809 211.309 359.848 210.273
 361.125 210.273 c 362.402 210.273 363.438 211.309 363.438 212.59 c h
363.438 212.59 m f
353.383 218.016 m 352.105 218.016 351.07 219.051 351.07 220.328 c 351.07
 221.609 352.105 222.645 353.383 222.645 c 354.66 222.645 355.699 221.609
 355.699 220.328 c 355.699 219.051 354.664 218.016 353.383 218.016 c h
353.383 218.016 m f
363.438 227.508 m 363.438 228.785 362.402 229.824 361.125 229.824 c 359.848
 229.824 358.809 228.785 358.809 227.508 c 358.809 226.23 359.848 225.195
 361.125 225.195 c 362.402 225.195 363.438 226.23 363.438 227.508 c h
363.438 227.508 m f
353.383 232.934 m 352.105 232.934 351.07 233.973 351.07 235.25 c 351.07
 236.527 352.105 237.562 353.383 237.562 c 354.66 237.562 355.699 236.527
 355.699 235.25 c 355.699 233.973 354.664 232.934 353.383 232.934 c h
353.383 232.934 m f
363.438 242.43 m 363.438 243.707 362.402 244.742 361.125 244.742 c 359.848
 244.742 358.809 243.707 358.809 242.43 c 358.809 241.148 359.848 240.113
 361.125 240.113 c 362.402 240.113 363.438 241.148 363.438 242.43 c h
363.438 242.43 m f
353.383 247.855 m 352.105 247.855 351.07 248.891 351.07 250.168 c 351.07
 251.445 352.105 252.484 353.383 252.484 c 354.66 252.484 355.699 251.445
 355.699 250.168 c 355.699 248.891 354.664 247.855 353.383 247.855 c h
353.383 247.855 m f
361.125 255.035 m 359.848 255.035 358.809 256.07 358.809 257.348 c 358.809
 258.625 359.848 259.66 361.125 259.66 c 362.402 259.66 363.438 258.625 
363.438 257.348 c 363.438 256.07 362.402 255.035 361.125 255.035 c h
361.125 255.035 m f
353.383 262.773 m 352.105 262.773 351.07 263.809 351.07 265.09 c 351.07
 266.367 352.105 267.402 353.383 267.402 c 354.66 267.402 355.699 266.367
 355.699 265.09 c 355.699 263.809 354.664 262.773 353.383 262.773 c h
353.383 262.773 m f
363.438 272.266 m 363.438 273.547 362.402 274.582 361.125 274.582 c 359.848
 274.582 358.809 273.547 358.809 272.266 c 358.809 270.988 359.848 269.953
 361.125 269.953 c 362.402 269.953 363.438 270.988 363.438 272.266 c h
363.438 272.266 m f
353.383 277.695 m 352.105 277.695 351.07 278.73 351.07 280.008 c 351.07
 281.285 352.105 282.324 353.383 282.324 c 354.66 282.324 355.699 281.285
 355.699 280.008 c 355.699 278.73 354.664 277.695 353.383 277.695 c h
353.383 277.695 m f
363.438 287.188 m 363.438 288.465 362.402 289.5 361.125 289.5 c 359.848
 289.5 358.809 288.465 358.809 287.188 c 358.809 285.91 359.848 284.871 
361.125 284.871 c 362.402 284.871 363.438 285.91 363.438 287.188 c h
363.438 287.188 m f
353.383 292.613 m 352.105 292.613 351.07 293.648 351.07 294.93 c 351.07
 296.207 352.105 297.242 353.383 297.242 c 354.66 297.242 355.699 296.207
 355.699 294.93 c 355.699 293.648 354.664 292.613 353.383 292.613 c h
353.383 292.613 m f
361.125 299.793 m 359.848 299.793 358.809 300.828 358.809 302.105 c 358.809
 303.383 359.848 304.422 361.125 304.422 c 362.402 304.422 363.438 303.383
 363.438 302.105 c 363.438 300.828 362.402 299.793 361.125 299.793 c h
361.125 299.793 m f
353.383 307.531 m 352.105 307.531 351.07 308.57 351.07 309.848 c 351.07
 311.125 352.105 312.16 353.383 312.16 c 354.66 312.16 355.699 311.125 355.699
 309.848 c 355.699 308.57 354.664 307.531 353.383 307.531 c h
353.383 307.531 m f
363.438 317.027 m 363.438 318.305 362.402 319.34 361.125 319.34 c 359.848
 319.34 358.809 318.305 358.809 317.027 c 358.809 315.746 359.848 314.711
 361.125 314.711 c 362.402 314.711 363.438 315.746 363.438 317.027 c h
363.438 317.027 m f
353.383 322.453 m 352.105 322.453 351.07 323.488 351.07 324.766 c 351.07
 326.047 352.105 327.082 353.383 327.082 c 354.66 327.082 355.699 326.047
 355.699 324.766 c 355.699 323.488 354.664 322.453 353.383 322.453 c h
353.383 322.453 m f
361.125 329.633 m 359.848 329.633 358.809 330.668 358.809 331.945 c 358.809
 333.223 359.848 334.262 361.125 334.262 c 362.402 334.262 363.438 333.223
 363.438 331.945 c 363.438 330.668 362.402 329.633 361.125 329.633 c h
361.125 329.633 m f
353.383 337.371 m 352.105 337.371 351.07 338.41 351.07 339.688 c 351.07
 340.965 352.105 342 353.383 342 c 354.66 342 355.699 340.965 355.699 339.688
 c 355.699 338.41 354.664 337.371 353.383 337.371 c h
353.383 337.371 m f
338.465 158.336 m 337.188 158.336 336.148 159.371 336.148 160.652 c 336.148
 161.93 337.188 162.965 338.465 162.965 c 339.742 162.965 340.777 161.93
 340.777 160.652 c 340.777 159.371 339.742 158.336 338.465 158.336 c h
338.465 158.336 m f
346.207 165.516 m 344.926 165.516 343.891 166.551 343.891 167.828 c 343.891
 169.109 344.926 170.145 346.207 170.145 c 347.484 170.145 348.52 169.109
 348.52 167.828 c 348.52 166.551 347.484 165.516 346.207 165.516 c h
346.207 165.516 m f
338.465 173.258 m 337.188 173.258 336.148 174.293 336.148 175.57 c 336.148
 176.848 337.188 177.883 338.465 177.883 c 339.742 177.883 340.777 176.848
 340.777 175.57 c 340.777 174.293 339.742 173.258 338.465 173.258 c h
338.465 173.258 m f
348.52 182.75 m 348.52 184.027 347.484 185.062 346.207 185.062 c 344.926
 185.062 343.891 184.027 343.891 182.75 c 343.891 181.473 344.926 180.434
 346.207 180.434 c 347.484 180.434 348.52 181.473 348.52 182.75 c h
348.52 182.75 m f
338.465 188.176 m 337.188 188.176 336.148 189.211 336.148 190.492 c 336.148
 191.77 337.188 192.805 338.465 192.805 c 339.742 192.805 340.777 191.77
 340.777 190.492 c 340.777 189.211 339.742 188.176 338.465 188.176 c h
338.465 188.176 m f
346.207 195.355 m 344.926 195.355 343.891 196.391 343.891 197.668 c 343.891
 198.945 344.926 199.984 346.207 199.984 c 347.484 199.984 348.52 198.945
 348.52 197.668 c 348.52 196.391 347.484 195.355 346.207 195.355 c h
346.207 195.355 m f
338.465 203.094 m 337.188 203.094 336.148 204.133 336.148 205.41 c 336.148
 206.688 337.188 207.723 338.465 207.723 c 339.742 207.723 340.777 206.688
 340.777 205.41 c 340.777 204.133 339.742 203.094 338.465 203.094 c h
338.465 203.094 m f
348.52 212.59 m 348.52 213.867 347.484 214.902 346.207 214.902 c 344.926
 214.902 343.891 213.867 343.891 212.59 c 343.891 211.309 344.926 210.273
 346.207 210.273 c 347.484 210.273 348.52 211.309 348.52 212.59 c h
348.52 212.59 m f
338.465 218.016 m 337.188 218.016 336.148 219.051 336.148 220.328 c 336.148
 221.609 337.188 222.645 338.465 222.645 c 339.742 222.645 340.777 221.609
 340.777 220.328 c 340.777 219.051 339.742 218.016 338.465 218.016 c h
338.465 218.016 m f
348.52 227.508 m 348.52 228.785 347.484 229.824 346.207 229.824 c 344.926
 229.824 343.891 228.785 343.891 227.508 c 343.891 226.23 344.926 225.195
 346.207 225.195 c 347.484 225.195 348.52 226.23 348.52 227.508 c h
348.52 227.508 m f
338.465 232.934 m 337.188 232.934 336.148 233.973 336.148 235.25 c 336.148
 236.527 337.188 237.562 338.465 237.562 c 339.742 237.562 340.777 236.527
 340.777 235.25 c 340.777 233.973 339.742 232.934 338.465 232.934 c h
338.465 232.934 m f
348.52 242.43 m 348.52 243.707 347.484 244.742 346.207 244.742 c 344.926
 244.742 343.891 243.707 343.891 242.43 c 343.891 241.148 344.926 240.113
 346.207 240.113 c 347.484 240.113 348.52 241.148 348.52 242.43 c h
348.52 242.43 m f
338.465 247.855 m 337.188 247.855 336.148 248.891 336.148 250.168 c 336.148
 251.445 337.188 252.484 338.465 252.484 c 339.742 252.484 340.777 251.445
 340.777 250.168 c 340.777 248.891 339.742 247.855 338.465 247.855 c h
338.465 247.855 m f
346.207 255.035 m 344.926 255.035 343.891 256.07 343.891 257.348 c 343.891
 258.625 344.926 259.66 346.207 259.66 c 347.484 259.66 348.52 258.625 348.52
 257.348 c 348.52 256.07 347.484 255.035 346.207 255.035 c h
346.207 255.035 m f
338.465 262.773 m 337.188 262.773 336.148 263.809 336.148 265.09 c 336.148
 266.367 337.188 267.402 338.465 267.402 c 339.742 267.402 340.777 266.367
 340.777 265.09 c 340.777 263.809 339.742 262.773 338.465 262.773 c h
338.465 262.773 m f
348.52 272.266 m 348.52 273.547 347.484 274.582 346.207 274.582 c 344.926
 274.582 343.891 273.547 343.891 272.266 c 343.891 270.988 344.926 269.953
 346.207 269.953 c 347.484 269.953 348.52 270.988 348.52 272.266 c h
348.52 272.266 m f
338.465 277.695 m 337.188 277.695 336.148 278.73 336.148 280.008 c 336.148
 281.285 337.188 282.324 338.465 282.324 c 339.742 282.324 340.777 281.285
 340.777 280.008 c 340.777 278.73 339.742 277.695 338.465 277.695 c h
338.465 277.695 m f
348.52 287.188 m 348.52 288.465 347.484 289.5 346.207 289.5 c 344.926 289.5
 343.891 288.465 343.891 287.188 c 343.891 285.91 344.926 284.871 346.207
 284.871 c 347.484 284.871 348.52 285.91 348.52 287.188 c h
348.52 287.188 m f
338.465 292.613 m 337.188 292.613 336.148 293.648 336.148 294.93 c 336.148
 296.207 337.188 297.242 338.465 297.242 c 339.742 297.242 340.777 296.207
 340.777 294.93 c 340.777 293.648 339.742 292.613 338.465 292.613 c h
338.465 292.613 m f
346.207 299.793 m 344.926 299.793 343.891 300.828 343.891 302.105 c 343.891
 303.383 344.926 304.422 346.207 304.422 c 347.484 304.422 348.52 303.383
 348.52 302.105 c 348.52 300.828 347.484 299.793 346.207 299.793 c h
346.207 299.793 m f
338.465 307.531 m 337.188 307.531 336.148 308.57 336.148 309.848 c 336.148
 311.125 337.188 312.16 338.465 312.16 c 339.742 312.16 340.777 311.125 
340.777 309.848 c 340.777 308.57 339.742 307.531 338.465 307.531 c h
338.465 307.531 m f
348.52 317.027 m 348.52 318.305 347.484 319.34 346.207 319.34 c 344.926
 319.34 343.891 318.305 343.891 317.027 c 343.891 315.746 344.926 314.711
 346.207 314.711 c 347.484 314.711 348.52 315.746 348.52 317.027 c h
348.52 317.027 m f
338.465 322.453 m 337.188 322.453 336.148 323.488 336.148 324.766 c 336.148
 326.047 337.188 327.082 338.465 327.082 c 339.742 327.082 340.777 326.047
 340.777 324.766 c 340.777 323.488 339.742 322.453 338.465 322.453 c h
338.465 322.453 m f
346.207 329.633 m 344.926 329.633 343.891 330.668 343.891 331.945 c 343.891
 333.223 344.926 334.262 346.207 334.262 c 347.484 334.262 348.52 333.223
 348.52 331.945 c 348.52 330.668 347.484 329.633 346.207 329.633 c h
346.207 329.633 m f
338.465 337.371 m 337.188 337.371 336.148 338.41 336.148 339.688 c 336.148
 340.965 337.188 342 338.465 342 c 339.742 342 340.777 340.965 340.777 339.688
 c 340.777 338.41 339.742 337.371 338.465 337.371 c h
338.465 337.371 m f
331.285 165.516 m 330.008 165.516 328.973 166.551 328.973 167.828 c 328.973
 169.109 330.008 170.145 331.285 170.145 c 332.562 170.145 333.602 169.109
 333.602 167.828 c 333.598 166.551 332.562 165.516 331.285 165.516 c h
331.285 165.516 m f
331.285 180.434 m 330.008 180.434 328.973 181.473 328.973 182.75 c 328.973
 184.027 330.008 185.062 331.285 185.062 c 332.562 185.062 333.602 184.027
 333.602 182.75 c 333.598 181.473 332.562 180.434 331.285 180.434 c h
331.285 180.434 m f
331.285 195.355 m 330.008 195.355 328.973 196.391 328.973 197.668 c 328.973
 198.945 330.008 199.984 331.285 199.984 c 332.562 199.984 333.602 198.945
 333.602 197.668 c 333.598 196.391 332.562 195.355 331.285 195.355 c h
331.285 195.355 m f
331.285 210.273 m 330.008 210.273 328.973 211.312 328.973 212.59 c 328.973
 213.867 330.008 214.902 331.285 214.902 c 332.562 214.902 333.602 213.867
 333.602 212.59 c 333.598 211.309 332.562 210.273 331.285 210.273 c h
331.285 210.273 m f
331.285 225.195 m 330.008 225.195 328.973 226.23 328.973 227.508 c 328.973
 228.785 330.008 229.824 331.285 229.824 c 332.562 229.824 333.602 228.789
 333.602 227.508 c 333.598 226.23 332.562 225.195 331.285 225.195 c h
331.285 225.195 m f
331.285 240.113 m 330.008 240.113 328.973 241.148 328.973 242.43 c 328.973
 243.707 330.008 244.742 331.285 244.742 c 332.562 244.742 333.602 243.707
 333.602 242.43 c 333.598 241.148 332.562 240.113 331.285 240.113 c h
331.285 240.113 m f
331.285 255.035 m 330.008 255.035 328.973 256.07 328.973 257.348 c 328.973
 258.625 330.008 259.66 331.285 259.66 c 332.562 259.66 333.602 258.625 
333.602 257.348 c 333.598 256.07 332.562 255.035 331.285 255.035 c h
331.285 255.035 m f
331.285 269.953 m 330.008 269.953 328.973 270.988 328.973 272.266 c 328.973
 273.547 330.008 274.582 331.285 274.582 c 332.562 274.582 333.602 273.547
 333.602 272.266 c 333.598 270.988 332.562 269.953 331.285 269.953 c h
331.285 269.953 m f
331.285 284.871 m 330.008 284.871 328.973 285.91 328.973 287.188 c 328.973
 288.465 330.008 289.5 331.285 289.5 c 332.562 289.5 333.602 288.465 333.602
 287.188 c 333.598 285.91 332.562 284.871 331.285 284.871 c h
331.285 284.871 m f
331.285 299.793 m 330.008 299.793 328.973 300.828 328.973 302.105 c 328.973
 303.383 330.008 304.422 331.285 304.422 c 332.562 304.422 333.602 303.383
 333.602 302.105 c 333.598 300.828 332.562 299.793 331.285 299.793 c h
331.285 299.793 m f
331.285 314.711 m 330.008 314.711 328.973 315.75 328.973 317.027 c 328.973
 318.305 330.008 319.34 331.285 319.34 c 332.562 319.34 333.602 318.305 
333.602 317.027 c 333.598 315.75 332.562 314.711 331.285 314.711 c h
331.285 314.711 m f
323.543 322.453 m 322.266 322.453 321.23 323.488 321.23 324.766 c 321.23
 326.047 322.266 327.082 323.543 327.082 c 324.824 327.082 325.859 326.047
 325.859 324.766 c 325.859 323.488 324.824 322.453 323.543 322.453 c h
323.543 322.453 m f
331.285 329.633 m 330.008 329.633 328.973 330.668 328.973 331.945 c 328.973
 333.223 330.008 334.262 331.285 334.262 c 332.562 334.262 333.602 333.223
 333.602 331.945 c 333.598 330.668 332.562 329.633 331.285 329.633 c h
331.285 329.633 m f
325.859 339.688 m 325.859 340.965 324.824 342 323.543 342 c 322.266 342
 321.23 340.965 321.23 339.688 c 321.23 338.406 322.266 337.371 323.543 
337.371 c 324.824 337.371 325.859 338.406 325.859 339.688 c h
325.859 339.688 m f
308.625 322.453 m 307.348 322.453 306.309 323.488 306.309 324.766 c 306.309
 326.047 307.348 327.082 308.625 327.082 c 309.902 327.082 310.941 326.047
 310.941 324.766 c 310.941 323.488 309.902 322.453 308.625 322.453 c h
308.625 322.453 m f
316.367 329.633 m 315.086 329.633 314.051 330.668 314.051 331.945 c 314.051
 333.223 315.086 334.262 316.367 334.262 c 317.645 334.262 318.68 333.223
 318.68 331.945 c 318.68 330.668 317.645 329.633 316.367 329.633 c h
316.367 329.633 m f
308.625 337.371 m 307.348 337.371 306.309 338.41 306.309 339.688 c 306.309
 340.965 307.348 342 308.625 342 c 309.902 342 310.941 340.965 310.941 339.688
 c 310.941 338.41 309.902 337.371 308.625 337.371 c h
308.625 337.371 m f
293.707 322.453 m 292.426 322.453 291.391 323.488 291.391 324.766 c 291.391
 326.047 292.426 327.082 293.707 327.082 c 294.984 327.082 296.02 326.047
 296.02 324.766 c 296.02 323.488 294.984 322.453 293.707 322.453 c h
293.707 322.453 m f
301.445 329.633 m 300.168 329.633 299.133 330.668 299.133 331.945 c 299.133
 333.223 300.168 334.262 301.445 334.262 c 302.723 334.262 303.762 333.223
 303.762 331.945 c 303.762 330.668 302.723 329.633 301.445 329.633 c h
301.445 329.633 m f
296.02 339.688 m 296.02 340.965 294.984 342 293.707 342 c 292.426 342 291.391
 340.965 291.391 339.688 c 291.391 338.406 292.426 337.371 293.707 337.371
 c 294.984 337.371 296.02 338.406 296.02 339.688 c h
296.02 339.688 m f
278.785 322.453 m 277.508 322.453 276.473 323.488 276.473 324.766 c 276.473
 326.047 277.508 327.082 278.785 327.082 c 280.062 327.082 281.102 326.047
 281.102 324.766 c 281.102 323.488 280.062 322.453 278.785 322.453 c h
278.785 322.453 m f
286.527 329.633 m 285.25 329.633 284.211 330.668 284.211 331.945 c 284.211
 333.223 285.25 334.262 286.527 334.262 c 287.805 334.262 288.84 333.223
 288.84 331.945 c 288.84 330.668 287.805 329.633 286.527 329.633 c h
286.527 329.633 m f
281.102 339.688 m 281.102 340.965 280.062 342 278.785 342 c 277.508 342
 276.473 340.965 276.473 339.688 c 276.473 338.406 277.508 337.371 278.785
 337.371 c 280.062 337.371 281.102 338.406 281.102 339.688 c h
281.102 339.688 m f
263.867 322.453 m 262.586 322.453 261.551 323.488 261.551 324.766 c 261.551
 326.047 262.586 327.082 263.867 327.082 c 265.145 327.082 266.18 326.047
 266.18 324.766 c 266.18 323.488 265.145 322.453 263.867 322.453 c h
263.867 322.453 m f
271.605 329.633 m 270.328 329.633 269.293 330.668 269.293 331.945 c 269.293
 333.223 270.328 334.262 271.605 334.262 c 272.883 334.262 273.922 333.223
 273.922 331.945 c 273.922 330.668 272.883 329.633 271.605 329.633 c h
271.605 329.633 m f
263.867 337.371 m 262.586 337.371 261.551 338.41 261.551 339.688 c 261.551
 340.965 262.586 342 263.867 342 c 265.145 342 266.18 340.965 266.18 339.688
 c 266.18 338.41 265.145 337.371 263.867 337.371 c h
263.867 337.371 m f
248.945 322.453 m 247.668 322.453 246.633 323.488 246.633 324.766 c 246.633
 326.047 247.668 327.082 248.945 327.082 c 250.223 327.082 251.262 326.047
 251.262 324.766 c 251.262 323.488 250.227 322.453 248.945 322.453 c h
248.945 322.453 m f
256.688 329.633 m 255.41 329.633 254.371 330.668 254.371 331.945 c 254.371
 333.223 255.41 334.262 256.688 334.262 c 257.965 334.262 259 333.223 259
 331.945 c 259 330.668 257.965 329.633 256.688 329.633 c h
256.688 329.633 m f
248.945 337.371 m 247.668 337.371 246.633 338.41 246.633 339.688 c 246.633
 340.965 247.668 342 248.945 342 c 250.223 342 251.262 340.965 251.262 339.688
 c 251.262 338.41 250.227 337.371 248.945 337.371 c h
248.945 337.371 m f
234.027 322.453 m 232.75 322.453 231.711 323.488 231.711 324.766 c 231.711
 326.047 232.75 327.082 234.027 327.082 c 235.305 327.082 236.34 326.047
 236.34 324.766 c 236.34 323.488 235.305 322.453 234.027 322.453 c h
234.027 322.453 m f
241.766 329.633 m 240.488 329.633 239.453 330.668 239.453 331.945 c 239.453
 333.223 240.488 334.262 241.766 334.262 c 243.047 334.262 244.082 333.223
 244.082 331.945 c 244.082 330.668 243.047 329.633 241.766 329.633 c h
241.766 329.633 m f
234.027 337.371 m 232.75 337.371 231.711 338.41 231.711 339.688 c 231.711
 340.965 232.75 342 234.027 342 c 235.305 342 236.34 340.965 236.34 339.688
 c 236.34 338.41 235.305 337.371 234.027 337.371 c h
234.027 337.371 m f
219.105 322.453 m 217.828 322.453 216.793 323.488 216.793 324.766 c 216.793
 326.047 217.828 327.082 219.105 327.082 c 220.387 327.082 221.422 326.047
 221.422 324.766 c 221.422 323.488 220.387 322.453 219.105 322.453 c h
219.105 322.453 m f
226.848 329.633 m 225.57 329.633 224.535 330.668 224.535 331.945 c 224.535
 333.223 225.57 334.262 226.848 334.262 c 228.125 334.262 229.164 333.223
 229.164 331.945 c 229.16 330.668 228.125 329.633 226.848 329.633 c h
226.848 329.633 m f
219.105 337.371 m 217.828 337.371 216.793 338.41 216.793 339.688 c 216.793
 340.965 217.828 342 219.105 342 c 220.387 342 221.422 340.965 221.422 339.688
 c 221.422 338.41 220.387 337.371 219.105 337.371 c h
219.105 337.371 m f
204.188 322.453 m 202.91 322.453 201.871 323.488 201.871 324.766 c 201.871
 326.047 202.91 327.082 204.188 327.082 c 205.465 327.082 206.504 326.047
 206.504 324.766 c 206.5 323.488 205.465 322.453 204.188 322.453 c h
204.188 322.453 m f
211.93 329.633 m 210.648 329.633 209.613 330.668 209.613 331.945 c 209.613
 333.223 210.648 334.262 211.93 334.262 c 213.207 334.262 214.242 333.223
 214.242 331.945 c 214.242 330.668 213.207 329.633 211.93 329.633 c h
211.93 329.633 m f
204.188 337.371 m 202.91 337.371 201.871 338.41 201.871 339.688 c 201.871
 340.965 202.91 342 204.188 342 c 205.465 342 206.504 340.965 206.504 339.688
 c 206.5 338.41 205.465 337.371 204.188 337.371 c h
204.188 337.371 m f
189.27 322.453 m 187.988 322.453 186.953 323.488 186.953 324.766 c 186.953
 326.047 187.988 327.082 189.27 327.082 c 190.547 327.082 191.582 326.047
 191.582 324.766 c 191.582 323.488 190.547 322.453 189.27 322.453 c h
189.27 322.453 m f
197.008 329.633 m 195.73 329.633 194.695 330.668 194.695 331.945 c 194.695
 333.223 195.73 334.262 197.008 334.262 c 198.285 334.262 199.324 333.223
 199.324 331.945 c 199.324 330.668 198.285 329.633 197.008 329.633 c h
197.008 329.633 m f
189.371 337.199 m 190.648 337.23 191.66 338.293 191.629 339.574 c 191.598
 340.852 190.535 341.859 189.258 341.828 c 187.977 341.797 186.969 340.734
 187 339.457 c 187.031 338.18 188.094 337.168 189.371 337.199 c h
189.371 337.199 m f
174.348 322.453 m 173.07 322.453 172.035 323.488 172.035 324.766 c 172.035
 326.047 173.07 327.082 174.348 327.082 c 175.625 327.082 176.664 326.047
 176.664 324.766 c 176.664 323.488 175.625 322.453 174.348 322.453 c h
174.348 322.453 m f
182.09 329.633 m 180.812 329.633 179.773 330.668 179.773 331.945 c 179.773
 333.223 180.812 334.262 182.09 334.262 c 183.367 334.262 184.402 333.223
 184.402 331.945 c 184.402 330.668 183.367 329.633 182.09 329.633 c h
182.09 329.633 m f
174.348 337.371 m 173.07 337.371 172.035 338.41 172.035 339.688 c 172.035
 340.965 173.07 342 174.348 342 c 175.625 342 176.664 340.965 176.664 339.688
 c 176.664 338.41 175.625 337.371 174.348 337.371 c h
174.348 337.371 m f
159.43 322.453 m 158.148 322.453 157.113 323.488 157.113 324.766 c 157.113
 326.047 158.148 327.082 159.43 327.082 c 160.707 327.082 161.742 326.047
 161.742 324.766 c 161.742 323.488 160.707 322.453 159.43 322.453 c h
159.43 322.453 m f
167.168 329.633 m 165.891 329.633 164.855 330.668 164.855 331.945 c 164.855
 333.223 165.891 334.262 167.168 334.262 c 168.445 334.262 169.484 333.223
 169.484 331.945 c 169.484 330.668 168.445 329.633 167.168 329.633 c h
167.168 329.633 m f
161.742 339.688 m 161.742 340.965 160.707 342 159.43 342 c 158.148 342 
157.113 340.965 157.113 339.688 c 157.113 338.406 158.148 337.371 159.43
 337.371 c 160.707 337.371 161.742 338.406 161.742 339.688 c h
161.742 339.688 m f
152.25 329.633 m 150.973 329.633 149.934 330.668 149.934 331.945 c 149.934
 333.223 150.973 334.262 152.25 334.262 c 153.527 334.262 154.562 333.223
 154.562 331.945 c 154.562 330.668 153.527 329.633 152.25 329.633 c h
152.25 329.633 m f
129.59 322.453 m 128.312 322.453 127.273 323.488 127.273 324.766 c 127.273
 326.047 128.312 327.082 129.59 327.082 c 130.867 327.082 131.902 326.047
 131.902 324.766 c 131.902 323.488 130.867 322.453 129.59 322.453 c h
129.59 322.453 m f
137.328 329.633 m 136.051 329.633 135.016 330.668 135.016 331.945 c 135.016
 333.223 136.051 334.262 137.328 334.262 c 138.609 334.262 139.645 333.223
 139.645 331.945 c 139.645 330.668 138.609 329.633 137.328 329.633 c h
137.328 329.633 m f
129.59 337.371 m 128.312 337.371 127.273 338.41 127.273 339.688 c 127.273
 340.965 128.312 342 129.59 342 c 130.867 342 131.902 340.965 131.902 339.688
 c 131.902 338.41 130.867 337.371 129.59 337.371 c h
129.59 337.371 m f
114.668 322.453 m 113.391 322.453 112.355 323.488 112.355 324.766 c 112.355
 326.047 113.391 327.082 114.668 327.082 c 115.949 327.082 116.984 326.047
 116.984 324.766 c 116.984 323.488 115.949 322.453 114.668 322.453 c h
114.668 322.453 m f
122.41 329.633 m 121.133 329.633 120.098 330.668 120.098 331.945 c 120.098
 333.223 121.133 334.262 122.41 334.262 c 123.688 334.262 124.727 333.223
 124.727 331.945 c 124.723 330.668 123.688 329.633 122.41 329.633 c h
122.41 329.633 m f
114.668 337.371 m 113.391 337.371 112.355 338.41 112.355 339.688 c 112.355
 340.965 113.391 342 114.668 342 c 115.949 342 116.984 340.965 116.984 339.688
 c 116.984 338.41 115.949 337.371 114.668 337.371 c h
114.668 337.371 m f
99.75 322.453 m 98.473 322.453 97.434 323.488 97.434 324.766 c 97.434 326.047
 98.473 327.082 99.75 327.082 c 101.027 327.082 102.066 326.047 102.066 
324.766 c 102.062 323.488 101.027 322.453 99.75 322.453 c h
99.75 322.453 m f
107.492 329.633 m 106.211 329.633 105.176 330.668 105.176 331.945 c 105.176
 333.223 106.211 334.262 107.492 334.262 c 108.77 334.262 109.805 333.223
 109.805 331.945 c 109.805 330.668 108.77 329.633 107.492 329.633 c h
107.492 329.633 m f
99.75 337.371 m 98.473 337.371 97.434 338.41 97.434 339.688 c 97.434 340.965
 98.473 342 99.75 342 c 101.027 342 102.066 340.965 102.066 339.688 c 102.062
 338.41 101.027 337.371 99.75 337.371 c h
99.75 337.371 m f
84.832 322.453 m 83.551 322.453 82.516 323.488 82.516 324.766 c 82.516 
326.047 83.551 327.082 84.832 327.082 c 86.109 327.082 87.145 326.047 87.145
 324.766 c 87.145 323.488 86.109 322.453 84.832 322.453 c h
84.832 322.453 m f
92.57 329.633 m 91.293 329.633 90.258 330.668 90.258 331.945 c 90.258 333.223
 91.293 334.262 92.57 334.262 c 93.848 334.262 94.887 333.223 94.887 331.945
 c 94.887 330.668 93.848 329.633 92.57 329.633 c h
92.57 329.633 m f
84.832 337.371 m 83.551 337.371 82.516 338.41 82.516 339.688 c 82.516 340.965
 83.551 342 84.832 342 c 86.109 342 87.145 340.965 87.145 339.688 c 87.145
 338.41 86.109 337.371 84.832 337.371 c h
84.832 337.371 m f
69.91 322.453 m 68.633 322.453 67.598 323.488 67.598 324.766 c 67.598 326.047
 68.633 327.082 69.91 327.082 c 71.188 327.082 72.227 326.047 72.227 324.766
 c 72.227 323.488 71.188 322.453 69.91 322.453 c h
69.91 322.453 m f
77.652 329.633 m 76.375 329.633 75.336 330.668 75.336 331.945 c 75.336 
333.223 76.375 334.262 77.652 334.262 c 78.93 334.262 79.965 333.223 79.965
 331.945 c 79.965 330.668 78.93 329.633 77.652 329.633 c h
77.652 329.633 m f
69.91 337.371 m 68.633 337.371 67.598 338.41 67.598 339.688 c 67.598 340.965
 68.633 342 69.91 342 c 71.188 342 72.227 340.965 72.227 339.688 c 72.227
 338.41 71.188 337.371 69.91 337.371 c h
69.91 337.371 m f
54.992 322.453 m 53.711 322.453 52.676 323.488 52.676 324.766 c 52.676 
326.047 53.711 327.082 54.992 327.082 c 56.27 327.082 57.305 326.047 57.305
 324.766 c 57.305 323.488 56.27 322.453 54.992 322.453 c h
54.992 322.453 m f
62.73 329.633 m 61.453 329.633 60.418 330.668 60.418 331.945 c 60.418 333.223
 61.453 334.262 62.73 334.262 c 64.008 334.262 65.047 333.223 65.047 331.945
 c 65.047 330.668 64.008 329.633 62.73 329.633 c h
62.73 329.633 m f
54.992 337.371 m 53.711 337.371 52.676 338.41 52.676 339.688 c 52.676 340.965
 53.711 342 54.992 342 c 56.27 342 57.305 340.965 57.305 339.688 c 57.305
 338.41 56.27 337.371 54.992 337.371 c h
54.992 337.371 m f
40.07 322.453 m 38.793 322.453 37.758 323.488 37.758 324.766 c 37.758 326.047
 38.793 327.082 40.07 327.082 c 41.348 327.082 42.387 326.047 42.387 324.766
 c 42.387 323.488 41.348 322.453 40.07 322.453 c h
40.07 322.453 m f
47.812 329.633 m 46.535 329.633 45.496 330.668 45.496 331.945 c 45.496 
333.223 46.535 334.262 47.812 334.262 c 49.09 334.262 50.125 333.223 50.125
 331.945 c 50.125 330.668 49.09 329.633 47.812 329.633 c h
47.812 329.633 m f
40.07 337.371 m 38.793 337.371 37.758 338.41 37.758 339.688 c 37.758 340.965
 38.793 342 40.07 342 c 41.348 342 42.387 340.965 42.387 339.688 c 42.387
 338.41 41.348 337.371 40.07 337.371 c h
40.07 337.371 m f
25.152 322.453 m 23.875 322.453 22.836 323.488 22.836 324.766 c 22.836 
326.047 23.871 327.082 25.152 327.082 c 26.43 327.082 27.465 326.047 27.465
 324.766 c 27.465 323.488 26.43 322.453 25.152 322.453 c h
25.152 322.453 m f
32.891 329.633 m 31.613 329.633 30.578 330.668 30.578 331.945 c 30.578 
333.223 31.613 334.262 32.891 334.262 c 34.172 334.262 35.207 333.223 35.207
 331.945 c 35.207 330.668 34.172 329.633 32.891 329.633 c h
32.891 329.633 m f
27.465 339.688 m 27.465 340.965 26.43 342 25.152 342 c 23.871 342 22.836
 340.965 22.836 339.688 c 22.836 338.406 23.871 337.371 25.152 337.371 c
 26.43 337.371 27.465 338.406 27.465 339.688 c h
27.465 339.688 m f
323.582 307.539 m 322.305 307.539 321.266 308.574 321.266 309.852 c 321.266
 311.129 322.305 312.164 323.582 312.164 c 324.859 312.164 325.895 311.129
 325.895 309.852 c 325.895 308.574 324.859 307.539 323.582 307.539 c h
323.582 307.539 m f
316.344 314.734 m 315.066 314.734 314.031 315.773 314.031 317.051 c 314.031
 318.328 315.066 319.363 316.344 319.363 c 317.621 319.363 318.66 318.328
 318.66 317.051 c 318.656 315.773 317.621 314.734 316.344 314.734 c h
316.344 314.734 m f
0.192157 0.215686 0.239216 rg
319.043 193.879 m 186.859 193.879 l 181.07 193.879 176.363 198.586 176.363
 204.375 c 176.363 294.527 l 176.363 300.316 181.07 305.023 186.859 305.023
 c 319.043 305.023 l 324.832 305.023 329.543 300.316 329.543 294.527 c 329.543
 204.379 l 329.543 198.59 324.832 193.879 319.043 193.879 c h
323.484 294.527 m 323.484 296.973 321.492 298.965 319.043 298.965 c 186.859
 298.965 l 184.414 298.965 182.422 296.973 182.422 294.527 c 182.422 204.379
 l 182.422 201.93 184.414 199.938 186.859 199.938 c 319.043 199.938 l 321.492
 199.938 323.484 201.93 323.484 204.379 c h
323.484 294.527 m f
125.016 258.949 m 119.109 258.949 l 115.562 258.949 112.676 261.832 112.676
 265.379 c 112.676 281.066 l 112.676 284.613 115.562 287.5 119.109 287.5
 c 125.016 287.5 l 128.559 287.5 131.445 284.613 131.445 281.066 c 131.445
 265.379 l 131.445 261.832 128.559 258.949 125.016 258.949 c h
125.016 258.949 m f
383.898 119.891 m 383.898 119.609 384 89.953 384 89.953 c 384.105 88.562
 367.789 26.219 367.57 24.762 c 365.152 15.262 356.621 8.633 346.82 8.633
 c 346.809 8.633 346.801 8.633 346.793 8.633 c 35.762 9.031 l 25.789 9.047
 17.227 15.836 14.945 25.547 c 14.82 26.84 -0.242 88.695 0.008 89.941 c 
0.008 89.941 0 119.887 0 119.887 c 0 133.539 6.746 145.637 17.07 153.051
 c 17.07 342.949 l 3.484 342.949 l 1.809 342.949 0.453 344.305 0.453 345.98
 c 0.453 372.336 l 0.453 374.012 1.809 375.367 3.484 375.367 c 380.52 375.367
 l 382.195 375.367 383.551 374.012 383.551 372.336 c 383.551 345.98 l 383.551
 344.305 382.195 342.949 380.52 342.949 c 366.934 342.949 l 366.934 152.977
 l 377.199 145.559 383.898 133.492 383.898 119.891 c h
377.84 119.887 m 377.84 139.051 362.246 154.641 343.086 154.641 c 324.68
 154.641 309.566 140.258 308.402 122.141 c 308.438 121.449 308.457 120.754
 308.457 120.055 c 308.465 119.977 308.48 119.906 308.48 119.828 c 308.48
 92.973 l 377.93 92.973 l 377.902 100.809 377.84 119.789 377.84 119.887 
c h
302.332 122.145 m 301.191 140.289 286.066 154.707 267.637 154.707 c 248.469
 154.707 232.871 139.109 232.871 119.941 c 232.871 119.73 232.844 119.523
 232.801 119.324 c 232.801 92.973 l 302.422 92.973 l 302.422 118.988 l 302.332
 119.273 302.27 119.57 302.27 119.883 c 302.27 120.645 302.293 121.395 302.332
 122.145 c h
151.137 119.887 m 151.137 139.051 135.543 154.641 116.383 154.641 c 97.434
 154.641 81.992 139.398 81.645 120.461 c 81.688 120.258 81.715 120.047 81.715
 119.828 c 81.715 92.973 l 151.199 92.973 l 151.199 118.926 l 151.152 119.141
 151.125 119.359 151.125 119.582 c h
156.641 86.23 m 156.641 14.938 l 226.051 14.848 l 226.051 86.238 l 81.848
 86.273 l 90.332 15.023 l 150.578 14.945 l 150.578 86.23 l h
232.109 86.238 m 232.109 14.84 l 293.648 14.762 l 302.16 86.219 l h
157.258 119.828 m 157.258 92.973 l 226.742 92.973 l 226.742 119.426 l 226.719
 119.578 226.703 119.73 226.703 119.887 c 226.703 139.047 211.113 154.641
 191.949 154.641 c 172.949 154.641 157.473 139.312 157.211 120.305 c 157.234
 120.148 157.258 119.992 157.258 119.828 c h
346.801 14.691 m 346.82 14.691 l 353.848 14.691 359.961 19.445 361.695 
26.258 c 376.953 86.199 l 308.266 86.219 l 299.75 14.754 l h
20.844 26.934 m 22.48 19.969 28.617 15.102 35.77 15.094 c 84.23 15.031 
l 75.723 86.277 l 6.898 86.297 l h
6.059 119.887 m 6.066 92.973 l 75.652 92.973 l 75.652 118.844 l 75.598 
119.078 75.559 119.324 75.559 119.57 c 75.566 119.887 l 75.566 139.051 59.977
 154.641 40.812 154.641 c 21.648 154.641 6.059 139.047 6.059 119.887 c h
141.988 342.949 m 60.52 342.949 l 60.52 204.535 l 60.52 202 62.582 199.938
 65.117 199.938 c 137.391 199.938 l 139.926 199.938 141.988 202 141.988 
204.535 c h
360.871 342.949 m 148.051 342.949 l 148.051 204.535 l 148.051 198.66 143.27
 193.879 137.391 193.879 c 65.117 193.879 l 59.242 193.879 54.461 198.66
 54.461 204.535 c 54.461 342.949 l 23.129 342.949 l 23.129 156.664 l 28.484
 159.25 34.484 160.699 40.812 160.699 c 57.859 160.699 72.5 150.195 78.598
 135.32 c 84.695 150.195 99.336 160.699 116.383 160.699 c 133.43 160.699
 148.066 150.195 154.168 135.32 c 160.266 150.195 174.902 160.699 191.949
 160.699 c 209.035 160.699 223.703 150.145 229.777 135.215 c 235.836 150.18
 250.523 160.766 267.637 160.766 c 284.641 160.766 299.25 150.32 305.379
 135.508 c 311.523 150.281 326.109 160.699 343.086 160.699 c 349.461 160.699
 355.496 159.227 360.875 156.613 c 360.875 342.949 l h
360.871 342.949 m f
Q Q
showpage
%%Trailer
end
%%EOF
