%!PS-Adobe-3.0 EPSF-3.0
%%Creator: cairo 1.16.0 (https://cairographics.org)
%%CreationDate: Fri Feb 12 12:12:41 2021
%%Pages: 1
%%DocumentData: Clean7Bit
%%LanguageLevel: 2
%%BoundingBox: 0 72 384 312
%%EndComments
%%BeginProlog
50 dict begin
/q { gsave } bind def
/Q { grestore } bind def
/cm { 6 array astore concat } bind def
/w { setlinewidth } bind def
/J { setlinecap } bind def
/j { setlinejoin } bind def
/M { setmiterlimit } bind def
/d { setdash } bind def
/m { moveto } bind def
/l { lineto } bind def
/c { curveto } bind def
/h { closepath } bind def
/re { exch dup neg 3 1 roll 5 3 roll moveto 0 rlineto
      0 exch rlineto 0 rlineto closepath } bind def
/S { stroke } bind def
/f { fill } bind def
/f* { eofill } bind def
/n { newpath } bind def
/W { clip } bind def
/W* { eoclip } bind def
/BT { } bind def
/ET { } bind def
/BDC { mark 3 1 roll /BDC pdfmark } bind def
/EMC { mark /EMC pdfmark } bind def
/cairo_store_point { /cairo_point_y exch def /cairo_point_x exch def } def
/Tj { show currentpoint cairo_store_point } bind def
/TJ {
  {
    dup
    type /stringtype eq
    { show } { -0.001 mul 0 cairo_font_matrix dtransform rmoveto } ifelse
  } forall
  currentpoint cairo_store_point
} bind def
/cairo_selectfont { cairo_font_matrix aload pop pop pop 0 0 6 array astore
    cairo_font exch selectfont cairo_point_x cairo_point_y moveto } bind def
/Tf { pop /cairo_font exch def /cairo_font_matrix where
      { pop cairo_selectfont } if } bind def
/Td { matrix translate cairo_font_matrix matrix concatmatrix dup
      /cairo_font_matrix exch def dup 4 get exch 5 get cairo_store_point
      /cairo_font where { pop cairo_selectfont } if } bind def
/Tm { 2 copy 8 2 roll 6 array astore /cairo_font_matrix exch def
      cairo_store_point /cairo_font where { pop cairo_selectfont } if } bind def
/g { setgray } bind def
/rg { setrgbcolor } bind def
/d1 { setcachedevice } bind def
/cairo_data_source {
  CairoDataIndex CairoData length lt
    { CairoData CairoDataIndex get /CairoDataIndex CairoDataIndex 1 add def }
    { () } ifelse
} def
/cairo_flush_ascii85_file { cairo_ascii85_file status { cairo_ascii85_file flushfile } if } def
/cairo_image { image cairo_flush_ascii85_file } def
/cairo_imagemask { imagemask cairo_flush_ascii85_file } def
%%EndProlog
%%BeginSetup
%%EndSetup
%%Page: 1 1
%%BeginPageSetup
%%PageBoundingBox: 0 72 384 312
%%EndPageSetup
q 0 72 384 240 rectclip
1 0 0 -1 0 384 cm q
0.913725 0.760784 0.470588 rg
380.98 134.258 m 344.676 78.664 l 343.594 76.723 342.195 75.266 339.918
 75.266 c 46.543 75.266 l 43.824 75.266 41.285 76.625 39.781 78.891 c 3.02
 134.258 l 37.926 134.258 l 37.926 301.863 l 37.926 305.66 41.004 308.734
 44.797 308.734 c 338.941 308.734 l 342.738 308.734 345.812 305.66 345.812
 301.863 c 345.812 134.258 l h
380.98 134.258 m f
0.976471 0.984314 0.988235 rg
344.871 141.457 m 344.871 142.82 343.766 143.926 342.402 143.926 c 341.043
 143.926 339.938 142.82 339.938 141.457 c 339.938 140.094 341.043 138.988
 342.402 138.988 c 343.766 138.988 344.871 140.094 344.871 141.457 c h
344.871 141.457 m f
344.871 157.371 m 344.871 158.734 343.766 159.836 342.402 159.836 c 341.043
 159.836 339.938 158.734 339.938 157.371 c 339.938 156.008 341.043 154.902
 342.402 154.902 c 343.766 154.902 344.871 156.008 344.871 157.371 c h
344.871 157.371 m f
344.871 173.281 m 344.871 174.645 343.766 175.75 342.402 175.75 c 341.043
 175.75 339.938 174.645 339.938 173.281 c 339.938 171.918 341.043 170.812
 342.402 170.812 c 343.766 170.812 344.871 171.918 344.871 173.281 c h
344.871 173.281 m f
344.871 189.195 m 344.871 190.559 343.766 191.664 342.402 191.664 c 341.043
 191.664 339.938 190.559 339.938 189.195 c 339.938 187.832 341.043 186.727
 342.402 186.727 c 343.766 186.727 344.871 187.832 344.871 189.195 c h
344.871 189.195 m f
344.871 205.109 m 344.871 206.473 343.766 207.578 342.402 207.578 c 341.043
 207.578 339.938 206.473 339.938 205.109 c 339.938 203.746 341.043 202.641
 342.402 202.641 c 343.766 202.641 344.871 203.746 344.871 205.109 c h
344.871 205.109 m f
344.871 221.023 m 344.871 222.387 343.766 223.492 342.402 223.492 c 341.043
 223.492 339.938 222.387 339.938 221.023 c 339.938 219.66 341.043 218.555
 342.402 218.555 c 343.766 218.555 344.871 219.66 344.871 221.023 c h
344.871 221.023 m f
344.871 236.934 m 344.871 238.297 343.766 239.402 342.402 239.402 c 341.043
 239.402 339.938 238.297 339.938 236.934 c 339.938 235.57 341.043 234.465
 342.402 234.465 c 343.766 234.465 344.871 235.57 344.871 236.934 c h
344.871 236.934 m f
344.871 252.848 m 344.871 254.211 343.766 255.316 342.402 255.316 c 341.043
 255.316 339.938 254.211 339.938 252.848 c 339.938 251.484 341.043 250.379
 342.402 250.379 c 343.766 250.379 344.871 251.484 344.871 252.848 c h
344.871 252.848 m f
344.871 268.762 m 344.871 270.125 343.766 271.23 342.402 271.23 c 341.043
 271.23 339.938 270.125 339.938 268.762 c 339.938 267.398 341.043 266.293
 342.402 266.293 c 343.766 266.293 344.871 267.398 344.871 268.762 c h
344.871 268.762 m f
344.871 284.676 m 344.871 286.039 343.766 287.145 342.402 287.145 c 341.043
 287.145 339.938 286.039 339.938 284.676 c 339.938 283.312 341.043 282.207
 342.402 282.207 c 343.766 282.207 344.871 283.312 344.871 284.676 c h
344.871 284.676 m f
344.871 300.59 m 344.871 301.953 343.766 303.055 342.402 303.055 c 341.043
 303.055 339.938 301.953 339.938 300.59 c 339.938 299.227 341.043 298.121
 342.402 298.121 c 343.766 298.121 344.871 299.227 344.871 300.59 c h
344.871 300.59 m f
328.961 141.457 m 328.961 142.82 327.855 143.926 326.492 143.926 c 325.129
 143.926 324.023 142.82 324.023 141.457 c 324.023 140.094 325.129 138.988
 326.492 138.988 c 327.855 138.988 328.961 140.094 328.961 141.457 c h
328.961 141.457 m f
334.746 146.645 m 333.383 146.645 332.277 147.75 332.277 149.113 c 332.277
 150.477 333.383 151.582 334.746 151.582 c 336.109 151.582 337.215 150.477
 337.215 149.113 c 337.215 147.75 336.109 146.645 334.746 146.645 c h
334.746 146.645 m f
328.961 157.371 m 328.961 158.734 327.855 159.836 326.492 159.836 c 325.129
 159.836 324.023 158.734 324.023 157.371 c 324.023 156.008 325.129 154.902
 326.492 154.902 c 327.855 154.902 328.961 156.008 328.961 157.371 c h
328.961 157.371 m f
334.746 162.559 m 333.383 162.559 332.277 163.664 332.277 165.027 c 332.277
 166.391 333.383 167.496 334.746 167.496 c 336.109 167.496 337.215 166.391
 337.215 165.027 c 337.215 163.664 336.109 162.559 334.746 162.559 c h
334.746 162.559 m f
328.961 173.281 m 328.961 174.645 327.855 175.75 326.492 175.75 c 325.129
 175.75 324.023 174.645 324.023 173.281 c 324.023 171.918 325.129 170.812
 326.492 170.812 c 327.855 170.812 328.961 171.918 328.961 173.281 c h
328.961 173.281 m f
334.746 178.473 m 333.383 178.473 332.277 179.578 332.277 180.938 c 332.277
 182.301 333.383 183.406 334.746 183.406 c 336.109 183.406 337.215 182.301
 337.215 180.938 c 337.215 179.578 336.109 178.473 334.746 178.473 c h
334.746 178.473 m f
328.961 189.195 m 328.961 190.559 327.855 191.664 326.492 191.664 c 325.129
 191.664 324.023 190.559 324.023 189.195 c 324.023 187.832 325.129 186.727
 326.492 186.727 c 327.855 186.727 328.961 187.832 328.961 189.195 c h
328.961 189.195 m f
334.746 194.383 m 333.383 194.383 332.277 195.488 332.277 196.852 c 332.277
 198.215 333.383 199.32 334.746 199.32 c 336.109 199.32 337.215 198.215 
337.215 196.852 c 337.215 195.488 336.109 194.383 334.746 194.383 c h
334.746 194.383 m f
328.961 205.109 m 328.961 206.473 327.855 207.578 326.492 207.578 c 325.129
 207.578 324.023 206.473 324.023 205.109 c 324.023 203.746 325.129 202.641
 326.492 202.641 c 327.855 202.641 328.961 203.746 328.961 205.109 c h
328.961 205.109 m f
334.746 210.297 m 333.383 210.297 332.277 211.402 332.277 212.766 c 332.277
 214.129 333.383 215.234 334.746 215.234 c 336.109 215.234 337.215 214.129
 337.215 212.766 c 337.215 211.402 336.109 210.297 334.746 210.297 c h
334.746 210.297 m f
328.961 221.023 m 328.961 222.387 327.855 223.492 326.492 223.492 c 325.129
 223.492 324.023 222.387 324.023 221.023 c 324.023 219.66 325.129 218.555
 326.492 218.555 c 327.855 218.555 328.961 219.66 328.961 221.023 c h
328.961 221.023 m f
334.746 226.211 m 333.383 226.211 332.277 227.316 332.277 228.68 c 332.277
 230.043 333.383 231.148 334.746 231.148 c 336.109 231.148 337.215 230.043
 337.215 228.68 c 337.215 227.316 336.109 226.211 334.746 226.211 c h
334.746 226.211 m f
328.961 236.934 m 328.961 238.297 327.855 239.402 326.492 239.402 c 325.129
 239.402 324.023 238.297 324.023 236.934 c 324.023 235.57 325.129 234.465
 326.492 234.465 c 327.855 234.465 328.961 235.57 328.961 236.934 c h
328.961 236.934 m f
334.746 242.125 m 333.383 242.125 332.277 243.23 332.277 244.594 c 332.277
 245.953 333.383 247.059 334.746 247.059 c 336.109 247.059 337.215 245.953
 337.215 244.594 c 337.215 243.23 336.109 242.125 334.746 242.125 c h
334.746 242.125 m f
328.961 252.848 m 328.961 254.211 327.855 255.316 326.492 255.316 c 325.129
 255.316 324.023 254.211 324.023 252.848 c 324.023 251.484 325.129 250.379
 326.492 250.379 c 327.855 250.379 328.961 251.484 328.961 252.848 c h
328.961 252.848 m f
334.746 258.035 m 333.383 258.035 332.277 259.141 332.277 260.504 c 332.277
 261.867 333.383 262.973 334.746 262.973 c 336.109 262.973 337.215 261.867
 337.215 260.504 c 337.215 259.141 336.109 258.035 334.746 258.035 c h
334.746 258.035 m f
328.961 268.762 m 328.961 270.125 327.855 271.23 326.492 271.23 c 325.129
 271.23 324.023 270.125 324.023 268.762 c 324.023 267.398 325.129 266.293
 326.492 266.293 c 327.855 266.293 328.961 267.398 328.961 268.762 c h
328.961 268.762 m f
334.746 273.949 m 333.383 273.949 332.277 275.055 332.277 276.418 c 332.277
 277.781 333.383 278.887 334.746 278.887 c 336.109 278.887 337.215 277.781
 337.215 276.418 c 337.215 275.055 336.109 273.949 334.746 273.949 c h
334.746 273.949 m f
328.961 284.676 m 328.961 286.039 327.855 287.145 326.492 287.145 c 325.129
 287.145 324.023 286.039 324.023 284.676 c 324.023 283.312 325.129 282.207
 326.492 282.207 c 327.855 282.207 328.961 283.312 328.961 284.676 c h
328.961 284.676 m f
334.746 289.863 m 333.383 289.863 332.277 290.969 332.277 292.332 c 332.277
 293.695 333.383 294.801 334.746 294.801 c 336.109 294.801 337.215 293.695
 337.215 292.332 c 337.215 290.969 336.109 289.863 334.746 289.863 c h
334.746 289.863 m f
328.961 300.59 m 328.961 301.953 327.855 303.055 326.492 303.055 c 325.129
 303.055 324.023 301.953 324.023 300.59 c 324.023 299.227 325.129 298.121
 326.492 298.121 c 327.855 298.121 328.961 299.227 328.961 300.59 c h
328.961 300.59 m f
313.047 141.457 m 313.047 142.82 311.941 143.926 310.578 143.926 c 309.215
 143.926 308.109 142.82 308.109 141.457 c 308.109 140.094 309.215 138.988
 310.578 138.988 c 311.941 138.988 313.047 140.094 313.047 141.457 c h
313.047 141.457 m f
318.836 146.645 m 317.469 146.645 316.367 147.75 316.367 149.113 c 316.367
 150.477 317.469 151.582 318.836 151.582 c 320.199 151.582 321.301 150.477
 321.301 149.113 c 321.301 147.75 320.195 146.645 318.836 146.645 c h
318.836 146.645 m f
313.047 157.371 m 313.047 158.734 311.941 159.836 310.578 159.836 c 309.215
 159.836 308.109 158.734 308.109 157.371 c 308.109 156.008 309.215 154.902
 310.578 154.902 c 311.941 154.902 313.047 156.008 313.047 157.371 c h
313.047 157.371 m f
321.301 165.027 m 321.301 166.391 320.195 167.496 318.836 167.496 c 317.473
 167.496 316.367 166.391 316.367 165.027 c 316.367 163.664 317.473 162.559
 318.836 162.559 c 320.195 162.559 321.301 163.664 321.301 165.027 c h
321.301 165.027 m f
313.047 173.281 m 313.047 174.645 311.941 175.75 310.578 175.75 c 309.215
 175.75 308.109 174.645 308.109 173.281 c 308.109 171.918 309.215 170.812
 310.578 170.812 c 311.941 170.812 313.047 171.918 313.047 173.281 c h
313.047 173.281 m f
321.301 180.941 m 321.301 182.305 320.195 183.406 318.836 183.406 c 317.473
 183.406 316.367 182.305 316.367 180.941 c 316.367 179.578 317.473 178.473
 318.836 178.473 c 320.195 178.473 321.301 179.578 321.301 180.941 c h
321.301 180.941 m f
313.047 189.195 m 313.047 190.559 311.941 191.664 310.578 191.664 c 309.215
 191.664 308.109 190.559 308.109 189.195 c 308.109 187.832 309.215 186.727
 310.578 186.727 c 311.941 186.727 313.047 187.832 313.047 189.195 c h
313.047 189.195 m f
321.301 196.852 m 321.301 198.215 320.195 199.32 318.836 199.32 c 317.473
 199.32 316.367 198.215 316.367 196.852 c 316.367 195.488 317.473 194.383
 318.836 194.383 c 320.195 194.383 321.301 195.488 321.301 196.852 c h
321.301 196.852 m f
313.047 205.109 m 313.047 206.473 311.941 207.578 310.578 207.578 c 309.215
 207.578 308.109 206.473 308.109 205.109 c 308.109 203.746 309.215 202.641
 310.578 202.641 c 311.941 202.641 313.047 203.746 313.047 205.109 c h
313.047 205.109 m f
321.301 212.766 m 321.301 214.129 320.195 215.234 318.836 215.234 c 317.473
 215.234 316.367 214.129 316.367 212.766 c 316.367 211.402 317.473 210.297
 318.836 210.297 c 320.195 210.297 321.301 211.402 321.301 212.766 c h
321.301 212.766 m f
313.047 221.023 m 313.047 222.387 311.941 223.492 310.578 223.492 c 309.215
 223.492 308.109 222.387 308.109 221.023 c 308.109 219.66 309.215 218.555
 310.578 218.555 c 311.941 218.555 313.047 219.66 313.047 221.023 c h
313.047 221.023 m f
321.301 228.68 m 321.301 230.043 320.195 231.148 318.836 231.148 c 317.473
 231.148 316.367 230.043 316.367 228.68 c 316.367 227.316 317.473 226.211
 318.836 226.211 c 320.195 226.211 321.301 227.316 321.301 228.68 c h
321.301 228.68 m f
313.047 236.934 m 313.047 238.297 311.941 239.402 310.578 239.402 c 309.215
 239.402 308.109 238.297 308.109 236.934 c 308.109 235.57 309.215 234.465
 310.578 234.465 c 311.941 234.465 313.047 235.57 313.047 236.934 c h
313.047 236.934 m f
321.301 244.594 m 321.301 245.957 320.195 247.059 318.836 247.059 c 317.473
 247.059 316.367 245.957 316.367 244.594 c 316.367 243.23 317.473 242.125
 318.836 242.125 c 320.195 242.125 321.301 243.23 321.301 244.594 c h
321.301 244.594 m f
313.047 252.848 m 313.047 254.211 311.941 255.316 310.578 255.316 c 309.215
 255.316 308.109 254.211 308.109 252.848 c 308.109 251.484 309.215 250.379
 310.578 250.379 c 311.941 250.379 313.047 251.484 313.047 252.848 c h
313.047 252.848 m f
321.301 260.504 m 321.301 261.867 320.195 262.973 318.836 262.973 c 317.473
 262.973 316.367 261.867 316.367 260.504 c 316.367 259.141 317.473 258.039
 318.836 258.039 c 320.195 258.039 321.301 259.141 321.301 260.504 c h
321.301 260.504 m f
313.047 268.762 m 313.047 270.125 311.941 271.23 310.578 271.23 c 309.215
 271.23 308.109 270.125 308.109 268.762 c 308.109 267.398 309.215 266.293
 310.578 266.293 c 311.941 266.293 313.047 267.398 313.047 268.762 c h
313.047 268.762 m f
318.836 273.949 m 317.469 273.949 316.367 275.055 316.367 276.418 c 316.367
 277.781 317.469 278.887 318.836 278.887 c 320.199 278.887 321.301 277.781
 321.301 276.418 c 321.301 275.055 320.195 273.949 318.836 273.949 c h
318.836 273.949 m f
313.047 284.676 m 313.047 286.039 311.941 287.145 310.578 287.145 c 309.215
 287.145 308.109 286.039 308.109 284.676 c 308.109 283.312 309.215 282.207
 310.578 282.207 c 311.941 282.207 313.047 283.312 313.047 284.676 c h
313.047 284.676 m f
321.301 292.332 m 321.301 293.695 320.195 294.801 318.836 294.801 c 317.473
 294.801 316.367 293.695 316.367 292.332 c 316.367 290.969 317.473 289.863
 318.836 289.863 c 320.195 289.863 321.301 290.969 321.301 292.332 c h
321.301 292.332 m f
313.047 300.59 m 313.047 301.953 311.941 303.055 310.578 303.055 c 309.215
 303.055 308.109 301.953 308.109 300.59 c 308.109 299.227 309.215 298.121
 310.578 298.121 c 311.941 298.121 313.047 299.227 313.047 300.59 c h
313.047 300.59 m f
294.664 123.074 m 293.301 123.074 292.195 124.18 292.195 125.543 c 292.195
 126.906 293.301 128.012 294.664 128.012 c 296.027 128.012 297.133 126.906
 297.133 125.543 c 297.133 124.18 296.027 123.074 294.664 123.074 c h
294.664 123.074 m f
294.664 138.988 m 293.301 138.988 292.195 140.094 292.195 141.457 c 292.195
 142.82 293.301 143.926 294.664 143.926 c 296.027 143.926 297.133 142.82
 297.133 141.457 c 297.133 140.094 296.027 138.988 294.664 138.988 c h
294.664 138.988 m f
302.922 146.645 m 301.559 146.645 300.453 147.75 300.453 149.113 c 300.453
 150.477 301.559 151.582 302.922 151.582 c 304.285 151.582 305.391 150.477
 305.391 149.113 c 305.391 147.75 304.285 146.645 302.922 146.645 c h
302.922 146.645 m f
294.664 154.902 m 293.301 154.902 292.195 156.008 292.195 157.371 c 292.195
 158.73 293.301 159.836 294.664 159.836 c 296.027 159.836 297.133 158.734
 297.133 157.371 c 297.133 156.008 296.027 154.902 294.664 154.902 c h
294.664 154.902 m f
302.922 162.559 m 301.559 162.559 300.453 163.664 300.453 165.027 c 300.453
 166.391 301.559 167.496 302.922 167.496 c 304.285 167.496 305.391 166.391
 305.391 165.027 c 305.391 163.664 304.285 162.559 302.922 162.559 c h
302.922 162.559 m f
294.664 170.812 m 293.301 170.812 292.195 171.918 292.195 173.281 c 292.195
 174.645 293.301 175.75 294.664 175.75 c 296.027 175.75 297.133 174.645 
297.133 173.281 c 297.133 171.918 296.027 170.812 294.664 170.812 c h
294.664 170.812 m f
302.922 178.473 m 301.559 178.473 300.453 179.578 300.453 180.938 c 300.453
 182.301 301.559 183.406 302.922 183.406 c 304.285 183.406 305.391 182.301
 305.391 180.938 c 305.391 179.578 304.285 178.473 302.922 178.473 c h
302.922 178.473 m f
294.664 186.727 m 293.301 186.727 292.195 187.832 292.195 189.195 c 292.195
 190.559 293.301 191.664 294.664 191.664 c 296.027 191.664 297.133 190.559
 297.133 189.195 c 297.133 187.832 296.027 186.727 294.664 186.727 c h
294.664 186.727 m f
302.922 194.383 m 301.559 194.383 300.453 195.488 300.453 196.852 c 300.453
 198.215 301.559 199.32 302.922 199.32 c 304.285 199.32 305.391 198.215 
305.391 196.852 c 305.391 195.488 304.285 194.383 302.922 194.383 c h
302.922 194.383 m f
294.664 202.641 m 293.301 202.641 292.195 203.746 292.195 205.109 c 292.195
 206.473 293.301 207.578 294.664 207.578 c 296.027 207.578 297.133 206.473
 297.133 205.109 c 297.133 203.746 296.027 202.641 294.664 202.641 c h
294.664 202.641 m f
302.922 210.297 m 301.559 210.297 300.453 211.402 300.453 212.766 c 300.453
 214.129 301.559 215.234 302.922 215.234 c 304.285 215.234 305.391 214.129
 305.391 212.766 c 305.391 211.402 304.285 210.297 302.922 210.297 c h
302.922 210.297 m f
294.664 218.555 m 293.301 218.555 292.195 219.66 292.195 221.023 c 292.195
 222.387 293.301 223.492 294.664 223.492 c 296.027 223.492 297.133 222.383
 297.133 221.023 c 297.133 219.66 296.027 218.555 294.664 218.555 c h
294.664 218.555 m f
302.922 226.211 m 301.559 226.211 300.453 227.316 300.453 228.68 c 300.453
 230.043 301.559 231.148 302.922 231.148 c 304.285 231.148 305.391 230.043
 305.391 228.68 c 305.391 227.316 304.285 226.211 302.922 226.211 c h
302.922 226.211 m f
294.664 234.465 m 293.301 234.465 292.195 235.57 292.195 236.934 c 292.195
 238.297 293.301 239.402 294.664 239.402 c 296.027 239.402 297.133 238.297
 297.133 236.934 c 297.133 235.57 296.027 234.465 294.664 234.465 c h
294.664 234.465 m f
302.922 242.125 m 301.559 242.125 300.453 243.23 300.453 244.594 c 300.453
 245.953 301.559 247.059 302.922 247.059 c 304.285 247.059 305.391 245.953
 305.391 244.594 c 305.391 243.23 304.285 242.125 302.922 242.125 c h
302.922 242.125 m f
294.664 250.379 m 293.301 250.379 292.195 251.484 292.195 252.848 c 292.195
 254.211 293.301 255.316 294.664 255.316 c 296.027 255.316 297.133 254.211
 297.133 252.848 c 297.133 251.484 296.027 250.379 294.664 250.379 c h
294.664 250.379 m f
302.922 258.035 m 301.559 258.035 300.453 259.141 300.453 260.504 c 300.453
 261.867 301.559 262.973 302.922 262.973 c 304.285 262.973 305.391 261.867
 305.391 260.504 c 305.391 259.141 304.285 258.035 302.922 258.035 c h
302.922 258.035 m f
294.664 266.293 m 293.301 266.293 292.195 267.398 292.195 268.762 c 292.195
 270.125 293.301 271.23 294.664 271.23 c 296.027 271.23 297.133 270.125 
297.133 268.762 c 297.133 267.398 296.027 266.293 294.664 266.293 c h
294.664 266.293 m f
302.922 273.949 m 301.559 273.949 300.453 275.055 300.453 276.418 c 300.453
 277.781 301.559 278.887 302.922 278.887 c 304.285 278.887 305.391 277.781
 305.391 276.418 c 305.391 275.055 304.285 273.949 302.922 273.949 c h
302.922 273.949 m f
294.664 282.207 m 293.301 282.207 292.195 283.312 292.195 284.676 c 292.195
 286.039 293.301 287.145 294.664 287.145 c 296.027 287.145 297.133 286.039
 297.133 284.676 c 297.133 283.312 296.027 282.207 294.664 282.207 c h
294.664 282.207 m f
302.922 289.863 m 301.559 289.863 300.453 290.969 300.453 292.332 c 300.453
 293.695 301.559 294.801 302.922 294.801 c 304.285 294.801 305.391 293.695
 305.391 292.332 c 305.391 290.969 304.285 289.863 302.922 289.863 c h
302.922 289.863 m f
294.664 298.121 m 293.301 298.121 292.195 299.227 292.195 300.59 c 292.195
 301.949 293.301 303.055 294.664 303.055 c 296.027 303.055 297.133 301.949
 297.133 300.59 c 297.133 299.227 296.027 298.121 294.664 298.121 c h
294.664 298.121 m f
281.219 109.629 m 281.219 110.992 280.113 112.098 278.75 112.098 c 277.387
 112.098 276.285 110.992 276.285 109.629 c 276.285 108.266 277.387 107.16
 278.75 107.16 c 280.113 107.16 281.219 108.266 281.219 109.629 c h
281.219 109.629 m f
287.008 114.82 m 285.645 114.82 284.539 115.922 284.539 117.289 c 284.539
 118.652 285.645 119.754 287.008 119.754 c 288.371 119.754 289.477 118.648
 289.477 117.289 c 289.477 115.926 288.371 114.82 287.008 114.82 c h
287.008 114.82 m f
281.219 125.543 m 281.219 126.906 280.113 128.012 278.75 128.012 c 277.387
 128.012 276.285 126.906 276.285 125.543 c 276.285 124.18 277.387 123.074
 278.75 123.074 c 280.113 123.074 281.219 124.18 281.219 125.543 c h
281.219 125.543 m f
287.008 130.73 m 285.645 130.73 284.539 131.836 284.539 133.199 c 284.539
 134.562 285.645 135.668 287.008 135.668 c 288.371 135.668 289.477 134.562
 289.477 133.199 c 289.477 131.836 288.371 130.73 287.008 130.73 c h
287.008 130.73 m f
281.219 141.457 m 281.219 142.82 280.113 143.926 278.75 143.926 c 277.387
 143.926 276.285 142.82 276.285 141.457 c 276.285 140.094 277.387 138.988
 278.75 138.988 c 280.113 138.988 281.219 140.094 281.219 141.457 c h
281.219 141.457 m f
287.008 146.645 m 285.645 146.645 284.539 147.75 284.539 149.113 c 284.539
 150.477 285.645 151.582 287.008 151.582 c 288.371 151.582 289.477 150.477
 289.477 149.113 c 289.477 147.75 288.371 146.645 287.008 146.645 c h
287.008 146.645 m f
281.219 157.371 m 281.219 158.734 280.113 159.836 278.75 159.836 c 277.387
 159.836 276.285 158.734 276.285 157.371 c 276.285 156.008 277.387 154.902
 278.75 154.902 c 280.113 154.902 281.219 156.008 281.219 157.371 c h
281.219 157.371 m f
287.008 162.559 m 285.645 162.559 284.539 163.664 284.539 165.027 c 284.539
 166.391 285.645 167.496 287.008 167.496 c 288.371 167.496 289.477 166.391
 289.477 165.027 c 289.477 163.664 288.371 162.559 287.008 162.559 c h
287.008 162.559 m f
281.219 173.281 m 281.219 174.645 280.113 175.75 278.75 175.75 c 277.387
 175.75 276.285 174.645 276.285 173.281 c 276.285 171.918 277.387 170.812
 278.75 170.812 c 280.113 170.812 281.219 171.918 281.219 173.281 c h
281.219 173.281 m f
287.008 178.473 m 285.645 178.473 284.539 179.578 284.539 180.938 c 284.539
 182.301 285.645 183.406 287.008 183.406 c 288.371 183.406 289.477 182.301
 289.477 180.938 c 289.477 179.578 288.371 178.473 287.008 178.473 c h
287.008 178.473 m f
281.219 189.195 m 281.219 190.559 280.113 191.664 278.75 191.664 c 277.387
 191.664 276.285 190.559 276.285 189.195 c 276.285 187.832 277.387 186.727
 278.75 186.727 c 280.113 186.727 281.219 187.832 281.219 189.195 c h
281.219 189.195 m f
287.008 194.383 m 285.645 194.383 284.539 195.488 284.539 196.852 c 284.539
 198.215 285.645 199.32 287.008 199.32 c 288.371 199.32 289.477 198.215 
289.477 196.852 c 289.477 195.488 288.371 194.383 287.008 194.383 c h
287.008 194.383 m f
281.219 205.109 m 281.219 206.473 280.113 207.578 278.75 207.578 c 277.387
 207.578 276.285 206.473 276.285 205.109 c 276.285 203.746 277.387 202.641
 278.75 202.641 c 280.113 202.641 281.219 203.746 281.219 205.109 c h
281.219 205.109 m f
287.008 210.297 m 285.645 210.297 284.539 211.402 284.539 212.766 c 284.539
 214.129 285.645 215.234 287.008 215.234 c 288.371 215.234 289.477 214.129
 289.477 212.766 c 289.477 211.402 288.371 210.297 287.008 210.297 c h
287.008 210.297 m f
281.219 221.023 m 281.219 222.387 280.113 223.492 278.75 223.492 c 277.387
 223.492 276.285 222.387 276.285 221.023 c 276.285 219.66 277.387 218.555
 278.75 218.555 c 280.113 218.555 281.219 219.66 281.219 221.023 c h
281.219 221.023 m f
287.008 226.211 m 285.645 226.211 284.539 227.316 284.539 228.68 c 284.539
 230.043 285.645 231.148 287.008 231.148 c 288.371 231.148 289.477 230.043
 289.477 228.68 c 289.477 227.316 288.371 226.211 287.008 226.211 c h
287.008 226.211 m f
281.219 236.934 m 281.219 238.297 280.113 239.402 278.75 239.402 c 277.387
 239.402 276.285 238.297 276.285 236.934 c 276.285 235.57 277.387 234.465
 278.75 234.465 c 280.113 234.465 281.219 235.57 281.219 236.934 c h
281.219 236.934 m f
287.008 242.125 m 285.645 242.125 284.539 243.23 284.539 244.594 c 284.539
 245.953 285.645 247.059 287.008 247.059 c 288.371 247.059 289.477 245.953
 289.477 244.594 c 289.477 243.23 288.371 242.125 287.008 242.125 c h
287.008 242.125 m f
281.219 252.848 m 281.219 254.211 280.113 255.316 278.75 255.316 c 277.387
 255.316 276.285 254.211 276.285 252.848 c 276.285 251.484 277.387 250.379
 278.75 250.379 c 280.113 250.379 281.219 251.484 281.219 252.848 c h
281.219 252.848 m f
287.008 258.035 m 285.645 258.035 284.539 259.141 284.539 260.504 c 284.539
 261.867 285.645 262.973 287.008 262.973 c 288.371 262.973 289.477 261.867
 289.477 260.504 c 289.477 259.141 288.371 258.035 287.008 258.035 c h
287.008 258.035 m f
281.219 268.762 m 281.219 270.125 280.113 271.23 278.75 271.23 c 277.387
 271.23 276.285 270.125 276.285 268.762 c 276.285 267.398 277.387 266.293
 278.75 266.293 c 280.113 266.293 281.219 267.398 281.219 268.762 c h
281.219 268.762 m f
287.008 273.949 m 285.645 273.949 284.539 275.055 284.539 276.418 c 284.539
 277.781 285.645 278.887 287.008 278.887 c 288.371 278.887 289.477 277.781
 289.477 276.418 c 289.477 275.055 288.371 273.949 287.008 273.949 c h
287.008 273.949 m f
281.219 284.676 m 281.219 286.039 280.113 287.145 278.75 287.145 c 277.387
 287.145 276.285 286.039 276.285 284.676 c 276.285 283.312 277.387 282.207
 278.75 282.207 c 280.113 282.207 281.219 283.312 281.219 284.676 c h
281.219 284.676 m f
287.008 289.863 m 285.645 289.863 284.539 290.969 284.539 292.332 c 284.539
 293.695 285.645 294.801 287.008 294.801 c 288.371 294.801 289.477 293.695
 289.477 292.332 c 289.477 290.969 288.371 289.863 287.008 289.863 c h
287.008 289.863 m f
281.219 300.59 m 281.219 301.953 280.113 303.055 278.75 303.055 c 277.387
 303.055 276.285 301.953 276.285 300.59 c 276.285 299.227 277.387 298.121
 278.75 298.121 c 280.113 298.121 281.219 299.227 281.219 300.59 c h
281.219 300.59 m f
273.562 101.375 m 273.562 102.738 272.457 103.844 271.094 103.844 c 269.73
 103.844 268.625 102.738 268.625 101.375 c 268.625 100.012 269.73 98.906
 271.094 98.906 c 272.457 98.906 273.562 100.012 273.562 101.375 c h
273.562 101.375 m f
273.562 117.289 m 273.562 118.652 272.457 119.754 271.094 119.754 c 269.73
 119.754 268.625 118.652 268.625 117.289 c 268.625 115.926 269.73 114.82
 271.094 114.82 c 272.457 114.82 273.562 115.926 273.562 117.289 c h
273.562 117.289 m f
273.562 133.199 m 273.562 134.562 272.457 135.668 271.094 135.668 c 269.73
 135.668 268.625 134.562 268.625 133.199 c 268.625 131.836 269.73 130.73
 271.094 130.73 c 272.457 130.73 273.562 131.836 273.562 133.199 c h
273.562 133.199 m f
271.094 146.645 m 269.73 146.645 268.625 147.75 268.625 149.113 c 268.625
 150.477 269.73 151.582 271.094 151.582 c 272.457 151.582 273.562 150.477
 273.562 149.113 c 273.562 147.75 272.457 146.645 271.094 146.645 c h
271.094 146.645 m f
273.562 165.027 m 273.562 166.391 272.457 167.496 271.094 167.496 c 269.73
 167.496 268.625 166.391 268.625 165.027 c 268.625 163.664 269.73 162.559
 271.094 162.559 c 272.457 162.559 273.562 163.664 273.562 165.027 c h
273.562 165.027 m f
273.562 180.941 m 273.562 182.305 272.457 183.406 271.094 183.406 c 269.73
 183.406 268.625 182.305 268.625 180.941 c 268.625 179.578 269.73 178.473
 271.094 178.473 c 272.457 178.473 273.562 179.578 273.562 180.941 c h
273.562 180.941 m f
273.562 196.852 m 273.562 198.215 272.457 199.32 271.094 199.32 c 269.73
 199.32 268.625 198.215 268.625 196.852 c 268.625 195.488 269.73 194.383
 271.094 194.383 c 272.457 194.383 273.562 195.488 273.562 196.852 c h
273.562 196.852 m f
273.562 212.766 m 273.562 214.129 272.457 215.234 271.094 215.234 c 269.73
 215.234 268.625 214.129 268.625 212.766 c 268.625 211.402 269.73 210.297
 271.094 210.297 c 272.457 210.297 273.562 211.402 273.562 212.766 c h
273.562 212.766 m f
273.562 228.68 m 273.562 230.043 272.457 231.148 271.094 231.148 c 269.73
 231.148 268.625 230.043 268.625 228.68 c 268.625 227.316 269.73 226.211
 271.094 226.211 c 272.457 226.211 273.562 227.316 273.562 228.68 c h
273.562 228.68 m f
273.562 244.594 m 273.562 245.957 272.457 247.059 271.094 247.059 c 269.73
 247.059 268.625 245.957 268.625 244.594 c 268.625 243.23 269.73 242.125
 271.094 242.125 c 272.457 242.125 273.562 243.23 273.562 244.594 c h
273.562 244.594 m f
273.562 260.504 m 273.562 261.867 272.457 262.973 271.094 262.973 c 269.73
 262.973 268.625 261.867 268.625 260.504 c 268.625 259.141 269.73 258.039
 271.094 258.039 c 272.457 258.039 273.562 259.141 273.562 260.504 c h
273.562 260.504 m f
271.094 273.949 m 269.73 273.949 268.625 275.055 268.625 276.418 c 268.625
 277.781 269.73 278.887 271.094 278.887 c 272.457 278.887 273.562 277.781
 273.562 276.418 c 273.562 275.055 272.457 273.949 271.094 273.949 c h
271.094 273.949 m f
273.562 292.332 m 273.562 293.695 272.457 294.801 271.094 294.801 c 269.73
 294.801 268.625 293.695 268.625 292.332 c 268.625 290.969 269.73 289.863
 271.094 289.863 c 272.457 289.863 273.562 290.969 273.562 292.332 c h
273.562 292.332 m f
0.192157 0.215686 0.239216 rg
383.496 132.586 m 348.711 80.285 l 345.461 75.023 341.68 72.246 337.777
 72.246 c 46.332 72.484 l 40.57 72.484 36.816 78.289 35.582 80.195 c 0.512
 132.574 l -0.109 133.504 -0.168 134.695 0.355 135.68 c 0.883 136.664 1.906
 137.277 3.02 137.277 c 34.906 137.277 l 34.906 302.469 l 34.906 307.59 
39.074 311.758 44.195 311.758 c 339.547 311.758 l 344.668 311.758 348.836
 307.59 348.836 302.469 c 348.836 137.277 l 380.98 137.277 l 382.094 137.277
 383.117 136.664 383.645 135.684 c 384.168 134.703 384.109 133.512 383.496
 132.586 c h
40.43 83.82 m 40.488 83.73 40.566 83.617 40.656 83.473 c 43.301 79.387 
45.199 78.527 46.328 78.527 c 46.328 78.527 265.242 78.34 266.379 78.312
 c 266.285 78.945 231.477 131.234 231.477 131.234 c 8.68 131.234 l h
44.195 305.715 m 42.402 305.715 40.949 304.258 40.949 302.469 c 40.949 
137.277 l 233.094 137.277 l 234.102 137.277 235.043 136.773 235.602 135.938
 c 264.977 92.07 l 264.977 302.469 l 264.977 304.258 263.523 305.715 261.73
 305.715 c h
342.793 302.469 m 342.793 304.258 341.336 305.715 339.547 305.715 c 270.422
 305.715 l 270.801 304.703 271.02 303.613 271.02 302.469 c 271.02 88.703
 l 301.852 135.91 l 302.41 136.762 303.363 137.277 304.383 137.277 c 342.793
 137.277 l h
306.016 131.234 m 271.445 78.305 l 337.777 78.285 l 339.41 78.285 341.586
 80.234 343.598 83.5 c 343.613 83.527 375.344 131.238 375.344 131.238 c 
306.016 131.238 l h
306.016 131.234 m f
128.559 248.582 m 76.848 248.582 l 75.18 248.582 73.828 249.934 73.828 
251.602 c 73.828 253.27 75.18 254.621 76.848 254.621 c 128.559 254.621 l
 130.227 254.621 131.578 253.27 131.578 251.602 c 131.578 249.934 130.227
 248.582 128.559 248.582 c h
128.559 248.582 m f
128.559 269.266 m 76.848 269.266 l 75.18 269.266 73.828 270.617 73.828 
272.285 c 73.828 273.953 75.18 275.305 76.848 275.305 c 128.559 275.305 
l 130.227 275.305 131.578 273.953 131.578 272.285 c 131.578 270.617 130.227
 269.266 128.559 269.266 c h
128.559 269.266 m f
Q Q
showpage
%%Trailer
end
%%EOF
