%!PS-Adobe-3.0 EPSF-3.0
%%Creator: cairo 1.16.0 (https://cairographics.org)
%%CreationDate: Fri Feb 12 12:12:43 2021
%%Pages: 1
%%DocumentData: Clean7Bit
%%LanguageLevel: 2
%%BoundingBox: 0 1 384 383
%%EndComments
%%BeginProlog
50 dict begin
/q { gsave } bind def
/Q { grestore } bind def
/cm { 6 array astore concat } bind def
/w { setlinewidth } bind def
/J { setlinecap } bind def
/j { setlinejoin } bind def
/M { setmiterlimit } bind def
/d { setdash } bind def
/m { moveto } bind def
/l { lineto } bind def
/c { curveto } bind def
/h { closepath } bind def
/re { exch dup neg 3 1 roll 5 3 roll moveto 0 rlineto
      0 exch rlineto 0 rlineto closepath } bind def
/S { stroke } bind def
/f { fill } bind def
/f* { eofill } bind def
/n { newpath } bind def
/W { clip } bind def
/W* { eoclip } bind def
/BT { } bind def
/ET { } bind def
/BDC { mark 3 1 roll /BDC pdfmark } bind def
/EMC { mark /EMC pdfmark } bind def
/cairo_store_point { /cairo_point_y exch def /cairo_point_x exch def } def
/Tj { show currentpoint cairo_store_point } bind def
/TJ {
  {
    dup
    type /stringtype eq
    { show } { -0.001 mul 0 cairo_font_matrix dtransform rmoveto } ifelse
  } forall
  currentpoint cairo_store_point
} bind def
/cairo_selectfont { cairo_font_matrix aload pop pop pop 0 0 6 array astore
    cairo_font exch selectfont cairo_point_x cairo_point_y moveto } bind def
/Tf { pop /cairo_font exch def /cairo_font_matrix where
      { pop cairo_selectfont } if } bind def
/Td { matrix translate cairo_font_matrix matrix concatmatrix dup
      /cairo_font_matrix exch def dup 4 get exch 5 get cairo_store_point
      /cairo_font where { pop cairo_selectfont } if } bind def
/Tm { 2 copy 8 2 roll 6 array astore /cairo_font_matrix exch def
      cairo_store_point /cairo_font where { pop cairo_selectfont } if } bind def
/g { setgray } bind def
/rg { setrgbcolor } bind def
/d1 { setcachedevice } bind def
/cairo_data_source {
  CairoDataIndex CairoData length lt
    { CairoData CairoDataIndex get /CairoDataIndex CairoDataIndex 1 add def }
    { () } ifelse
} def
/cairo_flush_ascii85_file { cairo_ascii85_file status { cairo_ascii85_file flushfile } if } def
/cairo_image { image cairo_flush_ascii85_file } def
/cairo_imagemask { imagemask cairo_flush_ascii85_file } def
%%EndProlog
%%BeginSetup
%%EndSetup
%%Page: 1 1
%%BeginPageSetup
%%PageBoundingBox: 0 1 384 383
%%EndPageSetup
q 0 1 384 382 rectclip
1 0 0 -1 0 384 cm q
0.913725 0.760784 0.470588 rg
369.562 198.461 m 14.438 198.461 l 8.16 198.461 3.07 203.551 3.07 209.828
 c 3.07 238.129 l 3.07 244.234 7.887 249.199 13.93 249.469 c 13.93 366.797
 l 13.93 373.973 19.746 379.789 26.922 379.789 c 357.078 379.789 l 364.254
 379.789 370.074 373.973 370.074 366.797 c 370.074 249.469 l 376.113 249.203
 380.93 244.234 380.93 238.129 c 380.93 209.828 l 380.93 203.551 375.84 
198.461 369.562 198.461 c h
369.562 198.461 m f
0.917647 0.658824 0.584314 rg
307.363 55.789 m 307.363 32.219 292.574 12.109 271.773 4.211 c 180.316 
123.836 l 174.117 130.953 167.066 142.258 141.285 144.379 c 130.617 145.258
 120.703 144.188 112.484 144.246 c 98.848 154.012 76.629 176.734 76.637 
195.07 c 76.641 195.887 77.32 196.547 78.141 196.547 c 180.133 196.547 l
 182.277 196.547 184.316 195.613 185.719 193.992 c 200.891 168.336 218.387
 140.312 247.992 110.793 c 248.234 110.809 248.84 110.383 249.762 109.652
 c 254.242 121.582 256.566 134.262 256.566 147.102 c 256.566 198.461 l 279.395
 198.461 l 279.395 147.102 l 279.395 128.418 284.312 110.062 293.652 93.883
 c 300.965 81.223 l 301.164 81.086 301.273 81.008 301.273 81.008 c 305.164
 73.453 307.363 64.875 307.363 55.789 c h
307.363 55.789 m f
0.976471 0.984314 0.988235 rg
331.594 346.66 m 208.215 346.66 l 205.402 346.66 203.121 344.383 203.121
 341.566 c 203.121 309.309 l 203.121 306.496 205.402 304.215 208.215 304.215
 c 331.594 304.215 l 334.406 304.215 336.688 306.496 336.688 309.309 c 336.688
 341.566 l 336.688 344.383 334.406 346.66 331.594 346.66 c h
331.594 346.66 m f
362.449 256.078 m 361.062 256.078 359.938 257.203 359.938 258.59 c 359.938
 259.973 361.062 261.098 362.449 261.098 c 363.836 261.098 364.957 259.973
 364.957 258.59 c 364.957 257.203 363.836 256.078 362.449 256.078 c h
362.449 256.078 m f
362.449 272.254 m 361.062 272.254 359.938 273.379 359.938 274.762 c 359.938
 276.148 361.062 277.273 362.449 277.273 c 363.836 277.273 364.957 276.148
 364.957 274.762 c 364.957 273.379 363.836 272.254 362.449 272.254 c h
362.449 272.254 m f
346.273 256.078 m 344.887 256.078 343.766 257.203 343.766 258.59 c 343.766
 259.973 344.887 261.098 346.273 261.098 c 347.66 261.098 348.781 259.973
 348.781 258.59 c 348.781 257.203 347.66 256.078 346.273 256.078 c h
346.273 256.078 m f
354.664 263.863 m 353.277 263.863 352.156 264.984 352.156 266.371 c 352.156
 267.758 353.281 268.879 354.664 268.879 c 356.051 268.879 357.176 267.758
 357.176 266.371 c 357.176 264.984 356.051 263.863 354.664 263.863 c h
354.664 263.863 m f
346.273 272.254 m 344.887 272.254 343.766 273.379 343.766 274.762 c 343.766
 276.148 344.887 277.273 346.273 277.273 c 347.66 277.273 348.781 276.148
 348.781 274.762 c 348.781 273.379 347.66 272.254 346.273 272.254 c h
346.273 272.254 m f
330.098 256.078 m 328.711 256.078 327.59 257.203 327.59 258.59 c 327.59
 259.973 328.715 261.098 330.098 261.098 c 331.484 261.098 332.605 259.973
 332.605 258.59 c 332.605 257.203 331.484 256.078 330.098 256.078 c h
330.098 256.078 m f
338.488 263.863 m 337.105 263.863 335.98 264.984 335.98 266.371 c 335.98
 267.758 337.105 268.879 338.488 268.879 c 339.875 268.879 341 267.758 341
 266.371 c 341 264.984 339.875 263.863 338.488 263.863 c h
338.488 263.863 m f
330.098 272.254 m 328.711 272.254 327.59 273.379 327.59 274.762 c 327.59
 276.148 328.715 277.273 330.098 277.273 c 331.484 277.273 332.605 276.148
 332.605 274.762 c 332.605 273.379 331.484 272.254 330.098 272.254 c h
330.098 272.254 m f
313.922 256.078 m 312.539 256.078 311.414 257.203 311.414 258.59 c 311.414
 259.973 312.539 261.098 313.922 261.098 c 315.309 261.098 316.434 259.973
 316.434 258.59 c 316.434 257.203 315.309 256.078 313.922 256.078 c h
313.922 256.078 m f
322.316 263.863 m 320.93 263.863 319.809 264.984 319.809 266.371 c 319.809
 267.758 320.93 268.879 322.316 268.879 c 323.699 268.879 324.824 267.758
 324.824 266.371 c 324.824 264.984 323.699 263.863 322.316 263.863 c h
322.316 263.863 m f
313.922 272.254 m 312.539 272.254 311.414 273.379 311.414 274.762 c 311.414
 276.148 312.539 277.273 313.922 277.273 c 315.309 277.273 316.434 276.148
 316.434 274.762 c 316.434 273.379 315.309 272.254 313.922 272.254 c h
313.922 272.254 m f
297.75 256.078 m 296.363 256.078 295.238 257.203 295.238 258.59 c 295.238
 259.973 296.363 261.098 297.75 261.098 c 299.133 261.098 300.258 259.973
 300.258 258.59 c 300.258 257.203 299.133 256.078 297.75 256.078 c h
297.75 256.078 m f
306.141 263.863 m 304.754 263.863 303.633 264.984 303.633 266.371 c 303.633
 267.758 304.754 268.879 306.141 268.879 c 307.527 268.879 308.648 267.758
 308.648 266.371 c 308.648 264.984 307.527 263.863 306.141 263.863 c h
306.141 263.863 m f
297.75 272.254 m 296.363 272.254 295.238 273.379 295.238 274.762 c 295.238
 276.148 296.363 277.273 297.75 277.273 c 299.133 277.273 300.258 276.148
 300.258 274.762 c 300.258 273.379 299.133 272.254 297.75 272.254 c h
297.75 272.254 m f
281.574 256.078 m 280.188 256.078 279.066 257.203 279.066 258.59 c 279.066
 259.973 280.188 261.098 281.574 261.098 c 282.961 261.098 284.082 259.973
 284.082 258.59 c 284.082 257.203 282.961 256.078 281.574 256.078 c h
281.574 256.078 m f
289.965 263.863 m 288.578 263.863 287.457 264.984 287.457 266.371 c 287.457
 267.758 288.578 268.879 289.965 268.879 c 291.352 268.879 292.473 267.758
 292.473 266.371 c 292.473 264.984 291.352 263.863 289.965 263.863 c h
289.965 263.863 m f
281.574 272.254 m 280.188 272.254 279.066 273.379 279.066 274.762 c 279.066
 276.148 280.188 277.273 281.574 277.273 c 282.961 277.273 284.082 276.148
 284.082 274.762 c 284.082 273.379 282.961 272.254 281.574 272.254 c h
281.574 272.254 m f
265.398 256.078 m 264.012 256.078 262.891 257.203 262.891 258.59 c 262.891
 259.973 264.012 261.098 265.398 261.098 c 266.785 261.098 267.906 259.973
 267.906 258.59 c 267.906 257.203 266.785 256.078 265.398 256.078 c h
265.398 256.078 m f
273.789 263.863 m 272.406 263.863 271.281 264.984 271.281 266.371 c 271.281
 267.758 272.406 268.879 273.789 268.879 c 275.176 268.879 276.301 267.758
 276.301 266.371 c 276.301 264.984 275.176 263.863 273.789 263.863 c h
273.789 263.863 m f
265.398 272.254 m 264.012 272.254 262.891 273.379 262.891 274.762 c 262.891
 276.148 264.012 277.273 265.398 277.273 c 266.785 277.273 267.906 276.148
 267.906 274.762 c 267.906 273.379 266.785 272.254 265.398 272.254 c h
265.398 272.254 m f
249.223 256.078 m 247.836 256.078 246.715 257.203 246.715 258.59 c 246.715
 259.973 247.84 261.098 249.223 261.098 c 250.609 261.098 251.73 259.973
 251.73 258.59 c 251.73 257.203 250.609 256.078 249.223 256.078 c h
249.223 256.078 m f
257.617 263.863 m 256.23 263.863 255.105 264.984 255.105 266.371 c 255.105
 267.758 256.23 268.879 257.617 268.879 c 259 268.879 260.125 267.758 260.125
 266.371 c 260.125 264.984 259 263.863 257.617 263.863 c h
257.617 263.863 m f
249.223 272.254 m 247.836 272.254 246.715 273.379 246.715 274.762 c 246.715
 276.148 247.84 277.273 249.223 277.273 c 250.609 277.273 251.73 276.148
 251.73 274.762 c 251.73 273.379 250.609 272.254 249.223 272.254 c h
249.223 272.254 m f
233.047 256.078 m 231.664 256.078 230.539 257.203 230.539 258.59 c 230.539
 259.973 231.664 261.098 233.047 261.098 c 234.434 261.098 235.559 259.973
 235.559 258.59 c 235.559 257.203 234.434 256.078 233.047 256.078 c h
233.047 256.078 m f
241.441 263.863 m 240.055 263.863 238.93 264.984 238.93 266.371 c 238.93
 267.758 240.055 268.879 241.441 268.879 c 242.824 268.879 243.949 267.758
 243.949 266.371 c 243.949 264.984 242.824 263.863 241.441 263.863 c h
241.441 263.863 m f
233.047 272.254 m 231.664 272.254 230.539 273.379 230.539 274.762 c 230.539
 276.148 231.664 277.273 233.047 277.273 c 234.434 277.273 235.559 276.148
 235.559 274.762 c 235.559 273.379 234.434 272.254 233.047 272.254 c h
233.047 272.254 m f
216.871 256.078 m 215.488 256.078 214.363 257.203 214.363 258.59 c 214.363
 259.973 215.488 261.098 216.871 261.098 c 218.258 261.098 219.383 259.973
 219.383 258.59 c 219.383 257.203 218.258 256.078 216.871 256.078 c h
216.871 256.078 m f
225.266 263.863 m 223.879 263.863 222.758 264.984 222.758 266.371 c 222.758
 267.758 223.879 268.879 225.266 268.879 c 226.652 268.879 227.773 267.758
 227.773 266.371 c 227.773 264.984 226.652 263.863 225.266 263.863 c h
225.266 263.863 m f
216.871 272.254 m 215.488 272.254 214.363 273.379 214.363 274.762 c 214.363
 276.148 215.488 277.273 216.871 277.273 c 218.258 277.273 219.383 276.148
 219.383 274.762 c 219.383 273.379 218.258 272.254 216.871 272.254 c h
216.871 272.254 m f
200.699 256.078 m 199.312 256.078 198.191 257.203 198.191 258.59 c 198.191
 259.973 199.312 261.098 200.699 261.098 c 202.082 261.098 203.207 259.973
 203.207 258.59 c 203.207 257.203 202.082 256.078 200.699 256.078 c h
200.699 256.078 m f
209.09 263.863 m 207.703 263.863 206.582 264.984 206.582 266.371 c 206.582
 267.758 207.703 268.879 209.09 268.879 c 210.477 268.879 211.598 267.758
 211.598 266.371 c 211.598 264.984 210.477 263.863 209.09 263.863 c h
209.09 263.863 m f
200.699 272.254 m 199.312 272.254 198.191 273.379 198.191 274.762 c 198.191
 276.148 199.312 277.273 200.699 277.273 c 202.082 277.273 203.207 276.148
 203.207 274.762 c 203.207 273.379 202.082 272.254 200.699 272.254 c h
200.699 272.254 m f
184.523 256.078 m 183.137 256.078 182.016 257.203 182.016 258.59 c 182.016
 259.973 183.137 261.098 184.523 261.098 c 185.91 261.098 187.031 259.973
 187.031 258.59 c 187.031 257.203 185.91 256.078 184.523 256.078 c h
184.523 256.078 m f
192.914 263.863 m 191.527 263.863 190.406 264.984 190.406 266.371 c 190.406
 267.758 191.531 268.879 192.914 268.879 c 194.301 268.879 195.422 267.758
 195.422 266.371 c 195.426 264.984 194.301 263.863 192.914 263.863 c h
192.914 263.863 m f
184.523 272.254 m 183.137 272.254 182.016 273.379 182.016 274.762 c 182.016
 276.148 183.137 277.273 184.523 277.273 c 185.91 277.273 187.031 276.148
 187.031 274.762 c 187.031 273.379 185.91 272.254 184.523 272.254 c h
184.523 272.254 m f
168.348 256.078 m 166.961 256.078 165.84 257.203 165.84 258.59 c 165.84
 259.973 166.961 261.098 168.348 261.098 c 169.734 261.098 170.855 259.973
 170.855 258.59 c 170.859 257.203 169.734 256.078 168.348 256.078 c h
168.348 256.078 m f
176.742 263.863 m 175.355 263.863 174.23 264.984 174.23 266.371 c 174.23
 267.758 175.355 268.879 176.742 268.879 c 178.125 268.879 179.25 267.758
 179.25 266.371 c 179.25 264.984 178.125 263.863 176.742 263.863 c h
176.742 263.863 m f
168.348 272.254 m 166.961 272.254 165.84 273.379 165.84 274.762 c 165.84
 276.148 166.961 277.273 168.348 277.273 c 169.734 277.273 170.855 276.148
 170.855 274.762 c 170.859 273.379 169.734 272.254 168.348 272.254 c h
168.348 272.254 m f
152.172 256.078 m 150.789 256.078 149.664 257.203 149.664 258.59 c 149.664
 259.973 150.789 261.098 152.172 261.098 c 153.559 261.098 154.684 259.973
 154.684 258.59 c 154.684 257.203 153.559 256.078 152.172 256.078 c h
152.172 256.078 m f
160.566 263.863 m 159.18 263.863 158.055 264.984 158.055 266.371 c 158.055
 267.758 159.18 268.879 160.566 268.879 c 161.949 268.879 163.074 267.758
 163.074 266.371 c 163.074 264.984 161.949 263.863 160.566 263.863 c h
160.566 263.863 m f
152.172 272.254 m 150.789 272.254 149.664 273.379 149.664 274.762 c 149.664
 276.148 150.789 277.273 152.172 277.273 c 153.559 277.273 154.684 276.148
 154.684 274.762 c 154.684 273.379 153.559 272.254 152.172 272.254 c h
152.172 272.254 m f
136 256.078 m 134.613 256.078 133.488 257.203 133.488 258.59 c 133.488 
259.973 134.613 261.098 136 261.098 c 137.383 261.098 138.508 259.973 138.508
 258.59 c 138.508 257.203 137.383 256.078 136 256.078 c h
136 256.078 m f
144.391 263.863 m 143.004 263.863 141.883 264.984 141.883 266.371 c 141.883
 267.758 143.004 268.879 144.391 268.879 c 145.773 268.879 146.898 267.758
 146.898 266.371 c 146.898 264.984 145.777 263.863 144.391 263.863 c h
144.391 263.863 m f
136 272.254 m 134.613 272.254 133.488 273.379 133.488 274.762 c 133.488
 276.148 134.613 277.273 136 277.273 c 137.383 277.273 138.508 276.148 138.508
 274.762 c 138.508 273.379 137.383 272.254 136 272.254 c h
136 272.254 m f
119.824 256.078 m 118.438 256.078 117.312 257.203 117.312 258.59 c 117.312
 259.973 118.438 261.098 119.824 261.098 c 121.207 261.098 122.332 259.973
 122.332 258.59 c 122.332 257.203 121.211 256.078 119.824 256.078 c h
119.824 256.078 m f
128.215 263.863 m 126.828 263.863 125.707 264.984 125.707 266.371 c 125.707
 267.758 126.832 268.879 128.215 268.879 c 129.602 268.879 130.723 267.758
 130.723 266.371 c 130.723 264.984 129.602 263.863 128.215 263.863 c h
128.215 263.863 m f
119.824 272.254 m 118.438 272.254 117.312 273.379 117.312 274.762 c 117.312
 276.148 118.438 277.273 119.824 277.273 c 121.207 277.273 122.332 276.148
 122.332 274.762 c 122.332 273.379 121.211 272.254 119.824 272.254 c h
119.824 272.254 m f
103.648 256.078 m 102.262 256.078 101.141 257.203 101.141 258.59 c 101.141
 259.973 102.262 261.098 103.648 261.098 c 105.035 261.098 106.156 259.973
 106.156 258.59 c 106.156 257.203 105.035 256.078 103.648 256.078 c h
103.648 256.078 m f
112.039 263.863 m 110.652 263.863 109.531 264.984 109.531 266.371 c 109.531
 267.758 110.656 268.879 112.039 268.879 c 113.426 268.879 114.551 267.758
 114.551 266.371 c 114.551 264.984 113.426 263.863 112.039 263.863 c h
112.039 263.863 m f
103.648 272.254 m 102.262 272.254 101.141 273.379 101.141 274.762 c 101.141
 276.148 102.262 277.273 103.648 277.273 c 105.035 277.273 106.156 276.148
 106.156 274.762 c 106.156 273.379 105.035 272.254 103.648 272.254 c h
103.648 272.254 m f
87.473 256.078 m 86.086 256.078 84.965 257.203 84.965 258.59 c 84.965 259.973
 86.09 261.098 87.473 261.098 c 88.859 261.098 89.98 259.973 89.98 258.59
 c 89.98 257.203 88.859 256.078 87.473 256.078 c h
87.473 256.078 m f
95.863 263.863 m 94.48 263.863 93.355 264.984 93.355 266.371 c 93.355 267.758
 94.48 268.879 95.863 268.879 c 97.25 268.879 98.375 267.758 98.375 266.371
 c 98.375 264.984 97.25 263.863 95.863 263.863 c h
95.863 263.863 m f
87.473 272.254 m 86.086 272.254 84.965 273.379 84.965 274.762 c 84.965 
276.148 86.09 277.273 87.473 277.273 c 88.859 277.273 89.98 276.148 89.98
 274.762 c 89.98 273.379 88.859 272.254 87.473 272.254 c h
87.473 272.254 m f
71.297 256.078 m 69.914 256.078 68.789 257.203 68.789 258.59 c 68.789 259.973
 69.914 261.098 71.297 261.098 c 72.684 261.098 73.809 259.973 73.809 258.59
 c 73.809 257.203 72.684 256.078 71.297 256.078 c h
71.297 256.078 m f
79.691 263.863 m 78.305 263.863 77.184 264.984 77.184 266.371 c 77.184 
267.758 78.305 268.879 79.691 268.879 c 81.078 268.879 82.199 267.758 82.199
 266.371 c 82.199 264.984 81.074 263.863 79.691 263.863 c h
79.691 263.863 m f
71.297 272.254 m 69.914 272.254 68.789 273.379 68.789 274.762 c 68.789 
276.148 69.914 277.273 71.297 277.273 c 72.684 277.273 73.809 276.148 73.809
 274.762 c 73.809 273.379 72.684 272.254 71.297 272.254 c h
71.297 272.254 m f
55.121 256.078 m 53.738 256.078 52.613 257.203 52.613 258.59 c 52.613 259.973
 53.738 261.098 55.121 261.098 c 56.508 261.098 57.633 259.973 57.633 258.59
 c 57.633 257.203 56.508 256.078 55.121 256.078 c h
55.121 256.078 m f
63.516 263.863 m 62.129 263.863 61.008 264.984 61.008 266.371 c 61.008 
267.758 62.129 268.879 63.516 268.879 c 64.902 268.879 66.023 267.758 66.023
 266.371 c 66.023 264.984 64.902 263.863 63.516 263.863 c h
63.516 263.863 m f
55.121 272.254 m 53.738 272.254 52.613 273.379 52.613 274.762 c 52.613 
276.148 53.738 277.273 55.121 277.273 c 56.508 277.273 57.633 276.148 57.633
 274.762 c 57.633 273.379 56.508 272.254 55.121 272.254 c h
55.121 272.254 m f
38.949 256.078 m 37.562 256.078 36.441 257.203 36.441 258.59 c 36.441 259.973
 37.562 261.098 38.949 261.098 c 40.332 261.098 41.457 259.973 41.457 258.59
 c 41.457 257.203 40.332 256.078 38.949 256.078 c h
38.949 256.078 m f
47.34 263.863 m 45.953 263.863 44.832 264.984 44.832 266.371 c 44.832 267.758
 45.953 268.879 47.34 268.879 c 48.727 268.879 49.848 267.758 49.848 266.371
 c 49.848 264.984 48.727 263.863 47.34 263.863 c h
47.34 263.863 m f
38.949 272.254 m 37.562 272.254 36.441 273.379 36.441 274.762 c 36.441 
276.148 37.562 277.273 38.949 277.273 c 40.332 277.273 41.457 276.148 41.457
 274.762 c 41.457 273.379 40.332 272.254 38.949 272.254 c h
38.949 272.254 m f
22.773 256.078 m 21.387 256.078 20.266 257.203 20.266 258.59 c 20.266 259.973
 21.387 261.098 22.773 261.098 c 24.16 261.098 25.281 259.973 25.281 258.59
 c 25.281 257.203 24.16 256.078 22.773 256.078 c h
22.773 256.078 m f
31.164 263.863 m 29.781 263.863 28.656 264.984 28.656 266.371 c 28.656 
267.758 29.781 268.879 31.164 268.879 c 32.551 268.879 33.672 267.758 33.672
 266.371 c 33.676 264.984 32.551 263.863 31.164 263.863 c h
31.164 263.863 m f
22.773 272.254 m 21.387 272.254 20.266 273.379 20.266 274.762 c 20.266 
276.148 21.387 277.273 22.773 277.273 c 24.16 277.273 25.281 276.148 25.281
 274.762 c 25.281 273.379 24.16 272.254 22.773 272.254 c h
22.773 272.254 m f
31.148 280.055 m 29.762 280.055 28.641 281.176 28.641 282.562 c 28.641 
283.949 29.762 285.07 31.148 285.07 c 32.531 285.07 33.656 283.949 33.656
 282.562 c 33.656 281.176 32.531 280.055 31.148 280.055 c h
31.148 280.055 m f
47.359 280.055 m 45.977 280.055 44.852 281.176 44.852 282.562 c 44.852 
283.949 45.977 285.07 47.359 285.07 c 48.746 285.07 49.871 283.949 49.871
 282.562 c 49.871 281.176 48.746 280.055 47.359 280.055 c h
47.359 280.055 m f
63.574 280.055 m 62.191 280.055 61.066 281.176 61.066 282.562 c 61.066 
283.949 62.191 285.07 63.574 285.07 c 64.961 285.07 66.086 283.949 66.086
 282.562 c 66.086 281.176 64.961 280.055 63.574 280.055 c h
63.574 280.055 m f
79.688 280.055 m 78.301 280.055 77.18 281.176 77.18 282.562 c 77.18 283.949
 78.301 285.07 79.688 285.07 c 81.074 285.07 82.195 283.949 82.195 282.562
 c 82.195 281.176 81.074 280.055 79.688 280.055 c h
79.688 280.055 m f
95.852 280.055 m 94.465 280.055 93.34 281.176 93.34 282.562 c 93.34 283.949
 94.465 285.07 95.852 285.07 c 97.234 285.07 98.359 283.949 98.359 282.562
 c 98.359 281.176 97.234 280.055 95.852 280.055 c h
95.852 280.055 m f
112.012 280.055 m 110.629 280.055 109.504 281.176 109.504 282.562 c 109.504
 283.949 110.629 285.07 112.012 285.07 c 113.398 285.07 114.523 283.949 
114.523 282.562 c 114.523 281.176 113.398 280.055 112.012 280.055 c h
112.012 280.055 m f
128.176 280.055 m 126.789 280.055 125.668 281.176 125.668 282.562 c 125.668
 283.949 126.793 285.07 128.176 285.07 c 129.562 285.07 130.684 283.949 
130.684 282.562 c 130.684 281.176 129.562 280.055 128.176 280.055 c h
128.176 280.055 m f
144.34 280.055 m 142.953 280.055 141.832 281.176 141.832 282.562 c 141.832
 283.949 142.953 285.07 144.34 285.07 c 145.727 285.07 146.848 283.949 146.848
 282.562 c 146.848 281.176 145.727 280.055 144.34 280.055 c h
144.34 280.055 m f
160.504 280.055 m 159.117 280.055 157.992 281.176 157.992 282.562 c 157.992
 283.949 159.117 285.07 160.504 285.07 c 161.887 285.07 163.012 283.949 
163.012 282.562 c 163.012 281.176 161.887 280.055 160.504 280.055 c h
160.504 280.055 m f
176.664 280.055 m 175.281 280.055 174.156 281.176 174.156 282.562 c 174.156
 283.949 175.281 285.07 176.664 285.07 c 178.051 285.07 179.176 283.949 
179.176 282.562 c 179.176 281.176 178.051 280.055 176.664 280.055 c h
176.664 280.055 m f
192.828 280.055 m 191.441 280.055 190.32 281.176 190.32 282.562 c 190.32
 283.949 191.441 285.07 192.828 285.07 c 194.215 285.07 195.336 283.949 
195.336 282.562 c 195.336 281.176 194.215 280.055 192.828 280.055 c h
192.828 280.055 m f
209.094 280.055 m 207.707 280.055 206.586 281.176 206.586 282.562 c 206.586
 283.949 207.707 285.07 209.094 285.07 c 210.48 285.07 211.602 283.949 211.602
 282.562 c 211.602 281.176 210.477 280.055 209.094 280.055 c h
209.094 280.055 m f
225.309 280.055 m 223.922 280.055 222.797 281.176 222.797 282.562 c 222.797
 283.949 223.922 285.07 225.309 285.07 c 226.691 285.07 227.816 283.949 
227.816 282.562 c 227.816 281.176 226.691 280.055 225.309 280.055 c h
225.309 280.055 m f
241.418 280.055 m 240.031 280.055 238.91 281.176 238.91 282.562 c 238.91
 283.949 240.035 285.07 241.418 285.07 c 242.805 285.07 243.93 283.949 243.93
 282.562 c 243.93 281.176 242.805 280.055 241.418 280.055 c h
241.418 280.055 m f
257.531 280.055 m 256.145 280.055 255.023 281.176 255.023 282.562 c 255.023
 283.949 256.145 285.07 257.531 285.07 c 258.918 285.07 260.039 283.949 
260.039 282.562 c 260.039 281.176 258.918 280.055 257.531 280.055 c h
257.531 280.055 m f
273.746 280.055 m 272.359 280.055 271.234 281.176 271.234 282.562 c 271.234
 283.949 272.359 285.07 273.746 285.07 c 275.129 285.07 276.254 283.949 
276.254 282.562 c 276.254 281.176 275.129 280.055 273.746 280.055 c h
273.746 280.055 m f
306.172 280.055 m 304.785 280.055 303.664 281.176 303.664 282.562 c 303.664
 283.949 304.789 285.07 306.172 285.07 c 307.559 285.07 308.68 283.949 308.68
 282.562 c 308.684 281.176 307.559 280.055 306.172 280.055 c h
306.172 280.055 m f
322.387 280.055 m 321 280.055 319.879 281.176 319.879 282.562 c 319.879
 283.949 321 285.07 322.387 285.07 c 323.773 285.07 324.895 283.949 324.895
 282.562 c 324.895 281.176 323.773 280.055 322.387 280.055 c h
322.387 280.055 m f
338.602 280.055 m 337.215 280.055 336.09 281.176 336.09 282.562 c 336.09
 283.949 337.215 285.07 338.602 285.07 c 339.984 285.07 341.109 283.949 
341.109 282.562 c 341.109 281.176 339.984 280.055 338.602 280.055 c h
338.602 280.055 m f
354.816 280.055 m 353.43 280.055 352.305 281.176 352.305 282.562 c 352.305
 283.949 353.43 285.07 354.816 285.07 c 356.199 285.07 357.324 283.949 357.324
 282.562 c 357.324 281.176 356.199 280.055 354.816 280.055 c h
354.816 280.055 m f
289.961 280.066 m 288.574 280.066 287.453 281.191 287.453 282.578 c 287.453
 283.961 288.574 285.086 289.961 285.086 c 291.348 285.086 292.469 283.961
 292.469 282.578 c 292.469 281.191 291.348 280.066 289.961 280.066 c h
289.961 280.066 m f
0.192157 0.215686 0.239216 rg
369.562 195.391 m 282.465 195.391 l 282.465 147.102 l 282.465 128.984 287.254
 111.109 296.312 95.418 c 303.336 83.254 l 303.602 83.012 303.836 82.738
 304 82.418 c 308.207 74.246 310.434 65.039 310.434 55.789 c 310.434 31.758
 295.336 9.875 272.863 1.34 c 271.594 0.855 270.16 1.266 269.336 2.344 c
 267.301 4.793 178.402 121.688 176.234 123.902 c 170.422 130.848 163.188
 139.496 141.031 141.32 c 134.285 141.875 127.664 141.625 121.82 141.398
 c 118.523 141.273 115.414 141.152 112.461 141.176 c 111.828 141.18 111.211
 141.379 110.695 141.75 c 96.336 152.035 73.559 175.609 73.566 195.07 c 
73.566 195.18 73.574 195.285 73.582 195.391 c 14.438 195.391 l 6.477 195.391
 0 201.867 0 209.828 c 0 238.129 l 0 244.852 4.625 250.5 10.859 252.098 
c 10.859 366.797 l 10.859 375.656 18.062 382.863 26.922 382.863 c 357.078
 382.863 l 365.934 382.863 373.141 375.656 373.141 366.797 c 373.141 252.098
 l 379.375 250.5 384 244.852 384 238.129 c 384 209.828 l 384 201.867 377.523
 195.391 369.562 195.391 c h
276.324 147.102 m 276.324 195.391 l 259.637 195.391 l 259.637 147.102 l
 259.637 134.66 257.488 122.336 253.371 110.672 c 258.457 106.496 268.98
 97.867 282.406 93.84 c 285.934 92.781 289.43 91.262 292.516 89.715 c 290.992
 92.348 l 281.395 108.973 276.324 127.906 276.324 147.102 c h
188.461 195.391 m 203.402 170.133 220.352 143.141 248.309 114.836 c 251.719
 125.215 253.496 136.109 253.496 147.102 c 253.496 195.391 l h
113.48 147.312 m 116.016 147.324 118.73 147.426 121.586 147.535 c 127.602
 147.766 134.422 148.027 141.535 147.441 c 166.25 145.406 174.742 135.254
 180.945 127.844 c 183.039 125.73 270.906 10.191 272.793 7.934 c 291.727
 16.102 304.293 35.051 304.293 55.789 c 304.293 63.926 302.477 71.699 298.891
 78.914 c 296.633 80.422 288.555 85.586 280.641 87.961 c 230.711 106.898
 204.699 160.16 182.535 194.23 c 181.988 194.797 181.305 195.191 180.559
 195.391 c 79.082 195.391 l 80.406 179.648 99.703 157.438 113.48 147.312
 c h
357.078 376.719 m 26.922 376.719 l 21.449 376.719 17 372.27 17 366.797 
c 17 252.566 l 367 252.566 l 367 366.797 l 367 372.27 362.551 376.719 357.078
 376.719 c h
377.859 238.129 m 377.859 242.703 374.137 246.422 369.562 246.422 c 14.438
 246.422 l 9.863 246.422 6.141 242.703 6.141 238.129 c 6.141 209.828 l 6.141
 205.254 9.863 201.531 14.438 201.531 c 369.562 201.531 l 374.137 201.531
 377.859 205.254 377.859 209.828 c h
377.859 238.129 m f
331.594 301.145 m 208.215 301.145 l 203.711 301.145 200.051 304.809 200.051
 309.309 c 200.051 341.57 l 200.051 346.07 203.711 349.734 208.215 349.734
 c 331.594 349.734 l 336.094 349.734 339.758 346.07 339.758 341.57 c 339.758
 309.309 l 339.758 304.809 336.094 301.145 331.594 301.145 c h
333.617 341.566 m 333.617 342.684 332.707 343.59 331.594 343.59 c 208.215
 343.59 l 207.098 343.59 206.191 342.684 206.191 341.566 c 206.191 309.309
 l 206.191 308.191 207.098 307.285 208.215 307.285 c 331.594 307.285 l 332.707
 307.285 333.617 308.191 333.617 309.309 c h
333.617 341.566 m f
Q Q
showpage
%%Trailer
end
%%EOF
