%!PS-Adobe-3.0 EPSF-3.0
%%Creator: cairo 1.16.0 (https://cairographics.org)
%%CreationDate: Fri Feb 12 12:12:44 2021
%%Pages: 1
%%DocumentData: Clean7Bit
%%LanguageLevel: 2
%%BoundingBox: 50 0 334 384
%%EndComments
%%BeginProlog
50 dict begin
/q { gsave } bind def
/Q { grestore } bind def
/cm { 6 array astore concat } bind def
/w { setlinewidth } bind def
/J { setlinecap } bind def
/j { setlinejoin } bind def
/M { setmiterlimit } bind def
/d { setdash } bind def
/m { moveto } bind def
/l { lineto } bind def
/c { curveto } bind def
/h { closepath } bind def
/re { exch dup neg 3 1 roll 5 3 roll moveto 0 rlineto
      0 exch rlineto 0 rlineto closepath } bind def
/S { stroke } bind def
/f { fill } bind def
/f* { eofill } bind def
/n { newpath } bind def
/W { clip } bind def
/W* { eoclip } bind def
/BT { } bind def
/ET { } bind def
/BDC { mark 3 1 roll /BDC pdfmark } bind def
/EMC { mark /EMC pdfmark } bind def
/cairo_store_point { /cairo_point_y exch def /cairo_point_x exch def } def
/Tj { show currentpoint cairo_store_point } bind def
/TJ {
  {
    dup
    type /stringtype eq
    { show } { -0.001 mul 0 cairo_font_matrix dtransform rmoveto } ifelse
  } forall
  currentpoint cairo_store_point
} bind def
/cairo_selectfont { cairo_font_matrix aload pop pop pop 0 0 6 array astore
    cairo_font exch selectfont cairo_point_x cairo_point_y moveto } bind def
/Tf { pop /cairo_font exch def /cairo_font_matrix where
      { pop cairo_selectfont } if } bind def
/Td { matrix translate cairo_font_matrix matrix concatmatrix dup
      /cairo_font_matrix exch def dup 4 get exch 5 get cairo_store_point
      /cairo_font where { pop cairo_selectfont } if } bind def
/Tm { 2 copy 8 2 roll 6 array astore /cairo_font_matrix exch def
      cairo_store_point /cairo_font where { pop cairo_selectfont } if } bind def
/g { setgray } bind def
/rg { setrgbcolor } bind def
/d1 { setcachedevice } bind def
/cairo_data_source {
  CairoDataIndex CairoData length lt
    { CairoData CairoDataIndex get /CairoDataIndex CairoDataIndex 1 add def }
    { () } ifelse
} def
/cairo_flush_ascii85_file { cairo_ascii85_file status { cairo_ascii85_file flushfile } if } def
/cairo_image { image cairo_flush_ascii85_file } def
/cairo_imagemask { imagemask cairo_flush_ascii85_file } def
%%EndProlog
%%BeginSetup
%%EndSetup
%%Page: 1 1
%%BeginPageSetup
%%PageBoundingBox: 50 0 334 384
%%EndPageSetup
q 50 0 284 384 rectclip
1 0 0 -1 0 384 cm q
1 g
269.148 3.027 m 268.625 3.027 268.109 3.059 267.598 3.102 c 83.242 3.102
 l 66.926 3.102 53.703 16.328 53.703 32.641 c 53.703 380.434 l 55.133 380.973
 l 79.301 365.238 l 103.469 380.973 l 127.621 365.238 l 151.781 380.973 
l 175.934 365.238 l 200.078 380.973 l 224.223 365.238 l 248.371 380.973 
l 249.805 380.434 l 250.008 173.871 l 288.539 173.871 l 288.539 23.914 l
 288.535 12.379 279.855 3.027 269.148 3.027 c h
269.148 3.027 m f
0.917647 0.658824 0.584314 rg
285.523 18.82 m 284.121 18.82 282.984 19.957 282.984 21.359 c 282.984 22.758
 284.121 23.895 285.523 23.895 c 286.926 23.895 288.062 22.758 288.062 21.359
 c 288.062 19.957 286.926 18.82 285.523 18.82 c h
285.523 18.82 m f
285.523 40.254 m 286.926 40.254 288.062 39.117 288.062 37.719 c 288.062
 36.316 286.926 35.18 285.523 35.18 c 284.121 35.18 282.984 36.316 282.984
 37.719 c 282.984 39.121 284.121 40.254 285.523 40.254 c h
285.523 40.254 m f
285.523 56.613 m 286.926 56.613 288.062 55.477 288.062 54.078 c 288.062
 52.676 286.926 51.539 285.523 51.539 c 284.121 51.539 282.984 52.676 282.984
 54.078 c 282.984 55.477 284.121 56.613 285.523 56.613 c h
285.523 56.613 m f
285.523 72.973 m 286.926 72.973 288.062 71.836 288.062 70.434 c 288.062
 69.035 286.926 67.898 285.523 67.898 c 284.121 67.898 282.984 69.035 282.984
 70.434 c 282.984 71.836 284.121 72.973 285.523 72.973 c h
285.523 72.973 m f
285.523 89.332 m 286.926 89.332 288.062 88.195 288.062 86.793 c 288.062
 85.391 286.926 84.258 285.523 84.258 c 284.121 84.258 282.984 85.395 282.984
 86.793 c 282.984 88.195 284.121 89.332 285.523 89.332 c h
285.523 89.332 m f
285.523 105.691 m 286.926 105.691 288.062 104.555 288.062 103.152 c 288.062
 101.75 286.926 100.617 285.523 100.617 c 284.121 100.617 282.984 101.75
 282.984 103.152 c 282.984 104.555 284.121 105.691 285.523 105.691 c h
285.523 105.691 m f
285.523 122.051 m 286.926 122.051 288.062 120.914 288.062 119.512 c 288.062
 118.109 286.926 116.973 285.523 116.973 c 284.121 116.973 282.984 118.109
 282.984 119.512 c 282.984 120.914 284.121 122.051 285.523 122.051 c h
285.523 122.051 m f
285.523 138.406 m 286.926 138.406 288.062 137.273 288.062 135.871 c 288.062
 134.469 286.926 133.332 285.523 133.332 c 284.121 133.332 282.984 134.469
 282.984 135.871 c 282.984 137.273 284.121 138.406 285.523 138.406 c h
285.523 138.406 m f
285.523 154.766 m 286.926 154.766 288.062 153.629 288.062 152.23 c 288.062
 150.828 286.926 149.691 285.523 149.691 c 284.121 149.691 282.984 150.828
 282.984 152.23 c 282.984 153.629 284.121 154.766 285.523 154.766 c h
285.523 154.766 m f
285.523 171.125 m 286.926 171.125 288.062 169.988 288.062 168.59 c 288.062
 167.188 286.926 166.051 285.523 166.051 c 284.121 166.051 282.984 167.188
 282.984 168.59 c 282.984 169.988 284.121 171.125 285.523 171.125 c h
285.523 171.125 m f
266.629 5 m 266.629 6.402 267.762 7.539 269.164 7.539 c 270.566 7.539 271.703
 6.402 271.703 5 c 271.703 4.246 271.367 3.578 270.848 3.113 c 270.285 3.062
 269.723 3.027 269.148 3.027 c 268.586 3.027 268.035 3.059 267.484 3.109
 c 266.965 3.574 266.629 4.246 266.629 5 c h
266.629 5 m f
277.652 10.332 m 276.25 10.332 275.113 11.469 275.113 12.871 c 275.113 
14.273 276.25 15.406 277.652 15.406 c 279.055 15.406 280.191 14.273 280.191
 12.871 c 280.191 11.469 279.055 10.332 277.652 10.332 c h
277.652 10.332 m f
269.164 18.82 m 267.762 18.82 266.629 19.957 266.629 21.359 c 266.629 22.758
 267.762 23.895 269.164 23.895 c 270.566 23.895 271.703 22.758 271.703 21.359
 c 271.703 19.957 270.566 18.82 269.164 18.82 c h
269.164 18.82 m f
277.652 26.691 m 276.25 26.691 275.113 27.828 275.113 29.23 c 275.113 30.633
 276.25 31.766 277.652 31.766 c 279.055 31.766 280.191 30.629 280.191 29.23
 c 280.191 27.828 279.055 26.691 277.652 26.691 c h
277.652 26.691 m f
269.164 35.18 m 267.762 35.18 266.629 36.316 266.629 37.715 c 266.629 39.117
 267.762 40.254 269.164 40.254 c 270.566 40.254 271.703 39.117 271.703 37.715
 c 271.703 36.316 270.566 35.18 269.164 35.18 c h
269.164 35.18 m f
277.652 43.051 m 276.25 43.051 275.113 44.188 275.113 45.59 c 275.113 46.992
 276.25 48.125 277.652 48.125 c 279.055 48.125 280.191 46.988 280.191 45.59
 c 280.191 44.188 279.055 43.051 277.652 43.051 c h
277.652 43.051 m f
269.164 51.539 m 267.762 51.539 266.629 52.676 266.629 54.074 c 266.629
 55.477 267.762 56.613 269.164 56.613 c 270.566 56.613 271.703 55.477 271.703
 54.074 c 271.703 52.676 270.566 51.539 269.164 51.539 c h
269.164 51.539 m f
277.652 59.41 m 276.25 59.41 275.113 60.547 275.113 61.949 c 275.113 63.348
 276.25 64.484 277.652 64.484 c 279.055 64.484 280.191 63.348 280.191 61.949
 c 280.191 60.547 279.055 59.41 277.652 59.41 c h
277.652 59.41 m f
269.164 67.898 m 267.762 67.898 266.629 69.035 266.629 70.434 c 266.629
 71.836 267.762 72.973 269.164 72.973 c 270.566 72.973 271.703 71.836 271.703
 70.434 c 271.703 69.035 270.566 67.898 269.164 67.898 c h
269.164 67.898 m f
277.652 75.77 m 276.25 75.77 275.113 76.906 275.113 78.305 c 275.113 79.707
 276.25 80.844 277.652 80.844 c 279.055 80.844 280.191 79.707 280.191 78.305
 c 280.191 76.902 279.055 75.77 277.652 75.77 c h
277.652 75.77 m f
269.164 84.258 m 267.762 84.258 266.629 85.395 266.629 86.793 c 266.629
 88.195 267.762 89.332 269.164 89.332 c 270.566 89.332 271.703 88.195 271.703
 86.793 c 271.703 85.391 270.566 84.258 269.164 84.258 c h
269.164 84.258 m f
277.652 92.129 m 276.25 92.129 275.113 93.266 275.113 94.664 c 275.113 
96.066 276.25 97.203 277.652 97.203 c 279.055 97.203 280.191 96.066 280.191
 94.664 c 280.191 93.266 279.055 92.129 277.652 92.129 c h
277.652 92.129 m f
269.164 100.613 m 267.762 100.613 266.629 101.75 266.629 103.152 c 266.629
 104.555 267.762 105.688 269.164 105.688 c 270.566 105.688 271.703 104.555
 271.703 103.152 c 271.703 101.75 270.566 100.613 269.164 100.613 c h
269.164 100.613 m f
277.652 108.488 m 276.25 108.488 275.113 109.621 275.113 111.023 c 275.113
 112.426 276.25 113.562 277.652 113.562 c 279.055 113.562 280.191 112.426
 280.191 111.023 c 280.191 109.621 279.055 108.488 277.652 108.488 c h
277.652 108.488 m f
269.164 116.973 m 267.762 116.973 266.629 118.109 266.629 119.512 c 266.629
 120.91 267.762 122.047 269.164 122.047 c 270.566 122.047 271.703 120.91
 271.703 119.512 c 271.703 118.109 270.566 116.973 269.164 116.973 c h
269.164 116.973 m f
277.652 124.848 m 276.25 124.848 275.113 125.98 275.113 127.383 c 275.113
 128.785 276.25 129.922 277.652 129.922 c 279.055 129.922 280.191 128.785
 280.191 127.383 c 280.191 125.98 279.055 124.848 277.652 124.848 c h
277.652 124.848 m f
269.164 133.332 m 267.762 133.332 266.629 134.469 266.629 135.871 c 266.629
 137.27 267.762 138.406 269.164 138.406 c 270.566 138.406 271.703 137.27
 271.703 135.871 c 271.703 134.469 270.566 133.332 269.164 133.332 c h
269.164 133.332 m f
277.652 141.203 m 276.25 141.203 275.113 142.34 275.113 143.742 c 275.113
 145.141 276.25 146.277 277.652 146.277 c 279.055 146.277 280.191 145.145
 280.191 143.742 c 280.191 142.34 279.055 141.203 277.652 141.203 c h
277.652 141.203 m f
269.164 149.691 m 267.762 149.691 266.629 150.828 266.629 152.23 c 266.629
 153.629 267.762 154.766 269.164 154.766 c 270.566 154.766 271.703 153.629
 271.703 152.23 c 271.703 150.828 270.566 149.691 269.164 149.691 c h
269.164 149.691 m f
277.652 157.562 m 276.25 157.562 275.113 158.699 275.113 160.102 c 275.113
 161.504 276.25 162.637 277.652 162.637 c 279.055 162.637 280.191 161.5 
280.191 160.102 c 280.191 158.699 279.055 157.562 277.652 157.562 c h
277.652 157.562 m f
269.164 166.051 m 267.762 166.051 266.629 167.188 266.629 168.586 c 266.629
 169.988 267.762 171.125 269.164 171.125 c 270.566 171.125 271.703 169.988
 271.703 168.586 c 271.703 167.188 270.566 166.051 269.164 166.051 c h
269.164 166.051 m f
261.293 10.332 m 259.891 10.332 258.758 11.469 258.758 12.871 c 258.758
 14.273 259.891 15.406 261.293 15.406 c 262.695 15.406 263.832 14.273 263.832
 12.871 c 263.832 11.469 262.695 10.332 261.293 10.332 c h
261.293 10.332 m f
252.805 18.82 m 251.406 18.82 250.27 19.957 250.27 21.359 c 250.27 22.758
 251.406 23.895 252.805 23.895 c 254.207 23.895 255.344 22.758 255.344 21.359
 c 255.344 19.957 254.207 18.82 252.805 18.82 c h
252.805 18.82 m f
261.293 26.691 m 259.891 26.691 258.758 27.828 258.758 29.23 c 258.758 
30.633 259.891 31.766 261.293 31.766 c 262.695 31.766 263.832 30.629 263.832
 29.23 c 263.832 27.828 262.695 26.691 261.293 26.691 c h
261.293 26.691 m f
252.805 35.18 m 251.406 35.18 250.27 36.316 250.27 37.715 c 250.27 39.117
 251.406 40.254 252.805 40.254 c 254.207 40.254 255.344 39.117 255.344 37.715
 c 255.344 36.316 254.207 35.18 252.805 35.18 c h
252.805 35.18 m f
261.293 43.051 m 259.891 43.051 258.758 44.188 258.758 45.59 c 258.758 
46.992 259.891 48.125 261.293 48.125 c 262.695 48.125 263.832 46.988 263.832
 45.59 c 263.832 44.188 262.695 43.051 261.293 43.051 c h
261.293 43.051 m f
252.805 51.539 m 251.406 51.539 250.27 52.676 250.27 54.074 c 250.27 55.477
 251.406 56.613 252.805 56.613 c 254.207 56.613 255.344 55.477 255.344 54.074
 c 255.344 52.676 254.207 51.539 252.805 51.539 c h
252.805 51.539 m f
261.293 59.41 m 259.891 59.41 258.758 60.547 258.758 61.949 c 258.758 63.348
 259.891 64.484 261.293 64.484 c 262.695 64.484 263.832 63.348 263.832 61.949
 c 263.832 60.547 262.695 59.41 261.293 59.41 c h
261.293 59.41 m f
252.805 67.898 m 251.406 67.898 250.27 69.035 250.27 70.434 c 250.27 71.836
 251.406 72.973 252.805 72.973 c 254.207 72.973 255.344 71.836 255.344 70.434
 c 255.344 69.035 254.207 67.898 252.805 67.898 c h
252.805 67.898 m f
261.293 75.77 m 259.891 75.77 258.758 76.906 258.758 78.305 c 258.758 79.707
 259.891 80.844 261.293 80.844 c 262.695 80.844 263.832 79.707 263.832 78.305
 c 263.832 76.902 262.695 75.77 261.293 75.77 c h
261.293 75.77 m f
252.805 84.258 m 251.406 84.258 250.27 85.395 250.27 86.793 c 250.27 88.195
 251.406 89.332 252.805 89.332 c 254.207 89.332 255.344 88.195 255.344 86.793
 c 255.344 85.391 254.207 84.258 252.805 84.258 c h
252.805 84.258 m f
261.293 92.129 m 259.891 92.129 258.758 93.266 258.758 94.664 c 258.758
 96.066 259.891 97.203 261.293 97.203 c 262.695 97.203 263.832 96.066 263.832
 94.664 c 263.832 93.266 262.695 92.129 261.293 92.129 c h
261.293 92.129 m f
252.805 100.613 m 251.406 100.613 250.27 101.75 250.27 103.152 c 250.27
 104.555 251.406 105.688 252.805 105.688 c 254.207 105.688 255.344 104.555
 255.344 103.152 c 255.344 101.75 254.207 100.613 252.805 100.613 c h
252.805 100.613 m f
261.293 108.488 m 259.891 108.488 258.758 109.621 258.758 111.023 c 258.758
 112.426 259.891 113.562 261.293 113.562 c 262.695 113.562 263.832 112.426
 263.832 111.023 c 263.832 109.621 262.695 108.488 261.293 108.488 c h
261.293 108.488 m f
252.805 116.973 m 251.406 116.973 250.27 118.109 250.27 119.512 c 250.27
 120.91 251.406 122.047 252.805 122.047 c 254.207 122.047 255.344 120.91
 255.344 119.512 c 255.344 118.109 254.207 116.973 252.805 116.973 c h
252.805 116.973 m f
261.293 124.848 m 259.891 124.848 258.758 125.98 258.758 127.383 c 258.758
 128.785 259.891 129.922 261.293 129.922 c 262.695 129.922 263.832 128.785
 263.832 127.383 c 263.832 125.98 262.695 124.848 261.293 124.848 c h
261.293 124.848 m f
252.805 133.332 m 251.406 133.332 250.27 134.469 250.27 135.871 c 250.27
 137.27 251.406 138.406 252.805 138.406 c 254.207 138.406 255.344 137.27
 255.344 135.871 c 255.344 134.469 254.207 133.332 252.805 133.332 c h
252.805 133.332 m f
261.293 141.203 m 259.891 141.203 258.758 142.34 258.758 143.742 c 258.758
 145.141 259.891 146.277 261.293 146.277 c 262.695 146.277 263.832 145.145
 263.832 143.742 c 263.832 142.34 262.695 141.203 261.293 141.203 c h
261.293 141.203 m f
252.805 149.691 m 251.406 149.691 250.27 150.828 250.27 152.23 c 250.27
 153.629 251.406 154.766 252.805 154.766 c 254.207 154.766 255.344 153.629
 255.344 152.23 c 255.344 150.828 254.207 149.691 252.805 149.691 c h
252.805 149.691 m f
261.293 162.637 m 262.695 162.637 263.832 161.5 263.832 160.102 c 263.832
 158.699 262.695 157.562 261.293 157.562 c 259.891 157.562 258.758 158.699
 258.758 160.102 c 258.758 161.504 259.891 162.637 261.293 162.637 c h
261.293 162.637 m f
252.805 171.125 m 254.207 171.125 255.344 169.988 255.344 168.59 c 255.344
 167.188 254.207 166.051 252.805 166.051 c 251.406 166.051 250.27 167.188
 250.27 168.59 c 250.27 169.988 251.406 171.125 252.805 171.125 c h
252.805 171.125 m f
0.913725 0.760784 0.470588 rg
330.301 274.672 m 330.301 306.246 304.703 331.844 273.125 331.844 c 241.551
 331.844 215.953 306.246 215.953 274.672 c 215.953 243.094 241.551 217.5
 273.125 217.5 c 304.703 217.5 330.301 243.094 330.301 274.672 c h
330.301 274.672 m f
0.192157 0.215686 0.239216 rg
273.125 214.469 m 266.074 214.469 259.309 215.699 253.016 217.938 c 253.016
 176.902 l 288.535 176.902 l 290.211 176.902 291.566 175.547 291.566 173.871
 c 291.566 23.914 l 291.566 10.727 281.508 0 269.148 0 c 268.59 0 268.039
 0.027 267.492 0.074 c 83.242 0.074 l 65.281 0.074 50.672 14.684 50.672 
32.641 c 50.672 380.434 l 50.672 381.695 51.453 382.824 52.637 383.27 c 
54.066 383.805 l 54.41 383.934 54.773 384 55.133 384 c 55.711 384 56.285
 383.836 56.785 383.508 c 79.301 368.852 l 101.816 383.508 l 102.82 384.164
 104.117 384.164 105.121 383.508 c 127.621 368.852 l 150.129 383.508 l 151.133
 384.164 152.43 384.164 153.434 383.508 c 175.934 368.852 l 198.422 383.508
 l 199.43 384.164 200.727 384.164 201.73 383.508 c 224.223 368.852 l 246.719
 383.508 l 247.527 384.035 248.539 384.145 249.438 383.805 c 250.871 383.266
 l 252.051 382.824 252.832 381.695 252.832 380.434 c 252.832 331.344 l 259.176
 333.621 266.008 334.871 273.129 334.871 c 306.324 334.871 333.328 307.867
 333.328 274.672 c 333.328 241.477 306.32 214.469 273.125 214.469 c h
285.508 23.914 m 285.508 170.844 l 253.031 170.844 l 252.789 23.914 l 252.789
 14.066 260.129 6.059 269.148 6.059 c 278.168 6.059 285.508 14.066 285.508
 23.914 c h
246.773 376.316 m 225.875 362.699 l 224.867 362.047 223.57 362.047 222.566
 362.699 c 200.074 377.355 l 177.586 362.699 l 176.578 362.047 175.285 362.047
 174.277 362.699 c 151.781 377.355 l 129.273 362.699 l 128.27 362.047 126.973
 362.047 125.969 362.699 c 103.469 377.355 l 80.953 362.699 l 79.949 362.047
 78.652 362.047 77.648 362.699 c 56.73 376.32 l 56.73 32.641 l 56.73 18.023
 68.621 6.129 83.242 6.129 c 254.184 6.129 l 249.613 10.512 246.734 16.859
 246.734 23.918 c 246.957 220.465 l 226.836 230.215 212.926 250.848 212.926
 274.672 c 212.926 298.422 226.754 318.996 246.773 328.785 c h
273.125 328.812 m 243.273 328.812 218.984 304.527 218.984 274.672 c 218.984
 244.816 243.273 220.527 273.125 220.527 c 302.98 220.527 327.27 244.816
 327.27 274.672 c 327.27 304.527 302.98 328.812 273.125 328.812 c h
273.125 328.812 m f
273.125 230.855 m 248.965 230.855 229.309 250.512 229.309 274.672 c 229.309
 298.832 248.965 318.488 273.125 318.488 c 297.289 318.488 316.941 298.832
 316.941 274.672 c 316.941 250.512 297.285 230.855 273.125 230.855 c h
273.125 312.43 m 252.305 312.43 235.367 295.492 235.367 274.672 c 235.367
 253.852 252.309 236.914 273.125 236.914 c 293.945 236.914 310.887 253.852
 310.887 274.672 c 310.887 295.492 293.945 312.43 273.125 312.43 c h
273.125 312.43 m f
278.648 271.566 m 277.652 271.215 276.738 270.879 275.879 270.551 c 275.879
 255.844 l 278.234 256.391 279.645 257.578 279.766 257.688 c 280.996 258.801
 282.898 258.719 284.027 257.496 c 285.16 256.266 285.086 254.352 283.855
 253.215 c 283.68 253.055 280.719 250.391 275.879 249.68 c 275.879 246.645
 l 275.879 244.973 274.523 243.617 272.852 243.617 c 271.18 243.617 269.82
 244.973 269.82 246.645 c 269.82 249.91 l 269.352 250.016 268.871 250.133
 268.383 250.281 c 263.984 251.605 260.699 255.367 259.809 260.102 c 258.996
 264.414 260.375 268.574 263.41 270.953 c 265.031 272.223 267.051 273.391
 269.82 274.621 c 269.82 293.238 l 267.395 293.066 265.727 292.488 262.984
 290.691 c 261.586 289.777 259.711 290.168 258.793 291.57 c 257.879 292.969
 258.27 294.844 259.668 295.762 c 263.625 298.348 266.324 299.109 269.82
 299.301 c 269.82 302.699 l 269.82 304.371 271.176 305.727 272.852 305.727
 c 274.523 305.727 275.879 304.371 275.879 302.699 c 275.879 299.062 l 282.809
 297.723 286.855 292.023 287.75 286.695 c 288.898 279.863 285.324 273.926
 278.648 271.566 c h
267.148 266.184 m 265.902 265.207 265.367 263.305 265.762 261.223 c 266.117
 259.34 267.379 257.09 269.82 256.203 c 269.82 267.891 l 268.754 267.316
 267.875 266.754 267.148 266.184 c h
281.777 285.691 m 281.297 288.559 279.285 291.602 275.879 292.781 c 275.879
 277.008 l 276.125 277.098 276.371 277.184 276.629 277.277 c 282.379 279.309
 282.023 284.23 281.777 285.691 c h
281.777 285.691 m f
89.371 85.605 m 92.512 87.66 94.711 88.348 97.414 88.555 c 97.414 90.809
 l 97.414 92.48 98.77 93.836 100.441 93.836 c 102.113 93.836 103.473 92.48
 103.473 90.809 c 103.473 88.262 l 108.906 86.965 112.398 82.367 113.164
 77.828 c 114.148 71.969 111.086 66.871 105.363 64.848 c 104.738 64.629 
104.105 64.398 103.469 64.16 c 103.469 53.258 l 104.832 53.703 105.641 54.375
 105.727 54.449 c 106.957 55.559 108.852 55.473 109.98 54.254 c 111.113 
53.023 111.039 51.105 109.809 49.973 c 109.664 49.84 107.312 47.738 103.469
 47.031 c 103.469 45.012 l 103.469 43.34 102.113 41.984 100.441 41.984 c
 98.77 41.984 97.414 43.34 97.414 45.012 c 97.414 47.254 l 97.152 47.32 
96.898 47.371 96.629 47.453 c 92.84 48.594 90.008 51.832 89.242 55.902 c
 88.539 59.629 89.742 63.234 92.387 65.309 c 93.684 66.324 95.27 67.254 
97.414 68.227 c 97.414 82.465 l 95.766 82.273 94.578 81.777 92.684 80.535
 c 91.285 79.621 89.406 80.016 88.492 81.414 c 87.578 82.812 87.969 84.691
 89.371 85.605 c h
107.191 76.824 m 106.863 78.773 105.598 80.832 103.473 81.879 c 103.473
 70.613 l 107.621 72.156 107.371 75.75 107.191 76.824 c h
96.125 60.543 m 95.281 59.879 94.918 58.5 95.195 57.023 c 95.418 55.848
 96.117 54.48 97.414 53.695 c 97.414 61.406 l 96.945 61.125 96.504 60.84
 96.125 60.543 c h
96.125 60.543 m f
134.328 71.598 m 211.332 71.598 l 213.004 71.598 214.359 70.242 214.359
 68.57 c 214.359 66.898 213.004 65.539 211.332 65.539 c 134.328 65.539 l
 132.656 65.539 131.297 66.898 131.297 68.57 c 131.297 70.242 132.656 71.598
 134.328 71.598 c h
134.328 71.598 m f
90.551 145.902 m 212.059 145.902 l 213.734 145.902 215.09 144.543 215.09
 142.871 c 215.09 141.199 213.734 139.844 212.059 139.844 c 90.551 139.844
 l 88.879 139.844 87.523 141.199 87.523 142.871 c 87.523 144.543 88.879 
145.902 90.551 145.902 c h
90.551 145.902 m f
90.551 175.746 m 212.059 175.746 l 213.734 175.746 215.09 174.387 215.09
 172.715 c 215.09 171.043 213.734 169.688 212.059 169.688 c 90.551 169.688
 l 88.879 169.688 87.523 171.043 87.523 172.715 c 87.523 174.387 88.879 
175.746 90.551 175.746 c h
90.551 175.746 m f
215.09 202.559 m 215.09 200.887 213.734 199.531 212.059 199.531 c 90.551
 199.531 l 88.879 199.531 87.523 200.887 87.523 202.559 c 87.523 204.234
 88.879 205.59 90.551 205.59 c 212.059 205.59 l 213.734 205.59 215.09 204.234
 215.09 202.559 c h
215.09 202.559 m f
121.555 257.238 m 90.551 257.238 l 88.879 257.238 87.523 258.594 87.523
 260.266 c 87.523 261.938 88.879 263.297 90.551 263.297 c 121.555 263.297
 l 123.227 263.297 124.586 261.938 124.586 260.266 c 124.586 258.594 123.227
 257.238 121.555 257.238 c h
121.555 257.238 m f
121.555 279.383 m 90.551 279.383 l 88.879 279.383 87.523 280.738 87.523
 282.414 c 87.523 284.086 88.879 285.441 90.551 285.441 c 121.555 285.441
 l 123.227 285.441 124.586 284.086 124.586 282.414 c 124.586 280.738 123.227
 279.383 121.555 279.383 c h
121.555 279.383 m f
121.555 301.527 m 90.551 301.527 l 88.879 301.527 87.523 302.887 87.523
 304.559 c 87.523 306.23 88.879 307.586 90.551 307.586 c 121.555 307.586
 l 123.227 307.586 124.586 306.23 124.586 304.559 c 124.586 302.887 123.227
 301.527 121.555 301.527 c h
121.555 301.527 m f
Q Q
showpage
%%Trailer
end
%%EOF
