%!PS-Adobe-3.0 EPSF-3.0
%%Creator: cairo 1.16.0 (https://cairographics.org)
%%CreationDate: Fri Feb 12 12:12:44 2021
%%Pages: 1
%%DocumentData: Clean7Bit
%%LanguageLevel: 2
%%BoundingBox: 12 0 372 384
%%EndComments
%%BeginProlog
50 dict begin
/q { gsave } bind def
/Q { grestore } bind def
/cm { 6 array astore concat } bind def
/w { setlinewidth } bind def
/J { setlinecap } bind def
/j { setlinejoin } bind def
/M { setmiterlimit } bind def
/d { setdash } bind def
/m { moveto } bind def
/l { lineto } bind def
/c { curveto } bind def
/h { closepath } bind def
/re { exch dup neg 3 1 roll 5 3 roll moveto 0 rlineto
      0 exch rlineto 0 rlineto closepath } bind def
/S { stroke } bind def
/f { fill } bind def
/f* { eofill } bind def
/n { newpath } bind def
/W { clip } bind def
/W* { eoclip } bind def
/BT { } bind def
/ET { } bind def
/BDC { mark 3 1 roll /BDC pdfmark } bind def
/EMC { mark /EMC pdfmark } bind def
/cairo_store_point { /cairo_point_y exch def /cairo_point_x exch def } def
/Tj { show currentpoint cairo_store_point } bind def
/TJ {
  {
    dup
    type /stringtype eq
    { show } { -0.001 mul 0 cairo_font_matrix dtransform rmoveto } ifelse
  } forall
  currentpoint cairo_store_point
} bind def
/cairo_selectfont { cairo_font_matrix aload pop pop pop 0 0 6 array astore
    cairo_font exch selectfont cairo_point_x cairo_point_y moveto } bind def
/Tf { pop /cairo_font exch def /cairo_font_matrix where
      { pop cairo_selectfont } if } bind def
/Td { matrix translate cairo_font_matrix matrix concatmatrix dup
      /cairo_font_matrix exch def dup 4 get exch 5 get cairo_store_point
      /cairo_font where { pop cairo_selectfont } if } bind def
/Tm { 2 copy 8 2 roll 6 array astore /cairo_font_matrix exch def
      cairo_store_point /cairo_font where { pop cairo_selectfont } if } bind def
/g { setgray } bind def
/rg { setrgbcolor } bind def
/d1 { setcachedevice } bind def
/cairo_data_source {
  CairoDataIndex CairoData length lt
    { CairoData CairoDataIndex get /CairoDataIndex CairoDataIndex 1 add def }
    { () } ifelse
} def
/cairo_flush_ascii85_file { cairo_ascii85_file status { cairo_ascii85_file flushfile } if } def
/cairo_image { image cairo_flush_ascii85_file } def
/cairo_imagemask { imagemask cairo_flush_ascii85_file } def
%%EndProlog
%%BeginSetup
%%EndSetup
%%Page: 1 1
%%BeginPageSetup
%%PageBoundingBox: 12 0 372 384
%%EndPageSetup
q 12 0 360 384 rectclip
1 0 0 -1 0 384 cm q
0.917647 0.658824 0.584314 rg
368.918 155.32 m 368.836 133.398 359.473 105.043 309.652 105.043 c 67.613
 105.043 l 43.082 105.043 23.195 124.93 23.195 149.461 c 23.195 220.125 
l 18.176 225.309 15.082 232.371 15.082 240.156 c 15.082 265.312 l 15.082
 273.102 18.176 280.16 23.195 285.344 c 23.195 317.059 l 23.195 334.344 
33.078 349.312 47.492 356.652 c 54.836 371.07 69.805 380.949 87.09 380.949
 c 324.473 380.949 l 349.004 380.949 368.891 361.062 368.891 336.535 c 368.891
 155.797 l 368.906 155.637 368.918 155.48 368.918 155.32 c h
368.918 155.32 m f
0.913725 0.760784 0.470588 rg
267.742 124.316 m 216.617 13.648 l 214.887 9.91 210.453 8.277 206.711 10.004
 c 198.383 13.855 l 195.035 6.664 l 193.297 2.93 188.855 1.312 185.121 3.051
 c 48.93 66.457 l 45.191 68.199 43.574 72.637 45.312 76.371 c 69.906 129.195
 l 83.078 124.316 l h
267.742 124.316 m f
73.328 245.57 m 77.293 255.133 72.754 266.098 63.195 270.059 c 53.633 274.023
 42.668 269.484 38.703 259.922 c 34.742 250.363 39.281 239.398 48.84 235.434
 c 58.402 231.473 69.367 236.012 73.328 245.57 c h
73.328 245.57 m f
0.976471 0.984314 0.988235 rg
357.211 132.945 m 357.211 134.23 358.254 135.273 359.539 135.273 c 360.473
 135.273 361.27 134.723 361.641 133.934 c 361.168 132.809 360.652 131.723
 360.09 130.688 c 359.91 130.645 359.73 130.613 359.539 130.613 c 358.254
 130.613 357.211 131.656 357.211 132.945 c h
357.211 132.945 m f
359.539 145.629 m 358.254 145.629 357.211 146.672 357.211 147.957 c 357.211
 149.246 358.254 150.289 359.539 150.289 c 360.824 150.289 361.867 149.246
 361.867 147.957 c 361.867 146.672 360.824 145.629 359.539 145.629 c h
359.539 145.629 m f
359.539 160.645 m 358.254 160.645 357.211 161.688 357.211 162.973 c 357.211
 164.262 358.254 165.305 359.539 165.305 c 360.824 165.305 361.867 164.262
 361.867 162.973 c 361.867 161.688 360.824 160.645 359.539 160.645 c h
359.539 160.645 m f
359.539 175.66 m 358.254 175.66 357.211 176.703 357.211 177.988 c 357.211
 179.273 358.254 180.316 359.539 180.316 c 360.824 180.316 361.867 179.273
 361.867 177.988 c 361.867 176.703 360.824 175.66 359.539 175.66 c h
359.539 175.66 m f
359.539 190.676 m 358.254 190.676 357.211 191.719 357.211 193.004 c 357.211
 194.289 358.254 195.332 359.539 195.332 c 360.824 195.332 361.867 194.289
 361.867 193.004 c 361.867 191.719 360.824 190.676 359.539 190.676 c h
359.539 190.676 m f
359.539 205.691 m 358.254 205.691 357.211 206.734 357.211 208.02 c 357.211
 209.305 358.254 210.348 359.539 210.348 c 360.824 210.348 361.867 209.305
 361.867 208.02 c 361.867 206.734 360.824 205.691 359.539 205.691 c h
359.539 205.691 m f
359.539 220.703 m 358.254 220.703 357.211 221.746 357.211 223.035 c 357.211
 224.32 358.254 225.363 359.539 225.363 c 360.824 225.363 361.867 224.32
 361.867 223.035 c 361.867 221.746 360.824 220.703 359.539 220.703 c h
359.539 220.703 m f
359.539 235.719 m 358.254 235.719 357.211 236.762 357.211 238.051 c 357.211
 239.336 358.254 240.379 359.539 240.379 c 360.824 240.379 361.867 239.336
 361.867 238.051 c 361.867 236.762 360.824 235.719 359.539 235.719 c h
359.539 235.719 m f
359.539 250.734 m 358.254 250.734 357.211 251.777 357.211 253.062 c 357.211
 254.352 358.254 255.395 359.539 255.395 c 360.824 255.395 361.867 254.352
 361.867 253.062 c 361.867 251.777 360.824 250.734 359.539 250.734 c h
359.539 250.734 m f
359.539 265.75 m 358.254 265.75 357.211 266.793 357.211 268.078 c 357.211
 269.367 358.254 270.406 359.539 270.406 c 360.824 270.406 361.867 269.367
 361.867 268.078 c 361.867 266.793 360.824 265.75 359.539 265.75 c h
359.539 265.75 m f
359.539 280.766 m 358.254 280.766 357.211 281.809 357.211 283.094 c 357.211
 284.379 358.254 285.422 359.539 285.422 c 360.824 285.422 361.867 284.379
 361.867 283.094 c 361.867 281.809 360.824 280.766 359.539 280.766 c h
359.539 280.766 m f
359.539 295.781 m 358.254 295.781 357.211 296.824 357.211 298.109 c 357.211
 299.395 358.254 300.438 359.539 300.438 c 360.824 300.438 361.867 299.395
 361.867 298.109 c 361.867 296.824 360.824 295.781 359.539 295.781 c h
359.539 295.781 m f
359.539 310.797 m 358.254 310.797 357.211 311.84 357.211 313.125 c 357.211
 314.41 358.254 315.453 359.539 315.453 c 360.824 315.453 361.867 314.41
 361.867 313.125 c 361.867 311.84 360.824 310.797 359.539 310.797 c h
359.539 310.797 m f
359.539 325.809 m 358.254 325.809 357.211 326.855 357.211 328.141 c 357.211
 329.426 358.254 330.469 359.539 330.469 c 360.824 330.469 361.867 329.426
 361.867 328.141 c 361.867 326.855 360.824 325.809 359.539 325.809 c h
359.539 325.809 m f
359.539 340.824 m 358.254 340.824 357.211 341.867 357.211 343.152 c 357.211
 344.441 358.254 345.484 359.539 345.484 c 360.824 345.484 361.867 344.441
 361.867 343.152 c 361.867 341.867 360.824 340.824 359.539 340.824 c h
359.539 340.824 m f
359.539 360.5 m 360.824 360.5 361.867 359.457 361.867 358.172 c 361.867
 356.883 360.824 355.84 359.539 355.84 c 358.254 355.84 357.211 356.883 
357.211 358.172 c 357.211 359.457 358.254 360.5 359.539 360.5 c h
359.539 360.5 m f
344.523 115.602 m 343.238 115.602 342.195 116.641 342.195 117.93 c 342.195
 119.215 343.238 120.258 344.523 120.258 c 345.812 120.258 346.852 119.215
 346.852 117.93 c 346.852 117.414 346.68 116.941 346.398 116.559 c 345.879
 116.238 345.359 115.93 344.828 115.629 c 344.727 115.617 344.629 115.602
 344.523 115.602 c h
344.523 115.602 m f
352.316 122.824 m 351.027 122.824 349.984 123.867 349.984 125.152 c 349.984
 126.441 351.027 127.48 352.316 127.48 c 353.602 127.48 354.645 126.441 
354.645 125.152 c 354.645 123.867 353.602 122.824 352.316 122.824 c h
352.316 122.824 m f
344.523 130.613 m 343.238 130.613 342.195 131.656 342.195 132.945 c 342.195
 134.23 343.238 135.273 344.523 135.273 c 345.812 135.273 346.852 134.23
 346.852 132.945 c 346.855 131.656 345.812 130.613 344.523 130.613 c h
344.523 130.613 m f
352.316 137.84 m 351.027 137.84 349.984 138.883 349.984 140.168 c 349.984
 141.453 351.027 142.496 352.316 142.496 c 353.602 142.496 354.645 141.453
 354.645 140.168 c 354.645 138.883 353.602 137.84 352.316 137.84 c h
352.316 137.84 m f
346.852 147.961 m 346.852 149.246 345.812 150.289 344.523 150.289 c 343.238
 150.289 342.195 149.246 342.195 147.961 c 342.195 146.672 343.238 145.629
 344.523 145.629 c 345.812 145.629 346.852 146.672 346.852 147.961 c h
346.852 147.961 m f
352.316 152.855 m 351.027 152.855 349.984 153.898 349.984 155.184 c 349.984
 156.469 351.027 157.512 352.316 157.512 c 353.602 157.512 354.645 156.469
 354.645 155.184 c 354.645 153.898 353.602 152.855 352.316 152.855 c h
352.316 152.855 m f
352.316 167.871 m 351.027 167.871 349.984 168.91 349.984 170.199 c 349.984
 171.484 351.027 172.527 352.316 172.527 c 353.602 172.527 354.645 171.484
 354.645 170.199 c 354.645 168.914 353.602 167.871 352.316 167.871 c h
352.316 167.871 m f
344.523 175.66 m 343.238 175.66 342.195 176.703 342.195 177.988 c 342.195
 179.273 343.238 180.316 344.523 180.316 c 345.812 180.316 346.852 179.273
 346.852 177.988 c 346.855 176.703 345.812 175.66 344.523 175.66 c h
344.523 175.66 m f
352.316 182.887 m 351.027 182.887 349.984 183.93 349.984 185.215 c 349.984
 186.5 351.027 187.543 352.316 187.543 c 353.602 187.543 354.645 186.5 354.645
 185.215 c 354.645 183.93 353.602 182.887 352.316 182.887 c h
352.316 182.887 m f
344.523 190.676 m 343.238 190.676 342.195 191.719 342.195 193.004 c 342.195
 194.289 343.238 195.332 344.523 195.332 c 345.812 195.332 346.852 194.289
 346.852 193.004 c 346.855 191.719 345.812 190.676 344.523 190.676 c h
344.523 190.676 m f
352.316 197.898 m 351.027 197.898 349.984 198.941 349.984 200.23 c 349.984
 201.516 351.027 202.559 352.316 202.559 c 353.602 202.559 354.645 201.516
 354.645 200.23 c 354.645 198.941 353.602 197.898 352.316 197.898 c h
352.316 197.898 m f
346.852 208.02 m 346.852 209.305 345.812 210.348 344.523 210.348 c 343.238
 210.348 342.195 209.305 342.195 208.02 c 342.195 206.734 343.238 205.691
 344.523 205.691 c 345.812 205.691 346.852 206.734 346.852 208.02 c h
346.852 208.02 m f
352.316 212.914 m 351.027 212.914 349.984 213.957 349.984 215.242 c 349.984
 216.531 351.027 217.574 352.316 217.574 c 353.602 217.574 354.645 216.531
 354.645 215.242 c 354.645 213.957 353.602 212.914 352.316 212.914 c h
352.316 212.914 m f
346.852 223.035 m 346.852 224.32 345.812 225.363 344.523 225.363 c 343.238
 225.363 342.195 224.32 342.195 223.035 c 342.195 221.75 343.238 220.707
 344.523 220.707 c 345.812 220.707 346.852 221.75 346.852 223.035 c h
346.852 223.035 m f
352.316 227.93 m 351.027 227.93 349.984 228.973 349.984 230.258 c 349.984
 231.547 351.027 232.586 352.316 232.586 c 353.602 232.586 354.645 231.547
 354.645 230.258 c 354.645 228.973 353.602 227.93 352.316 227.93 c h
352.316 227.93 m f
344.523 235.719 m 343.238 235.719 342.195 236.762 342.195 238.051 c 342.195
 239.336 343.238 240.379 344.523 240.379 c 345.812 240.379 346.852 239.336
 346.852 238.051 c 346.855 236.762 345.812 235.719 344.523 235.719 c h
344.523 235.719 m f
352.316 242.945 m 351.027 242.945 349.984 243.988 349.984 245.273 c 349.984
 246.559 351.027 247.602 352.316 247.602 c 353.602 247.602 354.645 246.559
 354.645 245.273 c 354.645 243.988 353.602 242.945 352.316 242.945 c h
352.316 242.945 m f
344.523 250.734 m 343.238 250.734 342.195 251.777 342.195 253.062 c 342.195
 254.352 343.238 255.395 344.523 255.395 c 345.812 255.395 346.852 254.352
 346.852 253.062 c 346.855 251.777 345.812 250.734 344.523 250.734 c h
344.523 250.734 m f
352.316 257.961 m 351.027 257.961 349.984 259.004 349.984 260.289 c 349.984
 261.574 351.027 262.617 352.316 262.617 c 353.602 262.617 354.645 261.574
 354.645 260.289 c 354.645 259.004 353.602 257.961 352.316 257.961 c h
352.316 257.961 m f
346.852 268.078 m 346.852 269.367 345.812 270.406 344.523 270.406 c 343.238
 270.406 342.195 269.367 342.195 268.078 c 342.195 266.793 343.238 265.75
 344.523 265.75 c 345.812 265.75 346.852 266.793 346.852 268.078 c h
346.852 268.078 m f
352.316 272.977 m 351.027 272.977 349.984 274.02 349.984 275.305 c 349.984
 276.59 351.027 277.633 352.316 277.633 c 353.602 277.633 354.645 276.59
 354.645 275.305 c 354.645 274.02 353.602 272.977 352.316 272.977 c h
352.316 272.977 m f
346.852 283.094 m 346.852 284.379 345.812 285.422 344.523 285.422 c 343.238
 285.422 342.195 284.379 342.195 283.094 c 342.195 281.809 343.238 280.766
 344.523 280.766 c 345.812 280.766 346.852 281.809 346.852 283.094 c h
346.852 283.094 m f
352.316 287.992 m 351.027 287.992 349.984 289.031 349.984 290.32 c 349.984
 291.605 351.027 292.648 352.316 292.648 c 353.602 292.648 354.645 291.605
 354.645 290.32 c 354.645 289.031 353.602 287.992 352.316 287.992 c h
352.316 287.992 m f
344.523 295.781 m 343.238 295.781 342.195 296.824 342.195 298.109 c 342.195
 299.395 343.238 300.438 344.523 300.438 c 345.812 300.438 346.852 299.395
 346.852 298.109 c 346.855 296.824 345.812 295.781 344.523 295.781 c h
344.523 295.781 m f
352.316 303.004 m 351.027 303.004 349.984 304.047 349.984 305.336 c 349.984
 306.621 351.027 307.664 352.316 307.664 c 353.602 307.664 354.645 306.621
 354.645 305.336 c 354.645 304.047 353.602 303.004 352.316 303.004 c h
352.316 303.004 m f
344.523 310.797 m 343.238 310.797 342.195 311.84 342.195 313.125 c 342.195
 314.41 343.238 315.453 344.523 315.453 c 345.812 315.453 346.852 314.41
 346.852 313.125 c 346.855 311.84 345.812 310.797 344.523 310.797 c h
344.523 310.797 m f
352.316 318.02 m 351.027 318.02 349.984 319.062 349.984 320.348 c 349.984
 321.637 351.027 322.68 352.316 322.68 c 353.602 322.68 354.645 321.637 
354.645 320.348 c 354.645 319.062 353.602 318.02 352.316 318.02 c h
352.316 318.02 m f
346.852 328.141 m 346.852 329.426 345.812 330.469 344.523 330.469 c 343.238
 330.469 342.195 329.426 342.195 328.141 c 342.195 326.855 343.238 325.812
 344.523 325.812 c 345.812 325.812 346.852 326.855 346.852 328.141 c h
346.852 328.141 m f
352.316 333.035 m 351.027 333.035 349.984 334.078 349.984 335.363 c 349.984
 336.648 351.027 337.691 352.316 337.691 c 353.602 337.691 354.645 336.648
 354.645 335.363 c 354.645 334.078 353.602 333.035 352.316 333.035 c h
352.316 333.035 m f
352.316 348.051 m 351.027 348.051 349.984 349.094 349.984 350.379 c 349.984
 351.664 351.027 352.707 352.316 352.707 c 353.602 352.707 354.645 351.664
 354.645 350.379 c 354.645 349.094 353.602 348.051 352.316 348.051 c h
352.316 348.051 m f
344.523 355.84 m 343.238 355.84 342.195 356.883 342.195 358.168 c 342.195
 359.457 343.238 360.496 344.523 360.496 c 345.812 360.496 346.852 359.457
 346.852 358.168 c 346.855 356.883 345.812 355.84 344.523 355.84 c h
344.523 355.84 m f
352.316 363.066 m 351.027 363.066 349.984 364.109 349.984 365.395 c 349.984
 366.68 351.027 367.723 352.316 367.723 c 353.602 367.723 354.645 366.68
 354.645 365.395 c 354.645 364.109 353.602 363.066 352.316 363.066 c h
352.316 363.066 m f
344.523 370.855 m 343.238 370.855 342.195 371.898 342.195 373.184 c 342.195
 374.469 343.238 375.512 344.523 375.512 c 345.812 375.512 346.852 374.469
 346.852 373.184 c 346.855 371.898 345.812 370.855 344.523 370.855 c h
344.523 370.855 m f
331.84 117.93 m 331.84 116.641 330.797 115.602 329.508 115.602 c 328.223
 115.602 327.18 116.641 327.18 117.93 c 327.18 119.215 328.223 120.258 329.508
 120.258 c 330.797 120.258 331.84 119.215 331.84 117.93 c h
331.84 117.93 m f
339.629 125.152 m 339.629 123.867 338.586 122.824 337.301 122.824 c 336.016
 122.824 334.973 123.867 334.973 125.152 c 334.973 126.441 336.016 127.484
 337.301 127.484 c 338.586 127.484 339.629 126.441 339.629 125.152 c h
339.629 125.152 m f
337.301 333.035 m 336.012 333.035 334.973 334.078 334.973 335.363 c 334.973
 336.648 336.012 337.691 337.301 337.691 c 338.586 337.691 339.629 336.648
 339.629 335.363 c 339.629 334.078 338.586 333.035 337.301 333.035 c h
337.301 333.035 m f
331.84 343.156 m 331.84 344.441 330.797 345.484 329.508 345.484 c 328.223
 345.484 327.18 344.441 327.18 343.156 c 327.18 341.867 328.223 340.828 
329.508 340.828 c 330.797 340.828 331.84 341.867 331.84 343.156 c h
331.84 343.156 m f
337.301 348.051 m 336.012 348.051 334.973 349.094 334.973 350.379 c 334.973
 351.664 336.012 352.707 337.301 352.707 c 338.586 352.707 339.629 351.664
 339.629 350.379 c 339.629 349.094 338.586 348.051 337.301 348.051 c h
337.301 348.051 m f
329.508 355.84 m 328.223 355.84 327.18 356.883 327.18 358.168 c 327.18 
359.457 328.223 360.496 329.508 360.496 c 330.797 360.496 331.84 359.457
 331.84 358.168 c 331.84 356.883 330.797 355.84 329.508 355.84 c h
329.508 355.84 m f
337.301 363.066 m 336.012 363.066 334.973 364.109 334.973 365.395 c 334.973
 366.68 336.012 367.723 337.301 367.723 c 338.586 367.723 339.629 366.68
 339.629 365.395 c 339.629 364.109 338.586 363.066 337.301 363.066 c h
337.301 363.066 m f
329.508 370.855 m 328.223 370.855 327.18 371.898 327.18 373.184 c 327.18
 374.469 328.223 375.512 329.508 375.512 c 330.797 375.512 331.84 374.469
 331.84 373.184 c 331.84 371.898 330.797 370.855 329.508 370.855 c h
329.508 370.855 m f
319.957 110.137 m 319.957 111.426 321 112.469 322.285 112.469 c 323.57 
112.469 324.613 111.426 324.613 110.137 c 324.613 109.742 324.508 109.379
 324.332 109.055 c 323.043 108.883 321.762 108.754 320.496 108.664 c 320.164
 109.066 319.957 109.574 319.957 110.137 c h
319.957 110.137 m f
312.164 117.93 m 312.164 119.215 313.207 120.258 314.496 120.258 c 315.781
 120.258 316.824 119.215 316.824 117.93 c 316.824 116.641 315.781 115.602
 314.496 115.602 c 313.207 115.602 312.164 116.645 312.164 117.93 c h
312.164 117.93 m f
322.285 348.051 m 321 348.051 319.957 349.094 319.957 350.379 c 319.957
 351.664 321 352.707 322.285 352.707 c 323.57 352.707 324.613 351.664 324.613
 350.379 c 324.613 349.094 323.57 348.051 322.285 348.051 c h
322.285 348.051 m f
314.496 355.84 m 313.207 355.84 312.164 356.883 312.164 358.168 c 312.164
 359.457 313.207 360.496 314.496 360.496 c 315.781 360.496 316.824 359.457
 316.824 358.168 c 316.824 356.883 315.781 355.84 314.496 355.84 c h
314.496 355.84 m f
322.285 363.066 m 321 363.066 319.957 364.109 319.957 365.395 c 319.957
 366.68 321 367.723 322.285 367.723 c 323.57 367.723 324.613 366.68 324.613
 365.395 c 324.613 364.109 323.57 363.066 322.285 363.066 c h
322.285 363.066 m f
314.496 370.855 m 313.207 370.855 312.164 371.898 312.164 373.184 c 312.164
 374.469 313.207 375.512 314.496 375.512 c 315.781 375.512 316.824 374.469
 316.824 373.184 c 316.824 371.898 315.781 370.855 314.496 370.855 c h
314.496 370.855 m f
304.941 110.137 m 304.941 111.426 305.984 112.469 307.27 112.469 c 308.555
 112.469 309.598 111.426 309.598 110.137 c 309.598 109.477 309.32 108.883
 308.875 108.461 c 305.68 108.445 l 305.227 108.871 304.941 109.469 304.941
 110.137 c h
304.941 110.137 m f
301.809 117.93 m 301.809 116.641 300.766 115.602 299.48 115.602 c 298.191
 115.602 297.152 116.641 297.152 117.93 c 297.152 119.215 298.191 120.258
 299.48 120.258 c 300.766 120.258 301.809 119.215 301.809 117.93 c h
301.809 117.93 m f
307.27 348.051 m 305.984 348.051 304.941 349.094 304.941 350.379 c 304.941
 351.664 305.984 352.707 307.27 352.707 c 308.555 352.707 309.598 351.664
 309.598 350.379 c 309.598 349.094 308.555 348.051 307.27 348.051 c h
307.27 348.051 m f
299.48 355.84 m 298.191 355.84 297.152 356.883 297.152 358.168 c 297.152
 359.457 298.191 360.496 299.48 360.496 c 300.766 360.496 301.809 359.457
 301.809 358.168 c 301.809 356.883 300.766 355.84 299.48 355.84 c h
299.48 355.84 m f
307.27 363.066 m 305.984 363.066 304.941 364.109 304.941 365.395 c 304.941
 366.68 305.984 367.723 307.27 367.723 c 308.555 367.723 309.598 366.68 
309.598 365.395 c 309.598 364.109 308.555 363.066 307.27 363.066 c h
307.27 363.066 m f
299.48 370.855 m 298.191 370.855 297.152 371.898 297.152 373.184 c 297.152
 374.469 298.191 375.512 299.48 375.512 c 300.766 375.512 301.809 374.469
 301.809 373.184 c 301.809 371.898 300.766 370.855 299.48 370.855 c h
299.48 370.855 m f
289.926 110.137 m 289.926 111.426 290.969 112.469 292.254 112.469 c 293.539
 112.469 294.582 111.426 294.582 110.137 c 294.582 109.438 294.266 108.816
 293.773 108.387 c 290.75 108.371 l 290.25 108.801 289.926 109.43 289.926
 110.137 c h
289.926 110.137 m f
286.793 117.93 m 286.793 116.641 285.75 115.602 284.465 115.602 c 283.18
 115.602 282.137 116.641 282.137 117.93 c 282.137 119.215 283.18 120.258
 284.465 120.258 c 285.75 120.258 286.793 119.215 286.793 117.93 c h
286.793 117.93 m f
294.582 350.379 m 294.582 351.664 293.539 352.707 292.254 352.707 c 290.969
 352.707 289.926 351.664 289.926 350.379 c 289.926 349.094 290.969 348.051
 292.254 348.051 c 293.539 348.051 294.582 349.094 294.582 350.379 c h
294.582 350.379 m f
284.465 355.84 m 283.18 355.84 282.137 356.883 282.137 358.168 c 282.137
 359.457 283.18 360.496 284.465 360.496 c 285.75 360.496 286.793 359.457
 286.793 358.168 c 286.793 356.883 285.75 355.84 284.465 355.84 c h
284.465 355.84 m f
292.254 363.066 m 290.969 363.066 289.926 364.109 289.926 365.395 c 289.926
 366.68 290.969 367.723 292.254 367.723 c 293.539 367.723 294.582 366.68
 294.582 365.395 c 294.582 364.109 293.539 363.066 292.254 363.066 c h
292.254 363.066 m f
284.465 370.855 m 283.18 370.855 282.137 371.898 282.137 373.184 c 282.137
 374.469 283.18 375.512 284.465 375.512 c 285.75 375.512 286.793 374.469
 286.793 373.184 c 286.793 371.898 285.75 370.855 284.465 370.855 c h
284.465 370.855 m f
274.91 110.137 m 274.91 111.426 275.953 112.469 277.238 112.469 c 278.523
 112.469 279.566 111.426 279.566 110.137 c 279.566 109.395 279.215 108.742
 278.672 108.316 c 275.82 108.301 l 275.27 108.727 274.91 109.387 274.91
 110.137 c h
274.91 110.137 m f
269.449 115.602 m 268.672 115.602 267.988 115.984 267.566 116.57 c 269.281
 120.242 l 269.336 120.246 269.391 120.258 269.449 120.258 c 270.734 120.258
 271.777 119.215 271.777 117.93 c 271.777 116.645 270.734 115.602 269.449
 115.602 c h
269.449 115.602 m f
279.57 350.379 m 279.57 351.664 278.527 352.707 277.238 352.707 c 275.953
 352.707 274.91 351.664 274.91 350.379 c 274.91 349.094 275.953 348.051 
277.238 348.051 c 278.527 348.051 279.57 349.094 279.57 350.379 c h
279.57 350.379 m f
269.449 355.84 m 268.164 355.84 267.121 356.883 267.121 358.168 c 267.121
 359.457 268.164 360.496 269.449 360.496 c 270.734 360.496 271.777 359.457
 271.777 358.168 c 271.777 356.883 270.734 355.84 269.449 355.84 c h
269.449 355.84 m f
277.238 363.066 m 275.953 363.066 274.91 364.109 274.91 365.395 c 274.91
 366.68 275.953 367.723 277.238 367.723 c 278.527 367.723 279.57 366.68 
279.57 365.395 c 279.57 364.109 278.527 363.066 277.238 363.066 c h
277.238 363.066 m f
269.449 370.855 m 268.164 370.855 267.121 371.898 267.121 373.184 c 267.121
 374.469 268.164 375.512 269.449 375.512 c 270.734 375.512 271.777 374.469
 271.777 373.184 c 271.777 371.898 270.734 370.855 269.449 370.855 c h
269.449 370.855 m f
264.555 350.379 m 264.555 351.664 263.512 352.707 262.227 352.707 c 260.938
 352.707 259.895 351.664 259.895 350.379 c 259.895 349.094 260.938 348.051
 262.227 348.051 c 263.512 348.051 264.555 349.094 264.555 350.379 c h
264.555 350.379 m f
254.434 355.84 m 253.148 355.84 252.105 356.883 252.105 358.168 c 252.105
 359.457 253.148 360.496 254.434 360.496 c 255.723 360.496 256.762 359.457
 256.762 358.168 c 256.762 356.883 255.723 355.84 254.434 355.84 c h
254.434 355.84 m f
262.227 363.066 m 260.938 363.066 259.895 364.109 259.895 365.395 c 259.895
 366.68 260.938 367.723 262.227 367.723 c 263.512 367.723 264.555 366.68
 264.555 365.395 c 264.555 364.109 263.512 363.066 262.227 363.066 c h
262.227 363.066 m f
254.434 370.855 m 253.148 370.855 252.105 371.898 252.105 373.184 c 252.105
 374.469 253.148 375.512 254.434 375.512 c 255.723 375.512 256.762 374.469
 256.762 373.184 c 256.762 371.898 255.723 370.855 254.434 370.855 c h
254.434 370.855 m f
249.539 350.379 m 249.539 351.664 248.496 352.707 247.211 352.707 c 245.922
 352.707 244.883 351.664 244.883 350.379 c 244.883 349.094 245.922 348.051
 247.211 348.051 c 248.496 348.051 249.539 349.094 249.539 350.379 c h
249.539 350.379 m f
239.418 355.84 m 238.133 355.84 237.09 356.883 237.09 358.168 c 237.09 
359.457 238.133 360.496 239.418 360.496 c 240.707 360.496 241.75 359.457
 241.75 358.168 c 241.75 356.883 240.707 355.84 239.418 355.84 c h
239.418 355.84 m f
247.211 363.066 m 245.922 363.066 244.883 364.109 244.883 365.395 c 244.883
 366.68 245.922 367.723 247.211 367.723 c 248.496 367.723 249.539 366.68
 249.539 365.395 c 249.539 364.109 248.496 363.066 247.211 363.066 c h
247.211 363.066 m f
239.418 370.855 m 238.133 370.855 237.09 371.898 237.09 373.184 c 237.09
 374.469 238.133 375.512 239.418 375.512 c 240.707 375.512 241.75 374.469
 241.75 373.184 c 241.75 371.898 240.707 370.855 239.418 370.855 c h
239.418 370.855 m f
234.523 350.379 m 234.523 351.664 233.48 352.707 232.195 352.707 c 230.91
 352.707 229.867 351.664 229.867 350.379 c 229.867 349.094 230.91 348.051
 232.195 348.051 c 233.48 348.051 234.523 349.094 234.523 350.379 c h
234.523 350.379 m f
224.406 355.84 m 223.117 355.84 222.074 356.883 222.074 358.168 c 222.074
 359.457 223.117 360.496 224.406 360.496 c 225.691 360.496 226.734 359.457
 226.734 358.168 c 226.734 356.883 225.691 355.84 224.406 355.84 c h
224.406 355.84 m f
232.195 363.066 m 230.91 363.066 229.867 364.109 229.867 365.395 c 229.867
 366.68 230.91 367.723 232.195 367.723 c 233.48 367.723 234.523 366.68 234.523
 365.395 c 234.523 364.109 233.48 363.066 232.195 363.066 c h
232.195 363.066 m f
224.406 370.855 m 223.117 370.855 222.074 371.898 222.074 373.184 c 222.074
 374.469 223.117 375.512 224.406 375.512 c 225.691 375.512 226.734 374.469
 226.734 373.184 c 226.734 371.898 225.691 370.855 224.406 370.855 c h
224.406 370.855 m f
219.508 350.379 m 219.508 351.664 218.465 352.707 217.18 352.707 c 215.895
 352.707 214.852 351.664 214.852 350.379 c 214.852 349.094 215.895 348.051
 217.18 348.051 c 218.465 348.051 219.508 349.094 219.508 350.379 c h
219.508 350.379 m f
209.391 355.84 m 208.102 355.84 207.062 356.883 207.062 358.168 c 207.062
 359.457 208.102 360.496 209.391 360.496 c 210.676 360.496 211.719 359.457
 211.719 358.168 c 211.719 356.883 210.676 355.84 209.391 355.84 c h
209.391 355.84 m f
217.18 363.066 m 215.895 363.066 214.852 364.109 214.852 365.395 c 214.852
 366.68 215.895 367.723 217.18 367.723 c 218.465 367.723 219.508 366.68 
219.508 365.395 c 219.508 364.109 218.465 363.066 217.18 363.066 c h
217.18 363.066 m f
209.391 370.855 m 208.102 370.855 207.062 371.898 207.062 373.184 c 207.062
 374.469 208.102 375.512 209.391 375.512 c 210.676 375.512 211.719 374.469
 211.719 373.184 c 211.719 371.898 210.676 370.855 209.391 370.855 c h
209.391 370.855 m f
204.492 350.379 m 204.492 351.664 203.449 352.707 202.164 352.707 c 200.879
 352.707 199.836 351.664 199.836 350.379 c 199.836 349.094 200.879 348.051
 202.164 348.051 c 203.449 348.051 204.492 349.094 204.492 350.379 c h
204.492 350.379 m f
194.375 355.84 m 193.09 355.84 192.047 356.883 192.047 358.168 c 192.047
 359.457 193.09 360.496 194.375 360.496 c 195.66 360.496 196.703 359.457
 196.703 358.168 c 196.703 356.883 195.66 355.84 194.375 355.84 c h
194.375 355.84 m f
202.164 363.066 m 200.879 363.066 199.836 364.109 199.836 365.395 c 199.836
 366.68 200.879 367.723 202.164 367.723 c 203.449 367.723 204.492 366.68
 204.492 365.395 c 204.492 364.109 203.449 363.066 202.164 363.066 c h
202.164 363.066 m f
194.375 370.855 m 193.09 370.855 192.047 371.898 192.047 373.184 c 192.047
 374.469 193.09 375.512 194.375 375.512 c 195.66 375.512 196.703 374.469
 196.703 373.184 c 196.703 371.898 195.66 370.855 194.375 370.855 c h
194.375 370.855 m f
189.477 350.379 m 189.477 351.664 188.434 352.707 187.148 352.707 c 185.863
 352.707 184.82 351.664 184.82 350.379 c 184.82 349.094 185.863 348.051 
187.148 348.051 c 188.434 348.051 189.477 349.094 189.477 350.379 c h
189.477 350.379 m f
179.359 355.84 m 178.074 355.84 177.031 356.883 177.031 358.168 c 177.031
 359.457 178.074 360.496 179.359 360.496 c 180.645 360.496 181.688 359.457
 181.688 358.168 c 181.688 356.883 180.645 355.84 179.359 355.84 c h
179.359 355.84 m f
187.148 363.066 m 185.863 363.066 184.82 364.109 184.82 365.395 c 184.82
 366.68 185.863 367.723 187.148 367.723 c 188.434 367.723 189.477 366.68
 189.477 365.395 c 189.477 364.109 188.434 363.066 187.148 363.066 c h
187.148 363.066 m f
179.359 370.855 m 178.074 370.855 177.031 371.898 177.031 373.184 c 177.031
 374.469 178.074 375.512 179.359 375.512 c 180.645 375.512 181.688 374.469
 181.688 373.184 c 181.688 371.898 180.645 370.855 179.359 370.855 c h
179.359 370.855 m f
174.461 350.379 m 174.461 351.664 173.422 352.707 172.133 352.707 c 170.848
 352.707 169.805 351.664 169.805 350.379 c 169.805 349.094 170.848 348.051
 172.133 348.051 c 173.422 348.051 174.461 349.094 174.461 350.379 c h
174.461 350.379 m f
164.344 355.84 m 163.059 355.84 162.016 356.883 162.016 358.168 c 162.016
 359.457 163.059 360.496 164.344 360.496 c 165.629 360.496 166.672 359.457
 166.672 358.168 c 166.672 356.883 165.629 355.84 164.344 355.84 c h
164.344 355.84 m f
172.133 363.066 m 170.848 363.066 169.805 364.109 169.805 365.395 c 169.805
 366.68 170.848 367.723 172.133 367.723 c 173.422 367.723 174.461 366.68
 174.461 365.395 c 174.465 364.109 173.422 363.066 172.133 363.066 c h
172.133 363.066 m f
164.344 370.855 m 163.059 370.855 162.016 371.898 162.016 373.184 c 162.016
 374.469 163.059 375.512 164.344 375.512 c 165.629 375.512 166.672 374.469
 166.672 373.184 c 166.672 371.898 165.629 370.855 164.344 370.855 c h
164.344 370.855 m f
157.117 348.051 m 155.832 348.051 154.789 349.094 154.789 350.379 c 154.789
 351.664 155.832 352.707 157.117 352.707 c 158.406 352.707 159.449 351.664
 159.449 350.379 c 159.449 349.094 158.406 348.051 157.117 348.051 c h
157.117 348.051 m f
149.328 355.84 m 148.043 355.84 147 356.883 147 358.168 c 147 359.457 148.043
 360.496 149.328 360.496 c 150.613 360.496 151.656 359.457 151.656 358.168
 c 151.66 356.883 150.613 355.84 149.328 355.84 c h
149.328 355.84 m f
157.117 363.066 m 155.832 363.066 154.789 364.109 154.789 365.395 c 154.789
 366.68 155.832 367.723 157.117 367.723 c 158.406 367.723 159.449 366.68
 159.449 365.395 c 159.449 364.109 158.406 363.066 157.117 363.066 c h
157.117 363.066 m f
149.328 370.855 m 148.043 370.855 147 371.898 147 373.184 c 147 374.469
 148.043 375.512 149.328 375.512 c 150.613 375.512 151.656 374.469 151.656
 373.184 c 151.66 371.898 150.613 370.855 149.328 370.855 c h
149.328 370.855 m f
144.434 350.379 m 144.434 351.664 143.391 352.707 142.105 352.707 c 140.816
 352.707 139.773 351.664 139.773 350.379 c 139.773 349.094 140.816 348.051
 142.105 348.051 c 143.391 348.051 144.434 349.094 144.434 350.379 c h
144.434 350.379 m f
134.312 355.84 m 133.027 355.84 131.984 356.883 131.984 358.168 c 131.984
 359.457 133.027 360.496 134.312 360.496 c 135.602 360.496 136.641 359.457
 136.641 358.168 c 136.645 356.883 135.602 355.84 134.312 355.84 c h
134.312 355.84 m f
142.105 363.066 m 140.816 363.066 139.773 364.109 139.773 365.395 c 139.773
 366.68 140.816 367.723 142.105 367.723 c 143.391 367.723 144.434 366.68
 144.434 365.395 c 144.434 364.109 143.391 363.066 142.105 363.066 c h
142.105 363.066 m f
134.312 370.855 m 133.027 370.855 131.984 371.898 131.984 373.184 c 131.984
 374.469 133.027 375.512 134.312 375.512 c 135.602 375.512 136.641 374.469
 136.641 373.184 c 136.645 371.898 135.602 370.855 134.312 370.855 c h
134.312 370.855 m f
129.418 350.379 m 129.418 351.664 128.375 352.707 127.09 352.707 c 125.805
 352.707 124.762 351.664 124.762 350.379 c 124.762 349.094 125.805 348.051
 127.09 348.051 c 128.375 348.051 129.418 349.094 129.418 350.379 c h
129.418 350.379 m f
119.297 355.84 m 118.012 355.84 116.969 356.883 116.969 358.168 c 116.969
 359.457 118.012 360.496 119.297 360.496 c 120.586 360.496 121.629 359.457
 121.629 358.168 c 121.629 356.883 120.586 355.84 119.297 355.84 c h
119.297 355.84 m f
127.09 363.066 m 125.805 363.066 124.762 364.109 124.762 365.395 c 124.762
 366.68 125.805 367.723 127.09 367.723 c 128.375 367.723 129.418 366.68 
129.418 365.395 c 129.418 364.109 128.375 363.066 127.09 363.066 c h
127.09 363.066 m f
119.297 370.855 m 118.012 370.855 116.969 371.898 116.969 373.184 c 116.969
 374.469 118.012 375.512 119.297 375.512 c 120.586 375.512 121.629 374.469
 121.629 373.184 c 121.629 371.898 120.586 370.855 119.297 370.855 c h
119.297 370.855 m f
114.402 350.379 m 114.402 351.664 113.359 352.707 112.074 352.707 c 110.789
 352.707 109.746 351.664 109.746 350.379 c 109.746 349.094 110.789 348.051
 112.074 348.051 c 113.359 348.051 114.402 349.094 114.402 350.379 c h
114.402 350.379 m f
104.285 355.84 m 102.996 355.84 101.953 356.883 101.953 358.168 c 101.953
 359.457 102.996 360.496 104.285 360.496 c 105.57 360.496 106.613 359.457
 106.613 358.168 c 106.613 356.883 105.57 355.84 104.285 355.84 c h
104.285 355.84 m f
112.074 363.066 m 110.789 363.066 109.746 364.109 109.746 365.395 c 109.746
 366.68 110.789 367.723 112.074 367.723 c 113.359 367.723 114.402 366.68
 114.402 365.395 c 114.402 364.109 113.359 363.066 112.074 363.066 c h
112.074 363.066 m f
104.285 370.855 m 102.996 370.855 101.953 371.898 101.953 373.184 c 101.953
 374.469 102.996 375.512 104.285 375.512 c 105.57 375.512 106.613 374.469
 106.613 373.184 c 106.613 371.898 105.57 370.855 104.285 370.855 c h
104.285 370.855 m f
97.059 348.051 m 95.773 348.051 94.73 349.094 94.73 350.379 c 94.73 351.664
 95.773 352.707 97.059 352.707 c 98.344 352.707 99.387 351.664 99.387 350.379
 c 99.387 349.094 98.344 348.051 97.059 348.051 c h
97.059 348.051 m f
89.27 355.84 m 87.984 355.84 86.941 356.883 86.941 358.168 c 86.941 359.457
 87.984 360.496 89.27 360.496 c 90.555 360.496 91.598 359.457 91.598 358.168
 c 91.598 356.883 90.555 355.84 89.27 355.84 c h
89.27 355.84 m f
97.059 363.066 m 95.773 363.066 94.73 364.109 94.73 365.395 c 94.73 366.68
 95.773 367.723 97.059 367.723 c 98.344 367.723 99.387 366.68 99.387 365.395
 c 99.387 364.109 98.344 363.066 97.059 363.066 c h
97.059 363.066 m f
89.27 370.855 m 87.984 370.855 86.941 371.898 86.941 373.184 c 86.941 374.469
 87.984 375.512 89.27 375.512 c 90.555 375.512 91.598 374.469 91.598 373.184
 c 91.598 371.898 90.555 370.855 89.27 370.855 c h
89.27 370.855 m f
82.043 348.051 m 80.758 348.051 79.715 349.094 79.715 350.379 c 79.715 
351.664 80.758 352.707 82.043 352.707 c 83.332 352.707 84.371 351.664 84.371
 350.379 c 84.371 349.094 83.332 348.051 82.043 348.051 c h
82.043 348.051 m f
74.254 355.84 m 72.969 355.84 71.926 356.883 71.926 358.168 c 71.926 359.457
 72.969 360.496 74.254 360.496 c 75.539 360.496 76.582 359.457 76.582 358.168
 c 76.582 356.883 75.539 355.84 74.254 355.84 c h
74.254 355.84 m f
82.043 363.066 m 80.758 363.066 79.715 364.109 79.715 365.395 c 79.715 
366.68 80.758 367.723 82.043 367.723 c 83.332 367.723 84.371 366.68 84.371
 365.395 c 84.371 364.109 83.332 363.066 82.043 363.066 c h
82.043 363.066 m f
74.254 370.855 m 72.969 370.855 71.926 371.898 71.926 373.184 c 71.926 
374.469 72.969 375.512 74.254 375.512 c 75.539 375.512 76.582 374.469 76.582
 373.184 c 76.582 371.898 75.539 370.855 74.254 370.855 c h
74.254 370.855 m f
61.566 343.156 m 61.566 344.441 60.523 345.484 59.238 345.484 c 57.953 
345.484 56.91 344.441 56.91 343.156 c 56.91 341.867 57.953 340.828 59.238
 340.828 c 60.523 340.828 61.566 341.867 61.566 343.156 c h
61.566 343.156 m f
67.027 348.051 m 65.742 348.051 64.699 349.094 64.699 350.379 c 64.699 
351.664 65.742 352.707 67.027 352.707 c 68.316 352.707 69.359 351.664 69.359
 350.379 c 69.359 349.094 68.316 348.051 67.027 348.051 c h
67.027 348.051 m f
59.238 360.5 m 60.523 360.5 61.566 359.457 61.566 358.172 c 61.566 356.883
 60.523 355.84 59.238 355.84 c 57.953 355.84 56.91 356.883 56.91 358.172
 c 56.91 359.457 57.953 360.5 59.238 360.5 c h
59.238 360.5 m f
67.027 363.066 m 65.742 363.066 64.699 364.109 64.699 365.395 c 64.699 
366.68 65.742 367.723 67.027 367.723 c 68.316 367.723 69.359 366.68 69.359
 365.395 c 69.359 364.109 68.316 363.066 67.027 363.066 c h
67.027 363.066 m f
52.016 333.035 m 50.727 333.035 49.684 334.078 49.684 335.363 c 49.684 
336.648 50.727 337.691 52.016 337.691 c 53.301 337.691 54.344 336.648 54.344
 335.363 c 54.344 334.078 53.301 333.035 52.016 333.035 c h
52.016 333.035 m f
54.344 350.379 m 54.344 349.094 53.301 348.051 52.016 348.051 c 50.727 
348.051 49.684 349.094 49.684 350.379 c 49.684 351.664 50.727 352.707 52.016
 352.707 c 53.301 352.707 54.344 351.664 54.344 350.379 c h
54.344 350.379 m f
284.48 340.879 m 283.191 340.879 282.148 341.922 282.148 343.207 c 282.148
 344.492 283.191 345.535 284.48 345.535 c 285.766 345.535 286.809 344.492
 286.809 343.207 c 286.809 341.922 285.766 340.879 284.48 340.879 c h
284.48 340.879 m f
254.457 340.84 m 253.172 340.84 252.129 341.883 252.129 343.168 c 252.129
 344.453 253.172 345.496 254.457 345.496 c 255.742 345.496 256.785 344.453
 256.785 343.168 c 256.785 341.883 255.742 340.84 254.457 340.84 c h
254.457 340.84 m f
209.387 340.84 m 208.102 340.84 207.059 341.883 207.059 343.168 c 207.059
 344.453 208.102 345.496 209.387 345.496 c 210.672 345.496 211.715 344.453
 211.715 343.168 c 211.715 341.883 210.672 340.84 209.387 340.84 c h
209.387 340.84 m f
179.367 340.84 m 178.078 340.84 177.039 341.883 177.039 343.168 c 177.039
 344.453 178.078 345.496 179.367 345.496 c 180.652 345.496 181.695 344.453
 181.695 343.168 c 181.695 341.883 180.652 340.84 179.367 340.84 c h
179.367 340.84 m f
134.297 340.84 m 133.012 340.84 131.969 341.883 131.969 343.168 c 131.969
 344.453 133.012 345.496 134.297 345.496 c 135.582 345.496 136.625 344.453
 136.625 343.168 c 136.625 341.883 135.582 340.84 134.297 340.84 c h
134.297 340.84 m f
104.277 340.801 m 102.988 340.801 101.945 341.844 101.945 343.129 c 101.945
 344.418 102.988 345.461 104.277 345.461 c 105.562 345.461 106.605 344.418
 106.605 343.129 c 106.605 341.844 105.562 340.801 104.277 340.801 c h
104.277 340.801 m f
0.192157 0.215686 0.239216 rg
371.969 155.309 m 371.922 154.379 371.992 153.242 371.898 152.316 c 371.344
 139.078 367.43 128.199 360.234 119.957 c 349.832 108.039 332.812 101.996
 309.652 101.996 c 260.785 101.996 l 219.383 12.371 l 216.953 7.109 210.695
 4.805 205.434 7.238 c 199.594 9.934 l 197.797 6.082 l 196.613 3.535 194.508
 1.602 191.871 0.641 c 189.234 -0.32 186.379 -0.195 183.832 0.988 c 47.641
 64.395 l 42.387 66.84 40.102 73.105 42.547 78.359 c 54.426 103.871 l 34.648
 109.602 20.148 127.863 20.148 149.461 c 20.148 218.945 l 15.105 224.582
 12.031 232.016 12.031 240.156 c 12.031 265.312 l 12.031 273.453 15.105 
280.887 20.148 286.523 c 20.148 317.055 l 20.148 335.137 30.316 350.879 
45.23 358.887 c 53.238 373.82 68.996 384 87.09 384 c 324.473 384 l 350.648
 384 371.941 362.707 371.941 336.535 c 371.969 336.051 371.887 155.746 371.969
 155.309 c h
207.992 12.773 m 210.199 11.754 212.828 12.723 213.848 14.93 c 263.066 
121.473 l 112.789 121.473 l 99.91 93.59 l 99.387 92.461 99.883 91.117 101.012
 90.594 c 198.012 45.785 l 199.141 45.262 200.484 45.758 201.008 46.887 
c 225.559 100.039 l 226.266 101.566 228.078 102.234 229.605 101.527 c 231.137
 100.82 231.801 99.008 231.098 97.48 c 206.543 44.328 l 204.609 40.148 199.633
 38.316 195.453 40.246 c 98.457 85.059 l 94.273 86.992 92.441 91.965 94.375
 96.148 c 106.07 121.473 l 87.859 121.473 l 69.457 81.637 l 68.434 79.426
 69.402 76.801 71.609 75.777 c h
47.934 72.414 m 48.336 71.305 49.145 70.422 50.215 69.926 c 186.406 6.516
 l 187.477 6.016 188.676 5.969 189.781 6.371 c 190.891 6.773 191.773 7.586
 192.27 8.652 c 194.059 12.492 l 69.055 70.242 l 63.793 72.672 61.488 78.93
 63.918 84.191 c 81.309 121.836 l 77.629 122.285 74.074 123.145 70.703 124.387
 c 48.078 75.789 l 47.578 74.719 47.527 73.52 47.934 72.414 c h
57.035 109.473 m 65.133 126.875 l 49.988 134.812 39.621 150.684 39.621 
168.938 c 39.621 208.594 l 34.727 209.254 30.18 211.023 26.246 213.648 c
 26.246 149.461 l 26.246 130.309 39.332 114.16 57.035 109.473 c h
18.129 240.156 m 18.129 225.953 29.688 214.398 43.891 214.398 c 146.949
 214.398 l 161.152 214.398 172.707 225.953 172.707 240.156 c 172.707 265.312
 l 172.707 279.516 161.152 291.07 146.949 291.07 c 43.891 291.07 l 29.688
 291.07 18.129 279.516 18.129 265.312 c h
26.246 317.059 m 26.246 291.82 l 30.18 294.449 34.727 296.219 39.621 296.875
 c 39.621 336.531 l 39.621 340.809 40.199 344.949 41.266 348.891 c 32.105
 341.301 26.246 329.855 26.246 317.059 c h
324.473 377.902 m 87.09 377.902 l 67.16 377.902 50.48 363.734 46.582 344.945
 c 47.914 344.945 l 49.598 344.945 50.965 343.582 50.965 341.898 c 50.965
 340.211 49.598 338.848 47.914 338.848 c 45.789 338.848 l 45.746 338.082
 45.723 337.309 45.723 336.531 c 45.723 297.172 l 146.949 297.172 l 164.516
 297.172 178.805 282.879 178.805 265.312 c 178.805 240.156 l 178.805 222.59
 164.512 208.301 146.949 208.301 c 45.723 208.301 l 45.723 168.938 l 45.723
 167.824 45.777 166.723 45.867 165.629 c 47.914 165.629 l 49.598 165.629
 50.965 164.266 50.965 162.582 c 50.965 160.895 49.602 159.531 47.914 159.531
 c 46.812 159.531 l 51.086 141.238 67.516 127.566 87.09 127.566 c 319.742
 127.566 l 321.426 127.566 322.789 126.203 322.789 124.52 c 322.789 122.836
 321.426 121.469 319.742 121.469 c 269.785 121.469 l 263.605 108.094 l 309.652
 108.094 l 330.977 108.094 346.445 113.434 355.641 123.965 c 362.18 131.457
 365.598 141.629 365.844 154.184 c 365.844 159.531 l 363.621 159.531 l 361.938
 159.531 360.57 160.895 360.57 162.582 c 360.57 164.266 361.938 165.629 
363.621 165.629 c 365.844 165.629 l 365.844 336.535 l 365.844 337.309 365.816
 338.082 365.773 338.848 c 363.621 338.848 l 361.938 338.848 360.57 340.215
 360.57 341.898 c 360.57 343.582 361.938 344.949 363.621 344.949 c 364.98
 344.949 l 361.082 363.738 344.402 377.902 324.473 377.902 c h
324.473 377.902 m f
55.93 274.523 m 67.941 274.523 77.715 264.75 77.715 252.734 c 77.715 240.723
 67.941 230.949 55.93 230.949 c 43.918 230.949 34.145 240.723 34.145 252.734
 c 34.145 264.75 43.918 274.523 55.93 274.523 c h
55.93 237.047 m 64.582 237.047 71.617 244.086 71.617 252.734 c 71.617 261.387
 64.582 268.422 55.93 268.422 c 47.281 268.422 40.242 261.387 40.242 252.734
 c 40.242 244.086 47.281 237.047 55.93 237.047 c h
55.93 237.047 m f
122.934 159.531 m 113.559 159.531 l 111.871 159.531 110.508 160.898 110.508
 162.582 c 110.508 164.266 111.871 165.629 113.559 165.629 c 122.934 165.629
 l 124.617 165.629 125.984 164.266 125.984 162.582 c 125.984 160.898 124.617
 159.531 122.934 159.531 c h
122.934 159.531 m f
97.926 159.531 m 88.551 159.531 l 86.867 159.531 85.5 160.898 85.5 162.582
 c 85.5 164.266 86.867 165.629 88.551 165.629 c 97.926 165.629 l 99.609 
165.629 100.977 164.266 100.977 162.582 c 100.977 160.898 99.613 159.531
 97.926 159.531 c h
97.926 159.531 m f
147.941 159.531 m 138.562 159.531 l 136.879 159.531 135.516 160.898 135.516
 162.582 c 135.516 164.266 136.879 165.629 138.562 165.629 c 147.941 165.629
 l 149.625 165.629 150.988 164.266 150.988 162.582 c 150.988 160.898 149.625
 159.531 147.941 159.531 c h
147.941 159.531 m f
322.984 159.531 m 313.609 159.531 l 311.926 159.531 310.559 160.898 310.559
 162.582 c 310.559 164.266 311.926 165.629 313.609 165.629 c 322.984 165.629
 l 324.668 165.629 326.035 164.266 326.035 162.582 c 326.035 160.898 324.668
 159.531 322.984 159.531 c h
322.984 159.531 m f
347.992 159.531 m 338.617 159.531 l 336.93 159.531 335.566 160.898 335.566
 162.582 c 335.566 164.266 336.93 165.629 338.617 165.629 c 347.992 165.629
 l 349.676 165.629 351.043 164.266 351.043 162.582 c 351.043 160.898 349.676
 159.531 347.992 159.531 c h
347.992 159.531 m f
172.945 159.531 m 163.57 159.531 l 161.887 159.531 160.52 160.898 160.52
 162.582 c 160.52 164.266 161.887 165.629 163.57 165.629 c 172.945 165.629
 l 174.629 165.629 175.996 164.266 175.996 162.582 c 175.996 160.898 174.629
 159.531 172.945 159.531 c h
172.945 159.531 m f
72.922 159.531 m 63.543 159.531 l 61.859 159.531 60.496 160.898 60.496 
162.582 c 60.496 164.266 61.859 165.629 63.543 165.629 c 72.922 165.629 
l 74.605 165.629 75.969 164.266 75.969 162.582 c 75.969 160.898 74.605 159.531
 72.922 159.531 c h
72.922 159.531 m f
247.965 159.531 m 238.59 159.531 l 236.906 159.531 235.539 160.898 235.539
 162.582 c 235.539 164.266 236.906 165.629 238.59 165.629 c 247.965 165.629
 l 249.648 165.629 251.016 164.266 251.016 162.582 c 251.016 160.898 249.652
 159.531 247.965 159.531 c h
247.965 159.531 m f
222.961 159.531 m 213.582 159.531 l 211.898 159.531 210.535 160.898 210.535
 162.582 c 210.535 164.266 211.898 165.629 213.582 165.629 c 222.961 165.629
 l 224.645 165.629 226.008 164.266 226.008 162.582 c 226.008 160.898 224.645
 159.531 222.961 159.531 c h
222.961 159.531 m f
197.953 159.531 m 188.578 159.531 l 186.891 159.531 185.527 160.898 185.527
 162.582 c 185.527 164.266 186.891 165.629 188.578 165.629 c 197.953 165.629
 l 199.637 165.629 201.004 164.266 201.004 162.582 c 201.004 160.898 199.637
 159.531 197.953 159.531 c h
197.953 159.531 m f
272.973 159.531 m 263.598 159.531 l 261.91 159.531 260.547 160.898 260.547
 162.582 c 260.547 164.266 261.91 165.629 263.598 165.629 c 272.973 165.629
 l 274.656 165.629 276.023 164.266 276.023 162.582 c 276.023 160.898 274.656
 159.531 272.973 159.531 c h
272.973 159.531 m f
297.98 159.531 m 288.602 159.531 l 286.918 159.531 285.555 160.898 285.555
 162.582 c 285.555 164.266 286.918 165.629 288.602 165.629 c 297.98 165.629
 l 299.664 165.629 301.027 164.266 301.027 162.582 c 301.027 160.898 299.664
 159.531 297.98 159.531 c h
297.98 159.531 m f
172.945 338.848 m 163.57 338.848 l 161.887 338.848 160.52 340.211 160.52
 341.898 c 160.52 343.582 161.887 344.945 163.57 344.945 c 172.945 344.945
 l 174.629 344.945 175.996 343.582 175.996 341.898 c 175.996 340.211 174.629
 338.848 172.945 338.848 c h
172.945 338.848 m f
122.934 338.848 m 113.559 338.848 l 111.871 338.848 110.508 340.211 110.508
 341.898 c 110.508 343.582 111.871 344.945 113.559 344.945 c 122.934 344.945
 l 124.617 344.945 125.984 343.582 125.984 341.898 c 125.984 340.211 124.617
 338.848 122.934 338.848 c h
122.934 338.848 m f
322.984 338.848 m 313.609 338.848 l 311.926 338.848 310.559 340.211 310.559
 341.898 c 310.559 343.582 311.926 344.945 313.609 344.945 c 322.984 344.945
 l 324.668 344.945 326.035 343.582 326.035 341.898 c 326.035 340.211 324.668
 338.848 322.984 338.848 c h
322.984 338.848 m f
147.941 338.848 m 138.562 338.848 l 136.879 338.848 135.516 340.211 135.516
 341.898 c 135.516 343.582 136.879 344.945 138.562 344.945 c 147.941 344.945
 l 149.625 344.945 150.988 343.582 150.988 341.898 c 150.988 340.211 149.625
 338.848 147.941 338.848 c h
147.941 338.848 m f
297.98 338.848 m 288.602 338.848 l 286.918 338.848 285.555 340.211 285.555
 341.898 c 285.555 343.582 286.918 344.945 288.602 344.945 c 297.98 344.945
 l 299.664 344.945 301.027 343.582 301.027 341.898 c 301.027 340.211 299.664
 338.848 297.98 338.848 c h
297.98 338.848 m f
347.992 338.848 m 338.617 338.848 l 336.93 338.848 335.566 340.211 335.566
 341.898 c 335.566 343.582 336.93 344.945 338.617 344.945 c 347.992 344.945
 l 349.676 344.945 351.043 343.582 351.043 341.898 c 351.043 340.211 349.676
 338.848 347.992 338.848 c h
347.992 338.848 m f
272.973 338.848 m 263.598 338.848 l 261.91 338.848 260.547 340.211 260.547
 341.898 c 260.547 343.582 261.91 344.945 263.598 344.945 c 272.973 344.945
 l 274.656 344.945 276.023 343.582 276.023 341.898 c 276.023 340.211 274.656
 338.848 272.973 338.848 c h
272.973 338.848 m f
72.922 338.848 m 63.543 338.848 l 61.859 338.848 60.496 340.211 60.496 
341.898 c 60.496 343.582 61.859 344.945 63.543 344.945 c 72.922 344.945 
l 74.605 344.945 75.969 343.582 75.969 341.898 c 75.969 340.211 74.605 338.848
 72.922 338.848 c h
72.922 338.848 m f
197.953 338.848 m 188.578 338.848 l 186.891 338.848 185.527 340.211 185.527
 341.898 c 185.527 343.582 186.891 344.945 188.578 344.945 c 197.953 344.945
 l 199.637 344.945 201.004 343.582 201.004 341.898 c 201.004 340.211 199.637
 338.848 197.953 338.848 c h
197.953 338.848 m f
247.965 338.848 m 238.59 338.848 l 236.906 338.848 235.539 340.211 235.539
 341.898 c 235.539 343.582 236.906 344.945 238.59 344.945 c 247.965 344.945
 l 249.648 344.945 251.016 343.582 251.016 341.898 c 251.016 340.211 249.652
 338.848 247.965 338.848 c h
247.965 338.848 m f
222.961 338.848 m 213.582 338.848 l 211.898 338.848 210.535 340.211 210.535
 341.898 c 210.535 343.582 211.898 344.945 213.582 344.945 c 222.961 344.945
 l 224.645 344.945 226.008 343.582 226.008 341.898 c 226.008 340.211 224.645
 338.848 222.961 338.848 c h
222.961 338.848 m f
97.926 338.848 m 88.551 338.848 l 86.867 338.848 85.5 340.211 85.5 341.898
 c 85.5 343.582 86.867 344.945 88.551 344.945 c 97.926 344.945 l 99.609 
344.945 100.977 343.582 100.977 341.898 c 100.977 340.211 99.613 338.848
 97.926 338.848 c h
97.926 338.848 m f
Q Q
showpage
%%Trailer
end
%%EOF
