%!PS-Adobe-3.0 EPSF-3.0
%%Creator: cairo 1.16.0 (https://cairographics.org)
%%CreationDate: Fri Feb 12 12:12:46 2021
%%Pages: 1
%%DocumentData: Clean7Bit
%%LanguageLevel: 2
%%BoundingBox: 0 21 384 363
%%EndComments
%%BeginProlog
50 dict begin
/q { gsave } bind def
/Q { grestore } bind def
/cm { 6 array astore concat } bind def
/w { setlinewidth } bind def
/J { setlinecap } bind def
/j { setlinejoin } bind def
/M { setmiterlimit } bind def
/d { setdash } bind def
/m { moveto } bind def
/l { lineto } bind def
/c { curveto } bind def
/h { closepath } bind def
/re { exch dup neg 3 1 roll 5 3 roll moveto 0 rlineto
      0 exch rlineto 0 rlineto closepath } bind def
/S { stroke } bind def
/f { fill } bind def
/f* { eofill } bind def
/n { newpath } bind def
/W { clip } bind def
/W* { eoclip } bind def
/BT { } bind def
/ET { } bind def
/BDC { mark 3 1 roll /BDC pdfmark } bind def
/EMC { mark /EMC pdfmark } bind def
/cairo_store_point { /cairo_point_y exch def /cairo_point_x exch def } def
/Tj { show currentpoint cairo_store_point } bind def
/TJ {
  {
    dup
    type /stringtype eq
    { show } { -0.001 mul 0 cairo_font_matrix dtransform rmoveto } ifelse
  } forall
  currentpoint cairo_store_point
} bind def
/cairo_selectfont { cairo_font_matrix aload pop pop pop 0 0 6 array astore
    cairo_font exch selectfont cairo_point_x cairo_point_y moveto } bind def
/Tf { pop /cairo_font exch def /cairo_font_matrix where
      { pop cairo_selectfont } if } bind def
/Td { matrix translate cairo_font_matrix matrix concatmatrix dup
      /cairo_font_matrix exch def dup 4 get exch 5 get cairo_store_point
      /cairo_font where { pop cairo_selectfont } if } bind def
/Tm { 2 copy 8 2 roll 6 array astore /cairo_font_matrix exch def
      cairo_store_point /cairo_font where { pop cairo_selectfont } if } bind def
/g { setgray } bind def
/rg { setrgbcolor } bind def
/d1 { setcachedevice } bind def
/cairo_data_source {
  CairoDataIndex CairoData length lt
    { CairoData CairoDataIndex get /CairoDataIndex CairoDataIndex 1 add def }
    { () } ifelse
} def
/cairo_flush_ascii85_file { cairo_ascii85_file status { cairo_ascii85_file flushfile } if } def
/cairo_image { image cairo_flush_ascii85_file } def
/cairo_imagemask { imagemask cairo_flush_ascii85_file } def
%%EndProlog
%%BeginSetup
%%EndSetup
%%Page: 1 1
%%BeginPageSetup
%%PageBoundingBox: 0 21 384 363
%%EndPageSetup
q 0 21 384 342 rectclip
1 0 0 -1 0 384 cm q
0.917647 0.658824 0.584314 rg
364.602 154.379 m 19.398 154.379 l 10.355 154.379 3.027 161.711 3.027 170.754
 c 3.027 179.797 10.355 187.129 19.398 187.129 c 24.562 187.129 l 67.832
 350.148 l 69.289 355.641 74.266 359.469 79.953 359.469 c 304.047 359.469
 l 309.734 359.469 314.707 355.645 316.168 350.148 c 359.434 187.129 l 364.602
 187.129 l 373.641 187.129 380.973 179.797 380.973 170.754 c 380.973 161.711
 373.645 154.379 364.602 154.379 c h
364.602 154.379 m f
0.913725 0.760784 0.470588 rg
260.383 274.605 m 260.383 312.371 229.766 342.988 192 342.988 c 154.234
 342.988 123.617 312.371 123.617 274.605 c 123.617 236.84 154.234 206.223
 192 206.223 c 210.137 206.223 227.527 213.426 240.352 226.25 c 253.176 
239.074 260.383 256.469 260.383 274.605 c h
260.383 274.605 m f
0.976471 0.984314 0.988235 rg
350.695 201.441 m 350.695 202.719 351.73 203.754 353.008 203.754 c 354.285
 203.754 355.32 202.719 355.32 201.441 c 355.32 200.164 354.285 199.129 
353.008 199.129 c 351.73 199.129 350.695 200.164 350.695 201.441 c h
350.695 201.441 m f
345.836 191.395 m 344.559 191.395 343.523 192.43 343.523 193.707 c 343.523
 194.984 344.559 196.02 345.836 196.02 c 347.113 196.02 348.148 194.984 
348.148 193.707 c 348.148 192.43 347.113 191.395 345.836 191.395 c h
345.836 191.395 m f
338.102 199.129 m 336.824 199.129 335.789 200.164 335.789 201.441 c 335.789
 202.719 336.824 203.754 338.102 203.754 c 339.379 203.754 340.414 202.719
 340.414 201.441 c 340.414 200.164 339.379 199.129 338.102 199.129 c h
338.102 199.129 m f
345.836 206.301 m 344.559 206.301 343.523 207.336 343.523 208.613 c 343.523
 209.891 344.559 210.926 345.836 210.926 c 347.113 210.926 348.148 209.891
 348.148 208.613 c 348.148 207.336 347.113 206.301 345.836 206.301 c h
345.836 206.301 m f
338.102 214.035 m 336.824 214.035 335.789 215.07 335.789 216.348 c 335.789
 217.625 336.824 218.66 338.102 218.66 c 339.379 218.66 340.414 217.625 
340.414 216.348 c 340.414 215.07 339.379 214.035 338.102 214.035 c h
338.102 214.035 m f
345.836 221.207 m 344.559 221.207 343.523 222.242 343.523 223.52 c 343.523
 224.797 344.559 225.832 345.836 225.832 c 347.113 225.832 348.148 224.797
 348.148 223.52 c 348.148 222.242 347.113 221.207 345.836 221.207 c h
345.836 221.207 m f
338.102 228.941 m 336.824 228.941 335.789 229.977 335.789 231.254 c 335.789
 232.531 336.824 233.566 338.102 233.566 c 339.379 233.566 340.414 232.531
 340.414 231.254 c 340.414 229.977 339.379 228.941 338.102 228.941 c h
338.102 228.941 m f
338.102 243.848 m 336.824 243.848 335.789 244.883 335.789 246.16 c 335.789
 247.438 336.824 248.473 338.102 248.473 c 339.379 248.473 340.414 247.438
 340.414 246.16 c 340.414 244.883 339.379 243.848 338.102 243.848 c h
338.102 243.848 m f
330.93 191.395 m 329.652 191.395 328.617 192.43 328.617 193.707 c 328.617
 194.984 329.652 196.02 330.93 196.02 c 332.207 196.02 333.242 194.984 333.242
 193.707 c 333.242 192.43 332.207 191.395 330.93 191.395 c h
330.93 191.395 m f
325.508 201.441 m 325.508 202.719 324.473 203.754 323.195 203.754 c 321.918
 203.754 320.883 202.719 320.883 201.441 c 320.883 200.164 321.918 199.129
 323.195 199.129 c 324.473 199.129 325.508 200.164 325.508 201.441 c h
325.508 201.441 m f
330.93 206.301 m 329.652 206.301 328.617 207.336 328.617 208.613 c 328.617
 209.891 329.652 210.926 330.93 210.926 c 332.207 210.926 333.242 209.891
 333.242 208.613 c 333.242 207.336 332.207 206.301 330.93 206.301 c h
330.93 206.301 m f
323.195 214.035 m 321.918 214.035 320.883 215.07 320.883 216.348 c 320.883
 217.625 321.918 218.66 323.195 218.66 c 324.473 218.66 325.508 217.625 
325.508 216.348 c 325.508 215.07 324.473 214.035 323.195 214.035 c h
323.195 214.035 m f
330.93 221.207 m 329.652 221.207 328.617 222.242 328.617 223.52 c 328.617
 224.797 329.652 225.832 330.93 225.832 c 332.207 225.832 333.242 224.797
 333.242 223.52 c 333.242 222.242 332.207 221.207 330.93 221.207 c h
330.93 221.207 m f
323.195 228.941 m 321.918 228.941 320.883 229.977 320.883 231.254 c 320.883
 232.531 321.918 233.566 323.195 233.566 c 324.473 233.566 325.508 232.531
 325.508 231.254 c 325.508 229.977 324.473 228.941 323.195 228.941 c h
323.195 228.941 m f
330.93 236.113 m 329.652 236.113 328.617 237.148 328.617 238.426 c 328.617
 239.703 329.652 240.738 330.93 240.738 c 332.207 240.738 333.242 239.703
 333.242 238.426 c 333.242 237.148 332.207 236.113 330.93 236.113 c h
330.93 236.113 m f
323.195 243.848 m 321.918 243.848 320.883 244.883 320.883 246.16 c 320.883
 247.438 321.918 248.473 323.195 248.473 c 324.473 248.473 325.508 247.438
 325.508 246.16 c 325.508 244.883 324.473 243.848 323.195 243.848 c h
323.195 243.848 m f
330.93 251.02 m 329.652 251.02 328.617 252.055 328.617 253.332 c 328.617
 254.609 329.652 255.645 330.93 255.645 c 332.207 255.645 333.242 254.609
 333.242 253.332 c 333.242 252.055 332.207 251.02 330.93 251.02 c h
330.93 251.02 m f
323.195 258.754 m 321.918 258.754 320.883 259.789 320.883 261.066 c 320.883
 262.344 321.918 263.379 323.195 263.379 c 324.473 263.379 325.508 262.344
 325.508 261.066 c 325.508 259.789 324.473 258.754 323.195 258.754 c h
323.195 258.754 m f
330.93 265.926 m 329.652 265.926 328.617 266.961 328.617 268.238 c 328.617
 269.516 329.652 270.551 330.93 270.551 c 332.207 270.551 333.242 269.516
 333.242 268.238 c 333.242 266.961 332.207 265.926 330.93 265.926 c h
330.93 265.926 m f
323.195 273.66 m 321.918 273.66 320.883 274.695 320.883 275.973 c 320.883
 277.25 321.918 278.285 323.195 278.285 c 324.473 278.285 325.508 277.25
 325.508 275.973 c 325.508 274.695 324.473 273.66 323.195 273.66 c h
323.195 273.66 m f
330.93 280.832 m 329.652 280.832 328.617 281.867 328.617 283.145 c 328.617
 284.422 329.652 285.457 330.93 285.457 c 332.207 285.457 333.242 284.422
 333.242 283.145 c 333.242 281.867 332.207 280.832 330.93 280.832 c h
330.93 280.832 m f
323.195 288.566 m 321.918 288.566 320.883 289.602 320.883 290.879 c 320.883
 292.152 321.918 293.188 323.195 293.188 c 324.473 293.188 325.508 292.152
 325.508 290.879 c 325.508 289.602 324.473 288.566 323.195 288.566 c h
323.195 288.566 m f
325.508 305.785 m 325.508 307.062 324.473 308.098 323.195 308.098 c 321.918
 308.098 320.883 307.062 320.883 305.785 c 320.883 304.508 321.918 303.473
 323.195 303.473 c 324.473 303.473 325.508 304.508 325.508 305.785 c h
325.508 305.785 m f
316.023 236.113 m 314.746 236.113 313.711 237.148 313.711 238.426 c 313.711
 239.703 314.746 240.738 316.023 240.738 c 317.301 240.738 318.336 239.703
 318.336 238.426 c 318.336 237.148 317.301 236.113 316.023 236.113 c h
316.023 236.113 m f
316.023 251.02 m 314.746 251.02 313.711 252.055 313.711 253.332 c 313.711
 254.609 314.746 255.645 316.023 255.645 c 317.301 255.645 318.336 254.609
 318.336 253.332 c 318.336 252.055 317.301 251.02 316.023 251.02 c h
316.023 251.02 m f
308.289 258.754 m 307.012 258.754 305.977 259.789 305.977 261.066 c 305.977
 262.344 307.012 263.379 308.289 263.379 c 309.566 263.379 310.602 262.344
 310.602 261.066 c 310.602 259.789 309.566 258.754 308.289 258.754 c h
308.289 258.754 m f
316.023 265.926 m 314.746 265.926 313.711 266.961 313.711 268.238 c 313.711
 269.516 314.746 270.551 316.023 270.551 c 317.301 270.551 318.336 269.516
 318.336 268.238 c 318.336 266.961 317.301 265.926 316.023 265.926 c h
316.023 265.926 m f
308.289 273.66 m 307.012 273.66 305.977 274.695 305.977 275.973 c 305.977
 277.25 307.012 278.285 308.289 278.285 c 309.566 278.285 310.602 277.25
 310.602 275.973 c 310.602 274.695 309.566 273.66 308.289 273.66 c h
308.289 273.66 m f
316.023 280.832 m 314.746 280.832 313.711 281.867 313.711 283.145 c 313.711
 284.422 314.746 285.457 316.023 285.457 c 317.301 285.457 318.336 284.422
 318.336 283.145 c 318.336 281.867 317.301 280.832 316.023 280.832 c h
316.023 280.832 m f
308.289 288.566 m 307.012 288.566 305.977 289.602 305.977 290.879 c 305.977
 292.152 307.012 293.188 308.289 293.188 c 309.566 293.188 310.602 292.152
 310.602 290.879 c 310.602 289.602 309.566 288.566 308.289 288.566 c h
308.289 288.566 m f
316.023 295.738 m 314.746 295.738 313.711 296.773 313.711 298.051 c 313.711
 299.328 314.746 300.363 316.023 300.363 c 317.301 300.363 318.336 299.328
 318.336 298.051 c 318.336 296.773 317.301 295.738 316.023 295.738 c h
316.023 295.738 m f
308.289 303.473 m 307.012 303.473 305.977 304.508 305.977 305.785 c 305.977
 307.062 307.012 308.098 308.289 308.098 c 309.566 308.098 310.602 307.062
 310.602 305.785 c 310.602 304.508 309.566 303.473 308.289 303.473 c h
308.289 303.473 m f
316.023 310.645 m 314.746 310.645 313.711 311.68 313.711 312.957 c 313.711
 314.234 314.746 315.27 316.023 315.27 c 317.301 315.27 318.336 314.234 
318.336 312.957 c 318.336 311.68 317.301 310.645 316.023 310.645 c h
316.023 310.645 m f
308.289 318.379 m 307.012 318.379 305.977 319.414 305.977 320.691 c 305.977
 321.965 307.012 323 308.289 323 c 309.566 323 310.602 321.965 310.602 320.691
 c 310.602 319.414 309.566 318.379 308.289 318.379 c h
308.289 318.379 m f
316.023 325.551 m 314.746 325.551 313.711 326.586 313.711 327.863 c 313.711
 329.141 314.746 330.176 316.023 330.176 c 317.301 330.176 318.336 329.141
 318.336 327.863 c 318.336 326.586 317.301 325.551 316.023 325.551 c h
316.023 325.551 m f
308.289 333.285 m 307.012 333.285 305.977 334.32 305.977 335.598 c 305.977
 336.871 307.012 337.906 308.289 337.906 c 309.566 337.906 310.602 336.871
 310.602 335.598 c 310.602 334.32 309.566 333.285 308.289 333.285 c h
308.289 333.285 m f
316.023 340.457 m 314.746 340.457 313.711 341.492 313.711 342.77 c 313.711
 344.047 314.746 345.082 316.023 345.082 c 316.691 345.082 317.285 344.793
 317.707 344.344 c 318.27 342.234 l 318.027 341.215 317.117 340.457 316.023
 340.457 c h
316.023 340.457 m f
308.289 352.812 m 309.566 352.812 310.602 351.777 310.602 350.504 c 310.602
 349.227 309.566 348.191 308.289 348.191 c 307.012 348.191 305.977 349.227
 305.977 350.504 c 305.977 351.777 307.012 352.812 308.289 352.812 c h
308.289 352.812 m f
301.117 280.832 m 299.84 280.832 298.805 281.867 298.805 283.145 c 298.805
 284.422 299.84 285.457 301.117 285.457 c 302.395 285.457 303.43 284.422
 303.43 283.145 c 303.43 281.867 302.395 280.832 301.117 280.832 c h
301.117 280.832 m f
301.117 295.738 m 299.84 295.738 298.805 296.773 298.805 298.051 c 298.805
 299.328 299.84 300.363 301.117 300.363 c 302.395 300.363 303.43 299.328
 303.43 298.051 c 303.43 296.773 302.395 295.738 301.117 295.738 c h
301.117 295.738 m f
301.117 310.645 m 299.84 310.645 298.805 311.68 298.805 312.957 c 298.805
 314.234 299.84 315.27 301.117 315.27 c 302.395 315.27 303.43 314.234 303.43
 312.957 c 303.43 311.68 302.395 310.645 301.117 310.645 c h
301.117 310.645 m f
293.383 318.379 m 292.105 318.379 291.07 319.414 291.07 320.691 c 291.07
 321.965 292.105 323 293.383 323 c 294.66 323 295.695 321.965 295.695 320.691
 c 295.695 319.414 294.66 318.379 293.383 318.379 c h
293.383 318.379 m f
301.117 325.551 m 299.84 325.551 298.805 326.586 298.805 327.863 c 298.805
 329.141 299.84 330.176 301.117 330.176 c 302.395 330.176 303.43 329.141
 303.43 327.863 c 303.43 326.586 302.395 325.551 301.117 325.551 c h
301.117 325.551 m f
293.383 333.285 m 292.105 333.285 291.07 334.32 291.07 335.598 c 291.07
 336.871 292.105 337.906 293.383 337.906 c 294.66 337.906 295.695 336.871
 295.695 335.598 c 295.695 334.32 294.66 333.285 293.383 333.285 c h
293.383 333.285 m f
301.117 340.457 m 299.84 340.457 298.805 341.492 298.805 342.77 c 298.805
 344.047 299.84 345.082 301.117 345.082 c 302.395 345.082 303.43 344.047
 303.43 342.77 c 303.43 341.492 302.395 340.457 301.117 340.457 c h
301.117 340.457 m f
293.383 348.191 m 292.105 348.191 291.07 349.227 291.07 350.504 c 291.07
 351.777 292.105 352.812 293.383 352.812 c 294.66 352.812 295.695 351.777
 295.695 350.504 c 295.695 349.227 294.66 348.191 293.383 348.191 c h
293.383 348.191 m f
303.43 357.676 m 303.43 356.398 302.395 355.363 301.117 355.363 c 299.84
 355.363 298.805 356.398 298.805 357.676 c 298.805 358.402 299.148 359.047
 299.676 359.469 c 302.559 359.469 l 303.086 359.047 303.43 358.402 303.43
 357.676 c h
303.43 357.676 m f
276.164 335.598 m 276.164 336.871 277.199 337.906 278.477 337.906 c 279.754
 337.906 280.789 336.871 280.789 335.598 c 280.789 334.32 279.754 333.285
 278.477 333.285 c 277.199 333.285 276.164 334.32 276.164 335.598 c h
276.164 335.598 m f
286.211 340.457 m 284.934 340.457 283.898 341.492 283.898 342.77 c 283.898
 344.047 284.934 345.082 286.211 345.082 c 287.488 345.082 288.523 344.047
 288.523 342.77 c 288.523 341.492 287.488 340.457 286.211 340.457 c h
286.211 340.457 m f
278.477 352.812 m 279.754 352.812 280.789 351.777 280.789 350.504 c 280.789
 349.227 279.754 348.191 278.477 348.191 c 277.199 348.191 276.164 349.227
 276.164 350.504 c 276.164 351.777 277.199 352.812 278.477 352.812 c h
278.477 352.812 m f
288.523 357.676 m 288.523 356.398 287.488 355.363 286.211 355.363 c 284.934
 355.363 283.898 356.398 283.898 357.676 c 283.898 358.402 284.242 359.047
 284.77 359.469 c 287.652 359.469 l 288.18 359.047 288.523 358.402 288.523
 357.676 c h
288.523 357.676 m f
263.57 333.285 m 262.293 333.285 261.258 334.32 261.258 335.598 c 261.258
 336.871 262.293 337.906 263.57 337.906 c 264.848 337.906 265.883 336.871
 265.883 335.598 c 265.883 334.32 264.848 333.285 263.57 333.285 c h
263.57 333.285 m f
268.992 342.77 m 268.992 344.047 270.027 345.082 271.305 345.082 c 272.582
 345.082 273.617 344.047 273.617 342.77 c 273.617 341.492 272.582 340.457
 271.305 340.457 c 270.027 340.457 268.992 341.492 268.992 342.77 c h
268.992 342.77 m f
263.57 348.191 m 262.293 348.191 261.258 349.227 261.258 350.504 c 261.258
 351.777 262.293 352.812 263.57 352.812 c 264.848 352.812 265.883 351.777
 265.883 350.504 c 265.883 349.227 264.848 348.191 263.57 348.191 c h
263.57 348.191 m f
273.617 357.676 m 273.617 356.398 272.582 355.363 271.305 355.363 c 270.027
 355.363 268.992 356.398 268.992 357.676 c 268.992 358.402 269.336 359.047
 269.863 359.469 c 272.746 359.469 l 273.273 359.047 273.617 358.402 273.617
 357.676 c h
273.617 357.676 m f
248.664 333.285 m 247.391 333.285 246.352 334.32 246.352 335.598 c 246.352
 336.871 247.387 337.906 248.664 337.906 c 249.941 337.906 250.977 336.871
 250.977 335.598 c 250.977 334.32 249.941 333.285 248.664 333.285 c h
248.664 333.285 m f
254.086 342.77 m 254.086 344.047 255.121 345.082 256.398 345.082 c 257.676
 345.082 258.711 344.047 258.711 342.77 c 258.711 341.492 257.676 340.457
 256.398 340.457 c 255.121 340.457 254.086 341.492 254.086 342.77 c h
254.086 342.77 m f
248.664 348.191 m 247.391 348.191 246.352 349.227 246.352 350.504 c 246.352
 351.777 247.387 352.812 248.664 352.812 c 249.941 352.812 250.977 351.777
 250.977 350.504 c 250.977 349.227 249.941 348.191 248.664 348.191 c h
248.664 348.191 m f
258.711 357.676 m 258.711 356.398 257.676 355.363 256.398 355.363 c 255.121
 355.363 254.086 356.398 254.086 357.676 c 254.086 358.402 254.43 359.047
 254.957 359.469 c 257.84 359.469 l 258.367 359.047 258.711 358.402 258.711
 357.676 c h
258.711 357.676 m f
231.445 335.598 m 231.445 336.871 232.48 337.906 233.758 337.906 c 235.035
 337.906 236.07 336.871 236.07 335.598 c 236.07 334.32 235.035 333.285 233.758
 333.285 c 232.48 333.285 231.445 334.32 231.445 335.598 c h
231.445 335.598 m f
239.18 342.77 m 239.18 344.047 240.215 345.082 241.492 345.082 c 242.77
 345.082 243.805 344.047 243.805 342.77 c 243.805 341.492 242.77 340.457
 241.492 340.457 c 240.215 340.457 239.18 341.492 239.18 342.77 c h
239.18 342.77 m f
233.758 352.812 m 235.035 352.812 236.07 351.777 236.07 350.504 c 236.07
 349.227 235.035 348.191 233.758 348.191 c 232.48 348.191 231.445 349.227
 231.445 350.504 c 231.445 351.777 232.48 352.812 233.758 352.812 c h
233.758 352.812 m f
243.805 357.676 m 243.805 356.398 242.77 355.363 241.492 355.363 c 240.215
 355.363 239.18 356.398 239.18 357.676 c 239.18 358.402 239.523 359.047 
240.051 359.469 c 242.934 359.469 l 243.461 359.047 243.805 358.402 243.805
 357.676 c h
243.805 357.676 m f
224.273 342.77 m 224.273 344.047 225.309 345.082 226.586 345.082 c 227.863
 345.082 228.898 344.047 228.898 342.77 c 228.898 341.492 227.863 340.457
 226.586 340.457 c 225.309 340.457 224.273 341.492 224.273 342.77 c h
224.273 342.77 m f
218.852 352.812 m 220.129 352.812 221.164 351.777 221.164 350.504 c 221.164
 349.227 220.129 348.191 218.852 348.191 c 217.574 348.191 216.539 349.227
 216.539 350.504 c 216.539 351.777 217.574 352.812 218.852 352.812 c h
218.852 352.812 m f
228.898 357.676 m 228.898 356.398 227.863 355.363 226.586 355.363 c 225.309
 355.363 224.273 356.398 224.273 357.676 c 224.273 358.402 224.617 359.047
 225.145 359.469 c 228.027 359.469 l 228.555 359.047 228.898 358.402 228.898
 357.676 c h
228.898 357.676 m f
209.367 342.77 m 209.367 344.047 210.402 345.082 211.68 345.082 c 212.957
 345.082 213.992 344.047 213.992 342.77 c 213.992 341.492 212.957 340.457
 211.68 340.457 c 210.402 340.457 209.367 341.492 209.367 342.77 c h
209.367 342.77 m f
201.633 350.504 m 201.633 351.777 202.668 352.812 203.945 352.812 c 205.223
 352.812 206.258 351.777 206.258 350.504 c 206.258 349.227 205.223 348.191
 203.945 348.191 c 202.672 348.191 201.633 349.227 201.633 350.504 c h
201.633 350.504 m f
213.992 357.676 m 213.992 356.398 212.957 355.363 211.68 355.363 c 210.402
 355.363 209.367 356.398 209.367 357.676 c 209.367 358.402 209.711 359.047
 210.238 359.469 c 213.121 359.469 l 213.648 359.047 213.992 358.402 213.992
 357.676 c h
213.992 357.676 m f
186.73 350.504 m 186.73 351.777 187.766 352.812 189.043 352.812 c 190.32
 352.812 191.352 351.777 191.352 350.504 c 191.352 349.227 190.32 348.191
 189.043 348.191 c 187.766 348.191 186.73 349.227 186.73 350.504 c h
186.73 350.504 m f
199.086 357.676 m 199.086 356.398 198.051 355.363 196.773 355.363 c 195.496
 355.363 194.461 356.398 194.461 357.676 c 194.461 358.402 194.805 359.047
 195.332 359.469 c 198.215 359.469 l 198.742 359.047 199.086 358.402 199.086
 357.676 c h
199.086 357.676 m f
171.824 350.504 m 171.824 351.777 172.859 352.812 174.137 352.812 c 175.414
 352.812 176.445 351.777 176.445 350.504 c 176.445 349.227 175.414 348.191
 174.137 348.191 c 172.859 348.191 171.824 349.227 171.824 350.504 c h
171.824 350.504 m f
184.18 357.676 m 184.18 356.398 183.145 355.363 181.867 355.363 c 180.59
 355.363 179.555 356.398 179.555 357.676 c 179.555 358.402 179.898 359.047
 180.426 359.469 c 183.309 359.469 l 183.836 359.047 184.18 358.402 184.18
 357.676 c h
184.18 357.676 m f
164.648 342.77 m 164.648 344.047 165.684 345.082 166.961 345.082 c 168.238
 345.082 169.273 344.047 169.273 342.77 c 169.273 341.492 168.238 340.457
 166.961 340.457 c 165.684 340.457 164.648 341.492 164.648 342.77 c h
164.648 342.77 m f
159.23 352.812 m 160.508 352.812 161.539 351.777 161.539 350.504 c 161.539
 349.227 160.508 348.191 159.23 348.191 c 157.953 348.191 156.918 349.227
 156.918 350.504 c 156.918 351.777 157.953 352.812 159.23 352.812 c h
159.23 352.812 m f
169.273 357.676 m 169.273 356.398 168.238 355.363 166.961 355.363 c 165.684
 355.363 164.648 356.398 164.648 357.676 c 164.648 358.402 164.992 359.047
 165.52 359.469 c 168.402 359.469 l 168.93 359.047 169.273 358.402 169.273
 357.676 c h
169.273 357.676 m f
144.324 333.285 m 143.047 333.285 142.012 334.32 142.012 335.598 c 142.012
 336.871 143.047 337.906 144.324 337.906 c 145.598 337.906 146.633 336.871
 146.633 335.598 c 146.633 334.32 145.598 333.285 144.324 333.285 c h
144.324 333.285 m f
149.742 342.77 m 149.742 344.047 150.777 345.082 152.055 345.082 c 153.332
 345.082 154.367 344.047 154.367 342.77 c 154.367 341.492 153.332 340.457
 152.055 340.457 c 150.777 340.457 149.742 341.492 149.742 342.77 c h
149.742 342.77 m f
144.324 348.191 m 143.047 348.191 142.012 349.227 142.012 350.504 c 142.012
 351.777 143.047 352.812 144.324 352.812 c 145.598 352.812 146.633 351.777
 146.633 350.504 c 146.633 349.227 145.598 348.191 144.324 348.191 c h
144.324 348.191 m f
154.367 357.676 m 154.367 356.398 153.332 355.363 152.055 355.363 c 150.777
 355.363 149.742 356.398 149.742 357.676 c 149.742 358.402 150.086 359.047
 150.617 359.469 c 153.496 359.469 l 154.023 359.047 154.367 358.402 154.367
 357.676 c h
154.367 357.676 m f
129.418 333.285 m 128.141 333.285 127.105 334.32 127.105 335.598 c 127.105
 336.871 128.141 337.906 129.418 337.906 c 130.695 337.906 131.727 336.871
 131.727 335.598 c 131.727 334.32 130.695 333.285 129.418 333.285 c h
129.418 333.285 m f
134.84 342.77 m 134.84 344.047 135.871 345.082 137.148 345.082 c 138.426
 345.082 139.461 344.047 139.461 342.77 c 139.461 341.492 138.426 340.457
 137.148 340.457 c 135.871 340.457 134.84 341.492 134.84 342.77 c h
134.84 342.77 m f
129.418 348.191 m 128.141 348.191 127.105 349.227 127.105 350.504 c 127.105
 351.777 128.141 352.812 129.418 352.812 c 130.695 352.812 131.727 351.777
 131.727 350.504 c 131.727 349.227 130.695 348.191 129.418 348.191 c h
129.418 348.191 m f
139.461 357.676 m 139.461 356.398 138.426 355.363 137.148 355.363 c 135.871
 355.363 134.836 356.398 134.836 357.676 c 134.836 358.402 135.18 359.047
 135.707 359.469 c 138.59 359.469 l 139.117 359.047 139.461 358.402 139.461
 357.676 c h
139.461 357.676 m f
114.512 333.285 m 113.234 333.285 112.199 334.32 112.199 335.598 c 112.199
 336.871 113.234 337.906 114.512 337.906 c 115.789 337.906 116.82 336.871
 116.82 335.598 c 116.82 334.32 115.789 333.285 114.512 333.285 c h
114.512 333.285 m f
119.934 342.77 m 119.934 344.047 120.965 345.082 122.242 345.082 c 123.52
 345.082 124.555 344.047 124.555 342.77 c 124.555 341.492 123.52 340.457
 122.242 340.457 c 120.965 340.457 119.934 341.492 119.934 342.77 c h
119.934 342.77 m f
114.512 348.191 m 113.234 348.191 112.199 349.227 112.199 350.504 c 112.199
 351.777 113.234 352.812 114.512 352.812 c 115.789 352.812 116.82 351.777
 116.82 350.504 c 116.82 349.227 115.789 348.191 114.512 348.191 c h
114.512 348.191 m f
124.555 357.676 m 124.555 356.398 123.52 355.363 122.242 355.363 c 120.965
 355.363 119.934 356.398 119.934 357.676 c 119.934 358.402 120.277 359.047
 120.805 359.469 c 123.684 359.469 l 124.211 359.047 124.555 358.402 124.555
 357.676 c h
124.555 357.676 m f
99.605 333.285 m 98.328 333.285 97.293 334.32 97.293 335.598 c 97.293 336.871
 98.328 337.906 99.605 337.906 c 100.879 337.906 101.914 336.871 101.914
 335.598 c 101.914 334.32 100.883 333.285 99.605 333.285 c h
99.605 333.285 m f
105.027 342.77 m 105.027 344.047 106.059 345.082 107.336 345.082 c 108.613
 345.082 109.648 344.047 109.648 342.77 c 109.648 341.492 108.613 340.457
 107.336 340.457 c 106.059 340.457 105.027 341.492 105.027 342.77 c h
105.027 342.77 m f
99.605 348.191 m 98.328 348.191 97.293 349.227 97.293 350.504 c 97.293 
351.777 98.328 352.812 99.605 352.812 c 100.879 352.812 101.914 351.777 
101.914 350.504 c 101.914 349.227 100.883 348.191 99.605 348.191 c h
99.605 348.191 m f
109.648 357.676 m 109.648 356.398 108.613 355.363 107.336 355.363 c 106.062
 355.363 105.027 356.398 105.027 357.676 c 105.027 358.402 105.371 359.047
 105.898 359.469 c 108.777 359.469 l 109.305 359.047 109.648 358.402 109.648
 357.676 c h
109.648 357.676 m f
82.387 335.598 m 82.387 336.871 83.422 337.906 84.699 337.906 c 85.977 
337.906 87.012 336.871 87.012 335.598 c 87.012 334.32 85.977 333.285 84.699
 333.285 c 83.422 333.285 82.387 334.32 82.387 335.598 c h
82.387 335.598 m f
90.121 342.77 m 90.121 344.047 91.152 345.082 92.43 345.082 c 93.707 345.082
 94.742 344.047 94.742 342.77 c 94.742 341.492 93.707 340.457 92.43 340.457
 c 91.152 340.457 90.121 341.492 90.121 342.77 c h
90.121 342.77 m f
84.699 352.812 m 85.977 352.812 87.008 351.777 87.008 350.504 c 87.008 
349.227 85.977 348.191 84.699 348.191 c 83.422 348.191 82.387 349.227 82.387
 350.504 c 82.387 351.777 83.422 352.812 84.699 352.812 c h
84.699 352.812 m f
94.742 357.676 m 94.742 356.398 93.707 355.363 92.43 355.363 c 91.152 355.363
 90.121 356.398 90.121 357.676 c 90.121 358.402 90.465 359.047 90.992 359.469
 c 93.871 359.469 l 94.398 359.047 94.742 358.402 94.742 357.676 c h
94.742 357.676 m f
69.793 337.906 m 71.07 337.906 72.105 336.871 72.105 335.598 c 72.105 334.32
 71.07 333.285 69.793 333.285 c 68.516 333.285 67.48 334.32 67.48 335.598
 c 67.48 336.871 68.516 337.906 69.793 337.906 c h
69.793 337.906 m f
77.523 340.457 m 76.246 340.457 75.215 341.492 75.215 342.77 c 75.215 344.047
 76.246 345.082 77.523 345.082 c 78.801 345.082 79.836 344.047 79.836 342.77
 c 79.836 341.492 78.801 340.457 77.523 340.457 c h
77.523 340.457 m f
68.758 352.559 m 69.07 352.719 69.418 352.812 69.793 352.812 c 71.07 352.812
 72.105 351.777 72.105 350.504 c 72.105 349.227 71.07 348.191 69.793 348.191
 c 68.848 348.191 68.039 348.758 67.68 349.57 c 67.832 350.145 l 68.059 
350.996 68.375 351.797 68.758 352.559 c h
68.758 352.559 m f
79.836 357.676 m 79.836 356.398 78.801 355.363 77.523 355.363 c 76.246 
355.363 75.215 356.398 75.215 357.676 c 75.215 358.008 75.285 358.324 75.414
 358.609 c 76.551 359.051 77.758 359.336 79.016 359.43 c 79.512 359.008 
79.836 358.383 79.836 357.676 c h
79.836 357.676 m f
316.012 221.203 m 314.734 221.203 313.699 222.238 313.699 223.516 c 313.699
 224.793 314.734 225.828 316.012 225.828 c 317.289 225.828 318.324 224.793
 318.324 223.516 c 318.324 222.238 317.289 221.203 316.012 221.203 c h
316.012 221.203 m f
308.312 243.891 m 307.035 243.891 306 244.926 306 246.203 c 306 247.48 
307.035 248.516 308.312 248.516 c 309.59 248.516 310.621 247.48 310.621 
246.203 c 310.621 244.926 309.586 243.891 308.312 243.891 c h
308.312 243.891 m f
293.395 303.48 m 292.117 303.48 291.082 304.516 291.082 305.793 c 291.082
 307.07 292.117 308.105 293.395 308.105 c 294.672 308.105 295.707 307.07
 295.707 305.793 c 295.707 304.52 294.672 303.48 293.395 303.48 c h
293.395 303.48 m f
286.184 325.539 m 284.906 325.539 283.871 326.574 283.871 327.852 c 283.871
 329.129 284.906 330.164 286.184 330.164 c 287.461 330.164 288.496 329.129
 288.496 327.852 c 288.496 326.574 287.461 325.539 286.184 325.539 c h
286.184 325.539 m f
0.192157 0.215686 0.239216 rg
364.602 151.355 m 306.934 151.355 l 268.238 29.961 l 266.203 23.582 259.359
 20.047 252.98 22.078 c 239.148 26.488 l 236.059 27.473 233.535 29.602 232.047
 32.484 c 230.559 35.367 230.281 38.656 231.266 41.746 c 266.203 151.355
 l 117.797 151.355 l 152.734 41.746 l 153.719 38.656 153.441 35.367 151.953
 32.484 c 150.465 29.602 147.945 27.473 144.852 26.488 c 131.02 22.078 l
 124.641 20.043 117.797 23.582 115.762 29.961 c 77.066 151.355 l 19.398 
151.355 l 8.703 151.355 0 160.059 0 170.754 c 0 181.453 8.703 190.152 19.398
 190.152 c 22.234 190.152 l 64.906 350.922 l 66.719 357.738 72.902 362.496
 79.953 362.496 c 304.047 362.496 l 311.098 362.496 317.285 357.738 319.094
 350.922 c 361.766 190.152 l 364.602 190.152 l 375.297 190.152 384 181.453
 384 170.754 c 384 160.059 375.297 151.355 364.602 151.355 c h
313.242 349.371 m 312.137 353.535 308.355 356.445 304.047 356.445 c 79.953
 356.445 l 75.645 356.445 71.863 353.535 70.758 349.371 c 28.496 190.152
 l 355.5 190.152 l h
364.602 184.102 m 19.398 184.102 l 12.039 184.102 6.055 178.113 6.055 170.754
 c 6.055 163.395 12.039 157.406 19.398 157.406 c 364.602 157.406 l 371.961
 157.406 377.949 163.395 377.949 170.754 c 377.949 178.113 371.961 184.102
 364.602 184.102 c h
364.602 184.102 m f
192 346.012 m 231.375 346.012 263.41 313.98 263.41 274.605 c 263.41 235.23
 231.375 203.195 192 203.195 c 152.625 203.195 120.59 235.23 120.59 274.605
 c 120.59 313.98 152.625 346.012 192 346.012 c h
192 209.25 m 228.039 209.25 257.355 238.566 257.355 274.605 c 257.355 310.641
 228.039 339.961 192 339.961 c 155.961 339.961 126.645 310.641 126.645 274.605
 c 126.645 238.566 155.961 209.25 192 209.25 c h
192 209.25 m f
1 g
224.711 263.801 m 202.805 263.801 l 202.805 241.895 l 202.805 238.91 200.383
 236.492 197.402 236.492 c 186.598 236.492 l 183.613 236.492 181.195 238.91
 181.195 241.895 c 181.195 263.801 l 159.289 263.801 l 156.309 263.801 153.891
 266.219 153.891 269.203 c 153.891 280.004 l 153.891 282.988 156.309 285.406
 159.289 285.406 c 181.195 285.406 l 181.195 307.312 l 181.195 310.297 183.617
 312.715 186.598 312.715 c 197.402 312.715 l 200.387 312.715 202.805 310.297
 202.805 307.312 c 202.805 285.406 l 224.711 285.406 l 227.691 285.406 230.109
 282.988 230.109 280.004 c 230.109 269.203 l 230.109 266.219 227.691 263.801
 224.711 263.801 c h
224.711 263.801 m f
0.192157 0.215686 0.239216 rg
197.402 315.715 m 186.598 315.715 l 181.965 315.715 178.195 311.945 178.195
 307.312 c 178.195 288.406 l 159.289 288.406 l 154.656 288.406 150.891 284.637
 150.891 280.004 c 150.891 269.203 l 150.891 264.57 154.656 260.801 159.289
 260.801 c 178.195 260.801 l 178.195 241.895 l 178.195 237.262 181.965 233.492
 186.598 233.492 c 197.402 233.492 l 202.035 233.492 205.805 237.262 205.805
 241.895 c 205.805 260.801 l 224.711 260.801 l 229.344 260.801 233.109 264.57
 233.109 269.203 c 233.109 280.004 l 233.109 284.637 229.344 288.406 224.711
 288.406 c 205.805 288.406 l 205.805 307.312 l 205.805 311.945 202.035 315.715
 197.402 315.715 c h
159.289 266.801 m 157.965 266.801 156.891 267.879 156.891 269.203 c 156.891
 280.004 l 156.891 281.332 157.965 282.406 159.289 282.406 c 184.195 282.406
 l 184.195 307.312 l 184.195 308.637 185.273 309.715 186.598 309.715 c 197.402
 309.715 l 198.727 309.715 199.805 308.637 199.805 307.312 c 199.805 282.406
 l 224.711 282.406 l 226.035 282.406 227.109 281.332 227.109 280.004 c 227.109
 269.203 l 227.109 267.879 226.035 266.801 224.711 266.801 c 199.805 266.801
 l 199.805 241.895 l 199.805 240.57 198.727 239.492 197.402 239.492 c 186.598
 239.492 l 185.273 239.492 184.195 240.57 184.195 241.895 c 184.195 266.801
 l h
159.289 266.801 m f
Q Q
showpage
%%Trailer
end
%%EOF
