%!PS-Adobe-3.0 EPSF-3.0
%%Creator: cairo 1.16.0 (https://cairographics.org)
%%CreationDate: Fri Feb 12 12:12:47 2021
%%Pages: 1
%%DocumentData: Clean7Bit
%%LanguageLevel: 2
%%BoundingBox: 0 16 384 368
%%EndComments
%%BeginProlog
50 dict begin
/q { gsave } bind def
/Q { grestore } bind def
/cm { 6 array astore concat } bind def
/w { setlinewidth } bind def
/J { setlinecap } bind def
/j { setlinejoin } bind def
/M { setmiterlimit } bind def
/d { setdash } bind def
/m { moveto } bind def
/l { lineto } bind def
/c { curveto } bind def
/h { closepath } bind def
/re { exch dup neg 3 1 roll 5 3 roll moveto 0 rlineto
      0 exch rlineto 0 rlineto closepath } bind def
/S { stroke } bind def
/f { fill } bind def
/f* { eofill } bind def
/n { newpath } bind def
/W { clip } bind def
/W* { eoclip } bind def
/BT { } bind def
/ET { } bind def
/BDC { mark 3 1 roll /BDC pdfmark } bind def
/EMC { mark /EMC pdfmark } bind def
/cairo_store_point { /cairo_point_y exch def /cairo_point_x exch def } def
/Tj { show currentpoint cairo_store_point } bind def
/TJ {
  {
    dup
    type /stringtype eq
    { show } { -0.001 mul 0 cairo_font_matrix dtransform rmoveto } ifelse
  } forall
  currentpoint cairo_store_point
} bind def
/cairo_selectfont { cairo_font_matrix aload pop pop pop 0 0 6 array astore
    cairo_font exch selectfont cairo_point_x cairo_point_y moveto } bind def
/Tf { pop /cairo_font exch def /cairo_font_matrix where
      { pop cairo_selectfont } if } bind def
/Td { matrix translate cairo_font_matrix matrix concatmatrix dup
      /cairo_font_matrix exch def dup 4 get exch 5 get cairo_store_point
      /cairo_font where { pop cairo_selectfont } if } bind def
/Tm { 2 copy 8 2 roll 6 array astore /cairo_font_matrix exch def
      cairo_store_point /cairo_font where { pop cairo_selectfont } if } bind def
/g { setgray } bind def
/rg { setrgbcolor } bind def
/d1 { setcachedevice } bind def
/cairo_data_source {
  CairoDataIndex CairoData length lt
    { CairoData CairoDataIndex get /CairoDataIndex CairoDataIndex 1 add def }
    { () } ifelse
} def
/cairo_flush_ascii85_file { cairo_ascii85_file status { cairo_ascii85_file flushfile } if } def
/cairo_image { image cairo_flush_ascii85_file } def
/cairo_imagemask { imagemask cairo_flush_ascii85_file } def
%%EndProlog
%%BeginSetup
%%EndSetup
%%Page: 1 1
%%BeginPageSetup
%%PageBoundingBox: 0 16 384 368
%%EndPageSetup
q 0 16 384 352 rectclip
1 0 0 -1 0 384 cm q
0.917647 0.658824 0.584314 rg
367.977 313.121 m 356.461 313.121 l 356.461 135.047 l 364.969 128.52 370.461
 118.258 370.461 106.703 c 370.461 106.598 370.555 78.414 370.555 78.414
 c 369.785 78.414 l 355.117 33 l 353.156 25.297 346.215 19.906 338.266 19.918
 c 44.375 20.293 l 36.324 20.305 29.332 25.852 27.492 33.691 c 13.969 78.414
 l 13.453 78.414 l 13.453 78.414 13.453 79.051 13.449 80.121 c 13.402 80.285
 l 13.449 80.285 l 13.449 86.582 13.445 106.617 13.445 106.703 c 13.445 
118.301 18.977 128.598 27.539 135.121 c 27.539 313.121 l 16.023 313.121 
l 8.844 313.121 3.023 318.941 3.023 326.121 c 3.023 347.086 20.02 364.086
 40.988 364.086 c 343.012 364.086 l 363.98 364.086 380.977 347.086 380.977
 326.121 c 380.977 318.941 375.156 313.121 367.977 313.121 c h
367.977 313.121 m f
0.913725 0.760784 0.470588 rg
299.559 103.762 m 298.863 107.414 297.945 111.016 296.758 114.516 c 293.898
 122.934 289.449 130.531 282.113 135.762 c 273.988 141.555 263.438 143.695
 253.719 141.406 c 235.383 137.09 228.578 120.469 226.094 103.762 c 157.254
 103.762 l 156.688 111.211 154.871 118.492 150.82 124.945 c 144.789 134.559
 134.75 141.195 123.309 141.75 c 112.461 142.27 101.012 138.141 93.93 129.746
 c 87.773 122.449 84.836 113.18 84.266 103.762 c 52.441 103.762 l 52.441
 287.969 l 331.559 287.969 l 331.559 103.762 l h
299.559 103.762 m f
0.976471 0.984314 0.988235 rg
156.383 78.414 m 156.266 78.414 l 156.266 107.27 l 156.566 126.723 172.422
 142.406 191.953 142.406 c 211.668 142.406 227.652 126.422 227.652 106.703
 c 227.758 106.758 l 227.758 107.77 227.809 108.773 227.895 109.766 c 227.895
 79.887 l 228.012 79.887 l 228.012 20.062 l 156.383 20.152 l h
156.383 78.414 m f
44.375 20.293 m 36.324 20.305 29.332 25.852 27.492 33.691 c 13.785 78.414
 l 13.453 78.414 l 13.453 79.5 l 13.168 80.418 l 13.453 80.418 l 13.449 
86.852 13.445 106.617 13.445 106.703 c 13.445 126.422 29.43 142.406 49.145
 142.406 c 67.559 142.406 82.715 128.465 84.637 110.559 c 84.637 78.414 
l 84.598 78.414 l 92.684 20.234 l h
44.375 20.293 m f
370.922 79.609 m 370.555 78.527 l 370.555 78.457 370.555 78.414 370.555
 78.414 c 370.516 78.414 l 355.117 33 l 353.156 25.297 346.215 19.906 338.262
 19.918 c 290.668 19.977 l 299.809 78.414 l 299.52 78.414 l 299.52 112.418
 l 302.254 129.418 316.984 142.406 334.758 142.406 c 354.473 142.406 370.457
 126.422 370.457 106.707 c 370.457 106.613 370.531 84.984 370.551 79.613
 c h
370.922 79.609 m f
1 g
245.035 195.652 m 224.672 195.652 l 214.852 164.84 l 214.375 163.344 212.777
 162.52 211.281 162.996 c 206.973 164.371 l 205.48 164.844 204.652 166.445
 205.129 167.938 c 213.965 195.652 l 170.035 195.652 l 178.871 167.938 l
 179.348 166.445 178.52 164.848 177.027 164.371 c 172.719 162.996 l 171.223
 162.52 169.625 163.344 169.148 164.84 c 159.328 195.652 l 138.965 195.652
 l 135.207 195.652 132.16 198.699 132.16 202.457 c 132.16 206.723 l 132.16
 210.48 135.207 213.527 138.965 213.527 c 141.879 213.527 l 153.32 256.633
 l 153.773 258.348 155.324 259.539 157.098 259.539 c 226.902 259.539 l 228.676
 259.539 230.227 258.348 230.68 256.633 c 242.121 213.527 l 245.035 213.527
 l 248.793 213.527 251.84 210.48 251.84 206.723 c 251.84 202.457 l 251.84
 198.699 248.793 195.652 245.035 195.652 c h
245.035 195.652 m f
0.976471 0.984314 0.988235 rg
294.102 83.898 m 295.379 83.898 296.41 82.863 296.41 81.59 c 296.41 80.312
 295.379 79.277 294.102 79.277 c 292.824 79.277 291.793 80.312 291.793 81.59
 c 291.793 82.863 292.824 83.898 294.102 83.898 c h
294.102 83.898 m f
294.102 98.793 m 295.379 98.793 296.41 97.758 296.41 96.484 c 296.41 95.207
 295.379 94.172 294.102 94.172 c 292.824 94.172 291.793 95.207 291.793 96.484
 c 291.793 97.758 292.824 98.793 294.102 98.793 c h
294.102 98.793 m f
294.102 113.688 m 295.379 113.688 296.41 112.652 296.41 111.375 c 296.41
 110.102 295.379 109.066 294.102 109.066 c 292.824 109.066 291.793 110.102
 291.793 111.375 c 291.793 112.652 292.824 113.688 294.102 113.688 c h
294.102 113.688 m f
279.207 83.898 m 280.484 83.898 281.52 82.863 281.52 81.59 c 281.52 80.312
 280.484 79.277 279.207 79.277 c 277.934 79.277 276.898 80.312 276.898 81.59
 c 276.898 82.863 277.93 83.898 279.207 83.898 c h
279.207 83.898 m f
286.934 91.066 m 288.211 91.066 289.246 90.031 289.246 88.754 c 289.246
 87.48 288.211 86.445 286.934 86.445 c 285.66 86.445 284.625 87.48 284.625
 88.754 c 284.625 90.031 285.66 91.066 286.934 91.066 c h
286.934 91.066 m f
279.207 98.793 m 280.484 98.793 281.52 97.758 281.52 96.484 c 281.52 95.207
 280.484 94.172 279.207 94.172 c 277.934 94.172 276.898 95.207 276.898 96.484
 c 276.898 97.758 277.93 98.793 279.207 98.793 c h
279.207 98.793 m f
286.934 105.961 m 288.211 105.961 289.246 104.926 289.246 103.648 c 289.246
 102.375 288.211 101.34 286.934 101.34 c 285.66 101.34 284.625 102.371 284.625
 103.648 c 284.625 104.926 285.66 105.961 286.934 105.961 c h
286.934 105.961 m f
279.207 113.688 m 280.484 113.688 281.52 112.652 281.52 111.375 c 281.52
 110.102 280.484 109.066 279.207 109.066 c 277.934 109.066 276.898 110.102
 276.898 111.375 c 276.898 112.652 277.93 113.688 279.207 113.688 c h
279.207 113.688 m f
286.934 120.852 m 288.211 120.852 289.246 119.82 289.246 118.543 c 289.246
 117.27 288.211 116.234 286.934 116.234 c 285.66 116.234 284.625 117.27 
284.625 118.543 c 284.625 119.82 285.66 120.852 286.934 120.852 c h
286.934 120.852 m f
279.207 128.582 m 280.484 128.582 281.52 127.547 281.52 126.27 c 281.52
 124.996 280.484 123.961 279.207 123.961 c 277.934 123.961 276.898 124.996
 276.898 126.27 c 276.898 127.547 277.93 128.582 279.207 128.582 c h
279.207 128.582 m f
264.312 83.898 m 265.59 83.898 266.625 82.863 266.625 81.59 c 266.625 80.312
 265.59 79.277 264.312 79.277 c 263.039 79.277 262.004 80.312 262.004 81.59
 c 262.004 82.863 263.039 83.898 264.312 83.898 c h
264.312 83.898 m f
272.039 91.066 m 273.316 91.066 274.352 90.031 274.352 88.754 c 274.352
 87.48 273.316 86.445 272.039 86.445 c 270.766 86.445 269.73 87.48 269.73
 88.754 c 269.73 90.031 270.766 91.066 272.039 91.066 c h
272.039 91.066 m f
264.312 98.793 m 265.59 98.793 266.625 97.758 266.625 96.484 c 266.625 
95.207 265.59 94.172 264.312 94.172 c 263.039 94.172 262.004 95.207 262.004
 96.484 c 262.004 97.758 263.039 98.793 264.312 98.793 c h
264.312 98.793 m f
272.039 105.961 m 273.316 105.961 274.352 104.926 274.352 103.648 c 274.352
 102.375 273.316 101.34 272.039 101.34 c 270.766 101.34 269.73 102.371 269.73
 103.648 c 269.73 104.926 270.766 105.961 272.039 105.961 c h
272.039 105.961 m f
264.312 113.688 m 265.59 113.688 266.625 112.652 266.625 111.375 c 266.625
 110.102 265.59 109.066 264.312 109.066 c 263.039 109.066 262.004 110.102
 262.004 111.375 c 262.004 112.652 263.039 113.688 264.312 113.688 c h
264.312 113.688 m f
272.039 120.852 m 273.316 120.852 274.352 119.82 274.352 118.543 c 274.352
 117.27 273.316 116.234 272.039 116.234 c 270.766 116.234 269.73 117.27 
269.73 118.543 c 269.73 119.82 270.766 120.852 272.039 120.852 c h
272.039 120.852 m f
264.312 128.582 m 265.59 128.582 266.625 127.547 266.625 126.27 c 266.625
 124.996 265.59 123.961 264.312 123.961 c 263.039 123.961 262.004 124.996
 262.004 126.27 c 262.004 127.547 263.039 128.582 264.312 128.582 c h
264.312 128.582 m f
272.039 135.746 m 273.316 135.746 274.352 134.711 274.352 133.438 c 274.352
 132.16 273.316 131.125 272.039 131.125 c 270.766 131.125 269.73 132.16 
269.73 133.438 c 269.73 134.715 270.766 135.746 272.039 135.746 c h
272.039 135.746 m f
249.422 83.898 m 250.695 83.898 251.73 82.863 251.73 81.59 c 251.73 80.312
 250.695 79.277 249.422 79.277 c 248.145 79.277 247.109 80.312 247.109 81.59
 c 247.109 82.863 248.145 83.898 249.422 83.898 c h
249.422 83.898 m f
257.148 91.066 m 258.422 91.066 259.457 90.031 259.457 88.754 c 259.457
 87.48 258.422 86.445 257.148 86.445 c 255.871 86.445 254.836 87.48 254.836
 88.754 c 254.836 90.031 255.871 91.066 257.148 91.066 c h
257.148 91.066 m f
249.422 98.793 m 250.695 98.793 251.73 97.758 251.73 96.484 c 251.73 95.207
 250.695 94.172 249.422 94.172 c 248.145 94.172 247.109 95.207 247.109 96.484
 c 247.109 97.758 248.145 98.793 249.422 98.793 c h
249.422 98.793 m f
257.148 105.961 m 258.422 105.961 259.457 104.926 259.457 103.648 c 259.457
 102.375 258.422 101.34 257.148 101.34 c 255.871 101.34 254.836 102.371 
254.836 103.648 c 254.836 104.926 255.871 105.961 257.148 105.961 c h
257.148 105.961 m f
249.422 113.688 m 250.695 113.688 251.73 112.652 251.73 111.375 c 251.73
 110.102 250.695 109.066 249.422 109.066 c 248.145 109.066 247.109 110.102
 247.109 111.375 c 247.109 112.652 248.145 113.688 249.422 113.688 c h
249.422 113.688 m f
257.148 120.852 m 258.422 120.852 259.457 119.82 259.457 118.543 c 259.457
 117.27 258.422 116.234 257.148 116.234 c 255.871 116.234 254.836 117.27
 254.836 118.543 c 254.836 119.82 255.871 120.852 257.148 120.852 c h
257.148 120.852 m f
249.422 128.582 m 250.695 128.582 251.73 127.547 251.73 126.27 c 251.73
 124.996 250.695 123.961 249.422 123.961 c 248.145 123.961 247.109 124.996
 247.109 126.27 c 247.109 127.547 248.145 128.582 249.422 128.582 c h
249.422 128.582 m f
257.148 135.746 m 258.422 135.746 259.457 134.711 259.457 133.438 c 259.457
 132.16 258.422 131.125 257.148 131.125 c 255.871 131.125 254.836 132.16
 254.836 133.438 c 254.836 134.715 255.871 135.746 257.148 135.746 c h
257.148 135.746 m f
234.527 79.277 m 233.25 79.277 232.215 80.312 232.215 81.59 c 232.215 82.863
 233.25 83.898 234.527 83.898 c 235.801 83.898 236.836 82.863 236.836 81.59
 c 236.836 80.312 235.801 79.277 234.527 79.277 c h
234.527 79.277 m f
242.254 91.066 m 243.527 91.066 244.562 90.031 244.562 88.754 c 244.562
 87.48 243.527 86.445 242.254 86.445 c 240.977 86.445 239.941 87.48 239.941
 88.754 c 239.941 90.031 240.977 91.066 242.254 91.066 c h
242.254 91.066 m f
234.527 98.793 m 235.801 98.793 236.836 97.758 236.836 96.484 c 236.836
 95.207 235.801 94.172 234.527 94.172 c 233.25 94.172 232.215 95.207 232.215
 96.484 c 232.215 97.758 233.25 98.793 234.527 98.793 c h
234.527 98.793 m f
242.254 105.961 m 243.527 105.961 244.562 104.926 244.562 103.648 c 244.562
 102.375 243.527 101.34 242.254 101.34 c 240.977 101.34 239.941 102.371 
239.941 103.648 c 239.941 104.926 240.977 105.961 242.254 105.961 c h
242.254 105.961 m f
234.527 113.688 m 235.801 113.688 236.836 112.652 236.836 111.375 c 236.836
 110.102 235.801 109.066 234.527 109.066 c 233.25 109.066 232.215 110.102
 232.215 111.375 c 232.215 112.652 233.25 113.688 234.527 113.688 c h
234.527 113.688 m f
242.254 120.852 m 243.527 120.852 244.562 119.82 244.562 118.543 c 244.562
 117.27 243.527 116.234 242.254 116.234 c 240.977 116.234 239.941 117.27
 239.941 118.543 c 239.941 119.82 240.977 120.852 242.254 120.852 c h
242.254 120.852 m f
244.562 133.438 m 244.562 132.16 243.531 131.125 242.254 131.125 c 240.977
 131.125 239.941 132.16 239.941 133.438 c 239.941 133.504 239.957 133.566
 239.961 133.629 c 240.801 134.363 241.676 135.059 242.582 135.715 c 243.699
 135.555 244.562 134.602 244.562 133.438 c h
244.562 133.438 m f
227.871 86.508 m 227.871 91.004 l 228.898 90.77 229.668 89.855 229.668 
88.754 c 229.668 87.656 228.898 86.738 227.871 86.508 c h
227.871 86.508 m f
227.871 101.398 m 227.871 105.898 l 228.898 105.664 229.668 104.746 229.668
 103.648 c 229.668 102.551 228.898 101.633 227.871 101.398 c h
227.871 101.398 m f
145.164 83.898 m 146.438 83.898 147.473 82.863 147.473 81.59 c 147.473 
80.312 146.438 79.277 145.164 79.277 c 143.887 79.277 142.852 80.312 142.852
 81.59 c 142.852 82.863 143.887 83.898 145.164 83.898 c h
145.164 83.898 m f
152.891 91.066 m 154.164 91.066 155.199 90.031 155.199 88.754 c 155.199
 87.48 154.164 86.445 152.891 86.445 c 151.613 86.445 150.578 87.48 150.578
 88.754 c 150.578 90.031 151.613 91.066 152.891 91.066 c h
152.891 91.066 m f
145.164 98.793 m 146.438 98.793 147.473 97.758 147.473 96.484 c 147.473
 95.207 146.438 94.172 145.164 94.172 c 143.887 94.172 142.852 95.207 142.852
 96.484 c 142.852 97.758 143.887 98.793 145.164 98.793 c h
145.164 98.793 m f
152.891 105.961 m 154.164 105.961 155.199 104.926 155.199 103.648 c 155.199
 102.375 154.164 101.34 152.891 101.34 c 151.613 101.34 150.578 102.371 
150.578 103.648 c 150.578 104.926 151.613 105.961 152.891 105.961 c h
152.891 105.961 m f
145.164 113.688 m 146.438 113.688 147.473 112.652 147.473 111.375 c 147.473
 110.102 146.438 109.066 145.164 109.066 c 143.887 109.066 142.852 110.102
 142.852 111.375 c 142.852 112.652 143.887 113.688 145.164 113.688 c h
145.164 113.688 m f
145.164 128.582 m 146.438 128.582 147.473 127.547 147.473 126.27 c 147.473
 124.996 146.438 123.961 145.164 123.961 c 143.887 123.961 142.852 124.996
 142.852 126.27 c 142.852 127.547 143.887 128.582 145.164 128.582 c h
145.164 128.582 m f
130.27 83.898 m 131.543 83.898 132.578 82.863 132.578 81.59 c 132.578 80.312
 131.543 79.277 130.27 79.277 c 128.992 79.277 127.961 80.312 127.961 81.59
 c 127.957 82.863 128.992 83.898 130.27 83.898 c h
130.27 83.898 m f
137.996 91.066 m 139.273 91.066 140.305 90.031 140.305 88.754 c 140.305
 87.48 139.273 86.445 137.996 86.445 c 136.719 86.445 135.688 87.48 135.688
 88.754 c 135.688 90.031 136.719 91.066 137.996 91.066 c h
137.996 91.066 m f
130.27 98.793 m 131.543 98.793 132.578 97.758 132.578 96.484 c 132.578 
95.207 131.543 94.172 130.27 94.172 c 128.992 94.172 127.961 95.207 127.961
 96.484 c 127.957 97.758 128.992 98.793 130.27 98.793 c h
130.27 98.793 m f
137.996 105.961 m 139.273 105.961 140.305 104.926 140.305 103.648 c 140.305
 102.375 139.273 101.34 137.996 101.34 c 136.719 101.34 135.688 102.371 
135.688 103.648 c 135.684 104.926 136.719 105.961 137.996 105.961 c h
137.996 105.961 m f
130.27 113.688 m 131.543 113.688 132.578 112.652 132.578 111.375 c 132.578
 110.102 131.543 109.066 130.27 109.066 c 128.992 109.066 127.961 110.102
 127.961 111.375 c 127.957 112.652 128.992 113.688 130.27 113.688 c h
130.27 113.688 m f
137.996 120.852 m 139.273 120.852 140.305 119.82 140.305 118.543 c 140.305
 117.27 139.273 116.234 137.996 116.234 c 136.719 116.234 135.688 117.27
 135.688 118.543 c 135.684 119.82 136.719 120.852 137.996 120.852 c h
137.996 120.852 m f
130.27 128.582 m 131.543 128.582 132.578 127.547 132.578 126.27 c 132.578
 124.996 131.543 123.961 130.27 123.961 c 128.992 123.961 127.961 124.996
 127.961 126.27 c 127.957 127.547 128.992 128.582 130.27 128.582 c h
130.27 128.582 m f
137.996 135.746 m 139.273 135.746 140.305 134.711 140.305 133.438 c 140.305
 132.16 139.273 131.125 137.996 131.125 c 136.719 131.125 135.688 132.16
 135.688 133.438 c 135.688 134.715 136.719 135.746 137.996 135.746 c h
137.996 135.746 m f
115.375 79.277 m 114.098 79.277 113.066 80.312 113.066 81.59 c 113.066 
82.863 114.098 83.898 115.375 83.898 c 116.652 83.898 117.684 82.863 117.684
 81.59 c 117.684 80.312 116.652 79.277 115.375 79.277 c h
115.375 79.277 m f
123.102 91.066 m 124.379 91.066 125.41 90.031 125.41 88.754 c 125.41 87.48
 124.379 86.445 123.102 86.445 c 121.828 86.445 120.793 87.48 120.793 88.754
 c 120.793 90.031 121.828 91.066 123.102 91.066 c h
123.102 91.066 m f
115.375 98.793 m 116.652 98.793 117.684 97.758 117.684 96.484 c 117.684
 95.207 116.652 94.172 115.375 94.172 c 114.098 94.172 113.066 95.207 113.066
 96.484 c 113.066 97.758 114.098 98.793 115.375 98.793 c h
115.375 98.793 m f
123.102 105.961 m 124.379 105.961 125.41 104.926 125.41 103.648 c 125.41
 102.375 124.379 101.34 123.102 101.34 c 121.828 101.34 120.793 102.371 
120.793 103.648 c 120.793 104.926 121.828 105.961 123.102 105.961 c h
123.102 105.961 m f
115.375 113.688 m 116.652 113.688 117.684 112.652 117.684 111.375 c 117.684
 110.102 116.652 109.066 115.375 109.066 c 114.098 109.066 113.066 110.102
 113.066 111.375 c 113.066 112.652 114.098 113.688 115.375 113.688 c h
115.375 113.688 m f
123.102 120.852 m 124.379 120.852 125.41 119.82 125.41 118.543 c 125.41
 117.27 124.379 116.234 123.102 116.234 c 121.828 116.234 120.793 117.27
 120.793 118.543 c 120.793 119.82 121.828 120.852 123.102 120.852 c h
123.102 120.852 m f
115.375 128.582 m 116.652 128.582 117.684 127.547 117.684 126.27 c 117.684
 124.996 116.652 123.961 115.375 123.961 c 114.098 123.961 113.066 124.996
 113.066 126.27 c 113.066 127.547 114.098 128.582 115.375 128.582 c h
115.375 128.582 m f
123.102 135.746 m 124.379 135.746 125.41 134.711 125.41 133.438 c 125.41
 132.16 124.379 131.125 123.102 131.125 c 121.828 131.125 120.793 132.16
 120.793 133.438 c 120.793 134.715 121.828 135.746 123.102 135.746 c h
123.102 135.746 m f
100.48 83.898 m 101.758 83.898 102.793 82.863 102.793 81.59 c 102.793 80.312
 101.758 79.277 100.48 79.277 c 99.207 79.277 98.172 80.312 98.172 81.59
 c 98.172 82.863 99.203 83.898 100.48 83.898 c h
100.48 83.898 m f
108.207 91.066 m 109.484 91.066 110.52 90.031 110.52 88.754 c 110.52 87.48
 109.484 86.445 108.207 86.445 c 106.934 86.445 105.898 87.48 105.898 88.754
 c 105.898 90.031 106.934 91.066 108.207 91.066 c h
108.207 91.066 m f
100.48 98.793 m 101.758 98.793 102.793 97.758 102.793 96.484 c 102.793 
95.207 101.758 94.172 100.48 94.172 c 99.207 94.172 98.172 95.207 98.172
 96.484 c 98.172 97.758 99.203 98.793 100.48 98.793 c h
100.48 98.793 m f
108.207 105.961 m 109.484 105.961 110.52 104.926 110.52 103.648 c 110.52
 102.375 109.484 101.34 108.207 101.34 c 106.934 101.34 105.898 102.371 
105.898 103.648 c 105.898 104.926 106.934 105.961 108.207 105.961 c h
108.207 105.961 m f
100.48 113.688 m 101.758 113.688 102.793 112.652 102.793 111.375 c 102.793
 110.102 101.758 109.066 100.48 109.066 c 99.207 109.066 98.172 110.102 
98.172 111.375 c 98.172 112.652 99.203 113.688 100.48 113.688 c h
100.48 113.688 m f
108.207 120.852 m 109.484 120.852 110.52 119.82 110.52 118.543 c 110.52
 117.27 109.484 116.234 108.207 116.234 c 106.934 116.234 105.898 117.27
 105.898 118.543 c 105.898 119.82 106.934 120.852 108.207 120.852 c h
108.207 120.852 m f
100.48 128.582 m 101.758 128.582 102.793 127.547 102.793 126.27 c 102.793
 124.996 101.758 123.961 100.48 123.961 c 99.207 123.961 98.172 124.996 
98.172 126.27 c 98.172 127.547 99.203 128.582 100.48 128.582 c h
100.48 128.582 m f
108.207 135.746 m 109.484 135.746 110.52 134.711 110.52 133.438 c 110.52
 132.16 109.484 131.125 108.207 131.125 c 106.934 131.125 105.898 132.16
 105.898 133.438 c 105.898 134.715 106.934 135.746 108.207 135.746 c h
108.207 135.746 m f
85.586 79.277 m 85.23 79.277 84.898 79.367 84.598 79.512 c 84.598 83.668
 l 84.898 83.812 85.23 83.898 85.586 83.898 c 86.863 83.898 87.898 82.867
 87.898 81.59 c 87.898 80.312 86.863 79.277 85.586 79.277 c h
85.586 79.277 m f
93.312 91.066 m 94.59 91.066 95.625 90.031 95.625 88.754 c 95.625 87.48
 94.59 86.445 93.312 86.445 c 92.039 86.445 91.004 87.48 91.004 88.754 c
 91.004 90.031 92.039 91.066 93.312 91.066 c h
93.312 91.066 m f
85.586 94.172 m 85.23 94.172 84.898 94.262 84.598 94.402 c 84.598 98.562
 l 84.898 98.707 85.23 98.793 85.586 98.793 c 86.863 98.793 87.898 97.758
 87.898 96.484 c 87.898 95.207 86.863 94.172 85.586 94.172 c h
85.586 94.172 m f
93.312 105.961 m 94.59 105.961 95.625 104.926 95.625 103.648 c 95.625 102.375
 94.59 101.34 93.312 101.34 c 92.039 101.34 91.004 102.371 91.004 103.648
 c 91.004 104.926 92.039 105.961 93.312 105.961 c h
93.312 105.961 m f
93.312 120.852 m 94.59 120.852 95.625 119.82 95.625 118.543 c 95.625 117.27
 94.59 116.234 93.312 116.234 c 92.039 116.234 91.004 117.27 91.004 118.543
 c 91.004 119.82 92.039 120.852 93.312 120.852 c h
93.312 120.852 m f
0.917647 0.658824 0.584314 rg
84.637 87.711 m 84.637 83.297 l 83.855 83.727 83.32 84.551 83.32 85.504
 c 83.32 86.457 83.855 87.281 84.637 87.711 c h
84.637 87.711 m f
77.383 91.445 m 75.98 91.445 74.848 92.578 74.848 93.977 c 74.848 95.379
 75.98 96.512 77.383 96.512 c 78.781 96.512 79.914 95.379 79.914 93.977 
c 79.914 92.578 78.781 91.445 77.383 91.445 c h
77.383 91.445 m f
84.637 104.047 m 84.637 99.629 l 83.855 100.059 83.32 100.883 83.32 101.836
 c 83.32 102.793 83.855 103.613 84.637 104.047 c h
84.637 104.047 m f
77.383 107.777 m 75.98 107.777 74.848 108.91 74.848 110.312 c 74.848 111.711
 75.98 112.844 77.383 112.844 c 78.781 112.844 79.914 111.711 79.914 110.312
 c 79.914 108.91 78.781 107.777 77.383 107.777 c h
77.383 107.777 m f
69.523 82.969 m 68.121 82.969 66.988 84.105 66.988 85.504 c 66.988 86.902
 68.125 88.039 69.523 88.039 c 70.922 88.039 72.055 86.902 72.055 85.504
 c 72.055 84.105 70.922 82.969 69.523 82.969 c h
69.523 82.969 m f
63.582 93.977 m 63.582 95.379 62.445 96.512 61.047 96.512 c 59.648 96.512
 58.516 95.379 58.516 93.977 c 58.516 92.578 59.648 91.445 61.047 91.445
 c 62.445 91.445 63.582 92.578 63.582 93.977 c h
63.582 93.977 m f
69.523 104.371 m 70.922 104.371 72.055 103.238 72.055 101.836 c 72.055 
100.438 70.922 99.305 69.523 99.305 c 68.121 99.305 66.988 100.438 66.988
 101.836 c 66.988 103.234 68.125 104.371 69.523 104.371 c h
69.523 104.371 m f
61.047 107.777 m 59.648 107.777 58.516 108.91 58.516 110.312 c 58.516 111.711
 59.648 112.844 61.047 112.844 c 62.445 112.844 63.582 111.711 63.582 110.312
 c 63.582 108.91 62.445 107.777 61.047 107.777 c h
61.047 107.777 m f
69.523 120.703 m 70.922 120.703 72.055 119.57 72.055 118.172 c 72.055 116.77
 70.922 115.637 69.523 115.637 c 68.121 115.637 66.988 116.77 66.988 118.172
 c 66.988 119.57 68.125 120.703 69.523 120.703 c h
69.523 120.703 m f
63.582 126.645 m 63.582 128.043 62.445 129.18 61.047 129.18 c 59.648 129.18
 58.516 128.043 58.516 126.645 c 58.516 125.246 59.648 124.113 61.047 124.113
 c 62.445 124.113 63.582 125.246 63.582 126.645 c h
63.582 126.645 m f
53.188 82.969 m 51.789 82.969 50.656 84.105 50.656 85.504 c 50.656 86.902
 51.789 88.039 53.188 88.039 c 54.59 88.039 55.723 86.902 55.723 85.504 
c 55.723 84.105 54.59 82.969 53.188 82.969 c h
53.188 82.969 m f
47.246 93.977 m 47.246 95.379 46.113 96.512 44.715 96.512 c 43.316 96.512
 42.18 95.379 42.18 93.977 c 42.18 92.578 43.316 91.445 44.715 91.445 c 
46.113 91.445 47.246 92.578 47.246 93.977 c h
47.246 93.977 m f
53.188 99.305 m 51.789 99.305 50.656 100.438 50.656 101.836 c 50.656 103.234
 51.789 104.371 53.188 104.371 c 54.59 104.371 55.723 103.238 55.723 101.836
 c 55.723 100.438 54.59 99.305 53.188 99.305 c h
53.188 99.305 m f
44.715 107.777 m 43.316 107.777 42.18 108.91 42.18 110.312 c 42.18 111.711
 43.316 112.844 44.715 112.844 c 46.113 112.844 47.246 111.711 47.246 110.312
 c 47.246 108.91 46.113 107.777 44.715 107.777 c h
44.715 107.777 m f
53.188 115.637 m 51.789 115.637 50.656 116.77 50.656 118.172 c 50.656 119.57
 51.789 120.703 53.188 120.703 c 54.59 120.703 55.723 119.57 55.723 118.172
 c 55.723 116.77 54.59 115.637 53.188 115.637 c h
53.188 115.637 m f
47.246 126.645 m 47.246 128.043 46.113 129.18 44.715 129.18 c 43.316 129.18
 42.18 128.043 42.18 126.645 c 42.18 125.246 43.316 124.113 44.715 124.113
 c 46.113 124.113 47.246 125.246 47.246 126.645 c h
47.246 126.645 m f
53.188 137.039 m 54.59 137.039 55.723 135.902 55.723 134.504 c 55.723 133.105
 54.59 131.973 53.188 131.973 c 51.789 131.973 50.656 133.105 50.656 134.504
 c 50.656 135.902 51.789 137.039 53.188 137.039 c h
53.188 137.039 m f
36.855 82.969 m 35.457 82.969 34.32 84.105 34.32 85.504 c 34.32 86.902 
35.457 88.039 36.855 88.039 c 38.254 88.039 39.387 86.902 39.387 85.504 
c 39.387 84.105 38.254 82.969 36.855 82.969 c h
36.855 82.969 m f
30.914 93.977 m 30.914 95.379 29.781 96.512 28.379 96.512 c 26.98 96.512
 25.848 95.379 25.848 93.977 c 25.848 92.578 26.98 91.445 28.379 91.445 
c 29.781 91.445 30.914 92.578 30.914 93.977 c h
30.914 93.977 m f
36.855 99.305 m 35.457 99.305 34.32 100.438 34.32 101.836 c 34.32 103.234
 35.457 104.371 36.855 104.371 c 38.254 104.371 39.387 103.238 39.387 101.836
 c 39.387 100.438 38.254 99.305 36.855 99.305 c h
36.855 99.305 m f
28.379 107.777 m 26.98 107.777 25.848 108.91 25.848 110.312 c 25.848 111.711
 26.98 112.844 28.379 112.844 c 29.781 112.844 30.914 111.711 30.914 110.312
 c 30.914 108.91 29.781 107.777 28.379 107.777 c h
28.379 107.777 m f
36.855 115.637 m 35.457 115.637 34.32 116.77 34.32 118.172 c 34.32 119.57
 35.457 120.703 36.855 120.703 c 38.254 120.703 39.387 119.57 39.387 118.172
 c 39.387 116.77 38.254 115.637 36.855 115.637 c h
36.855 115.637 m f
30.914 126.645 m 30.914 128.043 29.781 129.18 28.379 129.18 c 26.98 129.18
 25.848 128.043 25.848 126.645 c 25.848 125.246 26.98 124.113 28.379 124.113
 c 29.781 124.113 30.914 125.246 30.914 126.645 c h
30.914 126.645 m f
36.855 131.973 m 35.457 131.973 34.32 133.105 34.32 134.504 c 34.32 135.902
 35.457 137.039 36.855 137.039 c 38.254 137.039 39.387 135.902 39.387 134.504
 c 39.387 133.105 38.254 131.973 36.855 131.973 c h
36.855 131.973 m f
20.523 82.969 m 19.121 82.969 17.988 84.105 17.988 85.504 c 17.988 86.902
 19.121 88.039 20.523 88.039 c 21.922 88.039 23.055 86.902 23.055 85.504
 c 23.055 84.105 21.922 82.969 20.523 82.969 c h
20.523 82.969 m f
20.523 104.371 m 21.922 104.371 23.055 103.238 23.055 101.836 c 23.055 
100.438 21.922 99.305 20.523 99.305 c 19.121 99.305 17.988 100.438 17.988
 101.836 c 17.988 103.234 19.121 104.371 20.523 104.371 c h
20.523 104.371 m f
20.523 120.703 m 21.922 120.703 23.055 119.57 23.055 118.172 c 23.055 116.77
 21.922 115.637 20.523 115.637 c 19.121 115.637 17.988 116.77 17.988 118.172
 c 17.988 119.57 19.121 120.703 20.523 120.703 c h
20.523 120.703 m f
226.914 93.977 m 226.914 95.379 225.781 96.512 224.383 96.512 c 222.984
 96.512 221.848 95.379 221.848 93.977 c 221.848 92.578 222.984 91.445 224.383
 91.445 c 225.781 91.445 226.914 92.578 226.914 93.977 c h
226.914 93.977 m f
224.383 112.844 m 225.781 112.844 226.914 111.711 226.914 110.312 c 226.914
 108.91 225.781 107.777 224.383 107.777 c 222.984 107.777 221.848 108.91
 221.848 110.312 c 221.848 111.711 222.984 112.844 224.383 112.844 c h
224.383 112.844 m f
216.523 82.969 m 215.125 82.969 213.988 84.105 213.988 85.504 c 213.988
 86.902 215.125 88.039 216.523 88.039 c 217.922 88.039 219.055 86.902 219.055
 85.504 c 219.055 84.105 217.922 82.969 216.523 82.969 c h
216.523 82.969 m f
210.582 93.977 m 210.582 95.379 209.449 96.512 208.047 96.512 c 206.648
 96.512 205.516 95.379 205.516 93.977 c 205.516 92.578 206.648 91.445 208.047
 91.445 c 209.449 91.445 210.582 92.578 210.582 93.977 c h
210.582 93.977 m f
216.523 99.305 m 215.125 99.305 213.988 100.438 213.988 101.836 c 213.988
 103.234 215.125 104.371 216.523 104.371 c 217.922 104.371 219.055 103.238
 219.055 101.836 c 219.055 100.438 217.922 99.305 216.523 99.305 c h
216.523 99.305 m f
208.047 107.777 m 206.648 107.777 205.516 108.91 205.516 110.312 c 205.516
 111.711 206.648 112.844 208.047 112.844 c 209.449 112.844 210.582 111.711
 210.582 110.312 c 210.582 108.91 209.449 107.777 208.047 107.777 c h
208.047 107.777 m f
216.523 115.637 m 215.125 115.637 213.988 116.77 213.988 118.172 c 213.988
 119.57 215.125 120.703 216.523 120.703 c 217.922 120.703 219.055 119.57
 219.055 118.172 c 219.055 116.77 217.922 115.637 216.523 115.637 c h
216.523 115.637 m f
210.582 126.645 m 210.582 128.043 209.449 129.18 208.047 129.18 c 206.648
 129.18 205.516 128.043 205.516 126.645 c 205.516 125.246 206.648 124.113
 208.047 124.113 c 209.449 124.113 210.582 125.246 210.582 126.645 c h
210.582 126.645 m f
200.188 82.969 m 198.789 82.969 197.656 84.105 197.656 85.504 c 197.656
 86.902 198.789 88.039 200.188 88.039 c 201.59 88.039 202.723 86.902 202.723
 85.504 c 202.723 84.105 201.59 82.969 200.188 82.969 c h
200.188 82.969 m f
194.25 93.977 m 194.25 95.379 193.113 96.512 191.715 96.512 c 190.316 96.512
 189.18 95.379 189.18 93.977 c 189.18 92.578 190.316 91.445 191.715 91.445
 c 193.113 91.445 194.25 92.578 194.25 93.977 c h
194.25 93.977 m f
200.188 99.305 m 198.789 99.305 197.656 100.438 197.656 101.836 c 197.656
 103.234 198.789 104.371 200.188 104.371 c 201.59 104.371 202.723 103.238
 202.723 101.836 c 202.723 100.438 201.59 99.305 200.188 99.305 c h
200.188 99.305 m f
191.715 107.777 m 190.316 107.777 189.18 108.91 189.18 110.312 c 189.18
 111.711 190.316 112.844 191.715 112.844 c 193.113 112.844 194.25 111.711
 194.25 110.312 c 194.25 108.91 193.113 107.777 191.715 107.777 c h
191.715 107.777 m f
200.188 115.637 m 198.789 115.637 197.656 116.77 197.656 118.172 c 197.656
 119.57 198.789 120.703 200.188 120.703 c 201.59 120.703 202.723 119.57 
202.723 118.172 c 202.723 116.77 201.59 115.637 200.188 115.637 c h
200.188 115.637 m f
194.25 126.645 m 194.25 128.043 193.113 129.18 191.715 129.18 c 190.316
 129.18 189.18 128.043 189.18 126.645 c 189.18 125.246 190.316 124.113 191.715
 124.113 c 193.113 124.113 194.25 125.246 194.25 126.645 c h
194.25 126.645 m f
200.188 131.973 m 198.789 131.973 197.656 133.105 197.656 134.504 c 197.656
 135.902 198.789 137.039 200.188 137.039 c 201.59 137.039 202.723 135.902
 202.723 134.504 c 202.723 133.105 201.59 131.973 200.188 131.973 c h
200.188 131.973 m f
183.855 82.969 m 182.457 82.969 181.32 84.105 181.32 85.504 c 181.32 86.902
 182.457 88.039 183.855 88.039 c 185.254 88.039 186.391 86.902 186.391 85.504
 c 186.391 84.105 185.254 82.969 183.855 82.969 c h
183.855 82.969 m f
177.914 93.977 m 177.914 95.379 176.781 96.512 175.383 96.512 c 173.98 
96.512 172.848 95.379 172.848 93.977 c 172.848 92.578 173.98 91.445 175.383
 91.445 c 176.781 91.445 177.914 92.578 177.914 93.977 c h
177.914 93.977 m f
183.855 99.305 m 182.457 99.305 181.32 100.438 181.32 101.836 c 181.32 
103.234 182.457 104.371 183.855 104.371 c 185.254 104.371 186.391 103.238
 186.391 101.836 c 186.391 100.438 185.254 99.305 183.855 99.305 c h
183.855 99.305 m f
175.383 107.777 m 173.98 107.777 172.848 108.91 172.848 110.312 c 172.848
 111.711 173.98 112.844 175.383 112.844 c 176.781 112.844 177.914 111.711
 177.914 110.312 c 177.914 108.91 176.781 107.777 175.383 107.777 c h
175.383 107.777 m f
183.855 115.637 m 182.457 115.637 181.32 116.77 181.32 118.172 c 181.32
 119.57 182.457 120.703 183.855 120.703 c 185.254 120.703 186.391 119.57
 186.391 118.172 c 186.391 116.77 185.254 115.637 183.855 115.637 c h
183.855 115.637 m f
177.914 126.645 m 177.914 128.043 176.781 129.18 175.383 129.18 c 173.98
 129.18 172.848 128.043 172.848 126.645 c 172.848 125.246 173.98 124.113
 175.383 124.113 c 176.781 124.113 177.914 125.246 177.914 126.645 c h
177.914 126.645 m f
183.855 131.973 m 182.457 131.973 181.32 133.105 181.32 134.504 c 181.32
 135.902 182.457 137.039 183.855 137.039 c 185.254 137.039 186.391 135.902
 186.391 134.504 c 186.391 133.105 185.254 131.973 183.855 131.973 c h
183.855 131.973 m f
167.523 82.969 m 166.121 82.969 164.988 84.105 164.988 85.504 c 164.988
 86.902 166.121 88.039 167.523 88.039 c 168.922 88.039 170.055 86.902 170.055
 85.504 c 170.055 84.105 168.922 82.969 167.523 82.969 c h
167.523 82.969 m f
161.582 93.977 m 161.582 95.379 160.445 96.512 159.047 96.512 c 157.648
 96.512 156.516 95.379 156.516 93.977 c 156.516 92.578 157.648 91.445 159.047
 91.445 c 160.445 91.445 161.582 92.578 161.582 93.977 c h
161.582 93.977 m f
167.523 99.305 m 166.121 99.305 164.988 100.438 164.988 101.836 c 164.988
 103.234 166.121 104.371 167.523 104.371 c 168.922 104.371 170.055 103.238
 170.055 101.836 c 170.055 100.438 168.922 99.305 167.523 99.305 c h
167.523 99.305 m f
159.047 112.844 m 160.449 112.844 161.582 111.711 161.582 110.312 c 161.582
 108.91 160.449 107.777 159.047 107.777 c 157.648 107.777 156.516 108.91
 156.516 110.312 c 156.516 111.711 157.648 112.844 159.047 112.844 c h
159.047 112.844 m f
167.523 115.637 m 166.121 115.637 164.988 116.77 164.988 118.172 c 164.988
 119.57 166.121 120.703 167.523 120.703 c 168.922 120.703 170.055 119.57
 170.055 118.172 c 170.055 116.77 168.922 115.637 167.523 115.637 c h
167.523 115.637 m f
363.523 82.969 m 362.125 82.969 360.988 84.105 360.988 85.504 c 360.988
 86.902 362.125 88.039 363.523 88.039 c 364.922 88.039 366.059 86.902 366.059
 85.504 c 366.059 84.105 364.922 82.969 363.523 82.969 c h
363.523 82.969 m f
355.051 91.445 m 353.648 91.445 352.516 92.578 352.516 93.977 c 352.516
 95.379 353.648 96.512 355.051 96.512 c 356.449 96.512 357.582 95.379 357.582
 93.977 c 357.582 92.578 356.449 91.445 355.051 91.445 c h
355.051 91.445 m f
363.523 99.305 m 362.125 99.305 360.988 100.438 360.988 101.836 c 360.988
 103.234 362.125 104.371 363.523 104.371 c 364.922 104.371 366.059 103.238
 366.059 101.836 c 366.059 100.438 364.922 99.305 363.523 99.305 c h
363.523 99.305 m f
355.051 107.777 m 353.648 107.777 352.516 108.91 352.516 110.312 c 352.516
 111.711 353.648 112.844 355.051 112.844 c 356.449 112.844 357.582 111.711
 357.582 110.312 c 357.582 108.91 356.449 107.777 355.051 107.777 c h
355.051 107.777 m f
363.523 120.703 m 364.922 120.703 366.059 119.57 366.059 118.172 c 366.059
 116.77 364.922 115.637 363.523 115.637 c 362.125 115.637 360.988 116.77
 360.988 118.172 c 360.988 119.57 362.125 120.703 363.523 120.703 c h
363.523 120.703 m f
355.051 124.113 m 353.648 124.113 352.516 125.246 352.516 126.645 c 352.516
 128.043 353.648 129.18 355.051 129.18 c 356.449 129.18 357.582 128.043 
357.582 126.645 c 357.582 125.246 356.449 124.113 355.051 124.113 c h
355.051 124.113 m f
347.191 82.969 m 345.789 82.969 344.656 84.105 344.656 85.504 c 344.656
 86.902 345.789 88.039 347.191 88.039 c 348.59 88.039 349.723 86.902 349.723
 85.504 c 349.723 84.105 348.59 82.969 347.191 82.969 c h
347.191 82.969 m f
338.715 91.445 m 337.316 91.445 336.184 92.578 336.184 93.977 c 336.184
 95.379 337.316 96.512 338.715 96.512 c 340.117 96.512 341.25 95.379 341.25
 93.977 c 341.25 92.578 340.117 91.445 338.715 91.445 c h
338.715 91.445 m f
347.191 99.305 m 345.789 99.305 344.656 100.438 344.656 101.836 c 344.656
 103.234 345.789 104.371 347.191 104.371 c 348.59 104.371 349.723 103.238
 349.723 101.836 c 349.723 100.438 348.59 99.305 347.191 99.305 c h
347.191 99.305 m f
338.715 107.777 m 337.316 107.777 336.184 108.91 336.184 110.312 c 336.184
 111.711 337.316 112.844 338.715 112.844 c 340.117 112.844 341.25 111.711
 341.25 110.312 c 341.25 108.91 340.117 107.777 338.715 107.777 c h
338.715 107.777 m f
347.191 115.637 m 345.789 115.637 344.656 116.77 344.656 118.172 c 344.656
 119.57 345.789 120.703 347.191 120.703 c 348.59 120.703 349.723 119.57 
349.723 118.172 c 349.723 116.77 348.59 115.637 347.191 115.637 c h
347.191 115.637 m f
338.715 129.18 m 340.117 129.18 341.25 128.043 341.25 126.645 c 341.25 
125.246 340.117 124.113 338.715 124.113 c 337.316 124.113 336.184 125.246
 336.184 126.645 c 336.184 128.043 337.316 129.18 338.715 129.18 c h
338.715 129.18 m f
347.191 131.973 m 345.789 131.973 344.656 133.105 344.656 134.504 c 344.656
 135.902 345.789 137.039 347.191 137.039 c 348.59 137.039 349.723 135.902
 349.723 134.504 c 349.723 133.105 348.59 131.973 347.191 131.973 c h
347.191 131.973 m f
330.855 82.969 m 329.457 82.969 328.324 84.105 328.324 85.504 c 328.324
 86.902 329.457 88.039 330.855 88.039 c 332.258 88.039 333.391 86.902 333.391
 85.504 c 333.391 84.105 332.258 82.969 330.855 82.969 c h
330.855 82.969 m f
322.383 91.445 m 320.984 91.445 319.848 92.578 319.848 93.977 c 319.848
 95.379 320.984 96.512 322.383 96.512 c 323.781 96.512 324.914 95.379 324.914
 93.977 c 324.914 92.578 323.781 91.445 322.383 91.445 c h
322.383 91.445 m f
330.855 104.371 m 332.258 104.371 333.391 103.238 333.391 101.836 c 333.391
 100.438 332.258 99.305 330.855 99.305 c 329.457 99.305 328.324 100.438 
328.324 101.836 c 328.324 103.234 329.457 104.371 330.855 104.371 c h
330.855 104.371 m f
322.383 107.777 m 320.984 107.777 319.848 108.91 319.848 110.312 c 319.848
 111.711 320.984 112.844 322.383 112.844 c 323.781 112.844 324.914 111.711
 324.914 110.312 c 324.914 108.91 323.781 107.777 322.383 107.777 c h
322.383 107.777 m f
330.855 120.703 m 332.258 120.703 333.391 119.57 333.391 118.172 c 333.391
 116.77 332.258 115.637 330.855 115.637 c 329.457 115.637 328.324 116.77
 328.324 118.172 c 328.324 119.57 329.457 120.703 330.855 120.703 c h
330.855 120.703 m f
322.383 124.113 m 320.984 124.113 319.848 125.246 319.848 126.645 c 319.848
 128.043 320.984 129.18 322.383 129.18 c 323.781 129.18 324.914 128.043 
324.914 126.645 c 324.914 125.246 323.781 124.113 322.383 124.113 c h
322.383 124.113 m f
330.855 137.039 m 332.258 137.039 333.391 135.902 333.391 134.504 c 333.391
 133.105 332.258 131.973 330.855 131.973 c 329.457 131.973 328.324 133.105
 328.324 134.504 c 328.324 135.902 329.457 137.039 330.855 137.039 c h
330.855 137.039 m f
314.523 82.969 m 313.125 82.969 311.988 84.105 311.988 85.504 c 311.988
 86.902 313.125 88.039 314.523 88.039 c 315.922 88.039 317.055 86.902 317.055
 85.504 c 317.055 84.105 315.922 82.969 314.523 82.969 c h
314.523 82.969 m f
308.582 93.977 m 308.582 95.379 307.449 96.512 306.047 96.512 c 304.648
 96.512 303.516 95.379 303.516 93.977 c 303.516 92.578 304.648 91.445 306.047
 91.445 c 307.449 91.445 308.582 92.578 308.582 93.977 c h
308.582 93.977 m f
314.523 99.305 m 313.125 99.305 311.988 100.438 311.988 101.836 c 311.988
 103.234 313.125 104.371 314.523 104.371 c 315.922 104.371 317.055 103.238
 317.055 101.836 c 317.055 100.438 315.922 99.305 314.523 99.305 c h
314.523 99.305 m f
306.047 112.844 m 307.449 112.844 308.582 111.711 308.582 110.312 c 308.582
 108.91 307.449 107.777 306.047 107.777 c 304.648 107.777 303.516 108.91
 303.516 110.312 c 303.516 111.711 304.648 112.844 306.047 112.844 c h
306.047 112.844 m f
314.523 120.703 m 315.922 120.703 317.055 119.57 317.055 118.172 c 317.055
 116.77 315.922 115.637 314.523 115.637 c 313.125 115.637 311.988 116.77
 311.988 118.172 c 311.988 119.57 313.125 120.703 314.523 120.703 c h
314.523 120.703 m f
299.52 83.355 m 299.52 87.652 l 300.242 87.203 300.723 86.414 300.723 85.504
 c 300.723 84.594 300.238 83.805 299.52 83.355 c h
299.52 83.355 m f
300.723 101.836 m 300.723 100.926 300.242 100.137 299.52 99.691 c 299.52
 103.984 l 300.238 103.539 300.723 102.746 300.723 101.836 c h
300.723 101.836 m f
0.976471 0.984314 0.988235 rg
348.641 152.074 m 347.367 152.074 346.332 153.109 346.332 154.383 c 346.332
 155.66 347.367 156.695 348.641 156.695 c 349.918 156.695 350.953 155.66
 350.953 154.383 c 350.953 153.109 349.918 152.074 348.641 152.074 c h
348.641 152.074 m f
350.953 169.277 m 350.953 170.555 349.918 171.59 348.641 171.59 c 347.367
 171.59 346.332 170.555 346.332 169.277 c 346.332 168.004 347.367 166.969
 348.641 166.969 c 349.918 166.969 350.953 168.004 350.953 169.277 c h
350.953 169.277 m f
348.641 181.863 m 347.367 181.863 346.332 182.895 346.332 184.172 c 346.332
 185.445 347.367 186.48 348.641 186.48 c 349.918 186.48 350.953 185.445 
350.953 184.172 c 350.953 182.895 349.918 181.863 348.641 181.863 c h
348.641 181.863 m f
350.953 199.066 m 350.953 200.34 349.918 201.375 348.641 201.375 c 347.367
 201.375 346.332 200.34 346.332 199.066 c 346.332 197.789 347.367 196.754
 348.641 196.754 c 349.918 196.754 350.953 197.789 350.953 199.066 c h
350.953 199.066 m f
348.641 211.648 m 347.367 211.648 346.332 212.684 346.332 213.961 c 346.332
 215.234 347.367 216.27 348.641 216.27 c 349.918 216.27 350.953 215.234 
350.953 213.961 c 350.953 212.684 349.918 211.648 348.641 211.648 c h
348.641 211.648 m f
348.641 226.543 m 347.367 226.543 346.332 227.578 346.332 228.852 c 346.332
 230.129 347.367 231.164 348.641 231.164 c 349.918 231.164 350.953 230.129
 350.953 228.852 c 350.953 227.578 349.918 226.543 348.641 226.543 c h
348.641 226.543 m f
350.953 243.746 m 350.953 245.023 349.918 246.059 348.641 246.059 c 347.367
 246.059 346.332 245.023 346.332 243.746 c 346.332 242.473 347.367 241.438
 348.641 241.438 c 349.918 241.438 350.953 242.473 350.953 243.746 c h
350.953 243.746 m f
348.641 256.332 m 347.367 256.332 346.332 257.367 346.332 258.641 c 346.332
 259.918 347.367 260.953 348.641 260.953 c 349.918 260.953 350.953 259.918
 350.953 258.641 c 350.953 257.367 349.918 256.332 348.641 256.332 c h
348.641 256.332 m f
350.953 273.535 m 350.953 274.809 349.918 275.844 348.641 275.844 c 347.367
 275.844 346.332 274.809 346.332 273.535 c 346.332 272.258 347.367 271.227
 348.641 271.227 c 349.918 271.227 350.953 272.258 350.953 273.535 c h
350.953 273.535 m f
350.953 288.43 m 350.953 289.703 349.918 290.738 348.641 290.738 c 347.367
 290.738 346.332 289.703 346.332 288.43 c 346.332 287.152 347.367 286.117
 348.641 286.117 c 349.918 286.117 350.953 287.152 350.953 288.43 c h
350.953 288.43 m f
348.641 301.012 m 347.367 301.012 346.332 302.047 346.332 303.324 c 346.332
 304.598 347.367 305.633 348.641 305.633 c 349.918 305.633 350.953 304.598
 350.953 303.324 c 350.953 302.047 349.918 301.012 348.641 301.012 c h
348.641 301.012 m f
343.785 146.656 m 343.785 147.934 342.75 148.965 341.473 148.965 c 340.199
 148.965 339.164 147.934 339.164 146.656 c 339.164 145.379 340.199 144.348
 341.473 144.348 c 342.75 144.348 343.785 145.379 343.785 146.656 c h
343.785 146.656 m f
333.746 152.074 m 332.473 152.074 331.438 153.109 331.438 154.383 c 331.438
 155.66 332.473 156.695 333.746 156.695 c 335.023 156.695 336.059 155.66
 336.059 154.383 c 336.059 153.109 335.023 152.074 333.746 152.074 c h
333.746 152.074 m f
341.473 159.242 m 340.199 159.242 339.164 160.273 339.164 161.551 c 339.164
 162.828 340.199 163.859 341.473 163.859 c 342.75 163.859 343.785 162.828
 343.785 161.551 c 343.785 160.273 342.75 159.242 341.473 159.242 c h
341.473 159.242 m f
333.746 166.969 m 332.473 166.969 331.438 168 331.438 169.277 c 331.438
 170.555 332.473 171.586 333.746 171.586 c 335.023 171.586 336.059 170.551
 336.059 169.277 c 336.059 168 335.023 166.969 333.746 166.969 c h
333.746 166.969 m f
343.785 176.445 m 343.785 177.719 342.75 178.754 341.473 178.754 c 340.199
 178.754 339.164 177.719 339.164 176.445 c 339.164 175.168 340.199 174.133
 341.473 174.133 c 342.75 174.133 343.785 175.168 343.785 176.445 c h
343.785 176.445 m f
333.746 181.863 m 332.473 181.863 331.438 182.895 331.438 184.172 c 331.438
 185.445 332.473 186.48 333.746 186.48 c 335.023 186.48 336.059 185.445 
336.059 184.172 c 336.059 182.895 335.023 181.863 333.746 181.863 c h
333.746 181.863 m f
343.785 191.34 m 343.785 192.613 342.75 193.648 341.473 193.648 c 340.199
 193.648 339.164 192.613 339.164 191.34 c 339.164 190.062 340.199 189.027
 341.473 189.027 c 342.75 189.027 343.785 190.062 343.785 191.34 c h
343.785 191.34 m f
333.746 196.754 m 332.473 196.754 331.438 197.789 331.438 199.066 c 331.438
 200.34 332.473 201.375 333.746 201.375 c 335.023 201.375 336.059 200.34
 336.059 199.066 c 336.059 197.789 335.023 196.754 333.746 196.754 c h
333.746 196.754 m f
341.473 203.922 m 340.199 203.922 339.164 204.957 339.164 206.23 c 339.164
 207.508 340.199 208.543 341.473 208.543 c 342.75 208.543 343.785 207.508
 343.785 206.23 c 343.785 204.957 342.75 203.922 341.473 203.922 c h
341.473 203.922 m f
333.746 211.648 m 332.473 211.648 331.438 212.684 331.438 213.961 c 331.438
 215.234 332.473 216.27 333.746 216.27 c 335.023 216.27 336.059 215.234 
336.059 213.961 c 336.059 212.684 335.023 211.648 333.746 211.648 c h
333.746 211.648 m f
343.785 221.125 m 343.785 222.402 342.75 223.438 341.473 223.438 c 340.199
 223.438 339.164 222.402 339.164 221.125 c 339.164 219.852 340.199 218.816
 341.473 218.816 c 342.75 218.816 343.785 219.852 343.785 221.125 c h
343.785 221.125 m f
333.746 226.543 m 332.473 226.543 331.438 227.578 331.438 228.852 c 331.438
 230.129 332.473 231.164 333.746 231.164 c 335.023 231.164 336.059 230.129
 336.059 228.852 c 336.059 227.578 335.023 226.543 333.746 226.543 c h
333.746 226.543 m f
341.473 233.711 m 340.199 233.711 339.164 234.742 339.164 236.02 c 339.164
 237.297 340.199 238.328 341.473 238.328 c 342.75 238.328 343.785 237.297
 343.785 236.02 c 343.785 234.742 342.75 233.711 341.473 233.711 c h
341.473 233.711 m f
333.746 241.438 m 332.473 241.438 331.438 242.473 331.438 243.746 c 331.438
 245.023 332.473 246.059 333.746 246.059 c 335.023 246.059 336.059 245.023
 336.059 243.746 c 336.059 242.473 335.023 241.438 333.746 241.438 c h
333.746 241.438 m f
343.785 250.914 m 343.785 252.191 342.75 253.223 341.473 253.223 c 340.199
 253.223 339.164 252.191 339.164 250.914 c 339.164 249.637 340.199 248.605
 341.473 248.605 c 342.75 248.605 343.785 249.637 343.785 250.914 c h
343.785 250.914 m f
333.746 256.332 m 332.473 256.332 331.438 257.367 331.438 258.641 c 331.438
 259.918 332.473 260.953 333.746 260.953 c 335.023 260.953 336.059 259.918
 336.059 258.641 c 336.059 257.367 335.023 256.332 333.746 256.332 c h
333.746 256.332 m f
343.785 265.809 m 343.785 267.082 342.75 268.117 341.473 268.117 c 340.199
 268.117 339.164 267.082 339.164 265.809 c 339.164 264.531 340.199 263.496
 341.473 263.496 c 342.75 263.496 343.785 264.531 343.785 265.809 c h
343.785 265.809 m f
333.746 271.227 m 332.473 271.227 331.438 272.258 331.438 273.535 c 331.438
 274.809 332.473 275.844 333.746 275.844 c 335.023 275.844 336.059 274.809
 336.059 273.535 c 336.059 272.258 335.023 271.227 333.746 271.227 c h
333.746 271.227 m f
341.473 278.391 m 340.199 278.391 339.164 279.426 339.164 280.703 c 339.164
 281.977 340.199 283.012 341.473 283.012 c 342.75 283.012 343.785 281.977
 343.785 280.703 c 343.785 279.426 342.75 278.391 341.473 278.391 c h
341.473 278.391 m f
333.746 286.117 m 332.473 286.117 331.438 287.152 331.438 288.43 c 331.438
 289.703 332.473 290.738 333.746 290.738 c 335.023 290.738 336.059 289.703
 336.059 288.43 c 336.059 287.152 335.023 286.117 333.746 286.117 c h
333.746 286.117 m f
343.785 295.594 m 343.785 296.871 342.75 297.906 341.473 297.906 c 340.199
 297.906 339.164 296.871 339.164 295.594 c 339.164 294.32 340.199 293.285
 341.473 293.285 c 342.75 293.285 343.785 294.32 343.785 295.594 c h
343.785 295.594 m f
333.746 305.633 m 335.023 305.633 336.059 304.598 336.059 303.324 c 336.059
 302.047 335.023 301.012 333.746 301.012 c 332.473 301.012 331.438 302.047
 331.438 303.324 c 331.438 304.598 332.473 305.633 333.746 305.633 c h
333.746 305.633 m f
341.473 308.18 m 340.199 308.18 339.164 309.215 339.164 310.488 c 339.164
 311.766 340.199 312.801 341.473 312.801 c 342.75 312.801 343.785 311.766
 343.785 310.488 c 343.785 309.215 342.75 308.18 341.473 308.18 c h
341.473 308.18 m f
326.582 293.285 m 325.305 293.285 324.27 294.32 324.27 295.594 c 324.27
 296.871 325.305 297.906 326.582 297.906 c 327.855 297.906 328.891 296.871
 328.891 295.594 c 328.891 294.32 327.855 293.285 326.582 293.285 c h
326.582 293.285 m f
318.852 301.012 m 317.578 301.012 316.543 302.047 316.543 303.324 c 316.543
 304.598 317.578 305.633 318.852 305.633 c 320.129 305.633 321.164 304.598
 321.164 303.324 c 321.164 302.047 320.129 301.012 318.852 301.012 c h
318.852 301.012 m f
326.582 308.18 m 325.305 308.18 324.27 309.215 324.27 310.488 c 324.27 
311.766 325.305 312.801 326.582 312.801 c 327.855 312.801 328.891 311.766
 328.891 310.488 c 328.891 309.215 327.855 308.18 326.582 308.18 c h
326.582 308.18 m f
313.996 295.594 m 313.996 296.871 312.961 297.906 311.688 297.906 c 310.41
 297.906 309.375 296.871 309.375 295.594 c 309.375 294.32 310.41 293.285
 311.688 293.285 c 312.961 293.285 313.996 294.32 313.996 295.594 c h
313.996 295.594 m f
303.961 301.012 m 302.684 301.012 301.648 302.047 301.648 303.324 c 301.648
 304.598 302.684 305.633 303.961 305.633 c 305.234 305.633 306.27 304.598
 306.27 303.324 c 306.27 302.047 305.234 301.012 303.961 301.012 c h
303.961 301.012 m f
311.688 308.18 m 310.41 308.18 309.375 309.215 309.375 310.488 c 309.375
 311.766 310.41 312.801 311.688 312.801 c 312.961 312.801 313.996 311.766
 313.996 310.488 c 313.996 309.215 312.965 308.18 311.688 308.18 c h
311.688 308.18 m f
296.793 293.285 m 295.516 293.285 294.484 294.32 294.484 295.594 c 294.484
 296.871 295.516 297.906 296.793 297.906 c 298.07 297.906 299.102 296.871
 299.102 295.594 c 299.102 294.32 298.07 293.285 296.793 293.285 c h
296.793 293.285 m f
289.066 301.012 m 287.789 301.012 286.754 302.047 286.754 303.324 c 286.754
 304.598 287.789 305.633 289.066 305.633 c 290.34 305.633 291.375 304.598
 291.375 303.324 c 291.375 302.047 290.34 301.012 289.066 301.012 c h
289.066 301.012 m f
296.793 308.18 m 295.516 308.18 294.484 309.215 294.484 310.488 c 294.484
 311.766 295.516 312.801 296.793 312.801 c 298.07 312.801 299.102 311.766
 299.102 310.488 c 299.102 309.215 298.07 308.18 296.793 308.18 c h
296.793 308.18 m f
281.898 293.285 m 280.621 293.285 279.59 294.32 279.59 295.594 c 279.59
 296.871 280.621 297.906 281.898 297.906 c 283.176 297.906 284.207 296.871
 284.207 295.594 c 284.211 294.32 283.176 293.285 281.898 293.285 c h
281.898 293.285 m f
274.172 301.012 m 272.895 301.012 271.863 302.047 271.863 303.324 c 271.863
 304.598 272.895 305.633 274.172 305.633 c 275.445 305.633 276.48 304.598
 276.48 303.324 c 276.48 302.047 275.445 301.012 274.172 301.012 c h
274.172 301.012 m f
281.898 308.18 m 280.621 308.18 279.59 309.215 279.59 310.488 c 279.59 
311.766 280.621 312.801 281.898 312.801 c 283.176 312.801 284.207 311.766
 284.207 310.488 c 284.211 309.215 283.176 308.18 281.898 308.18 c h
281.898 308.18 m f
267.004 293.285 m 265.73 293.285 264.695 294.32 264.695 295.594 c 264.695
 296.871 265.73 297.906 267.004 297.906 c 268.281 297.906 269.316 296.871
 269.316 295.594 c 269.316 294.32 268.281 293.285 267.004 293.285 c h
267.004 293.285 m f
259.277 301.012 m 258.004 301.012 256.969 302.047 256.969 303.324 c 256.969
 304.598 258.004 305.633 259.277 305.633 c 260.555 305.633 261.59 304.598
 261.59 303.324 c 261.59 302.047 260.555 301.012 259.277 301.012 c h
259.277 301.012 m f
267.004 308.18 m 265.73 308.18 264.695 309.215 264.695 310.488 c 264.695
 311.766 265.73 312.801 267.004 312.801 c 268.281 312.801 269.316 311.766
 269.316 310.488 c 269.316 309.215 268.281 308.18 267.004 308.18 c h
267.004 308.18 m f
252.109 293.285 m 250.836 293.285 249.801 294.32 249.801 295.594 c 249.801
 296.871 250.836 297.906 252.109 297.906 c 253.387 297.906 254.422 296.871
 254.422 295.594 c 254.422 294.32 253.387 293.285 252.109 293.285 c h
252.109 293.285 m f
244.383 301.012 m 243.109 301.012 242.074 302.047 242.074 303.324 c 242.074
 304.598 243.109 305.633 244.383 305.633 c 245.66 305.633 246.695 304.598
 246.695 303.324 c 246.695 302.047 245.66 301.012 244.383 301.012 c h
244.383 301.012 m f
252.109 308.18 m 250.836 308.18 249.801 309.215 249.801 310.488 c 249.801
 311.766 250.836 312.801 252.109 312.801 c 253.387 312.801 254.422 311.766
 254.422 310.488 c 254.422 309.215 253.387 308.18 252.109 308.18 c h
252.109 308.18 m f
239.527 295.594 m 239.527 296.871 238.492 297.906 237.219 297.906 c 235.941
 297.906 234.906 296.871 234.906 295.594 c 234.906 294.32 235.941 293.285
 237.219 293.285 c 238.492 293.285 239.527 294.32 239.527 295.594 c h
239.527 295.594 m f
229.492 301.012 m 228.215 301.012 227.18 302.047 227.18 303.324 c 227.18
 304.598 228.215 305.633 229.492 305.633 c 230.766 305.633 231.801 304.598
 231.801 303.324 c 231.801 302.047 230.766 301.012 229.492 301.012 c h
229.492 301.012 m f
237.219 308.18 m 235.941 308.18 234.906 309.215 234.906 310.488 c 234.906
 311.766 235.941 312.801 237.219 312.801 c 238.492 312.801 239.527 311.766
 239.527 310.488 c 239.527 309.215 238.492 308.18 237.219 308.18 c h
237.219 308.18 m f
224.633 295.594 m 224.633 296.871 223.598 297.906 222.324 297.906 c 221.047
 297.906 220.012 296.871 220.012 295.594 c 220.012 294.32 221.047 293.285
 222.324 293.285 c 223.598 293.285 224.633 294.32 224.633 295.594 c h
224.633 295.594 m f
214.598 301.012 m 213.32 301.012 212.285 302.047 212.285 303.324 c 212.285
 304.598 213.32 305.633 214.598 305.633 c 215.871 305.633 216.906 304.598
 216.906 303.324 c 216.906 302.047 215.871 301.012 214.598 301.012 c h
214.598 301.012 m f
222.324 308.18 m 221.047 308.18 220.012 309.215 220.012 310.488 c 220.012
 311.766 221.047 312.801 222.324 312.801 c 223.598 312.801 224.633 311.766
 224.633 310.488 c 224.633 309.215 223.598 308.18 222.324 308.18 c h
222.324 308.18 m f
209.738 295.594 m 209.738 296.871 208.707 297.906 207.43 297.906 c 206.152
 297.906 205.121 296.871 205.121 295.594 c 205.121 294.32 206.152 293.285
 207.43 293.285 c 208.707 293.285 209.738 294.32 209.738 295.594 c h
209.738 295.594 m f
199.703 301.012 m 198.426 301.012 197.391 302.047 197.391 303.324 c 197.391
 304.598 198.426 305.633 199.703 305.633 c 200.977 305.633 202.012 304.598
 202.012 303.324 c 202.012 302.047 200.977 301.012 199.703 301.012 c h
199.703 301.012 m f
207.43 308.18 m 206.152 308.18 205.121 309.215 205.121 310.488 c 205.121
 311.766 206.152 312.801 207.43 312.801 c 208.707 312.801 209.738 311.766
 209.738 310.488 c 209.738 309.215 208.707 308.18 207.43 308.18 c h
207.43 308.18 m f
194.844 295.594 m 194.844 296.871 193.812 297.906 192.535 297.906 c 191.258
 297.906 190.227 296.871 190.227 295.594 c 190.227 294.32 191.258 293.285
 192.535 293.285 c 193.812 293.285 194.844 294.32 194.844 295.594 c h
194.844 295.594 m f
184.809 301.012 m 183.531 301.012 182.5 302.047 182.5 303.324 c 182.5 304.598
 183.531 305.633 184.809 305.633 c 186.086 305.633 187.117 304.598 187.117
 303.324 c 187.117 302.047 186.086 301.012 184.809 301.012 c h
184.809 301.012 m f
192.535 308.18 m 191.258 308.18 190.227 309.215 190.227 310.488 c 190.227
 311.766 191.258 312.801 192.535 312.801 c 193.812 312.801 194.844 311.766
 194.844 310.488 c 194.848 309.215 193.812 308.18 192.535 308.18 c h
192.535 308.18 m f
179.953 295.594 m 179.953 296.871 178.918 297.906 177.641 297.906 c 176.367
 297.906 175.332 296.871 175.332 295.594 c 175.332 294.32 176.367 293.285
 177.641 293.285 c 178.918 293.285 179.953 294.32 179.953 295.594 c h
179.953 295.594 m f
169.914 301.012 m 168.641 301.012 167.605 302.047 167.605 303.324 c 167.605
 304.598 168.641 305.633 169.914 305.633 c 171.191 305.633 172.227 304.598
 172.227 303.324 c 172.227 302.047 171.191 301.012 169.914 301.012 c h
169.914 301.012 m f
177.641 308.18 m 176.367 308.18 175.332 309.215 175.332 310.488 c 175.332
 311.766 176.367 312.801 177.641 312.801 c 178.918 312.801 179.953 311.766
 179.953 310.488 c 179.953 309.215 178.918 308.18 177.641 308.18 c h
177.641 308.18 m f
162.746 293.285 m 161.473 293.285 160.438 294.32 160.438 295.594 c 160.438
 296.871 161.473 297.906 162.746 297.906 c 164.023 297.906 165.059 296.871
 165.059 295.594 c 165.059 294.32 164.023 293.285 162.746 293.285 c h
162.746 293.285 m f
155.02 301.012 m 153.746 301.012 152.711 302.047 152.711 303.324 c 152.711
 304.598 153.746 305.633 155.02 305.633 c 156.297 305.633 157.332 304.598
 157.332 303.324 c 157.332 302.047 156.297 301.012 155.02 301.012 c h
155.02 301.012 m f
162.746 308.18 m 161.473 308.18 160.438 309.215 160.438 310.488 c 160.438
 311.766 161.473 312.801 162.746 312.801 c 164.023 312.801 165.059 311.766
 165.059 310.488 c 165.059 309.215 164.023 308.18 162.746 308.18 c h
162.746 308.18 m f
150.164 295.594 m 150.164 296.871 149.129 297.906 147.855 297.906 c 146.578
 297.906 145.543 296.871 145.543 295.594 c 145.543 294.32 146.578 293.285
 147.855 293.285 c 149.129 293.285 150.164 294.32 150.164 295.594 c h
150.164 295.594 m f
140.129 301.012 m 138.852 301.012 137.816 302.047 137.816 303.324 c 137.816
 304.598 138.852 305.633 140.129 305.633 c 141.402 305.633 142.438 304.598
 142.438 303.324 c 142.438 302.047 141.402 301.012 140.129 301.012 c h
140.129 301.012 m f
147.855 308.18 m 146.578 308.18 145.543 309.215 145.543 310.488 c 145.543
 311.766 146.578 312.801 147.855 312.801 c 149.129 312.801 150.164 311.766
 150.164 310.488 c 150.164 309.215 149.129 308.18 147.855 308.18 c h
147.855 308.18 m f
132.961 293.285 m 131.684 293.285 130.648 294.32 130.648 295.594 c 130.648
 296.871 131.684 297.906 132.961 297.906 c 134.234 297.906 135.27 296.871
 135.27 295.594 c 135.27 294.32 134.234 293.285 132.961 293.285 c h
132.961 293.285 m f
125.234 301.012 m 123.957 301.012 122.922 302.047 122.922 303.324 c 122.922
 304.598 123.957 305.633 125.234 305.633 c 126.508 305.633 127.543 304.598
 127.543 303.324 c 127.543 302.047 126.508 301.012 125.234 301.012 c h
125.234 301.012 m f
132.961 308.18 m 131.684 308.18 130.648 309.215 130.648 310.488 c 130.648
 311.766 131.684 312.801 132.961 312.801 c 134.234 312.801 135.27 311.766
 135.27 310.488 c 135.27 309.215 134.234 308.18 132.961 308.18 c h
132.961 308.18 m f
118.066 293.285 m 116.789 293.285 115.758 294.32 115.758 295.594 c 115.758
 296.871 116.789 297.906 118.066 297.906 c 119.344 297.906 120.375 296.871
 120.375 295.594 c 120.375 294.32 119.344 293.285 118.066 293.285 c h
118.066 293.285 m f
110.34 301.012 m 109.062 301.012 108.027 302.047 108.027 303.324 c 108.027
 304.598 109.062 305.633 110.34 305.633 c 111.613 305.633 112.648 304.598
 112.648 303.324 c 112.648 302.047 111.613 301.012 110.34 301.012 c h
110.34 301.012 m f
118.066 308.18 m 116.789 308.18 115.758 309.215 115.758 310.488 c 115.758
 311.766 116.789 312.801 118.066 312.801 c 119.344 312.801 120.375 311.766
 120.375 310.488 c 120.375 309.215 119.344 308.18 118.066 308.18 c h
118.066 308.18 m f
103.172 293.285 m 101.898 293.285 100.863 294.32 100.863 295.594 c 100.863
 296.871 101.898 297.906 103.172 297.906 c 104.449 297.906 105.48 296.871
 105.48 295.594 c 105.484 294.32 104.449 293.285 103.172 293.285 c h
103.172 293.285 m f
95.445 301.012 m 94.168 301.012 93.137 302.047 93.137 303.324 c 93.137 
304.598 94.168 305.633 95.445 305.633 c 96.723 305.633 97.754 304.598 97.754
 303.324 c 97.754 302.047 96.723 301.012 95.445 301.012 c h
95.445 301.012 m f
103.172 308.18 m 101.898 308.18 100.863 309.215 100.863 310.488 c 100.863
 311.766 101.898 312.801 103.172 312.801 c 104.449 312.801 105.48 311.766
 105.48 310.488 c 105.484 309.215 104.449 308.18 103.172 308.18 c h
103.172 308.18 m f
88.277 293.285 m 87.004 293.285 85.969 294.32 85.969 295.594 c 85.969 296.871
 87.004 297.906 88.277 297.906 c 89.555 297.906 90.59 296.871 90.59 295.594
 c 90.59 294.32 89.555 293.285 88.277 293.285 c h
88.277 293.285 m f
80.551 301.012 m 79.277 301.012 78.242 302.047 78.242 303.324 c 78.242 
304.598 79.277 305.633 80.551 305.633 c 81.828 305.633 82.863 304.598 82.863
 303.324 c 82.863 302.047 81.828 301.012 80.551 301.012 c h
80.551 301.012 m f
88.277 308.18 m 87.004 308.18 85.969 309.215 85.969 310.488 c 85.969 311.766
 87.004 312.801 88.277 312.801 c 89.555 312.801 90.59 311.766 90.59 310.488
 c 90.59 309.215 89.555 308.18 88.277 308.18 c h
88.277 308.18 m f
73.383 293.285 m 72.109 293.285 71.074 294.32 71.074 295.594 c 71.074 296.871
 72.109 297.906 73.383 297.906 c 74.66 297.906 75.695 296.871 75.695 295.594
 c 75.695 294.32 74.66 293.285 73.383 293.285 c h
73.383 293.285 m f
65.656 301.012 m 64.383 301.012 63.348 302.047 63.348 303.324 c 63.348 
304.598 64.383 305.633 65.656 305.633 c 66.934 305.633 67.969 304.598 67.969
 303.324 c 67.969 302.047 66.934 301.012 65.656 301.012 c h
65.656 301.012 m f
73.383 308.18 m 72.109 308.18 71.074 309.215 71.074 310.488 c 71.074 311.766
 72.109 312.801 73.383 312.801 c 74.66 312.801 75.695 311.766 75.695 310.488
 c 75.695 309.215 74.66 308.18 73.383 308.18 c h
73.383 308.18 m f
58.492 293.285 m 57.215 293.285 56.18 294.32 56.18 295.594 c 56.18 296.871
 57.215 297.906 58.492 297.906 c 59.766 297.906 60.801 296.871 60.801 295.594
 c 60.801 294.32 59.766 293.285 58.492 293.285 c h
58.492 293.285 m f
50.766 301.012 m 49.488 301.012 48.453 302.047 48.453 303.324 c 48.453 
304.598 49.488 305.633 50.766 305.633 c 52.039 305.633 53.074 304.598 53.074
 303.324 c 53.074 302.047 52.039 301.012 50.766 301.012 c h
50.766 301.012 m f
58.492 308.18 m 57.215 308.18 56.18 309.215 56.18 310.488 c 56.18 311.766
 57.215 312.801 58.492 312.801 c 59.766 312.801 60.801 311.766 60.801 310.488
 c 60.801 309.215 59.766 308.18 58.492 308.18 c h
58.492 308.18 m f
35.871 290.738 m 37.145 290.738 38.18 289.703 38.18 288.43 c 38.18 288.004
 38.055 287.605 37.855 287.266 c 33.887 287.266 l 33.684 287.605 33.559 
288.004 33.559 288.43 c 33.559 289.703 34.594 290.738 35.871 290.738 c h
35.871 290.738 m f
43.598 293.285 m 42.32 293.285 41.285 294.32 41.285 295.594 c 41.285 296.871
 42.32 297.906 43.598 297.906 c 44.871 297.906 45.906 296.871 45.906 295.594
 c 45.906 294.32 44.871 293.285 43.598 293.285 c h
43.598 293.285 m f
35.871 301.012 m 34.594 301.012 33.559 302.047 33.559 303.324 c 33.559 
304.598 34.594 305.633 35.871 305.633 c 37.145 305.633 38.18 304.598 38.18
 303.324 c 38.18 302.047 37.145 301.012 35.871 301.012 c h
35.871 301.012 m f
43.598 308.18 m 42.32 308.18 41.285 309.215 41.285 310.488 c 41.285 311.766
 42.32 312.801 43.598 312.801 c 44.871 312.801 45.906 311.766 45.906 310.488
 c 45.906 309.215 44.871 308.18 43.598 308.18 c h
43.598 308.18 m f
0.192157 0.215686 0.239216 rg
367.977 310.098 m 359.484 310.098 l 359.484 136.484 l 368.031 129.375 373.484
 118.668 373.484 106.711 c 373.484 106.438 373.578 78.422 373.578 78.422
 c 373.582 78.141 373.527 77.863 373.453 77.598 c 373.441 77.312 373.398
 77.031 373.305 76.754 c 358.02 32.133 l 355.672 23.148 347.582 16.895 338.289
 16.895 c 338.262 16.895 l 44.371 17.27 l 34.914 17.281 26.789 23.695 24.574
 32.883 c 10.602 76.914 l 10.5 77.242 10.461 77.582 10.477 77.922 c 10.453
 78.082 10.43 78.242 10.43 78.414 c 10.422 106.707 l 10.422 118.711 15.914
 129.457 24.516 136.566 c 24.516 310.098 l 16.023 310.098 l 7.188 310.098
 0 317.285 0 326.117 c 0 348.719 18.387 367.105 40.988 367.105 c 343.012
 367.105 l 365.613 367.105 384 348.719 384 326.117 c 384 317.285 376.812
 310.098 367.977 310.098 c h
30.371 34.605 m 30.398 34.531 30.418 34.457 30.434 34.383 c 31.961 27.875
 37.695 23.328 44.379 23.316 c 338.27 22.941 l 338.289 22.941 l 344.855 
22.941 350.57 27.383 352.188 33.746 c 352.211 33.828 352.23 33.906 352.258
 33.98 c 366.211 74.715 l 17.617 74.805 l h
16.469 106.703 m 16.473 81.438 l 367.52 81.438 l 367.496 88.723 367.438
 106.621 367.438 106.703 c 367.438 124.723 352.777 139.383 334.758 139.383
 c 317.457 139.383 303.25 125.863 302.148 108.836 c 302.184 108.148 302.203
 107.457 302.203 106.758 c 302.203 105.484 301.418 104.395 300.305 103.949
 c 299.922 103.777 299.5 103.68 299.055 103.68 c 297.387 103.68 296.031 
105.035 296.031 106.707 c 296.031 107.422 296.051 108.133 296.09 108.84 
c 295.012 125.898 280.793 139.445 263.469 139.445 c 245.445 139.445 230.781
 124.781 230.781 106.758 c 230.781 105.621 230.141 104.578 229.129 104.062
 c 229.023 104.012 l 228.594 103.789 228.121 103.68 227.652 103.68 c 227.105
 103.68 226.555 103.832 226.074 104.129 c 225.176 104.676 224.629 105.652
 224.629 106.703 c 224.629 124.723 209.973 139.383 191.953 139.383 c 173.934
 139.383 159.273 124.723 159.277 106.645 c 159.281 106.41 l 159.289 105.605
 158.965 104.828 158.395 104.258 c 157.828 103.688 157.047 103.363 156.242
 103.363 c 155.434 103.363 154.66 103.688 154.094 104.262 c 153.523 104.836
 153.211 105.613 153.219 106.422 c 153.227 106.703 l 153.227 124.723 138.566
 139.383 120.551 139.383 c 102.531 139.383 87.871 124.723 87.871 106.641
 c 87.879 106.422 l 87.887 105.613 87.566 104.836 86.996 104.262 c 86.43
 103.688 85.645 103.363 84.84 103.363 c 84.035 103.363 83.262 103.688 82.695
 104.258 c 82.125 104.828 81.809 105.605 81.816 106.41 c 81.824 106.703 
l 81.824 124.723 67.164 139.383 49.145 139.383 c 31.129 139.383 16.469 124.723
 16.469 106.703 c h
30.562 310.02 m 30.562 140.668 l 36.086 143.699 42.418 145.43 49.145 145.43
 c 49.238 145.43 49.324 145.426 49.418 145.426 c 49.418 287.969 l 49.418
 289.641 50.77 290.992 52.441 290.992 c 331.559 290.992 l 333.23 290.992
 334.586 289.641 334.586 287.969 c 334.586 145.426 l 334.641 145.426 334.699
 145.43 334.758 145.43 c 341.527 145.43 347.895 143.68 353.438 140.613 c
 353.438 310.02 l h
55.465 284.945 m 55.465 144.91 l 68.738 142.719 79.762 133.762 84.848 121.707
 c 90.723 135.629 104.512 145.43 120.551 145.43 c 136.586 145.43 150.379
 135.633 156.25 121.707 c 162.125 135.629 175.914 145.43 191.953 145.43 
c 208.027 145.43 221.844 135.586 227.695 121.609 c 233.531 135.621 247.367
 145.492 263.469 145.492 c 279.465 145.492 293.23 135.746 299.129 121.879
 c 304.262 133.879 315.281 142.773 328.535 144.926 c 328.535 284.945 l h
343.012 361.059 m 40.988 361.059 l 21.723 361.059 6.047 345.383 6.047 326.117
 c 6.047 320.617 10.52 316.145 16.02 316.145 c 129.656 316.145 l 129.656
 328.527 l 129.656 335.305 135.168 340.82 141.945 340.82 c 242.055 340.82
 l 248.832 340.82 254.344 335.305 254.344 328.527 c 254.344 316.145 l 367.98
 316.145 l 373.48 316.145 377.953 320.617 377.953 326.117 c 377.953 345.383
 362.277 361.059 343.012 361.059 c h
343.012 361.059 m f
245.035 192.629 m 226.883 192.629 l 217.73 163.922 l 216.75 160.84 213.441
 159.133 210.363 160.113 c 206.055 161.488 l 204.562 161.965 203.344 162.992
 202.625 164.383 c 201.906 165.773 201.773 167.363 202.25 168.855 c 209.824
 192.629 l 174.176 192.629 l 181.75 168.855 l 182.734 165.777 181.023 162.469
 177.945 161.488 c 173.637 160.113 l 170.555 159.133 167.25 160.84 166.266
 163.922 c 157.117 192.629 l 138.965 192.629 l 133.547 192.629 129.137 197.039
 129.137 202.457 c 129.137 206.723 l 129.137 212.141 133.547 216.555 138.965
 216.555 c 139.555 216.555 l 150.398 257.41 l 151.203 260.441 153.957 262.562
 157.098 262.562 c 226.902 262.562 l 230.043 262.562 232.797 260.441 233.602
 257.41 c 244.445 216.555 l 245.031 216.555 l 250.453 216.555 254.863 212.141
 254.863 206.723 c 254.863 202.457 l 254.863 197.039 250.453 192.629 245.035
 192.629 c h
208.066 167.195 m 212.023 165.934 l 220.535 192.629 l 216.172 192.629 l
 h
171.973 165.934 m 175.934 167.195 l 167.828 192.629 l 163.465 192.629 l
 h
227.758 255.859 m 227.652 256.246 227.305 256.516 226.902 256.516 c 157.098
 256.516 l 156.695 256.516 156.348 256.246 156.242 255.859 c 145.812 216.555
 l 238.191 216.555 l h
248.816 206.723 m 248.816 208.809 247.121 210.504 245.035 210.504 c 138.965
 210.504 l 136.879 210.504 135.184 208.809 135.184 206.723 c 135.184 202.457
 l 135.184 200.371 136.879 198.676 138.965 198.676 c 245.031 198.676 l 247.117
 198.676 248.816 200.371 248.816 202.457 c h
248.816 206.723 m f
Q Q
showpage
%%Trailer
end
%%EOF
