%!PS-Adobe-3.0 EPSF-3.0
%%Creator: cairo 1.16.0 (https://cairographics.org)
%%CreationDate: Fri Feb 12 12:12:49 2021
%%Pages: 1
%%DocumentData: Clean7Bit
%%LanguageLevel: 2
%%BoundingBox: 0 7 384 377
%%EndComments
%%BeginProlog
50 dict begin
/q { gsave } bind def
/Q { grestore } bind def
/cm { 6 array astore concat } bind def
/w { setlinewidth } bind def
/J { setlinecap } bind def
/j { setlinejoin } bind def
/M { setmiterlimit } bind def
/d { setdash } bind def
/m { moveto } bind def
/l { lineto } bind def
/c { curveto } bind def
/h { closepath } bind def
/re { exch dup neg 3 1 roll 5 3 roll moveto 0 rlineto
      0 exch rlineto 0 rlineto closepath } bind def
/S { stroke } bind def
/f { fill } bind def
/f* { eofill } bind def
/n { newpath } bind def
/W { clip } bind def
/W* { eoclip } bind def
/BT { } bind def
/ET { } bind def
/BDC { mark 3 1 roll /BDC pdfmark } bind def
/EMC { mark /EMC pdfmark } bind def
/cairo_store_point { /cairo_point_y exch def /cairo_point_x exch def } def
/Tj { show currentpoint cairo_store_point } bind def
/TJ {
  {
    dup
    type /stringtype eq
    { show } { -0.001 mul 0 cairo_font_matrix dtransform rmoveto } ifelse
  } forall
  currentpoint cairo_store_point
} bind def
/cairo_selectfont { cairo_font_matrix aload pop pop pop 0 0 6 array astore
    cairo_font exch selectfont cairo_point_x cairo_point_y moveto } bind def
/Tf { pop /cairo_font exch def /cairo_font_matrix where
      { pop cairo_selectfont } if } bind def
/Td { matrix translate cairo_font_matrix matrix concatmatrix dup
      /cairo_font_matrix exch def dup 4 get exch 5 get cairo_store_point
      /cairo_font where { pop cairo_selectfont } if } bind def
/Tm { 2 copy 8 2 roll 6 array astore /cairo_font_matrix exch def
      cairo_store_point /cairo_font where { pop cairo_selectfont } if } bind def
/g { setgray } bind def
/rg { setrgbcolor } bind def
/d1 { setcachedevice } bind def
/cairo_data_source {
  CairoDataIndex CairoData length lt
    { CairoData CairoDataIndex get /CairoDataIndex CairoDataIndex 1 add def }
    { () } ifelse
} def
/cairo_flush_ascii85_file { cairo_ascii85_file status { cairo_ascii85_file flushfile } if } def
/cairo_image { image cairo_flush_ascii85_file } def
/cairo_imagemask { imagemask cairo_flush_ascii85_file } def
%%EndProlog
%%BeginSetup
%%EndSetup
%%Page: 1 1
%%BeginPageSetup
%%PageBoundingBox: 0 7 384 377
%%EndPageSetup
q 0 7 384 370 rectclip
1 0 0 -1 0 384 cm q
0.976471 0.984314 0.988235 rg
322.613 221.094 m 321.582 198.008 304.809 177.711 283.23 170.664 c 238.516
 153.375 l 235.871 150.336 209.121 146.266 209.121 146.266 c 195.117 145.039
 182.77 155.398 181.547 169.406 c 179.984 187.262 l 178.258 186.641 l 171.418
 184.957 l 55.773 167.18 l 42.051 165.07 29.266 174.633 27.41 188.395 c 
25.582 201.977 39.418 218.555 53 220.383 c 29.871 220.062 l 16.281 218.871
 4.301 228.926 3.113 242.512 c 1.926 256.102 11.977 268.082 25.566 269.27
 c 50.066 271.512 l 37.043 270.371 25.562 280.004 24.422 293.027 c 23.285
 306.051 32.918 317.531 45.941 318.672 c 73.395 321.309 l 61.363 320.828
 51.219 330.191 50.738 342.227 c 50.258 354.258 59.625 364.402 71.656 364.879
 c 122.215 366.895 l 257.906 372.801 l 280.902 374.812 301.695 361.434 310.121
 341.203 c 379.223 348.035 l 379.223 225.531 l h
322.613 221.094 m f
0.913725 0.760784 0.470588 rg
183.133 166.355 m 183.434 164.82 184.902 161.117 185.359 159.812 c 186.066
 158.57 187.555 155.27 188.43 154.113 c 192.617 148.602 199.598 147.418 
205.656 146.199 c 215.48 145.352 225.801 148.547 235.672 151.883 c 235.672
 32.961 l 235.672 28.883 232.363 25.578 228.285 25.578 c 218.91 25.578 l
 218.891 18.359 l 218.879 14.281 215.559 10.984 211.484 10.996 c 62.805 
11.438 l 58.723 11.449 55.43 14.766 55.441 18.844 c 56.32 316.203 l 56.336
 320.281 59.652 323.578 63.73 323.566 c 72.223 323.543 l 72.223 330.324 
l 72.223 334.402 75.527 337.707 79.605 337.707 c 228.285 337.707 l 232.363
 337.707 235.672 334.402 235.672 330.324 c 235.672 242.18 l 230.605 248.992
 224.004 253.332 215.77 256.168 c 206.793 259.262 195.754 259.828 188.273
 253.023 c 182.922 248.152 178.082 239.801 177.258 232.375 c 177.188 231.215
 180.996 177.223 183.133 166.355 c h
183.133 166.355 m f
0.917647 0.658824 0.584314 rg
374.141 228.453 m 372.742 228.453 371.613 229.586 371.613 230.98 c 371.613
 232.379 372.742 233.512 374.141 233.512 c 375.535 233.512 376.668 232.379
 376.668 230.98 c 376.668 229.586 375.535 228.453 374.141 228.453 c h
374.141 228.453 m f
365.684 236.91 m 364.285 236.91 363.152 238.043 363.152 239.441 c 363.152
 240.836 364.285 241.969 365.684 241.969 c 367.078 241.969 368.211 240.836
 368.211 239.441 c 368.211 238.043 367.078 236.91 365.684 236.91 c h
365.684 236.91 m f
374.141 249.812 m 375.535 249.812 376.668 248.68 376.668 247.285 c 376.668
 245.887 375.535 244.754 374.141 244.754 c 372.742 244.754 371.613 245.887
 371.613 247.285 c 371.613 248.68 372.742 249.812 374.141 249.812 c h
374.141 249.812 m f
365.684 253.211 m 364.285 253.211 363.152 254.344 363.152 255.742 c 363.152
 257.137 364.285 258.27 365.684 258.27 c 367.078 258.27 368.211 257.137 
368.211 255.742 c 368.211 254.344 367.078 253.211 365.684 253.211 c h
365.684 253.211 m f
374.141 266.113 m 375.535 266.113 376.668 264.98 376.668 263.586 c 376.668
 262.188 375.535 261.055 374.141 261.055 c 372.742 261.055 371.613 262.188
 371.613 263.586 c 371.613 264.98 372.742 266.113 374.141 266.113 c h
374.141 266.113 m f
365.684 269.512 m 364.285 269.512 363.152 270.645 363.152 272.043 c 363.152
 273.438 364.285 274.57 365.684 274.57 c 367.078 274.57 368.211 273.438 
368.211 272.043 c 368.211 270.645 367.078 269.512 365.684 269.512 c h
365.684 269.512 m f
374.141 282.414 m 375.535 282.414 376.668 281.281 376.668 279.887 c 376.668
 278.488 375.535 277.355 374.141 277.355 c 372.742 277.355 371.613 278.488
 371.613 279.887 c 371.613 281.281 372.742 282.414 374.141 282.414 c h
374.141 282.414 m f
365.684 285.816 m 364.285 285.816 363.152 286.945 363.152 288.344 c 363.152
 289.738 364.285 290.871 365.684 290.871 c 367.078 290.871 368.211 289.738
 368.211 288.344 c 368.211 286.945 367.078 285.816 365.684 285.816 c h
365.684 285.816 m f
374.141 298.715 m 375.535 298.715 376.668 297.582 376.668 296.188 c 376.668
 294.789 375.535 293.66 374.141 293.66 c 372.742 293.66 371.613 294.789 
371.613 296.188 c 371.613 297.582 372.742 298.715 374.141 298.715 c h
374.141 298.715 m f
365.684 302.117 m 364.285 302.117 363.152 303.246 363.152 304.645 c 363.152
 306.039 364.285 307.172 365.684 307.172 c 367.078 307.172 368.211 306.039
 368.211 304.645 c 368.211 303.25 367.078 302.117 365.684 302.117 c h
365.684 302.117 m f
374.141 315.016 m 375.535 315.016 376.668 313.883 376.668 312.488 c 376.668
 311.09 375.535 309.961 374.141 309.961 c 372.742 309.961 371.613 311.09
 371.613 312.488 c 371.613 313.883 372.742 315.016 374.141 315.016 c h
374.141 315.016 m f
365.684 318.418 m 364.285 318.418 363.152 319.547 363.152 320.945 c 363.152
 322.34 364.285 323.473 365.684 323.473 c 367.078 323.473 368.211 322.34
 368.211 320.945 c 368.211 319.547 367.078 318.418 365.684 318.418 c h
365.684 318.418 m f
374.141 331.316 m 375.535 331.316 376.668 330.188 376.668 328.789 c 376.668
 327.395 375.535 326.262 374.141 326.262 c 372.742 326.262 371.613 327.391
 371.613 328.789 c 371.613 330.188 372.742 331.316 374.141 331.316 c h
374.141 331.316 m f
365.684 334.719 m 364.285 334.719 363.152 335.852 363.152 337.246 c 363.152
 338.645 364.285 339.777 365.684 339.777 c 367.078 339.777 368.211 338.645
 368.211 337.246 c 368.211 335.852 367.078 334.719 365.684 334.719 c h
365.684 334.719 m f
376.668 345.09 m 376.668 343.695 375.535 342.562 374.141 342.562 c 372.742
 342.562 371.613 343.695 371.613 345.09 c 371.613 346.164 372.285 347.078
 373.23 347.445 c 374.57 347.574 l 375.758 347.371 376.668 346.34 376.668
 345.09 c h
376.668 345.09 m f
357.84 228.453 m 356.441 228.453 355.309 229.586 355.309 230.98 c 355.309
 232.379 356.441 233.512 357.84 233.512 c 359.234 233.512 360.367 232.379
 360.367 230.98 c 360.367 229.586 359.234 228.453 357.84 228.453 c h
357.84 228.453 m f
349.379 236.91 m 347.984 236.91 346.852 238.043 346.852 239.441 c 346.852
 240.836 347.984 241.969 349.379 241.969 c 350.777 241.969 351.91 240.836
 351.91 239.441 c 351.91 238.043 350.777 236.91 349.379 236.91 c h
349.379 236.91 m f
357.84 244.754 m 356.441 244.754 355.309 245.887 355.309 247.285 c 355.309
 248.68 356.441 249.812 357.84 249.812 c 359.234 249.812 360.367 248.68 
360.367 247.285 c 360.367 245.887 359.234 244.754 357.84 244.754 c h
357.84 244.754 m f
349.379 253.211 m 347.984 253.211 346.852 254.344 346.852 255.742 c 346.852
 257.137 347.984 258.27 349.379 258.27 c 350.777 258.27 351.91 257.137 351.91
 255.742 c 351.91 254.344 350.777 253.211 349.379 253.211 c h
349.379 253.211 m f
357.84 261.055 m 356.441 261.055 355.309 262.188 355.309 263.586 c 355.309
 264.98 356.441 266.113 357.84 266.113 c 359.234 266.113 360.367 264.98 
360.367 263.586 c 360.367 262.188 359.234 261.055 357.84 261.055 c h
357.84 261.055 m f
349.379 269.512 m 347.984 269.512 346.852 270.645 346.852 272.043 c 346.852
 273.438 347.984 274.57 349.379 274.57 c 350.777 274.57 351.91 273.438 351.91
 272.043 c 351.91 270.645 350.777 269.512 349.379 269.512 c h
349.379 269.512 m f
357.84 277.359 m 356.441 277.359 355.309 278.488 355.309 279.887 c 355.309
 281.281 356.441 282.414 357.84 282.414 c 359.234 282.414 360.367 281.281
 360.367 279.887 c 360.367 278.488 359.234 277.359 357.84 277.359 c h
357.84 277.359 m f
349.379 285.816 m 347.984 285.816 346.852 286.945 346.852 288.344 c 346.852
 289.738 347.984 290.871 349.379 290.871 c 350.777 290.871 351.91 289.738
 351.91 288.344 c 351.91 286.945 350.777 285.816 349.379 285.816 c h
349.379 285.816 m f
357.84 293.656 m 356.441 293.656 355.309 294.789 355.309 296.188 c 355.309
 297.582 356.441 298.715 357.84 298.715 c 359.234 298.715 360.367 297.582
 360.367 296.188 c 360.367 294.789 359.234 293.656 357.84 293.656 c h
357.84 293.656 m f
349.379 302.117 m 347.984 302.117 346.852 303.246 346.852 304.645 c 346.852
 306.039 347.984 307.172 349.379 307.172 c 350.777 307.172 351.91 306.039
 351.91 304.645 c 351.91 303.25 350.777 302.117 349.379 302.117 c h
349.379 302.117 m f
357.84 309.961 m 356.441 309.961 355.309 311.09 355.309 312.488 c 355.309
 313.883 356.441 315.016 357.84 315.016 c 359.234 315.016 360.367 313.883
 360.367 312.488 c 360.367 311.09 359.234 309.961 357.84 309.961 c h
357.84 309.961 m f
349.379 318.418 m 347.984 318.418 346.852 319.547 346.852 320.945 c 346.852
 322.34 347.984 323.473 349.379 323.473 c 350.777 323.473 351.91 322.34 
351.91 320.945 c 351.91 319.547 350.777 318.418 349.379 318.418 c h
349.379 318.418 m f
357.84 326.262 m 356.441 326.262 355.309 327.391 355.309 328.789 c 355.309
 330.188 356.441 331.316 357.84 331.316 c 359.234 331.316 360.367 330.188
 360.367 328.789 c 360.367 327.395 359.234 326.262 357.84 326.262 c h
357.84 326.262 m f
349.379 334.719 m 347.984 334.719 346.852 335.852 346.852 337.246 c 346.852
 338.645 347.984 339.777 349.379 339.777 c 350.777 339.777 351.91 338.645
 351.91 337.246 c 351.91 335.852 350.777 334.719 349.379 334.719 c h
349.379 334.719 m f
341.539 228.453 m 340.141 228.453 339.008 229.586 339.008 230.98 c 339.008
 232.379 340.141 233.512 341.539 233.512 c 342.934 233.512 344.066 232.379
 344.066 230.98 c 344.066 229.586 342.934 228.453 341.539 228.453 c h
341.539 228.453 m f
341.539 244.754 m 340.141 244.754 339.008 245.887 339.008 247.285 c 339.008
 248.68 340.141 249.812 341.539 249.812 c 342.934 249.812 344.066 248.68
 344.066 247.285 c 344.066 245.887 342.934 244.754 341.539 244.754 c h
341.539 244.754 m f
341.539 261.055 m 340.141 261.055 339.008 262.188 339.008 263.586 c 339.008
 264.98 340.141 266.113 341.539 266.113 c 342.934 266.113 344.066 264.98
 344.066 263.586 c 344.066 262.188 342.934 261.055 341.539 261.055 c h
341.539 261.055 m f
341.539 277.359 m 340.141 277.359 339.008 278.488 339.008 279.887 c 339.008
 281.281 340.141 282.414 341.539 282.414 c 342.934 282.414 344.066 281.281
 344.066 279.887 c 344.066 278.488 342.934 277.359 341.539 277.359 c h
341.539 277.359 m f
341.539 293.656 m 340.141 293.656 339.008 294.789 339.008 296.188 c 339.008
 297.582 340.141 298.715 341.539 298.715 c 342.934 298.715 344.066 297.582
 344.066 296.188 c 344.066 294.789 342.934 293.656 341.539 293.656 c h
341.539 293.656 m f
333.078 302.117 m 331.684 302.117 330.551 303.246 330.551 304.645 c 330.551
 306.039 331.684 307.172 333.078 307.172 c 334.477 307.172 335.609 306.039
 335.609 304.645 c 335.609 303.25 334.477 302.117 333.078 302.117 c h
333.078 302.117 m f
341.539 309.961 m 340.141 309.961 339.008 311.09 339.008 312.488 c 339.008
 313.883 340.141 315.016 341.539 315.016 c 342.934 315.016 344.066 313.883
 344.066 312.488 c 344.066 311.09 342.934 309.961 341.539 309.961 c h
341.539 309.961 m f
333.078 318.418 m 331.684 318.418 330.551 319.547 330.551 320.945 c 330.551
 322.34 331.684 323.473 333.078 323.473 c 334.477 323.473 335.609 322.34
 335.609 320.945 c 335.609 319.547 334.477 318.418 333.078 318.418 c h
333.078 318.418 m f
341.539 331.316 m 342.934 331.316 344.066 330.188 344.066 328.789 c 344.066
 327.395 342.934 326.262 341.539 326.262 c 340.141 326.262 339.008 327.391
 339.008 328.789 c 339.008 330.188 340.141 331.316 341.539 331.316 c h
341.539 331.316 m f
333.078 334.719 m 331.684 334.719 330.551 335.852 330.551 337.246 c 330.551
 338.645 331.684 339.777 333.078 339.777 c 334.477 339.777 335.609 338.645
 335.609 337.246 c 335.609 335.852 334.477 334.719 333.078 334.719 c h
333.078 334.719 m f
325.234 309.961 m 323.84 309.961 322.707 311.09 322.707 312.488 c 322.707
 313.883 323.84 315.016 325.234 315.016 c 326.633 315.016 327.766 313.883
 327.766 312.488 c 327.766 311.09 326.633 309.961 325.234 309.961 c h
325.234 309.961 m f
316.777 318.418 m 315.383 318.418 314.25 319.547 314.25 320.945 c 314.25
 322.34 315.383 323.473 316.777 323.473 c 318.176 323.473 319.305 322.34
 319.305 320.945 c 319.305 319.547 318.176 318.418 316.777 318.418 c h
316.777 318.418 m f
325.234 326.262 m 323.84 326.262 322.707 327.391 322.707 328.789 c 322.707
 330.188 323.84 331.316 325.234 331.316 c 326.633 331.316 327.766 330.188
 327.766 328.789 c 327.766 327.395 326.633 326.262 325.234 326.262 c h
325.234 326.262 m f
316.777 334.719 m 315.383 334.719 314.25 335.852 314.25 337.246 c 314.25
 338.645 315.383 339.777 316.777 339.777 c 318.176 339.777 319.305 338.645
 319.305 337.246 c 319.305 335.852 318.176 334.719 316.777 334.719 c h
316.777 334.719 m f
308.934 309.961 m 307.539 309.961 306.406 311.09 306.406 312.488 c 306.406
 313.883 307.539 315.016 308.934 315.016 c 310.332 315.016 311.465 313.883
 311.465 312.488 c 311.465 311.09 310.332 309.961 308.934 309.961 c h
308.934 309.961 m f
300.477 318.418 m 299.082 318.418 297.949 319.547 297.949 320.945 c 297.949
 322.34 299.082 323.473 300.477 323.473 c 301.875 323.473 303.004 322.34
 303.004 320.945 c 303.004 319.547 301.875 318.418 300.477 318.418 c h
300.477 318.418 m f
308.934 326.262 m 307.539 326.262 306.406 327.391 306.406 328.789 c 306.406
 330.188 307.539 331.316 308.934 331.316 c 310.332 331.316 311.465 330.188
 311.465 328.789 c 311.465 327.395 310.332 326.262 308.934 326.262 c h
308.934 326.262 m f
300.477 334.719 m 299.082 334.719 297.949 335.852 297.949 337.246 c 297.949
 338.645 299.082 339.777 300.477 339.777 c 301.875 339.777 303.004 338.645
 303.004 337.246 c 303.004 335.852 301.875 334.719 300.477 334.719 c h
300.477 334.719 m f
300.477 351.02 m 299.082 351.02 297.949 352.152 297.949 353.547 c 297.949
 354.945 299.082 356.078 300.477 356.078 c 300.539 356.078 300.598 356.062
 300.66 356.059 c 301.465 355.176 302.242 354.266 302.984 353.328 c 302.871
 352.035 301.797 351.02 300.477 351.02 c h
300.477 351.02 m f
292.633 309.961 m 291.238 309.961 290.105 311.09 290.105 312.488 c 290.105
 313.883 291.238 315.016 292.633 315.016 c 294.031 315.016 295.164 313.883
 295.164 312.488 c 295.16 311.09 294.031 309.961 292.633 309.961 c h
292.633 309.961 m f
284.176 318.418 m 282.777 318.418 281.648 319.547 281.648 320.945 c 281.648
 322.34 282.777 323.473 284.176 323.473 c 285.57 323.473 286.703 322.34 
286.703 320.945 c 286.703 319.547 285.57 318.418 284.176 318.418 c h
284.176 318.418 m f
292.633 326.262 m 291.238 326.262 290.105 327.391 290.105 328.789 c 290.105
 330.188 291.238 331.316 292.633 331.316 c 294.031 331.316 295.164 330.188
 295.164 328.789 c 295.16 327.395 294.031 326.262 292.633 326.262 c h
292.633 326.262 m f
284.176 334.719 m 282.777 334.719 281.648 335.852 281.648 337.246 c 281.648
 338.645 282.777 339.777 284.176 339.777 c 285.57 339.777 286.703 338.645
 286.703 337.246 c 286.703 335.852 285.57 334.719 284.176 334.719 c h
284.176 334.719 m f
292.633 342.562 m 291.238 342.562 290.105 343.695 290.105 345.09 c 290.105
 346.488 291.238 347.621 292.633 347.621 c 294.031 347.621 295.164 346.488
 295.164 345.09 c 295.16 343.695 294.031 342.562 292.633 342.562 c h
292.633 342.562 m f
284.176 351.02 m 282.777 351.02 281.648 352.152 281.648 353.547 c 281.648
 354.945 282.777 356.078 284.176 356.078 c 285.57 356.078 286.703 354.945
 286.703 353.547 c 286.703 352.152 285.57 351.02 284.176 351.02 c h
284.176 351.02 m f
292.633 358.863 m 291.238 358.863 290.105 359.996 290.105 361.391 c 290.105
 362.512 290.84 363.449 291.848 363.781 c 292.98 362.992 294.086 362.164
 295.152 361.285 c 295.098 359.941 293.992 358.863 292.633 358.863 c h
292.633 358.863 m f
276.332 309.961 m 274.938 309.961 273.805 311.09 273.805 312.488 c 273.805
 313.883 274.938 315.016 276.332 315.016 c 277.73 315.016 278.859 313.883
 278.859 312.488 c 278.859 311.09 277.73 309.961 276.332 309.961 c h
276.332 309.961 m f
267.875 318.418 m 266.477 318.418 265.348 319.547 265.348 320.945 c 265.348
 322.34 266.477 323.473 267.875 323.473 c 269.27 323.473 270.402 322.34 
270.402 320.945 c 270.402 319.547 269.27 318.418 267.875 318.418 c h
267.875 318.418 m f
276.332 326.262 m 274.938 326.262 273.805 327.391 273.805 328.789 c 273.805
 330.188 274.938 331.316 276.332 331.316 c 277.73 331.316 278.859 330.188
 278.859 328.789 c 278.859 327.395 277.73 326.262 276.332 326.262 c h
276.332 326.262 m f
267.875 334.719 m 266.477 334.719 265.348 335.852 265.348 337.246 c 265.348
 338.645 266.477 339.777 267.875 339.777 c 269.27 339.777 270.402 338.645
 270.402 337.246 c 270.402 335.852 269.27 334.719 267.875 334.719 c h
267.875 334.719 m f
276.332 342.562 m 274.938 342.562 273.805 343.695 273.805 345.09 c 273.805
 346.488 274.938 347.621 276.332 347.621 c 277.73 347.621 278.859 346.488
 278.859 345.09 c 278.859 343.695 277.73 342.562 276.332 342.562 c h
276.332 342.562 m f
267.875 351.02 m 266.477 351.02 265.348 352.152 265.348 353.547 c 265.348
 354.945 266.477 356.078 267.875 356.078 c 269.27 356.078 270.402 354.945
 270.402 353.547 c 270.402 352.152 269.27 351.02 267.875 351.02 c h
267.875 351.02 m f
276.332 358.863 m 274.938 358.863 273.805 359.996 273.805 361.391 c 273.805
 362.789 274.938 363.922 276.332 363.922 c 277.73 363.922 278.859 362.789
 278.859 361.391 c 278.859 359.996 277.73 358.863 276.332 358.863 c h
276.332 358.863 m f
267.875 367.32 m 266.477 367.32 265.348 368.453 265.348 369.848 c 265.348
 371.246 266.477 372.379 267.875 372.379 c 269.27 372.379 270.402 371.246
 270.402 369.848 c 270.402 368.453 269.27 367.32 267.875 367.32 c h
267.875 367.32 m f
260.031 326.262 m 258.633 326.262 257.504 327.391 257.504 328.789 c 257.504
 330.188 258.633 331.316 260.031 331.316 c 261.426 331.316 262.559 330.188
 262.559 328.789 c 262.559 327.395 261.426 326.262 260.031 326.262 c h
260.031 326.262 m f
251.574 334.719 m 250.176 334.719 249.047 335.852 249.047 337.246 c 249.047
 338.645 250.176 339.777 251.574 339.777 c 252.969 339.777 254.102 338.645
 254.102 337.246 c 254.102 335.852 252.969 334.719 251.574 334.719 c h
251.574 334.719 m f
260.031 342.562 m 258.633 342.562 257.504 343.695 257.504 345.09 c 257.504
 346.488 258.633 347.621 260.031 347.621 c 261.426 347.621 262.559 346.488
 262.559 345.09 c 262.559 343.695 261.426 342.562 260.031 342.562 c h
260.031 342.562 m f
251.574 351.02 m 250.176 351.02 249.047 352.152 249.047 353.547 c 249.047
 354.945 250.176 356.078 251.574 356.078 c 252.969 356.078 254.102 354.945
 254.102 353.547 c 254.102 352.152 252.969 351.02 251.574 351.02 c h
251.574 351.02 m f
260.031 358.863 m 258.633 358.863 257.504 359.996 257.504 361.391 c 257.504
 362.789 258.633 363.922 260.031 363.922 c 261.426 363.922 262.559 362.789
 262.559 361.391 c 262.559 359.996 261.426 358.863 260.031 358.863 c h
260.031 358.863 m f
251.574 372.379 m 252.969 372.379 254.102 371.246 254.102 369.852 c 254.102
 368.453 252.969 367.32 251.574 367.32 c 250.176 367.32 249.047 368.453 
249.047 369.852 c 249.047 371.246 250.176 372.379 251.574 372.379 c h
251.574 372.379 m f
243.73 326.262 m 242.332 326.262 241.203 327.391 241.203 328.789 c 241.203
 330.188 242.336 331.316 243.73 331.316 c 245.125 331.316 246.258 330.188
 246.258 328.789 c 246.258 327.395 245.125 326.262 243.73 326.262 c h
243.73 326.262 m f
235.273 334.719 m 233.875 334.719 232.742 335.852 232.742 337.246 c 232.742
 338.645 233.875 339.777 235.273 339.777 c 236.668 339.777 237.801 338.645
 237.801 337.246 c 237.801 335.852 236.668 334.719 235.273 334.719 c h
235.273 334.719 m f
243.73 342.562 m 242.332 342.562 241.203 343.695 241.203 345.09 c 241.203
 346.488 242.336 347.621 243.73 347.621 c 245.125 347.621 246.258 346.488
 246.258 345.09 c 246.258 343.695 245.125 342.562 243.73 342.562 c h
243.73 342.562 m f
235.273 351.02 m 233.875 351.02 232.742 352.152 232.742 353.547 c 232.742
 354.945 233.875 356.078 235.273 356.078 c 236.668 356.078 237.801 354.945
 237.801 353.547 c 237.801 352.152 236.668 351.02 235.273 351.02 c h
235.273 351.02 m f
243.73 358.863 m 242.332 358.863 241.203 359.996 241.203 361.391 c 241.203
 362.789 242.336 363.922 243.73 363.922 c 245.125 363.922 246.258 362.789
 246.258 361.391 c 246.258 359.996 245.125 358.863 243.73 358.863 c h
243.73 358.863 m f
237.801 369.852 m 237.801 368.453 236.668 367.32 235.273 367.32 c 233.875
 367.32 232.742 368.453 232.742 369.852 c 232.742 370.609 233.086 371.281
 233.613 371.746 c 236.766 371.883 l 237.391 371.422 237.801 370.688 237.801
 369.852 c h
237.801 369.852 m f
227.43 342.562 m 226.031 342.562 224.898 343.695 224.898 345.09 c 224.898
 346.488 226.031 347.621 227.43 347.621 c 228.824 347.621 229.957 346.488
 229.957 345.09 c 229.957 343.695 228.824 342.562 227.43 342.562 c h
227.43 342.562 m f
218.973 351.02 m 217.574 351.02 216.441 352.152 216.441 353.547 c 216.441
 354.945 217.574 356.078 218.973 356.078 c 220.367 356.078 221.5 354.945
 221.5 353.547 c 221.5 352.152 220.367 351.02 218.973 351.02 c h
218.973 351.02 m f
227.43 358.863 m 226.031 358.863 224.898 359.996 224.898 361.391 c 224.898
 362.789 226.031 363.922 227.43 363.922 c 228.824 363.922 229.957 362.789
 229.957 361.391 c 229.957 359.996 228.824 358.863 227.43 358.863 c h
227.43 358.863 m f
211.129 342.562 m 209.73 342.562 208.598 343.695 208.598 345.09 c 208.598
 346.488 209.73 347.621 211.129 347.621 c 212.523 347.621 213.656 346.488
 213.656 345.09 c 213.656 343.695 212.523 342.562 211.129 342.562 c h
211.129 342.562 m f
202.668 351.02 m 201.273 351.02 200.141 352.152 200.141 353.547 c 200.141
 354.945 201.273 356.078 202.668 356.078 c 204.066 356.078 205.199 354.945
 205.199 353.547 c 205.199 352.152 204.066 351.02 202.668 351.02 c h
202.668 351.02 m f
211.129 358.863 m 209.73 358.863 208.598 359.996 208.598 361.391 c 208.598
 362.789 209.73 363.922 211.129 363.922 c 212.523 363.922 213.656 362.789
 213.656 361.391 c 213.656 359.996 212.523 358.863 211.129 358.863 c h
211.129 358.863 m f
194.824 342.562 m 193.43 342.562 192.297 343.695 192.297 345.09 c 192.297
 346.488 193.43 347.621 194.824 347.621 c 196.223 347.621 197.355 346.488
 197.355 345.09 c 197.355 343.695 196.223 342.562 194.824 342.562 c h
194.824 342.562 m f
186.367 351.02 m 184.973 351.02 183.84 352.152 183.84 353.547 c 183.84 
354.945 184.973 356.078 186.367 356.078 c 187.766 356.078 188.898 354.945
 188.898 353.547 c 188.898 352.152 187.766 351.02 186.367 351.02 c h
186.367 351.02 m f
194.824 358.863 m 193.43 358.863 192.297 359.996 192.297 361.391 c 192.297
 362.789 193.43 363.922 194.824 363.922 c 196.223 363.922 197.355 362.789
 197.355 361.391 c 197.355 359.996 196.223 358.863 194.824 358.863 c h
194.824 358.863 m f
178.523 342.562 m 177.129 342.562 175.996 343.695 175.996 345.09 c 175.996
 346.488 177.129 347.621 178.523 347.621 c 179.922 347.621 181.055 346.488
 181.055 345.09 c 181.055 343.695 179.922 342.562 178.523 342.562 c h
178.523 342.562 m f
170.066 351.02 m 168.672 351.02 167.539 352.152 167.539 353.547 c 167.539
 354.945 168.672 356.078 170.066 356.078 c 171.465 356.078 172.594 354.945
 172.594 353.547 c 172.594 352.152 171.465 351.02 170.066 351.02 c h
170.066 351.02 m f
178.523 358.863 m 177.129 358.863 175.996 359.996 175.996 361.391 c 175.996
 362.789 177.129 363.922 178.523 363.922 c 179.922 363.922 181.055 362.789
 181.055 361.391 c 181.055 359.996 179.922 358.863 178.523 358.863 c h
178.523 358.863 m f
162.223 342.562 m 160.828 342.562 159.695 343.695 159.695 345.09 c 159.695
 346.488 160.828 347.621 162.223 347.621 c 163.621 347.621 164.75 346.488
 164.75 345.09 c 164.75 343.695 163.621 342.562 162.223 342.562 c h
162.223 342.562 m f
153.766 351.02 m 152.371 351.02 151.238 352.152 151.238 353.547 c 151.238
 354.945 152.367 356.078 153.766 356.078 c 155.164 356.078 156.293 354.945
 156.293 353.547 c 156.293 352.152 155.164 351.02 153.766 351.02 c h
153.766 351.02 m f
162.223 358.863 m 160.828 358.863 159.695 359.996 159.695 361.391 c 159.695
 362.789 160.828 363.922 162.223 363.922 c 163.621 363.922 164.75 362.789
 164.75 361.391 c 164.75 359.996 163.621 358.863 162.223 358.863 c h
162.223 358.863 m f
145.922 342.562 m 144.523 342.562 143.395 343.695 143.395 345.09 c 143.395
 346.488 144.523 347.621 145.922 347.621 c 147.316 347.621 148.449 346.488
 148.449 345.09 c 148.449 343.695 147.32 342.562 145.922 342.562 c h
145.922 342.562 m f
137.465 356.078 m 138.859 356.078 139.992 354.945 139.992 353.547 c 139.992
 352.152 138.859 351.02 137.465 351.02 c 136.066 351.02 134.938 352.152 
134.938 353.547 c 134.938 354.945 136.066 356.078 137.465 356.078 c h
137.465 356.078 m f
145.922 358.863 m 144.523 358.863 143.395 359.996 143.395 361.391 c 143.395
 362.789 144.523 363.922 145.922 363.922 c 147.316 363.922 148.449 362.789
 148.449 361.391 c 148.449 359.996 147.32 358.863 145.922 358.863 c h
145.922 358.863 m f
129.621 342.562 m 128.223 342.562 127.094 343.695 127.094 345.09 c 127.094
 346.488 128.223 347.621 129.621 347.621 c 131.016 347.621 132.148 346.488
 132.148 345.09 c 132.148 343.695 131.016 342.562 129.621 342.562 c h
129.621 342.562 m f
121.164 351.02 m 119.766 351.02 118.633 352.152 118.633 353.547 c 118.633
 354.945 119.766 356.078 121.164 356.078 c 122.559 356.078 123.691 354.945
 123.691 353.547 c 123.691 352.152 122.559 351.02 121.164 351.02 c h
121.164 351.02 m f
129.621 358.863 m 128.223 358.863 127.094 359.996 127.094 361.391 c 127.094
 362.789 128.223 363.922 129.621 363.922 c 131.016 363.922 132.148 362.789
 132.148 361.391 c 132.148 359.996 131.016 358.863 129.621 358.863 c h
129.621 358.863 m f
113.32 342.562 m 111.922 342.562 110.789 343.695 110.789 345.09 c 110.789
 346.488 111.922 347.621 113.32 347.621 c 114.715 347.621 115.848 346.488
 115.848 345.09 c 115.848 343.695 114.715 342.562 113.32 342.562 c h
113.32 342.562 m f
104.863 351.02 m 103.465 351.02 102.332 352.152 102.332 353.547 c 102.332
 354.945 103.465 356.078 104.863 356.078 c 106.258 356.078 107.391 354.945
 107.391 353.547 c 107.391 352.152 106.258 351.02 104.863 351.02 c h
104.863 351.02 m f
113.32 358.863 m 111.922 358.863 110.789 359.996 110.789 361.391 c 110.789
 362.789 111.922 363.922 113.32 363.922 c 114.715 363.922 115.848 362.789
 115.848 361.391 c 115.848 359.996 114.715 358.863 113.32 358.863 c h
113.32 358.863 m f
97.02 342.562 m 95.621 342.562 94.488 343.695 94.488 345.09 c 94.488 346.488
 95.621 347.621 97.02 347.621 c 98.414 347.621 99.547 346.488 99.547 345.09
 c 99.547 343.695 98.414 342.562 97.02 342.562 c h
97.02 342.562 m f
88.562 351.02 m 87.164 351.02 86.031 352.152 86.031 353.547 c 86.031 354.945
 87.164 356.078 88.562 356.078 c 89.957 356.078 91.09 354.945 91.09 353.547
 c 91.09 352.152 89.957 351.02 88.562 351.02 c h
88.562 351.02 m f
97.02 358.863 m 95.621 358.863 94.488 359.996 94.488 361.391 c 94.488 362.789
 95.621 363.922 97.02 363.922 c 98.414 363.922 99.547 362.789 99.547 361.391
 c 99.547 359.996 98.414 358.863 97.02 358.863 c h
97.02 358.863 m f
72.258 334.719 m 70.863 334.719 69.73 335.852 69.73 337.246 c 69.73 338.645
 70.863 339.777 72.258 339.777 c 73.656 339.777 74.789 338.645 74.789 337.246
 c 74.789 335.852 73.656 334.719 72.258 334.719 c h
72.258 334.719 m f
80.715 342.562 m 79.32 342.562 78.188 343.695 78.188 345.09 c 78.188 346.488
 79.32 347.621 80.715 347.621 c 82.113 347.621 83.246 346.488 83.246 345.09
 c 83.246 343.695 82.113 342.562 80.715 342.562 c h
80.715 342.562 m f
72.258 351.02 m 70.863 351.02 69.73 352.152 69.73 353.547 c 69.73 354.945
 70.863 356.078 72.258 356.078 c 73.656 356.078 74.789 354.945 74.789 353.547
 c 74.789 352.152 73.656 351.02 72.258 351.02 c h
72.258 351.02 m f
80.715 358.863 m 79.32 358.863 78.188 359.996 78.188 361.391 c 78.188 362.789
 79.32 363.922 80.715 363.922 c 82.113 363.922 83.246 362.789 83.246 361.391
 c 83.246 359.996 82.113 358.863 80.715 358.863 c h
80.715 358.863 m f
64.414 326.262 m 63.02 326.262 61.887 327.391 61.887 328.789 c 61.887 330.188
 63.02 331.316 64.414 331.316 c 65.812 331.316 66.945 330.188 66.945 328.789
 c 66.945 327.395 65.812 326.262 64.414 326.262 c h
64.414 326.262 m f
55.957 339.777 m 57.355 339.777 58.488 338.645 58.488 337.246 c 58.488 
335.852 57.355 334.719 55.957 334.719 c 54.562 334.719 53.43 335.852 53.43
 337.246 c 53.43 338.645 54.562 339.777 55.957 339.777 c h
55.957 339.777 m f
64.414 342.562 m 63.02 342.562 61.887 343.695 61.887 345.09 c 61.887 346.488
 63.02 347.621 64.414 347.621 c 65.812 347.621 66.945 346.488 66.945 345.09
 c 66.945 343.695 65.812 342.562 64.414 342.562 c h
64.414 342.562 m f
55.957 356.078 m 57.355 356.078 58.488 354.945 58.488 353.547 c 58.488 
352.152 57.355 351.02 55.957 351.02 c 54.613 351.02 53.527 352.07 53.445
 353.395 c 53.934 354.27 54.488 355.113 55.09 355.914 c 55.363 356.016 55.652
 356.078 55.957 356.078 c h
55.957 356.078 m f
66.945 361.391 m 66.945 359.996 65.812 358.863 64.414 358.863 c 63.02 358.863
 61.887 359.996 61.887 361.391 c 61.887 361.59 61.914 361.777 61.957 361.961
 c 63.105 362.617 64.312 363.18 65.57 363.629 c 66.383 363.207 66.945 362.371
 66.945 361.391 c h
66.945 361.391 m f
316.75 302.156 m 315.352 302.156 314.223 303.289 314.223 304.684 c 314.223
 306.082 315.352 307.215 316.75 307.215 c 318.145 307.215 319.277 306.082
 319.277 304.684 c 319.277 303.289 318.145 302.156 316.75 302.156 c h
316.75 302.156 m f
300.52 302.105 m 299.125 302.105 297.992 303.238 297.992 304.633 c 297.992
 306.031 299.125 307.16 300.52 307.16 c 301.918 307.16 303.047 306.031 303.047
 304.633 c 303.047 303.238 301.918 302.105 300.52 302.105 c h
300.52 302.105 m f
251.574 318.438 m 250.176 318.438 249.047 319.57 249.047 320.965 c 249.047
 322.363 250.176 323.496 251.574 323.496 c 252.969 323.496 254.102 322.363
 254.102 320.965 c 254.102 319.57 252.969 318.438 251.574 318.438 c h
251.574 318.438 m f
0.192157 0.215686 0.239216 rg
380.871 345.43 m 310.43 338.199 l 309.102 338.066 307.848 338.812 307.336
 340.043 c 299.148 359.695 279.391 371.656 258.168 369.797 c 258.125 369.793
 258.082 369.789 258.039 369.785 c 122.336 363.879 l 71.777 361.863 l 66.766
 361.664 62.129 359.523 58.723 355.836 c 55.32 352.152 53.555 347.359 53.754
 342.344 c 54.027 335.488 57.98 329.637 63.617 326.582 c 63.648 326.582 
63.676 326.586 63.703 326.586 c 63.738 326.586 l 69.203 326.57 l 69.203 
330.324 l 69.203 336.059 73.867 340.727 79.605 340.727 c 228.285 340.727
 l 234.02 340.727 238.688 336.059 238.688 330.324 c 238.688 238.949 l 238.777
 238.555 238.863 238.156 238.941 237.758 c 248.414 247.043 261.316 252.559
 275.008 252.559 c 278.578 252.559 282.203 252.184 285.832 251.406 c 287.461
 251.055 288.5 249.449 288.148 247.82 c 287.801 246.191 286.195 245.152 
284.566 245.504 c 267.34 249.199 250.266 242.566 239.805 229.789 c 242.156
 202.906 l 242.301 201.246 241.074 199.781 239.414 199.637 c 237.77 199.496
 236.289 200.719 236.145 202.379 c 233.375 234.047 l 232.793 240.676 229.664
 246.688 224.566 250.965 c 219.465 255.246 212.996 257.281 206.371 256.703
 c 201.992 256.32 l 188.301 255.121 178.133 243.008 179.332 229.316 c 184.281
 172.773 l 185.352 160.531 195.27 148.082 209.5 149.328 c 222.949 150.219
 251.102 161.285 273.723 170.18 c 276.609 171.312 279.426 172.418 282.113
 173.469 c 303.977 182.168 318.691 200.918 319.598 221.23 c 319.668 222.742
 320.844 223.973 322.352 224.102 c 380.719 229.211 l 382.379 229.355 383.844
 228.125 383.988 226.465 c 384.133 224.805 382.906 223.34 381.246 223.195
 c 325.441 218.316 l 323.336 196.672 307.469 177.062 284.328 167.852 c 281.625
 166.797 278.812 165.695 275.934 164.562 c 263.637 159.727 250.512 154.566
 238.688 150.535 c 238.688 32.961 l 238.688 27.227 234.023 22.559 228.285
 22.559 c 221.918 22.559 l 221.906 18.352 l 221.891 12.625 217.227 7.98 
211.504 7.98 c 211.473 7.98 l 62.793 8.422 l 60.016 8.43 57.406 9.52 55.445
 11.488 c 53.488 13.461 52.414 16.074 52.422 18.852 c 52.852 163.891 l 46.57
 163.684 40.453 165.59 35.332 169.418 c 29.301 173.93 25.426 180.527 24.422
 187.992 c 23.43 195.359 25.363 202.672 29.875 208.582 c 33.387 213.188 
38.133 216.512 43.551 218.227 c 30.133 217.055 l 22.758 216.406 15.574 218.672
 9.902 223.434 c 4.23 228.191 0.754 234.875 0.109 242.25 c -0.539 249.625
 1.727 256.809 6.484 262.48 c 11.246 268.152 17.926 271.633 25.301 272.277
 c 33.109 272.961 l 26.656 277.309 22.145 284.426 21.418 292.766 c 20.133
 307.426 31.016 320.395 45.676 321.676 c 55.48 322.535 l 55.754 322.891 
56.047 323.238 56.371 323.559 c 56.5 323.688 56.637 323.801 56.77 323.918
 c 56.402 324.223 56.039 324.531 55.688 324.855 c 50.816 329.352 47.988 
335.48 47.723 342.105 c 47.461 348.73 49.789 355.059 54.289 359.934 c 58.785
 364.805 64.91 367.633 71.539 367.895 c 122.082 369.91 l 257.711 375.816
 l 259.316 375.953 260.91 376.023 262.5 376.023 c 283.723 376.02 302.984
 363.82 311.996 344.43 c 380.254 351.434 l 381.91 351.605 383.395 350.398
 383.566 348.742 c 383.734 347.082 382.527 345.602 380.871 345.43 c h
177.672 179.055 m 155.168 179.055 l 155.57 177.973 155.98 176.844 156.402
 175.648 c 159.254 167.578 165.98 165.66 171.324 166.559 c 173.816 166.98
 176.379 168.074 178.582 169.793 c 178.453 170.602 178.34 171.418 178.27
 172.246 c h
180.195 163.559 m 177.695 162.047 174.977 161.055 172.324 160.609 c 162.57
 158.969 154.09 164.082 150.711 173.637 c 150.008 175.621 149.348 177.414
 148.711 179.055 c 122.727 179.055 l 123.32 173.672 126.156 170.418 126.336
 170.215 c 127.453 168.992 127.375 167.09 126.152 165.965 c 124.93 164.836
 123.02 164.91 121.887 166.137 c 121.641 166.406 117.312 171.215 116.66 
179.055 c 110.457 179.055 l 108.789 179.055 107.438 180.406 107.438 182.07
 c 107.438 183.738 108.789 185.09 110.457 185.09 c 116.91 185.09 l 117.094
 186.195 117.352 187.34 117.707 188.523 c 119.582 194.738 124.922 199.391
 131.648 200.656 c 137.719 201.801 143.547 199.895 146.852 195.68 c 148.891
 193.086 150.754 189.777 152.766 185.09 c 177.145 185.09 l 173.32 228.793
 l 173.137 230.895 173.168 232.965 173.398 234.984 c 167.328 237.207 160.777
 238.43 153.945 238.43 c 122.633 238.43 97.16 212.953 97.16 181.641 c 97.16
 150.332 122.633 124.855 153.945 124.855 c 171.398 124.855 187.023 132.781
 197.445 145.211 c 189.652 148.367 183.297 155.035 180.195 163.559 c h
146.156 185.09 m 144.777 188.016 143.473 190.207 142.102 191.957 c 140.195
 194.391 136.613 195.449 132.766 194.727 c 129.234 194.059 124.945 191.625
 123.488 186.781 c 123.312 186.203 123.172 185.641 123.055 185.09 c h
232.652 32.961 m 232.652 148.539 l 223.668 145.68 215.746 143.691 209.961
 143.309 c 207.867 143.125 205.805 143.199 203.797 143.488 c 192.305 128.508
 174.242 118.82 153.945 118.82 c 119.305 118.82 91.125 147.004 91.125 181.645
 c 91.125 216.281 119.305 244.465 153.945 244.465 c 161.211 244.465 168.184
 243.211 174.68 240.93 c 178.383 252.441 188.688 261.215 201.465 262.336
 c 205.848 262.719 l 206.766 262.797 207.684 262.84 208.598 262.84 c 215.855
 262.84 222.816 260.312 228.445 255.59 c 230 254.289 231.402 252.852 232.652
 251.312 c 232.652 330.324 l 232.652 332.73 230.691 334.691 228.285 334.691
 c 79.605 334.691 l 77.199 334.691 75.238 332.734 75.238 330.324 c 75.238
 32.961 l 75.238 30.555 77.195 28.594 79.605 28.594 c 228.285 28.594 l 230.695
 28.594 232.652 30.555 232.652 32.961 c h
59.727 15.742 m 60.551 14.918 61.645 14.461 62.812 14.457 c 211.492 14.016
 l 211.504 14.016 l 213.906 14.016 215.863 15.965 215.871 18.367 c 215.887
 22.559 l 79.605 22.559 l 73.871 22.559 69.203 27.227 69.203 32.961 c 69.203
 320.531 l 63.719 320.547 l 62.527 320.574 61.453 320.102 60.629 319.277
 c 59.801 318.457 59.344 317.359 59.34 316.195 c 58.457 18.836 l 58.453 
17.668 58.906 16.57 59.727 15.742 c h
34.672 204.922 m 31.141 200.293 29.625 194.566 30.402 188.797 c 31.191 
182.949 34.227 177.785 38.949 174.25 c 43.012 171.215 47.879 169.719 52.871
 169.926 c 53 213.805 l 49.098 213.305 l 43.324 212.531 38.203 209.551 34.672
 204.922 c h
25.828 266.262 m 20.059 265.758 14.832 263.039 11.109 258.602 c 7.387 254.164
 5.617 248.543 6.121 242.777 c 6.625 237.008 9.348 231.777 13.781 228.059
 c 18.219 224.336 23.844 222.562 29.609 223.066 c 53.035 225.117 l 53.164
 268.656 l h
46.203 315.664 m 34.859 314.672 26.438 304.637 27.43 293.293 c 28.422 281.945
 38.457 273.523 49.805 274.516 c 53.184 274.812 l 53.305 316.211 l 53.305
 316.238 53.309 316.262 53.309 316.285 c h
46.203 315.664 m f
94.484 100.434 m 96.152 100.434 97.504 99.082 97.504 97.414 c 97.504 54.383
 l 97.504 52.84 98.758 51.582 100.301 51.582 c 207.59 51.582 l 209.133 51.582
 210.391 52.84 210.391 54.383 c 210.391 97.414 l 210.391 99.082 211.742 
100.434 213.406 100.434 c 215.074 100.434 216.426 99.082 216.426 97.414 
c 216.426 54.383 l 216.426 49.512 212.465 45.547 207.59 45.547 c 100.301
 45.547 l 95.43 45.547 91.465 49.512 91.465 54.383 c 91.465 97.414 l 91.465
 99.082 92.816 100.434 94.484 100.434 c h
94.484 100.434 m f
100.301 317.738 m 207.59 317.738 l 212.465 317.738 216.426 313.773 216.426
 308.902 c 216.426 267.102 l 216.426 265.434 215.074 264.082 213.406 264.082
 c 211.742 264.082 210.391 265.434 210.391 267.102 c 210.391 308.902 l 210.391
 310.445 209.133 311.703 207.59 311.703 c 100.301 311.703 l 98.758 311.703
 97.504 310.445 97.504 308.902 c 97.504 267.102 l 97.504 265.434 96.152 
264.082 94.484 264.082 c 92.816 264.082 91.465 265.434 91.465 267.102 c 
91.465 308.902 l 91.465 313.773 95.43 317.738 100.301 317.738 c h
100.301 317.738 m f
Q Q
showpage
%%Trailer
end
%%EOF
