%!PS-Adobe-3.0 EPSF-3.0
%%Creator: cairo 1.16.0 (https://cairographics.org)
%%CreationDate: Fri Feb 12 12:12:52 2021
%%Pages: 1
%%DocumentData: Clean7Bit
%%LanguageLevel: 2
%%BoundingBox: 17 0 367 384
%%EndComments
%%BeginProlog
50 dict begin
/q { gsave } bind def
/Q { grestore } bind def
/cm { 6 array astore concat } bind def
/w { setlinewidth } bind def
/J { setlinecap } bind def
/j { setlinejoin } bind def
/M { setmiterlimit } bind def
/d { setdash } bind def
/m { moveto } bind def
/l { lineto } bind def
/c { curveto } bind def
/h { closepath } bind def
/re { exch dup neg 3 1 roll 5 3 roll moveto 0 rlineto
      0 exch rlineto 0 rlineto closepath } bind def
/S { stroke } bind def
/f { fill } bind def
/f* { eofill } bind def
/n { newpath } bind def
/W { clip } bind def
/W* { eoclip } bind def
/BT { } bind def
/ET { } bind def
/BDC { mark 3 1 roll /BDC pdfmark } bind def
/EMC { mark /EMC pdfmark } bind def
/cairo_store_point { /cairo_point_y exch def /cairo_point_x exch def } def
/Tj { show currentpoint cairo_store_point } bind def
/TJ {
  {
    dup
    type /stringtype eq
    { show } { -0.001 mul 0 cairo_font_matrix dtransform rmoveto } ifelse
  } forall
  currentpoint cairo_store_point
} bind def
/cairo_selectfont { cairo_font_matrix aload pop pop pop 0 0 6 array astore
    cairo_font exch selectfont cairo_point_x cairo_point_y moveto } bind def
/Tf { pop /cairo_font exch def /cairo_font_matrix where
      { pop cairo_selectfont } if } bind def
/Td { matrix translate cairo_font_matrix matrix concatmatrix dup
      /cairo_font_matrix exch def dup 4 get exch 5 get cairo_store_point
      /cairo_font where { pop cairo_selectfont } if } bind def
/Tm { 2 copy 8 2 roll 6 array astore /cairo_font_matrix exch def
      cairo_store_point /cairo_font where { pop cairo_selectfont } if } bind def
/g { setgray } bind def
/rg { setrgbcolor } bind def
/d1 { setcachedevice } bind def
/cairo_data_source {
  CairoDataIndex CairoData length lt
    { CairoData CairoDataIndex get /CairoDataIndex CairoDataIndex 1 add def }
    { () } ifelse
} def
/cairo_flush_ascii85_file { cairo_ascii85_file status { cairo_ascii85_file flushfile } if } def
/cairo_image { image cairo_flush_ascii85_file } def
/cairo_imagemask { imagemask cairo_flush_ascii85_file } def
%%EndProlog
%%BeginSetup
%%EndSetup
%%Page: 1 1
%%BeginPageSetup
%%PageBoundingBox: 17 0 367 384
%%EndPageSetup
q 17 0 350 384 rectclip
1 0 0 -1 0 384 cm q
0.976471 0.984314 0.988235 rg
203.777 240.504 m 208.375 245.668 215.215 248.961 222.844 248.973 c 236.59
 249 247.68 238.387 247.609 225.27 c 247.539 212.367 236.699 201.855 223.262
 201.488 c 224.012 197.207 224.402 192.809 224.402 188.324 c 224.402 105.047
 l 224.402 62.871 189.895 28.363 147.719 28.363 c 120.16 28.363 l 77.984
 28.363 43.477 62.871 43.477 105.047 c 43.477 188.324 l 43.477 192.812 43.871
 197.207 44.621 201.488 c 31.227 201.906 20.438 212.398 20.371 225.27 c 
20.297 238.387 31.387 249 45.137 248.973 c 52.738 248.961 59.559 245.691
 64.152 240.555 c 75.297 252.496 90.184 260.898 106.891 263.848 c 106.922
 300.336 l 62.059 308.676 34.207 344.703 34.207 380.723 c 133.988 380.734
 l 233.773 380.723 l 233.773 344.719 205.949 308.711 161.125 300.348 c 161.094
 263.828 l 177.785 260.863 192.652 252.445 203.777 240.504 c h
203.777 240.504 m f
0.913725 0.760784 0.470588 rg
168.254 301.969 m 168.254 301.969 170.742 326.148 134.355 326.148 c 97.965
 326.148 100.227 301.969 100.227 301.969 c 57.961 311.781 34.207 345.902
 34.207 380.723 c 133.988 380.738 l 233.773 380.723 l 233.773 345.902 210.516
 311.785 168.254 301.969 c h
168.254 301.969 m f
0.917647 0.658824 0.584314 rg
120.266 210.891 m 124.859 212.289 129.688 212.992 134.52 212.992 c 139.352
 212.992 144.18 212.285 148.773 210.891 c 146.645 205.016 141.078 200.812
 134.523 200.812 c 127.965 200.812 122.398 205.016 120.266 210.891 c h
120.266 210.891 m f
0.913725 0.760784 0.470588 rg
211.004 61.031 m 212.734 61.031 l 208.156 28.367 179.918 3.016 146.043 
3.016 c 121.84 3.016 l 87.965 3.016 59.727 28.367 55.145 61.031 c 56.914
 61.031 l 56.18 61.59 55.773 62.188 55.773 62.828 c 55.773 71.746 62.129
 81.633 133.98 81.633 c 205.832 81.633 212.184 71.746 212.184 62.828 c 212.184
 62.188 211.766 61.59 211.004 61.031 c h
211.004 61.031 m f
0.917647 0.658824 0.584314 rg
353.848 278.02 m 252.117 278.02 l 246.715 278.02 242.332 282.398 242.332
 287.801 c 242.332 320.406 l 242.332 325.809 246.711 330.188 252.117 330.188
 c 287.984 330.188 l 287.984 380.984 l 317.98 380.984 l 317.98 330.188 l
 353.848 330.188 l 359.25 330.188 363.629 325.809 363.629 320.406 c 363.629
 287.801 l 363.629 282.398 359.25 278.02 353.848 278.02 c h
353.848 278.02 m f
0.976471 0.984314 0.988235 rg
169.996 366.082 m 149.891 366.082 l 147.824 366.082 146.148 364.406 146.148
 362.34 c 146.148 355.328 l 146.148 353.262 147.824 351.586 149.891 351.586
 c 169.996 351.586 l 172.059 351.586 173.734 353.262 173.734 355.328 c 173.734
 362.34 l 173.734 364.406 172.059 366.082 169.996 366.082 c h
169.996 366.082 m f
0.917647 0.658824 0.584314 rg
159.547 271.027 m 159.105 270.07 158.148 269.406 157.027 269.406 c 155.496
 269.406 154.25 270.648 154.25 272.184 c 154.25 273.719 155.496 274.965 
157.027 274.965 c 158.148 274.965 159.105 274.297 159.547 273.344 c h
159.547 271.027 m f
136.336 272.184 m 136.336 273.719 137.582 274.965 139.117 274.965 c 140.648
 274.965 141.895 273.719 141.895 272.184 c 141.895 270.648 140.648 269.406
 139.117 269.406 c 137.582 269.406 136.336 270.648 136.336 272.184 c h
136.336 272.184 m f
129.82 278.699 m 128.285 278.699 127.043 279.945 127.043 281.48 c 127.043
 283.012 128.285 284.258 129.82 284.258 c 131.355 284.258 132.602 283.012
 132.602 281.48 c 132.602 279.945 131.355 278.699 129.82 278.699 c h
129.82 278.699 m f
118.422 272.184 m 118.422 273.719 119.668 274.965 121.203 274.965 c 122.738
 274.965 123.98 273.719 123.98 272.184 c 123.98 270.648 122.738 269.406 
121.203 269.406 c 119.668 269.406 118.422 270.648 118.422 272.184 c h
118.422 272.184 m f
111.906 278.684 m 110.371 278.684 109.125 279.93 109.125 281.465 c 109.125
 282.996 110.371 284.242 111.906 284.242 c 113.438 284.242 114.684 282.996
 114.684 281.465 c 114.684 279.93 113.438 278.684 111.906 278.684 c h
111.906 278.684 m f
147.738 278.684 m 146.203 278.684 144.961 279.93 144.961 281.465 c 144.961
 282.996 146.203 284.242 147.738 284.242 c 149.273 284.242 150.516 282.996
 150.516 281.465 c 150.516 279.93 149.273 278.684 147.738 278.684 c h
147.738 278.684 m f
0.976471 0.984314 0.988235 rg
359.074 290.355 m 357.715 290.355 356.609 291.457 356.609 292.82 c 356.609
 294.18 357.715 295.285 359.074 295.285 c 360.438 295.285 361.539 294.18
 361.539 292.82 c 361.539 291.457 360.438 290.355 359.074 290.355 c h
359.074 290.355 m f
359.074 306.246 m 357.715 306.246 356.609 307.348 356.609 308.711 c 356.609
 310.074 357.715 311.176 359.074 311.176 c 360.438 311.176 361.539 310.07
 361.539 308.711 c 361.539 307.348 360.438 306.246 359.074 306.246 c h
359.074 306.246 m f
361.539 324.602 m 361.539 325.965 360.438 327.066 359.074 327.066 c 357.715
 327.066 356.609 325.965 356.609 324.602 c 356.609 323.238 357.715 322.137
 359.074 322.137 c 360.438 322.137 361.539 323.238 361.539 324.602 c h
361.539 324.602 m f
351.43 318.82 m 352.789 318.82 353.895 317.719 353.895 316.355 c 353.895
 314.996 352.789 313.891 351.43 313.891 c 350.066 313.891 348.965 314.996
 348.965 316.355 c 348.965 317.719 350.066 318.82 351.43 318.82 c h
351.43 318.82 m f
345.648 324.602 m 345.648 325.965 344.547 327.066 343.184 327.066 c 341.824
 327.066 340.719 325.965 340.719 324.602 c 340.719 323.238 341.824 322.137
 343.184 322.137 c 344.547 322.137 345.648 323.238 345.648 324.602 c h
345.648 324.602 m f
329.758 324.602 m 329.758 325.965 328.652 327.066 327.293 327.066 c 325.93
 327.066 324.828 325.965 324.828 324.602 c 324.828 323.238 325.93 322.137
 327.293 322.137 c 328.652 322.137 329.758 323.238 329.758 324.602 c h
329.758 324.602 m f
308.938 324.602 m 308.938 325.965 310.039 327.066 311.402 327.066 c 312.762
 327.066 313.867 325.965 313.867 324.602 c 313.867 323.242 312.762 322.137
 311.402 322.137 c 310.039 322.137 308.938 323.242 308.938 324.602 c h
308.938 324.602 m f
297.977 324.602 m 297.977 325.965 296.871 327.066 295.512 327.066 c 294.148
 327.066 293.047 325.965 293.047 324.602 c 293.047 323.238 294.148 322.137
 295.512 322.137 c 296.871 322.137 297.977 323.238 297.977 324.602 c h
297.977 324.602 m f
277.152 324.602 m 277.152 325.965 278.258 327.066 279.621 327.066 c 280.98
 327.066 282.086 325.965 282.086 324.602 c 282.086 323.242 280.98 322.137
 279.621 322.137 c 278.258 322.137 277.152 323.242 277.152 324.602 c h
277.152 324.602 m f
266.191 324.602 m 266.191 325.965 265.09 327.066 263.727 327.066 c 262.367
 327.066 261.262 325.965 261.262 324.602 c 261.262 323.238 262.367 322.137
 263.727 322.137 c 265.09 322.137 266.191 323.238 266.191 324.602 c h
266.191 324.602 m f
247.836 322.137 m 246.477 322.137 245.371 323.242 245.371 324.602 c 245.371
 325.965 246.477 327.066 247.836 327.066 c 249.199 327.066 250.301 325.965
 250.301 324.602 c 250.301 323.242 249.199 322.137 247.836 322.137 c h
247.836 322.137 m f
351.395 282.121 m 350.035 282.121 348.93 283.227 348.93 284.586 c 348.93
 285.949 350.035 287.051 351.395 287.051 c 352.758 287.051 353.859 285.949
 353.859 284.586 c 353.859 283.227 352.758 282.121 351.395 282.121 c h
351.395 282.121 m f
351.395 298.035 m 350.035 298.035 348.93 299.141 348.93 300.5 c 348.93 
301.863 350.035 302.965 351.395 302.965 c 352.758 302.965 353.859 301.863
 353.859 300.5 c 353.859 299.141 352.758 298.035 351.395 298.035 c h
351.395 298.035 m f
335.48 313.949 m 334.117 313.949 333.016 315.055 333.016 316.414 c 333.016
 317.777 334.117 318.883 335.48 318.883 c 336.84 318.883 337.945 317.777
 337.945 316.414 c 337.945 315.055 336.844 313.949 335.48 313.949 c h
335.48 313.949 m f
319.656 313.949 m 318.297 313.949 317.191 315.055 317.191 316.414 c 317.191
 317.777 318.297 318.883 319.656 318.883 c 321.02 318.883 322.121 317.777
 322.121 316.414 c 322.121 315.055 321.02 313.949 319.656 313.949 c h
319.656 313.949 m f
303.836 313.949 m 302.473 313.949 301.371 315.055 301.371 316.414 c 301.371
 317.777 302.473 318.883 303.836 318.883 c 305.195 318.883 306.301 317.777
 306.301 316.414 c 306.301 315.055 305.195 313.949 303.836 313.949 c h
303.836 313.949 m f
288.012 313.949 m 286.648 313.949 285.547 315.055 285.547 316.414 c 285.547
 317.777 286.648 318.883 288.012 318.883 c 289.371 318.883 290.477 317.777
 290.477 316.414 c 290.477 315.055 289.371 313.949 288.012 313.949 c h
288.012 313.949 m f
272.188 313.949 m 270.828 313.949 269.723 315.055 269.723 316.414 c 269.723
 317.777 270.828 318.883 272.188 318.883 c 273.551 318.883 274.652 317.777
 274.652 316.414 c 274.652 315.055 273.551 313.949 272.188 313.949 c h
272.188 313.949 m f
256.363 313.949 m 255.004 313.949 253.902 315.055 253.902 316.414 c 253.902
 317.777 255.004 318.883 256.363 318.883 c 257.727 318.883 258.832 317.777
 258.832 316.414 c 258.832 315.055 257.727 313.949 256.363 313.949 c h
256.363 313.949 m f
0.192157 0.215686 0.239216 rg
168.145 153.754 m 163.188 153.605 159.039 157.727 158.879 162.961 c 158.719
 168.195 162.609 172.559 167.57 172.711 c 172.527 172.863 176.676 168.742
 176.836 163.508 c 176.996 158.273 173.105 153.906 168.145 153.754 c h
168.145 153.754 m f
100.699 153.754 m 95.742 153.605 91.594 157.727 91.434 162.961 c 91.277
 168.195 95.164 172.559 100.125 172.711 c 105.082 172.863 109.23 168.742
 109.391 163.508 c 109.551 158.273 105.66 153.906 100.699 153.754 c h
100.699 153.754 m f
157.977 138.109 m 158.023 138.059 162.879 133.066 167.98 133.234 c 173.09
 133.426 177.477 138.832 177.574 138.953 c 178.172 139.707 179.055 140.102
 179.945 140.102 c 180.598 140.102 181.254 139.891 181.809 139.453 c 183.117
 138.426 183.344 136.527 182.316 135.219 c 182.066 134.906 176.16 127.504
 168.207 127.207 c 160.254 126.918 153.84 133.703 153.566 133.992 c 152.43
 135.211 152.496 137.117 153.715 138.258 c 154.93 139.391 156.84 139.324
 157.977 138.109 c h
157.977 138.109 m f
110.129 138.953 m 110.727 139.707 111.609 140.098 112.5 140.098 c 113.152
 140.098 113.809 139.887 114.363 139.453 c 115.672 138.422 115.898 136.527
 114.871 135.219 c 114.621 134.902 108.711 127.504 100.762 127.207 c 92.836
 126.91 86.391 133.703 86.121 133.992 c 84.988 135.207 85.055 137.109 86.266
 138.246 c 87.477 139.387 89.383 139.324 90.527 138.117 c 90.574 138.066
 95.371 133.027 100.535 133.234 c 105.645 133.426 110.035 138.832 110.129
 138.953 c h
110.129 138.953 m f
136.047 149.508 m 138.555 161.598 140.918 173.02 135.094 177.812 c 133.809
 178.871 133.625 180.773 134.684 182.059 c 135.277 182.785 136.145 183.16
 137.012 183.16 c 137.688 183.16 138.367 182.934 138.93 182.473 c 147.566
 175.359 144.84 162.211 141.957 148.285 c 140.953 143.441 139.914 138.438
 139.371 133.684 c 139.184 132.027 137.68 130.828 136.031 131.031 c 134.375
 131.219 133.188 132.715 133.379 134.371 c 133.953 139.391 135.016 144.535
 136.047 149.508 c h
136.047 149.508 m f
123.07 181.648 m 123.504 181.863 123.965 181.965 124.418 181.965 c 125.523
 181.965 126.59 181.355 127.117 180.297 c 128.379 177.773 l 129.125 176.281
 128.523 174.473 127.031 173.727 c 125.543 172.98 123.73 173.586 122.984
 175.074 c 121.723 177.598 l 120.977 179.09 121.582 180.902 123.07 181.648
 c h
123.07 181.648 m f
152.25 212.914 m 155.172 211.844 157.5 209.703 158.812 206.879 c 160.121
 204.059 160.254 200.898 159.184 197.977 c 158.113 195.055 155.973 192.723
 153.148 191.414 c 150.328 190.105 147.168 189.973 144.246 191.043 c 138.156
 193.273 130.887 193.273 124.797 191.043 c 118.766 188.836 112.066 191.945
 109.859 197.973 c 108.789 200.895 108.922 204.059 110.23 206.879 c 111.539
 209.699 113.871 211.844 116.793 212.914 c 122.402 214.969 128.367 216.008
 134.52 216.008 c 140.672 216.008 146.637 214.969 152.25 212.914 c h
115.703 204.34 m 115.074 202.98 115.008 201.457 115.523 200.047 c 116.355
 197.777 118.512 196.367 120.801 196.367 c 121.438 196.367 122.09 196.477
 122.723 196.707 c 130.113 199.41 138.934 199.414 146.32 196.707 c 147.727
 196.195 149.25 196.258 150.609 196.887 c 151.969 197.52 153 198.641 153.516
 200.051 c 154.031 201.457 153.969 202.98 153.336 204.34 c 152.707 205.699
 151.582 206.73 150.176 207.246 c 145.23 209.059 139.961 209.977 134.52 
209.977 c 129.078 209.977 123.812 209.059 118.863 207.246 c 117.457 206.73
 116.336 205.699 115.703 204.34 c h
115.703 204.34 m f
353.848 275 m 252.117 275 l 245.059 275 239.316 280.742 239.316 287.801
 c 239.316 320.406 l 239.316 327.465 245.059 333.203 252.117 333.203 c 284.965
 333.203 l 284.965 380.984 l 284.965 382.648 286.316 384 287.984 384 c 289.648
 384 291 382.648 291 380.984 c 291 333.203 l 314.965 333.203 l 314.965 380.984
 l 314.965 382.648 316.316 384 317.98 384 c 319.645 384 320.996 382.648 
320.996 380.984 c 320.996 333.203 l 353.848 333.203 l 360.906 333.203 366.648
 327.465 366.648 320.406 c 366.648 287.801 l 366.648 280.742 360.906 275
 353.848 275 c h
360.613 320.406 m 360.613 324.137 357.578 327.172 353.848 327.172 c 252.117
 327.172 l 248.387 327.172 245.352 324.137 245.352 320.406 c 245.352 287.801
 l 245.352 284.07 248.387 281.035 252.117 281.035 c 353.848 281.035 l 357.578
 281.035 360.613 284.07 360.613 287.801 c h
360.613 320.406 m f
222.836 251.992 m 222.895 251.992 l 230.555 251.992 237.676 249.074 242.953
 243.781 c 247.938 238.777 250.664 232.199 250.625 225.254 c 250.559 212.824
 241.617 202.344 229.605 199.332 c 230.445 198.043 230.957 196.516 231.012
 194.859 c 231.043 193.949 231.137 109.406 231.137 109.406 c 231.137 91.504
 225.414 74.922 215.727 61.359 c 215.754 61.113 215.758 60.863 215.723 60.613
 c 210.879 26.059 180.922 0 146.043 0 c 121.84 0 l 86.961 0 57.004 26.059
 52.156 60.613 c 52.121 60.867 52.129 61.117 52.156 61.367 c 42.469 74.926
 36.75 91.508 36.75 109.402 c 36.75 109.402 36.684 193.703 36.703 194.492
 c 36.758 196.285 37.348 197.953 38.32 199.348 c 26.336 202.379 17.422 212.848
 17.355 225.254 c 17.316 232.199 20.039 238.777 25.023 243.781 c 30.305 
249.078 37.426 251.992 45.086 251.992 c 45.141 251.992 l 52.418 251.977 
59.059 249.273 64.055 244.871 c 74.789 255.523 88.531 263.148 103.879 266.348
 c 103.902 297.859 l 101.914 298.281 99.961 298.77 98.023 299.297 c 97.977
 298.402 97.551 297.57 96.828 297.035 c 96.066 296.465 95.082 296.289 94.172
 296.559 c 84.66 299.367 77.656 302.242 71.469 305.875 c 70.547 306.418 
69.98 307.406 69.98 308.477 c 69.98 311.898 l 63.109 316.457 56.887 321.895
 51.457 328.18 c 38.387 343.309 31.191 361.969 31.191 380.723 c 31.191 382.391
 32.539 383.738 34.207 383.738 c 233.773 383.738 l 235.438 383.738 236.789
 382.391 236.789 380.723 c 236.789 361.98 229.598 343.328 216.543 328.203
 c 211.23 322.051 205.156 316.707 198.461 312.203 c 198.461 308.477 l 198.461
 307.406 197.895 306.414 196.973 305.875 c 189.879 301.707 182.219 298.395
 174.207 296.031 c 173.293 295.762 172.309 295.938 171.547 296.508 c 170.785
 297.078 170.336 297.973 170.336 298.922 c 170.336 299.398 l 168.297 298.836
 166.238 298.316 164.141 297.875 c 164.113 266.324 l 179.441 263.109 193.16
 255.477 203.879 244.824 c 208.879 249.25 215.539 251.977 222.836 251.992
 c h
69.984 377.711 m 37.293 377.707 l 38.273 356.801 49.371 334.293 69.984 
319.191 c h
198.461 319.527 m 218.773 334.629 229.715 356.961 230.684 377.707 c 198.461
 377.711 l h
244.594 225.285 m 244.621 230.613 242.523 235.668 238.68 239.523 c 234.543
 243.672 228.938 245.957 222.895 245.957 c 222.852 245.957 l 217.133 245.945
 211.914 243.844 207.992 240.422 c 209.242 238.977 210.441 237.484 211.59
 235.953 c 211.766 235.859 211.934 235.754 212.094 235.625 c 219.824 229.395
 233.883 225.707 234.027 225.672 c 235.637 225.254 236.609 223.609 236.191
 221.996 c 235.773 220.383 234.133 219.41 232.52 219.828 c 232.105 219.934
 225.496 221.668 218.539 224.863 c 221.789 218.586 224.23 211.824 225.723
 204.719 c 236.32 206.188 244.535 214.852 244.594 225.285 c h
121.84 6.031 m 146.043 6.031 l 176.297 6.031 202.488 27.484 208.875 56.668
 c 206.383 55.777 203.379 55.125 200.277 54.574 c 193.566 53.375 184.25 
52.379 172.586 51.605 c 152.832 50.293 132.82 50.074 132.559 50.074 c 132.363
 50.074 113.047 50.293 93.977 51.605 c 82.711 52.379 73.711 53.379 67.227
 54.578 c 64.27 55.125 61.41 55.762 59.016 56.629 c 65.414 27.469 91.594
 6.031 121.84 6.031 c h
97.117 57.441 m 115.07 56.305 132.449 56.109 132.559 56.105 c 132.738 56.109
 150.766 56.305 169.383 57.445 c 201.355 59.402 207.871 62.41 209.168 63.395
 c 209.137 66.398 208.625 69.73 200.09 72.727 c 188.805 76.688 167.18 78.613
 133.98 78.613 c 100.781 78.613 79.156 76.688 67.871 72.727 c 59.312 69.723
 58.82 66.379 58.793 63.371 c 59.945 62.508 66.148 59.406 97.117 57.441 
c h
45.129 245.957 m 39.055 245.938 33.445 243.684 29.297 239.523 c 25.457 
235.668 23.359 230.613 23.387 225.285 c 23.441 214.883 31.609 206.234 42.164
 204.727 c 43.645 211.77 46.055 218.477 49.262 224.703 c 42.43 221.609 36.027
 219.934 35.621 219.828 c 34.008 219.41 32.363 220.383 31.949 221.996 c 
31.531 223.609 32.5 225.254 34.113 225.672 c 34.254 225.707 48.316 229.395
 56.047 235.625 c 56.055 235.633 56.062 235.637 56.074 235.645 c 57.301 
237.301 58.586 238.91 59.934 240.465 c 56.016 243.859 50.82 245.949 45.129
 245.957 c h
173.734 355.328 m 173.734 362.34 l 173.734 364.406 172.059 366.082 169.996
 366.082 c 149.891 366.082 l 147.824 366.082 146.148 364.406 146.148 362.34
 c 146.148 355.328 l 146.148 353.262 147.824 351.586 149.891 351.586 c 169.996
 351.586 l 172.059 351.586 173.734 353.262 173.734 355.328 c h
170.336 337.547 m 98.102 337.547 l 98.059 310.195 l 102.469 321.375 116.031
 328.652 134.023 328.652 c 152.508 328.652 166.32 320.973 170.336 309.273
 c h
165.34 304.336 m 163.648 316.875 148.324 322.617 134.023 322.617 c 119.719
 322.617 104.391 316.871 102.707 304.32 c 104.273 303.949 105.855 303.605
 107.477 303.305 c 108.906 303.039 109.941 301.789 109.941 300.336 c 109.914
 267.367 l 113.27 267.801 116.691 268.023 120.164 268.023 c 147.723 268.023
 l 151.23 268.023 154.688 267.793 158.082 267.352 c 158.109 300.352 l 158.109
 301.805 159.145 303.051 160.57 303.316 c 162.191 303.617 163.777 303.965
 165.34 304.336 c h
147.723 261.992 m 120.164 261.992 l 84.395 261.992 54.504 236.367 47.871
 202.512 c 47.91 202.477 47.953 202.453 47.988 202.418 c 48.555 201.844 
48.867 201.07 48.859 200.266 c 48.852 199.445 48.555 117.801 85.938 90.965
 c 88.188 89.352 95.531 97.859 99.918 102.945 c 106.617 110.715 113.5 118.695
 120.09 118.695 c 121.625 118.695 123.148 118.262 124.645 117.289 c 128.797
 114.602 129.91 110.391 129.516 106.066 c 135.918 111.215 144.125 115.883
 149.902 112.238 c 153.199 110.16 154.672 107.09 155.02 103.738 c 158.961
 108.047 163.746 112.043 168.578 113.109 c 171.648 113.789 174.59 113.25
 177.082 111.551 c 187.184 104.664 181.559 94.566 178.77 90.082 c 181.613
 90.484 186.293 92.266 188.082 93.695 c 222.172 120.965 219.258 199.375 
219.227 200.164 c 219.191 200.977 219.488 201.766 220.043 202.355 c 213.469
 236.289 183.543 261.992 147.723 261.992 c h
147.723 261.992 m f
Q Q
showpage
%%Trailer
end
%%EOF
