%!PS-Adobe-3.0 EPSF-3.0
%%Creator: cairo 1.16.0 (https://cairographics.org)
%%CreationDate: Fri Feb 12 12:12:55 2021
%%Pages: 1
%%DocumentData: Clean7Bit
%%LanguageLevel: 2
%%BoundingBox: 1 0 383 384
%%EndComments
%%BeginProlog
50 dict begin
/q { gsave } bind def
/Q { grestore } bind def
/cm { 6 array astore concat } bind def
/w { setlinewidth } bind def
/J { setlinecap } bind def
/j { setlinejoin } bind def
/M { setmiterlimit } bind def
/d { setdash } bind def
/m { moveto } bind def
/l { lineto } bind def
/c { curveto } bind def
/h { closepath } bind def
/re { exch dup neg 3 1 roll 5 3 roll moveto 0 rlineto
      0 exch rlineto 0 rlineto closepath } bind def
/S { stroke } bind def
/f { fill } bind def
/f* { eofill } bind def
/n { newpath } bind def
/W { clip } bind def
/W* { eoclip } bind def
/BT { } bind def
/ET { } bind def
/BDC { mark 3 1 roll /BDC pdfmark } bind def
/EMC { mark /EMC pdfmark } bind def
/cairo_store_point { /cairo_point_y exch def /cairo_point_x exch def } def
/Tj { show currentpoint cairo_store_point } bind def
/TJ {
  {
    dup
    type /stringtype eq
    { show } { -0.001 mul 0 cairo_font_matrix dtransform rmoveto } ifelse
  } forall
  currentpoint cairo_store_point
} bind def
/cairo_selectfont { cairo_font_matrix aload pop pop pop 0 0 6 array astore
    cairo_font exch selectfont cairo_point_x cairo_point_y moveto } bind def
/Tf { pop /cairo_font exch def /cairo_font_matrix where
      { pop cairo_selectfont } if } bind def
/Td { matrix translate cairo_font_matrix matrix concatmatrix dup
      /cairo_font_matrix exch def dup 4 get exch 5 get cairo_store_point
      /cairo_font where { pop cairo_selectfont } if } bind def
/Tm { 2 copy 8 2 roll 6 array astore /cairo_font_matrix exch def
      cairo_store_point /cairo_font where { pop cairo_selectfont } if } bind def
/g { setgray } bind def
/rg { setrgbcolor } bind def
/d1 { setcachedevice } bind def
/cairo_data_source {
  CairoDataIndex CairoData length lt
    { CairoData CairoDataIndex get /CairoDataIndex CairoDataIndex 1 add def }
    { () } ifelse
} def
/cairo_flush_ascii85_file { cairo_ascii85_file status { cairo_ascii85_file flushfile } if } def
/cairo_image { image cairo_flush_ascii85_file } def
/cairo_imagemask { imagemask cairo_flush_ascii85_file } def
%%EndProlog
%%BeginSetup
%%EndSetup
%%Page: 1 1
%%BeginPageSetup
%%PageBoundingBox: 1 0 383 384
%%EndPageSetup
q 1 0 382 384 rectclip
1 0 0 -1 0 384 cm q
0.913725 0.760784 0.470588 rg
288.793 35.703 m 332.332 79.242 332.332 149.832 288.793 193.371 c 245.254
 236.91 174.66 236.91 131.121 193.371 c 87.586 149.832 87.586 79.242 131.121
 35.703 c 174.66 -7.836 245.254 -7.836 288.793 35.703 c h
288.793 35.703 m f
1 g
4.172 257.957 m 16.555 243.219 l 16.555 243.219 12.199 229.074 17.281 212.094
 c 23.965 189.762 40.355 173.918 72.191 169.91 c 104.031 165.902 150.512
 167.648 169.691 168.562 c 188.496 169.457 208.293 173.25 208.352 194.152
 c 208.402 212.914 193.73 219.422 167.504 219.426 c 167.504 219.426 130.004
 220.527 126.336 222.434 c 103.254 234.445 148.312 252.777 158.613 255.984
 c 176.785 261.645 232.719 273.375 244.211 271.348 c 255.703 269.324 342.586
 213.883 342.586 213.883 c 357.906 205.91 369.055 216.113 374.949 225.215
 c 380.844 234.312 383.617 250.531 369.531 261.102 c 369.531 261.102 289.074
 322.449 261.461 329.512 c 251.262 332.121 153.539 332.496 107.77 326.578
 c 51.758 380.977 l 4.145 380.781 l h
4.172 257.957 m f
0.976471 0.984314 0.988235 rg
306.242 60.926 m 304.969 60.926 303.934 61.961 303.934 63.234 c 303.934
 64.508 304.969 65.543 306.242 65.543 c 307.516 65.543 308.551 64.508 308.551
 63.234 c 308.551 61.961 307.516 60.926 306.242 60.926 c h
306.242 60.926 m f
306.242 75.805 m 304.969 75.805 303.934 76.836 303.934 78.109 c 303.934
 79.387 304.969 80.418 306.242 80.418 c 307.516 80.418 308.551 79.387 308.551
 78.109 c 308.551 76.836 307.516 75.805 306.242 75.805 c h
306.242 75.805 m f
313.961 82.961 m 312.684 82.961 311.652 83.996 311.652 85.27 c 311.652 
86.543 312.684 87.578 313.961 87.578 c 315.234 87.578 316.266 86.543 316.266
 85.27 c 316.266 83.996 315.234 82.961 313.961 82.961 c h
313.961 82.961 m f
306.242 90.68 m 304.969 90.68 303.934 91.715 303.934 92.988 c 303.934 94.262
 304.969 95.297 306.242 95.297 c 307.516 95.297 308.551 94.262 308.551 92.988
 c 308.551 91.715 307.516 90.68 306.242 90.68 c h
306.242 90.68 m f
313.961 97.84 m 312.684 97.84 311.652 98.871 311.652 100.145 c 311.652 
101.422 312.684 102.453 313.961 102.453 c 315.234 102.453 316.266 101.422
 316.266 100.145 c 316.266 98.871 315.234 97.84 313.961 97.84 c h
313.961 97.84 m f
306.242 105.555 m 304.969 105.555 303.934 106.59 303.934 107.863 c 303.934
 109.137 304.969 110.172 306.242 110.172 c 307.516 110.172 308.551 109.141
 308.551 107.863 c 308.551 106.59 307.516 105.555 306.242 105.555 c h
306.242 105.555 m f
313.961 112.715 m 312.684 112.715 311.652 113.746 311.652 115.023 c 311.652
 116.297 312.684 117.328 313.961 117.328 c 315.234 117.328 316.266 116.297
 316.266 115.023 c 316.266 113.746 315.234 112.715 313.961 112.715 c h
313.961 112.715 m f
306.242 120.434 m 304.969 120.434 303.934 121.465 303.934 122.742 c 303.934
 124.016 304.969 125.047 306.242 125.047 c 307.516 125.047 308.551 124.016
 308.551 122.742 c 308.551 121.465 307.516 120.434 306.242 120.434 c h
306.242 120.434 m f
313.961 127.59 m 312.684 127.59 311.652 128.625 311.652 129.898 c 311.652
 131.172 312.684 132.207 313.961 132.207 c 315.234 132.207 316.266 131.172
 316.266 129.898 c 316.266 128.625 315.234 127.59 313.961 127.59 c h
313.961 127.59 m f
306.242 135.309 m 304.969 135.309 303.934 136.344 303.934 137.617 c 303.934
 138.891 304.969 139.926 306.242 139.926 c 307.516 139.926 308.551 138.891
 308.551 137.617 c 308.551 136.344 307.516 135.309 306.242 135.309 c h
306.242 135.309 m f
313.961 142.469 m 312.684 142.469 311.652 143.5 311.652 144.777 c 311.652
 146.051 312.684 147.082 313.961 147.082 c 315.234 147.082 316.266 146.051
 316.266 144.777 c 316.266 143.5 315.234 142.469 313.961 142.469 c h
313.961 142.469 m f
306.242 150.188 m 304.969 150.188 303.934 151.219 303.934 152.492 c 303.934
 153.77 304.969 154.801 306.242 154.801 c 307.516 154.801 308.551 153.77
 308.551 152.492 c 308.551 151.219 307.516 150.188 306.242 150.188 c h
306.242 150.188 m f
299.082 53.207 m 297.809 53.207 296.777 54.242 296.777 55.516 c 296.777
 56.789 297.809 57.824 299.082 57.824 c 300.359 57.824 301.391 56.789 301.391
 55.516 c 301.391 54.242 300.359 53.207 299.082 53.207 c h
299.082 53.207 m f
299.082 127.59 m 297.809 127.59 296.777 128.625 296.777 129.898 c 296.777
 131.172 297.809 132.207 299.082 132.207 c 300.359 132.207 301.391 131.172
 301.391 129.898 c 301.391 128.625 300.359 127.59 299.082 127.59 c h
299.082 127.59 m f
299.082 142.469 m 297.809 142.469 296.777 143.5 296.777 144.777 c 296.777
 146.051 297.809 147.082 299.082 147.082 c 300.359 147.082 301.391 146.051
 301.391 144.777 c 301.391 143.5 300.359 142.469 299.082 142.469 c h
299.082 142.469 m f
293.672 152.492 m 293.672 153.77 292.641 154.801 291.367 154.801 c 290.09
 154.801 289.059 153.77 289.059 152.492 c 289.059 151.219 290.09 150.188
 291.367 150.188 c 292.641 150.188 293.672 151.219 293.672 152.492 c h
293.672 152.492 m f
299.082 157.344 m 297.809 157.344 296.777 158.375 296.777 159.652 c 296.777
 160.926 297.809 161.961 299.082 161.961 c 300.359 161.961 301.391 160.926
 301.391 159.652 c 301.391 158.379 300.359 157.344 299.082 157.344 c h
299.082 157.344 m f
293.672 167.371 m 293.672 168.645 292.641 169.68 291.367 169.68 c 290.09
 169.68 289.059 168.645 289.059 167.371 c 289.059 166.094 290.09 165.062
 291.367 165.062 c 292.641 165.062 293.672 166.094 293.672 167.371 c h
293.672 167.371 m f
299.082 172.223 m 297.809 172.223 296.777 173.254 296.777 174.527 c 296.777
 175.801 297.809 176.836 299.082 176.836 c 300.359 176.836 301.391 175.805
 301.391 174.527 c 301.391 173.254 300.359 172.223 299.082 172.223 c h
299.082 172.223 m f
291.367 184.555 m 292.641 184.555 293.672 183.52 293.672 182.246 c 293.672
 180.973 292.641 179.938 291.367 179.938 c 290.09 179.938 289.059 180.973
 289.059 182.246 c 289.059 183.52 290.09 184.555 291.367 184.555 c h
291.367 184.555 m f
284.207 157.344 m 282.934 157.344 281.898 158.375 281.898 159.652 c 281.898
 160.926 282.934 161.961 284.207 161.961 c 285.48 161.961 286.516 160.926
 286.516 159.652 c 286.516 158.379 285.48 157.344 284.207 157.344 c h
284.207 157.344 m f
276.488 165.062 m 275.215 165.062 274.18 166.094 274.18 167.371 c 274.18
 168.645 275.215 169.68 276.488 169.68 c 277.762 169.68 278.797 168.645 
278.797 167.371 c 278.797 166.098 277.762 165.062 276.488 165.062 c h
276.488 165.062 m f
284.207 172.223 m 282.934 172.223 281.898 173.254 281.898 174.527 c 281.898
 175.801 282.934 176.836 284.207 176.836 c 285.48 176.836 286.516 175.805
 286.516 174.527 c 286.516 173.254 285.48 172.223 284.207 172.223 c h
284.207 172.223 m f
276.488 179.938 m 275.215 179.938 274.18 180.973 274.18 182.246 c 274.18
 183.52 275.215 184.555 276.488 184.555 c 277.762 184.555 278.797 183.52
 278.797 182.246 c 278.797 180.973 277.762 179.938 276.488 179.938 c h
276.488 179.938 m f
284.207 187.098 m 282.934 187.098 281.898 188.129 281.898 189.406 c 281.898
 190.68 282.934 191.711 284.207 191.711 c 285.48 191.711 286.516 190.68 
286.516 189.406 c 286.516 188.129 285.48 187.098 284.207 187.098 c h
284.207 187.098 m f
276.488 194.816 m 275.215 194.816 274.18 195.848 274.18 197.125 c 274.18
 198.398 275.215 199.43 276.488 199.43 c 277.762 199.43 278.797 198.398 
278.797 197.125 c 278.797 195.848 277.762 194.816 276.488 194.816 c h
276.488 194.816 m f
269.332 172.223 m 268.055 172.223 267.023 173.254 267.023 174.527 c 267.023
 175.801 268.055 176.836 269.332 176.836 c 270.605 176.836 271.637 175.805
 271.637 174.527 c 271.637 173.254 270.605 172.223 269.332 172.223 c h
269.332 172.223 m f
261.613 179.938 m 260.336 179.938 259.305 180.973 259.305 182.246 c 259.305
 183.52 260.336 184.555 261.613 184.555 c 262.887 184.555 263.918 183.52
 263.918 182.246 c 263.918 180.973 262.887 179.938 261.613 179.938 c h
261.613 179.938 m f
269.332 187.098 m 268.055 187.098 267.023 188.129 267.023 189.406 c 267.023
 190.68 268.055 191.711 269.332 191.711 c 270.605 191.711 271.637 190.68
 271.637 189.406 c 271.637 188.129 270.605 187.098 269.332 187.098 c h
269.332 187.098 m f
263.918 197.125 m 263.918 198.398 262.887 199.43 261.613 199.43 c 260.336
 199.43 259.305 198.398 259.305 197.125 c 259.305 195.848 260.336 194.816
 261.613 194.816 c 262.887 194.816 263.918 195.848 263.918 197.125 c h
263.918 197.125 m f
269.332 206.59 m 270.605 206.59 271.637 205.555 271.637 204.281 c 271.637
 203.008 270.605 201.973 269.332 201.973 c 268.055 201.973 267.023 203.008
 267.023 204.281 c 267.023 205.555 268.055 206.59 269.332 206.59 c h
269.332 206.59 m f
254.453 187.098 m 253.18 187.098 252.145 188.129 252.145 189.406 c 252.145
 190.68 253.18 191.711 254.453 191.711 c 255.727 191.711 256.762 190.68 
256.762 189.406 c 256.762 188.129 255.727 187.098 254.453 187.098 c h
254.453 187.098 m f
246.734 194.816 m 245.461 194.816 244.43 195.848 244.43 197.125 c 244.43
 198.398 245.461 199.43 246.734 199.43 c 248.012 199.43 249.043 198.398 
249.043 197.125 c 249.043 195.848 248.012 194.816 246.734 194.816 c h
246.734 194.816 m f
254.453 201.973 m 253.18 201.973 252.145 203.008 252.145 204.281 c 252.145
 205.559 253.18 206.59 254.453 206.59 c 255.727 206.59 256.762 205.559 256.762
 204.281 c 256.762 203.008 255.727 201.973 254.453 201.973 c h
254.453 201.973 m f
246.734 209.691 m 245.461 209.691 244.43 210.727 244.43 212 c 244.43 213.273
 245.461 214.309 246.734 214.309 c 248.012 214.309 249.043 213.273 249.043
 212 c 249.043 210.727 248.012 209.691 246.734 209.691 c h
246.734 209.691 m f
239.578 201.973 m 238.305 201.973 237.27 203.008 237.27 204.281 c 237.27
 205.559 238.305 206.59 239.578 206.59 c 240.852 206.59 241.883 205.559 
241.883 204.281 c 241.883 203.008 240.852 201.973 239.578 201.973 c h
239.578 201.973 m f
231.859 209.691 m 230.586 209.691 229.551 210.727 229.551 212 c 229.551
 213.273 230.582 214.309 231.859 214.309 c 233.133 214.309 234.168 213.273
 234.168 212 c 234.168 210.727 233.133 209.691 231.859 209.691 c h
231.859 209.691 m f
239.578 216.852 m 238.305 216.852 237.27 217.883 237.27 219.156 c 237.27
 220.434 238.305 221.465 239.578 221.465 c 240.852 221.465 241.883 220.434
 241.883 219.156 c 241.883 217.883 240.852 216.852 239.578 216.852 c h
239.578 216.852 m f
227.008 204.281 m 227.008 205.555 225.977 206.59 224.699 206.59 c 223.426
 206.59 222.395 205.555 222.395 204.281 c 222.395 203.008 223.426 201.973
 224.699 201.973 c 225.977 201.973 227.008 203.008 227.008 204.281 c h
227.008 204.281 m f
214.676 212 m 214.676 213.273 215.707 214.309 216.984 214.309 c 218.258
 214.309 219.289 213.273 219.289 212 c 219.289 210.727 218.258 209.691 216.984
 209.691 c 215.707 209.691 214.676 210.727 214.676 212 c h
214.676 212 m f
224.699 216.852 m 223.426 216.852 222.395 217.883 222.395 219.156 c 222.395
 220.434 223.426 221.465 224.699 221.465 c 225.977 221.465 227.008 220.434
 227.008 219.156 c 227.008 217.883 225.977 216.852 224.699 216.852 c h
224.699 216.852 m f
207.516 204.281 m 207.516 205.555 208.551 206.59 209.824 206.59 c 211.098
 206.59 212.133 205.555 212.133 204.281 c 212.133 203.008 211.098 201.973
 209.824 201.973 c 208.551 201.973 207.516 203.008 207.516 204.281 c h
207.516 204.281 m f
212.133 219.16 m 212.133 217.883 211.098 216.852 209.824 216.852 c 208.551
 216.852 207.516 217.883 207.516 219.16 c 207.516 220.434 208.551 221.465
 209.824 221.465 c 211.098 221.465 212.133 220.434 212.133 219.16 c h
212.133 219.16 m f
194.949 216.852 m 193.672 216.852 192.641 217.883 192.641 219.156 c 192.641
 220.434 193.672 221.465 194.949 221.465 c 196.223 221.465 197.254 220.434
 197.254 219.156 c 197.254 217.883 196.223 216.852 194.949 216.852 c h
194.949 216.852 m f
293.672 48.391 m 293.672 49.664 292.637 50.695 291.363 50.695 c 290.086
 50.695 289.055 49.664 289.055 48.391 c 289.055 47.113 290.086 46.082 291.363
 46.082 c 292.637 46.082 293.672 47.113 293.672 48.391 c h
293.672 48.391 m f
301.383 70.367 m 301.383 71.641 300.352 72.676 299.074 72.676 c 297.801
 72.676 296.77 71.641 296.77 70.367 c 296.77 69.094 297.801 68.059 299.074
 68.059 c 300.352 68.059 301.383 69.094 301.383 70.367 c h
301.383 70.367 m f
301.383 115.008 m 301.383 116.285 300.352 117.316 299.074 117.316 c 297.801
 117.316 296.77 116.285 296.77 115.008 c 296.77 113.734 297.801 112.703 
299.074 112.703 c 300.352 112.703 301.383 113.734 301.383 115.008 c h
301.383 115.008 m f
291.363 135.312 m 290.09 135.312 289.055 136.348 289.055 137.621 c 289.055
 138.895 290.086 139.93 291.363 139.93 c 292.637 139.93 293.672 138.895 
293.672 137.621 c 293.672 136.348 292.637 135.312 291.363 135.312 c h
291.363 135.312 m f
234.184 197.16 m 234.184 198.438 233.148 199.469 231.875 199.469 c 230.602
 199.469 229.566 198.438 229.566 197.16 c 229.566 195.887 230.602 194.855
 231.875 194.855 c 233.148 194.855 234.184 195.887 234.184 197.16 c h
234.184 197.16 m f
0.917647 0.658824 0.584314 rg
366.848 228.074 m 365.449 228.074 364.316 229.207 364.316 230.605 c 364.316
 232.004 365.449 233.137 366.848 233.137 c 368.246 233.137 369.379 232.004
 369.379 230.605 c 369.379 229.207 368.246 228.074 366.848 228.074 c h
366.848 228.074 m f
375.316 235.926 m 373.918 235.926 372.785 237.062 372.785 238.457 c 372.785
 239.855 373.918 240.988 375.316 240.988 c 376.715 240.988 377.848 239.855
 377.848 238.457 c 377.848 237.062 376.715 235.926 375.316 235.926 c h
375.316 235.926 m f
366.848 244.395 m 365.449 244.395 364.316 245.527 364.316 246.926 c 364.316
 248.324 365.449 249.457 366.848 249.457 c 368.246 249.457 369.379 248.324
 369.379 246.926 c 369.379 245.527 368.246 244.395 366.848 244.395 c h
366.848 244.395 m f
358.996 235.926 m 357.598 235.926 356.465 237.062 356.465 238.457 c 356.465
 239.855 357.598 240.988 358.996 240.988 c 360.395 240.988 361.527 239.855
 361.527 238.457 c 361.527 237.062 360.395 235.926 358.996 235.926 c h
358.996 235.926 m f
347.996 246.926 m 347.996 248.324 349.133 249.457 350.527 249.457 c 351.926
 249.457 353.059 248.324 353.059 246.926 c 353.059 245.527 351.926 244.395
 350.527 244.395 c 349.133 244.395 347.996 245.527 347.996 246.926 c h
347.996 246.926 m f
358.996 252.246 m 357.598 252.246 356.465 253.379 356.465 254.777 c 356.465
 256.176 357.598 257.309 358.996 257.309 c 360.395 257.309 361.527 256.176
 361.527 254.777 c 361.527 253.379 360.395 252.246 358.996 252.246 c h
358.996 252.246 m f
350.531 265.777 m 351.93 265.777 353.062 264.645 353.062 263.246 c 353.062
 261.848 351.93 260.715 350.531 260.715 c 349.133 260.715 348 261.848 348
 263.246 c 347.996 264.645 349.133 265.777 350.531 265.777 c h
350.531 265.777 m f
342.676 252.246 m 341.277 252.246 340.145 253.379 340.145 254.777 c 340.145
 256.176 341.277 257.309 342.676 257.309 c 344.074 257.309 345.207 256.176
 345.207 254.777 c 345.207 253.379 344.074 252.246 342.676 252.246 c h
342.676 252.246 m f
334.211 260.715 m 332.812 260.715 331.68 261.848 331.68 263.246 c 331.68
 264.645 332.812 265.777 334.211 265.777 c 335.609 265.777 336.742 264.645
 336.742 263.246 c 336.742 261.848 335.609 260.715 334.211 260.715 c h
334.211 260.715 m f
342.676 268.566 m 341.277 268.566 340.145 269.699 340.145 271.098 c 340.145
 272.496 341.277 273.629 342.676 273.629 c 344.074 273.629 345.207 272.496
 345.207 271.098 c 345.207 269.699 344.074 268.566 342.676 268.566 c h
342.676 268.566 m f
334.211 277.031 m 332.812 277.031 331.68 278.164 331.68 279.562 c 331.68
 280.961 332.812 282.094 334.211 282.094 c 335.609 282.094 336.742 280.961
 336.742 279.562 c 336.742 278.164 335.609 277.031 334.211 277.031 c h
334.211 277.031 m f
317.891 260.715 m 316.492 260.715 315.359 261.848 315.359 263.246 c 315.359
 264.645 316.492 265.777 317.891 265.777 c 319.289 265.777 320.422 264.645
 320.422 263.246 c 320.422 261.848 319.289 260.715 317.891 260.715 c h
317.891 260.715 m f
326.359 268.566 m 324.961 268.566 323.828 269.699 323.828 271.098 c 323.828
 272.496 324.961 273.629 326.359 273.629 c 327.758 273.629 328.891 272.496
 328.891 271.098 c 328.891 269.699 327.754 268.566 326.359 268.566 c h
326.359 268.566 m f
317.891 277.031 m 316.492 277.031 315.359 278.164 315.359 279.562 c 315.359
 280.961 316.492 282.094 317.891 282.094 c 319.289 282.094 320.422 280.961
 320.422 279.562 c 320.422 278.164 319.289 277.031 317.891 277.031 c h
317.891 277.031 m f
326.359 284.883 m 324.961 284.883 323.828 286.02 323.828 287.414 c 323.828
 288.812 324.961 289.945 326.359 289.945 c 327.758 289.945 328.891 288.812
 328.891 287.414 c 328.891 286.02 327.754 284.883 326.359 284.883 c h
326.359 284.883 m f
317.891 293.352 m 316.492 293.352 315.359 294.484 315.359 295.883 c 315.359
 297.133 316.266 298.164 317.457 298.371 c 318.43 297.719 319.398 297.062
 320.367 296.406 c 320.402 296.238 320.422 296.062 320.422 295.883 c 320.422
 294.484 319.289 293.352 317.891 293.352 c h
317.891 293.352 m f
310.039 268.566 m 308.641 268.566 307.508 269.699 307.508 271.098 c 307.508
 272.496 308.641 273.629 310.039 273.629 c 311.438 273.629 312.57 272.496
 312.57 271.098 c 312.57 269.699 311.438 268.566 310.039 268.566 c h
310.039 268.566 m f
301.57 277.031 m 300.176 277.031 299.039 278.164 299.039 279.562 c 299.039
 280.961 300.176 282.094 301.57 282.094 c 302.969 282.094 304.102 280.961
 304.102 279.562 c 304.102 278.164 302.969 277.031 301.57 277.031 c h
301.57 277.031 m f
310.039 284.883 m 308.641 284.883 307.508 286.02 307.508 287.414 c 307.508
 288.812 308.641 289.945 310.039 289.945 c 311.438 289.945 312.57 288.812
 312.57 287.414 c 312.57 286.02 311.438 284.883 310.039 284.883 c h
310.039 284.883 m f
301.57 293.352 m 300.176 293.352 299.039 294.484 299.039 295.883 c 299.039
 297.281 300.176 298.414 301.57 298.414 c 302.969 298.414 304.102 297.281
 304.102 295.883 c 304.102 294.484 302.969 293.352 301.57 293.352 c h
301.57 293.352 m f
293.719 284.883 m 292.32 284.883 291.188 286.02 291.188 287.414 c 291.188
 288.812 292.32 289.945 293.719 289.945 c 295.117 289.945 296.25 288.812
 296.25 287.414 c 296.25 286.02 295.117 284.883 293.719 284.883 c h
293.719 284.883 m f
285.254 293.352 m 283.855 293.352 282.723 294.484 282.723 295.883 c 282.723
 297.281 283.855 298.414 285.254 298.414 c 286.652 298.414 287.785 297.281
 287.785 295.883 c 287.785 294.484 286.652 293.352 285.254 293.352 c h
285.254 293.352 m f
293.719 301.203 m 292.32 301.203 291.188 302.336 291.188 303.734 c 291.188
 305.133 292.32 306.266 293.719 306.266 c 295.117 306.266 296.25 305.133
 296.25 303.734 c 296.25 302.336 295.117 301.203 293.719 301.203 c h
293.719 301.203 m f
285.254 309.672 m 283.855 309.672 282.723 310.805 282.723 312.203 c 282.723
 313.602 283.855 314.734 285.254 314.734 c 286.652 314.734 287.785 313.602
 287.785 312.203 c 287.785 310.805 286.652 309.672 285.254 309.672 c h
285.254 309.672 m f
268.934 293.352 m 267.535 293.352 266.402 294.484 266.402 295.883 c 266.402
 297.281 267.535 298.414 268.934 298.414 c 270.332 298.414 271.465 297.281
 271.465 295.883 c 271.465 294.484 270.332 293.352 268.934 293.352 c h
268.934 293.352 m f
277.398 301.203 m 276.004 301.203 274.867 302.336 274.867 303.734 c 274.867
 305.133 276.004 306.266 277.398 306.266 c 278.797 306.266 279.93 305.133
 279.93 303.734 c 279.93 302.336 278.797 301.203 277.398 301.203 c h
277.398 301.203 m f
268.934 309.672 m 267.535 309.672 266.402 310.805 266.402 312.203 c 266.402
 313.602 267.535 314.734 268.934 314.734 c 270.332 314.734 271.465 313.602
 271.465 312.203 c 271.465 310.805 270.332 309.672 268.934 309.672 c h
268.934 309.672 m f
279.93 320.055 m 279.93 318.656 278.797 317.523 277.398 317.523 c 276.004
 317.523 274.867 318.656 274.867 320.055 c 274.867 321.453 276.004 322.586
 277.398 322.586 c 277.672 322.586 277.93 322.531 278.18 322.453 c 278.43
 322.32 278.688 322.184 278.941 322.051 c 279.539 321.586 279.93 320.871
 279.93 320.055 c h
279.93 320.055 m f
261.082 301.203 m 259.684 301.203 258.551 302.336 258.551 303.734 c 258.551
 305.133 259.684 306.266 261.082 306.266 c 262.48 306.266 263.613 305.133
 263.613 303.734 c 263.613 302.336 262.48 301.203 261.082 301.203 c h
261.082 301.203 m f
250.082 312.203 m 250.082 313.602 251.215 314.734 252.613 314.734 c 254.012
 314.734 255.145 313.602 255.145 312.203 c 255.145 310.805 254.012 309.672
 252.613 309.672 c 251.215 309.672 250.082 310.805 250.082 312.203 c h
250.082 312.203 m f
261.082 317.523 m 259.684 317.523 258.551 318.656 258.551 320.055 c 258.551
 321.453 259.684 322.586 261.082 322.586 c 262.48 322.586 263.613 321.453
 263.613 320.055 c 263.613 318.656 262.48 317.523 261.082 317.523 c h
261.082 317.523 m f
255.145 328.52 m 255.145 327.121 254.012 325.988 252.613 325.988 c 251.215
 325.988 250.082 327.121 250.082 328.52 c 250.082 329.352 250.488 330.078
 251.102 330.539 c 252.273 330.477 253.363 330.41 254.367 330.34 c 254.844
 329.879 255.145 329.238 255.145 328.52 c h
255.145 328.52 m f
236.297 309.672 m 234.898 309.672 233.766 310.805 233.766 312.203 c 233.766
 313.602 234.898 314.734 236.297 314.734 c 237.691 314.734 238.828 313.602
 238.828 312.203 c 238.828 310.805 237.691 309.672 236.297 309.672 c h
236.297 309.672 m f
244.762 317.523 m 243.363 317.523 242.23 318.656 242.23 320.055 c 242.23
 321.453 243.363 322.586 244.762 322.586 c 246.16 322.586 247.293 321.453
 247.293 320.055 c 247.293 318.656 246.16 317.523 244.762 317.523 c h
244.762 317.523 m f
236.297 325.992 m 234.898 325.992 233.766 327.125 233.766 328.523 c 233.766
 329.918 234.898 331.055 236.297 331.055 c 237.691 331.055 238.828 329.918
 238.828 328.523 c 238.828 327.125 237.691 325.992 236.297 325.992 c h
236.297 325.992 m f
219.977 309.672 m 218.578 309.672 217.445 310.805 217.445 312.203 c 217.445
 313.602 218.578 314.734 219.977 314.734 c 221.375 314.734 222.508 313.602
 222.508 312.203 c 222.508 310.805 221.375 309.672 219.977 309.672 c h
219.977 309.672 m f
225.91 320.055 m 225.91 321.453 227.043 322.586 228.441 322.586 c 229.84
 322.586 230.973 321.453 230.973 320.055 c 230.973 318.656 229.84 317.523
 228.441 317.523 c 227.043 317.523 225.91 318.656 225.91 320.055 c h
225.91 320.055 m f
219.977 325.992 m 218.578 325.992 217.445 327.125 217.445 328.523 c 217.445
 329.918 218.578 331.055 219.977 331.055 c 221.375 331.055 222.508 329.918
 222.508 328.523 c 222.508 327.125 221.375 325.992 219.977 325.992 c h
219.977 325.992 m f
203.656 309.672 m 202.258 309.672 201.125 310.805 201.125 312.203 c 201.125
 313.602 202.258 314.734 203.656 314.734 c 205.055 314.734 206.188 313.602
 206.188 312.203 c 206.188 310.805 205.055 309.672 203.656 309.672 c h
203.656 309.672 m f
209.594 320.055 m 209.594 321.453 210.727 322.586 212.125 322.586 c 213.52
 322.586 214.656 321.453 214.656 320.055 c 214.656 318.656 213.52 317.523
 212.125 317.523 c 210.727 317.523 209.594 318.656 209.594 320.055 c h
209.594 320.055 m f
203.656 325.992 m 202.258 325.992 201.125 327.125 201.125 328.523 c 201.125
 329.918 202.258 331.055 203.656 331.055 c 205.055 331.055 206.188 329.918
 206.188 328.523 c 206.188 327.125 205.055 325.992 203.656 325.992 c h
203.656 325.992 m f
187.336 309.672 m 185.938 309.672 184.805 310.805 184.805 312.203 c 184.805
 313.602 185.938 314.734 187.336 314.734 c 188.734 314.734 189.867 313.602
 189.867 312.203 c 189.867 310.805 188.734 309.672 187.336 309.672 c h
187.336 309.672 m f
193.273 320.055 m 193.273 321.453 194.406 322.586 195.805 322.586 c 197.203
 322.586 198.336 321.453 198.336 320.055 c 198.336 318.656 197.203 317.523
 195.805 317.523 c 194.406 317.523 193.273 318.656 193.273 320.055 c h
193.273 320.055 m f
187.336 325.992 m 185.938 325.992 184.805 327.125 184.805 328.523 c 184.805
 329.918 185.938 331.055 187.336 331.055 c 188.734 331.055 189.867 329.918
 189.867 328.523 c 189.867 327.125 188.734 325.992 187.336 325.992 c h
187.336 325.992 m f
168.488 312.203 m 168.488 313.602 169.621 314.734 171.02 314.734 c 172.414
 314.734 173.551 313.602 173.551 312.203 c 173.551 310.805 172.414 309.672
 171.02 309.672 c 169.621 309.672 168.488 310.805 168.488 312.203 c h
168.488 312.203 m f
176.953 320.055 m 176.953 321.453 178.086 322.586 179.484 322.586 c 180.883
 322.586 182.016 321.453 182.016 320.055 c 182.016 318.656 180.883 317.523
 179.484 317.523 c 178.086 317.523 176.953 318.656 176.953 320.055 c h
176.953 320.055 m f
173.551 328.52 m 173.551 327.121 172.414 325.988 171.02 325.988 c 169.621
 325.988 168.488 327.121 168.488 328.52 c 168.488 329.438 168.98 330.234
 169.707 330.68 c 170.535 330.703 171.363 330.727 172.191 330.75 c 172.996
 330.328 173.551 329.492 173.551 328.52 c h
173.551 328.52 m f
152.168 312.203 m 152.168 313.602 153.301 314.734 154.699 314.734 c 156.098
 314.734 157.23 313.602 157.23 312.203 c 157.23 310.805 156.098 309.672 
154.699 309.672 c 153.301 309.672 152.168 310.805 152.168 312.203 c h
152.168 312.203 m f
160.633 320.055 m 160.633 321.453 161.766 322.586 163.164 322.586 c 164.562
 322.586 165.695 321.453 165.695 320.055 c 165.695 318.656 164.562 317.523
 163.164 317.523 c 161.766 317.523 160.633 318.656 160.633 320.055 c h
160.633 320.055 m f
154.699 325.992 m 153.301 325.992 152.168 327.125 152.168 328.523 c 152.168
 329.094 152.367 329.617 152.688 330.043 c 153.977 330.102 155.273 330.156
 156.574 330.211 c 156.977 329.762 157.23 329.172 157.23 328.52 c 157.23
 327.125 156.098 325.992 154.699 325.992 c h
154.699 325.992 m f
135.848 312.203 m 135.848 313.602 136.98 314.734 138.379 314.734 c 139.777
 314.734 140.91 313.602 140.91 312.203 c 140.91 310.805 139.777 309.672 
138.379 309.672 c 136.98 309.672 135.848 310.805 135.848 312.203 c h
135.848 312.203 m f
144.316 320.055 m 144.316 321.453 145.449 322.586 146.848 322.586 c 148.246
 322.586 149.379 321.453 149.379 320.055 c 149.379 318.656 148.246 317.523
 146.848 317.523 c 145.449 317.523 144.316 318.656 144.316 320.055 c h
144.316 320.055 m f
119.527 312.203 m 119.527 313.602 120.66 314.734 122.059 314.734 c 123.457
 314.734 124.59 313.602 124.59 312.203 c 124.59 310.805 123.457 309.672 
122.059 309.672 c 120.664 309.672 119.527 310.805 119.527 312.203 c h
119.527 312.203 m f
127.996 320.055 m 127.996 321.453 129.129 322.586 130.527 322.586 c 131.926
 322.586 133.059 321.453 133.059 320.055 c 133.059 318.656 131.926 317.523
 130.527 317.523 c 129.129 317.523 127.996 318.656 127.996 320.055 c h
127.996 320.055 m f
103.211 312.203 m 103.211 313.602 104.344 314.734 105.742 314.734 c 107.141
 314.734 108.273 313.602 108.273 312.203 c 108.273 310.805 107.141 309.672
 105.742 309.672 c 104.344 309.672 103.211 310.805 103.211 312.203 c h
103.211 312.203 m f
111.676 320.055 m 111.676 321.453 112.809 322.586 114.207 322.586 c 115.605
 322.586 116.738 321.453 116.738 320.055 c 116.738 318.656 115.605 317.523
 114.207 317.523 c 112.809 317.523 111.676 318.656 111.676 320.055 c h
111.676 320.055 m f
89.422 309.672 m 88.023 309.672 86.891 310.805 86.891 312.203 c 86.891 
313.602 88.023 314.734 89.422 314.734 c 90.82 314.734 91.953 313.602 91.953
 312.203 c 91.953 310.805 90.82 309.672 89.422 309.672 c h
89.422 309.672 m f
97.887 317.523 m 96.492 317.523 95.355 318.656 95.355 320.055 c 95.355 
321.453 96.492 322.586 97.887 322.586 c 99.285 322.586 100.418 321.453 100.418
 320.055 c 100.418 318.656 99.285 317.523 97.887 317.523 c h
97.887 317.523 m f
89.422 325.992 m 88.023 325.992 86.891 327.125 86.891 328.523 c 86.891 
329.918 88.023 331.055 89.422 331.055 c 90.82 331.055 91.953 329.918 91.953
 328.523 c 91.953 327.125 90.82 325.992 89.422 325.992 c h
89.422 325.992 m f
81.57 317.523 m 80.172 317.523 79.039 318.656 79.039 320.055 c 79.039 321.453
 80.172 322.586 81.57 322.586 c 82.969 322.586 84.102 321.453 84.102 320.055
 c 84.102 318.656 82.969 317.523 81.57 317.523 c h
81.57 317.523 m f
73.102 325.992 m 71.703 325.992 70.57 327.125 70.57 328.523 c 70.57 329.918
 71.703 331.055 73.102 331.055 c 74.5 331.055 75.633 329.918 75.633 328.523
 c 75.633 327.125 74.5 325.992 73.102 325.992 c h
73.102 325.992 m f
81.57 333.844 m 80.172 333.844 79.039 334.977 79.039 336.375 c 79.039 337.773
 80.172 338.906 81.57 338.906 c 82.969 338.906 84.102 337.773 84.102 336.375
 c 84.102 334.977 82.969 333.844 81.57 333.844 c h
81.57 333.844 m f
73.102 342.309 m 71.703 342.309 70.57 343.441 70.57 344.84 c 70.57 346.238
 71.703 347.371 73.102 347.371 c 74.5 347.371 75.633 346.238 75.633 344.84
 c 75.633 343.441 74.5 342.309 73.102 342.309 c h
73.102 342.309 m f
65.25 333.844 m 63.852 333.844 62.719 334.977 62.719 336.375 c 62.719 337.773
 63.852 338.906 65.25 338.906 c 66.648 338.906 67.781 337.773 67.781 336.375
 c 67.781 334.977 66.648 333.844 65.25 333.844 c h
65.25 333.844 m f
56.785 342.309 m 55.387 342.309 54.254 343.441 54.254 344.84 c 54.254 346.238
 55.387 347.371 56.785 347.371 c 58.18 347.371 59.316 346.238 59.316 344.84
 c 59.316 343.441 58.18 342.309 56.785 342.309 c h
56.785 342.309 m f
65.25 350.16 m 63.852 350.16 62.719 351.293 62.719 352.691 c 62.719 354.09
 63.852 355.223 65.25 355.223 c 66.648 355.223 67.781 354.09 67.781 352.691
 c 67.781 351.293 66.648 350.16 65.25 350.16 c h
65.25 350.16 m f
56.785 358.629 m 55.387 358.629 54.254 359.762 54.254 361.16 c 54.254 362.559
 55.387 363.691 56.785 363.691 c 58.18 363.691 59.316 362.559 59.316 361.16
 c 59.316 359.762 58.18 358.629 56.785 358.629 c h
56.785 358.629 m f
48.93 350.16 m 47.531 350.16 46.398 351.293 46.398 352.691 c 46.398 354.09
 47.531 355.223 48.93 355.223 c 50.328 355.223 51.461 354.09 51.461 352.691
 c 51.461 351.293 50.328 350.16 48.93 350.16 c h
48.93 350.16 m f
40.465 358.629 m 39.066 358.629 37.934 359.762 37.934 361.16 c 37.934 362.559
 39.066 363.691 40.465 363.691 c 41.863 363.691 42.996 362.559 42.996 361.16
 c 42.996 359.762 41.863 358.629 40.465 358.629 c h
40.465 358.629 m f
48.93 366.48 m 47.531 366.48 46.398 367.613 46.398 369.012 c 46.398 370.41
 47.531 371.543 48.93 371.543 c 50.328 371.543 51.461 370.41 51.461 369.012
 c 51.461 367.613 50.328 366.48 48.93 366.48 c h
48.93 366.48 m f
40.465 374.949 m 39.066 374.949 37.934 376.082 37.934 377.48 c 37.934 378.875
 39.066 380.012 40.465 380.012 c 41.863 380.012 42.996 378.875 42.996 377.48
 c 42.996 376.082 41.863 374.949 40.465 374.949 c h
40.465 374.949 m f
24.145 358.629 m 22.746 358.629 21.613 359.762 21.613 361.16 c 21.613 362.559
 22.746 363.691 24.145 363.691 c 25.543 363.691 26.676 362.559 26.676 361.16
 c 26.676 359.762 25.543 358.629 24.145 358.629 c h
24.145 358.629 m f
32.613 371.543 m 34.008 371.543 35.145 370.41 35.145 369.012 c 35.145 367.613
 34.008 366.48 32.613 366.48 c 31.215 366.48 30.082 367.613 30.082 369.012
 c 30.082 370.41 31.215 371.543 32.613 371.543 c h
32.613 371.543 m f
24.145 374.949 m 22.746 374.949 21.613 376.082 21.613 377.48 c 21.613 378.875
 22.746 380.012 24.145 380.012 c 25.543 380.012 26.676 378.875 26.676 377.48
 c 26.676 376.082 25.543 374.949 24.145 374.949 c h
24.145 374.949 m f
5.293 361.16 m 5.293 362.559 6.426 363.691 7.824 363.691 c 9.223 363.691
 10.355 362.559 10.355 361.16 c 10.355 359.762 9.223 358.629 7.824 358.629
 c 6.426 358.629 5.293 359.762 5.293 361.16 c h
5.293 361.16 m f
13.762 369.012 m 13.762 370.41 14.895 371.543 16.293 371.543 c 17.691 371.543
 18.824 370.41 18.824 369.012 c 18.824 367.613 17.691 366.48 16.293 366.48
 c 14.895 366.48 13.762 367.613 13.762 369.012 c h
13.762 369.012 m f
7.824 380.012 m 9.223 380.012 10.355 378.879 10.355 377.48 c 10.355 376.082
 9.223 374.949 7.824 374.949 c 6.426 374.949 5.293 376.082 5.293 377.48 
c 5.293 378.879 6.426 380.012 7.824 380.012 c h
7.824 380.012 m f
277.418 284.855 m 276.023 284.855 274.887 285.988 274.887 287.387 c 274.887
 288.785 276.023 289.918 277.418 289.918 c 278.816 289.918 279.949 288.785
 279.949 287.387 c 279.949 285.988 278.816 284.855 277.418 284.855 c h
277.418 284.855 m f
326.316 252.211 m 324.918 252.211 323.785 253.344 323.785 254.742 c 323.785
 256.137 324.918 257.273 326.316 257.273 c 327.715 257.273 328.848 256.137
 328.848 254.742 c 328.848 253.344 327.715 252.211 326.316 252.211 c h
326.316 252.211 m f
358.965 219.562 m 357.566 219.562 356.434 220.695 356.434 222.094 c 356.434
 223.492 357.566 224.625 358.965 224.625 c 360.363 224.625 361.496 223.492
 361.496 222.094 c 361.496 220.695 360.363 219.562 358.965 219.562 c h
358.965 219.562 m f
0.192157 0.215686 0.239216 rg
213.012 169.188 m 213.012 159.543 l 226.285 157.855 234.02 147.316 235.668
 137.5 c 237.664 125.629 231.434 115.301 219.797 111.188 c 217.316 110.312
 215.07 109.48 213.012 108.684 c 213.012 74.48 l 220.242 75.176 224.609 
79.02 224.871 79.254 c 226.098 80.375 228.004 80.297 229.129 79.07 c 230.262
 77.844 230.184 75.934 228.957 74.805 c 228.629 74.5 222.695 69.164 213.012
 68.414 c 213.012 59.867 l 213.012 58.199 211.66 56.848 209.992 56.848 c
 208.324 56.848 206.973 58.199 206.973 59.867 c 206.973 68.57 l 205.25 68.789
 203.449 69.156 201.57 69.723 c 194.031 71.992 188.391 78.477 186.855 86.645
 c 185.469 93.992 187.758 101.027 192.824 105.004 c 196.219 107.664 200.609
 110.094 206.973 112.762 c 206.973 153.738 l 199.648 153.672 195.781 152.863
 188.633 148.188 c 187.238 147.273 185.363 147.664 184.453 149.059 c 183.539
 150.457 183.93 152.328 185.328 153.242 c 193.691 158.711 198.777 159.695
 206.973 159.781 c 206.973 169.188 l 206.973 170.855 208.324 172.207 209.992
 172.207 c 211.66 172.207 213.012 170.855 213.012 169.188 c h
196.555 100.25 m 193.27 97.672 191.824 92.887 192.793 87.762 c 193.668 
83.105 196.895 77.441 203.312 75.508 c 204.578 75.125 205.797 74.855 206.973
 74.672 c 206.973 106.188 l 202.398 104.145 199.109 102.254 196.555 100.25
 c h
217.781 116.887 m 228.379 120.629 230.891 129.473 229.711 136.496 c 228.469
 143.883 222.773 151.801 213.012 153.434 c 213.012 115.148 l 214.516 115.715
 216.098 116.289 217.781 116.887 c h
217.781 116.887 m f
377.484 223.57 m 367.863 208.715 354.633 204.207 341.188 211.203 c 341.109
 211.246 341.035 211.289 340.961 211.336 c 306.238 233.492 251.684 266.965
 243.688 268.375 c 232.984 270.266 177.91 258.832 159.508 253.102 c 147.082
 249.23 123.551 238.047 122.875 230.473 c 122.715 228.688 124.332 226.895
 127.68 225.141 c 130.387 224.109 150.027 222.965 167.547 222.449 c 168.914
 222.449 170.234 222.422 171.531 222.387 c 183.559 226.695 196.504 229.055
 209.992 229.055 c 273.145 229.055 324.52 177.676 324.52 114.527 c 324.52
 51.375 273.141 0 209.992 0 c 146.844 0 95.465 51.375 95.465 114.527 c 95.465
 132.465 99.621 149.445 107.004 164.574 c 94.562 164.883 82.352 165.586 
71.816 166.914 c 41.363 170.746 22.039 185.656 14.387 211.227 c 10.059 225.695
 12.215 238.117 13.238 242.473 c 1.855 256.016 l 0.785 257.293 0.949 259.199
 2.227 260.273 c 3.504 261.344 5.41 261.18 6.484 259.902 c 18.867 245.164
 l 19.527 244.383 19.742 243.312 19.445 242.336 c 19.402 242.203 15.441 
228.785 20.176 212.961 c 27.176 189.566 44.316 176.465 72.57 172.91 c 102.395
 169.156 146.129 170.465 169.547 171.578 c 194.922 172.789 205.289 179.332
 205.328 194.164 c 205.344 200.188 203.719 204.758 200.355 208.133 c 194.809
 213.695 184.059 216.402 167.5 216.406 c 167.473 216.406 167.441 216.406
 167.414 216.406 c 155.93 216.746 128.805 217.746 124.941 219.758 c 119.176
 222.758 116.457 226.543 116.855 231.008 c 118.184 245.91 157.316 258.75
 157.711 258.871 c 173.953 263.93 223.18 274.594 240.82 274.59 c 242.391
 274.59 243.711 274.508 244.734 274.324 c 256.434 272.266 334.609 222.555
 344.094 216.504 c 358.191 209.25 367.883 219.867 372.414 226.859 c 376.68
 233.445 381.191 248.574 367.699 258.703 c 366.898 259.312 287.414 319.754
 260.711 326.59 c 251.68 328.898 154.891 329.625 108.156 323.586 c 107.242
 323.469 106.324 323.773 105.664 324.414 c 49.652 378.812 l 48.457 379.977
 48.426 381.887 49.59 383.086 c 50.184 383.695 50.969 384 51.758 384 c 52.516
 384 53.273 383.715 53.863 383.148 c 108.832 329.762 l 154.672 335.422 251.02
 335.305 262.207 332.441 c 290.094 325.305 368.055 266.027 371.344 263.52
 c 386.148 252.406 384.906 235.023 377.484 223.57 c h
197.406 171.156 m 189.035 166.945 178.273 165.945 169.832 165.543 c 164.832
 165.305 158.906 165.059 152.395 164.855 c 140.613 151.391 133.465 133.777
 133.465 114.527 c 133.465 72.328 167.793 37.996 209.992 37.996 c 252.191
 37.996 286.52 72.328 286.52 114.527 c 286.52 156.316 252.848 190.387 211.207
 191.039 c 210.34 182.016 205.715 175.332 197.406 171.156 c h
204.633 212.398 m 208.531 208.488 210.75 203.344 211.258 197.082 c 256.207
 196.402 292.562 159.633 292.562 114.527 c 292.562 68.996 255.523 31.957
 209.992 31.957 c 164.465 31.957 127.422 68.996 127.422 114.527 c 127.422
 133.359 133.777 150.727 144.434 164.637 c 134.797 164.406 124.266 164.297
 113.707 164.445 c 105.922 149.492 101.508 132.516 101.508 114.527 c 101.508
 54.707 150.176 6.043 209.992 6.043 c 269.812 6.043 318.477 54.707 318.477
 114.527 c 318.477 174.344 269.812 223.012 209.992 223.012 c 202.309 223.012
 194.809 222.203 187.57 220.676 c 195.117 219.066 200.703 216.34 204.633
 212.398 c h
204.633 212.398 m f
Q Q
showpage
%%Trailer
end
%%EOF
