%!PS-Adobe-3.0 EPSF-3.0
%%Creator: cairo 1.16.0 (https://cairographics.org)
%%CreationDate: Fri Feb 12 12:12:56 2021
%%Pages: 1
%%DocumentData: Clean7Bit
%%LanguageLevel: 2
%%BoundingBox: 0 46 384 338
%%EndComments
%%BeginProlog
50 dict begin
/q { gsave } bind def
/Q { grestore } bind def
/cm { 6 array astore concat } bind def
/w { setlinewidth } bind def
/J { setlinecap } bind def
/j { setlinejoin } bind def
/M { setmiterlimit } bind def
/d { setdash } bind def
/m { moveto } bind def
/l { lineto } bind def
/c { curveto } bind def
/h { closepath } bind def
/re { exch dup neg 3 1 roll 5 3 roll moveto 0 rlineto
      0 exch rlineto 0 rlineto closepath } bind def
/S { stroke } bind def
/f { fill } bind def
/f* { eofill } bind def
/n { newpath } bind def
/W { clip } bind def
/W* { eoclip } bind def
/BT { } bind def
/ET { } bind def
/BDC { mark 3 1 roll /BDC pdfmark } bind def
/EMC { mark /EMC pdfmark } bind def
/cairo_store_point { /cairo_point_y exch def /cairo_point_x exch def } def
/Tj { show currentpoint cairo_store_point } bind def
/TJ {
  {
    dup
    type /stringtype eq
    { show } { -0.001 mul 0 cairo_font_matrix dtransform rmoveto } ifelse
  } forall
  currentpoint cairo_store_point
} bind def
/cairo_selectfont { cairo_font_matrix aload pop pop pop 0 0 6 array astore
    cairo_font exch selectfont cairo_point_x cairo_point_y moveto } bind def
/Tf { pop /cairo_font exch def /cairo_font_matrix where
      { pop cairo_selectfont } if } bind def
/Td { matrix translate cairo_font_matrix matrix concatmatrix dup
      /cairo_font_matrix exch def dup 4 get exch 5 get cairo_store_point
      /cairo_font where { pop cairo_selectfont } if } bind def
/Tm { 2 copy 8 2 roll 6 array astore /cairo_font_matrix exch def
      cairo_store_point /cairo_font where { pop cairo_selectfont } if } bind def
/g { setgray } bind def
/rg { setrgbcolor } bind def
/d1 { setcachedevice } bind def
/cairo_data_source {
  CairoDataIndex CairoData length lt
    { CairoData CairoDataIndex get /CairoDataIndex CairoDataIndex 1 add def }
    { () } ifelse
} def
/cairo_flush_ascii85_file { cairo_ascii85_file status { cairo_ascii85_file flushfile } if } def
/cairo_image { image cairo_flush_ascii85_file } def
/cairo_imagemask { imagemask cairo_flush_ascii85_file } def
%%EndProlog
%%BeginSetup
%%EndSetup
%%Page: 1 1
%%BeginPageSetup
%%PageBoundingBox: 0 46 384 338
%%EndPageSetup
q 0 46 384 292 rectclip
1 0 0 -1 0 384 cm q
0.917647 0.658824 0.584314 rg
352.117 49.086 m 104.629 49.086 l 88.695 49.086 75.777 62.004 75.777 77.941
 c 75.777 121.832 l 31.883 121.832 l 15.949 121.832 3.031 134.75 3.031 150.688
 c 3.031 306.059 l 3.031 321.996 15.949 334.914 31.883 334.914 c 279.371
 334.914 l 295.305 334.914 308.223 321.996 308.223 306.059 c 308.223 262.168
 l 352.117 262.168 l 368.051 262.168 380.969 249.25 380.969 233.312 c 380.969
 77.941 l 380.969 62.004 368.051 49.086 352.117 49.086 c h
352.117 49.086 m f
0.913725 0.760784 0.470588 rg
37.18 196.668 m 37.18 166.504 l 37.18 162.148 40.711 158.617 45.066 158.617
 c 91.68 158.617 l 96.035 158.617 99.566 162.148 99.566 166.504 c 99.566
 196.668 l 99.566 201.02 96.035 204.551 91.68 204.551 c 45.066 204.551 l
 40.711 204.551 37.18 201.02 37.18 196.668 c h
37.18 196.668 m f
1 g
332.02 189.492 m 305.82 189.492 l 305.82 223.234 l 332.02 223.234 l 340.477
 223.234 347.332 216.379 347.332 207.922 c 347.332 204.805 l 347.332 196.348
 340.477 189.492 332.02 189.492 c h
332.02 189.492 m f
0.976471 0.984314 0.988235 rg
371.402 57.324 m 370.035 57.324 368.93 58.434 368.93 59.801 c 368.93 61.168
 370.035 62.273 371.402 62.273 c 372.77 62.273 373.879 61.168 373.879 59.801
 c 373.879 59.402 373.777 59.031 373.609 58.695 c 373.297 58.344 372.973
 58 372.641 57.664 c 372.273 57.453 371.855 57.324 371.402 57.324 c h
371.402 57.324 m f
371.402 73.285 m 370.035 73.285 368.93 74.395 368.93 75.762 c 368.93 77.129
 370.035 78.238 371.402 78.238 c 372.77 78.238 373.879 77.129 373.879 75.762
 c 373.879 74.395 372.77 73.285 371.402 73.285 c h
371.402 73.285 m f
371.402 137.133 m 370.035 137.133 368.93 138.242 368.93 139.609 c 368.93
 140.977 370.035 142.082 371.402 142.082 c 372.77 142.082 373.879 140.977
 373.879 139.609 c 373.879 138.242 372.77 137.133 371.402 137.133 c h
371.402 137.133 m f
371.402 153.094 m 370.035 153.094 368.93 154.203 368.93 155.57 c 368.93
 156.938 370.035 158.047 371.402 158.047 c 372.77 158.047 373.879 156.938
 373.879 155.57 c 373.879 154.203 372.77 153.094 371.402 153.094 c h
371.402 153.094 m f
371.402 169.059 m 370.035 169.059 368.93 170.164 368.93 171.531 c 368.93
 172.898 370.035 174.008 371.402 174.008 c 372.77 174.008 373.879 172.898
 373.879 171.531 c 373.879 170.164 372.77 169.059 371.402 169.059 c h
371.402 169.059 m f
371.402 185.02 m 370.035 185.02 368.93 186.125 368.93 187.492 c 368.93 
188.859 370.035 189.969 371.402 189.969 c 372.77 189.969 373.879 188.859
 373.879 187.492 c 373.879 186.125 372.77 185.02 371.402 185.02 c h
371.402 185.02 m f
371.402 200.98 m 370.035 200.98 368.93 202.09 368.93 203.457 c 368.93 204.824
 370.035 205.934 371.402 205.934 c 372.77 205.934 373.879 204.824 373.879
 203.457 c 373.879 202.09 372.77 200.98 371.402 200.98 c h
371.402 200.98 m f
371.402 216.941 m 370.035 216.941 368.93 218.051 368.93 219.418 c 368.93
 220.785 370.035 221.895 371.402 221.895 c 372.77 221.895 373.879 220.785
 373.879 219.418 c 373.879 218.051 372.77 216.941 371.402 216.941 c h
371.402 216.941 m f
371.402 232.902 m 370.035 232.902 368.93 234.012 368.93 235.379 c 368.93
 236.746 370.035 237.855 371.402 237.855 c 372.77 237.855 373.879 236.746
 373.879 235.379 c 373.879 234.012 372.77 232.902 371.402 232.902 c h
371.402 232.902 m f
371.402 248.867 m 370.035 248.867 368.93 249.973 368.93 251.34 c 368.93
 252.707 370.035 253.816 371.402 253.816 c 372 253.816 372.535 253.598 372.965
 253.25 c 373.117 253.09 373.27 252.938 373.414 252.777 c 373.707 252.371
 373.879 251.879 373.879 251.34 c 373.879 249.973 372.77 248.867 371.402
 248.867 c h
371.402 248.867 m f
355.441 57.324 m 354.074 57.324 352.965 58.434 352.965 59.801 c 352.965
 61.168 354.074 62.273 355.441 62.273 c 356.809 62.273 357.918 61.168 357.918
 59.801 c 357.918 58.434 356.809 57.324 355.441 57.324 c h
355.441 57.324 m f
363.723 65.004 m 362.355 65.004 361.246 66.113 361.246 67.48 c 361.246 
68.848 362.355 69.953 363.723 69.953 c 365.09 69.953 366.199 68.848 366.199
 67.48 c 366.199 66.113 365.09 65.004 363.723 65.004 c h
363.723 65.004 m f
355.441 73.285 m 354.074 73.285 352.965 74.395 352.965 75.762 c 352.965
 77.129 354.074 78.238 355.441 78.238 c 356.809 78.238 357.918 77.129 357.918
 75.762 c 357.918 74.395 356.809 73.285 355.441 73.285 c h
355.441 73.285 m f
363.723 80.965 m 362.355 80.965 361.246 82.074 361.246 83.441 c 361.246
 84.809 362.355 85.918 363.723 85.918 c 365.09 85.918 366.199 84.809 366.199
 83.441 c 366.199 82.074 365.09 80.965 363.723 80.965 c h
363.723 80.965 m f
355.441 137.133 m 354.074 137.133 352.965 138.242 352.965 139.609 c 352.965
 140.977 354.074 142.082 355.441 142.082 c 356.809 142.082 357.918 140.977
 357.918 139.609 c 357.918 138.242 356.809 137.133 355.441 137.133 c h
355.441 137.133 m f
363.723 144.812 m 362.355 144.812 361.246 145.922 361.246 147.289 c 361.246
 148.656 362.355 149.766 363.723 149.766 c 365.09 149.766 366.199 148.656
 366.199 147.289 c 366.199 145.922 365.09 144.812 363.723 144.812 c h
363.723 144.812 m f
355.441 153.094 m 354.074 153.094 352.965 154.203 352.965 155.57 c 352.965
 156.938 354.074 158.047 355.441 158.047 c 356.809 158.047 357.918 156.938
 357.918 155.57 c 357.918 154.203 356.809 153.094 355.441 153.094 c h
355.441 153.094 m f
363.723 160.773 m 362.355 160.773 361.246 161.883 361.246 163.25 c 361.246
 164.617 362.355 165.727 363.723 165.727 c 365.09 165.727 366.199 164.617
 366.199 163.25 c 366.199 161.883 365.09 160.773 363.723 160.773 c h
363.723 160.773 m f
355.441 169.059 m 354.074 169.059 352.965 170.164 352.965 171.531 c 352.965
 172.898 354.074 174.008 355.441 174.008 c 356.809 174.008 357.918 172.898
 357.918 171.531 c 357.918 170.164 356.809 169.059 355.441 169.059 c h
355.441 169.059 m f
363.723 176.738 m 362.355 176.738 361.246 177.844 361.246 179.211 c 361.246
 180.578 362.355 181.688 363.723 181.688 c 365.09 181.688 366.199 180.578
 366.199 179.211 c 366.199 177.844 365.09 176.738 363.723 176.738 c h
363.723 176.738 m f
355.441 185.02 m 354.074 185.02 352.965 186.125 352.965 187.492 c 352.965
 188.859 354.074 189.969 355.441 189.969 c 356.809 189.969 357.918 188.859
 357.918 187.492 c 357.918 186.125 356.809 185.02 355.441 185.02 c h
355.441 185.02 m f
363.723 192.699 m 362.355 192.699 361.246 193.809 361.246 195.176 c 361.246
 196.543 362.355 197.652 363.723 197.652 c 365.09 197.652 366.199 196.543
 366.199 195.176 c 366.199 193.809 365.09 192.699 363.723 192.699 c h
363.723 192.699 m f
355.441 200.98 m 354.074 200.98 352.965 202.09 352.965 203.457 c 352.965
 204.824 354.074 205.934 355.441 205.934 c 356.809 205.934 357.918 204.824
 357.918 203.457 c 357.918 202.09 356.809 200.98 355.441 200.98 c h
355.441 200.98 m f
363.723 208.66 m 362.355 208.66 361.246 209.77 361.246 211.137 c 361.246
 212.504 362.355 213.613 363.723 213.613 c 365.09 213.613 366.199 212.504
 366.199 211.137 c 366.199 209.77 365.09 208.66 363.723 208.66 c h
363.723 208.66 m f
355.441 216.941 m 354.074 216.941 352.965 218.051 352.965 219.418 c 352.965
 220.785 354.074 221.895 355.441 221.895 c 356.809 221.895 357.918 220.785
 357.918 219.418 c 357.918 218.051 356.809 216.941 355.441 216.941 c h
355.441 216.941 m f
363.723 224.621 m 362.355 224.621 361.246 225.73 361.246 227.098 c 361.246
 228.465 362.355 229.574 363.723 229.574 c 365.09 229.574 366.199 228.465
 366.199 227.098 c 366.199 225.73 365.09 224.621 363.723 224.621 c h
363.723 224.621 m f
355.441 232.902 m 354.074 232.902 352.965 234.012 352.965 235.379 c 352.965
 236.746 354.074 237.855 355.441 237.855 c 356.809 237.855 357.918 236.746
 357.918 235.379 c 357.918 234.012 356.809 232.902 355.441 232.902 c h
355.441 232.902 m f
363.723 240.586 m 362.355 240.586 361.246 241.691 361.246 243.059 c 361.246
 244.426 362.355 245.535 363.723 245.535 c 365.09 245.535 366.199 244.426
 366.199 243.059 c 366.199 241.691 365.09 240.586 363.723 240.586 c h
363.723 240.586 m f
355.441 253.816 m 356.809 253.816 357.918 252.711 357.918 251.344 c 357.918
 249.977 356.809 248.867 355.441 248.867 c 354.074 248.867 352.965 249.977
 352.965 251.344 c 352.965 252.707 354.074 253.816 355.441 253.816 c h
355.441 253.816 m f
345.285 51.516 m 345.285 52.887 346.395 53.992 347.762 53.992 c 349.129
 53.992 350.238 52.883 350.238 51.516 c 350.238 50.305 349.359 49.297 348.207
 49.086 c 347.312 49.086 l 346.16 49.297 345.285 50.305 345.285 51.516 c
 h
345.285 51.516 m f
339.48 57.324 m 338.113 57.324 337.004 58.434 337.004 59.801 c 337.004 
61.168 338.113 62.273 339.48 62.273 c 340.848 62.273 341.957 61.168 341.957
 59.801 c 341.957 58.434 340.848 57.324 339.48 57.324 c h
339.48 57.324 m f
347.762 65.004 m 346.395 65.004 345.285 66.113 345.285 67.48 c 345.285 
68.848 346.395 69.953 347.762 69.953 c 349.129 69.953 350.238 68.848 350.238
 67.48 c 350.238 66.113 349.129 65.004 347.762 65.004 c h
347.762 65.004 m f
339.48 73.285 m 338.113 73.285 337.004 74.395 337.004 75.762 c 337.004 
77.129 338.113 78.238 339.48 78.238 c 340.848 78.238 341.957 77.129 341.957
 75.762 c 341.957 74.395 340.848 73.285 339.48 73.285 c h
339.48 73.285 m f
347.762 80.965 m 346.395 80.965 345.285 82.074 345.285 83.441 c 345.285
 84.809 346.395 85.918 347.762 85.918 c 349.129 85.918 350.238 84.809 350.238
 83.441 c 350.238 82.074 349.129 80.965 347.762 80.965 c h
347.762 80.965 m f
339.48 137.133 m 338.113 137.133 337.004 138.242 337.004 139.609 c 337.004
 140.977 338.113 142.082 339.48 142.082 c 340.848 142.082 341.957 140.977
 341.957 139.609 c 341.957 138.242 340.848 137.133 339.48 137.133 c h
339.48 137.133 m f
347.762 144.812 m 346.395 144.812 345.285 145.922 345.285 147.289 c 345.285
 148.656 346.395 149.766 347.762 149.766 c 349.129 149.766 350.238 148.656
 350.238 147.289 c 350.238 145.922 349.129 144.812 347.762 144.812 c h
347.762 144.812 m f
339.48 153.094 m 338.113 153.094 337.004 154.203 337.004 155.57 c 337.004
 156.938 338.113 158.047 339.48 158.047 c 340.848 158.047 341.957 156.938
 341.957 155.57 c 341.957 154.203 340.848 153.094 339.48 153.094 c h
339.48 153.094 m f
347.762 160.773 m 346.395 160.773 345.285 161.883 345.285 163.25 c 345.285
 164.617 346.395 165.727 347.762 165.727 c 349.129 165.727 350.238 164.617
 350.238 163.25 c 350.238 161.883 349.129 160.773 347.762 160.773 c h
347.762 160.773 m f
339.48 169.059 m 338.113 169.059 337.004 170.164 337.004 171.531 c 337.004
 172.898 338.113 174.008 339.48 174.008 c 340.848 174.008 341.957 172.898
 341.957 171.531 c 341.957 170.164 340.848 169.059 339.48 169.059 c h
339.48 169.059 m f
347.762 176.738 m 346.395 176.738 345.285 177.844 345.285 179.211 c 345.285
 180.578 346.395 181.688 347.762 181.688 c 349.129 181.688 350.238 180.578
 350.238 179.211 c 350.238 177.844 349.129 176.738 347.762 176.738 c h
347.762 176.738 m f
339.48 185.02 m 338.113 185.02 337.004 186.125 337.004 187.492 c 337.004
 188.859 338.113 189.969 339.48 189.969 c 340.848 189.969 341.957 188.859
 341.957 187.492 c 341.957 186.125 340.848 185.02 339.48 185.02 c h
339.48 185.02 m f
347.762 192.699 m 346.395 192.699 345.285 193.809 345.285 195.176 c 345.285
 196.543 346.395 197.652 347.762 197.652 c 349.129 197.652 350.238 196.543
 350.238 195.176 c 350.238 193.809 349.129 192.699 347.762 192.699 c h
347.762 192.699 m f
347.762 224.621 m 346.395 224.621 345.285 225.73 345.285 227.098 c 345.285
 228.465 346.395 229.574 347.762 229.574 c 349.129 229.574 350.238 228.465
 350.238 227.098 c 350.238 225.73 349.129 224.621 347.762 224.621 c h
347.762 224.621 m f
339.48 232.902 m 338.113 232.902 337.004 234.012 337.004 235.379 c 337.004
 236.746 338.113 237.855 339.48 237.855 c 340.848 237.855 341.957 236.746
 341.957 235.379 c 341.957 234.012 340.848 232.902 339.48 232.902 c h
339.48 232.902 m f
347.762 240.586 m 346.395 240.586 345.285 241.691 345.285 243.059 c 345.285
 244.426 346.395 245.535 347.762 245.535 c 349.129 245.535 350.238 244.426
 350.238 243.059 c 350.238 241.691 349.129 240.586 347.762 240.586 c h
347.762 240.586 m f
339.48 248.867 m 338.113 248.867 337.004 249.973 337.004 251.34 c 337.004
 252.707 338.113 253.816 339.48 253.816 c 340.848 253.816 341.957 252.707
 341.957 251.34 c 341.957 249.973 340.848 248.867 339.48 248.867 c h
339.48 248.867 m f
347.762 256.547 m 346.395 256.547 345.285 257.656 345.285 259.023 c 345.285
 260.391 346.395 261.5 347.762 261.5 c 349.129 261.5 350.238 260.391 350.238
 259.023 c 350.238 257.656 349.129 256.547 347.762 256.547 c h
347.762 256.547 m f
329.324 51.516 m 329.324 52.887 330.434 53.992 331.801 53.992 c 333.168
 53.992 334.273 52.883 334.273 51.516 c 334.273 50.305 333.398 49.297 332.246
 49.086 c 331.352 49.086 l 330.199 49.297 329.324 50.305 329.324 51.516 
c h
329.324 51.516 m f
323.52 57.324 m 322.152 57.324 321.043 58.434 321.043 59.801 c 321.043 
61.168 322.152 62.273 323.52 62.273 c 324.887 62.273 325.992 61.168 325.992
 59.801 c 325.992 58.434 324.887 57.324 323.52 57.324 c h
323.52 57.324 m f
331.801 65.004 m 330.434 65.004 329.324 66.113 329.324 67.48 c 329.324 
68.848 330.434 69.953 331.801 69.953 c 333.168 69.953 334.273 68.848 334.273
 67.48 c 334.273 66.113 333.168 65.004 331.801 65.004 c h
331.801 65.004 m f
323.52 73.285 m 322.152 73.285 321.043 74.395 321.043 75.762 c 321.043 
77.129 322.152 78.238 323.52 78.238 c 324.887 78.238 325.992 77.129 325.992
 75.762 c 325.992 74.395 324.887 73.285 323.52 73.285 c h
323.52 73.285 m f
331.801 80.965 m 330.434 80.965 329.324 82.074 329.324 83.441 c 329.324
 84.809 330.434 85.918 331.801 85.918 c 333.168 85.918 334.273 84.809 334.273
 83.441 c 334.273 82.074 333.168 80.965 331.801 80.965 c h
331.801 80.965 m f
323.52 137.133 m 322.152 137.133 321.043 138.242 321.043 139.609 c 321.043
 140.977 322.152 142.082 323.52 142.082 c 324.887 142.082 325.992 140.977
 325.992 139.609 c 325.992 138.242 324.887 137.133 323.52 137.133 c h
323.52 137.133 m f
331.801 144.812 m 330.434 144.812 329.324 145.922 329.324 147.289 c 329.324
 148.656 330.434 149.766 331.801 149.766 c 333.168 149.766 334.273 148.656
 334.273 147.289 c 334.273 145.922 333.168 144.812 331.801 144.812 c h
331.801 144.812 m f
323.52 153.094 m 322.152 153.094 321.043 154.203 321.043 155.57 c 321.043
 156.938 322.152 158.047 323.52 158.047 c 324.887 158.047 325.992 156.938
 325.992 155.57 c 325.992 154.203 324.887 153.094 323.52 153.094 c h
323.52 153.094 m f
331.801 160.773 m 330.434 160.773 329.324 161.883 329.324 163.25 c 329.324
 164.617 330.434 165.727 331.801 165.727 c 333.168 165.727 334.273 164.617
 334.273 163.25 c 334.273 161.883 333.168 160.773 331.801 160.773 c h
331.801 160.773 m f
323.52 169.059 m 322.152 169.059 321.043 170.164 321.043 171.531 c 321.043
 172.898 322.152 174.008 323.52 174.008 c 324.887 174.008 325.992 172.898
 325.992 171.531 c 325.992 170.164 324.887 169.059 323.52 169.059 c h
323.52 169.059 m f
331.801 176.738 m 330.434 176.738 329.324 177.844 329.324 179.211 c 329.324
 180.578 330.434 181.688 331.801 181.688 c 333.168 181.688 334.273 180.578
 334.273 179.211 c 334.273 177.844 333.168 176.738 331.801 176.738 c h
331.801 176.738 m f
323.52 185.02 m 322.152 185.02 321.043 186.125 321.043 187.492 c 321.043
 188.859 322.152 189.969 323.52 189.969 c 324.887 189.969 325.992 188.859
 325.992 187.492 c 325.992 186.125 324.887 185.02 323.52 185.02 c h
323.52 185.02 m f
331.801 224.621 m 330.434 224.621 329.324 225.73 329.324 227.098 c 329.324
 228.465 330.434 229.574 331.801 229.574 c 333.168 229.574 334.273 228.465
 334.273 227.098 c 334.273 225.73 333.168 224.621 331.801 224.621 c h
331.801 224.621 m f
323.52 232.902 m 322.152 232.902 321.043 234.012 321.043 235.379 c 321.043
 236.746 322.152 237.855 323.52 237.855 c 324.887 237.855 325.992 236.746
 325.992 235.379 c 325.992 234.012 324.887 232.902 323.52 232.902 c h
323.52 232.902 m f
331.801 240.586 m 330.434 240.586 329.324 241.691 329.324 243.059 c 329.324
 244.426 330.434 245.535 331.801 245.535 c 333.168 245.535 334.273 244.426
 334.273 243.059 c 334.273 241.691 333.168 240.586 331.801 240.586 c h
331.801 240.586 m f
323.52 248.867 m 322.152 248.867 321.043 249.973 321.043 251.34 c 321.043
 252.707 322.152 253.816 323.52 253.816 c 324.887 253.816 325.992 252.707
 325.992 251.34 c 325.992 249.973 324.887 248.867 323.52 248.867 c h
323.52 248.867 m f
331.801 256.547 m 330.434 256.547 329.324 257.656 329.324 259.023 c 329.324
 260.391 330.434 261.5 331.801 261.5 c 333.168 261.5 334.273 260.391 334.273
 259.023 c 334.273 257.656 333.168 256.547 331.801 256.547 c h
331.801 256.547 m f
313.359 51.516 m 313.359 52.887 314.469 53.992 315.836 53.992 c 317.203
 53.992 318.312 52.883 318.312 51.516 c 318.312 50.305 317.438 49.297 316.285
 49.086 c 315.391 49.086 l 314.238 49.297 313.359 50.305 313.359 51.516 
c h
313.359 51.516 m f
307.555 57.324 m 306.188 57.324 305.082 58.434 305.082 59.801 c 305.082
 61.168 306.188 62.273 307.555 62.273 c 308.922 62.273 310.031 61.168 310.031
 59.801 c 310.031 58.434 308.922 57.324 307.555 57.324 c h
307.555 57.324 m f
315.836 65.004 m 314.469 65.004 313.359 66.113 313.359 67.48 c 313.359 
68.848 314.469 69.953 315.836 69.953 c 317.203 69.953 318.312 68.848 318.312
 67.48 c 318.312 66.113 317.203 65.004 315.836 65.004 c h
315.836 65.004 m f
307.555 73.285 m 306.188 73.285 305.082 74.395 305.082 75.762 c 305.082
 77.129 306.188 78.238 307.555 78.238 c 308.922 78.238 310.031 77.129 310.031
 75.762 c 310.031 74.395 308.922 73.285 307.555 73.285 c h
307.555 73.285 m f
315.836 80.965 m 314.469 80.965 313.359 82.074 313.359 83.441 c 313.359
 84.809 314.469 85.918 315.836 85.918 c 317.203 85.918 318.312 84.809 318.312
 83.441 c 318.312 82.074 317.203 80.965 315.836 80.965 c h
315.836 80.965 m f
315.836 144.812 m 314.469 144.812 313.359 145.922 313.359 147.289 c 313.359
 148.656 314.469 149.766 315.836 149.766 c 317.203 149.766 318.312 148.656
 318.312 147.289 c 318.312 145.922 317.203 144.812 315.836 144.812 c h
315.836 144.812 m f
315.836 160.773 m 314.469 160.773 313.359 161.883 313.359 163.25 c 313.359
 164.617 314.469 165.727 315.836 165.727 c 317.203 165.727 318.312 164.617
 318.312 163.25 c 318.312 161.883 317.203 160.773 315.836 160.773 c h
315.836 160.773 m f
315.836 176.738 m 314.469 176.738 313.359 177.844 313.359 179.211 c 313.359
 180.578 314.469 181.688 315.836 181.688 c 317.203 181.688 318.312 180.578
 318.312 179.211 c 318.312 177.844 317.203 176.738 315.836 176.738 c h
315.836 176.738 m f
315.836 224.621 m 314.469 224.621 313.359 225.73 313.359 227.098 c 313.359
 228.465 314.469 229.574 315.836 229.574 c 317.203 229.574 318.312 228.465
 318.312 227.098 c 318.312 225.73 317.203 224.621 315.836 224.621 c h
315.836 224.621 m f
315.836 240.586 m 314.469 240.586 313.359 241.691 313.359 243.059 c 313.359
 244.426 314.469 245.535 315.836 245.535 c 317.203 245.535 318.312 244.426
 318.312 243.059 c 318.312 241.691 317.203 240.586 315.836 240.586 c h
315.836 240.586 m f
315.836 256.547 m 314.469 256.547 313.359 257.656 313.359 259.023 c 313.359
 260.391 314.469 261.5 315.836 261.5 c 317.203 261.5 318.312 260.391 318.312
 259.023 c 318.312 257.656 317.203 256.547 315.836 256.547 c h
315.836 256.547 m f
297.398 51.516 m 297.398 52.887 298.508 53.992 299.875 53.992 c 301.242
 53.992 302.352 52.883 302.352 51.516 c 302.352 50.305 301.477 49.297 300.324
 49.086 c 299.43 49.086 l 298.273 49.297 297.398 50.305 297.398 51.516 c
 h
297.398 51.516 m f
294.07 59.801 m 294.07 61.168 292.961 62.273 291.594 62.273 c 290.227 62.273
 289.117 61.168 289.117 59.801 c 289.117 58.434 290.227 57.324 291.594 57.324
 c 292.961 57.324 294.07 58.434 294.07 59.801 c h
294.07 59.801 m f
299.875 65.004 m 298.508 65.004 297.398 66.113 297.398 67.48 c 297.398 
68.848 298.508 69.953 299.875 69.953 c 301.242 69.953 302.352 68.848 302.352
 67.48 c 302.352 66.113 301.242 65.004 299.875 65.004 c h
299.875 65.004 m f
291.594 73.285 m 290.227 73.285 289.117 74.395 289.117 75.762 c 289.117
 77.129 290.227 78.238 291.594 78.238 c 292.961 78.238 294.07 77.129 294.07
 75.762 c 294.07 74.395 292.961 73.285 291.594 73.285 c h
291.594 73.285 m f
299.875 80.965 m 298.508 80.965 297.398 82.074 297.398 83.441 c 297.398
 84.809 298.508 85.918 299.875 85.918 c 301.242 85.918 302.352 84.809 302.352
 83.441 c 302.352 82.074 301.242 80.965 299.875 80.965 c h
299.875 80.965 m f
281.438 51.516 m 281.438 52.887 282.547 53.992 283.914 53.992 c 285.281
 53.992 286.391 52.883 286.391 51.516 c 286.391 50.305 285.516 49.297 284.359
 49.086 c 283.465 49.086 l 282.312 49.297 281.438 50.305 281.438 51.516 
c h
281.438 51.516 m f
278.109 59.801 m 278.109 61.168 277 62.273 275.633 62.273 c 274.266 62.273
 273.156 61.168 273.156 59.801 c 273.156 58.434 274.266 57.324 275.633 57.324
 c 277 57.324 278.109 58.434 278.109 59.801 c h
278.109 59.801 m f
283.914 65.004 m 282.547 65.004 281.438 66.113 281.438 67.48 c 281.438 
68.848 282.547 69.953 283.914 69.953 c 285.281 69.953 286.391 68.848 286.391
 67.48 c 286.391 66.113 285.281 65.004 283.914 65.004 c h
283.914 65.004 m f
275.633 73.285 m 274.266 73.285 273.156 74.395 273.156 75.762 c 273.156
 77.129 274.266 78.238 275.633 78.238 c 277 78.238 278.109 77.129 278.109
 75.762 c 278.109 74.395 277 73.285 275.633 73.285 c h
275.633 73.285 m f
283.914 80.965 m 282.547 80.965 281.438 82.074 281.438 83.441 c 281.438
 84.809 282.547 85.918 283.914 85.918 c 285.281 85.918 286.391 84.809 286.391
 83.441 c 286.391 82.074 285.281 80.965 283.914 80.965 c h
283.914 80.965 m f
265.477 51.516 m 265.477 52.887 266.586 53.992 267.953 53.992 c 269.32 
53.992 270.426 52.883 270.426 51.516 c 270.426 50.305 269.551 49.297 268.398
 49.086 c 267.504 49.086 l 266.352 49.297 265.477 50.305 265.477 51.516 
c h
265.477 51.516 m f
262.145 59.801 m 262.145 61.168 261.039 62.273 259.672 62.273 c 258.305
 62.273 257.195 61.168 257.195 59.801 c 257.195 58.434 258.305 57.324 259.672
 57.324 c 261.039 57.324 262.145 58.434 262.145 59.801 c h
262.145 59.801 m f
267.953 65.004 m 266.586 65.004 265.477 66.113 265.477 67.48 c 265.477 
68.848 266.586 69.953 267.953 69.953 c 269.32 69.953 270.426 68.848 270.426
 67.48 c 270.426 66.113 269.32 65.004 267.953 65.004 c h
267.953 65.004 m f
259.672 73.285 m 258.305 73.285 257.195 74.395 257.195 75.762 c 257.195
 77.129 258.305 78.238 259.672 78.238 c 261.039 78.238 262.145 77.129 262.145
 75.762 c 262.145 74.395 261.039 73.285 259.672 73.285 c h
259.672 73.285 m f
267.953 80.965 m 266.586 80.965 265.477 82.074 265.477 83.441 c 265.477
 84.809 266.586 85.918 267.953 85.918 c 269.32 85.918 270.426 84.809 270.426
 83.441 c 270.426 82.074 269.32 80.965 267.953 80.965 c h
267.953 80.965 m f
249.516 51.516 m 249.516 52.887 250.621 53.992 251.988 53.992 c 253.355
 53.992 254.465 52.883 254.465 51.516 c 254.465 50.305 253.59 49.297 252.438
 49.086 c 251.543 49.086 l 250.391 49.297 249.516 50.305 249.516 51.516 
c h
249.516 51.516 m f
243.707 57.324 m 242.34 57.324 241.234 58.434 241.234 59.801 c 241.234 
61.168 242.34 62.273 243.707 62.273 c 245.074 62.273 246.184 61.168 246.184
 59.801 c 246.184 58.434 245.074 57.324 243.707 57.324 c h
243.707 57.324 m f
251.988 65.004 m 250.621 65.004 249.516 66.113 249.516 67.48 c 249.516 
68.848 250.621 69.953 251.988 69.953 c 253.355 69.953 254.465 68.848 254.465
 67.48 c 254.465 66.113 253.359 65.004 251.988 65.004 c h
251.988 65.004 m f
243.707 73.285 m 242.34 73.285 241.234 74.395 241.234 75.762 c 241.234 
77.129 242.34 78.238 243.707 78.238 c 245.074 78.238 246.184 77.129 246.184
 75.762 c 246.184 74.395 245.074 73.285 243.707 73.285 c h
243.707 73.285 m f
251.988 80.965 m 250.621 80.965 249.516 82.074 249.516 83.441 c 249.516
 84.809 250.621 85.918 251.988 85.918 c 253.355 85.918 254.465 84.809 254.465
 83.441 c 254.465 82.074 253.359 80.965 251.988 80.965 c h
251.988 80.965 m f
233.551 51.516 m 233.551 52.887 234.66 53.992 236.027 53.992 c 237.395 
53.992 238.504 52.883 238.504 51.516 c 238.504 50.305 237.629 49.297 236.477
 49.086 c 235.582 49.086 l 234.426 49.297 233.551 50.305 233.551 51.516 
c h
233.551 51.516 m f
227.746 57.324 m 226.379 57.324 225.27 58.434 225.27 59.801 c 225.27 61.168
 226.379 62.273 227.746 62.273 c 229.113 62.273 230.223 61.168 230.223 59.801
 c 230.223 58.434 229.113 57.324 227.746 57.324 c h
227.746 57.324 m f
236.027 65.004 m 234.66 65.004 233.551 66.113 233.551 67.48 c 233.551 68.848
 234.66 69.953 236.027 69.953 c 237.395 69.953 238.504 68.848 238.504 67.48
 c 238.504 66.113 237.395 65.004 236.027 65.004 c h
236.027 65.004 m f
227.746 73.285 m 226.379 73.285 225.27 74.395 225.27 75.762 c 225.27 77.129
 226.379 78.238 227.746 78.238 c 229.113 78.238 230.223 77.129 230.223 75.762
 c 230.223 74.395 229.113 73.285 227.746 73.285 c h
227.746 73.285 m f
236.027 80.965 m 234.66 80.965 233.551 82.074 233.551 83.441 c 233.551 
84.809 234.66 85.918 236.027 85.918 c 237.395 85.918 238.504 84.809 238.504
 83.441 c 238.504 82.074 237.395 80.965 236.027 80.965 c h
236.027 80.965 m f
217.59 51.516 m 217.59 52.887 218.699 53.992 220.066 53.992 c 221.434 53.992
 222.543 52.883 222.543 51.516 c 222.543 50.305 221.668 49.297 220.512 49.086
 c 219.617 49.086 l 218.465 49.297 217.59 50.305 217.59 51.516 c h
217.59 51.516 m f
214.262 59.801 m 214.262 61.168 213.152 62.273 211.785 62.273 c 210.418
 62.273 209.309 61.168 209.309 59.801 c 209.309 58.434 210.418 57.324 211.785
 57.324 c 213.152 57.324 214.262 58.434 214.262 59.801 c h
214.262 59.801 m f
220.066 65.004 m 218.699 65.004 217.59 66.113 217.59 67.48 c 217.59 68.848
 218.699 69.953 220.066 69.953 c 221.434 69.953 222.543 68.848 222.543 67.48
 c 222.543 66.113 221.434 65.004 220.066 65.004 c h
220.066 65.004 m f
211.785 73.285 m 210.418 73.285 209.309 74.395 209.309 75.762 c 209.309
 77.129 210.418 78.238 211.785 78.238 c 213.152 78.238 214.262 77.129 214.262
 75.762 c 214.262 74.395 213.152 73.285 211.785 73.285 c h
211.785 73.285 m f
220.066 80.965 m 218.699 80.965 217.59 82.074 217.59 83.441 c 217.59 84.809
 218.699 85.918 220.066 85.918 c 221.434 85.918 222.543 84.809 222.543 83.441
 c 222.543 82.074 221.434 80.965 220.066 80.965 c h
220.066 80.965 m f
201.629 51.516 m 201.629 52.887 202.738 53.992 204.105 53.992 c 205.473
 53.992 206.578 52.883 206.578 51.516 c 206.578 50.305 205.703 49.297 204.551
 49.086 c 203.656 49.086 l 202.504 49.297 201.629 50.305 201.629 51.516 
c h
201.629 51.516 m f
198.297 59.801 m 198.297 61.168 197.191 62.273 195.824 62.273 c 194.457
 62.273 193.348 61.168 193.348 59.801 c 193.348 58.434 194.457 57.324 195.824
 57.324 c 197.191 57.324 198.297 58.434 198.297 59.801 c h
198.297 59.801 m f
204.105 65.004 m 202.738 65.004 201.629 66.113 201.629 67.48 c 201.629 
68.848 202.738 69.953 204.105 69.953 c 205.473 69.953 206.578 68.848 206.578
 67.48 c 206.578 66.113 205.473 65.004 204.105 65.004 c h
204.105 65.004 m f
195.824 73.285 m 194.457 73.285 193.348 74.395 193.348 75.762 c 193.348
 77.129 194.457 78.238 195.824 78.238 c 197.191 78.238 198.297 77.129 198.297
 75.762 c 198.297 74.395 197.191 73.285 195.824 73.285 c h
195.824 73.285 m f
204.105 80.965 m 202.738 80.965 201.629 82.074 201.629 83.441 c 201.629
 84.809 202.738 85.918 204.105 85.918 c 205.473 85.918 206.578 84.809 206.578
 83.441 c 206.578 82.074 205.473 80.965 204.105 80.965 c h
204.105 80.965 m f
185.668 51.516 m 185.668 52.887 186.773 53.992 188.141 53.992 c 189.508
 53.992 190.617 52.883 190.617 51.516 c 190.617 50.305 189.742 49.297 188.59
 49.086 c 187.695 49.086 l 186.543 49.297 185.668 50.305 185.668 51.516 
c h
185.668 51.516 m f
179.859 57.324 m 178.492 57.324 177.383 58.434 177.383 59.801 c 177.383
 61.168 178.492 62.273 179.859 62.273 c 181.227 62.273 182.336 61.168 182.336
 59.801 c 182.336 58.434 181.227 57.324 179.859 57.324 c h
179.859 57.324 m f
188.141 65.004 m 186.773 65.004 185.668 66.113 185.668 67.48 c 185.668 
68.848 186.773 69.953 188.141 69.953 c 189.508 69.953 190.617 68.848 190.617
 67.48 c 190.617 66.113 189.508 65.004 188.141 65.004 c h
188.141 65.004 m f
179.859 73.285 m 178.492 73.285 177.383 74.395 177.383 75.762 c 177.383
 77.129 178.492 78.238 179.859 78.238 c 181.227 78.238 182.336 77.129 182.336
 75.762 c 182.336 74.395 181.227 73.285 179.859 73.285 c h
179.859 73.285 m f
188.141 80.965 m 186.773 80.965 185.668 82.074 185.668 83.441 c 185.668
 84.809 186.773 85.918 188.141 85.918 c 189.508 85.918 190.617 84.809 190.617
 83.441 c 190.617 82.074 189.508 80.965 188.141 80.965 c h
188.141 80.965 m f
169.703 51.516 m 169.703 52.887 170.812 53.992 172.18 53.992 c 173.547 
53.992 174.656 52.883 174.656 51.516 c 174.656 50.305 173.781 49.297 172.629
 49.086 c 171.73 49.086 l 170.578 49.297 169.703 50.305 169.703 51.516 c
 h
169.703 51.516 m f
166.34 59.309 m 166.559 60.656 165.645 61.93 164.293 62.148 c 162.945 62.367
 161.672 61.449 161.453 60.102 c 161.234 58.75 162.152 57.48 163.5 57.262
 c 164.852 57.043 166.121 57.961 166.34 59.309 c h
166.34 59.309 m f
172.18 65.004 m 170.812 65.004 169.703 66.113 169.703 67.48 c 169.703 68.848
 170.812 69.953 172.18 69.953 c 173.547 69.953 174.656 68.848 174.656 67.48
 c 174.656 66.113 173.547 65.004 172.18 65.004 c h
172.18 65.004 m f
163.898 73.285 m 162.531 73.285 161.422 74.395 161.422 75.762 c 161.422
 77.129 162.531 78.238 163.898 78.238 c 165.266 78.238 166.375 77.129 166.375
 75.762 c 166.375 74.395 165.266 73.285 163.898 73.285 c h
163.898 73.285 m f
172.18 80.965 m 170.812 80.965 169.703 82.074 169.703 83.441 c 169.703 
84.809 170.812 85.918 172.18 85.918 c 173.547 85.918 174.656 84.809 174.656
 83.441 c 174.656 82.074 173.547 80.965 172.18 80.965 c h
172.18 80.965 m f
153.742 51.516 m 153.742 52.887 154.852 53.992 156.219 53.992 c 157.586
 53.992 158.695 52.883 158.695 51.516 c 158.695 50.305 157.82 49.297 156.664
 49.086 c 155.77 49.086 l 154.617 49.297 153.742 50.305 153.742 51.516 c
 h
153.742 51.516 m f
150.414 59.801 m 150.414 61.168 149.305 62.273 147.938 62.273 c 146.57 
62.273 145.461 61.168 145.461 59.801 c 145.461 58.434 146.57 57.324 147.938
 57.324 c 149.305 57.324 150.414 58.434 150.414 59.801 c h
150.414 59.801 m f
156.219 65.004 m 154.852 65.004 153.742 66.113 153.742 67.48 c 153.742 
68.848 154.852 69.953 156.219 69.953 c 157.586 69.953 158.695 68.848 158.695
 67.48 c 158.695 66.113 157.586 65.004 156.219 65.004 c h
156.219 65.004 m f
147.938 73.285 m 146.57 73.285 145.461 74.395 145.461 75.762 c 145.461 
77.129 146.57 78.238 147.938 78.238 c 149.305 78.238 150.414 77.129 150.414
 75.762 c 150.414 74.395 149.305 73.285 147.938 73.285 c h
147.938 73.285 m f
156.219 80.965 m 154.852 80.965 153.742 82.074 153.742 83.441 c 153.742
 84.809 154.852 85.918 156.219 85.918 c 157.586 85.918 158.695 84.809 158.695
 83.441 c 158.695 82.074 157.586 80.965 156.219 80.965 c h
156.219 80.965 m f
137.781 51.516 m 137.781 52.887 138.891 53.992 140.258 53.992 c 141.625
 53.992 142.73 52.883 142.73 51.516 c 142.73 50.305 141.855 49.297 140.703
 49.086 c 139.809 49.086 l 138.656 49.297 137.781 50.305 137.781 51.516 
c h
137.781 51.516 m f
131.977 57.324 m 130.609 57.324 129.5 58.434 129.5 59.801 c 129.5 61.168
 130.609 62.273 131.977 62.273 c 133.344 62.273 134.449 61.168 134.449 59.801
 c 134.449 58.434 133.344 57.324 131.977 57.324 c h
131.977 57.324 m f
140.258 65.004 m 138.891 65.004 137.781 66.113 137.781 67.48 c 137.781 
68.848 138.891 69.953 140.258 69.953 c 141.625 69.953 142.734 68.848 142.734
 67.48 c 142.734 66.113 141.625 65.004 140.258 65.004 c h
140.258 65.004 m f
131.977 73.285 m 130.609 73.285 129.5 74.395 129.5 75.762 c 129.5 77.129
 130.609 78.238 131.977 78.238 c 133.344 78.238 134.449 77.129 134.449 75.762
 c 134.449 74.395 133.344 73.285 131.977 73.285 c h
131.977 73.285 m f
140.258 80.965 m 138.891 80.965 137.781 82.074 137.781 83.441 c 137.781
 84.809 138.891 85.918 140.258 85.918 c 141.625 85.918 142.734 84.809 142.734
 83.441 c 142.734 82.074 141.625 80.965 140.258 80.965 c h
140.258 80.965 m f
121.82 51.516 m 121.82 52.887 122.926 53.992 124.293 53.992 c 125.66 53.992
 126.77 52.883 126.77 51.516 c 126.77 50.305 125.895 49.297 124.742 49.086
 c 123.848 49.086 l 122.695 49.297 121.82 50.305 121.82 51.516 c h
121.82 51.516 m f
118.488 59.801 m 118.488 61.168 117.379 62.273 116.012 62.273 c 114.645
 62.273 113.539 61.168 113.539 59.801 c 113.539 58.434 114.645 57.324 116.012
 57.324 c 117.379 57.324 118.488 58.434 118.488 59.801 c h
118.488 59.801 m f
124.293 65.004 m 122.926 65.004 121.82 66.113 121.82 67.48 c 121.82 68.848
 122.926 69.953 124.293 69.953 c 125.66 69.953 126.77 68.848 126.77 67.48
 c 126.77 66.113 125.66 65.004 124.293 65.004 c h
124.293 65.004 m f
116.012 73.285 m 114.645 73.285 113.539 74.395 113.539 75.762 c 113.539
 77.129 114.645 78.238 116.012 78.238 c 117.379 78.238 118.488 77.129 118.488
 75.762 c 118.488 74.395 117.379 73.285 116.012 73.285 c h
116.012 73.285 m f
124.293 80.965 m 122.926 80.965 121.82 82.074 121.82 83.441 c 121.82 84.809
 122.926 85.918 124.293 85.918 c 125.66 85.918 126.77 84.809 126.77 83.441
 c 126.77 82.074 125.66 80.965 124.293 80.965 c h
124.293 80.965 m f
105.855 51.516 m 105.855 52.887 106.965 53.992 108.332 53.992 c 109.699
 53.992 110.809 52.883 110.809 51.516 c 110.809 50.305 109.934 49.297 108.781
 49.086 c 107.883 49.086 l 106.73 49.297 105.855 50.305 105.855 51.516 c
 h
105.855 51.516 m f
100.051 57.324 m 98.684 57.324 97.574 58.434 97.574 59.801 c 97.574 61.168
 98.684 62.273 100.051 62.273 c 101.418 62.273 102.527 61.168 102.527 59.801
 c 102.527 58.434 101.418 57.324 100.051 57.324 c h
100.051 57.324 m f
108.332 65.004 m 106.965 65.004 105.855 66.113 105.855 67.48 c 105.855 
68.848 106.965 69.953 108.332 69.953 c 109.699 69.953 110.809 68.848 110.809
 67.48 c 110.809 66.113 109.699 65.004 108.332 65.004 c h
108.332 65.004 m f
100.051 78.238 m 101.418 78.238 102.527 77.129 102.527 75.762 c 102.527
 74.395 101.418 73.285 100.051 73.285 c 98.684 73.285 97.574 74.395 97.574
 75.762 c 97.574 77.129 98.684 78.238 100.051 78.238 c h
100.051 78.238 m f
108.332 80.965 m 106.965 80.965 105.855 82.074 105.855 83.441 c 105.855
 84.809 106.965 85.918 108.332 85.918 c 109.699 85.918 110.809 84.809 110.809
 83.441 c 110.809 82.074 109.699 80.965 108.332 80.965 c h
108.332 80.965 m f
84.09 62.273 m 85.457 62.273 86.566 61.168 86.566 59.801 c 86.566 58.543
 85.629 57.52 84.418 57.355 c 83.441 58.312 82.535 59.34 81.703 60.43 c 
81.984 61.488 82.941 62.273 84.09 62.273 c h
84.09 62.273 m f
92.371 65.004 m 91.004 65.004 89.895 66.113 89.895 67.48 c 89.895 68.848
 91.004 69.953 92.371 69.953 c 93.738 69.953 94.848 68.848 94.848 67.48 
c 94.848 66.113 93.738 65.004 92.371 65.004 c h
92.371 65.004 m f
84.09 73.285 m 82.723 73.285 81.613 74.395 81.613 75.762 c 81.613 77.129
 82.723 78.238 84.09 78.238 c 85.457 78.238 86.566 77.129 86.566 75.762 
c 86.566 74.395 85.457 73.285 84.09 73.285 c h
84.09 73.285 m f
92.371 80.965 m 91.004 80.965 89.895 82.074 89.895 83.441 c 89.895 84.809
 91.004 85.918 92.371 85.918 c 93.738 85.918 94.848 84.809 94.848 83.441
 c 94.848 82.074 93.738 80.965 92.371 80.965 c h
92.371 80.965 m f
0.192157 0.215686 0.239216 rg
352.117 46.059 m 104.629 46.059 l 87.047 46.059 72.746 60.359 72.746 77.941
 c 72.746 118.805 l 31.883 118.805 l 14.305 118.805 0 133.105 0 150.688 
c 0 306.059 l 0 323.641 14.305 337.945 31.883 337.945 c 279.371 337.945 
l 296.953 337.945 311.254 323.641 311.254 306.059 c 311.254 265.199 l 352.117
 265.199 l 369.695 265.199 384 250.895 384 233.312 c 384 77.941 l 384 60.359
 369.695 46.059 352.117 46.059 c h
104.629 52.117 m 352.117 52.117 l 366.355 52.117 377.941 63.703 377.941
 77.941 c 377.941 89.039 l 78.805 89.039 l 78.805 77.941 l 78.805 63.703
 90.391 52.117 104.629 52.117 c h
311.254 192.523 m 332.02 192.523 l 338.793 192.523 344.301 198.031 344.301
 204.805 c 344.301 207.922 l 344.301 214.695 338.793 220.203 332.02 220.203
 c 311.254 220.203 l h
305.195 306.059 m 305.195 320.297 293.609 331.883 279.371 331.883 c 31.883
 331.883 l 17.645 331.883 6.059 320.297 6.059 306.059 c 6.059 150.688 l 
6.059 136.449 17.645 124.863 31.883 124.863 c 279.371 124.863 l 293.609 
124.863 305.195 136.449 305.195 150.688 c h
352.117 259.137 m 311.254 259.137 l 311.254 226.266 l 332.02 226.266 l 
342.133 226.266 350.363 218.035 350.363 207.922 c 350.363 204.805 l 350.363
 194.691 342.133 186.465 332.02 186.465 c 311.254 186.465 l 311.254 150.688
 l 311.254 145.695 310.098 140.973 308.047 136.762 c 377.941 136.762 l 377.941
 233.312 l 377.941 247.555 366.355 259.137 352.117 259.137 c h
352.117 259.137 m f
102.594 166.504 m 102.594 160.484 97.699 155.59 91.68 155.59 c 45.066 155.59
 l 39.047 155.59 34.152 160.484 34.152 166.504 c 34.152 196.668 l 34.152
 202.684 39.047 207.582 45.066 207.582 c 91.68 207.582 l 97.699 207.582 
102.594 202.684 102.594 196.668 c h
96.535 196.668 m 96.535 199.344 94.355 201.52 91.68 201.52 c 45.066 201.52
 l 42.387 201.52 40.211 199.344 40.211 196.668 c 40.211 166.504 l 40.211
 163.828 42.387 161.648 45.066 161.648 c 91.68 161.648 l 94.355 161.648 
96.535 163.828 96.535 166.504 c h
96.535 196.668 m f
37.18 259.086 m 87.34 259.086 l 89.016 259.086 90.371 257.73 90.371 256.055
 c 90.371 254.383 89.016 253.027 87.34 253.027 c 37.18 253.027 l 35.508 
253.027 34.152 254.383 34.152 256.055 c 34.152 257.73 35.508 259.086 37.18
 259.086 c h
37.18 259.086 m f
159.309 253.027 m 108.629 253.027 l 106.957 253.027 105.602 254.383 105.602
 256.055 c 105.602 257.73 106.957 259.086 108.629 259.086 c 159.309 259.086
 l 160.984 259.086 162.34 257.73 162.34 256.055 c 162.34 254.383 160.984
 253.027 159.309 253.027 c h
159.309 253.027 m f
41.727 285.176 m 37.18 285.176 l 35.508 285.176 34.152 286.531 34.152 288.207
 c 34.152 289.879 35.508 291.234 37.18 291.234 c 41.727 291.234 l 43.398
 291.234 44.754 289.879 44.754 288.207 c 44.754 286.531 43.398 285.176 41.727
 285.176 c h
41.727 285.176 m f
138.414 285.176 m 129.352 285.176 l 127.676 285.176 126.32 286.531 126.32
 288.207 c 126.32 289.879 127.676 291.234 129.352 291.234 c 138.414 291.234
 l 140.09 291.234 141.445 289.879 141.445 288.207 c 141.445 286.531 140.09
 285.176 138.414 285.176 c h
138.414 285.176 m f
90.07 285.176 m 81.008 285.176 l 79.332 285.176 77.977 286.531 77.977 288.207
 c 77.977 289.879 79.332 291.234 81.008 291.234 c 90.07 291.234 l 91.742
 291.234 93.102 289.879 93.102 288.207 c 93.102 286.531 91.742 285.176 90.07
 285.176 c h
90.07 285.176 m f
114.242 285.176 m 105.18 285.176 l 103.504 285.176 102.148 286.531 102.148
 288.207 c 102.148 289.879 103.504 291.234 105.18 291.234 c 114.242 291.234
 l 115.914 291.234 117.273 289.879 117.273 288.207 c 117.273 286.531 115.914
 285.176 114.242 285.176 c h
114.242 285.176 m f
65.898 285.176 m 56.832 285.176 l 55.16 285.176 53.805 286.531 53.805 288.207
 c 53.805 289.879 55.16 291.234 56.832 291.234 c 65.898 291.234 l 67.57 
291.234 68.93 289.879 68.93 288.207 c 68.93 286.531 67.57 285.176 65.898
 285.176 c h
65.898 285.176 m f
158.066 285.176 m 153.523 285.176 l 151.848 285.176 150.492 286.531 150.492
 288.207 c 150.492 289.879 151.848 291.234 153.523 291.234 c 158.066 291.234
 l 159.742 291.234 161.098 289.879 161.098 288.207 c 161.098 286.531 159.742
 285.176 158.066 285.176 c h
158.066 285.176 m f
Q Q
showpage
%%Trailer
end
%%EOF
