%!PS-Adobe-3.0 EPSF-3.0
%%Creator: cairo 1.16.0 (https://cairographics.org)
%%CreationDate: Fri Feb 12 12:12:59 2021
%%Pages: 1
%%DocumentData: Clean7Bit
%%LanguageLevel: 2
%%BoundingBox: 0 20 384 364
%%EndComments
%%BeginProlog
50 dict begin
/q { gsave } bind def
/Q { grestore } bind def
/cm { 6 array astore concat } bind def
/w { setlinewidth } bind def
/J { setlinecap } bind def
/j { setlinejoin } bind def
/M { setmiterlimit } bind def
/d { setdash } bind def
/m { moveto } bind def
/l { lineto } bind def
/c { curveto } bind def
/h { closepath } bind def
/re { exch dup neg 3 1 roll 5 3 roll moveto 0 rlineto
      0 exch rlineto 0 rlineto closepath } bind def
/S { stroke } bind def
/f { fill } bind def
/f* { eofill } bind def
/n { newpath } bind def
/W { clip } bind def
/W* { eoclip } bind def
/BT { } bind def
/ET { } bind def
/BDC { mark 3 1 roll /BDC pdfmark } bind def
/EMC { mark /EMC pdfmark } bind def
/cairo_store_point { /cairo_point_y exch def /cairo_point_x exch def } def
/Tj { show currentpoint cairo_store_point } bind def
/TJ {
  {
    dup
    type /stringtype eq
    { show } { -0.001 mul 0 cairo_font_matrix dtransform rmoveto } ifelse
  } forall
  currentpoint cairo_store_point
} bind def
/cairo_selectfont { cairo_font_matrix aload pop pop pop 0 0 6 array astore
    cairo_font exch selectfont cairo_point_x cairo_point_y moveto } bind def
/Tf { pop /cairo_font exch def /cairo_font_matrix where
      { pop cairo_selectfont } if } bind def
/Td { matrix translate cairo_font_matrix matrix concatmatrix dup
      /cairo_font_matrix exch def dup 4 get exch 5 get cairo_store_point
      /cairo_font where { pop cairo_selectfont } if } bind def
/Tm { 2 copy 8 2 roll 6 array astore /cairo_font_matrix exch def
      cairo_store_point /cairo_font where { pop cairo_selectfont } if } bind def
/g { setgray } bind def
/rg { setrgbcolor } bind def
/d1 { setcachedevice } bind def
/cairo_data_source {
  CairoDataIndex CairoData length lt
    { CairoData CairoDataIndex get /CairoDataIndex CairoDataIndex 1 add def }
    { () } ifelse
} def
/cairo_flush_ascii85_file { cairo_ascii85_file status { cairo_ascii85_file flushfile } if } def
/cairo_image { image cairo_flush_ascii85_file } def
/cairo_imagemask { imagemask cairo_flush_ascii85_file } def
%%EndProlog
%%BeginSetup
%%EndSetup
%%Page: 1 1
%%BeginPageSetup
%%PageBoundingBox: 0 20 384 364
%%EndPageSetup
q 0 20 384 344 rectclip
1 0 0 -1 0 384 cm q
0.917647 0.658824 0.584314 rg
180.168 325.043 m 180.168 335.082 172.031 343.219 161.996 343.219 c 151.957
 343.219 143.82 335.082 143.82 325.043 c 143.82 315.008 151.957 306.871 
161.996 306.871 c 172.031 306.871 180.168 315.008 180.168 325.043 c h
180.168 325.043 m f
324.492 325.043 m 324.492 335.082 316.352 343.219 306.316 343.219 c 296.277
 343.219 288.141 335.082 288.141 325.043 c 288.141 315.008 296.277 306.871
 306.316 306.871 c 316.352 306.871 324.492 315.008 324.492 325.043 c h
324.492 325.043 m f
0.913725 0.760784 0.470588 rg
367.68 62.461 m 87.008 62.461 l 81.602 62.461 76.957 65.688 74.875 70.32
 c 115.312 222.195 l 336.992 222.195 l 344.438 222.195 350.797 216.824 352.039
 209.48 c 367.68 89.086 l 375.031 89.086 380.992 83.125 380.992 75.773 c
 380.992 68.422 375.031 62.461 367.68 62.461 c h
367.68 62.461 m f
0.976471 0.984314 0.988235 rg
346.176 286.047 m 120.836 286.047 l 114.445 286.047 108.875 281.691 107.332
 275.492 c 105.234 225.18 l 57.285 67.07 l 16.926 67.07 l 9.238 67.07 3.008
 60.84 3.008 53.152 c 3.008 45.465 9.238 39.234 16.926 39.234 c 68.16 39.234
 l 74.551 39.234 80.121 43.586 81.664 49.789 c 133.789 224.66 l 133.914 
258.207 l 346.176 258.207 l 353.863 258.207 360.094 264.441 360.094 272.125
 c 360.098 279.812 353.863 286.047 346.176 286.047 c h
346.176 286.047 m f
0.917647 0.658824 0.584314 rg
304.422 98.277 m 304.422 139.434 271.059 172.793 229.906 172.793 c 188.754
 172.793 155.395 139.434 155.395 98.277 c 155.395 57.125 188.754 23.766 
229.906 23.766 c 271.059 23.766 304.422 57.125 304.422 98.277 c h
304.422 98.277 m f
0.976471 0.984314 0.988235 rg
360.562 95.328 m 359.293 95.328 358.262 96.355 358.262 97.625 c 358.262
 98.895 359.293 99.926 360.562 99.926 c 361.832 99.926 362.859 98.895 362.859
 97.625 c 362.859 96.355 361.832 95.328 360.562 95.328 c h
360.562 95.328 m f
352.871 103.016 m 351.602 103.016 350.574 104.047 350.574 105.316 c 350.574
 106.586 351.602 107.617 352.871 107.617 c 354.141 107.617 355.172 106.586
 355.172 105.316 c 355.172 104.047 354.141 103.016 352.871 103.016 c h
352.871 103.016 m f
360.562 110.148 m 359.293 110.148 358.262 111.18 358.262 112.449 c 358.262
 113.719 359.293 114.746 360.562 114.746 c 361.832 114.746 362.859 113.719
 362.859 112.449 c 362.859 111.18 361.832 110.148 360.562 110.148 c h
360.562 110.148 m f
352.871 117.84 m 351.602 117.84 350.574 118.867 350.574 120.137 c 350.574
 121.41 351.602 122.438 352.871 122.438 c 354.141 122.438 355.172 121.41
 355.172 120.137 c 355.172 118.867 354.141 117.84 352.871 117.84 c h
352.871 117.84 m f
352.871 132.664 m 351.602 132.664 350.574 133.691 350.574 134.961 c 350.574
 136.23 351.602 137.262 352.871 137.262 c 354.141 137.262 355.172 136.23
 355.172 134.961 c 355.172 133.691 354.141 132.664 352.871 132.664 c h
352.871 132.664 m f
352.871 147.484 m 351.602 147.484 350.574 148.512 350.574 149.785 c 350.574
 151.055 351.602 152.082 352.871 152.082 c 354.141 152.082 355.172 151.055
 355.172 149.785 c 355.172 148.512 354.141 147.484 352.871 147.484 c h
352.871 147.484 m f
352.871 162.309 m 351.602 162.309 350.574 163.336 350.574 164.605 c 350.574
 165.875 351.602 166.906 352.871 166.906 c 354.141 166.906 355.172 165.875
 355.172 164.605 c 355.172 163.336 354.141 162.309 352.871 162.309 c h
352.871 162.309 m f
352.871 177.129 m 351.602 177.129 350.574 178.156 350.574 179.43 c 350.574
 180.699 351.602 181.727 352.871 181.727 c 354.141 181.727 355.172 180.699
 355.172 179.43 c 355.172 178.156 354.141 177.129 352.871 177.129 c h
352.871 177.129 m f
345.738 95.328 m 344.469 95.328 343.441 96.355 343.441 97.625 c 343.441
 98.895 344.469 99.926 345.738 99.926 c 347.008 99.926 348.039 98.895 348.039
 97.625 c 348.039 96.355 347.008 95.328 345.738 95.328 c h
345.738 95.328 m f
345.738 110.148 m 344.469 110.148 343.441 111.18 343.441 112.449 c 343.441
 113.719 344.469 114.746 345.738 114.746 c 347.008 114.746 348.039 113.719
 348.039 112.449 c 348.039 111.18 347.008 110.148 345.738 110.148 c h
345.738 110.148 m f
338.051 117.84 m 336.777 117.84 335.75 118.867 335.75 120.137 c 335.75 
121.41 336.777 122.438 338.051 122.438 c 339.32 122.438 340.348 121.41 340.348
 120.137 c 340.348 118.867 339.32 117.84 338.051 117.84 c h
338.051 117.84 m f
345.738 124.973 m 344.469 124.973 343.441 126 343.441 127.27 c 343.441 
128.539 344.469 129.57 345.738 129.57 c 347.008 129.57 348.039 128.539 348.039
 127.27 c 348.039 126 347.008 124.973 345.738 124.973 c h
345.738 124.973 m f
338.051 132.664 m 336.777 132.664 335.75 133.691 335.75 134.961 c 335.75
 136.23 336.777 137.262 338.051 137.262 c 339.32 137.262 340.348 136.23 
340.348 134.961 c 340.348 133.691 339.32 132.664 338.051 132.664 c h
338.051 132.664 m f
345.738 139.793 m 344.469 139.793 343.441 140.824 343.441 142.094 c 343.441
 143.363 344.469 144.391 345.738 144.391 c 347.008 144.391 348.039 143.363
 348.039 142.094 c 348.039 140.824 347.008 139.793 345.738 139.793 c h
345.738 139.793 m f
338.051 147.484 m 336.777 147.484 335.75 148.512 335.75 149.785 c 335.75
 151.055 336.777 152.082 338.051 152.082 c 339.32 152.082 340.348 151.055
 340.348 149.785 c 340.348 148.512 339.32 147.484 338.051 147.484 c h
338.051 147.484 m f
345.738 154.617 m 344.469 154.617 343.441 155.645 343.441 156.914 c 343.441
 158.184 344.469 159.215 345.738 159.215 c 347.008 159.215 348.039 158.184
 348.039 156.914 c 348.039 155.645 347.008 154.617 345.738 154.617 c h
345.738 154.617 m f
338.051 162.309 m 336.777 162.309 335.75 163.336 335.75 164.605 c 335.75
 165.875 336.777 166.906 338.051 166.906 c 339.32 166.906 340.348 165.875
 340.348 164.605 c 340.348 163.336 339.32 162.309 338.051 162.309 c h
338.051 162.309 m f
345.738 169.438 m 344.469 169.438 343.441 170.469 343.441 171.738 c 343.441
 173.008 344.469 174.035 345.738 174.035 c 347.008 174.035 348.039 173.008
 348.039 171.738 c 348.039 170.469 347.008 169.438 345.738 169.438 c h
345.738 169.438 m f
338.051 177.129 m 336.777 177.129 335.75 178.156 335.75 179.43 c 335.75
 180.699 336.777 181.727 338.051 181.727 c 339.32 181.727 340.348 180.699
 340.348 179.43 c 340.348 178.156 339.32 177.129 338.051 177.129 c h
338.051 177.129 m f
345.738 184.262 m 344.469 184.262 343.441 185.289 343.441 186.559 c 343.441
 187.832 344.469 188.859 345.738 188.859 c 347.008 188.859 348.039 187.832
 348.039 186.559 c 348.039 185.289 347.008 184.262 345.738 184.262 c h
345.738 184.262 m f
338.051 191.953 m 336.777 191.953 335.75 192.98 335.75 194.25 c 335.75 
195.52 336.777 196.551 338.051 196.551 c 339.32 196.551 340.348 195.52 340.348
 194.25 c 340.348 192.98 339.32 191.953 338.051 191.953 c h
338.051 191.953 m f
345.738 199.082 m 344.469 199.082 343.441 200.113 343.441 201.383 c 343.441
 202.652 344.469 203.68 345.738 203.68 c 347.008 203.68 348.039 202.652 
348.039 201.383 c 348.039 200.113 347.008 199.082 345.738 199.082 c h
345.738 199.082 m f
338.051 206.773 m 336.777 206.773 335.75 207.805 335.75 209.074 c 335.75
 210.344 336.777 211.371 338.051 211.371 c 339.32 211.371 340.348 210.344
 340.348 209.074 c 340.348 207.805 339.32 206.773 338.051 206.773 c h
338.051 206.773 m f
345.738 213.906 m 344.469 213.906 343.441 214.938 343.441 216.207 c 343.441
 217.477 344.469 218.504 345.738 218.504 c 347.008 218.504 348.039 217.477
 348.039 216.207 c 348.039 214.938 347.008 213.906 345.738 213.906 c h
345.738 213.906 m f
330.918 184.262 m 329.648 184.262 328.617 185.289 328.617 186.559 c 328.617
 187.832 329.648 188.859 330.918 188.859 c 332.188 188.859 333.215 187.832
 333.215 186.559 c 333.215 185.289 332.188 184.262 330.918 184.262 c h
330.918 184.262 m f
330.918 199.082 m 329.648 199.082 328.617 200.113 328.617 201.383 c 328.617
 202.652 329.648 203.68 330.918 203.68 c 332.188 203.68 333.215 202.652 
333.215 201.383 c 333.215 200.113 332.188 199.082 330.918 199.082 c h
330.918 199.082 m f
323.227 206.773 m 321.957 206.773 320.926 207.805 320.926 209.074 c 320.926
 210.344 321.957 211.371 323.227 211.371 c 324.496 211.371 325.527 210.344
 325.527 209.074 c 325.527 207.805 324.496 206.773 323.227 206.773 c h
323.227 206.773 m f
330.918 218.504 m 332.188 218.504 333.215 217.477 333.215 216.207 c 333.215
 214.938 332.188 213.906 330.918 213.906 c 329.648 213.906 328.617 214.938
 328.617 216.207 c 328.617 217.477 329.648 218.504 330.918 218.504 c h
330.918 218.504 m f
313.797 201.383 m 313.797 202.652 314.824 203.68 316.094 203.68 c 317.363
 203.68 318.395 202.652 318.395 201.383 c 318.395 200.113 317.367 199.082
 316.094 199.082 c 314.824 199.082 313.797 200.113 313.797 201.383 c h
313.797 201.383 m f
306.105 209.074 m 306.105 210.344 307.133 211.371 308.406 211.371 c 309.676
 211.371 310.703 210.344 310.703 209.074 c 310.703 207.805 309.676 206.773
 308.406 206.773 c 307.133 206.773 306.105 207.805 306.105 209.074 c h
306.105 209.074 m f
316.094 218.504 m 317.363 218.504 318.395 217.477 318.395 216.207 c 318.395
 214.938 317.363 213.906 316.094 213.906 c 314.824 213.906 313.793 214.938
 313.793 216.207 c 313.797 217.477 314.824 218.504 316.094 218.504 c h
316.094 218.504 m f
301.273 199.082 m 300.004 199.082 298.973 200.113 298.973 201.383 c 298.973
 202.652 300.004 203.68 301.273 203.68 c 302.543 203.68 303.57 202.652 303.57
 201.383 c 303.57 200.113 302.543 199.082 301.273 199.082 c h
301.273 199.082 m f
291.281 209.074 m 291.281 210.344 292.312 211.371 293.582 211.371 c 294.852
 211.371 295.883 210.344 295.883 209.074 c 295.883 207.805 294.852 206.773
 293.582 206.773 c 292.312 206.773 291.281 207.805 291.281 209.074 c h
291.281 209.074 m f
301.273 213.906 m 300.004 213.906 298.973 214.938 298.973 216.207 c 298.973
 217.477 300.004 218.504 301.273 218.504 c 302.543 218.504 303.57 217.477
 303.57 216.207 c 303.57 214.938 302.543 213.906 301.273 213.906 c h
301.273 213.906 m f
286.449 199.082 m 285.18 199.082 284.148 200.113 284.148 201.383 c 284.148
 202.652 285.18 203.68 286.449 203.68 c 287.719 203.68 288.75 202.652 288.75
 201.383 c 288.75 200.113 287.719 199.082 286.449 199.082 c h
286.449 199.082 m f
276.461 209.074 m 276.461 210.344 277.492 211.371 278.762 211.371 c 280.031
 211.371 281.059 210.344 281.059 209.074 c 281.059 207.805 280.031 206.773
 278.762 206.773 c 277.488 206.773 276.461 207.805 276.461 209.074 c h
276.461 209.074 m f
286.449 213.906 m 285.18 213.906 284.148 214.938 284.148 216.207 c 284.148
 217.477 285.18 218.504 286.449 218.504 c 287.719 218.504 288.75 217.477
 288.75 216.207 c 288.75 214.938 287.719 213.906 286.449 213.906 c h
286.449 213.906 m f
271.629 199.082 m 270.359 199.082 269.328 200.113 269.328 201.383 c 269.328
 202.652 270.359 203.68 271.629 203.68 c 272.898 203.68 273.926 202.652 
273.926 201.383 c 273.926 200.113 272.898 199.082 271.629 199.082 c h
271.629 199.082 m f
261.637 209.074 m 261.637 210.344 262.668 211.371 263.938 211.371 c 265.207
 211.371 266.234 210.344 266.234 209.074 c 266.234 207.805 265.207 206.773
 263.938 206.773 c 262.668 206.773 261.637 207.805 261.637 209.074 c h
261.637 209.074 m f
271.629 213.906 m 270.359 213.906 269.328 214.938 269.328 216.207 c 269.328
 217.477 270.359 218.504 271.629 218.504 c 272.898 218.504 273.926 217.477
 273.926 216.207 c 273.926 214.938 272.898 213.906 271.629 213.906 c h
271.629 213.906 m f
256.805 199.082 m 255.535 199.082 254.504 200.113 254.504 201.383 c 254.504
 202.652 255.535 203.68 256.805 203.68 c 258.074 203.68 259.105 202.652 
259.105 201.383 c 259.105 200.113 258.074 199.082 256.805 199.082 c h
256.805 199.082 m f
246.816 209.074 m 246.816 210.344 247.844 211.371 249.113 211.371 c 250.383
 211.371 251.414 210.344 251.414 209.074 c 251.414 207.805 250.387 206.773
 249.113 206.773 c 247.844 206.773 246.816 207.805 246.816 209.074 c h
246.816 209.074 m f
256.805 213.906 m 255.535 213.906 254.504 214.938 254.504 216.207 c 254.504
 217.477 255.535 218.504 256.805 218.504 c 258.074 218.504 259.105 217.477
 259.105 216.207 c 259.105 214.938 258.074 213.906 256.805 213.906 c h
256.805 213.906 m f
241.98 199.082 m 240.711 199.082 239.684 200.113 239.684 201.383 c 239.684
 202.652 240.711 203.68 241.98 203.68 c 243.254 203.68 244.281 202.652 244.281
 201.383 c 244.281 200.113 243.254 199.082 241.98 199.082 c h
241.98 199.082 m f
231.992 209.074 m 231.992 210.344 233.023 211.371 234.293 211.371 c 235.562
 211.371 236.59 210.344 236.59 209.074 c 236.59 207.805 235.562 206.773 
234.293 206.773 c 233.023 206.773 231.992 207.805 231.992 209.074 c h
231.992 209.074 m f
241.98 213.906 m 240.711 213.906 239.684 214.938 239.684 216.207 c 239.684
 217.477 240.711 218.504 241.98 218.504 c 243.254 218.504 244.281 217.477
 244.281 216.207 c 244.281 214.938 243.254 213.906 241.98 213.906 c h
241.98 213.906 m f
227.16 199.082 m 225.891 199.082 224.859 200.113 224.859 201.383 c 224.859
 202.652 225.891 203.68 227.16 203.68 c 228.43 203.68 229.457 202.652 229.457
 201.383 c 229.457 200.113 228.43 199.082 227.16 199.082 c h
227.16 199.082 m f
217.172 209.074 m 217.172 210.344 218.199 211.371 219.469 211.371 c 220.738
 211.371 221.77 210.344 221.77 209.074 c 221.77 207.805 220.738 206.773 
219.469 206.773 c 218.199 206.773 217.172 207.805 217.172 209.074 c h
217.172 209.074 m f
227.16 213.906 m 225.891 213.906 224.859 214.938 224.859 216.207 c 224.859
 217.477 225.891 218.504 227.16 218.504 c 228.43 218.504 229.457 217.477
 229.457 216.207 c 229.457 214.938 228.43 213.906 227.16 213.906 c h
227.16 213.906 m f
212.336 199.082 m 211.066 199.082 210.039 200.113 210.039 201.383 c 210.039
 202.652 211.066 203.68 212.336 203.68 c 213.609 203.68 214.637 202.652 
214.637 201.383 c 214.637 200.113 213.609 199.082 212.336 199.082 c h
212.336 199.082 m f
202.348 209.074 m 202.348 210.344 203.375 211.371 204.648 211.371 c 205.918
 211.371 206.945 210.344 206.945 209.074 c 206.945 207.805 205.918 206.773
 204.648 206.773 c 203.379 206.773 202.348 207.805 202.348 209.074 c h
202.348 209.074 m f
212.336 213.906 m 211.066 213.906 210.039 214.938 210.039 216.207 c 210.039
 217.477 211.066 218.504 212.336 218.504 c 213.609 218.504 214.637 217.477
 214.637 216.207 c 214.637 214.938 213.609 213.906 212.336 213.906 c h
212.336 213.906 m f
197.516 199.082 m 196.246 199.082 195.215 200.113 195.215 201.383 c 195.215
 202.652 196.246 203.68 197.516 203.68 c 198.785 203.68 199.812 202.652 
199.812 201.383 c 199.812 200.113 198.785 199.082 197.516 199.082 c h
197.516 199.082 m f
187.527 209.074 m 187.527 210.344 188.555 211.371 189.824 211.371 c 191.094
 211.371 192.125 210.344 192.125 209.074 c 192.125 207.805 191.094 206.773
 189.824 206.773 c 188.555 206.773 187.527 207.805 187.527 209.074 c h
187.527 209.074 m f
197.516 213.906 m 196.246 213.906 195.215 214.938 195.215 216.207 c 195.215
 217.477 196.246 218.504 197.516 218.504 c 198.785 218.504 199.812 217.477
 199.812 216.207 c 199.812 214.938 198.785 213.906 197.516 213.906 c h
197.516 213.906 m f
182.691 199.082 m 181.422 199.082 180.395 200.113 180.395 201.383 c 180.395
 202.652 181.422 203.68 182.691 203.68 c 183.961 203.68 184.992 202.652 
184.992 201.383 c 184.992 200.113 183.961 199.082 182.691 199.082 c h
182.691 199.082 m f
172.703 209.074 m 172.703 210.344 173.73 211.371 175.004 211.371 c 176.273
 211.371 177.301 210.344 177.301 209.074 c 177.301 207.805 176.273 206.773
 175.004 206.773 c 173.73 206.773 172.703 207.805 172.703 209.074 c h
172.703 209.074 m f
182.691 213.906 m 181.422 213.906 180.395 214.938 180.395 216.207 c 180.395
 217.477 181.422 218.504 182.691 218.504 c 183.961 218.504 184.992 217.477
 184.992 216.207 c 184.992 214.938 183.961 213.906 182.691 213.906 c h
182.691 213.906 m f
167.871 199.082 m 166.602 199.082 165.57 200.113 165.57 201.383 c 165.57
 202.652 166.602 203.68 167.871 203.68 c 169.141 203.68 170.168 202.652 
170.168 201.383 c 170.168 200.113 169.141 199.082 167.871 199.082 c h
167.871 199.082 m f
157.879 209.074 m 157.879 210.344 158.91 211.371 160.18 211.371 c 161.449
 211.371 162.48 210.344 162.48 209.074 c 162.48 207.805 161.449 206.773 
160.18 206.773 c 158.91 206.773 157.879 207.805 157.879 209.074 c h
157.879 209.074 m f
167.871 213.906 m 166.602 213.906 165.57 214.938 165.57 216.207 c 165.57
 217.477 166.602 218.504 167.871 218.504 c 169.141 218.504 170.168 217.477
 170.168 216.207 c 170.168 214.938 169.141 213.906 167.871 213.906 c h
167.871 213.906 m f
153.047 199.082 m 151.777 199.082 150.746 200.113 150.746 201.383 c 150.746
 202.652 151.777 203.68 153.047 203.68 c 154.316 203.68 155.348 202.652 
155.348 201.383 c 155.348 200.113 154.316 199.082 153.047 199.082 c h
153.047 199.082 m f
143.059 209.074 m 143.059 210.344 144.086 211.371 145.359 211.371 c 146.629
 211.371 147.656 210.344 147.656 209.074 c 147.656 207.805 146.629 206.773
 145.359 206.773 c 144.086 206.773 143.059 207.805 143.059 209.074 c h
143.059 209.074 m f
153.047 213.906 m 151.777 213.906 150.746 214.938 150.746 216.207 c 150.746
 217.477 151.777 218.504 153.047 218.504 c 154.316 218.504 155.348 217.477
 155.348 216.207 c 155.348 214.938 154.316 213.906 153.047 213.906 c h
153.047 213.906 m f
135.926 201.383 m 135.926 202.652 136.957 203.68 138.227 203.68 c 139.496
 203.68 140.523 202.652 140.523 201.383 c 140.523 200.113 139.496 199.082
 138.227 199.082 c 136.957 199.082 135.926 200.113 135.926 201.383 c h
135.926 201.383 m f
138.227 218.504 m 139.496 218.504 140.523 217.477 140.523 216.207 c 140.523
 214.938 139.496 213.906 138.227 213.906 c 136.957 213.906 135.926 214.938
 135.926 216.207 c 135.926 217.477 136.957 218.504 138.227 218.504 c h
138.227 218.504 m f
338.07 103.023 m 336.801 103.023 335.773 104.051 335.773 105.32 c 335.773
 106.594 336.801 107.621 338.07 107.621 c 339.344 107.621 340.371 106.594
 340.371 105.32 c 340.371 104.051 339.344 103.023 338.07 103.023 c h
338.07 103.023 m f
323.23 191.957 m 321.961 191.957 320.93 192.984 320.93 194.254 c 320.93
 195.527 321.961 196.555 323.23 196.555 c 324.5 196.555 325.527 195.527 
325.527 194.254 c 325.527 192.984 324.5 191.957 323.23 191.957 c h
323.23 191.957 m f
0.192157 0.215686 0.239216 rg
367.68 59.449 m 296.984 59.449 l 283.551 36.332 258.516 20.754 229.91 20.754
 c 201.301 20.754 176.266 36.332 162.832 59.449 c 87.688 59.449 l 84.57 
48.992 l 82.66 41.473 75.926 36.227 68.16 36.227 c 16.926 36.227 l 7.594
 36.227 0 43.82 0 53.152 c 0 62.484 7.594 70.078 16.926 70.078 c 55.051 
70.078 l 102.242 225.684 l 104.324 275.617 l 104.332 275.82 104.359 276.02
 104.41 276.219 c 106.293 283.777 113.047 289.055 120.836 289.055 c 149.203
 289.055 l 134.414 294.328 123.793 308.465 123.793 325.043 c 123.793 346.109
 140.93 363.242 161.992 363.242 c 183.059 363.242 200.191 346.109 200.191
 325.043 c 200.191 308.465 189.574 294.328 174.781 289.055 c 293.527 289.055
 l 278.734 294.328 268.117 308.465 268.117 325.043 c 268.117 346.109 285.25
 363.242 306.316 363.242 c 327.379 363.242 344.516 346.109 344.516 325.043
 c 344.516 308.465 333.895 294.328 319.105 289.055 c 346.176 289.055 l 355.512
 289.055 363.105 281.461 363.105 272.129 c 363.105 262.793 355.512 255.199
 346.176 255.199 c 136.914 255.199 l 136.805 225.207 l 336.992 225.207 l
 345.938 225.207 353.512 218.805 355.008 209.984 c 355.016 209.934 355.023
 209.887 355.027 209.84 c 369.07 92.031 l 377.418 91.324 384 84.305 384 
75.773 c 384 66.773 376.68 59.449 367.68 59.449 c h
229.906 26.773 m 269.336 26.773 301.414 58.852 301.414 98.281 c 301.414
 137.707 269.336 169.785 229.906 169.785 c 190.48 169.785 158.402 137.707
 158.402 98.281 c 158.402 58.852 190.48 26.773 229.906 26.773 c h
159.684 65.469 m 156.66 71.91 154.5 78.824 153.348 86.078 c 95.621 86.078
 l 89.48 65.469 l h
177.16 325.043 m 177.16 333.406 170.355 340.211 161.996 340.211 c 153.633
 340.211 146.832 333.406 146.832 325.043 c 146.832 316.684 153.633 309.879
 161.996 309.879 c 170.355 309.879 177.16 316.684 177.16 325.043 c h
306.316 340.211 m 297.953 340.211 291.152 333.406 291.152 325.043 c 291.152
 316.684 297.953 309.879 306.316 309.879 c 314.676 309.879 321.48 316.684
 321.48 325.043 c 321.48 333.406 314.68 340.211 306.316 340.211 c h
346.176 261.219 m 352.191 261.219 357.086 266.113 357.086 272.129 c 357.086
 278.141 352.191 283.035 346.176 283.035 c 120.836 283.035 l 115.914 283.035
 111.629 279.762 110.324 275.043 c 108.242 225.051 l 108.23 224.801 108.188
 224.547 108.113 224.305 c 60.164 66.195 l 59.777 64.93 58.609 64.062 57.285
 64.062 c 16.926 64.062 l 10.914 64.062 6.02 59.168 6.02 53.152 c 6.02 47.137
 10.914 42.242 16.926 42.242 c 68.16 42.242 l 73.18 42.242 77.531 45.645
 78.746 50.516 c 78.758 50.559 78.77 50.605 78.781 50.648 c 130.785 225.102
 l 130.906 258.219 l 130.914 259.879 132.258 261.219 133.914 261.219 c h
349.062 209.047 m 348.031 214.926 342.965 219.188 336.992 219.188 c 135.301
 219.188 l 97.418 92.094 l 152.633 92.094 l 152.469 94.137 152.387 96.199
 152.387 98.277 c 152.387 141.027 187.164 175.801 229.91 175.801 c 272.656
 175.801 307.434 141.027 307.434 98.277 c 307.434 96.199 307.348 94.137 
307.184 92.094 c 363 92.094 l h
367.68 86.078 m 306.469 86.078 l 305.316 78.824 303.156 71.91 300.133 65.469
 c 367.68 65.469 l 373.359 65.469 377.98 70.094 377.98 75.773 c 377.98 81.453
 373.359 86.078 367.68 86.078 c h
367.68 86.078 m f
1 g
265.754 86.441 m 241.746 86.441 l 241.746 62.434 l 241.746 59.164 239.098
 56.516 235.828 56.516 c 223.988 56.516 l 220.719 56.516 218.07 59.164 218.07
 62.434 c 218.07 86.441 l 194.066 86.441 l 190.797 86.441 188.145 89.09 
188.145 92.359 c 188.145 104.199 l 188.145 107.469 190.797 110.117 194.066
 110.117 c 218.07 110.117 l 218.07 134.121 l 218.07 137.391 220.723 140.043
 223.988 140.043 c 235.828 140.043 l 239.098 140.043 241.746 137.391 241.746
 134.121 c 241.746 110.117 l 265.754 110.117 l 269.02 110.117 271.672 107.465
 271.672 104.199 c 271.672 92.359 l 271.672 89.09 269.02 86.441 265.754 
86.441 c h
265.754 86.441 m f
0.192157 0.215686 0.239216 rg
235.828 143.043 m 223.988 143.043 l 219.07 143.043 215.07 139.039 215.07
 134.121 c 215.07 113.117 l 194.062 113.117 l 189.145 113.117 185.145 109.117
 185.145 104.199 c 185.145 92.359 l 185.145 87.441 189.145 83.441 194.062
 83.441 c 215.07 83.441 l 215.07 62.434 l 215.07 57.516 219.07 53.516 223.988
 53.516 c 235.828 53.516 l 240.746 53.516 244.746 57.516 244.746 62.434 
c 244.746 83.441 l 265.754 83.441 l 270.668 83.441 274.672 87.441 274.672
 92.359 c 274.672 104.199 l 274.672 109.117 270.668 113.117 265.754 113.117
 c 244.746 113.117 l 244.746 134.125 l 244.746 139.039 240.746 143.043 235.828
 143.043 c h
194.062 89.441 m 192.453 89.441 191.145 90.75 191.145 92.359 c 191.145 
104.199 l 191.145 105.809 192.453 107.117 194.062 107.117 c 221.07 107.117
 l 221.07 134.125 l 221.07 135.734 222.379 137.043 223.988 137.043 c 235.828
 137.043 l 237.438 137.043 238.746 135.734 238.746 134.125 c 238.746 107.117
 l 265.754 107.117 l 267.363 107.117 268.672 105.809 268.672 104.199 c 268.672
 92.359 l 268.672 90.75 267.363 89.441 265.754 89.441 c 238.746 89.441 l
 238.746 62.434 l 238.746 60.824 237.438 59.516 235.828 59.516 c 223.988
 59.516 l 222.379 59.516 221.07 60.824 221.07 62.434 c 221.07 89.441 l h
194.062 89.441 m f
Q Q
showpage
%%Trailer
end
%%EOF
