%!PS-Adobe-3.0 EPSF-3.0
%%Creator: cairo 1.16.0 (https://cairographics.org)
%%CreationDate: Fri Feb 12 12:13:01 2021
%%Pages: 1
%%DocumentData: Clean7Bit
%%LanguageLevel: 2
%%BoundingBox: 0 55 384 329
%%EndComments
%%BeginProlog
50 dict begin
/q { gsave } bind def
/Q { grestore } bind def
/cm { 6 array astore concat } bind def
/w { setlinewidth } bind def
/J { setlinecap } bind def
/j { setlinejoin } bind def
/M { setmiterlimit } bind def
/d { setdash } bind def
/m { moveto } bind def
/l { lineto } bind def
/c { curveto } bind def
/h { closepath } bind def
/re { exch dup neg 3 1 roll 5 3 roll moveto 0 rlineto
      0 exch rlineto 0 rlineto closepath } bind def
/S { stroke } bind def
/f { fill } bind def
/f* { eofill } bind def
/n { newpath } bind def
/W { clip } bind def
/W* { eoclip } bind def
/BT { } bind def
/ET { } bind def
/BDC { mark 3 1 roll /BDC pdfmark } bind def
/EMC { mark /EMC pdfmark } bind def
/cairo_store_point { /cairo_point_y exch def /cairo_point_x exch def } def
/Tj { show currentpoint cairo_store_point } bind def
/TJ {
  {
    dup
    type /stringtype eq
    { show } { -0.001 mul 0 cairo_font_matrix dtransform rmoveto } ifelse
  } forall
  currentpoint cairo_store_point
} bind def
/cairo_selectfont { cairo_font_matrix aload pop pop pop 0 0 6 array astore
    cairo_font exch selectfont cairo_point_x cairo_point_y moveto } bind def
/Tf { pop /cairo_font exch def /cairo_font_matrix where
      { pop cairo_selectfont } if } bind def
/Td { matrix translate cairo_font_matrix matrix concatmatrix dup
      /cairo_font_matrix exch def dup 4 get exch 5 get cairo_store_point
      /cairo_font where { pop cairo_selectfont } if } bind def
/Tm { 2 copy 8 2 roll 6 array astore /cairo_font_matrix exch def
      cairo_store_point /cairo_font where { pop cairo_selectfont } if } bind def
/g { setgray } bind def
/rg { setrgbcolor } bind def
/d1 { setcachedevice } bind def
/cairo_data_source {
  CairoDataIndex CairoData length lt
    { CairoData CairoDataIndex get /CairoDataIndex CairoDataIndex 1 add def }
    { () } ifelse
} def
/cairo_flush_ascii85_file { cairo_ascii85_file status { cairo_ascii85_file flushfile } if } def
/cairo_image { image cairo_flush_ascii85_file } def
/cairo_imagemask { imagemask cairo_flush_ascii85_file } def
%%EndProlog
%%BeginSetup
%%EndSetup
%%Page: 1 1
%%BeginPageSetup
%%PageBoundingBox: 0 55 384 329
%%EndPageSetup
q 0 55 384 274 rectclip
1 0 0 -1 0 384 cm q
0.917647 0.658824 0.584314 rg
335.637 213.336 m 48.363 213.336 l 23.332 213.336 3.039 193.043 3.039 168.016
 c 3.039 103.867 l 3.039 78.836 23.332 58.543 48.363 58.543 c 335.637 58.543
 l 360.668 58.543 380.961 78.836 380.961 103.867 c 380.961 168.016 l 380.961
 193.043 360.668 213.336 335.637 213.336 c h
335.637 213.336 m f
0.976471 0.984314 0.988235 rg
313.895 238.312 m 246.68 175.73 l 240.34 169.551 229.68 173.953 229.547
 182.809 c 226.074 274.578 l 225.965 281.832 233.312 286.828 240.02 284.059
 c 261.211 275.309 l 278.012 315.984 l 281.238 323.797 290.188 327.516 298
 324.289 c 305.816 321.062 309.535 312.109 306.305 304.297 c 289.508 263.621
 l 310.703 254.867 l 317.406 252.102 319.09 243.375 313.895 238.312 c h
313.895 238.312 m f
379.109 97.227 m 377.824 97.227 376.785 98.266 376.785 99.547 c 376.785
 100.828 377.824 101.871 379.109 101.871 c 379.816 101.871 380.441 101.547
 380.867 101.051 c 380.797 99.934 380.688 98.824 380.539 97.73 c 380.145
 97.418 379.652 97.227 379.109 97.227 c h
379.109 97.227 m f
379.109 112.195 m 377.824 112.195 376.785 113.234 376.785 114.516 c 376.785
 115.801 377.824 116.84 379.109 116.84 c 379.867 116.84 380.539 116.469 
380.961 115.906 c 380.961 113.129 l 380.539 112.566 379.867 112.195 379.109
 112.195 c h
379.109 112.195 m f
379.109 127.168 m 377.824 127.168 376.785 128.207 376.785 129.488 c 376.785
 130.773 377.824 131.812 379.109 131.812 c 379.867 131.812 380.539 131.441
 380.961 130.875 c 380.961 128.102 l 380.539 127.539 379.867 127.168 379.109
 127.168 c h
379.109 127.168 m f
379.109 142.137 m 377.824 142.137 376.785 143.18 376.785 144.461 c 376.785
 145.742 377.824 146.781 379.109 146.781 c 379.867 146.781 380.539 146.41
 380.961 145.848 c 380.961 143.074 l 380.539 142.508 379.867 142.137 379.109
 142.137 c h
379.109 142.137 m f
379.109 157.109 m 377.824 157.109 376.785 158.148 376.785 159.434 c 376.785
 160.715 377.824 161.754 379.109 161.754 c 379.867 161.754 380.539 161.383
 380.961 160.82 c 380.961 158.043 l 380.539 157.48 379.867 157.109 379.109
 157.109 c h
379.109 157.109 m f
364.137 82.254 m 362.855 82.254 361.816 83.293 361.816 84.574 c 361.816
 85.859 362.855 86.898 364.137 86.898 c 365.418 86.898 366.461 85.859 366.461
 84.574 c 366.461 83.293 365.422 82.254 364.137 82.254 c h
364.137 82.254 m f
371.906 89.457 m 370.621 89.457 369.582 90.496 369.582 91.777 c 369.582
 93.062 370.621 94.102 371.906 94.102 c 373.188 94.102 374.227 93.062 374.227
 91.777 c 374.227 90.496 373.188 89.457 371.906 89.457 c h
371.906 89.457 m f
364.137 97.227 m 362.855 97.227 361.816 98.266 361.816 99.547 c 361.816
 100.828 362.855 101.871 364.137 101.871 c 365.418 101.871 366.461 100.828
 366.461 99.547 c 366.461 98.266 365.422 97.227 364.137 97.227 c h
364.137 97.227 m f
371.906 104.43 m 370.621 104.43 369.582 105.469 369.582 106.75 c 369.582
 108.031 370.621 109.074 371.906 109.074 c 373.188 109.074 374.227 108.031
 374.227 106.75 c 374.227 105.469 373.188 104.43 371.906 104.43 c h
371.906 104.43 m f
364.137 112.195 m 362.855 112.195 361.816 113.234 361.816 114.516 c 361.816
 115.801 362.855 116.84 364.137 116.84 c 365.418 116.84 366.461 115.801 
366.461 114.516 c 366.461 113.234 365.422 112.195 364.137 112.195 c h
364.137 112.195 m f
371.906 119.398 m 370.621 119.398 369.582 120.441 369.582 121.723 c 369.582
 123.004 370.621 124.043 371.906 124.043 c 373.188 124.043 374.227 123.004
 374.227 121.723 c 374.227 120.441 373.188 119.398 371.906 119.398 c h
371.906 119.398 m f
364.137 127.168 m 362.855 127.168 361.816 128.207 361.816 129.488 c 361.816
 130.773 362.855 131.812 364.137 131.812 c 365.418 131.812 366.461 130.773
 366.461 129.488 c 366.461 128.207 365.422 127.168 364.137 127.168 c h
364.137 127.168 m f
371.906 134.371 m 370.621 134.371 369.582 135.41 369.582 136.691 c 369.582
 137.977 370.621 139.016 371.906 139.016 c 373.188 139.016 374.227 137.977
 374.227 136.691 c 374.227 135.41 373.188 134.371 371.906 134.371 c h
371.906 134.371 m f
364.137 142.137 m 362.855 142.137 361.816 143.18 361.816 144.461 c 361.816
 145.742 362.855 146.781 364.137 146.781 c 365.418 146.781 366.461 145.742
 366.461 144.461 c 366.461 143.18 365.422 142.137 364.137 142.137 c h
364.137 142.137 m f
371.906 149.34 m 370.621 149.34 369.582 150.383 369.582 151.664 c 369.582
 152.945 370.621 153.984 371.906 153.984 c 373.188 153.984 374.227 152.945
 374.227 151.664 c 374.227 150.383 373.188 149.34 371.906 149.34 c h
371.906 149.34 m f
364.137 157.109 m 362.855 157.109 361.816 158.148 361.816 159.434 c 361.816
 160.715 362.855 161.754 364.137 161.754 c 365.418 161.754 366.461 160.715
 366.461 159.434 c 366.461 158.148 365.422 157.109 364.137 157.109 c h
364.137 157.109 m f
371.906 164.312 m 370.621 164.312 369.582 165.352 369.582 166.637 c 369.582
 167.918 370.621 168.957 371.906 168.957 c 373.188 168.957 374.227 167.918
 374.227 166.637 c 374.227 165.352 373.188 164.312 371.906 164.312 c h
371.906 164.312 m f
364.137 172.078 m 362.855 172.078 361.816 173.121 361.816 174.402 c 361.816
 175.684 362.855 176.727 364.137 176.727 c 365.418 176.727 366.461 175.684
 366.461 174.402 c 366.461 173.121 365.422 172.078 364.137 172.078 c h
364.137 172.078 m f
371.906 179.285 m 370.621 179.285 369.582 180.324 369.582 181.605 c 369.582
 182.891 370.621 183.93 371.906 183.93 c 373.188 183.93 374.227 182.891 
374.227 181.605 c 374.227 180.324 373.188 179.285 371.906 179.285 c h
371.906 179.285 m f
364.137 187.051 m 362.855 187.051 361.816 188.09 361.816 189.375 c 361.816
 190.656 362.855 191.695 364.137 191.695 c 365.418 191.695 366.461 190.656
 366.461 189.375 c 366.461 188.09 365.422 187.051 364.137 187.051 c h
364.137 187.051 m f
356.934 74.484 m 355.652 74.484 354.613 75.523 354.613 76.809 c 354.613
 78.09 355.652 79.129 356.934 79.129 c 358.215 79.129 359.258 78.09 359.258
 76.809 c 359.258 75.527 358.215 74.484 356.934 74.484 c h
356.934 74.484 m f
356.934 89.457 m 355.652 89.457 354.613 90.496 354.613 91.777 c 354.613
 93.062 355.652 94.102 356.934 94.102 c 358.215 94.102 359.258 93.062 359.258
 91.777 c 359.258 90.496 358.215 89.457 356.934 89.457 c h
356.934 89.457 m f
356.934 104.43 m 355.652 104.43 354.613 105.469 354.613 106.75 c 354.613
 108.031 355.652 109.074 356.934 109.074 c 358.215 109.074 359.258 108.031
 359.258 106.75 c 359.258 105.469 358.215 104.43 356.934 104.43 c h
356.934 104.43 m f
356.934 119.398 m 355.652 119.398 354.613 120.441 354.613 121.723 c 354.613
 123.004 355.652 124.043 356.934 124.043 c 358.215 124.043 359.258 123.004
 359.258 121.723 c 359.258 120.441 358.215 119.398 356.934 119.398 c h
356.934 119.398 m f
356.934 134.371 m 355.652 134.371 354.613 135.41 354.613 136.691 c 354.613
 137.977 355.652 139.016 356.934 139.016 c 358.215 139.016 359.258 137.977
 359.258 136.691 c 359.258 135.41 358.215 134.371 356.934 134.371 c h
356.934 134.371 m f
356.934 149.34 m 355.652 149.34 354.613 150.383 354.613 151.664 c 354.613
 152.945 355.652 153.984 356.934 153.984 c 358.215 153.984 359.258 152.945
 359.258 151.664 c 359.258 150.383 358.215 149.34 356.934 149.34 c h
356.934 149.34 m f
356.934 164.312 m 355.652 164.312 354.613 165.352 354.613 166.637 c 354.613
 167.918 355.652 168.957 356.934 168.957 c 358.215 168.957 359.258 167.918
 359.258 166.637 c 359.258 165.352 358.215 164.312 356.934 164.312 c h
356.934 164.312 m f
349.168 172.078 m 347.883 172.078 346.844 173.121 346.844 174.402 c 346.844
 175.684 347.883 176.727 349.168 176.727 c 350.449 176.727 351.488 175.684
 351.488 174.402 c 351.488 173.121 350.449 172.078 349.168 172.078 c h
349.168 172.078 m f
356.934 179.285 m 355.652 179.285 354.613 180.324 354.613 181.605 c 354.613
 182.891 355.652 183.93 356.934 183.93 c 358.215 183.93 359.258 182.891 
359.258 181.605 c 359.258 180.324 358.215 179.285 356.934 179.285 c h
356.934 179.285 m f
349.168 187.051 m 347.883 187.051 346.844 188.09 346.844 189.375 c 346.844
 190.656 347.883 191.695 349.168 191.695 c 350.449 191.695 351.488 190.656
 351.488 189.375 c 351.488 188.09 350.449 187.051 349.168 187.051 c h
349.168 187.051 m f
356.934 194.254 m 355.652 194.254 354.613 195.293 354.613 196.578 c 354.613
 197.859 355.652 198.898 356.934 198.898 c 358.215 198.898 359.258 197.859
 359.258 196.578 c 359.258 195.297 358.215 194.254 356.934 194.254 c h
356.934 194.254 m f
349.168 202.023 m 347.883 202.023 346.844 203.062 346.844 204.344 c 346.844
 205.629 347.883 206.668 349.168 206.668 c 350.449 206.668 351.488 205.629
 351.488 204.344 c 351.488 203.062 350.449 202.023 349.168 202.023 c h
349.168 202.023 m f
341.961 179.285 m 340.68 179.285 339.641 180.324 339.641 181.605 c 339.641
 182.891 340.68 183.93 341.961 183.93 c 343.246 183.93 344.285 182.891 344.285
 181.605 c 344.285 180.324 343.246 179.285 341.961 179.285 c h
341.961 179.285 m f
334.195 187.051 m 332.914 187.051 331.875 188.09 331.875 189.375 c 331.875
 190.656 332.914 191.695 334.195 191.695 c 335.477 191.695 336.516 190.656
 336.516 189.375 c 336.516 188.09 335.477 187.051 334.195 187.051 c h
334.195 187.051 m f
341.961 194.254 m 340.68 194.254 339.641 195.293 339.641 196.578 c 339.641
 197.859 340.68 198.898 341.961 198.898 c 343.246 198.898 344.285 197.859
 344.285 196.578 c 344.285 195.297 343.246 194.254 341.961 194.254 c h
341.961 194.254 m f
334.195 202.023 m 332.914 202.023 331.875 203.062 331.875 204.344 c 331.875
 205.629 332.914 206.668 334.195 206.668 c 335.477 206.668 336.516 205.629
 336.516 204.344 c 336.516 203.062 335.477 202.023 334.195 202.023 c h
334.195 202.023 m f
319.223 187.051 m 317.941 187.051 316.902 188.09 316.902 189.375 c 316.902
 190.656 317.941 191.695 319.223 191.695 c 320.508 191.695 321.547 190.656
 321.547 189.375 c 321.547 188.09 320.508 187.051 319.223 187.051 c h
319.223 187.051 m f
326.992 194.254 m 325.711 194.254 324.668 195.293 324.668 196.578 c 324.668
 197.859 325.711 198.898 326.992 198.898 c 328.273 198.898 329.312 197.859
 329.312 196.578 c 329.312 195.297 328.273 194.254 326.992 194.254 c h
326.992 194.254 m f
319.223 202.023 m 317.941 202.023 316.902 203.062 316.902 204.344 c 316.902
 205.629 317.941 206.668 319.223 206.668 c 320.508 206.668 321.547 205.629
 321.547 204.344 c 321.547 203.062 320.508 202.023 319.223 202.023 c h
319.223 202.023 m f
329.312 211.547 m 329.312 210.266 328.273 209.227 326.992 209.227 c 325.711
 209.227 324.668 210.266 324.668 211.547 c 324.668 212.273 325.008 212.91
 325.527 213.336 c 328.457 213.336 l 328.977 212.91 329.312 212.273 329.312
 211.547 c h
329.312 211.547 m f
304.254 187.051 m 302.973 187.051 301.93 188.09 301.93 189.375 c 301.93
 190.656 302.973 191.695 304.254 191.695 c 305.535 191.695 306.574 190.656
 306.574 189.375 c 306.574 188.09 305.535 187.051 304.254 187.051 c h
304.254 187.051 m f
309.699 196.578 m 309.699 197.859 310.738 198.898 312.02 198.898 c 313.305
 198.898 314.344 197.859 314.344 196.578 c 314.344 195.293 313.305 194.254
 312.02 194.254 c 310.738 194.254 309.699 195.297 309.699 196.578 c h
309.699 196.578 m f
304.254 202.023 m 302.973 202.023 301.93 203.062 301.93 204.344 c 301.93
 205.629 302.973 206.668 304.254 206.668 c 305.535 206.668 306.574 205.629
 306.574 204.344 c 306.574 203.062 305.535 202.023 304.254 202.023 c h
304.254 202.023 m f
314.344 211.547 m 314.344 210.266 313.305 209.227 312.02 209.227 c 310.738
 209.227 309.699 210.266 309.699 211.547 c 309.699 212.273 310.035 212.91
 310.555 213.336 c 313.488 213.336 l 314.004 212.91 314.344 212.273 314.344
 211.547 c h
314.344 211.547 m f
289.281 187.051 m 288 187.051 286.961 188.09 286.961 189.375 c 286.961 
190.656 288 191.695 289.281 191.695 c 290.562 191.695 291.605 190.656 291.605
 189.375 c 291.605 188.09 290.562 187.051 289.281 187.051 c h
289.281 187.051 m f
294.727 196.578 m 294.727 197.859 295.766 198.898 297.047 198.898 c 298.332
 198.898 299.371 197.859 299.371 196.578 c 299.371 195.293 298.332 194.254
 297.047 194.254 c 295.766 194.254 294.727 195.297 294.727 196.578 c h
294.727 196.578 m f
289.281 202.023 m 288 202.023 286.961 203.062 286.961 204.344 c 286.961
 205.629 288 206.668 289.281 206.668 c 290.562 206.668 291.605 205.629 291.605
 204.344 c 291.605 203.062 290.562 202.023 289.281 202.023 c h
289.281 202.023 m f
299.371 211.547 m 299.371 210.266 298.332 209.227 297.051 209.227 c 295.766
 209.227 294.727 210.266 294.727 211.547 c 294.727 212.273 295.066 212.91
 295.586 213.336 c 298.516 213.336 l 299.035 212.91 299.371 212.273 299.371
 211.547 c h
299.371 211.547 m f
274.309 187.051 m 273.027 187.051 271.988 188.09 271.988 189.375 c 271.988
 190.656 273.027 191.695 274.309 191.695 c 275.594 191.695 276.633 190.656
 276.633 189.375 c 276.633 188.09 275.594 187.051 274.309 187.051 c h
274.309 187.051 m f
279.754 196.578 m 279.754 197.859 280.797 198.898 282.078 198.898 c 283.359
 198.898 284.398 197.859 284.398 196.578 c 284.398 195.293 283.359 194.254
 282.078 194.254 c 280.797 194.254 279.754 195.297 279.754 196.578 c h
279.754 196.578 m f
214.426 187.051 m 213.145 187.051 212.105 188.09 212.105 189.375 c 212.105
 190.656 213.145 191.695 214.426 191.695 c 215.707 191.695 216.746 190.656
 216.746 189.375 c 216.746 188.09 215.707 187.051 214.426 187.051 c h
214.426 187.051 m f
219.871 196.578 m 219.871 197.859 220.91 198.898 222.191 198.898 c 223.477
 198.898 224.516 197.859 224.516 196.578 c 224.516 195.293 223.473 194.254
 222.191 194.254 c 220.91 194.254 219.871 195.297 219.871 196.578 c h
219.871 196.578 m f
214.426 202.023 m 213.145 202.023 212.105 203.062 212.105 204.344 c 212.105
 205.629 213.145 206.668 214.426 206.668 c 215.707 206.668 216.746 205.629
 216.746 204.344 c 216.746 203.062 215.707 202.023 214.426 202.023 c h
214.426 202.023 m f
224.516 211.547 m 224.516 210.266 223.477 209.227 222.195 209.227 c 220.91
 209.227 219.871 210.266 219.871 211.547 c 219.871 212.273 220.211 212.91
 220.727 213.336 c 223.66 213.336 l 224.176 212.91 224.516 212.273 224.516
 211.547 c h
224.516 211.547 m f
199.453 187.051 m 198.172 187.051 197.133 188.09 197.133 189.375 c 197.133
 190.656 198.172 191.695 199.453 191.695 c 200.738 191.695 201.777 190.656
 201.777 189.375 c 201.777 188.09 200.738 187.051 199.453 187.051 c h
199.453 187.051 m f
204.898 196.578 m 204.898 197.859 205.941 198.898 207.223 198.898 c 208.504
 198.898 209.543 197.859 209.543 196.578 c 209.543 195.293 208.504 194.254
 207.223 194.254 c 205.941 194.254 204.898 195.297 204.898 196.578 c h
204.898 196.578 m f
199.453 202.023 m 198.172 202.023 197.133 203.062 197.133 204.344 c 197.133
 205.629 198.172 206.668 199.453 206.668 c 200.738 206.668 201.777 205.629
 201.777 204.344 c 201.777 203.062 200.738 202.023 199.453 202.023 c h
199.453 202.023 m f
209.543 211.547 m 209.543 210.266 208.504 209.227 207.223 209.227 c 205.941
 209.227 204.902 210.266 204.902 211.547 c 204.902 212.273 205.238 212.91
 205.758 213.336 c 208.688 213.336 l 209.207 212.91 209.543 212.273 209.543
 211.547 c h
209.543 211.547 m f
184.484 187.051 m 183.199 187.051 182.16 188.09 182.16 189.375 c 182.16
 190.656 183.199 191.695 184.484 191.695 c 185.766 191.695 186.805 190.656
 186.805 189.375 c 186.805 188.09 185.766 187.051 184.484 187.051 c h
184.484 187.051 m f
189.93 196.578 m 189.93 197.859 190.969 198.898 192.25 198.898 c 193.531
 198.898 194.574 197.859 194.574 196.578 c 194.574 195.293 193.531 194.254
 192.25 194.254 c 190.969 194.254 189.93 195.297 189.93 196.578 c h
189.93 196.578 m f
184.484 202.023 m 183.199 202.023 182.16 203.062 182.16 204.344 c 182.16
 205.629 183.199 206.668 184.484 206.668 c 185.766 206.668 186.805 205.629
 186.805 204.344 c 186.805 203.062 185.766 202.023 184.484 202.023 c h
184.484 202.023 m f
194.574 211.547 m 194.574 210.266 193.535 209.227 192.25 209.227 c 190.969
 209.227 189.93 210.266 189.93 211.547 c 189.93 212.273 190.266 212.91 190.785
 213.336 c 193.719 213.336 l 194.234 212.91 194.574 212.273 194.574 211.547
 c h
194.574 211.547 m f
169.512 187.051 m 168.23 187.051 167.191 188.09 167.191 189.375 c 167.191
 190.656 168.23 191.695 169.512 191.695 c 170.793 191.695 171.836 190.656
 171.836 189.375 c 171.836 188.09 170.797 187.051 169.512 187.051 c h
169.512 187.051 m f
174.957 196.578 m 174.957 197.859 175.996 198.898 177.281 198.898 c 178.562
 198.898 179.602 197.859 179.602 196.578 c 179.602 195.293 178.562 194.254
 177.281 194.254 c 175.996 194.254 174.957 195.297 174.957 196.578 c h
174.957 196.578 m f
169.512 202.023 m 168.23 202.023 167.191 203.062 167.191 204.344 c 167.191
 205.629 168.23 206.668 169.512 206.668 c 170.793 206.668 171.836 205.629
 171.836 204.344 c 171.836 203.062 170.797 202.023 169.512 202.023 c h
169.512 202.023 m f
179.602 211.547 m 179.602 210.266 178.562 209.227 177.281 209.227 c 175.996
 209.227 174.957 210.266 174.957 211.547 c 174.957 212.273 175.297 212.91
 175.812 213.336 c 178.746 213.336 l 179.266 212.91 179.602 212.273 179.602
 211.547 c h
179.602 211.547 m f
154.543 187.051 m 153.258 187.051 152.219 188.09 152.219 189.375 c 152.219
 190.656 153.258 191.695 154.543 191.695 c 155.824 191.695 156.863 190.656
 156.863 189.375 c 156.863 188.09 155.824 187.051 154.543 187.051 c h
154.543 187.051 m f
159.984 196.578 m 159.984 197.859 161.027 198.898 162.309 198.898 c 163.59
 198.898 164.629 197.859 164.629 196.578 c 164.629 195.293 163.59 194.254
 162.309 194.254 c 161.027 194.254 159.984 195.297 159.984 196.578 c h
159.984 196.578 m f
154.543 202.023 m 153.258 202.023 152.219 203.062 152.219 204.344 c 152.219
 205.629 153.258 206.668 154.543 206.668 c 155.824 206.668 156.863 205.629
 156.863 204.344 c 156.863 203.062 155.824 202.023 154.543 202.023 c h
154.543 202.023 m f
164.633 211.547 m 164.633 210.266 163.59 209.227 162.309 209.227 c 161.027
 209.227 159.988 210.266 159.988 211.547 c 159.988 212.273 160.324 212.91
 160.844 213.336 c 163.773 213.336 l 164.293 212.91 164.633 212.273 164.633
 211.547 c h
164.633 211.547 m f
139.57 187.051 m 138.289 187.051 137.246 188.09 137.246 189.375 c 137.246
 190.656 138.289 191.695 139.57 191.695 c 140.852 191.695 141.891 190.656
 141.891 189.375 c 141.891 188.09 140.852 187.051 139.57 187.051 c h
139.57 187.051 m f
145.016 196.578 m 145.016 197.859 146.055 198.898 147.336 198.898 c 148.621
 198.898 149.66 197.859 149.66 196.578 c 149.66 195.293 148.621 194.254 
147.336 194.254 c 146.055 194.254 145.016 195.297 145.016 196.578 c h
145.016 196.578 m f
139.57 202.023 m 138.289 202.023 137.246 203.062 137.246 204.344 c 137.246
 205.629 138.289 206.668 139.57 206.668 c 140.852 206.668 141.891 205.629
 141.891 204.344 c 141.891 203.062 140.852 202.023 139.57 202.023 c h
139.57 202.023 m f
149.66 211.547 m 149.66 210.266 148.621 209.227 147.336 209.227 c 146.055
 209.227 145.016 210.266 145.016 211.547 c 145.016 212.273 145.355 212.91
 145.871 213.336 c 148.805 213.336 l 149.32 212.91 149.66 212.273 149.66
 211.547 c h
149.66 211.547 m f
124.598 187.051 m 123.316 187.051 122.277 188.09 122.277 189.375 c 122.277
 190.656 123.316 191.695 124.598 191.695 c 125.883 191.695 126.922 190.656
 126.922 189.375 c 126.922 188.09 125.883 187.051 124.598 187.051 c h
124.598 187.051 m f
130.043 196.578 m 130.043 197.859 131.082 198.898 132.367 198.898 c 133.648
 198.898 134.688 197.859 134.688 196.578 c 134.688 195.293 133.648 194.254
 132.367 194.254 c 131.082 194.254 130.043 195.297 130.043 196.578 c h
130.043 196.578 m f
124.598 202.023 m 123.316 202.023 122.277 203.062 122.277 204.344 c 122.277
 205.629 123.316 206.668 124.598 206.668 c 125.883 206.668 126.922 205.629
 126.922 204.344 c 126.922 203.062 125.883 202.023 124.598 202.023 c h
124.598 202.023 m f
134.688 211.547 m 134.688 210.266 133.648 209.227 132.367 209.227 c 131.086
 209.227 130.043 210.266 130.043 211.547 c 130.043 212.273 130.383 212.91
 130.902 213.336 c 133.832 213.336 l 134.352 212.91 134.688 212.273 134.688
 211.547 c h
134.688 211.547 m f
109.629 187.051 m 108.344 187.051 107.305 188.09 107.305 189.375 c 107.305
 190.656 108.344 191.695 109.629 191.695 c 110.91 191.695 111.949 190.656
 111.949 189.375 c 111.949 188.09 110.91 187.051 109.629 187.051 c h
109.629 187.051 m f
115.074 196.578 m 115.074 197.859 116.113 198.898 117.395 198.898 c 118.68
 198.898 119.719 197.859 119.719 196.578 c 119.719 195.293 118.68 194.254
 117.395 194.254 c 116.113 194.254 115.074 195.297 115.074 196.578 c h
115.074 196.578 m f
109.629 202.023 m 108.344 202.023 107.305 203.062 107.305 204.344 c 107.305
 205.629 108.344 206.668 109.629 206.668 c 110.91 206.668 111.949 205.629
 111.949 204.344 c 111.949 203.062 110.91 202.023 109.629 202.023 c h
109.629 202.023 m f
119.719 211.547 m 119.719 210.266 118.68 209.227 117.395 209.227 c 116.113
 209.227 115.074 210.266 115.074 211.547 c 115.074 212.273 115.41 212.91
 115.93 213.336 c 118.863 213.336 l 119.379 212.91 119.719 212.273 119.719
 211.547 c h
119.719 211.547 m f
94.656 187.051 m 93.375 187.051 92.336 188.09 92.336 189.375 c 92.336 190.656
 93.375 191.695 94.656 191.695 c 95.938 191.695 96.98 190.656 96.98 189.375
 c 96.98 188.09 95.938 187.051 94.656 187.051 c h
94.656 187.051 m f
100.102 196.578 m 100.102 197.859 101.141 198.898 102.422 198.898 c 103.707
 198.898 104.746 197.859 104.746 196.578 c 104.746 195.293 103.707 194.254
 102.422 194.254 c 101.141 194.254 100.102 195.297 100.102 196.578 c h
100.102 196.578 m f
94.656 202.023 m 93.375 202.023 92.336 203.062 92.336 204.344 c 92.336 
205.629 93.375 206.668 94.656 206.668 c 95.938 206.668 96.98 205.629 96.98
 204.344 c 96.98 203.062 95.938 202.023 94.656 202.023 c h
94.656 202.023 m f
104.746 211.547 m 104.746 210.266 103.707 209.227 102.426 209.227 c 101.141
 209.227 100.102 210.266 100.102 211.547 c 100.102 212.273 100.441 212.91
 100.961 213.336 c 103.891 213.336 l 104.41 212.91 104.746 212.273 104.746
 211.547 c h
104.746 211.547 m f
79.684 187.051 m 78.402 187.051 77.363 188.09 77.363 189.375 c 77.363 190.656
 78.402 191.695 79.684 191.695 c 80.969 191.695 82.008 190.656 82.008 189.375
 c 82.008 188.09 80.969 187.051 79.684 187.051 c h
79.684 187.051 m f
85.129 196.578 m 85.129 197.859 86.168 198.898 87.453 198.898 c 88.734 
198.898 89.773 197.859 89.773 196.578 c 89.773 195.293 88.734 194.254 87.453
 194.254 c 86.172 194.254 85.129 195.297 85.129 196.578 c h
85.129 196.578 m f
79.684 202.023 m 78.402 202.023 77.363 203.062 77.363 204.344 c 77.363 
205.629 78.402 206.668 79.684 206.668 c 80.969 206.668 82.008 205.629 82.008
 204.344 c 82.008 203.062 80.969 202.023 79.684 202.023 c h
79.684 202.023 m f
89.773 211.547 m 89.773 210.266 88.734 209.227 87.453 209.227 c 86.172 
209.227 85.133 210.266 85.133 211.547 c 85.133 212.273 85.469 212.91 85.988
 213.336 c 88.918 213.336 l 89.438 212.91 89.773 212.273 89.773 211.547 
c h
89.773 211.547 m f
64.715 187.051 m 63.434 187.051 62.391 188.09 62.391 189.375 c 62.391 190.656
 63.434 191.695 64.715 191.695 c 65.996 191.695 67.035 190.656 67.035 189.375
 c 67.035 188.09 65.996 187.051 64.715 187.051 c h
64.715 187.051 m f
70.16 196.578 m 70.16 197.859 71.199 198.898 72.48 198.898 c 73.766 198.898
 74.805 197.859 74.805 196.578 c 74.805 195.293 73.766 194.254 72.48 194.254
 c 71.199 194.254 70.16 195.297 70.16 196.578 c h
70.16 196.578 m f
64.715 202.023 m 63.434 202.023 62.391 203.062 62.391 204.344 c 62.391 
205.629 63.434 206.668 64.715 206.668 c 65.996 206.668 67.035 205.629 67.035
 204.344 c 67.035 203.062 65.996 202.023 64.715 202.023 c h
64.715 202.023 m f
74.805 211.547 m 74.805 210.266 73.766 209.227 72.48 209.227 c 71.199 209.227
 70.16 210.266 70.16 211.547 c 70.16 212.273 70.496 212.91 71.016 213.336
 c 73.945 213.336 l 74.465 212.91 74.805 212.273 74.805 211.547 c h
74.805 211.547 m f
49.742 187.051 m 48.461 187.051 47.422 188.09 47.422 189.375 c 47.422 190.656
 48.461 191.695 49.742 191.695 c 51.027 191.695 52.066 190.656 52.066 189.375
 c 52.066 188.09 51.027 187.051 49.742 187.051 c h
49.742 187.051 m f
55.188 196.578 m 55.188 197.859 56.227 198.898 57.512 198.898 c 58.793 
198.898 59.832 197.859 59.832 196.578 c 59.832 195.293 58.793 194.254 57.512
 194.254 c 56.227 194.254 55.188 195.297 55.188 196.578 c h
55.188 196.578 m f
49.742 202.023 m 48.461 202.023 47.422 203.062 47.422 204.344 c 47.422 
205.629 48.461 206.668 49.742 206.668 c 51.027 206.668 52.066 205.629 52.066
 204.344 c 52.066 203.062 51.027 202.023 49.742 202.023 c h
49.742 202.023 m f
59.832 211.547 m 59.832 210.266 58.793 209.227 57.512 209.227 c 56.227 
209.227 55.188 210.266 55.188 211.547 c 55.188 212.273 55.527 212.91 56.047
 213.336 c 58.977 213.336 l 59.496 212.91 59.832 212.273 59.832 211.547 
c h
59.832 211.547 m f
34.773 187.051 m 33.488 187.051 32.449 188.09 32.449 189.375 c 32.449 190.656
 33.488 191.695 34.773 191.695 c 36.055 191.695 37.094 190.656 37.094 189.375
 c 37.094 188.09 36.055 187.051 34.773 187.051 c h
34.773 187.051 m f
40.219 196.578 m 40.219 197.859 41.258 198.898 42.539 198.898 c 43.82 198.898
 44.859 197.859 44.859 196.578 c 44.859 195.293 43.82 194.254 42.539 194.254
 c 41.258 194.254 40.219 195.297 40.219 196.578 c h
40.219 196.578 m f
34.773 202.023 m 33.488 202.023 32.449 203.062 32.449 204.344 c 32.449 
205.629 33.488 206.668 34.773 206.668 c 36.055 206.668 37.094 205.629 37.094
 204.344 c 37.094 203.062 36.055 202.023 34.773 202.023 c h
34.773 202.023 m f
19.801 191.695 m 21.082 191.695 22.125 190.656 22.125 189.375 c 22.125 
188.09 21.086 187.051 19.801 187.051 c 18.52 187.051 17.48 188.09 17.48 
189.375 c 17.48 190.656 18.52 191.695 19.801 191.695 c h
19.801 191.695 m f
25.246 196.578 m 25.246 197.859 26.285 198.898 27.566 198.898 c 28.852 
198.898 29.891 197.859 29.891 196.578 c 29.891 195.293 28.852 194.254 27.566
 194.254 c 26.285 194.254 25.246 195.297 25.246 196.578 c h
25.246 196.578 m f
128.992 131.586 m 131.727 128.16 133.371 123.82 133.371 119.102 c 133.371
 108.047 124.375 99.051 113.316 99.051 c 95.195 99.051 l 92.047 99.051 89.496
 101.602 89.496 104.75 c 89.496 167.129 l 89.496 168.648 90.102 170.102 
91.176 171.168 c 92.242 172.234 93.688 172.828 95.195 172.828 c 95.223 172.828
 l 95.223 172.828 111.887 172.754 116.48 172.754 c 128.883 172.754 138.973
 162.664 138.973 150.266 c 138.973 142.492 135.008 135.629 128.992 131.586
 c h
113.316 110.445 m 118.09 110.445 121.973 114.328 121.973 119.102 c 121.973
 123.875 118.09 127.758 113.316 127.758 c 111.98 127.758 100.895 127.773
 100.895 127.773 c 100.895 110.449 l 113.316 110.449 l h
116.48 161.355 m 113.637 161.355 106.184 161.387 100.895 161.406 c 100.895
 139.195 l 102.727 139.188 116.48 139.172 116.48 139.172 c 122.598 139.172
 127.574 144.148 127.574 150.266 c 127.574 156.383 122.598 161.355 116.48
 161.355 c h
116.48 161.355 m f
291.914 100.129 m 289.277 98.414 285.746 99.16 284.027 101.797 c 269.035
 124.828 l 253.887 101.633 l 252.168 98.996 248.637 98.258 246 99.977 c 
243.367 101.695 242.621 105.227 244.344 107.863 c 263.34 136.957 l 263.266
 167.117 l 263.258 170.266 265.805 172.824 268.949 172.828 c 268.965 172.828
 l 272.105 172.828 274.656 170.289 274.664 167.145 c 274.738 136.965 l 293.582
 108.016 l 295.297 105.379 294.551 101.848 291.914 100.129 c h
291.914 100.129 m f
190.844 172.828 m 190.828 172.828 190.812 172.828 190.797 172.828 c 185.473
 172.824 180.574 171.414 176.238 168.645 c 167.883 163.305 163.82 156.449
 163.82 147.676 c 163.82 104.75 l 163.82 101.602 166.371 99.051 169.52 99.051
 c 172.668 99.051 175.219 101.602 175.219 104.75 c 175.219 147.676 l 175.219
 152.5 177.293 155.793 182.375 159.039 c 184.887 160.645 187.648 161.43 
190.812 161.434 c 190.844 161.434 l 193.652 161.434 196.242 160.844 198.547
 159.684 c 206.277 155.793 207.168 150.941 207.168 147.629 c 207.168 104.75
 l 207.168 101.602 209.719 99.051 212.867 99.051 c 216.016 99.051 218.566
 101.602 218.566 104.75 c 218.566 147.629 l 218.566 154.352 215.984 163.664
 203.672 169.863 c 199.762 171.832 195.445 172.828 190.844 172.828 c h
190.844 172.828 m f
0.192157 0.215686 0.239216 rg
335.637 55.504 m 48.363 55.504 l 21.695 55.504 0 77.199 0 103.867 c 0 168.016
 l 0 194.68 21.695 216.375 48.363 216.375 c 225.234 216.375 l 223.035 274.531
 l 222.969 278.965 225.117 283.098 228.781 285.59 c 232.445 288.082 237.082
 288.562 241.176 286.871 c 259.562 279.277 l 275.199 317.145 l 277.07 321.672
 280.594 325.203 285.117 327.082 c 287.387 328.027 289.773 328.496 292.156
 328.496 c 294.531 328.496 296.902 328.031 299.16 327.098 c 303.691 325.227
 307.219 321.703 309.102 317.18 c 310.98 312.652 310.984 307.664 309.113
 303.137 c 293.477 265.27 l 311.863 257.68 l 315.961 255.984 318.906 252.379
 319.746 248.023 c 320.582 243.672 319.191 239.227 316.016 236.133 c 315.996
 236.117 315.98 236.102 315.965 236.086 c 294.793 216.375 l 335.637 216.375
 l 362.305 216.375 384 194.68 384 168.012 c 384 103.863 l 384 77.199 362.305
 55.504 335.637 55.504 c h
313.773 246.875 m 313.32 249.25 311.773 251.137 309.543 252.059 c 288.348
 260.812 l 286.797 261.453 286.059 263.23 286.699 264.781 c 303.496 305.457
 l 304.746 308.484 304.742 311.82 303.488 314.848 c 302.23 317.871 299.871
 320.227 296.84 321.48 c 293.809 322.73 290.477 322.727 287.453 321.469 
c 284.426 320.211 282.07 317.852 280.82 314.824 c 264.023 274.148 l 263.715
 273.402 263.125 272.809 262.379 272.5 c 262.004 272.344 261.609 272.266
 261.215 272.266 c 260.82 272.266 260.426 272.344 260.055 272.496 c 238.859
 281.25 l 236.625 282.172 234.199 281.922 232.199 280.562 c 230.203 279.203
 229.078 277.039 229.113 274.691 c 232.586 182.855 l 232.629 179.945 234.258
 177.551 236.945 176.441 c 239.633 175.332 242.477 175.879 244.609 177.957
 c 311.797 240.508 l 313.508 242.195 314.23 244.512 313.773 246.875 c h
377.922 168.016 m 377.922 191.328 358.953 210.297 335.637 210.297 c 288.266
 210.297 l 248.805 173.555 l 244.984 169.836 239.551 168.789 234.625 170.82
 c 229.695 172.855 226.586 177.434 226.508 182.691 c 225.465 210.297 l 48.363
 210.297 l 25.047 210.297 6.078 191.328 6.078 168.016 c 6.078 103.867 l 
6.078 80.551 25.047 61.582 48.363 61.582 c 335.637 61.582 l 358.953 61.582
 377.922 80.551 377.922 103.867 c h
377.922 168.016 m f
Q Q
showpage
%%Trailer
end
%%EOF
