%!PS-Adobe-3.0 EPSF-3.0
%%Creator: cairo 1.16.0 (https://cairographics.org)
%%CreationDate: Fri Feb 12 12:13:02 2021
%%Pages: 1
%%DocumentData: Clean7Bit
%%LanguageLevel: 2
%%BoundingBox: 0 21 384 363
%%EndComments
%%BeginProlog
50 dict begin
/q { gsave } bind def
/Q { grestore } bind def
/cm { 6 array astore concat } bind def
/w { setlinewidth } bind def
/J { setlinecap } bind def
/j { setlinejoin } bind def
/M { setmiterlimit } bind def
/d { setdash } bind def
/m { moveto } bind def
/l { lineto } bind def
/c { curveto } bind def
/h { closepath } bind def
/re { exch dup neg 3 1 roll 5 3 roll moveto 0 rlineto
      0 exch rlineto 0 rlineto closepath } bind def
/S { stroke } bind def
/f { fill } bind def
/f* { eofill } bind def
/n { newpath } bind def
/W { clip } bind def
/W* { eoclip } bind def
/BT { } bind def
/ET { } bind def
/BDC { mark 3 1 roll /BDC pdfmark } bind def
/EMC { mark /EMC pdfmark } bind def
/cairo_store_point { /cairo_point_y exch def /cairo_point_x exch def } def
/Tj { show currentpoint cairo_store_point } bind def
/TJ {
  {
    dup
    type /stringtype eq
    { show } { -0.001 mul 0 cairo_font_matrix dtransform rmoveto } ifelse
  } forall
  currentpoint cairo_store_point
} bind def
/cairo_selectfont { cairo_font_matrix aload pop pop pop 0 0 6 array astore
    cairo_font exch selectfont cairo_point_x cairo_point_y moveto } bind def
/Tf { pop /cairo_font exch def /cairo_font_matrix where
      { pop cairo_selectfont } if } bind def
/Td { matrix translate cairo_font_matrix matrix concatmatrix dup
      /cairo_font_matrix exch def dup 4 get exch 5 get cairo_store_point
      /cairo_font where { pop cairo_selectfont } if } bind def
/Tm { 2 copy 8 2 roll 6 array astore /cairo_font_matrix exch def
      cairo_store_point /cairo_font where { pop cairo_selectfont } if } bind def
/g { setgray } bind def
/rg { setrgbcolor } bind def
/d1 { setcachedevice } bind def
/cairo_data_source {
  CairoDataIndex CairoData length lt
    { CairoData CairoDataIndex get /CairoDataIndex CairoDataIndex 1 add def }
    { () } ifelse
} def
/cairo_flush_ascii85_file { cairo_ascii85_file status { cairo_ascii85_file flushfile } if } def
/cairo_image { image cairo_flush_ascii85_file } def
/cairo_imagemask { imagemask cairo_flush_ascii85_file } def
%%EndProlog
%%BeginSetup
%%EndSetup
%%Page: 1 1
%%BeginPageSetup
%%PageBoundingBox: 0 21 384 363
%%EndPageSetup
q 0 21 384 342 rectclip
1 0 0 -1 0 384 cm q
0.917647 0.658824 0.584314 rg
364.602 154.383 m 19.398 154.383 l 10.355 154.383 3.027 161.715 3.027 170.758
 c 3.027 179.801 10.355 187.129 19.398 187.129 c 24.562 187.129 l 67.832
 350.148 l 69.289 355.645 74.266 359.473 79.953 359.473 c 304.047 359.473
 l 309.734 359.473 314.707 355.645 316.168 350.148 c 359.438 187.129 l 364.602
 187.129 l 373.645 187.129 380.973 179.801 380.973 170.758 c 380.973 161.715
 373.645 154.383 364.602 154.383 c h
364.602 154.383 m f
0.976471 0.984314 0.988235 rg
346.172 189.176 m 346.172 190.453 347.207 191.488 348.484 191.488 c 349.762
 191.488 350.797 190.453 350.797 189.176 c 350.797 188.566 350.555 188.016
 350.168 187.602 c 346.797 187.602 l 346.414 188.016 346.172 188.566 346.172
 189.176 c h
346.172 189.176 m f
348.484 201.77 m 347.207 201.77 346.172 202.805 346.172 204.082 c 346.172
 205.359 347.207 206.395 348.484 206.395 c 349.762 206.395 350.797 205.359
 350.797 204.082 c 350.797 202.805 349.762 201.77 348.484 201.77 c h
348.484 201.77 m f
348.484 216.676 m 347.207 216.676 346.172 217.711 346.172 218.988 c 346.172
 220.266 347.207 221.301 348.484 221.301 c 349.762 221.301 350.797 220.266
 350.797 218.988 c 350.797 217.711 349.762 216.676 348.484 216.676 c h
348.484 216.676 m f
331.266 189.176 m 331.266 190.453 332.301 191.488 333.578 191.488 c 334.855
 191.488 335.891 190.453 335.891 189.176 c 335.891 188.566 335.648 188.016
 335.262 187.602 c 331.891 187.602 l 331.508 188.016 331.266 188.566 331.266
 189.176 c h
331.266 189.176 m f
341.312 194.035 m 340.035 194.035 339 195.07 339 196.348 c 339 197.625 
340.035 198.66 341.312 198.66 c 342.59 198.66 343.621 197.625 343.621 196.348
 c 343.621 195.07 342.59 194.035 341.312 194.035 c h
341.312 194.035 m f
333.578 201.77 m 332.301 201.77 331.266 202.805 331.266 204.082 c 331.266
 205.359 332.301 206.395 333.578 206.395 c 334.855 206.395 335.891 205.359
 335.891 204.082 c 335.891 202.805 334.855 201.77 333.578 201.77 c h
333.578 201.77 m f
341.312 208.941 m 340.035 208.941 339 209.977 339 211.254 c 339 212.531
 340.035 213.566 341.312 213.566 c 342.59 213.566 343.621 212.531 343.621
 211.254 c 343.621 209.977 342.59 208.941 341.312 208.941 c h
341.312 208.941 m f
333.578 216.676 m 332.301 216.676 331.266 217.711 331.266 218.988 c 331.266
 220.266 332.301 221.301 333.578 221.301 c 334.855 221.301 335.891 220.266
 335.891 218.988 c 335.891 217.711 334.855 216.676 333.578 216.676 c h
333.578 216.676 m f
341.312 223.848 m 340.035 223.848 339 224.883 339 226.16 c 339 227.438 
340.035 228.473 341.312 228.473 c 342.59 228.473 343.621 227.438 343.621
 226.16 c 343.621 224.883 342.59 223.848 341.312 223.848 c h
341.312 223.848 m f
333.578 231.582 m 332.301 231.582 331.266 232.617 331.266 233.895 c 331.266
 235.172 332.301 236.207 333.578 236.207 c 334.855 236.207 335.891 235.172
 335.891 233.895 c 335.891 232.617 334.855 231.582 333.578 231.582 c h
333.578 231.582 m f
341.312 238.754 m 340.035 238.754 339 239.789 339 241.066 c 339 242.344
 340.035 243.379 341.312 243.379 c 342.59 243.379 343.621 242.344 343.621
 241.066 c 343.621 239.789 342.59 238.754 341.312 238.754 c h
341.312 238.754 m f
333.578 246.488 m 332.301 246.488 331.266 247.523 331.266 248.801 c 331.266
 250.078 332.301 251.113 333.578 251.113 c 334.855 251.113 335.891 250.078
 335.891 248.801 c 335.891 247.523 334.855 246.488 333.578 246.488 c h
333.578 246.488 m f
333.578 261.395 m 332.301 261.395 331.266 262.43 331.266 263.707 c 331.266
 264.984 332.301 266.02 333.578 266.02 c 334.855 266.02 335.891 264.984 
335.891 263.707 c 335.891 262.43 334.855 261.395 333.578 261.395 c h
333.578 261.395 m f
326.406 194.035 m 325.129 194.035 324.094 195.07 324.094 196.348 c 324.094
 197.625 325.129 198.66 326.406 198.66 c 327.684 198.66 328.719 197.625 
328.719 196.348 c 328.715 195.07 327.684 194.035 326.406 194.035 c h
326.406 194.035 m f
326.406 208.941 m 325.129 208.941 324.094 209.977 324.094 211.254 c 324.094
 212.531 325.129 213.566 326.406 213.566 c 327.684 213.566 328.719 212.531
 328.719 211.254 c 328.715 209.977 327.684 208.941 326.406 208.941 c h
326.406 208.941 m f
318.672 216.676 m 317.395 216.676 316.359 217.711 316.359 218.988 c 316.359
 220.266 317.395 221.301 318.672 221.301 c 319.949 221.301 320.984 220.266
 320.984 218.988 c 320.984 217.711 319.949 216.676 318.672 216.676 c h
318.672 216.676 m f
326.406 223.848 m 325.129 223.848 324.094 224.883 324.094 226.16 c 324.094
 227.438 325.129 228.473 326.406 228.473 c 327.684 228.473 328.719 227.438
 328.719 226.16 c 328.715 224.883 327.684 223.848 326.406 223.848 c h
326.406 223.848 m f
318.672 231.582 m 317.395 231.582 316.359 232.617 316.359 233.895 c 316.359
 235.172 317.395 236.207 318.672 236.207 c 319.949 236.207 320.984 235.172
 320.984 233.895 c 320.984 232.617 319.949 231.582 318.672 231.582 c h
318.672 231.582 m f
326.406 238.754 m 325.129 238.754 324.094 239.789 324.094 241.066 c 324.094
 242.344 325.129 243.379 326.406 243.379 c 327.684 243.379 328.719 242.344
 328.719 241.066 c 328.715 239.789 327.684 238.754 326.406 238.754 c h
326.406 238.754 m f
318.672 246.488 m 317.395 246.488 316.359 247.523 316.359 248.801 c 316.359
 250.078 317.395 251.113 318.672 251.113 c 319.949 251.113 320.984 250.078
 320.984 248.801 c 320.984 247.523 319.949 246.488 318.672 246.488 c h
318.672 246.488 m f
326.406 253.66 m 325.129 253.66 324.094 254.695 324.094 255.973 c 324.094
 257.25 325.129 258.285 326.406 258.285 c 327.684 258.285 328.719 257.25
 328.719 255.973 c 328.715 254.695 327.684 253.66 326.406 253.66 c h
326.406 253.66 m f
320.984 263.707 m 320.984 264.984 319.949 266.02 318.672 266.02 c 317.395
 266.02 316.359 264.984 316.359 263.707 c 316.359 262.43 317.395 261.395
 318.672 261.395 c 319.949 261.395 320.984 262.43 320.984 263.707 c h
320.984 263.707 m f
326.406 268.566 m 325.129 268.566 324.094 269.602 324.094 270.879 c 324.094
 272.156 325.129 273.191 326.406 273.191 c 327.684 273.191 328.719 272.156
 328.719 270.879 c 328.715 269.602 327.684 268.566 326.406 268.566 c h
326.406 268.566 m f
318.672 276.301 m 317.395 276.301 316.359 277.336 316.359 278.613 c 316.359
 279.891 317.395 280.926 318.672 280.926 c 319.949 280.926 320.984 279.891
 320.984 278.613 c 320.984 277.336 319.949 276.301 318.672 276.301 c h
318.672 276.301 m f
326.406 283.473 m 325.129 283.473 324.094 284.508 324.094 285.785 c 324.094
 287.062 325.129 288.098 326.406 288.098 c 327.684 288.098 328.719 287.062
 328.719 285.785 c 328.715 284.508 327.684 283.473 326.406 283.473 c h
326.406 283.473 m f
318.672 291.207 m 317.395 291.207 316.359 292.242 316.359 293.52 c 316.359
 294.797 317.395 295.832 318.672 295.832 c 319.949 295.832 320.984 294.797
 320.984 293.52 c 320.984 292.242 319.949 291.207 318.672 291.207 c h
318.672 291.207 m f
326.406 298.379 m 325.129 298.379 324.094 299.414 324.094 300.691 c 324.094
 301.969 325.129 303.004 326.406 303.004 c 327.684 303.004 328.719 301.969
 328.719 300.691 c 328.715 299.414 327.684 298.379 326.406 298.379 c h
326.406 298.379 m f
318.672 306.113 m 317.395 306.113 316.359 307.148 316.359 308.426 c 316.359
 309.703 317.395 310.738 318.672 310.738 c 319.949 310.738 320.984 309.703
 320.984 308.426 c 320.984 307.148 319.949 306.113 318.672 306.113 c h
318.672 306.113 m f
320.984 323.332 m 320.984 324.609 319.949 325.645 318.672 325.645 c 317.395
 325.645 316.359 324.609 316.359 323.332 c 316.359 322.055 317.395 321.02
 318.672 321.02 c 319.949 321.02 320.984 322.055 320.984 323.332 c h
320.984 323.332 m f
311.5 253.66 m 310.223 253.66 309.188 254.695 309.188 255.973 c 309.188
 257.25 310.223 258.285 311.5 258.285 c 312.777 258.285 313.812 257.25 313.812
 255.973 c 313.812 254.695 312.777 253.66 311.5 253.66 c h
311.5 253.66 m f
311.5 268.566 m 310.223 268.566 309.188 269.602 309.188 270.879 c 309.188
 272.156 310.223 273.191 311.5 273.191 c 312.777 273.191 313.812 272.156
 313.812 270.879 c 313.812 269.602 312.777 268.566 311.5 268.566 c h
311.5 268.566 m f
303.766 276.301 m 302.488 276.301 301.453 277.336 301.453 278.613 c 301.453
 279.891 302.488 280.926 303.766 280.926 c 305.043 280.926 306.078 279.891
 306.078 278.613 c 306.078 277.336 305.043 276.301 303.766 276.301 c h
303.766 276.301 m f
311.5 283.473 m 310.223 283.473 309.188 284.508 309.188 285.785 c 309.188
 287.062 310.223 288.098 311.5 288.098 c 312.777 288.098 313.812 287.062
 313.812 285.785 c 313.812 284.508 312.777 283.473 311.5 283.473 c h
311.5 283.473 m f
303.766 291.207 m 302.488 291.207 301.453 292.242 301.453 293.52 c 301.453
 294.797 302.488 295.832 303.766 295.832 c 305.043 295.832 306.078 294.797
 306.078 293.52 c 306.078 292.242 305.043 291.207 303.766 291.207 c h
303.766 291.207 m f
311.5 298.379 m 310.223 298.379 309.188 299.414 309.188 300.691 c 309.188
 301.969 310.223 303.004 311.5 303.004 c 312.777 303.004 313.812 301.969
 313.812 300.691 c 313.812 299.414 312.777 298.379 311.5 298.379 c h
311.5 298.379 m f
303.766 306.113 m 302.488 306.113 301.453 307.148 301.453 308.426 c 301.453
 309.703 302.488 310.738 303.766 310.738 c 305.043 310.738 306.078 309.703
 306.078 308.426 c 306.078 307.148 305.043 306.113 303.766 306.113 c h
303.766 306.113 m f
311.5 313.285 m 310.223 313.285 309.188 314.32 309.188 315.598 c 309.188
 316.875 310.223 317.91 311.5 317.91 c 312.777 317.91 313.812 316.875 313.812
 315.598 c 313.812 314.32 312.777 313.285 311.5 313.285 c h
311.5 313.285 m f
303.766 321.02 m 302.488 321.02 301.453 322.055 301.453 323.332 c 301.453
 324.609 302.488 325.645 303.766 325.645 c 305.043 325.645 306.078 324.609
 306.078 323.332 c 306.078 322.055 305.043 321.02 303.766 321.02 c h
303.766 321.02 m f
311.5 328.191 m 310.223 328.191 309.188 329.227 309.188 330.504 c 309.188
 331.781 310.223 332.816 311.5 332.816 c 312.777 332.816 313.812 331.781
 313.812 330.504 c 313.812 329.227 312.777 328.191 311.5 328.191 c h
311.5 328.191 m f
303.766 335.926 m 302.488 335.926 301.453 336.961 301.453 338.238 c 301.453
 339.516 302.488 340.551 303.766 340.551 c 305.043 340.551 306.078 339.516
 306.078 338.238 c 306.078 336.961 305.043 335.926 303.766 335.926 c h
303.766 335.926 m f
311.5 343.098 m 310.223 343.098 309.188 344.133 309.188 345.41 c 309.188
 346.688 310.223 347.723 311.5 347.723 c 312.777 347.723 313.812 346.688
 313.812 345.41 c 313.812 344.133 312.777 343.098 311.5 343.098 c h
311.5 343.098 m f
303.766 350.832 m 302.488 350.832 301.453 351.867 301.453 353.145 c 301.453
 354.418 302.488 355.453 303.766 355.453 c 305.043 355.453 306.078 354.422
 306.078 353.145 c 306.078 351.867 305.043 350.832 303.766 350.832 c h
303.766 350.832 m f
296.594 298.379 m 295.316 298.379 294.281 299.414 294.281 300.691 c 294.281
 301.969 295.316 303.004 296.594 303.004 c 297.871 303.004 298.906 301.969
 298.906 300.691 c 298.906 299.414 297.871 298.379 296.594 298.379 c h
296.594 298.379 m f
296.594 313.285 m 295.316 313.285 294.281 314.32 294.281 315.598 c 294.281
 316.875 295.316 317.91 296.594 317.91 c 297.871 317.91 298.906 316.875 
298.906 315.598 c 298.906 314.32 297.871 313.285 296.594 313.285 c h
296.594 313.285 m f
296.594 328.191 m 295.316 328.191 294.281 329.227 294.281 330.504 c 294.281
 331.781 295.316 332.816 296.594 332.816 c 297.871 332.816 298.906 331.781
 298.906 330.504 c 298.906 329.227 297.871 328.191 296.594 328.191 c h
296.594 328.191 m f
288.859 335.926 m 287.582 335.926 286.547 336.961 286.547 338.238 c 286.547
 339.516 287.582 340.551 288.859 340.551 c 290.137 340.551 291.172 339.516
 291.172 338.238 c 291.172 336.961 290.137 335.926 288.859 335.926 c h
288.859 335.926 m f
296.594 343.098 m 295.316 343.098 294.281 344.133 294.281 345.41 c 294.281
 346.688 295.316 347.723 296.594 347.723 c 297.871 347.723 298.906 346.688
 298.906 345.41 c 298.906 344.133 297.871 343.098 296.594 343.098 c h
296.594 343.098 m f
288.859 355.453 m 290.137 355.453 291.172 354.422 291.172 353.145 c 291.172
 351.867 290.137 350.832 288.859 350.832 c 287.582 350.832 286.547 351.867
 286.547 353.145 c 286.547 354.422 287.582 355.453 288.859 355.453 c h
288.859 355.453 m f
273.953 335.926 m 272.676 335.926 271.641 336.961 271.641 338.238 c 271.641
 339.516 272.676 340.551 273.953 340.551 c 275.23 340.551 276.266 339.516
 276.266 338.238 c 276.266 336.961 275.23 335.926 273.953 335.926 c h
273.953 335.926 m f
281.688 343.098 m 280.41 343.098 279.375 344.133 279.375 345.41 c 279.375
 346.688 280.41 347.723 281.688 347.723 c 282.965 347.723 284 346.688 284
 345.41 c 284 344.133 282.965 343.098 281.688 343.098 c h
281.688 343.098 m f
273.953 350.832 m 272.676 350.832 271.641 351.867 271.641 353.145 c 271.641
 354.418 272.676 355.453 273.953 355.453 c 275.23 355.453 276.266 354.422
 276.266 353.145 c 276.266 351.867 275.23 350.832 273.953 350.832 c h
273.953 350.832 m f
259.047 335.926 m 257.77 335.926 256.734 336.961 256.734 338.238 c 256.734
 339.516 257.77 340.551 259.047 340.551 c 260.324 340.551 261.359 339.516
 261.359 338.238 c 261.359 336.961 260.324 335.926 259.047 335.926 c h
259.047 335.926 m f
266.781 343.098 m 265.504 343.098 264.469 344.133 264.469 345.41 c 264.469
 346.688 265.504 347.723 266.781 347.723 c 268.059 347.723 269.094 346.688
 269.094 345.41 c 269.094 344.133 268.059 343.098 266.781 343.098 c h
266.781 343.098 m f
259.047 350.832 m 257.77 350.832 256.734 351.867 256.734 353.145 c 256.734
 354.418 257.77 355.453 259.047 355.453 c 260.324 355.453 261.359 354.422
 261.359 353.145 c 261.359 351.867 260.324 350.832 259.047 350.832 c h
259.047 350.832 m f
244.141 335.926 m 242.863 335.926 241.828 336.961 241.828 338.238 c 241.828
 339.516 242.863 340.551 244.141 340.551 c 245.418 340.551 246.453 339.516
 246.453 338.238 c 246.453 336.961 245.418 335.926 244.141 335.926 c h
244.141 335.926 m f
251.875 343.098 m 250.598 343.098 249.562 344.133 249.562 345.41 c 249.562
 346.688 250.598 347.723 251.875 347.723 c 253.152 347.723 254.188 346.688
 254.188 345.41 c 254.188 344.133 253.152 343.098 251.875 343.098 c h
251.875 343.098 m f
244.141 350.832 m 242.863 350.832 241.828 351.867 241.828 353.145 c 241.828
 354.418 242.863 355.453 244.141 355.453 c 245.418 355.453 246.453 354.422
 246.453 353.145 c 246.453 351.867 245.418 350.832 244.141 350.832 c h
244.141 350.832 m f
229.234 335.926 m 227.957 335.926 226.922 336.961 226.922 338.238 c 226.922
 339.516 227.957 340.551 229.234 340.551 c 230.512 340.551 231.547 339.516
 231.547 338.238 c 231.547 336.961 230.512 335.926 229.234 335.926 c h
229.234 335.926 m f
236.969 343.098 m 235.691 343.098 234.656 344.133 234.656 345.41 c 234.656
 346.688 235.691 347.723 236.969 347.723 c 238.246 347.723 239.281 346.688
 239.281 345.41 c 239.281 344.133 238.246 343.098 236.969 343.098 c h
236.969 343.098 m f
229.234 350.832 m 227.957 350.832 226.922 351.867 226.922 353.145 c 226.922
 354.418 227.957 355.453 229.234 355.453 c 230.512 355.453 231.547 354.422
 231.547 353.145 c 231.547 351.867 230.512 350.832 229.234 350.832 c h
229.234 350.832 m f
214.328 335.926 m 213.051 335.926 212.016 336.961 212.016 338.238 c 212.016
 339.516 213.051 340.551 214.328 340.551 c 215.605 340.551 216.641 339.516
 216.641 338.238 c 216.641 336.961 215.605 335.926 214.328 335.926 c h
214.328 335.926 m f
222.062 343.098 m 220.785 343.098 219.75 344.133 219.75 345.41 c 219.75
 346.688 220.785 347.723 222.062 347.723 c 223.34 347.723 224.375 346.688
 224.375 345.41 c 224.375 344.133 223.34 343.098 222.062 343.098 c h
222.062 343.098 m f
214.328 350.832 m 213.051 350.832 212.016 351.867 212.016 353.145 c 212.016
 354.418 213.051 355.453 214.328 355.453 c 215.605 355.453 216.641 354.422
 216.641 353.145 c 216.641 351.867 215.605 350.832 214.328 350.832 c h
214.328 350.832 m f
199.422 335.926 m 198.145 335.926 197.109 336.961 197.109 338.238 c 197.109
 339.516 198.145 340.551 199.422 340.551 c 200.699 340.551 201.734 339.516
 201.734 338.238 c 201.734 336.961 200.699 335.926 199.422 335.926 c h
199.422 335.926 m f
207.156 343.098 m 205.879 343.098 204.844 344.133 204.844 345.41 c 204.844
 346.688 205.879 347.723 207.156 347.723 c 208.434 347.723 209.469 346.688
 209.469 345.41 c 209.469 344.133 208.434 343.098 207.156 343.098 c h
207.156 343.098 m f
199.422 350.832 m 198.145 350.832 197.109 351.867 197.109 353.145 c 197.109
 354.418 198.145 355.453 199.422 355.453 c 200.699 355.453 201.734 354.422
 201.734 353.145 c 201.734 351.867 200.699 350.832 199.422 350.832 c h
199.422 350.832 m f
184.516 335.926 m 183.238 335.926 182.203 336.961 182.203 338.238 c 182.203
 339.516 183.238 340.551 184.516 340.551 c 185.793 340.551 186.828 339.516
 186.828 338.238 c 186.828 336.961 185.793 335.926 184.516 335.926 c h
184.516 335.926 m f
192.25 343.098 m 190.973 343.098 189.938 344.133 189.938 345.41 c 189.938
 346.688 190.973 347.723 192.25 347.723 c 193.527 347.723 194.562 346.688
 194.562 345.41 c 194.562 344.133 193.527 343.098 192.25 343.098 c h
192.25 343.098 m f
184.516 350.832 m 183.238 350.832 182.203 351.867 182.203 353.145 c 182.203
 354.418 183.238 355.453 184.516 355.453 c 185.793 355.453 186.828 354.422
 186.828 353.145 c 186.828 351.867 185.793 350.832 184.516 350.832 c h
184.516 350.832 m f
169.609 335.926 m 168.332 335.926 167.297 336.961 167.297 338.238 c 167.297
 339.516 168.332 340.551 169.609 340.551 c 170.887 340.551 171.922 339.516
 171.922 338.238 c 171.922 336.961 170.887 335.926 169.609 335.926 c h
169.609 335.926 m f
177.344 343.098 m 176.066 343.098 175.031 344.133 175.031 345.41 c 175.031
 346.688 176.066 347.723 177.344 347.723 c 178.621 347.723 179.656 346.688
 179.656 345.41 c 179.656 344.133 178.621 343.098 177.344 343.098 c h
177.344 343.098 m f
169.609 350.832 m 168.332 350.832 167.297 351.867 167.297 353.145 c 167.297
 354.418 168.332 355.453 169.609 355.453 c 170.887 355.453 171.922 354.422
 171.922 353.145 c 171.922 351.867 170.887 350.832 169.609 350.832 c h
169.609 350.832 m f
154.703 335.926 m 153.426 335.926 152.391 336.961 152.391 338.238 c 152.391
 339.516 153.426 340.551 154.703 340.551 c 155.98 340.551 157.016 339.516
 157.016 338.238 c 157.016 336.961 155.98 335.926 154.703 335.926 c h
154.703 335.926 m f
162.438 343.098 m 161.16 343.098 160.125 344.133 160.125 345.41 c 160.125
 346.688 161.16 347.723 162.438 347.723 c 163.715 347.723 164.75 346.688
 164.75 345.41 c 164.75 344.133 163.715 343.098 162.438 343.098 c h
162.438 343.098 m f
154.703 350.832 m 153.426 350.832 152.391 351.867 152.391 353.145 c 152.391
 354.418 153.426 355.453 154.703 355.453 c 155.98 355.453 157.016 354.422
 157.016 353.145 c 157.016 351.867 155.98 350.832 154.703 350.832 c h
154.703 350.832 m f
139.797 335.926 m 138.52 335.926 137.484 336.961 137.484 338.238 c 137.484
 339.516 138.52 340.551 139.797 340.551 c 141.074 340.551 142.109 339.516
 142.109 338.238 c 142.109 336.961 141.074 335.926 139.797 335.926 c h
139.797 335.926 m f
147.531 343.098 m 146.254 343.098 145.219 344.133 145.219 345.41 c 145.219
 346.688 146.254 347.723 147.531 347.723 c 148.809 347.723 149.844 346.688
 149.844 345.41 c 149.844 344.133 148.809 343.098 147.531 343.098 c h
147.531 343.098 m f
139.797 350.832 m 138.52 350.832 137.484 351.867 137.484 353.145 c 137.484
 354.418 138.52 355.453 139.797 355.453 c 141.074 355.453 142.109 354.422
 142.109 353.145 c 142.109 351.867 141.074 350.832 139.797 350.832 c h
139.797 350.832 m f
124.891 335.926 m 123.613 335.926 122.578 336.961 122.578 338.238 c 122.578
 339.516 123.613 340.551 124.891 340.551 c 126.168 340.551 127.203 339.516
 127.203 338.238 c 127.203 336.961 126.168 335.926 124.891 335.926 c h
124.891 335.926 m f
132.625 343.098 m 131.348 343.098 130.312 344.133 130.312 345.41 c 130.312
 346.688 131.348 347.723 132.625 347.723 c 133.902 347.723 134.938 346.688
 134.938 345.41 c 134.938 344.133 133.902 343.098 132.625 343.098 c h
132.625 343.098 m f
124.891 350.832 m 123.613 350.832 122.578 351.867 122.578 353.145 c 122.578
 354.418 123.613 355.453 124.891 355.453 c 126.168 355.453 127.203 354.422
 127.203 353.145 c 127.203 351.867 126.168 350.832 124.891 350.832 c h
124.891 350.832 m f
109.984 335.926 m 108.707 335.926 107.672 336.961 107.672 338.238 c 107.672
 339.516 108.707 340.551 109.984 340.551 c 111.262 340.551 112.297 339.516
 112.297 338.238 c 112.297 336.961 111.262 335.926 109.984 335.926 c h
109.984 335.926 m f
117.719 343.098 m 116.441 343.098 115.406 344.133 115.406 345.41 c 115.406
 346.688 116.441 347.723 117.719 347.723 c 118.996 347.723 120.031 346.688
 120.031 345.41 c 120.031 344.133 118.996 343.098 117.719 343.098 c h
117.719 343.098 m f
109.984 350.832 m 108.707 350.832 107.672 351.867 107.672 353.145 c 107.672
 354.418 108.707 355.453 109.984 355.453 c 111.262 355.453 112.297 354.422
 112.297 353.145 c 112.297 351.867 111.262 350.832 109.984 350.832 c h
109.984 350.832 m f
95.078 335.926 m 93.801 335.926 92.766 336.961 92.766 338.238 c 92.766 
339.516 93.801 340.551 95.078 340.551 c 96.355 340.551 97.391 339.516 97.391
 338.238 c 97.391 336.961 96.355 335.926 95.078 335.926 c h
95.078 335.926 m f
102.812 343.098 m 101.535 343.098 100.5 344.133 100.5 345.41 c 100.5 346.688
 101.535 347.723 102.812 347.723 c 104.09 347.723 105.125 346.688 105.125
 345.41 c 105.125 344.133 104.09 343.098 102.812 343.098 c h
102.812 343.098 m f
95.078 350.832 m 93.801 350.832 92.766 351.867 92.766 353.145 c 92.766 
354.418 93.801 355.453 95.078 355.453 c 96.355 355.453 97.391 354.422 97.391
 353.145 c 97.391 351.867 96.355 350.832 95.078 350.832 c h
95.078 350.832 m f
80.172 335.926 m 78.895 335.926 77.859 336.961 77.859 338.238 c 77.859 
339.516 78.895 340.551 80.172 340.551 c 81.449 340.551 82.484 339.516 82.484
 338.238 c 82.484 336.961 81.449 335.926 80.172 335.926 c h
80.172 335.926 m f
87.906 343.098 m 86.629 343.098 85.594 344.133 85.594 345.41 c 85.594 346.688
 86.629 347.723 87.906 347.723 c 89.184 347.723 90.219 346.688 90.219 345.41
 c 90.219 344.133 89.184 343.098 87.906 343.098 c h
87.906 343.098 m f
80.172 350.832 m 78.895 350.832 77.859 351.867 77.859 353.145 c 77.859 
354.418 78.895 355.453 80.172 355.453 c 81.449 355.453 82.484 354.422 82.484
 353.145 c 82.484 351.867 81.449 350.832 80.172 350.832 c h
80.172 350.832 m f
73 347.723 m 74.277 347.723 75.312 346.688 75.312 345.41 c 75.312 344.133
 74.277 343.098 73 343.098 c 71.727 343.098 70.688 344.133 70.688 345.41
 c 70.688 346.688 71.723 347.723 73 347.723 c h
73 347.723 m f
311.484 238.746 m 310.207 238.746 309.172 239.781 309.172 241.059 c 309.172
 242.336 310.207 243.371 311.484 243.371 c 312.762 243.371 313.797 242.336
 313.797 241.059 c 313.797 239.781 312.762 238.746 311.484 238.746 c h
311.484 238.746 m f
303.832 261.402 m 302.555 261.402 301.52 262.438 301.52 263.715 c 301.52
 264.992 302.555 266.027 303.832 266.027 c 305.109 266.027 306.141 264.992
 306.141 263.715 c 306.141 262.438 305.109 261.402 303.832 261.402 c h
303.832 261.402 m f
288.891 320.984 m 287.613 320.984 286.578 322.02 286.578 323.297 c 286.578
 324.574 287.613 325.609 288.891 325.609 c 290.164 325.609 291.199 324.574
 291.199 323.297 c 291.199 322.02 290.164 320.984 288.891 320.984 c h
288.891 320.984 m f
281.66 328.152 m 280.383 328.152 279.348 329.188 279.348 330.465 c 279.348
 331.742 280.383 332.777 281.66 332.777 c 282.938 332.777 283.973 331.742
 283.973 330.465 c 283.973 329.188 282.938 328.152 281.66 328.152 c h
281.66 328.152 m f
0.192157 0.215686 0.239216 rg
364.602 151.355 m 306.934 151.355 l 268.238 29.965 l 266.203 23.582 259.359
 20.047 252.98 22.082 c 239.148 26.488 l 232.77 28.523 229.234 35.367 231.266
 41.75 c 266.203 151.355 l 117.797 151.355 l 152.734 41.75 l 153.719 38.656
 153.441 35.367 151.953 32.488 c 150.465 29.605 147.941 27.477 144.852 26.488
 c 131.02 22.082 l 127.93 21.098 124.641 21.375 121.758 22.863 c 118.875
 24.352 116.746 26.875 115.762 29.965 c 77.066 151.355 l 19.398 151.355 
l 8.703 151.355 0 160.059 0 170.758 c 0 181.453 8.703 190.156 19.398 190.156
 c 22.234 190.156 l 64.906 350.926 l 66.719 357.738 72.902 362.5 79.953 
362.5 c 304.047 362.5 l 311.098 362.5 317.285 357.738 319.094 350.926 c 
361.766 190.156 l 364.602 190.156 l 375.297 190.156 384 181.453 384 170.758
 c 384 160.059 375.297 151.355 364.602 151.355 c h
313.242 349.371 m 312.137 353.539 308.355 356.445 304.047 356.445 c 79.953
 356.445 l 75.645 356.445 71.863 353.539 70.758 349.371 c 28.496 190.156
 l 355.504 190.156 l h
364.602 184.102 m 19.398 184.102 l 12.039 184.102 6.055 178.117 6.055 170.758
 c 6.055 163.398 12.039 157.41 19.398 157.41 c 364.602 157.41 l 371.961 
157.41 377.949 163.398 377.949 170.758 c 377.949 178.117 371.961 184.102
 364.602 184.102 c h
364.602 184.102 m f
120.539 326.156 m 127.516 326.156 133.191 320.48 133.191 313.504 c 133.191
 236.34 l 133.191 229.367 127.516 223.691 120.539 223.691 c 113.566 223.691
 107.891 229.367 107.891 236.34 c 107.891 313.504 l 107.891 320.48 113.566
 326.156 120.539 326.156 c h
113.945 236.34 m 113.945 232.703 116.902 229.746 120.539 229.746 c 124.176
 229.746 127.137 232.703 127.137 236.34 c 127.137 313.504 l 127.137 317.145
 124.176 320.102 120.539 320.102 c 116.902 320.102 113.945 317.145 113.945
 313.504 c h
113.945 236.34 m f
263.461 326.156 m 270.438 326.156 276.109 320.48 276.109 313.504 c 276.109
 236.34 l 276.109 229.367 270.434 223.691 263.461 223.691 c 256.484 223.691
 250.809 229.367 250.809 236.34 c 250.809 313.504 l 250.809 320.48 256.484
 326.156 263.461 326.156 c h
256.863 236.34 m 256.863 232.703 259.824 229.746 263.461 229.746 c 267.098
 229.746 270.059 232.703 270.059 236.34 c 270.059 313.504 l 270.059 317.145
 267.098 320.102 263.461 320.102 c 259.824 320.102 256.863 317.145 256.863
 313.504 c h
256.863 236.34 m f
192 326.156 m 198.977 326.156 204.648 320.48 204.648 313.504 c 204.648 
236.34 l 204.648 229.367 198.977 223.691 192 223.691 c 185.023 223.691 179.352
 229.367 179.352 236.34 c 179.352 313.504 l 179.352 320.48 185.023 326.156
 192 326.156 c h
185.402 236.34 m 185.402 232.703 188.363 229.746 192 229.746 c 195.637 
229.746 198.598 232.703 198.598 236.34 c 198.598 313.504 l 198.598 317.145
 195.637 320.102 192 320.102 c 188.363 320.102 185.402 317.145 185.402 313.504
 c h
185.402 236.34 m f
Q Q
showpage
%%Trailer
end
%%EOF
