%!PS-Adobe-3.0 EPSF-3.0
%%Creator: cairo 1.16.0 (https://cairographics.org)
%%CreationDate: Fri Feb 12 12:13:03 2021
%%Pages: 1
%%DocumentData: Clean7Bit
%%LanguageLevel: 2
%%BoundingBox: 0 2 384 382
%%EndComments
%%BeginProlog
50 dict begin
/q { gsave } bind def
/Q { grestore } bind def
/cm { 6 array astore concat } bind def
/w { setlinewidth } bind def
/J { setlinecap } bind def
/j { setlinejoin } bind def
/M { setmiterlimit } bind def
/d { setdash } bind def
/m { moveto } bind def
/l { lineto } bind def
/c { curveto } bind def
/h { closepath } bind def
/re { exch dup neg 3 1 roll 5 3 roll moveto 0 rlineto
      0 exch rlineto 0 rlineto closepath } bind def
/S { stroke } bind def
/f { fill } bind def
/f* { eofill } bind def
/n { newpath } bind def
/W { clip } bind def
/W* { eoclip } bind def
/BT { } bind def
/ET { } bind def
/BDC { mark 3 1 roll /BDC pdfmark } bind def
/EMC { mark /EMC pdfmark } bind def
/cairo_store_point { /cairo_point_y exch def /cairo_point_x exch def } def
/Tj { show currentpoint cairo_store_point } bind def
/TJ {
  {
    dup
    type /stringtype eq
    { show } { -0.001 mul 0 cairo_font_matrix dtransform rmoveto } ifelse
  } forall
  currentpoint cairo_store_point
} bind def
/cairo_selectfont { cairo_font_matrix aload pop pop pop 0 0 6 array astore
    cairo_font exch selectfont cairo_point_x cairo_point_y moveto } bind def
/Tf { pop /cairo_font exch def /cairo_font_matrix where
      { pop cairo_selectfont } if } bind def
/Td { matrix translate cairo_font_matrix matrix concatmatrix dup
      /cairo_font_matrix exch def dup 4 get exch 5 get cairo_store_point
      /cairo_font where { pop cairo_selectfont } if } bind def
/Tm { 2 copy 8 2 roll 6 array astore /cairo_font_matrix exch def
      cairo_store_point /cairo_font where { pop cairo_selectfont } if } bind def
/g { setgray } bind def
/rg { setrgbcolor } bind def
/d1 { setcachedevice } bind def
/cairo_data_source {
  CairoDataIndex CairoData length lt
    { CairoData CairoDataIndex get /CairoDataIndex CairoDataIndex 1 add def }
    { () } ifelse
} def
/cairo_flush_ascii85_file { cairo_ascii85_file status { cairo_ascii85_file flushfile } if } def
/cairo_image { image cairo_flush_ascii85_file } def
/cairo_imagemask { imagemask cairo_flush_ascii85_file } def
%%EndProlog
%%BeginSetup
%%EndSetup
%%Page: 1 1
%%BeginPageSetup
%%PageBoundingBox: 0 2 384 382
%%EndPageSetup
q 0 2 384 380 rectclip
1 0 0 -1 0 384 cm q
0.976471 0.984314 0.988235 rg
289.41 5.176 m 117.113 5.176 l 108.066 5.176 100.734 12.508 100.734 21.555
 c 100.734 362.445 l 100.734 371.488 108.066 378.82 117.113 378.82 c 364.59
 378.82 l 373.637 378.82 380.969 371.488 380.969 362.445 c 380.969 96.289
 l h
289.41 5.176 m f
0.917647 0.658824 0.584314 rg
12.715 246.453 m 18.027 254.914 72.719 315.324 93.102 337.742 c 97.172 
342.223 104.207 342.227 108.281 337.754 c 128.332 315.738 181.629 257.047
 187.801 247.039 c 194.598 236.031 198.359 225.254 198.359 212.098 c 198.359
 180.5 176.113 154.883 148.672 154.883 c 125.711 154.883 106.395 172.824
 100.699 197.195 c 95.004 172.824 75.688 154.883 52.727 154.883 c 25.285
 154.883 3.039 180.5 3.039 212.098 c 2.879 225.094 6.168 236.031 12.715 
246.453 c h
12.715 246.453 m f
0.976471 0.984314 0.988235 rg
192.781 200.184 m 191.504 200.184 190.465 201.223 190.465 202.5 c 190.465
 203.781 191.504 204.816 192.781 204.816 c 194.062 204.816 195.098 203.781
 195.098 202.5 c 195.098 201.223 194.062 200.184 192.781 200.184 c h
192.781 200.184 m f
192.781 215.117 m 191.504 215.117 190.465 216.152 190.465 217.434 c 190.465
 218.711 191.504 219.746 192.781 219.746 c 194.062 219.746 195.098 218.711
 195.098 217.434 c 195.098 216.152 194.062 215.117 192.781 215.117 c h
192.781 215.117 m f
192.781 230.047 m 191.504 230.047 190.465 231.082 190.465 232.359 c 190.465
 233.641 191.504 234.68 192.781 234.68 c 193.379 234.68 193.918 234.445 
194.328 234.074 c 194.586 233.402 194.832 232.73 195.066 232.055 c 194.914
 230.922 193.957 230.047 192.781 230.047 c h
192.781 230.047 m f
177.852 170.324 m 176.574 170.324 175.535 171.359 175.535 172.641 c 175.535
 173.918 176.574 174.957 177.852 174.957 c 179.129 174.957 180.168 173.918
 180.168 172.641 c 180.168 171.363 179.129 170.324 177.852 170.324 c h
177.852 170.324 m f
185.598 177.508 m 184.32 177.508 183.281 178.547 183.281 179.824 c 183.281
 181.105 184.32 182.141 185.598 182.141 c 186.875 182.141 187.914 181.105
 187.914 179.824 c 187.914 178.547 186.879 177.508 185.598 177.508 c h
185.598 177.508 m f
177.852 185.254 m 176.574 185.254 175.535 186.293 175.535 187.57 c 175.535
 188.852 176.574 189.887 177.852 189.887 c 179.129 189.887 180.168 188.852
 180.168 187.57 c 180.168 186.293 179.129 185.254 177.852 185.254 c h
177.852 185.254 m f
185.598 192.438 m 184.32 192.438 183.281 193.477 183.281 194.754 c 183.281
 196.035 184.32 197.07 185.598 197.07 c 186.875 197.07 187.914 196.035 187.914
 194.754 c 187.914 193.477 186.879 192.438 185.598 192.438 c h
185.598 192.438 m f
177.852 200.184 m 176.574 200.184 175.535 201.223 175.535 202.5 c 175.535
 203.781 176.574 204.816 177.852 204.816 c 179.129 204.816 180.168 203.781
 180.168 202.5 c 180.168 201.223 179.129 200.184 177.852 200.184 c h
177.852 200.184 m f
185.598 207.371 m 184.32 207.371 183.281 208.406 183.281 209.684 c 183.281
 210.965 184.32 212 185.598 212 c 186.875 212 187.914 210.965 187.914 209.684
 c 187.914 208.406 186.879 207.371 185.598 207.371 c h
185.598 207.371 m f
177.852 215.117 m 176.574 215.117 175.535 216.152 175.535 217.434 c 175.535
 218.711 176.574 219.746 177.852 219.746 c 179.129 219.746 180.168 218.711
 180.168 217.434 c 180.168 216.152 179.129 215.117 177.852 215.117 c h
177.852 215.117 m f
185.598 222.301 m 184.32 222.301 183.281 223.336 183.281 224.617 c 183.281
 225.895 184.32 226.934 185.598 226.934 c 186.875 226.934 187.914 225.895
 187.914 224.617 c 187.914 223.336 186.879 222.301 185.598 222.301 c h
185.598 222.301 m f
177.852 230.047 m 176.574 230.047 175.535 231.082 175.535 232.359 c 175.535
 233.641 176.574 234.68 177.852 234.68 c 179.129 234.68 180.168 233.641 
180.168 232.359 c 180.168 231.082 179.129 230.047 177.852 230.047 c h
177.852 230.047 m f
185.598 241.863 m 186.875 241.863 187.914 240.824 187.914 239.547 c 187.914
 238.27 186.879 237.23 185.598 237.23 c 184.32 237.23 183.281 238.27 183.281
 239.547 c 183.281 240.824 184.32 241.863 185.598 241.863 c h
185.598 241.863 m f
177.852 244.977 m 176.574 244.977 175.535 246.012 175.535 247.293 c 175.535
 248.57 176.574 249.609 177.852 249.609 c 179.129 249.609 180.168 248.574
 180.168 247.293 c 180.168 246.012 179.129 244.977 177.852 244.977 c h
177.852 244.977 m f
170.668 222.301 m 169.391 222.301 168.352 223.336 168.352 224.617 c 168.352
 225.895 169.387 226.934 170.668 226.934 c 171.945 226.934 172.984 225.895
 172.984 224.617 c 172.984 223.336 171.945 222.301 170.668 222.301 c h
170.668 222.301 m f
162.922 230.047 m 161.641 230.047 160.605 231.082 160.605 232.359 c 160.605
 233.641 161.641 234.68 162.922 234.68 c 164.199 234.68 165.238 233.641 
165.238 232.359 c 165.238 231.082 164.199 230.047 162.922 230.047 c h
162.922 230.047 m f
170.668 237.23 m 169.391 237.23 168.352 238.266 168.352 239.547 c 168.352
 240.824 169.387 241.863 170.668 241.863 c 171.945 241.863 172.984 240.824
 172.984 239.547 c 172.984 238.266 171.945 237.23 170.668 237.23 c h
170.668 237.23 m f
162.922 244.977 m 161.641 244.977 160.605 246.012 160.605 247.293 c 160.605
 248.57 161.641 249.609 162.922 249.609 c 164.199 249.609 165.238 248.574
 165.238 247.293 c 165.238 246.012 164.199 244.977 162.922 244.977 c h
162.922 244.977 m f
170.668 252.16 m 169.391 252.16 168.352 253.195 168.352 254.477 c 168.352
 255.754 169.387 256.793 170.668 256.793 c 171.945 256.793 172.984 255.754
 172.984 254.477 c 172.984 253.199 171.945 252.16 170.668 252.16 c h
170.668 252.16 m f
162.922 259.906 m 161.641 259.906 160.605 260.945 160.605 262.223 c 160.605
 263.5 161.641 264.539 162.922 264.539 c 164.199 264.539 165.238 263.5 165.238
 262.223 c 165.238 260.945 164.199 259.906 162.922 259.906 c h
162.922 259.906 m f
155.738 237.23 m 154.457 237.23 153.422 238.266 153.422 239.547 c 153.422
 240.824 154.457 241.863 155.738 241.863 c 157.016 241.863 158.055 240.824
 158.055 239.547 c 158.055 238.266 157.016 237.23 155.738 237.23 c h
155.738 237.23 m f
147.992 244.977 m 146.711 244.977 145.676 246.012 145.676 247.293 c 145.676
 248.57 146.711 249.609 147.992 249.609 c 149.27 249.609 150.309 248.574
 150.309 247.293 c 150.309 246.012 149.27 244.977 147.992 244.977 c h
147.992 244.977 m f
155.738 252.16 m 154.457 252.16 153.422 253.195 153.422 254.477 c 153.422
 255.754 154.457 256.793 155.738 256.793 c 157.016 256.793 158.055 255.754
 158.055 254.477 c 158.055 253.199 157.016 252.16 155.738 252.16 c h
155.738 252.16 m f
150.309 262.223 m 150.309 263.504 149.27 264.539 147.992 264.539 c 146.711
 264.539 145.676 263.504 145.676 262.223 c 145.676 260.945 146.711 259.906
 147.992 259.906 c 149.27 259.906 150.309 260.945 150.309 262.223 c h
150.309 262.223 m f
155.738 267.09 m 154.457 267.09 153.422 268.129 153.422 269.41 c 153.422
 270.688 154.457 271.723 155.738 271.723 c 157.016 271.723 158.055 270.688
 158.055 269.41 c 158.055 268.129 157.016 267.09 155.738 267.09 c h
155.738 267.09 m f
147.992 274.836 m 146.711 274.836 145.676 275.875 145.676 277.152 c 145.676
 278.434 146.711 279.469 147.992 279.469 c 149.27 279.469 150.309 278.434
 150.309 277.152 c 150.309 275.875 149.27 274.836 147.992 274.836 c h
147.992 274.836 m f
143.121 254.477 m 143.121 255.758 142.086 256.793 140.805 256.793 c 139.527
 256.793 138.492 255.758 138.492 254.477 c 138.492 253.199 139.527 252.16
 140.805 252.16 c 142.086 252.16 143.121 253.199 143.121 254.477 c h
143.121 254.477 m f
140.805 267.09 m 139.527 267.09 138.492 268.129 138.492 269.41 c 138.492
 270.688 139.527 271.723 140.805 271.723 c 142.086 271.723 143.121 270.688
 143.121 269.41 c 143.121 268.129 142.086 267.09 140.805 267.09 c h
140.805 267.09 m f
133.059 274.836 m 131.781 274.836 130.746 275.875 130.746 277.152 c 130.746
 278.434 131.781 279.469 133.059 279.469 c 134.34 279.469 135.375 278.434
 135.375 277.152 c 135.375 275.875 134.34 274.836 133.059 274.836 c h
133.059 274.836 m f
140.805 282.023 m 139.527 282.023 138.492 283.059 138.492 284.336 c 138.492
 285.617 139.527 286.652 140.805 286.652 c 142.086 286.652 143.121 285.617
 143.121 284.336 c 143.121 283.059 142.086 282.023 140.805 282.023 c h
140.805 282.023 m f
133.059 289.77 m 131.781 289.77 130.746 290.805 130.746 292.086 c 130.746
 293.363 131.781 294.402 133.059 294.402 c 134.34 294.402 135.375 293.363
 135.375 292.086 c 135.375 290.805 134.34 289.77 133.059 289.77 c h
133.059 289.77 m f
140.805 296.953 m 139.527 296.953 138.492 297.988 138.492 299.27 c 138.492
 300.547 139.527 301.586 140.805 301.586 c 140.883 301.586 140.957 301.57
 141.031 301.562 c 141.727 300.789 142.422 300.012 143.117 299.234 c 143.102
 297.973 142.074 296.953 140.805 296.953 c h
140.805 296.953 m f
133.059 304.699 m 131.781 304.699 130.746 305.734 130.746 307.016 c 130.746
 308.293 131.781 309.332 133.059 309.332 c 133.621 309.332 134.133 309.121
 134.535 308.789 c 134.691 308.613 134.848 308.438 135.004 308.266 c 135.238
 307.902 135.375 307.477 135.375 307.016 c 135.375 305.734 134.34 304.699
 133.059 304.699 c h
133.059 304.699 m f
125.875 282.023 m 124.598 282.023 123.559 283.059 123.559 284.336 c 123.559
 285.617 124.598 286.652 125.875 286.652 c 127.156 286.652 128.191 285.617
 128.191 284.336 c 128.191 283.059 127.156 282.023 125.875 282.023 c h
125.875 282.023 m f
118.129 289.77 m 116.852 289.77 115.812 290.805 115.812 292.086 c 115.812
 293.363 116.852 294.402 118.129 294.402 c 119.41 294.402 120.445 293.363
 120.445 292.086 c 120.445 290.805 119.41 289.77 118.129 289.77 c h
118.129 289.77 m f
125.875 296.953 m 124.598 296.953 123.559 297.988 123.559 299.27 c 123.559
 300.547 124.598 301.586 125.875 301.586 c 127.156 301.586 128.191 300.547
 128.191 299.27 c 128.191 297.988 127.156 296.953 125.875 296.953 c h
125.875 296.953 m f
118.129 304.699 m 116.852 304.699 115.812 305.734 115.812 307.016 c 115.812
 308.293 116.852 309.332 118.129 309.332 c 119.41 309.332 120.445 308.297
 120.445 307.016 c 120.445 305.734 119.41 304.699 118.129 304.699 c h
118.129 304.699 m f
125.875 311.883 m 124.598 311.883 123.559 312.918 123.559 314.199 c 123.559
 315.477 124.598 316.516 125.875 316.516 c 127.156 316.516 128.191 315.477
 128.191 314.199 c 128.191 312.922 127.156 311.883 125.875 311.883 c h
125.875 311.883 m f
118.129 319.629 m 116.852 319.629 115.812 320.664 115.812 321.945 c 115.812
 323.223 116.852 324.262 118.129 324.262 c 119.41 324.262 120.445 323.227
 120.445 321.945 c 120.445 320.668 119.41 319.629 118.129 319.629 c h
118.129 319.629 m f
110.945 296.953 m 109.668 296.953 108.629 297.988 108.629 299.27 c 108.629
 300.547 109.668 301.586 110.945 301.586 c 112.227 301.586 113.262 300.547
 113.262 299.27 c 113.262 297.988 112.227 296.953 110.945 296.953 c h
110.945 296.953 m f
103.199 304.699 m 101.918 304.699 100.883 305.734 100.883 307.016 c 100.883
 308.293 101.918 309.332 103.199 309.332 c 104.477 309.332 105.516 308.297
 105.516 307.016 c 105.516 305.734 104.48 304.699 103.199 304.699 c h
103.199 304.699 m f
110.945 311.883 m 109.668 311.883 108.629 312.918 108.629 314.199 c 108.629
 315.477 109.668 316.516 110.945 316.516 c 112.227 316.516 113.262 315.477
 113.262 314.199 c 113.262 312.922 112.227 311.883 110.945 311.883 c h
110.945 311.883 m f
103.199 319.629 m 101.918 319.629 100.883 320.664 100.883 321.945 c 100.883
 323.223 101.918 324.262 103.199 324.262 c 104.477 324.262 105.516 323.227
 105.516 321.945 c 105.516 320.668 104.48 319.629 103.199 319.629 c h
103.199 319.629 m f
110.945 331.445 m 112.227 331.445 113.262 330.41 113.262 329.129 c 113.262
 327.852 112.227 326.816 110.945 326.816 c 109.668 326.816 108.629 327.852
 108.629 329.129 c 108.629 330.41 109.668 331.445 110.945 331.445 c h
110.945 331.445 m f
103.199 339.191 m 104.477 339.191 105.516 338.156 105.516 336.875 c 105.516
 335.598 104.477 334.559 103.199 334.559 c 101.918 334.559 100.883 335.598
 100.883 336.875 c 100.883 338.156 101.922 339.191 103.199 339.191 c h
103.199 339.191 m f
96.016 316.516 m 97.293 316.516 98.332 315.477 98.332 314.199 c 98.332 
312.922 97.293 311.883 96.016 311.883 c 94.734 311.883 93.699 312.918 93.699
 314.199 c 93.699 315.477 94.734 316.516 96.016 316.516 c h
96.016 316.516 m f
88.27 324.262 m 89.547 324.262 90.586 323.227 90.586 321.945 c 90.586 320.668
 89.547 319.629 88.27 319.629 c 86.988 319.629 85.953 320.664 85.953 321.945
 c 85.953 323.223 86.988 324.262 88.27 324.262 c h
88.27 324.262 m f
96.016 331.445 m 97.293 331.445 98.332 330.41 98.332 329.129 c 98.332 327.852
 97.293 326.816 96.016 326.816 c 94.734 326.816 93.699 327.852 93.699 329.129
 c 93.699 330.41 94.734 331.445 96.016 331.445 c h
96.016 331.445 m f
103.172 289.773 m 101.895 289.773 100.855 290.809 100.855 292.09 c 100.855
 293.371 101.895 294.406 103.172 294.406 c 104.449 294.406 105.488 293.371
 105.488 292.09 c 105.488 290.809 104.449 289.773 103.172 289.773 c h
103.172 289.773 m f
110.961 282.051 m 109.684 282.051 108.645 283.086 108.645 284.363 c 108.645
 285.645 109.684 286.68 110.961 286.68 c 112.242 286.68 113.277 285.645 
113.277 284.363 c 113.277 283.086 112.242 282.051 110.961 282.051 c h
110.961 282.051 m f
118.152 274.859 m 116.875 274.859 115.836 275.895 115.836 277.172 c 115.836
 278.453 116.875 279.492 118.152 279.492 c 119.434 279.492 120.469 278.453
 120.469 277.172 c 120.469 275.895 119.434 274.859 118.152 274.859 c h
118.152 274.859 m f
125.812 267.066 m 124.531 267.066 123.496 268.105 123.496 269.383 c 123.496
 270.664 124.531 271.699 125.812 271.699 c 127.09 271.699 128.129 270.664
 128.129 269.383 c 128.125 268.105 127.09 267.066 125.812 267.066 c h
125.812 267.066 m f
133.07 259.875 m 131.789 259.875 130.754 260.914 130.754 262.191 c 130.754
 263.473 131.789 264.508 133.07 264.508 c 134.348 264.508 135.383 263.473
 135.383 262.191 c 135.383 260.914 134.348 259.875 133.07 259.875 c h
133.07 259.875 m f
170.621 207.34 m 169.344 207.34 168.309 208.379 168.309 209.656 c 168.309
 210.938 169.344 211.973 170.621 211.973 c 171.902 211.973 172.938 210.938
 172.938 209.656 c 172.938 208.379 171.902 207.34 170.621 207.34 c h
170.621 207.34 m f
0.917647 0.658824 0.584314 rg
377.172 96.004 m 375.629 96.004 374.379 97.258 374.379 98.797 c 374.379
 100.34 375.629 101.59 377.172 101.59 c 378.711 101.59 379.961 100.34 379.961
 98.797 c 379.961 97.254 378.711 96.004 377.172 96.004 c h
377.172 96.004 m f
377.172 119.59 m 378.711 119.59 379.961 118.34 379.961 116.797 c 379.961
 115.258 378.711 114.008 377.172 114.008 c 375.629 114.008 374.379 115.258
 374.379 116.797 c 374.379 118.34 375.629 119.59 377.172 119.59 c h
377.172 119.59 m f
377.172 137.594 m 378.711 137.594 379.961 136.34 379.961 134.801 c 379.961
 133.258 378.711 132.008 377.172 132.008 c 375.629 132.008 374.379 133.258
 374.379 134.801 c 374.379 136.34 375.629 137.594 377.172 137.594 c h
377.172 137.594 m f
377.172 155.594 m 378.711 155.594 379.961 154.344 379.961 152.801 c 379.961
 151.258 378.711 150.008 377.172 150.008 c 375.629 150.008 374.379 151.258
 374.379 152.801 c 374.379 154.344 375.629 155.594 377.172 155.594 c h
377.172 155.594 m f
377.172 173.594 m 378.711 173.594 379.961 172.344 379.961 170.801 c 379.961
 169.262 378.711 168.008 377.172 168.008 c 375.629 168.008 374.379 169.262
 374.379 170.801 c 374.379 172.344 375.629 173.594 377.172 173.594 c h
377.172 173.594 m f
377.172 191.594 m 378.711 191.594 379.961 190.344 379.961 188.805 c 379.961
 187.262 378.711 186.012 377.172 186.012 c 375.629 186.012 374.379 187.262
 374.379 188.805 c 374.379 190.344 375.629 191.594 377.172 191.594 c h
377.172 191.594 m f
377.172 209.598 m 378.711 209.598 379.961 208.348 379.961 206.805 c 379.961
 205.262 378.711 204.012 377.172 204.012 c 375.629 204.012 374.379 205.262
 374.379 206.805 c 374.379 208.348 375.629 209.598 377.172 209.598 c h
377.172 209.598 m f
377.172 227.598 m 378.711 227.598 379.961 226.348 379.961 224.805 c 379.961
 223.262 378.711 222.012 377.172 222.012 c 375.629 222.012 374.379 223.262
 374.379 224.805 c 374.379 226.348 375.629 227.598 377.172 227.598 c h
377.172 227.598 m f
377.172 245.598 m 378.711 245.598 379.961 244.348 379.961 242.805 c 379.961
 241.266 378.711 240.016 377.172 240.016 c 375.629 240.016 374.379 241.266
 374.379 242.805 c 374.379 244.348 375.629 245.598 377.172 245.598 c h
377.172 245.598 m f
377.172 263.598 m 378.711 263.598 379.961 262.348 379.961 260.805 c 379.961
 259.266 378.711 258.016 377.172 258.016 c 375.629 258.016 374.379 259.266
 374.379 260.805 c 374.379 262.348 375.629 263.598 377.172 263.598 c h
377.172 263.598 m f
377.172 281.602 m 378.711 281.602 379.961 280.352 379.961 278.809 c 379.961
 277.266 378.711 276.016 377.172 276.016 c 375.629 276.016 374.379 277.266
 374.379 278.809 c 374.379 280.352 375.629 281.602 377.172 281.602 c h
377.172 281.602 m f
377.172 299.602 m 378.711 299.602 379.961 298.352 379.961 296.809 c 379.961
 295.266 378.711 294.016 377.172 294.016 c 375.629 294.016 374.379 295.266
 374.379 296.809 c 374.379 298.352 375.629 299.602 377.172 299.602 c h
377.172 299.602 m f
377.172 317.602 m 378.711 317.602 379.961 316.352 379.961 314.809 c 379.961
 313.27 378.711 312.02 377.172 312.02 c 375.629 312.02 374.379 313.27 374.379
 314.809 c 374.379 316.352 375.629 317.602 377.172 317.602 c h
377.172 317.602 m f
377.172 335.602 m 378.711 335.602 379.961 334.352 379.961 332.812 c 379.961
 331.27 378.711 330.02 377.172 330.02 c 375.629 330.02 374.379 331.27 374.379
 332.812 c 374.379 334.352 375.629 335.602 377.172 335.602 c h
377.172 335.602 m f
377.172 353.605 m 378.711 353.605 379.961 352.355 379.961 350.812 c 379.961
 349.27 378.711 348.02 377.172 348.02 c 375.629 348.02 374.379 349.27 374.379
 350.812 c 374.379 352.355 375.629 353.605 377.172 353.605 c h
377.172 353.605 m f
377.172 366.02 m 375.629 366.02 374.379 367.27 374.379 368.812 c 374.379
 370.355 375.629 371.605 377.172 371.605 c 377.582 371.605 377.973 371.512
 378.324 371.348 c 378.957 370.375 379.484 369.328 379.898 368.227 c 379.629
 366.965 378.512 366.02 377.172 366.02 c h
377.172 366.02 m f
359.168 96.004 m 357.629 96.004 356.375 97.258 356.375 98.797 c 356.375
 100.34 357.629 101.59 359.168 101.59 c 360.711 101.59 361.961 100.34 361.961
 98.797 c 361.961 97.254 360.711 96.004 359.168 96.004 c h
359.168 96.004 m f
368.508 110.25 m 370.051 110.25 371.301 109 371.301 107.461 c 371.301 105.918
 370.051 104.668 368.508 104.668 c 366.965 104.668 365.715 105.918 365.715
 107.461 c 365.715 109 366.965 110.25 368.508 110.25 c h
368.508 110.25 m f
359.168 119.59 m 360.711 119.59 361.961 118.34 361.961 116.797 c 361.961
 115.258 360.711 114.008 359.168 114.008 c 357.629 114.008 356.375 115.258
 356.375 116.797 c 356.375 118.34 357.629 119.59 359.168 119.59 c h
359.168 119.59 m f
368.508 128.254 m 370.051 128.254 371.301 127.004 371.301 125.461 c 371.301
 123.918 370.051 122.668 368.508 122.668 c 366.965 122.668 365.715 123.918
 365.715 125.461 c 365.715 127.004 366.965 128.254 368.508 128.254 c h
368.508 128.254 m f
359.168 137.594 m 360.711 137.594 361.961 136.34 361.961 134.801 c 361.961
 133.258 360.711 132.008 359.168 132.008 c 357.629 132.008 356.375 133.258
 356.375 134.801 c 356.375 136.34 357.629 137.594 359.168 137.594 c h
359.168 137.594 m f
368.508 146.254 m 370.051 146.254 371.301 145.004 371.301 143.461 c 371.301
 141.922 370.051 140.668 368.508 140.668 c 366.965 140.668 365.715 141.922
 365.715 143.461 c 365.715 145.004 366.965 146.254 368.508 146.254 c h
368.508 146.254 m f
359.168 155.594 m 360.711 155.594 361.961 154.344 361.961 152.801 c 361.961
 151.258 360.711 150.008 359.168 150.008 c 357.629 150.008 356.375 151.258
 356.375 152.801 c 356.375 154.344 357.629 155.594 359.168 155.594 c h
359.168 155.594 m f
368.508 164.254 m 370.051 164.254 371.301 163.004 371.301 161.461 c 371.301
 159.922 370.051 158.672 368.508 158.672 c 366.965 158.672 365.715 159.922
 365.715 161.461 c 365.715 163.004 366.965 164.254 368.508 164.254 c h
368.508 164.254 m f
359.168 173.594 m 360.711 173.594 361.961 172.344 361.961 170.801 c 361.961
 169.262 360.711 168.008 359.168 168.008 c 357.629 168.008 356.375 169.262
 356.375 170.801 c 356.375 172.344 357.629 173.594 359.168 173.594 c h
359.168 173.594 m f
368.508 182.258 m 370.051 182.258 371.301 181.004 371.301 179.465 c 371.301
 177.922 370.051 176.672 368.508 176.672 c 366.965 176.672 365.715 177.922
 365.715 179.465 c 365.715 181.004 366.965 182.258 368.508 182.258 c h
368.508 182.258 m f
361.961 188.805 m 361.961 190.344 360.711 191.594 359.168 191.594 c 357.625
 191.594 356.375 190.344 356.375 188.805 c 356.375 187.262 357.625 186.012
 359.168 186.012 c 360.711 186.012 361.961 187.262 361.961 188.805 c h
361.961 188.805 m f
368.508 200.258 m 370.051 200.258 371.301 199.008 371.301 197.465 c 371.301
 195.922 370.051 194.672 368.508 194.672 c 366.965 194.672 365.715 195.922
 365.715 197.465 c 365.715 199.008 366.965 200.258 368.508 200.258 c h
368.508 200.258 m f
361.961 206.805 m 361.961 208.348 360.711 209.598 359.168 209.598 c 357.625
 209.598 356.375 208.348 356.375 206.805 c 356.375 205.262 357.625 204.012
 359.168 204.012 c 360.711 204.012 361.961 205.262 361.961 206.805 c h
361.961 206.805 m f
368.508 218.258 m 370.051 218.258 371.301 217.008 371.301 215.465 c 371.301
 213.926 370.051 212.672 368.508 212.672 c 366.965 212.672 365.715 213.926
 365.715 215.465 c 365.715 217.008 366.965 218.258 368.508 218.258 c h
368.508 218.258 m f
361.961 224.805 m 361.961 226.348 360.711 227.598 359.168 227.598 c 357.625
 227.598 356.375 226.348 356.375 224.805 c 356.375 223.262 357.625 222.012
 359.168 222.012 c 360.711 222.012 361.961 223.262 361.961 224.805 c h
361.961 224.805 m f
368.508 236.258 m 370.051 236.258 371.301 235.008 371.301 233.465 c 371.301
 231.926 370.051 230.676 368.508 230.676 c 366.965 230.676 365.715 231.926
 365.715 233.465 c 365.715 235.008 366.965 236.258 368.508 236.258 c h
368.508 236.258 m f
361.961 242.805 m 361.961 244.348 360.711 245.598 359.168 245.598 c 357.625
 245.598 356.375 244.348 356.375 242.805 c 356.375 241.266 357.625 240.016
 359.168 240.016 c 360.711 240.016 361.961 241.266 361.961 242.805 c h
361.961 242.805 m f
368.508 254.262 m 370.051 254.262 371.301 253.008 371.301 251.469 c 371.301
 249.926 370.051 248.676 368.508 248.676 c 366.965 248.676 365.715 249.926
 365.715 251.469 c 365.715 253.008 366.965 254.262 368.508 254.262 c h
368.508 254.262 m f
359.168 263.598 m 360.711 263.598 361.961 262.348 361.961 260.805 c 361.961
 259.266 360.711 258.016 359.168 258.016 c 357.629 258.016 356.375 259.266
 356.375 260.805 c 356.375 262.348 357.629 263.598 359.168 263.598 c h
359.168 263.598 m f
368.508 272.262 m 370.051 272.262 371.301 271.012 371.301 269.469 c 371.301
 267.926 370.051 266.676 368.508 266.676 c 366.965 266.676 365.715 267.926
 365.715 269.469 c 365.715 271.012 366.965 272.262 368.508 272.262 c h
368.508 272.262 m f
361.961 278.809 m 361.961 280.352 360.711 281.602 359.168 281.602 c 357.625
 281.602 356.375 280.352 356.375 278.809 c 356.375 277.266 357.625 276.016
 359.168 276.016 c 360.711 276.016 361.961 277.266 361.961 278.809 c h
361.961 278.809 m f
368.508 290.262 m 370.051 290.262 371.301 289.012 371.301 287.469 c 371.301
 285.93 370.051 284.68 368.508 284.68 c 366.965 284.68 365.715 285.93 365.715
 287.469 c 365.715 289.012 366.965 290.262 368.508 290.262 c h
368.508 290.262 m f
361.961 296.809 m 361.961 298.352 360.711 299.602 359.168 299.602 c 357.625
 299.602 356.375 298.352 356.375 296.809 c 356.375 295.266 357.625 294.016
 359.168 294.016 c 360.711 294.016 361.961 295.266 361.961 296.809 c h
361.961 296.809 m f
368.508 308.262 m 370.051 308.262 371.301 307.012 371.301 305.469 c 371.301
 303.93 370.051 302.68 368.508 302.68 c 366.965 302.68 365.715 303.93 365.715
 305.469 c 365.715 307.012 366.965 308.262 368.508 308.262 c h
368.508 308.262 m f
361.961 314.809 m 361.961 316.352 360.711 317.602 359.168 317.602 c 357.625
 317.602 356.375 316.352 356.375 314.809 c 356.375 313.27 357.625 312.02
 359.168 312.02 c 360.711 312.02 361.961 313.27 361.961 314.809 c h
361.961 314.809 m f
368.508 326.266 m 370.051 326.266 371.301 325.016 371.301 323.473 c 371.301
 321.93 370.051 320.68 368.508 320.68 c 366.965 320.68 365.715 321.93 365.715
 323.473 c 365.715 325.016 366.965 326.266 368.508 326.266 c h
368.508 326.266 m f
361.961 332.812 m 361.961 334.352 360.711 335.602 359.168 335.602 c 357.625
 335.602 356.375 334.352 356.375 332.812 c 356.375 331.27 357.625 330.02
 359.168 330.02 c 360.711 330.02 361.961 331.27 361.961 332.812 c h
361.961 332.812 m f
368.508 344.266 m 370.051 344.266 371.301 343.016 371.301 341.473 c 371.301
 339.93 370.051 338.68 368.508 338.68 c 366.965 338.68 365.715 339.93 365.715
 341.473 c 365.715 343.016 366.965 344.266 368.508 344.266 c h
368.508 344.266 m f
361.961 350.812 m 361.961 352.355 360.711 353.605 359.168 353.605 c 357.625
 353.605 356.375 352.355 356.375 350.812 c 356.375 349.27 357.625 348.02
 359.168 348.02 c 360.711 348.02 361.961 349.27 361.961 350.812 c h
361.961 350.812 m f
368.508 362.266 m 370.051 362.266 371.301 361.016 371.301 359.473 c 371.301
 357.934 370.051 356.684 368.508 356.684 c 366.965 356.684 365.715 357.934
 365.715 359.473 c 365.715 361.016 366.965 362.266 368.508 362.266 c h
368.508 362.266 m f
361.961 368.812 m 361.961 370.355 360.711 371.605 359.168 371.605 c 357.625
 371.605 356.375 370.355 356.375 368.812 c 356.375 367.27 357.625 366.02
 359.168 366.02 c 360.711 366.02 361.961 367.27 361.961 368.812 c h
361.961 368.812 m f
350.508 110.25 m 352.051 110.25 353.301 109 353.301 107.461 c 353.301 105.918
 352.051 104.668 350.508 104.668 c 348.965 104.668 347.715 105.918 347.715
 107.461 c 347.715 109 348.965 110.25 350.508 110.25 c h
350.508 110.25 m f
350.508 128.254 m 352.051 128.254 353.301 127.004 353.301 125.461 c 353.301
 123.918 352.051 122.668 350.508 122.668 c 348.965 122.668 347.715 123.918
 347.715 125.461 c 347.715 127.004 348.965 128.254 350.508 128.254 c h
350.508 128.254 m f
350.508 146.254 m 352.051 146.254 353.301 145.004 353.301 143.461 c 353.301
 141.922 352.051 140.668 350.508 140.668 c 348.965 140.668 347.715 141.922
 347.715 143.461 c 347.715 145.004 348.965 146.254 350.508 146.254 c h
350.508 146.254 m f
350.508 164.254 m 352.051 164.254 353.301 163.004 353.301 161.461 c 353.301
 159.922 352.051 158.672 350.508 158.672 c 348.965 158.672 347.715 159.922
 347.715 161.461 c 347.715 163.004 348.965 164.254 350.508 164.254 c h
350.508 164.254 m f
350.508 182.258 m 352.051 182.258 353.301 181.004 353.301 179.465 c 353.301
 177.922 352.051 176.672 350.508 176.672 c 348.965 176.672 347.715 177.922
 347.715 179.465 c 347.715 181.004 348.965 182.258 350.508 182.258 c h
350.508 182.258 m f
350.508 200.258 m 352.051 200.258 353.301 199.008 353.301 197.465 c 353.301
 195.922 352.051 194.672 350.508 194.672 c 348.965 194.672 347.715 195.922
 347.715 197.465 c 347.715 199.008 348.965 200.258 350.508 200.258 c h
350.508 200.258 m f
350.508 218.258 m 352.051 218.258 353.301 217.008 353.301 215.465 c 353.301
 213.926 352.051 212.672 350.508 212.672 c 348.965 212.672 347.715 213.926
 347.715 215.465 c 347.715 217.008 348.965 218.258 350.508 218.258 c h
350.508 218.258 m f
350.508 236.258 m 352.051 236.258 353.301 235.008 353.301 233.465 c 353.301
 231.926 352.051 230.676 350.508 230.676 c 348.965 230.676 347.715 231.926
 347.715 233.465 c 347.715 235.008 348.965 236.258 350.508 236.258 c h
350.508 236.258 m f
350.508 254.262 m 352.051 254.262 353.301 253.008 353.301 251.469 c 353.301
 249.926 352.051 248.676 350.508 248.676 c 348.965 248.676 347.715 249.926
 347.715 251.469 c 347.715 253.008 348.965 254.262 350.508 254.262 c h
350.508 254.262 m f
350.508 272.262 m 352.051 272.262 353.301 271.012 353.301 269.469 c 353.301
 267.926 352.051 266.676 350.508 266.676 c 348.965 266.676 347.715 267.926
 347.715 269.469 c 347.715 271.012 348.965 272.262 350.508 272.262 c h
350.508 272.262 m f
350.508 290.262 m 352.051 290.262 353.301 289.012 353.301 287.469 c 353.301
 285.93 352.051 284.68 350.508 284.68 c 348.965 284.68 347.715 285.93 347.715
 287.469 c 347.715 289.012 348.965 290.262 350.508 290.262 c h
350.508 290.262 m f
350.508 308.262 m 352.051 308.262 353.301 307.012 353.301 305.469 c 353.301
 303.93 352.051 302.68 350.508 302.68 c 348.965 302.68 347.715 303.93 347.715
 305.469 c 347.715 307.012 348.965 308.262 350.508 308.262 c h
350.508 308.262 m f
350.508 326.266 m 352.051 326.266 353.301 325.016 353.301 323.473 c 353.301
 321.93 352.051 320.68 350.508 320.68 c 348.965 320.68 347.715 321.93 347.715
 323.473 c 347.715 325.016 348.965 326.266 350.508 326.266 c h
350.508 326.266 m f
350.508 344.266 m 352.051 344.266 353.301 343.016 353.301 341.473 c 353.301
 339.93 352.051 338.68 350.508 338.68 c 348.965 338.68 347.715 339.93 347.715
 341.473 c 347.715 343.016 348.965 344.266 350.508 344.266 c h
350.508 344.266 m f
341.168 348.02 m 339.625 348.02 338.375 349.27 338.375 350.812 c 338.375
 352.355 339.625 353.605 341.168 353.605 c 342.711 353.605 343.961 352.355
 343.961 350.812 c 343.961 349.27 342.711 348.02 341.168 348.02 c h
341.168 348.02 m f
350.508 362.266 m 352.051 362.266 353.301 361.016 353.301 359.473 c 353.301
 357.934 352.051 356.684 350.508 356.684 c 348.965 356.684 347.715 357.934
 347.715 359.473 c 347.715 361.016 348.965 362.266 350.508 362.266 c h
350.508 362.266 m f
341.168 366.02 m 339.625 366.02 338.375 367.27 338.375 368.812 c 338.375
 370.355 339.625 371.605 341.168 371.605 c 342.711 371.605 343.961 370.355
 343.961 368.812 c 343.961 367.27 342.711 366.02 341.168 366.02 c h
341.168 366.02 m f
353.301 377.477 m 353.301 375.934 352.051 374.684 350.508 374.684 c 348.965
 374.684 347.715 375.934 347.715 377.477 c 347.715 377.965 347.852 378.422
 348.074 378.824 c 352.938 378.824 l 353.164 378.422 353.301 377.965 353.301
 377.477 c h
353.301 377.477 m f
323.168 348.02 m 321.625 348.02 320.375 349.27 320.375 350.812 c 320.375
 352.355 321.625 353.605 323.168 353.605 c 324.711 353.605 325.961 352.355
 325.961 350.812 c 325.961 349.27 324.711 348.02 323.168 348.02 c h
323.168 348.02 m f
329.715 359.473 m 329.715 361.016 330.965 362.266 332.508 362.266 c 334.047
 362.266 335.297 361.016 335.297 359.473 c 335.297 357.934 334.047 356.684
 332.508 356.684 c 330.965 356.684 329.715 357.93 329.715 359.473 c h
329.715 359.473 m f
323.168 366.02 m 321.625 366.02 320.375 367.27 320.375 368.812 c 320.375
 370.355 321.625 371.605 323.168 371.605 c 324.711 371.605 325.961 370.355
 325.961 368.812 c 325.961 367.27 324.711 366.02 323.168 366.02 c h
323.168 366.02 m f
335.297 377.477 m 335.297 375.934 334.047 374.684 332.508 374.684 c 330.965
 374.684 329.715 375.934 329.715 377.477 c 329.715 377.965 329.852 378.422
 330.074 378.824 c 334.938 378.824 l 335.16 378.422 335.297 377.965 335.297
 377.477 c h
335.297 377.477 m f
305.164 348.02 m 303.625 348.02 302.375 349.27 302.375 350.812 c 302.375
 352.355 303.625 353.605 305.164 353.605 c 306.707 353.605 307.957 352.355
 307.957 350.812 c 307.957 349.27 306.707 348.02 305.164 348.02 c h
305.164 348.02 m f
311.715 359.473 m 311.715 361.016 312.965 362.266 314.504 362.266 c 316.047
 362.266 317.297 361.016 317.297 359.473 c 317.297 357.934 316.047 356.684
 314.504 356.684 c 312.965 356.684 311.715 357.93 311.715 359.473 c h
311.715 359.473 m f
305.164 366.02 m 303.625 366.02 302.375 367.27 302.375 368.812 c 302.375
 370.355 303.625 371.605 305.164 371.605 c 306.707 371.605 307.957 370.355
 307.957 368.812 c 307.957 367.27 306.707 366.02 305.164 366.02 c h
305.164 366.02 m f
317.297 377.477 m 317.297 375.934 316.047 374.684 314.504 374.684 c 312.965
 374.684 311.715 375.934 311.715 377.477 c 311.715 377.965 311.852 378.422
 312.074 378.824 c 316.938 378.824 l 317.16 378.422 317.297 377.965 317.297
 377.477 c h
317.297 377.477 m f
287.164 348.02 m 285.625 348.02 284.371 349.27 284.371 350.812 c 284.371
 352.355 285.625 353.605 287.164 353.605 c 288.707 353.605 289.957 352.355
 289.957 350.812 c 289.957 349.27 288.707 348.02 287.164 348.02 c h
287.164 348.02 m f
293.711 359.473 m 293.711 361.016 294.961 362.266 296.504 362.266 c 298.047
 362.266 299.297 361.016 299.297 359.473 c 299.297 357.934 298.047 356.684
 296.504 356.684 c 294.961 356.684 293.711 357.93 293.711 359.473 c h
293.711 359.473 m f
287.164 366.02 m 285.625 366.02 284.371 367.27 284.371 368.812 c 284.371
 370.355 285.625 371.605 287.164 371.605 c 288.707 371.605 289.957 370.355
 289.957 368.812 c 289.957 367.27 288.707 366.02 287.164 366.02 c h
287.164 366.02 m f
299.297 377.477 m 299.297 375.934 298.047 374.684 296.504 374.684 c 294.961
 374.684 293.711 375.934 293.711 377.477 c 293.711 377.965 293.852 378.422
 294.074 378.824 c 298.934 378.824 l 299.16 378.422 299.297 377.965 299.297
 377.477 c h
299.297 377.477 m f
269.164 348.02 m 267.621 348.02 266.371 349.27 266.371 350.812 c 266.371
 352.355 267.621 353.605 269.164 353.605 c 270.707 353.605 271.957 352.355
 271.957 350.812 c 271.957 349.27 270.707 348.02 269.164 348.02 c h
269.164 348.02 m f
275.711 359.473 m 275.711 361.016 276.961 362.266 278.504 362.266 c 280.047
 362.266 281.297 361.016 281.297 359.473 c 281.297 357.934 280.047 356.684
 278.504 356.684 c 276.961 356.684 275.711 357.93 275.711 359.473 c h
275.711 359.473 m f
269.164 366.02 m 267.621 366.02 266.371 367.27 266.371 368.812 c 266.371
 370.355 267.621 371.605 269.164 371.605 c 270.707 371.605 271.957 370.355
 271.957 368.812 c 271.957 367.27 270.707 366.02 269.164 366.02 c h
269.164 366.02 m f
281.297 377.477 m 281.297 375.934 280.047 374.684 278.504 374.684 c 276.961
 374.684 275.711 375.934 275.711 377.477 c 275.711 377.965 275.848 378.422
 276.07 378.824 c 280.934 378.824 l 281.156 378.422 281.297 377.965 281.297
 377.477 c h
281.297 377.477 m f
251.164 348.02 m 249.621 348.02 248.371 349.27 248.371 350.812 c 248.371
 352.355 249.621 353.605 251.164 353.605 c 252.703 353.605 253.957 352.355
 253.957 350.812 c 253.957 349.27 252.703 348.02 251.164 348.02 c h
251.164 348.02 m f
257.711 359.473 m 257.711 361.016 258.961 362.266 260.504 362.266 c 262.043
 362.266 263.293 361.016 263.293 359.473 c 263.293 357.934 262.043 356.684
 260.504 356.684 c 258.961 356.684 257.711 357.93 257.711 359.473 c h
257.711 359.473 m f
251.164 366.02 m 249.621 366.02 248.371 367.27 248.371 368.812 c 248.371
 370.355 249.621 371.605 251.164 371.605 c 252.703 371.605 253.957 370.355
 253.957 368.812 c 253.957 367.27 252.703 366.02 251.164 366.02 c h
251.164 366.02 m f
263.293 377.477 m 263.293 375.934 262.043 374.684 260.504 374.684 c 258.961
 374.684 257.711 375.934 257.711 377.477 c 257.711 377.965 257.848 378.422
 258.07 378.824 c 262.934 378.824 l 263.156 378.422 263.293 377.965 263.293
 377.477 c h
263.293 377.477 m f
235.953 350.812 m 235.953 352.355 234.703 353.605 233.164 353.605 c 231.621
 353.605 230.371 352.355 230.371 350.812 c 230.371 349.27 231.621 348.02
 233.164 348.02 c 234.703 348.02 235.953 349.27 235.953 350.812 c h
235.953 350.812 m f
239.711 359.473 m 239.711 361.016 240.961 362.266 242.5 362.266 c 244.043
 362.266 245.293 361.016 245.293 359.473 c 245.293 357.934 244.043 356.684
 242.5 356.684 c 240.961 356.684 239.711 357.93 239.711 359.473 c h
239.711 359.473 m f
235.953 368.812 m 235.953 370.355 234.703 371.605 233.164 371.605 c 231.621
 371.605 230.371 370.355 230.371 368.812 c 230.371 367.27 231.621 366.02
 233.164 366.02 c 234.703 366.02 235.953 367.27 235.953 368.812 c h
235.953 368.812 m f
245.293 377.477 m 245.293 375.934 244.043 374.684 242.5 374.684 c 240.961
 374.684 239.711 375.934 239.711 377.477 c 239.711 377.965 239.848 378.422
 240.07 378.824 c 244.934 378.824 l 245.156 378.422 245.293 377.965 245.293
 377.477 c h
245.293 377.477 m f
215.16 348.02 m 213.617 348.02 212.367 349.27 212.367 350.812 c 212.367
 352.355 213.617 353.605 215.16 353.605 c 216.703 353.605 217.953 352.355
 217.953 350.812 c 217.953 349.27 216.703 348.02 215.16 348.02 c h
215.16 348.02 m f
221.707 359.473 m 221.707 361.016 222.957 362.266 224.5 362.266 c 226.043
 362.266 227.293 361.016 227.293 359.473 c 227.293 357.934 226.043 356.684
 224.5 356.684 c 222.957 356.684 221.707 357.93 221.707 359.473 c h
221.707 359.473 m f
215.16 366.02 m 213.617 366.02 212.367 367.27 212.367 368.812 c 212.367
 370.355 213.617 371.605 215.16 371.605 c 216.703 371.605 217.953 370.355
 217.953 368.812 c 217.953 367.27 216.703 366.02 215.16 366.02 c h
215.16 366.02 m f
227.293 377.477 m 227.293 375.934 226.043 374.684 224.5 374.684 c 222.957
 374.684 221.707 375.934 221.707 377.477 c 221.707 377.965 221.848 378.422
 222.07 378.824 c 226.934 378.824 l 227.156 378.422 227.293 377.965 227.293
 377.477 c h
227.293 377.477 m f
197.16 348.02 m 195.617 348.02 194.367 349.27 194.367 350.812 c 194.367
 352.355 195.617 353.605 197.16 353.605 c 198.703 353.605 199.953 352.355
 199.953 350.812 c 199.953 349.27 198.703 348.02 197.16 348.02 c h
197.16 348.02 m f
203.707 359.473 m 203.707 361.016 204.957 362.266 206.5 362.266 c 208.039
 362.266 209.293 361.016 209.293 359.473 c 209.293 357.934 208.039 356.684
 206.5 356.684 c 204.957 356.684 203.707 357.93 203.707 359.473 c h
203.707 359.473 m f
197.16 366.02 m 195.617 366.02 194.367 367.27 194.367 368.812 c 194.367
 370.355 195.617 371.605 197.16 371.605 c 198.703 371.605 199.953 370.355
 199.953 368.812 c 199.953 367.27 198.703 366.02 197.16 366.02 c h
197.16 366.02 m f
209.293 377.477 m 209.293 375.934 208.039 374.684 206.5 374.684 c 204.957
 374.684 203.707 375.934 203.707 377.477 c 203.707 377.965 203.844 378.422
 204.066 378.824 c 208.93 378.824 l 209.152 378.422 209.293 377.965 209.293
 377.477 c h
209.293 377.477 m f
179.16 348.02 m 177.617 348.02 176.367 349.27 176.367 350.812 c 176.367
 352.355 177.617 353.605 179.16 353.605 c 180.703 353.605 181.953 352.355
 181.953 350.812 c 181.953 349.27 180.703 348.02 179.16 348.02 c h
179.16 348.02 m f
185.707 359.473 m 185.707 361.016 186.957 362.266 188.5 362.266 c 190.039
 362.266 191.289 361.016 191.289 359.473 c 191.289 357.934 190.039 356.684
 188.5 356.684 c 186.957 356.684 185.707 357.93 185.707 359.473 c h
185.707 359.473 m f
179.16 366.02 m 177.617 366.02 176.367 367.27 176.367 368.812 c 176.367
 370.355 177.617 371.605 179.16 371.605 c 180.703 371.605 181.953 370.355
 181.953 368.812 c 181.949 367.27 180.703 366.02 179.16 366.02 c h
179.16 366.02 m f
191.289 377.477 m 191.289 375.934 190.039 374.684 188.5 374.684 c 186.957
 374.684 185.707 375.934 185.707 377.477 c 185.707 377.965 185.844 378.422
 186.066 378.824 c 190.93 378.824 l 191.152 378.422 191.289 377.965 191.289
 377.477 c h
191.289 377.477 m f
161.156 348.02 m 159.617 348.02 158.367 349.27 158.367 350.812 c 158.367
 352.355 159.617 353.605 161.156 353.605 c 162.699 353.605 163.949 352.355
 163.949 350.812 c 163.949 349.27 162.699 348.02 161.156 348.02 c h
161.156 348.02 m f
167.707 359.473 m 167.707 361.016 168.957 362.266 170.496 362.266 c 172.039
 362.266 173.289 361.016 173.289 359.473 c 173.289 357.934 172.039 356.684
 170.496 356.684 c 168.957 356.684 167.707 357.93 167.707 359.473 c h
167.707 359.473 m f
161.156 366.02 m 159.617 366.02 158.367 367.27 158.367 368.812 c 158.367
 370.355 159.617 371.605 161.156 371.605 c 162.699 371.605 163.949 370.355
 163.949 368.812 c 163.949 367.27 162.699 366.02 161.156 366.02 c h
161.156 366.02 m f
173.289 377.477 m 173.289 375.934 172.039 374.684 170.496 374.684 c 168.957
 374.684 167.707 375.934 167.707 377.477 c 167.707 377.965 167.844 378.422
 168.066 378.824 c 172.93 378.824 l 173.152 378.422 173.289 377.965 173.289
 377.477 c h
173.289 377.477 m f
143.156 348.02 m 141.613 348.02 140.363 349.27 140.363 350.812 c 140.363
 352.355 141.613 353.605 143.156 353.605 c 144.699 353.605 145.949 352.355
 145.949 350.812 c 145.949 349.27 144.699 348.02 143.156 348.02 c h
143.156 348.02 m f
149.703 359.473 m 149.703 361.016 150.953 362.266 152.496 362.266 c 154.039
 362.266 155.289 361.016 155.289 359.473 c 155.289 357.934 154.039 356.684
 152.496 356.684 c 150.953 356.684 149.703 357.93 149.703 359.473 c h
149.703 359.473 m f
143.156 366.02 m 141.613 366.02 140.363 367.27 140.363 368.812 c 140.363
 370.355 141.613 371.605 143.156 371.605 c 144.699 371.605 145.949 370.355
 145.949 368.812 c 145.949 367.27 144.699 366.02 143.156 366.02 c h
143.156 366.02 m f
155.289 377.477 m 155.289 375.934 154.039 374.684 152.496 374.684 c 150.953
 374.684 149.703 375.934 149.703 377.477 c 149.703 377.965 149.84 378.422
 150.066 378.824 c 154.926 378.824 l 155.148 378.422 155.289 377.965 155.289
 377.477 c h
155.289 377.477 m f
127.949 350.812 m 127.949 352.355 126.699 353.605 125.156 353.605 c 123.613
 353.605 122.363 352.355 122.363 350.812 c 122.363 349.27 123.613 348.02
 125.156 348.02 c 126.699 348.02 127.949 349.27 127.949 350.812 c h
127.949 350.812 m f
131.703 359.473 m 131.703 361.016 132.953 362.266 134.496 362.266 c 136.039
 362.266 137.289 361.016 137.289 359.473 c 137.289 357.934 136.039 356.684
 134.496 356.684 c 132.953 356.684 131.703 357.93 131.703 359.473 c h
131.703 359.473 m f
127.949 368.812 m 127.949 370.355 126.699 371.605 125.156 371.605 c 123.613
 371.605 122.363 370.355 122.363 368.812 c 122.363 367.27 123.613 366.02
 125.156 366.02 c 126.699 366.02 127.949 367.27 127.949 368.812 c h
127.949 368.812 m f
137.289 377.477 m 137.289 375.934 136.039 374.684 134.496 374.684 c 132.953
 374.684 131.703 375.934 131.703 377.477 c 131.703 377.965 131.84 378.422
 132.066 378.824 c 136.926 378.824 l 137.148 378.422 137.289 377.965 137.289
 377.477 c h
137.289 377.477 m f
107.156 348.02 m 105.613 348.02 104.363 349.27 104.363 350.812 c 104.363
 352.355 105.613 353.605 107.156 353.605 c 108.695 353.605 109.945 352.355
 109.945 350.812 c 109.945 349.27 108.695 348.02 107.156 348.02 c h
107.156 348.02 m f
113.703 359.473 m 113.703 361.016 114.953 362.266 116.492 362.266 c 118.035
 362.266 119.285 361.016 119.285 359.473 c 119.285 357.934 118.035 356.684
 116.492 356.684 c 114.953 356.684 113.703 357.93 113.703 359.473 c h
113.703 359.473 m f
107.156 366.02 m 105.613 366.02 104.363 367.27 104.363 368.812 c 104.363
 370.355 105.613 371.605 107.156 371.605 c 108.695 371.605 109.945 370.355
 109.945 368.812 c 109.945 367.27 108.695 366.02 107.156 366.02 c h
107.156 366.02 m f
118.926 378.824 m 119.148 378.422 119.285 377.965 119.285 377.477 c 119.285
 375.934 118.035 374.684 116.496 374.684 c 114.953 374.684 113.703 375.934
 113.703 377.477 c 113.703 377.84 113.777 378.184 113.902 378.504 c 114.941
 378.711 116.016 378.824 117.113 378.824 c h
118.926 378.824 m f
0.192157 0.215686 0.239216 rg
383.113 94.5 m 291.645 3.035 l 291.078 2.465 290.305 2.145 289.5 2.145 
c 117.109 2.145 l 106.41 2.145 97.703 10.852 97.703 21.555 c 97.703 180.672
 l 88.309 163.137 71.41 151.852 52.723 151.852 c 23.652 151.852 0.004 178.875
 0.004 212.059 c -0.16 225.348 3.062 236.789 10.145 248.066 c 15.527 256.633
 68.383 315.059 90.855 339.781 c 92.688 341.797 95.09 343.176 97.703 343.781
 c 97.703 362.445 l 97.703 373.145 106.406 381.852 117.109 381.852 c 364.59
 381.852 l 375.293 381.852 384 373.145 384 362.445 c 384 96.645 l 384 95.84
 383.68 95.07 383.113 94.5 c h
291.852 68.914 m 291.852 11.816 l 374.055 94.016 l 316.957 94.016 l 303.113
 94.016 291.852 82.754 291.852 68.914 c h
15.281 244.84 m 15.281 244.844 l 8.848 234.598 5.918 224.203 6.066 212.098
 c 6.066 182.223 27 157.914 52.723 157.914 c 73.73 157.914 92.246 174.352
 97.746 197.883 c 98.066 199.254 99.289 200.227 100.699 200.227 c 102.105
 200.227 103.328 199.254 103.652 197.883 c 109.152 174.352 127.664 157.914
 148.672 157.914 c 174.398 157.914 195.328 182.223 195.328 212.098 c 195.328
 223.836 192.211 234.121 185.223 245.449 c 182.852 249.293 169.406 266.133
 106.043 335.711 c 104.656 337.234 102.758 338.074 100.699 338.074 c 100.695
 338.074 100.695 338.074 100.695 338.074 c 98.633 338.074 96.73 337.23 95.344
 335.707 c 48.766 284.465 18.836 250.5 15.281 244.84 c h
364.59 375.793 m 117.109 375.793 l 109.754 375.793 103.766 369.805 103.766
 362.445 c 103.766 343.762 l 106.344 343.148 108.711 341.781 110.523 339.793
 c 141.398 305.891 178.742 264.371 188.547 251.258 c 316.832 251.258 l 318.508
 251.258 319.867 249.902 319.867 248.227 c 319.867 246.555 318.508 245.195
 316.832 245.195 c 192.398 245.195 l 198.59 234.172 201.391 223.816 201.391
 212.098 c 201.391 206.168 200.625 200.445 199.223 195.031 c 316.836 195.031
 l 318.508 195.031 319.867 193.672 319.867 192 c 319.867 190.324 318.508
 188.969 316.836 188.969 c 197.344 188.969 l 189.391 167.195 170.574 151.852
 148.672 151.852 c 130.035 151.852 113.176 163.078 103.766 180.539 c 103.766
 21.555 l 103.766 14.195 109.754 8.207 117.109 8.207 c 285.789 8.207 l 285.789
 68.914 l 285.789 71.535 286.117 74.082 286.73 76.516 c 164.867 76.516 l
 163.195 76.516 161.836 77.871 161.836 79.547 c 161.836 81.219 163.195 82.578
 164.867 82.578 c 288.953 82.578 l 294.023 92.934 304.668 100.078 316.957
 100.078 c 377.938 100.078 l 377.938 362.445 l 377.938 369.805 371.949 375.793
 364.59 375.793 c h
364.59 375.793 m f
316.832 132.742 m 164.867 132.742 l 163.195 132.742 161.836 134.098 161.836
 135.773 c 161.836 137.445 163.195 138.805 164.867 138.805 c 316.832 138.805
 l 318.508 138.805 319.867 137.445 319.867 135.773 c 319.867 134.098 318.508
 132.742 316.832 132.742 c h
316.832 132.742 m f
316.832 301.422 m 164.867 301.422 l 163.195 301.422 161.836 302.781 161.836
 304.453 c 161.836 306.129 163.195 307.488 164.867 307.488 c 316.832 307.488
 l 318.508 307.488 319.867 306.129 319.867 304.453 c 319.867 302.781 318.508
 301.422 316.832 301.422 c h
316.832 301.422 m f
Q Q
showpage
%%Trailer
end
%%EOF
