%!PS-Adobe-3.0 EPSF-3.0
%%Creator: cairo 1.16.0 (https://cairographics.org)
%%CreationDate: Fri Feb 12 12:13:05 2021
%%Pages: 1
%%DocumentData: Clean7Bit
%%LanguageLevel: 2
%%BoundingBox: 50 0 334 384
%%EndComments
%%BeginProlog
50 dict begin
/q { gsave } bind def
/Q { grestore } bind def
/cm { 6 array astore concat } bind def
/w { setlinewidth } bind def
/J { setlinecap } bind def
/j { setlinejoin } bind def
/M { setmiterlimit } bind def
/d { setdash } bind def
/m { moveto } bind def
/l { lineto } bind def
/c { curveto } bind def
/h { closepath } bind def
/re { exch dup neg 3 1 roll 5 3 roll moveto 0 rlineto
      0 exch rlineto 0 rlineto closepath } bind def
/S { stroke } bind def
/f { fill } bind def
/f* { eofill } bind def
/n { newpath } bind def
/W { clip } bind def
/W* { eoclip } bind def
/BT { } bind def
/ET { } bind def
/BDC { mark 3 1 roll /BDC pdfmark } bind def
/EMC { mark /EMC pdfmark } bind def
/cairo_store_point { /cairo_point_y exch def /cairo_point_x exch def } def
/Tj { show currentpoint cairo_store_point } bind def
/TJ {
  {
    dup
    type /stringtype eq
    { show } { -0.001 mul 0 cairo_font_matrix dtransform rmoveto } ifelse
  } forall
  currentpoint cairo_store_point
} bind def
/cairo_selectfont { cairo_font_matrix aload pop pop pop 0 0 6 array astore
    cairo_font exch selectfont cairo_point_x cairo_point_y moveto } bind def
/Tf { pop /cairo_font exch def /cairo_font_matrix where
      { pop cairo_selectfont } if } bind def
/Td { matrix translate cairo_font_matrix matrix concatmatrix dup
      /cairo_font_matrix exch def dup 4 get exch 5 get cairo_store_point
      /cairo_font where { pop cairo_selectfont } if } bind def
/Tm { 2 copy 8 2 roll 6 array astore /cairo_font_matrix exch def
      cairo_store_point /cairo_font where { pop cairo_selectfont } if } bind def
/g { setgray } bind def
/rg { setrgbcolor } bind def
/d1 { setcachedevice } bind def
/cairo_data_source {
  CairoDataIndex CairoData length lt
    { CairoData CairoDataIndex get /CairoDataIndex CairoDataIndex 1 add def }
    { () } ifelse
} def
/cairo_flush_ascii85_file { cairo_ascii85_file status { cairo_ascii85_file flushfile } if } def
/cairo_image { image cairo_flush_ascii85_file } def
/cairo_imagemask { imagemask cairo_flush_ascii85_file } def
%%EndProlog
%%BeginSetup
%%EndSetup
%%Page: 1 1
%%BeginPageSetup
%%PageBoundingBox: 50 0 334 384
%%EndPageSetup
q 50 0 284 384 rectclip
1 0 0 -1 0 384 cm q
0.913725 0.760784 0.470588 rg
321.188 98.633 m 320.914 90.637 314.148 84.293 305.895 84.293 c 262.613
 84.293 l 262.613 29.855 l 253.699 20.938 244.785 12.023 235.867 3.109 c
 148.125 3.109 l 139.211 12.023 130.297 20.938 121.379 29.855 c 121.379 
84.293 l 78.199 84.293 l 69.945 84.293 63.18 90.637 62.906 98.629 c 53.668
 365.562 l 53.379 373.945 60.309 380.895 68.961 380.895 c 315.039 380.895
 l 323.691 380.895 330.621 373.949 330.332 365.566 c h
153.336 47.957 m 158.219 43.078 163.098 38.199 167.98 33.316 c 216.016 
33.316 l 230.656 47.957 l 230.656 84.293 l 153.336 84.293 l h
153.336 47.957 m f
0.976471 0.984314 0.988235 rg
325.352 282.641 m 324.039 282.641 322.977 283.703 322.977 285.012 c 322.977
 286.324 324.039 287.387 325.352 287.387 c 326.406 287.387 327.289 286.695
 327.598 285.746 c 327.543 284.098 l 327.184 283.242 326.336 282.641 325.352
 282.641 c h
325.352 282.641 m f
325.352 297.945 m 324.039 297.945 322.977 299.008 322.977 300.32 c 322.977
 301.633 324.039 302.695 325.352 302.695 c 326.66 302.695 327.727 301.633
 327.727 300.32 c 327.727 299.008 326.664 297.945 325.352 297.945 c h
325.352 297.945 m f
325.352 313.254 m 324.039 313.254 322.977 314.316 322.977 315.625 c 322.977
 316.938 324.039 318 325.352 318 c 326.66 318 327.727 316.938 327.727 315.625
 c 327.727 314.316 326.664 313.254 325.352 313.254 c h
325.352 313.254 m f
325.352 328.559 m 324.039 328.559 322.977 329.621 322.977 330.934 c 322.977
 332.242 324.039 333.309 325.352 333.309 c 326.66 333.309 327.727 332.242
 327.727 330.934 c 327.727 329.621 326.664 328.559 325.352 328.559 c h
325.352 328.559 m f
325.352 343.867 m 324.039 343.867 322.977 344.93 322.977 346.238 c 322.977
 347.551 324.039 348.613 325.352 348.613 c 326.66 348.613 327.727 347.551
 327.727 346.238 c 327.727 344.93 326.664 343.867 325.352 343.867 c h
325.352 343.867 m f
325.352 359.172 m 324.039 359.172 322.977 360.234 322.977 361.547 c 322.977
 362.859 324.039 363.922 325.352 363.922 c 326.66 363.922 327.727 362.859
 327.727 361.547 c 327.727 360.234 326.664 359.172 325.352 359.172 c h
325.352 359.172 m f
317.984 91.02 m 316.676 91.02 315.609 92.082 315.609 93.391 c 315.609 94.703
 316.676 95.766 317.984 95.766 c 319.07 95.766 319.977 95.035 320.258 94.043
 c 319.875 93.023 319.379 92.066 318.789 91.168 c 318.535 91.078 318.27 
91.02 317.984 91.02 c h
317.984 91.02 m f
310.043 98.961 m 308.734 98.961 307.668 100.023 307.668 101.336 c 307.668
 102.645 308.73 103.711 310.043 103.711 c 311.355 103.711 312.418 102.645
 312.418 101.336 c 312.418 100.023 311.355 98.961 310.043 98.961 c h
310.043 98.961 m f
317.984 106.324 m 316.676 106.324 315.609 107.387 315.609 108.699 c 315.609
 110.012 316.676 111.074 317.984 111.074 c 319.297 111.074 320.359 110.012
 320.359 108.699 c 320.359 107.387 319.297 106.324 317.984 106.324 c h
317.984 106.324 m f
310.043 114.266 m 308.734 114.266 307.668 115.328 307.668 116.641 c 307.668
 117.953 308.73 119.016 310.043 119.016 c 311.355 119.016 312.418 117.953
 312.418 116.641 c 312.418 115.328 311.355 114.266 310.043 114.266 c h
310.043 114.266 m f
317.984 121.633 m 316.676 121.633 315.609 122.695 315.609 124.008 c 315.609
 125.316 316.676 126.379 317.984 126.379 c 319.297 126.379 320.359 125.316
 320.359 124.008 c 320.359 122.695 319.297 121.633 317.984 121.633 c h
317.984 121.633 m f
310.043 129.574 m 308.734 129.574 307.668 130.637 307.668 131.949 c 307.668
 133.258 308.73 134.32 310.043 134.32 c 311.355 134.32 312.418 133.258 312.418
 131.949 c 312.418 130.637 311.355 129.574 310.043 129.574 c h
310.043 129.574 m f
317.984 136.938 m 316.676 136.938 315.609 138 315.609 139.312 c 315.609
 140.625 316.676 141.688 317.984 141.688 c 319.297 141.688 320.359 140.625
 320.359 139.312 c 320.359 138 319.297 136.938 317.984 136.938 c h
317.984 136.938 m f
310.043 144.879 m 308.734 144.879 307.668 145.941 307.668 147.254 c 307.668
 148.566 308.73 149.629 310.043 149.629 c 311.355 149.629 312.418 148.566
 312.418 147.254 c 312.418 145.941 311.355 144.879 310.043 144.879 c h
310.043 144.879 m f
317.984 152.246 m 316.676 152.246 315.609 153.309 315.609 154.617 c 315.609
 155.93 316.676 156.992 317.984 156.992 c 319.297 156.992 320.359 155.93
 320.359 154.617 c 320.359 153.309 319.297 152.246 317.984 152.246 c h
317.984 152.246 m f
310.043 160.188 m 308.734 160.188 307.668 161.25 307.668 162.562 c 307.668
 163.871 308.73 164.934 310.043 164.934 c 311.355 164.934 312.418 163.871
 312.418 162.562 c 312.418 161.25 311.355 160.188 310.043 160.188 c h
310.043 160.188 m f
317.984 167.551 m 316.676 167.551 315.609 168.613 315.609 169.926 c 315.609
 171.238 316.676 172.301 317.984 172.301 c 319.297 172.301 320.359 171.238
 320.359 169.926 c 320.359 168.613 319.297 167.551 317.984 167.551 c h
317.984 167.551 m f
310.043 175.492 m 308.734 175.492 307.668 176.555 307.668 177.867 c 307.668
 179.18 308.73 180.242 310.043 180.242 c 311.355 180.242 312.418 179.18 
312.418 177.867 c 312.418 176.555 311.355 175.492 310.043 175.492 c h
310.043 175.492 m f
317.984 182.859 m 316.676 182.859 315.609 183.922 315.609 185.234 c 315.609
 186.543 316.676 187.605 317.984 187.605 c 319.297 187.605 320.359 186.543
 320.359 185.234 c 320.359 183.922 319.297 182.859 317.984 182.859 c h
317.984 182.859 m f
310.043 190.801 m 308.734 190.801 307.668 191.863 307.668 193.172 c 307.668
 194.484 308.73 195.547 310.043 195.547 c 311.355 195.547 312.418 194.484
 312.418 193.172 c 312.418 191.863 311.355 190.801 310.043 190.801 c h
310.043 190.801 m f
317.984 198.164 m 316.676 198.164 315.609 199.227 315.609 200.539 c 315.609
 201.852 316.676 202.914 317.984 202.914 c 319.297 202.914 320.359 201.852
 320.359 200.539 c 320.359 199.227 319.297 198.164 317.984 198.164 c h
317.984 198.164 m f
310.043 206.105 m 308.734 206.105 307.668 207.168 307.668 208.48 c 307.668
 209.793 308.73 210.855 310.043 210.855 c 311.355 210.855 312.418 209.793
 312.418 208.48 c 312.418 207.168 311.355 206.105 310.043 206.105 c h
310.043 206.105 m f
317.984 213.473 m 316.676 213.473 315.609 214.535 315.609 215.844 c 315.609
 217.156 316.676 218.219 317.984 218.219 c 319.297 218.219 320.359 217.156
 320.359 215.844 c 320.359 214.535 319.297 213.473 317.984 213.473 c h
317.984 213.473 m f
310.043 221.414 m 308.734 221.414 307.668 222.477 307.668 223.789 c 307.668
 225.098 308.73 226.16 310.043 226.16 c 311.355 226.16 312.418 225.098 312.418
 223.789 c 312.418 222.477 311.355 221.414 310.043 221.414 c h
310.043 221.414 m f
317.984 228.777 m 316.676 228.777 315.609 229.84 315.609 231.152 c 315.609
 232.465 316.676 233.527 317.984 233.527 c 319.297 233.527 320.359 232.465
 320.359 231.152 c 320.359 229.84 319.297 228.777 317.984 228.777 c h
317.984 228.777 m f
310.043 236.719 m 308.734 236.719 307.668 237.781 307.668 239.094 c 307.668
 240.406 308.73 241.469 310.043 241.469 c 311.355 241.469 312.418 240.406
 312.418 239.094 c 312.418 237.781 311.355 236.719 310.043 236.719 c h
310.043 236.719 m f
317.984 244.086 m 316.676 244.086 315.609 245.148 315.609 246.457 c 315.609
 247.77 316.676 248.832 317.984 248.832 c 319.297 248.832 320.359 247.77
 320.359 246.457 c 320.359 245.148 319.297 244.086 317.984 244.086 c h
317.984 244.086 m f
310.043 252.027 m 308.734 252.027 307.668 253.09 307.668 254.402 c 307.668
 255.711 308.73 256.773 310.043 256.773 c 311.355 256.773 312.418 255.711
 312.418 254.402 c 312.418 253.09 311.355 252.027 310.043 252.027 c h
310.043 252.027 m f
317.984 259.391 m 316.676 259.391 315.609 260.453 315.609 261.766 c 315.609
 263.078 316.676 264.141 317.984 264.141 c 319.297 264.141 320.359 263.078
 320.359 261.766 c 320.359 260.453 319.297 259.391 317.984 259.391 c h
317.984 259.391 m f
310.043 267.332 m 308.734 267.332 307.668 268.395 307.668 269.707 c 307.668
 271.02 308.73 272.082 310.043 272.082 c 311.355 272.082 312.418 271.02 
312.418 269.707 c 312.418 268.395 311.355 267.332 310.043 267.332 c h
310.043 267.332 m f
317.984 274.699 m 316.676 274.699 315.609 275.762 315.609 277.07 c 315.609
 278.383 316.676 279.445 317.984 279.445 c 319.297 279.445 320.359 278.383
 320.359 277.07 c 320.359 275.762 319.297 274.699 317.984 274.699 c h
317.984 274.699 m f
310.043 282.641 m 308.734 282.641 307.668 283.703 307.668 285.012 c 307.668
 286.324 308.73 287.387 310.043 287.387 c 311.355 287.387 312.418 286.324
 312.418 285.012 c 312.418 283.703 311.355 282.641 310.043 282.641 c h
310.043 282.641 m f
317.984 290.004 m 316.676 290.004 315.609 291.066 315.609 292.379 c 315.609
 293.691 316.676 294.754 317.984 294.754 c 319.297 294.754 320.359 293.691
 320.359 292.379 c 320.359 291.066 319.297 290.004 317.984 290.004 c h
317.984 290.004 m f
310.043 297.945 m 308.734 297.945 307.668 299.008 307.668 300.32 c 307.668
 301.633 308.73 302.695 310.043 302.695 c 311.355 302.695 312.418 301.633
 312.418 300.32 c 312.418 299.008 311.355 297.945 310.043 297.945 c h
310.043 297.945 m f
317.984 305.312 m 316.676 305.312 315.609 306.375 315.609 307.684 c 315.609
 308.996 316.676 310.059 317.984 310.059 c 319.297 310.059 320.359 308.996
 320.359 307.684 c 320.359 306.375 319.297 305.312 317.984 305.312 c h
317.984 305.312 m f
310.043 313.254 m 308.734 313.254 307.668 314.316 307.668 315.625 c 307.668
 316.938 308.73 318 310.043 318 c 311.355 318 312.418 316.938 312.418 315.625
 c 312.418 314.316 311.355 313.254 310.043 313.254 c h
310.043 313.254 m f
317.984 320.617 m 316.676 320.617 315.609 321.68 315.609 322.992 c 315.609
 324.301 316.676 325.367 317.984 325.367 c 319.297 325.367 320.359 324.305
 320.359 322.992 c 320.359 321.68 319.297 320.617 317.984 320.617 c h
317.984 320.617 m f
310.043 328.559 m 308.734 328.559 307.668 329.621 307.668 330.934 c 307.668
 332.242 308.73 333.309 310.043 333.309 c 311.355 333.309 312.418 332.242
 312.418 330.934 c 312.418 329.621 311.355 328.559 310.043 328.559 c h
310.043 328.559 m f
317.984 335.926 m 316.676 335.926 315.609 336.988 315.609 338.297 c 315.609
 339.609 316.676 340.672 317.984 340.672 c 319.297 340.672 320.359 339.609
 320.359 338.297 c 320.359 336.988 319.297 335.926 317.984 335.926 c h
317.984 335.926 m f
310.043 343.867 m 308.734 343.867 307.668 344.93 307.668 346.238 c 307.668
 347.551 308.73 348.613 310.043 348.613 c 311.355 348.613 312.418 347.551
 312.418 346.238 c 312.418 344.93 311.355 343.867 310.043 343.867 c h
310.043 343.867 m f
317.984 351.23 m 316.676 351.23 315.609 352.293 315.609 353.605 c 315.609
 354.918 316.676 355.98 317.984 355.98 c 319.297 355.98 320.359 354.918 
320.359 353.605 c 320.359 352.293 319.297 351.23 317.984 351.23 c h
317.984 351.23 m f
310.043 359.172 m 308.734 359.172 307.668 360.234 307.668 361.547 c 307.668
 362.859 308.73 363.922 310.043 363.922 c 311.355 363.922 312.418 362.859
 312.418 361.547 c 312.418 360.234 311.355 359.172 310.043 359.172 c h
310.043 359.172 m f
317.984 371.285 m 319.297 371.285 320.359 370.223 320.359 368.91 c 320.359
 367.602 319.297 366.539 317.984 366.539 c 316.676 366.539 315.609 367.602
 315.609 368.91 c 315.609 370.223 316.676 371.285 317.984 371.285 c h
317.984 371.285 m f
310.043 379.227 m 311.355 379.227 312.418 378.164 312.418 376.852 c 312.418
 375.539 311.355 374.477 310.043 374.477 c 308.734 374.477 307.668 375.539
 307.668 376.852 c 307.672 378.164 308.734 379.227 310.043 379.227 c h
310.043 379.227 m f
292.363 86.027 m 292.363 87.34 293.426 88.402 294.738 88.402 c 296.051 
88.402 297.113 87.34 297.113 86.027 c 297.113 85.34 296.816 84.727 296.352
 84.293 c 293.129 84.293 l 292.66 84.727 292.363 85.34 292.363 86.027 c 
h
292.363 86.027 m f
302.68 91.02 m 301.367 91.02 300.305 92.082 300.305 93.391 c 300.305 94.703
 301.367 95.766 302.68 95.766 c 303.988 95.766 305.055 94.703 305.055 93.391
 c 305.055 92.082 303.992 91.02 302.68 91.02 c h
302.68 91.02 m f
294.738 98.961 m 293.426 98.961 292.363 100.023 292.363 101.336 c 292.363
 102.645 293.426 103.711 294.738 103.711 c 296.051 103.711 297.113 102.645
 297.113 101.336 c 297.113 100.023 296.051 98.961 294.738 98.961 c h
294.738 98.961 m f
302.68 106.324 m 301.367 106.324 300.305 107.387 300.305 108.699 c 300.305
 110.012 301.367 111.074 302.68 111.074 c 303.988 111.074 305.055 110.012
 305.055 108.699 c 305.055 107.387 303.992 106.324 302.68 106.324 c h
302.68 106.324 m f
294.738 114.266 m 293.426 114.266 292.363 115.328 292.363 116.641 c 292.363
 117.953 293.426 119.016 294.738 119.016 c 296.051 119.016 297.113 117.953
 297.113 116.641 c 297.113 115.328 296.051 114.266 294.738 114.266 c h
294.738 114.266 m f
302.68 121.633 m 301.367 121.633 300.305 122.695 300.305 124.008 c 300.305
 125.316 301.367 126.379 302.68 126.379 c 303.988 126.379 305.055 125.316
 305.055 124.008 c 305.055 122.695 303.992 121.633 302.68 121.633 c h
302.68 121.633 m f
294.738 129.574 m 293.426 129.574 292.363 130.637 292.363 131.949 c 292.363
 133.258 293.426 134.32 294.738 134.32 c 296.051 134.32 297.113 133.258 
297.113 131.949 c 297.113 130.637 296.051 129.574 294.738 129.574 c h
294.738 129.574 m f
302.68 136.938 m 301.367 136.938 300.305 138 300.305 139.312 c 300.305 
140.625 301.367 141.688 302.68 141.688 c 303.988 141.688 305.055 140.625
 305.055 139.312 c 305.055 138 303.992 136.938 302.68 136.938 c h
302.68 136.938 m f
294.738 144.879 m 293.426 144.879 292.363 145.941 292.363 147.254 c 292.363
 148.566 293.426 149.629 294.738 149.629 c 296.051 149.629 297.113 148.566
 297.113 147.254 c 297.113 145.941 296.051 144.879 294.738 144.879 c h
294.738 144.879 m f
302.68 152.246 m 301.367 152.246 300.305 153.309 300.305 154.617 c 300.305
 155.93 301.367 156.992 302.68 156.992 c 303.988 156.992 305.055 155.93 
305.055 154.617 c 305.055 153.309 303.992 152.246 302.68 152.246 c h
302.68 152.246 m f
294.738 160.188 m 293.426 160.188 292.363 161.25 292.363 162.562 c 292.363
 163.871 293.426 164.934 294.738 164.934 c 296.051 164.934 297.113 163.871
 297.113 162.562 c 297.113 161.25 296.051 160.188 294.738 160.188 c h
294.738 160.188 m f
302.68 167.551 m 301.367 167.551 300.305 168.613 300.305 169.926 c 300.305
 171.238 301.367 172.301 302.68 172.301 c 303.988 172.301 305.055 171.238
 305.055 169.926 c 305.055 168.613 303.992 167.551 302.68 167.551 c h
302.68 167.551 m f
294.738 175.492 m 293.426 175.492 292.363 176.555 292.363 177.867 c 292.363
 179.18 293.426 180.242 294.738 180.242 c 296.051 180.242 297.113 179.18
 297.113 177.867 c 297.113 176.555 296.051 175.492 294.738 175.492 c h
294.738 175.492 m f
302.68 182.859 m 301.367 182.859 300.305 183.922 300.305 185.234 c 300.305
 186.543 301.367 187.605 302.68 187.605 c 303.988 187.605 305.055 186.543
 305.055 185.234 c 305.055 183.922 303.992 182.859 302.68 182.859 c h
302.68 182.859 m f
294.738 190.801 m 293.426 190.801 292.363 191.863 292.363 193.172 c 292.363
 194.484 293.426 195.547 294.738 195.547 c 296.051 195.547 297.113 194.484
 297.113 193.172 c 297.113 191.863 296.051 190.801 294.738 190.801 c h
294.738 190.801 m f
302.68 198.164 m 301.367 198.164 300.305 199.227 300.305 200.539 c 300.305
 201.852 301.367 202.914 302.68 202.914 c 303.988 202.914 305.055 201.852
 305.055 200.539 c 305.055 199.227 303.992 198.164 302.68 198.164 c h
302.68 198.164 m f
294.738 206.105 m 293.426 206.105 292.363 207.168 292.363 208.48 c 292.363
 209.793 293.426 210.855 294.738 210.855 c 296.051 210.855 297.113 209.793
 297.113 208.48 c 297.113 207.168 296.051 206.105 294.738 206.105 c h
294.738 206.105 m f
302.68 213.473 m 301.367 213.473 300.305 214.535 300.305 215.844 c 300.305
 217.156 301.367 218.219 302.68 218.219 c 303.988 218.219 305.055 217.156
 305.055 215.844 c 305.055 214.535 303.992 213.473 302.68 213.473 c h
302.68 213.473 m f
294.738 221.414 m 293.426 221.414 292.363 222.477 292.363 223.789 c 292.363
 225.098 293.426 226.16 294.738 226.16 c 296.051 226.16 297.113 225.098 
297.113 223.789 c 297.113 222.477 296.051 221.414 294.738 221.414 c h
294.738 221.414 m f
302.68 228.777 m 301.367 228.777 300.305 229.84 300.305 231.152 c 300.305
 232.465 301.367 233.527 302.68 233.527 c 303.988 233.527 305.055 232.465
 305.055 231.152 c 305.055 229.84 303.992 228.777 302.68 228.777 c h
302.68 228.777 m f
294.738 236.719 m 293.426 236.719 292.363 237.781 292.363 239.094 c 292.363
 240.406 293.426 241.469 294.738 241.469 c 296.051 241.469 297.113 240.406
 297.113 239.094 c 297.113 237.781 296.051 236.719 294.738 236.719 c h
294.738 236.719 m f
302.68 244.086 m 301.367 244.086 300.305 245.148 300.305 246.457 c 300.305
 247.77 301.367 248.832 302.68 248.832 c 303.988 248.832 305.055 247.77 
305.055 246.457 c 305.055 245.148 303.992 244.086 302.68 244.086 c h
302.68 244.086 m f
294.738 252.027 m 293.426 252.027 292.363 253.09 292.363 254.402 c 292.363
 255.711 293.426 256.773 294.738 256.773 c 296.051 256.773 297.113 255.711
 297.113 254.402 c 297.113 253.09 296.051 252.027 294.738 252.027 c h
294.738 252.027 m f
302.68 259.391 m 301.367 259.391 300.305 260.453 300.305 261.766 c 300.305
 263.078 301.367 264.141 302.68 264.141 c 303.988 264.141 305.055 263.078
 305.055 261.766 c 305.055 260.453 303.992 259.391 302.68 259.391 c h
302.68 259.391 m f
294.738 267.332 m 293.426 267.332 292.363 268.395 292.363 269.707 c 292.363
 271.02 293.426 272.082 294.738 272.082 c 296.051 272.082 297.113 271.02
 297.113 269.707 c 297.113 268.395 296.051 267.332 294.738 267.332 c h
294.738 267.332 m f
302.68 274.699 m 301.367 274.699 300.305 275.762 300.305 277.07 c 300.305
 278.383 301.367 279.445 302.68 279.445 c 303.988 279.445 305.055 278.383
 305.055 277.07 c 305.055 275.762 303.992 274.699 302.68 274.699 c h
302.68 274.699 m f
294.738 282.641 m 293.426 282.641 292.363 283.703 292.363 285.012 c 292.363
 286.324 293.426 287.387 294.738 287.387 c 296.051 287.387 297.113 286.324
 297.113 285.012 c 297.113 283.703 296.051 282.641 294.738 282.641 c h
294.738 282.641 m f
302.68 290.004 m 301.367 290.004 300.305 291.066 300.305 292.379 c 300.305
 293.691 301.367 294.754 302.68 294.754 c 303.988 294.754 305.055 293.691
 305.055 292.379 c 305.055 291.066 303.992 290.004 302.68 290.004 c h
302.68 290.004 m f
294.738 297.945 m 293.426 297.945 292.363 299.008 292.363 300.32 c 292.363
 301.633 293.426 302.695 294.738 302.695 c 296.051 302.695 297.113 301.633
 297.113 300.32 c 297.113 299.008 296.051 297.945 294.738 297.945 c h
294.738 297.945 m f
302.68 305.312 m 301.367 305.312 300.305 306.375 300.305 307.684 c 300.305
 308.996 301.367 310.059 302.68 310.059 c 303.988 310.059 305.055 308.996
 305.055 307.684 c 305.055 306.375 303.992 305.312 302.68 305.312 c h
302.68 305.312 m f
294.738 313.254 m 293.426 313.254 292.363 314.316 292.363 315.625 c 292.363
 316.938 293.426 318 294.738 318 c 296.051 318 297.113 316.938 297.113 315.625
 c 297.113 314.316 296.051 313.254 294.738 313.254 c h
294.738 313.254 m f
302.68 320.617 m 301.367 320.617 300.305 321.68 300.305 322.992 c 300.305
 324.301 301.367 325.367 302.68 325.367 c 303.988 325.367 305.055 324.305
 305.055 322.992 c 305.055 321.68 303.992 320.617 302.68 320.617 c h
302.68 320.617 m f
294.738 328.559 m 293.426 328.559 292.363 329.621 292.363 330.934 c 292.363
 332.242 293.426 333.309 294.738 333.309 c 296.051 333.309 297.113 332.242
 297.113 330.934 c 297.113 329.621 296.051 328.559 294.738 328.559 c h
294.738 328.559 m f
302.68 335.926 m 301.367 335.926 300.305 336.988 300.305 338.297 c 300.305
 339.609 301.367 340.672 302.68 340.672 c 303.988 340.672 305.055 339.609
 305.055 338.297 c 305.055 336.988 303.992 335.926 302.68 335.926 c h
302.68 335.926 m f
294.738 343.867 m 293.426 343.867 292.363 344.93 292.363 346.238 c 292.363
 347.551 293.426 348.613 294.738 348.613 c 296.051 348.613 297.113 347.551
 297.113 346.238 c 297.113 344.93 296.051 343.867 294.738 343.867 c h
294.738 343.867 m f
302.68 351.23 m 301.367 351.23 300.305 352.293 300.305 353.605 c 300.305
 354.918 301.367 355.98 302.68 355.98 c 303.988 355.98 305.055 354.918 305.055
 353.605 c 305.055 352.293 303.992 351.23 302.68 351.23 c h
302.68 351.23 m f
294.738 359.172 m 293.426 359.172 292.363 360.234 292.363 361.547 c 292.363
 362.859 293.426 363.922 294.738 363.922 c 296.051 363.922 297.113 362.859
 297.113 361.547 c 297.113 360.234 296.051 359.172 294.738 359.172 c h
294.738 359.172 m f
302.68 366.535 m 301.367 366.535 300.305 367.602 300.305 368.91 c 300.305
 370.223 301.367 371.285 302.68 371.285 c 303.988 371.285 305.055 370.223
 305.055 368.91 c 305.055 367.602 303.992 366.535 302.68 366.535 c h
302.68 366.535 m f
294.738 374.48 m 293.426 374.48 292.363 375.543 292.363 376.852 c 292.363
 378.164 293.426 379.227 294.738 379.227 c 296.051 379.227 297.113 378.164
 297.113 376.852 c 297.113 375.543 296.051 374.48 294.738 374.48 c h
294.738 374.48 m f
287.371 95.766 m 288.684 95.766 289.746 94.703 289.746 93.391 c 289.746
 92.082 288.684 91.02 287.371 91.02 c 286.062 91.02 284.996 92.082 284.996
 93.391 c 285 94.703 286.062 95.766 287.371 95.766 c h
287.371 95.766 m f
287.371 111.074 m 288.684 111.074 289.746 110.012 289.746 108.699 c 289.746
 107.387 288.684 106.324 287.371 106.324 c 286.062 106.324 284.996 107.387
 284.996 108.699 c 285 110.012 286.062 111.074 287.371 111.074 c h
287.371 111.074 m f
287.371 126.379 m 288.684 126.379 289.746 125.316 289.746 124.008 c 289.746
 122.695 288.684 121.633 287.371 121.633 c 286.062 121.633 284.996 122.695
 284.996 124.008 c 284.996 125.316 286.062 126.379 287.371 126.379 c h
287.371 126.379 m f
287.371 141.688 m 288.684 141.688 289.746 140.625 289.746 139.312 c 289.746
 138 288.684 136.938 287.371 136.938 c 286.062 136.938 284.996 138 284.996
 139.312 c 285 140.625 286.062 141.688 287.371 141.688 c h
287.371 141.688 m f
287.371 156.992 m 288.684 156.992 289.746 155.93 289.746 154.621 c 289.746
 153.309 288.684 152.246 287.371 152.246 c 286.062 152.246 284.996 153.309
 284.996 154.621 c 285 155.93 286.062 156.992 287.371 156.992 c h
287.371 156.992 m f
287.371 172.297 m 288.684 172.297 289.746 171.234 289.746 169.922 c 289.746
 168.613 288.684 167.547 287.371 167.547 c 286.062 167.547 284.996 168.609
 284.996 169.922 c 285 171.234 286.062 172.297 287.371 172.297 c h
287.371 172.297 m f
279.43 343.867 m 278.121 343.867 277.059 344.93 277.059 346.238 c 277.059
 347.551 278.121 348.613 279.43 348.613 c 280.742 348.613 281.805 347.551
 281.805 346.238 c 281.805 344.93 280.742 343.867 279.43 343.867 c h
279.43 343.867 m f
287.371 351.23 m 286.062 351.23 284.996 352.293 284.996 353.605 c 284.996
 354.918 286.059 355.98 287.371 355.98 c 288.684 355.98 289.746 354.918 
289.746 353.605 c 289.746 352.293 288.684 351.23 287.371 351.23 c h
287.371 351.23 m f
279.43 359.172 m 278.121 359.172 277.059 360.234 277.059 361.547 c 277.059
 362.859 278.121 363.922 279.43 363.922 c 280.742 363.922 281.805 362.859
 281.805 361.547 c 281.805 360.234 280.742 359.172 279.43 359.172 c h
279.43 359.172 m f
287.371 366.535 m 286.062 366.535 284.996 367.602 284.996 368.91 c 284.996
 370.223 286.059 371.285 287.371 371.285 c 288.684 371.285 289.746 370.223
 289.746 368.91 c 289.746 367.602 288.684 366.535 287.371 366.535 c h
287.371 366.535 m f
279.43 379.227 m 280.742 379.227 281.805 378.164 281.805 376.852 c 281.805
 375.539 280.742 374.477 279.43 374.477 c 278.121 374.477 277.059 375.539
 277.059 376.852 c 277.059 378.164 278.121 379.227 279.43 379.227 c h
279.43 379.227 m f
264.125 343.867 m 262.812 343.867 261.75 344.93 261.75 346.238 c 261.75
 347.551 262.812 348.613 264.125 348.613 c 265.434 348.613 266.5 347.551
 266.5 346.238 c 266.5 344.93 265.434 343.867 264.125 343.867 c h
264.125 343.867 m f
272.066 351.23 m 270.754 351.23 269.691 352.293 269.691 353.605 c 269.691
 354.918 270.754 355.98 272.066 355.98 c 273.379 355.98 274.441 354.918 
274.441 353.605 c 274.441 352.293 273.379 351.23 272.066 351.23 c h
272.066 351.23 m f
264.125 359.172 m 262.812 359.172 261.75 360.234 261.75 361.547 c 261.75
 362.859 262.812 363.922 264.125 363.922 c 265.434 363.922 266.5 362.859
 266.5 361.547 c 266.5 360.234 265.434 359.172 264.125 359.172 c h
264.125 359.172 m f
272.066 366.535 m 270.754 366.535 269.691 367.602 269.691 368.91 c 269.691
 370.223 270.754 371.285 272.066 371.285 c 273.379 371.285 274.441 370.223
 274.441 368.91 c 274.441 367.602 273.379 366.535 272.066 366.535 c h
272.066 366.535 m f
264.125 374.48 m 262.812 374.48 261.75 375.543 261.75 376.852 c 261.75 
378.164 262.812 379.227 264.125 379.227 c 265.434 379.227 266.5 378.164 
266.5 376.852 c 266.5 375.543 265.434 374.48 264.125 374.48 c h
264.125 374.48 m f
248.816 343.867 m 247.508 343.867 246.441 344.93 246.441 346.238 c 246.441
 347.551 247.508 348.613 248.816 348.613 c 250.129 348.613 251.191 347.551
 251.191 346.238 c 251.191 344.93 250.129 343.867 248.816 343.867 c h
248.816 343.867 m f
256.758 351.23 m 255.449 351.23 254.387 352.293 254.387 353.605 c 254.387
 354.918 255.449 355.98 256.758 355.98 c 258.07 355.98 259.133 354.918 259.133
 353.605 c 259.133 352.293 258.07 351.23 256.758 351.23 c h
256.758 351.23 m f
248.816 359.172 m 247.508 359.172 246.441 360.234 246.441 361.547 c 246.441
 362.859 247.508 363.922 248.816 363.922 c 250.129 363.922 251.191 362.859
 251.191 361.547 c 251.191 360.234 250.129 359.172 248.816 359.172 c h
248.816 359.172 m f
256.758 366.535 m 255.449 366.535 254.387 367.602 254.387 368.91 c 254.387
 370.223 255.449 371.285 256.758 371.285 c 258.07 371.285 259.133 370.223
 259.133 368.91 c 259.133 367.602 258.07 366.535 256.758 366.535 c h
256.758 366.535 m f
248.816 374.48 m 247.508 374.48 246.441 375.543 246.441 376.852 c 246.441
 378.164 247.508 379.227 248.816 379.227 c 250.129 379.227 251.191 378.164
 251.191 376.852 c 251.191 375.543 250.129 374.48 248.816 374.48 c h
248.816 374.48 m f
233.512 343.867 m 232.199 343.867 231.137 344.93 231.137 346.238 c 231.137
 347.551 232.199 348.613 233.512 348.613 c 234.824 348.613 235.887 347.551
 235.887 346.238 c 235.887 344.93 234.824 343.867 233.512 343.867 c h
233.512 343.867 m f
241.453 351.23 m 240.141 351.23 239.078 352.293 239.078 353.605 c 239.078
 354.918 240.141 355.98 241.453 355.98 c 242.766 355.98 243.828 354.918 
243.828 353.605 c 243.828 352.293 242.766 351.23 241.453 351.23 c h
241.453 351.23 m f
233.512 359.172 m 232.199 359.172 231.137 360.234 231.137 361.547 c 231.137
 362.859 232.199 363.922 233.512 363.922 c 234.824 363.922 235.887 362.859
 235.887 361.547 c 235.887 360.234 234.824 359.172 233.512 359.172 c h
233.512 359.172 m f
241.453 366.535 m 240.141 366.535 239.078 367.602 239.078 368.91 c 239.078
 370.223 240.141 371.285 241.453 371.285 c 242.766 371.285 243.828 370.223
 243.828 368.91 c 243.828 367.602 242.766 366.535 241.453 366.535 c h
241.453 366.535 m f
233.512 374.48 m 232.199 374.48 231.137 375.543 231.137 376.852 c 231.137
 378.164 232.199 379.227 233.512 379.227 c 234.824 379.227 235.887 378.164
 235.887 376.852 c 235.887 375.543 234.824 374.48 233.512 374.48 c h
233.512 374.48 m f
218.203 343.867 m 216.895 343.867 215.832 344.93 215.832 346.238 c 215.832
 347.551 216.895 348.613 218.203 348.613 c 219.516 348.613 220.578 347.551
 220.578 346.238 c 220.578 344.93 219.516 343.867 218.203 343.867 c h
218.203 343.867 m f
226.145 351.23 m 224.836 351.23 223.773 352.293 223.773 353.605 c 223.773
 354.918 224.836 355.98 226.145 355.98 c 227.457 355.98 228.52 354.918 228.52
 353.605 c 228.52 352.293 227.457 351.23 226.145 351.23 c h
226.145 351.23 m f
218.203 359.172 m 216.895 359.172 215.832 360.234 215.832 361.547 c 215.832
 362.859 216.895 363.922 218.203 363.922 c 219.516 363.922 220.578 362.859
 220.578 361.547 c 220.578 360.234 219.516 359.172 218.203 359.172 c h
218.203 359.172 m f
226.145 366.535 m 224.836 366.535 223.773 367.602 223.773 368.91 c 223.773
 370.223 224.836 371.285 226.145 371.285 c 227.457 371.285 228.52 370.223
 228.52 368.91 c 228.52 367.602 227.457 366.535 226.145 366.535 c h
226.145 366.535 m f
218.203 374.48 m 216.895 374.48 215.832 375.543 215.832 376.852 c 215.832
 378.164 216.895 379.227 218.203 379.227 c 219.516 379.227 220.578 378.164
 220.578 376.852 c 220.578 375.543 219.516 374.48 218.203 374.48 c h
218.203 374.48 m f
202.898 343.867 m 201.586 343.867 200.523 344.93 200.523 346.238 c 200.523
 347.551 201.586 348.613 202.898 348.613 c 204.211 348.613 205.273 347.551
 205.273 346.238 c 205.273 344.93 204.211 343.867 202.898 343.867 c h
202.898 343.867 m f
210.84 351.23 m 209.527 351.23 208.465 352.293 208.465 353.605 c 208.465
 354.918 209.527 355.98 210.84 355.98 c 212.148 355.98 213.215 354.918 213.215
 353.605 c 213.215 352.293 212.152 351.23 210.84 351.23 c h
210.84 351.23 m f
202.898 359.172 m 201.586 359.172 200.523 360.234 200.523 361.547 c 200.523
 362.859 201.586 363.922 202.898 363.922 c 204.211 363.922 205.273 362.859
 205.273 361.547 c 205.273 360.234 204.211 359.172 202.898 359.172 c h
202.898 359.172 m f
210.84 366.535 m 209.527 366.535 208.465 367.602 208.465 368.91 c 208.465
 370.223 209.527 371.285 210.84 371.285 c 212.148 371.285 213.215 370.223
 213.215 368.91 c 213.215 367.602 212.152 366.535 210.84 366.535 c h
210.84 366.535 m f
202.898 374.48 m 201.586 374.48 200.523 375.543 200.523 376.852 c 200.523
 378.164 201.586 379.227 202.898 379.227 c 204.211 379.227 205.273 378.164
 205.273 376.852 c 205.273 375.543 204.211 374.48 202.898 374.48 c h
202.898 374.48 m f
187.59 343.867 m 186.281 343.867 185.219 344.93 185.219 346.238 c 185.219
 347.551 186.281 348.613 187.59 348.613 c 188.902 348.613 189.965 347.551
 189.965 346.238 c 189.965 344.93 188.902 343.867 187.59 343.867 c h
187.59 343.867 m f
195.535 351.23 m 194.223 351.23 193.16 352.293 193.16 353.605 c 193.16 
354.918 194.223 355.98 195.535 355.98 c 196.844 355.98 197.906 354.918 197.906
 353.605 c 197.906 352.293 196.844 351.23 195.535 351.23 c h
195.535 351.23 m f
187.59 359.172 m 186.281 359.172 185.219 360.234 185.219 361.547 c 185.219
 362.859 186.281 363.922 187.59 363.922 c 188.902 363.922 189.965 362.859
 189.965 361.547 c 189.965 360.234 188.902 359.172 187.59 359.172 c h
187.59 359.172 m f
195.535 366.535 m 194.223 366.535 193.16 367.602 193.16 368.91 c 193.16
 370.223 194.223 371.285 195.535 371.285 c 196.844 371.285 197.906 370.223
 197.906 368.91 c 197.906 367.602 196.844 366.535 195.535 366.535 c h
195.535 366.535 m f
187.59 374.48 m 186.281 374.48 185.219 375.543 185.219 376.852 c 185.219
 378.164 186.281 379.227 187.59 379.227 c 188.902 379.227 189.965 378.164
 189.965 376.852 c 189.965 375.543 188.902 374.48 187.59 374.48 c h
187.59 374.48 m f
172.285 343.867 m 170.973 343.867 169.91 344.93 169.91 346.238 c 169.91
 347.551 170.973 348.613 172.285 348.613 c 173.598 348.613 174.66 347.551
 174.66 346.238 c 174.66 344.93 173.598 343.867 172.285 343.867 c h
172.285 343.867 m f
180.227 351.23 m 178.914 351.23 177.852 352.293 177.852 353.605 c 177.852
 354.918 178.914 355.98 180.227 355.98 c 181.539 355.98 182.602 354.918 
182.602 353.605 c 182.602 352.293 181.539 351.23 180.227 351.23 c h
180.227 351.23 m f
172.285 359.172 m 170.973 359.172 169.91 360.234 169.91 361.547 c 169.91
 362.859 170.973 363.922 172.285 363.922 c 173.598 363.922 174.66 362.859
 174.66 361.547 c 174.66 360.234 173.598 359.172 172.285 359.172 c h
172.285 359.172 m f
180.227 366.535 m 178.914 366.535 177.852 367.602 177.852 368.91 c 177.852
 370.223 178.914 371.285 180.227 371.285 c 181.539 371.285 182.602 370.223
 182.602 368.91 c 182.602 367.602 181.539 366.535 180.227 366.535 c h
180.227 366.535 m f
172.285 374.48 m 170.973 374.48 169.91 375.543 169.91 376.852 c 169.91 
378.164 170.973 379.227 172.285 379.227 c 173.598 379.227 174.66 378.164
 174.66 376.852 c 174.66 375.543 173.598 374.48 172.285 374.48 c h
172.285 374.48 m f
156.98 343.867 m 155.668 343.867 154.605 344.93 154.605 346.238 c 154.605
 347.551 155.668 348.613 156.98 348.613 c 158.289 348.613 159.352 347.551
 159.352 346.238 c 159.352 344.93 158.289 343.867 156.98 343.867 c h
156.98 343.867 m f
164.918 351.23 m 163.609 351.23 162.547 352.293 162.547 353.605 c 162.547
 354.918 163.609 355.98 164.918 355.98 c 166.23 355.98 167.293 354.918 167.293
 353.605 c 167.293 352.293 166.23 351.23 164.918 351.23 c h
164.918 351.23 m f
156.98 359.172 m 155.668 359.172 154.605 360.234 154.605 361.547 c 154.605
 362.859 155.668 363.922 156.98 363.922 c 158.289 363.922 159.352 362.859
 159.352 361.547 c 159.352 360.234 158.289 359.172 156.98 359.172 c h
156.98 359.172 m f
164.918 366.535 m 163.609 366.535 162.547 367.602 162.547 368.91 c 162.547
 370.223 163.609 371.285 164.918 371.285 c 166.23 371.285 167.293 370.223
 167.293 368.91 c 167.293 367.602 166.23 366.535 164.918 366.535 c h
164.918 366.535 m f
156.98 374.48 m 155.668 374.48 154.605 375.543 154.605 376.852 c 154.605
 378.164 155.668 379.227 156.98 379.227 c 158.289 379.227 159.352 378.164
 159.352 376.852 c 159.352 375.543 158.289 374.48 156.98 374.48 c h
156.98 374.48 m f
141.672 343.867 m 140.359 343.867 139.297 344.93 139.297 346.238 c 139.297
 347.551 140.359 348.613 141.672 348.613 c 142.984 348.613 144.047 347.551
 144.047 346.238 c 144.047 344.93 142.984 343.867 141.672 343.867 c h
141.672 343.867 m f
149.613 351.23 m 148.301 351.23 147.238 352.293 147.238 353.605 c 147.238
 354.918 148.301 355.98 149.613 355.98 c 150.926 355.98 151.988 354.918 
151.988 353.605 c 151.988 352.293 150.926 351.23 149.613 351.23 c h
149.613 351.23 m f
141.672 359.172 m 140.359 359.172 139.297 360.234 139.297 361.547 c 139.297
 362.859 140.359 363.922 141.672 363.922 c 142.984 363.922 144.047 362.859
 144.047 361.547 c 144.047 360.234 142.984 359.172 141.672 359.172 c h
141.672 359.172 m f
149.613 366.535 m 148.301 366.535 147.238 367.602 147.238 368.91 c 147.238
 370.223 148.301 371.285 149.613 371.285 c 150.926 371.285 151.988 370.223
 151.988 368.91 c 151.988 367.602 150.926 366.535 149.613 366.535 c h
149.613 366.535 m f
141.672 374.48 m 140.359 374.48 139.297 375.543 139.297 376.852 c 139.297
 378.164 140.359 379.227 141.672 379.227 c 142.984 379.227 144.047 378.164
 144.047 376.852 c 144.047 375.543 142.984 374.48 141.672 374.48 c h
141.672 374.48 m f
126.367 343.867 m 125.055 343.867 123.992 344.93 123.992 346.238 c 123.992
 347.551 125.055 348.613 126.367 348.613 c 127.676 348.613 128.738 347.551
 128.738 346.238 c 128.738 344.93 127.676 343.867 126.367 343.867 c h
126.367 343.867 m f
134.305 351.23 m 132.996 351.23 131.934 352.293 131.934 353.605 c 131.934
 354.918 132.996 355.98 134.305 355.98 c 135.617 355.98 136.68 354.918 136.68
 353.605 c 136.68 352.293 135.617 351.23 134.305 351.23 c h
134.305 351.23 m f
126.367 359.172 m 125.055 359.172 123.992 360.234 123.992 361.547 c 123.992
 362.859 125.055 363.922 126.367 363.922 c 127.676 363.922 128.738 362.859
 128.738 361.547 c 128.738 360.234 127.676 359.172 126.367 359.172 c h
126.367 359.172 m f
134.305 366.535 m 132.996 366.535 131.934 367.602 131.934 368.91 c 131.934
 370.223 132.996 371.285 134.305 371.285 c 135.617 371.285 136.68 370.223
 136.68 368.91 c 136.68 367.602 135.617 366.535 134.305 366.535 c h
134.305 366.535 m f
126.367 374.48 m 125.055 374.48 123.992 375.543 123.992 376.852 c 123.992
 378.164 125.055 379.227 126.367 379.227 c 127.676 379.227 128.738 378.164
 128.738 376.852 c 128.738 375.543 127.676 374.48 126.367 374.48 c h
126.367 374.48 m f
111.059 343.867 m 109.746 343.867 108.684 344.93 108.684 346.238 c 108.684
 347.551 109.746 348.613 111.059 348.613 c 112.371 348.613 113.434 347.551
 113.434 346.238 c 113.434 344.93 112.371 343.867 111.059 343.867 c h
111.059 343.867 m f
119 351.23 m 117.688 351.23 116.625 352.293 116.625 353.605 c 116.625 354.918
 117.688 355.98 119 355.98 c 120.312 355.98 121.375 354.918 121.375 353.605
 c 121.375 352.293 120.312 351.23 119 351.23 c h
119 351.23 m f
111.059 359.172 m 109.746 359.172 108.684 360.234 108.684 361.547 c 108.684
 362.859 109.746 363.922 111.059 363.922 c 112.371 363.922 113.434 362.859
 113.434 361.547 c 113.434 360.234 112.371 359.172 111.059 359.172 c h
111.059 359.172 m f
119 366.535 m 117.688 366.535 116.625 367.602 116.625 368.91 c 116.625 
370.223 117.688 371.285 119 371.285 c 120.312 371.285 121.375 370.223 121.375
 368.91 c 121.375 367.602 120.312 366.535 119 366.535 c h
119 366.535 m f
111.059 374.48 m 109.746 374.48 108.684 375.543 108.684 376.852 c 108.684
 378.164 109.746 379.227 111.059 379.227 c 112.371 379.227 113.434 378.164
 113.434 376.852 c 113.434 375.543 112.371 374.48 111.059 374.48 c h
111.059 374.48 m f
95.75 343.867 m 94.441 343.867 93.379 344.93 93.379 346.238 c 93.379 347.551
 94.441 348.613 95.75 348.613 c 97.062 348.613 98.125 347.551 98.125 346.238
 c 98.125 344.93 97.062 343.867 95.75 343.867 c h
95.75 343.867 m f
103.695 351.23 m 102.383 351.23 101.32 352.293 101.32 353.605 c 101.32 
354.918 102.383 355.98 103.695 355.98 c 105.004 355.98 106.066 354.918 106.066
 353.605 c 106.066 352.293 105.004 351.23 103.695 351.23 c h
103.695 351.23 m f
95.75 359.172 m 94.441 359.172 93.379 360.234 93.379 361.547 c 93.379 362.859
 94.441 363.922 95.75 363.922 c 97.062 363.922 98.125 362.859 98.125 361.547
 c 98.125 360.234 97.062 359.172 95.75 359.172 c h
95.75 359.172 m f
103.695 366.535 m 102.383 366.535 101.32 367.602 101.32 368.91 c 101.32
 370.223 102.383 371.285 103.695 371.285 c 105.004 371.285 106.066 370.223
 106.066 368.91 c 106.066 367.602 105.004 366.535 103.695 366.535 c h
103.695 366.535 m f
95.75 374.48 m 94.441 374.48 93.379 375.543 93.379 376.852 c 93.379 378.164
 94.441 379.227 95.75 379.227 c 97.062 379.227 98.125 378.164 98.125 376.852
 c 98.125 375.543 97.062 374.48 95.75 374.48 c h
95.75 374.48 m f
80.445 343.867 m 79.133 343.867 78.07 344.93 78.07 346.238 c 78.07 347.551
 79.133 348.613 80.445 348.613 c 81.758 348.613 82.82 347.551 82.82 346.238
 c 82.82 344.93 81.758 343.867 80.445 343.867 c h
80.445 343.867 m f
88.387 351.23 m 87.074 351.23 86.012 352.293 86.012 353.605 c 86.012 354.918
 87.074 355.98 88.387 355.98 c 89.699 355.98 90.762 354.918 90.762 353.605
 c 90.762 352.293 89.699 351.23 88.387 351.23 c h
88.387 351.23 m f
80.445 359.172 m 79.133 359.172 78.07 360.234 78.07 361.547 c 78.07 362.859
 79.133 363.922 80.445 363.922 c 81.758 363.922 82.82 362.859 82.82 361.547
 c 82.82 360.234 81.758 359.172 80.445 359.172 c h
80.445 359.172 m f
88.387 366.535 m 87.074 366.535 86.012 367.602 86.012 368.91 c 86.012 370.223
 87.074 371.285 88.387 371.285 c 89.699 371.285 90.762 370.223 90.762 368.91
 c 90.762 367.602 89.699 366.535 88.387 366.535 c h
88.387 366.535 m f
80.445 374.48 m 79.133 374.48 78.07 375.543 78.07 376.852 c 78.07 378.164
 79.133 379.227 80.445 379.227 c 81.758 379.227 82.82 378.164 82.82 376.852
 c 82.82 375.543 81.758 374.48 80.445 374.48 c h
80.445 374.48 m f
65.141 343.867 m 63.828 343.867 62.766 344.93 62.766 346.238 c 62.766 347.551
 63.828 348.613 65.141 348.613 c 66.449 348.613 67.512 347.551 67.512 346.238
 c 67.512 344.93 66.449 343.867 65.141 343.867 c h
65.141 343.867 m f
70.707 353.605 m 70.707 354.918 71.77 355.98 73.082 355.98 c 74.391 355.98
 75.457 354.918 75.457 353.605 c 75.457 352.293 74.391 351.23 73.082 351.23
 c 71.77 351.23 70.707 352.293 70.707 353.605 c h
70.707 353.605 m f
65.141 363.922 m 66.449 363.922 67.512 362.859 67.512 361.547 c 67.512 
360.234 66.449 359.172 65.141 359.172 c 63.828 359.172 62.766 360.234 62.766
 361.547 c 62.766 362.859 63.828 363.922 65.141 363.922 c h
65.141 363.922 m f
73.078 371.285 m 74.391 371.285 75.453 370.223 75.453 368.91 c 75.453 367.602
 74.391 366.539 73.078 366.539 c 71.77 366.539 70.707 367.602 70.707 368.91
 c 70.707 370.223 71.77 371.285 73.078 371.285 c h
73.078 371.285 m f
65.141 379.227 m 66.449 379.227 67.512 378.164 67.512 376.852 c 67.512 
375.539 66.449 374.477 65.141 374.477 c 63.828 374.477 62.766 375.539 62.766
 376.852 c 62.766 378.164 63.828 379.227 65.141 379.227 c h
65.141 379.227 m f
57.773 355.98 m 59.086 355.98 60.148 354.918 60.148 353.605 c 60.148 352.293
 59.086 351.23 57.773 351.23 c 56.465 351.23 55.398 352.293 55.398 353.605
 c 55.398 354.918 56.461 355.98 57.773 355.98 c h
57.773 355.98 m f
57.773 371.285 m 59.086 371.285 60.148 370.223 60.148 368.91 c 60.148 367.602
 59.086 366.539 57.773 366.539 c 56.465 366.539 55.398 367.602 55.398 368.91
 c 55.398 370.223 56.461 371.285 57.773 371.285 c h
57.773 371.285 m f
287.383 187.617 m 288.695 187.617 289.758 186.555 289.758 185.242 c 289.758
 183.93 288.695 182.867 287.383 182.867 c 286.07 182.867 285.008 183.93 
285.008 185.242 c 285.008 186.555 286.07 187.617 287.383 187.617 c h
287.383 187.617 m f
287.383 202.922 m 288.695 202.922 289.758 201.859 289.758 200.547 c 289.758
 199.234 288.695 198.172 287.383 198.172 c 286.07 198.172 285.008 199.234
 285.008 200.547 c 285.008 201.859 286.07 202.922 287.383 202.922 c h
287.383 202.922 m f
287.383 218.227 m 288.695 218.227 289.758 217.164 289.758 215.852 c 289.758
 214.539 288.695 213.477 287.383 213.477 c 286.07 213.477 285.008 214.539
 285.008 215.852 c 285.008 217.164 286.07 218.227 287.383 218.227 c h
287.383 218.227 m f
287.383 233.566 m 288.695 233.566 289.758 232.504 289.758 231.191 c 289.758
 229.879 288.695 228.816 287.383 228.816 c 286.07 228.816 285.008 229.879
 285.008 231.191 c 285.008 232.504 286.07 233.566 287.383 233.566 c h
287.383 233.566 m f
287.371 248.832 m 288.684 248.832 289.746 247.77 289.746 246.457 c 289.746
 245.148 288.684 244.086 287.371 244.086 c 286.062 244.086 284.996 245.148
 284.996 246.457 c 285 247.77 286.062 248.832 287.371 248.832 c h
287.371 248.832 m f
287.371 264.137 m 288.684 264.137 289.746 263.074 289.746 261.762 c 289.746
 260.453 288.684 259.387 287.371 259.387 c 286.062 259.387 284.996 260.449
 284.996 261.762 c 285 263.074 286.062 264.137 287.371 264.137 c h
287.371 264.137 m f
287.383 279.457 m 288.695 279.457 289.758 278.395 289.758 277.082 c 289.758
 275.77 288.695 274.707 287.383 274.707 c 286.07 274.707 285.008 275.77 
285.008 277.082 c 285.008 278.395 286.07 279.457 287.383 279.457 c h
287.383 279.457 m f
287.383 294.762 m 288.695 294.762 289.758 293.699 289.758 292.387 c 289.758
 291.074 288.695 290.012 287.383 290.012 c 286.07 290.012 285.008 291.074
 285.008 292.387 c 285.008 293.699 286.07 294.762 287.383 294.762 c h
287.383 294.762 m f
287.383 310.066 m 288.695 310.066 289.758 309.004 289.758 307.691 c 289.758
 306.379 288.695 305.316 287.383 305.316 c 286.07 305.316 285.008 306.379
 285.008 307.691 c 285.008 309.004 286.07 310.066 287.383 310.066 c h
287.383 310.066 m f
287.383 325.406 m 288.695 325.406 289.758 324.344 289.758 323.031 c 289.758
 321.719 288.695 320.656 287.383 320.656 c 286.07 320.656 285.008 321.719
 285.008 323.031 c 285.008 324.344 286.07 325.406 287.383 325.406 c h
287.383 325.406 m f
0.192157 0.215686 0.239216 rg
333.438 365.461 m 324.293 98.527 l 323.957 88.805 315.875 81.184 305.895
 81.184 c 265.723 81.184 l 265.723 34.75 l 265.723 30.762 264.168 27.012
 261.348 24.195 c 241.527 4.371 l 238.707 1.555 234.961 0 230.973 0 c 153.023
 0 l 149.035 0 145.285 1.555 142.469 4.371 c 122.645 24.195 l 119.828 27.016
 118.273 30.762 118.273 34.75 c 118.273 81.188 l 78.199 81.188 l 68.219 
81.188 60.137 88.801 59.801 98.523 c 50.562 365.453 l 50.395 370.27 52.168
 374.852 55.555 378.355 c 59.02 381.941 63.906 384 68.961 384 c 315.039 
384 l 320.094 384 324.977 381.945 328.441 378.359 c 331.828 374.855 333.602
 370.273 333.438 365.461 c h
124.488 34.75 m 124.488 32.422 125.395 30.234 127.039 28.59 c 146.859 8.766
 l 148.508 7.121 150.695 6.215 153.023 6.215 c 230.973 6.215 l 233.297 6.215
 235.488 7.121 237.133 8.766 c 256.953 28.59 l 258.602 30.234 259.508 32.422
 259.508 34.75 c 259.508 81.188 l 233.766 81.188 l 233.766 47.957 l 233.766
 47.133 233.438 46.344 232.855 45.762 c 218.211 31.117 l 217.629 30.535 
216.84 30.207 216.016 30.207 c 167.98 30.207 l 167.156 30.207 166.363 30.535
 165.781 31.117 c 151.137 45.762 l 150.555 46.344 150.23 47.133 150.23 47.957
 c 150.23 81.184 l 124.488 81.184 l h
227.551 81.184 m 156.445 81.184 l 156.445 49.246 l 169.266 36.422 l 214.73
 36.422 l 227.551 49.246 l h
323.973 374.039 m 321.641 376.453 318.465 377.785 315.039 377.785 c 68.961
 377.785 l 65.535 377.785 62.359 376.453 60.027 374.039 c 57.82 371.754 
56.664 368.785 56.773 365.668 c 66.012 98.738 l 66.23 92.383 71.582 87.402
 78.199 87.402 c 305.895 87.402 l 312.512 87.402 317.863 92.383 318.082 
98.742 c 327.227 365.672 l 327.332 368.785 326.18 371.758 323.973 374.039
 c h
323.973 374.039 m f
0.976471 0.984314 0.988235 rg
287.371 335.926 m 286.062 335.926 284.996 336.988 284.996 338.297 c 284.996
 339.609 286.059 340.672 287.371 340.672 c 288.684 340.672 289.746 339.609
 289.746 338.297 c 289.746 336.988 288.684 335.926 287.371 335.926 c h
287.371 335.926 m f
Q Q
showpage
%%Trailer
end
%%EOF
