%!PS-Adobe-3.0 EPSF-3.0
%%Creator: cairo 1.16.0 (https://cairographics.org)
%%CreationDate: Fri Feb 12 12:13:06 2021
%%Pages: 1
%%DocumentData: Clean7Bit
%%LanguageLevel: 2
%%BoundingBox: 0 28 384 356
%%EndComments
%%BeginProlog
50 dict begin
/q { gsave } bind def
/Q { grestore } bind def
/cm { 6 array astore concat } bind def
/w { setlinewidth } bind def
/J { setlinecap } bind def
/j { setlinejoin } bind def
/M { setmiterlimit } bind def
/d { setdash } bind def
/m { moveto } bind def
/l { lineto } bind def
/c { curveto } bind def
/h { closepath } bind def
/re { exch dup neg 3 1 roll 5 3 roll moveto 0 rlineto
      0 exch rlineto 0 rlineto closepath } bind def
/S { stroke } bind def
/f { fill } bind def
/f* { eofill } bind def
/n { newpath } bind def
/W { clip } bind def
/W* { eoclip } bind def
/BT { } bind def
/ET { } bind def
/BDC { mark 3 1 roll /BDC pdfmark } bind def
/EMC { mark /EMC pdfmark } bind def
/cairo_store_point { /cairo_point_y exch def /cairo_point_x exch def } def
/Tj { show currentpoint cairo_store_point } bind def
/TJ {
  {
    dup
    type /stringtype eq
    { show } { -0.001 mul 0 cairo_font_matrix dtransform rmoveto } ifelse
  } forall
  currentpoint cairo_store_point
} bind def
/cairo_selectfont { cairo_font_matrix aload pop pop pop 0 0 6 array astore
    cairo_font exch selectfont cairo_point_x cairo_point_y moveto } bind def
/Tf { pop /cairo_font exch def /cairo_font_matrix where
      { pop cairo_selectfont } if } bind def
/Td { matrix translate cairo_font_matrix matrix concatmatrix dup
      /cairo_font_matrix exch def dup 4 get exch 5 get cairo_store_point
      /cairo_font where { pop cairo_selectfont } if } bind def
/Tm { 2 copy 8 2 roll 6 array astore /cairo_font_matrix exch def
      cairo_store_point /cairo_font where { pop cairo_selectfont } if } bind def
/g { setgray } bind def
/rg { setrgbcolor } bind def
/d1 { setcachedevice } bind def
/cairo_data_source {
  CairoDataIndex CairoData length lt
    { CairoData CairoDataIndex get /CairoDataIndex CairoDataIndex 1 add def }
    { () } ifelse
} def
/cairo_flush_ascii85_file { cairo_ascii85_file status { cairo_ascii85_file flushfile } if } def
/cairo_image { image cairo_flush_ascii85_file } def
/cairo_imagemask { imagemask cairo_flush_ascii85_file } def
%%EndProlog
%%BeginSetup
%%EndSetup
%%Page: 1 1
%%BeginPageSetup
%%PageBoundingBox: 0 28 384 356
%%EndPageSetup
q 0 28 384 328 rectclip
1 0 0 -1 0 384 cm q
0.917647 0.658824 0.584314 rg
178.91 310.336 m 182.754 319.609 178.352 330.246 169.074 334.09 c 159.801
 337.934 149.164 333.531 145.32 324.258 c 141.477 314.984 145.879 304.348
 155.152 300.504 c 164.43 296.66 175.062 301.062 178.91 310.336 c h
178.91 310.336 m f
324.004 312.977 m 326.312 322.742 320.266 332.531 310.5 334.84 c 300.73
 337.148 290.941 331.102 288.633 321.336 c 286.324 311.57 292.371 301.781
 302.137 299.473 c 311.906 297.164 321.695 303.207 324.004 312.977 c h
324.004 312.977 m f
0.913725 0.760784 0.470588 rg
336.992 214.461 m 115.312 214.461 l 69.691 62.582 l 356.137 62.582 l 362.969
 62.582 368.18 68.699 367.094 75.445 c 352.039 201.746 l 350.797 209.09 
344.438 214.461 336.992 214.461 c h
336.992 214.461 m f
0.917647 0.658824 0.584314 rg
367.68 81.352 m 87.008 81.352 l 79.656 81.352 73.695 75.391 73.695 68.039
 c 73.695 60.688 79.656 54.727 87.008 54.727 c 367.68 54.727 l 375.031 54.727
 380.992 60.688 380.992 68.039 c 380.992 75.391 375.031 81.352 367.68 81.352
 c h
367.68 81.352 m f
0.976471 0.984314 0.988235 rg
346.176 278.312 m 120.836 278.312 l 114.445 278.312 108.875 273.957 107.332
 267.758 c 105.234 217.445 l 57.285 59.336 l 16.926 59.336 l 9.238 59.336
 3.008 53.105 3.008 45.418 c 3.008 37.73 9.238 31.5 16.926 31.5 c 68.16 
31.5 l 74.551 31.5 80.121 35.852 81.664 42.055 c 133.789 216.926 l 133.914
 250.473 l 346.176 250.473 l 353.863 250.473 360.094 256.707 360.094 264.395
 c 360.098 272.078 353.863 278.312 346.176 278.312 c h
346.176 278.312 m f
353.695 81.441 m 351.086 81.441 l 350.484 81.855 350.09 82.547 350.09 83.332
 c 350.09 84.602 351.121 85.633 352.391 85.633 c 353.66 85.633 354.688 84.602
 354.688 83.332 c 354.688 82.547 354.293 81.855 353.695 81.441 c h
353.695 81.441 m f
338.848 81.441 m 336.238 81.441 l 335.637 81.855 335.242 82.547 335.242
 83.332 c 335.242 84.602 336.273 85.633 337.543 85.633 c 338.812 85.633 
339.844 84.602 339.844 83.332 c 339.844 82.547 339.449 81.855 338.848 81.441
 c h
338.848 81.441 m f
360.078 88.164 m 358.809 88.164 357.781 89.195 357.781 90.465 c 357.781
 91.734 358.809 92.766 360.078 92.766 c 361.348 92.766 362.379 91.734 362.379
 90.465 c 362.379 89.195 361.348 88.164 360.078 88.164 c h
360.078 88.164 m f
352.391 95.855 m 351.121 95.855 350.09 96.887 350.09 98.156 c 350.09 99.426
 351.121 100.453 352.391 100.453 c 353.66 100.453 354.688 99.426 354.688
 98.156 c 354.688 96.887 353.66 95.855 352.391 95.855 c h
352.391 95.855 m f
360.078 102.988 m 358.809 102.988 357.781 104.016 357.781 105.285 c 357.781
 106.555 358.809 107.586 360.078 107.586 c 361.348 107.586 362.379 106.559
 362.379 105.285 c 362.379 104.016 361.348 102.988 360.078 102.988 c h
360.078 102.988 m f
352.391 110.68 m 351.121 110.68 350.09 111.707 350.09 112.977 c 350.09 
114.246 351.121 115.277 352.391 115.277 c 353.66 115.277 354.688 114.246
 354.688 112.977 c 354.688 111.707 353.66 110.68 352.391 110.68 c h
352.391 110.68 m f
352.391 125.5 m 351.121 125.5 350.09 126.531 350.09 127.801 c 350.09 129.07
 351.121 130.098 352.391 130.098 c 353.66 130.098 354.688 129.07 354.688
 127.801 c 354.688 126.531 353.66 125.5 352.391 125.5 c h
352.391 125.5 m f
352.391 140.324 m 351.121 140.324 350.09 141.352 350.09 142.621 c 350.09
 143.891 351.121 144.922 352.391 144.922 c 353.66 144.922 354.688 143.891
 354.688 142.621 c 354.688 141.352 353.66 140.324 352.391 140.324 c h
352.391 140.324 m f
352.391 155.145 m 351.121 155.145 350.09 156.176 350.09 157.445 c 350.09
 158.715 351.121 159.742 352.391 159.742 c 353.66 159.742 354.688 158.715
 354.688 157.445 c 354.688 156.176 353.66 155.145 352.391 155.145 c h
352.391 155.145 m f
352.391 169.969 m 351.121 169.969 350.09 170.996 350.09 172.266 c 350.09
 173.539 351.121 174.566 352.391 174.566 c 353.66 174.566 354.688 173.539
 354.688 172.266 c 354.688 170.996 353.66 169.969 352.391 169.969 c h
352.391 169.969 m f
345.258 88.164 m 343.988 88.164 342.957 89.195 342.957 90.465 c 342.957
 91.734 343.988 92.766 345.258 92.766 c 346.527 92.766 347.559 91.734 347.559
 90.465 c 347.555 89.195 346.527 88.164 345.258 88.164 c h
345.258 88.164 m f
345.258 102.988 m 343.988 102.988 342.957 104.016 342.957 105.285 c 342.957
 106.555 343.988 107.586 345.258 107.586 c 346.527 107.586 347.559 106.559
 347.559 105.285 c 347.555 104.016 346.527 102.988 345.258 102.988 c h
345.258 102.988 m f
345.258 117.809 m 343.988 117.809 342.957 118.84 342.957 120.109 c 342.957
 121.379 343.988 122.41 345.258 122.41 c 346.527 122.41 347.559 121.379 
347.559 120.109 c 347.555 118.84 346.527 117.809 345.258 117.809 c h
345.258 117.809 m f
337.566 125.5 m 336.297 125.5 335.27 126.531 335.27 127.801 c 335.27 129.07
 336.297 130.098 337.566 130.098 c 338.836 130.098 339.867 129.07 339.867
 127.801 c 339.867 126.531 338.836 125.5 337.566 125.5 c h
337.566 125.5 m f
345.258 132.633 m 343.988 132.633 342.957 133.66 342.957 134.934 c 342.957
 136.203 343.988 137.23 345.258 137.23 c 346.527 137.23 347.559 136.203 
347.559 134.934 c 347.555 133.66 346.527 132.633 345.258 132.633 c h
345.258 132.633 m f
337.566 140.324 m 336.297 140.324 335.27 141.352 335.27 142.621 c 335.27
 143.891 336.297 144.922 337.566 144.922 c 338.836 144.922 339.867 143.891
 339.867 142.621 c 339.867 141.352 338.836 140.324 337.566 140.324 c h
337.566 140.324 m f
345.258 147.457 m 343.988 147.457 342.957 148.484 342.957 149.754 c 342.957
 151.023 343.988 152.055 345.258 152.055 c 346.527 152.055 347.559 151.023
 347.559 149.754 c 347.555 148.484 346.527 147.457 345.258 147.457 c h
345.258 147.457 m f
337.566 155.145 m 336.297 155.145 335.27 156.176 335.27 157.445 c 335.27
 158.715 336.297 159.742 337.566 159.742 c 338.836 159.742 339.867 158.715
 339.867 157.445 c 339.867 156.176 338.836 155.145 337.566 155.145 c h
337.566 155.145 m f
345.258 162.277 m 343.988 162.277 342.957 163.309 342.957 164.578 c 342.957
 165.848 343.988 166.875 345.258 166.875 c 346.527 166.875 347.559 165.848
 347.559 164.578 c 347.559 163.309 346.527 162.277 345.258 162.277 c h
345.258 162.277 m f
337.566 169.969 m 336.297 169.969 335.27 170.996 335.27 172.266 c 335.27
 173.539 336.297 174.566 337.566 174.566 c 338.836 174.566 339.867 173.539
 339.867 172.266 c 339.867 170.996 338.836 169.969 337.566 169.969 c h
337.566 169.969 m f
345.258 177.102 m 343.988 177.102 342.957 178.129 342.957 179.398 c 342.957
 180.668 343.988 181.699 345.258 181.699 c 346.527 181.699 347.559 180.668
 347.559 179.398 c 347.555 178.129 346.527 177.102 345.258 177.102 c h
345.258 177.102 m f
337.566 184.789 m 336.297 184.789 335.27 185.82 335.27 187.09 c 335.27 
188.359 336.297 189.391 337.566 189.391 c 338.836 189.391 339.867 188.359
 339.867 187.09 c 339.867 185.82 338.836 184.789 337.566 184.789 c h
337.566 184.789 m f
345.258 191.922 m 343.988 191.922 342.957 192.953 342.957 194.223 c 342.957
 195.492 343.988 196.52 345.258 196.52 c 346.527 196.52 347.559 195.492 
347.559 194.223 c 347.555 192.953 346.527 191.922 345.258 191.922 c h
345.258 191.922 m f
337.566 199.613 m 336.297 199.613 335.27 200.641 335.27 201.91 c 335.27
 203.18 336.297 204.211 337.566 204.211 c 338.836 204.211 339.867 203.18
 339.867 201.91 c 339.867 200.641 338.836 199.613 337.566 199.613 c h
337.566 199.613 m f
345.258 211.344 m 346.527 211.344 347.559 210.312 347.559 209.043 c 347.559
 207.773 346.527 206.746 345.258 206.746 c 343.988 206.746 342.957 207.773
 342.957 209.043 c 342.957 210.312 343.988 211.344 345.258 211.344 c h
345.258 211.344 m f
330.434 177.102 m 329.164 177.102 328.133 178.129 328.133 179.398 c 328.133
 180.668 329.164 181.699 330.434 181.699 c 331.703 181.699 332.734 180.668
 332.734 179.398 c 332.734 178.129 331.703 177.102 330.434 177.102 c h
330.434 177.102 m f
330.434 191.922 m 329.164 191.922 328.133 192.953 328.133 194.223 c 328.133
 195.492 329.164 196.52 330.434 196.52 c 331.703 196.52 332.734 195.492 
332.734 194.223 c 332.734 192.953 331.703 191.922 330.434 191.922 c h
330.434 191.922 m f
322.746 199.613 m 321.477 199.613 320.445 200.641 320.445 201.91 c 320.445
 203.18 321.477 204.211 322.746 204.211 c 324.016 204.211 325.043 203.18
 325.043 201.91 c 325.043 200.641 324.016 199.613 322.746 199.613 c h
322.746 199.613 m f
330.434 211.344 m 331.703 211.344 332.734 210.312 332.734 209.043 c 332.734
 207.773 331.703 206.746 330.434 206.746 c 329.164 206.746 328.133 207.773
 328.133 209.043 c 328.137 210.312 329.164 211.344 330.434 211.344 c h
330.434 211.344 m f
313.312 194.223 m 313.312 195.492 314.344 196.52 315.613 196.52 c 316.883
 196.52 317.91 195.492 317.91 194.223 c 317.91 192.953 316.883 191.922 315.613
 191.922 c 314.344 191.922 313.312 192.953 313.312 194.223 c h
313.312 194.223 m f
305.621 201.91 m 305.621 203.184 306.652 204.211 307.922 204.211 c 309.191
 204.211 310.223 203.184 310.223 201.91 c 310.223 200.641 309.191 199.613
 307.922 199.613 c 306.652 199.613 305.621 200.641 305.621 201.91 c h
305.621 201.91 m f
315.613 211.344 m 316.883 211.344 317.91 210.312 317.91 209.043 c 317.91
 207.773 316.883 206.746 315.613 206.746 c 314.344 206.746 313.312 207.773
 313.312 209.043 c 313.312 210.312 314.344 211.344 315.613 211.344 c h
315.613 211.344 m f
300.789 191.922 m 299.52 191.922 298.492 192.953 298.492 194.223 c 298.492
 195.492 299.52 196.52 300.789 196.52 c 302.059 196.52 303.09 195.492 303.09
 194.223 c 303.09 192.953 302.059 191.922 300.789 191.922 c h
300.789 191.922 m f
290.801 201.91 m 290.801 203.184 291.828 204.211 293.102 204.211 c 294.371
 204.211 295.398 203.184 295.398 201.91 c 295.398 200.641 294.371 199.613
 293.102 199.613 c 291.828 199.613 290.801 200.641 290.801 201.91 c h
290.801 201.91 m f
300.789 206.746 m 299.52 206.746 298.492 207.773 298.492 209.043 c 298.492
 210.312 299.52 211.344 300.789 211.344 c 302.059 211.344 303.09 210.312
 303.09 209.043 c 303.09 207.773 302.059 206.746 300.789 206.746 c h
300.789 206.746 m f
285.969 191.922 m 284.699 191.922 283.668 192.953 283.668 194.223 c 283.668
 195.492 284.699 196.52 285.969 196.52 c 287.238 196.52 288.266 195.492 
288.266 194.223 c 288.266 192.953 287.238 191.922 285.969 191.922 c h
285.969 191.922 m f
275.977 201.91 m 275.977 203.184 277.008 204.211 278.277 204.211 c 279.547
 204.211 280.578 203.184 280.578 201.91 c 280.578 200.641 279.547 199.613
 278.277 199.613 c 277.008 199.613 275.977 200.641 275.977 201.91 c h
275.977 201.91 m f
285.969 206.746 m 284.699 206.746 283.668 207.773 283.668 209.043 c 283.668
 210.312 284.699 211.344 285.969 211.344 c 287.238 211.344 288.266 210.312
 288.266 209.043 c 288.266 207.773 287.238 206.746 285.969 206.746 c h
285.969 206.746 m f
271.145 191.922 m 269.875 191.922 268.844 192.953 268.844 194.223 c 268.844
 195.492 269.875 196.52 271.145 196.52 c 272.414 196.52 273.445 195.492 
273.445 194.223 c 273.445 192.953 272.414 191.922 271.145 191.922 c h
271.145 191.922 m f
261.156 201.91 m 261.156 203.184 262.184 204.211 263.453 204.211 c 264.723
 204.211 265.754 203.184 265.754 201.91 c 265.754 200.641 264.723 199.613
 263.453 199.613 c 262.184 199.613 261.156 200.641 261.156 201.91 c h
261.156 201.91 m f
271.145 206.746 m 269.875 206.746 268.844 207.773 268.844 209.043 c 268.844
 210.312 269.875 211.344 271.145 211.344 c 272.414 211.344 273.445 210.312
 273.445 209.043 c 273.445 207.773 272.414 206.746 271.145 206.746 c h
271.145 206.746 m f
256.32 191.922 m 255.051 191.922 254.023 192.953 254.023 194.223 c 254.023
 195.492 255.051 196.52 256.32 196.52 c 257.594 196.52 258.621 195.492 258.621
 194.223 c 258.621 192.953 257.594 191.922 256.32 191.922 c h
256.32 191.922 m f
246.332 201.91 m 246.332 203.184 247.363 204.211 248.633 204.211 c 249.902
 204.211 250.93 203.184 250.93 201.91 c 250.93 200.641 249.902 199.613 248.633
 199.613 c 247.363 199.613 246.332 200.641 246.332 201.91 c h
246.332 201.91 m f
256.32 206.746 m 255.051 206.746 254.023 207.773 254.023 209.043 c 254.023
 210.312 255.051 211.344 256.32 211.344 c 257.594 211.344 258.621 210.312
 258.621 209.043 c 258.621 207.773 257.594 206.746 256.32 206.746 c h
256.32 206.746 m f
241.5 191.922 m 240.23 191.922 239.199 192.953 239.199 194.223 c 239.199
 195.492 240.23 196.52 241.5 196.52 c 242.77 196.52 243.797 195.492 243.797
 194.223 c 243.797 192.953 242.77 191.922 241.5 191.922 c h
241.5 191.922 m f
231.512 201.91 m 231.512 203.184 232.539 204.211 233.809 204.211 c 235.078
 204.211 236.109 203.184 236.109 201.91 c 236.109 200.641 235.078 199.613
 233.809 199.613 c 232.539 199.613 231.512 200.641 231.512 201.91 c h
231.512 201.91 m f
241.5 206.746 m 240.23 206.746 239.199 207.773 239.199 209.043 c 239.199
 210.312 240.23 211.344 241.5 211.344 c 242.77 211.344 243.797 210.312 243.797
 209.043 c 243.797 207.773 242.77 206.746 241.5 206.746 c h
241.5 206.746 m f
226.68 191.922 m 225.406 191.922 224.379 192.953 224.379 194.223 c 224.379
 195.492 225.406 196.52 226.68 196.52 c 227.949 196.52 228.977 195.492 228.977
 194.223 c 228.977 192.953 227.949 191.922 226.68 191.922 c h
226.68 191.922 m f
216.688 201.91 m 216.688 203.184 217.719 204.211 218.988 204.211 c 220.258
 204.211 221.285 203.184 221.285 201.91 c 221.285 200.641 220.258 199.613
 218.988 199.613 c 217.719 199.613 216.688 200.641 216.688 201.91 c h
216.688 201.91 m f
226.68 206.746 m 225.406 206.746 224.379 207.773 224.379 209.043 c 224.379
 210.312 225.406 211.344 226.68 211.344 c 227.949 211.344 228.977 210.312
 228.977 209.043 c 228.977 207.773 227.949 206.746 226.68 206.746 c h
226.68 206.746 m f
211.855 191.922 m 210.586 191.922 209.555 192.953 209.555 194.223 c 209.555
 195.492 210.586 196.52 211.855 196.52 c 213.125 196.52 214.156 195.492 
214.156 194.223 c 214.152 192.953 213.125 191.922 211.855 191.922 c h
211.855 191.922 m f
201.867 201.91 m 201.867 203.184 202.895 204.211 204.164 204.211 c 205.434
 204.211 206.465 203.184 206.465 201.91 c 206.465 200.641 205.434 199.613
 204.164 199.613 c 202.895 199.613 201.867 200.641 201.867 201.91 c h
201.867 201.91 m f
211.855 206.746 m 210.586 206.746 209.555 207.773 209.555 209.043 c 209.555
 210.312 210.586 211.344 211.855 211.344 c 213.125 211.344 214.156 210.312
 214.156 209.043 c 214.152 207.773 213.125 206.746 211.855 206.746 c h
211.855 206.746 m f
197.031 191.922 m 195.762 191.922 194.734 192.953 194.734 194.223 c 194.734
 195.492 195.762 196.52 197.031 196.52 c 198.301 196.52 199.332 195.492 
199.332 194.223 c 199.332 192.953 198.301 191.922 197.031 191.922 c h
197.031 191.922 m f
187.043 201.91 m 187.043 203.184 188.07 204.211 189.344 204.211 c 190.613
 204.211 191.641 203.184 191.641 201.91 c 191.641 200.641 190.613 199.613
 189.344 199.613 c 188.074 199.613 187.043 200.641 187.043 201.91 c h
187.043 201.91 m f
197.031 206.746 m 195.762 206.746 194.734 207.773 194.734 209.043 c 194.734
 210.312 195.762 211.344 197.031 211.344 c 198.301 211.344 199.332 210.312
 199.332 209.043 c 199.332 207.773 198.301 206.746 197.031 206.746 c h
197.031 206.746 m f
182.211 191.922 m 180.941 191.922 179.91 192.953 179.91 194.223 c 179.91
 195.492 180.941 196.52 182.211 196.52 c 183.48 196.52 184.508 195.492 184.508
 194.223 c 184.508 192.953 183.48 191.922 182.211 191.922 c h
182.211 191.922 m f
172.223 201.91 m 172.223 203.184 173.25 204.211 174.52 204.211 c 175.789
 204.211 176.82 203.184 176.82 201.91 c 176.82 200.641 175.789 199.613 174.52
 199.613 c 173.25 199.613 172.223 200.641 172.223 201.91 c h
172.223 201.91 m f
182.211 206.746 m 180.941 206.746 179.91 207.773 179.91 209.043 c 179.91
 210.312 180.941 211.344 182.211 211.344 c 183.48 211.344 184.508 210.312
 184.508 209.043 c 184.508 207.773 183.48 206.746 182.211 206.746 c h
182.211 206.746 m f
167.387 191.922 m 166.117 191.922 165.09 192.953 165.09 194.223 c 165.09
 195.492 166.117 196.52 167.387 196.52 c 168.656 196.52 169.688 195.492 
169.688 194.223 c 169.688 192.953 168.656 191.922 167.387 191.922 c h
167.387 191.922 m f
157.398 201.91 m 157.398 203.184 158.43 204.211 159.699 204.211 c 160.969
 204.211 161.996 203.184 161.996 201.91 c 161.996 200.641 160.969 199.613
 159.699 199.613 c 158.43 199.613 157.398 200.641 157.398 201.91 c h
157.398 201.91 m f
167.387 206.746 m 166.117 206.746 165.09 207.773 165.09 209.043 c 165.09
 210.312 166.117 211.344 167.387 211.344 c 168.656 211.344 169.688 210.312
 169.688 209.043 c 169.688 207.773 168.656 206.746 167.387 206.746 c h
167.387 206.746 m f
152.566 191.922 m 151.297 191.922 150.266 192.953 150.266 194.223 c 150.266
 195.492 151.297 196.52 152.566 196.52 c 153.836 196.52 154.863 195.492 
154.863 194.223 c 154.863 192.953 153.836 191.922 152.566 191.922 c h
152.566 191.922 m f
142.574 201.91 m 142.574 203.184 143.605 204.211 144.875 204.211 c 146.145
 204.211 147.176 203.184 147.176 201.91 c 147.176 200.641 146.145 199.613
 144.875 199.613 c 143.605 199.613 142.574 200.641 142.574 201.91 c h
142.574 201.91 m f
152.566 206.746 m 151.297 206.746 150.266 207.773 150.266 209.043 c 150.266
 210.312 151.297 211.344 152.566 211.344 c 153.836 211.344 154.863 210.312
 154.863 209.043 c 154.863 207.773 153.836 206.746 152.566 206.746 c h
152.566 206.746 m f
137.742 191.922 m 136.473 191.922 135.441 192.953 135.441 194.223 c 135.441
 195.492 136.473 196.52 137.742 196.52 c 139.012 196.52 140.043 195.492 
140.043 194.223 c 140.043 192.953 139.012 191.922 137.742 191.922 c h
137.742 191.922 m f
137.742 206.746 m 136.473 206.746 135.441 207.773 135.441 209.043 c 135.441
 210.312 136.473 211.344 137.742 211.344 c 139.012 211.344 140.043 210.312
 140.043 209.043 c 140.043 207.773 139.012 206.746 137.742 206.746 c h
137.742 206.746 m f
320.402 187.09 m 320.402 188.359 321.43 189.391 322.699 189.391 c 323.969
 189.391 325 188.359 325 187.09 c 325 185.82 323.969 184.789 322.699 184.789
 c 321.43 184.789 320.402 185.82 320.402 187.09 c h
320.402 187.09 m f
330.41 162.301 m 329.141 162.301 328.113 163.332 328.113 164.602 c 328.113
 165.871 329.141 166.898 330.41 166.898 c 331.68 166.898 332.711 165.871
 332.711 164.602 c 332.711 163.332 331.68 162.301 330.41 162.301 c h
330.41 162.301 m f
337.543 110.707 m 336.273 110.707 335.242 111.734 335.242 113.004 c 335.242
 114.273 336.273 115.305 337.543 115.305 c 338.812 115.305 339.844 114.273
 339.844 113.004 c 339.844 111.734 338.812 110.707 337.543 110.707 c h
337.543 110.707 m f
337.543 95.855 m 336.273 95.855 335.242 96.887 335.242 98.156 c 335.242
 99.426 336.273 100.453 337.543 100.453 c 338.812 100.453 339.844 99.426
 339.844 98.156 c 339.844 96.887 338.812 95.855 337.543 95.855 c h
337.543 95.855 m f
0.192157 0.215686 0.239216 rg
355.008 202.25 m 355.016 202.203 355.023 202.152 355.027 202.105 c 369.07
 84.297 l 377.422 83.59 384 76.57 384 68.039 c 384 59.039 376.68 51.719 
367.68 51.719 c 87.688 51.719 l 84.57 41.258 l 82.664 33.738 75.926 28.492
 68.16 28.492 c 16.926 28.492 l 7.594 28.492 0 36.086 0 45.418 c 0 54.75
 7.594 62.344 16.926 62.344 c 55.051 62.344 l 102.242 217.953 l 104.324 
267.883 l 104.332 268.086 104.363 268.289 104.41 268.484 c 106.293 276.043
 113.047 281.32 120.836 281.32 c 149.203 281.32 l 134.414 286.594 123.797
 300.73 123.797 317.312 c 123.797 338.375 140.934 355.508 161.996 355.508
 c 183.059 355.508 200.195 338.375 200.195 317.312 c 200.195 300.73 189.574
 286.594 174.785 281.32 c 293.523 281.32 l 278.734 286.594 268.117 300.73
 268.117 317.312 c 268.117 338.375 285.254 355.508 306.316 355.508 c 327.379
 355.508 344.516 338.375 344.516 317.312 c 344.516 300.73 333.895 286.594
 319.105 281.32 c 346.176 281.32 l 355.512 281.32 363.105 273.727 363.105
 264.395 c 363.105 255.059 355.512 247.465 346.176 247.465 c 136.91 247.465
 l 136.801 217.473 l 336.988 217.473 l 345.938 217.473 353.516 211.07 355.008
 202.25 c h
161.996 332.477 m 153.633 332.477 146.828 325.672 146.828 317.312 c 146.828
 308.949 153.633 302.145 161.996 302.145 c 170.355 302.145 177.16 308.949
 177.16 317.312 c 177.16 325.672 170.355 332.477 161.996 332.477 c h
321.48 317.309 m 321.48 325.672 314.68 332.477 306.316 332.477 c 297.953
 332.477 291.152 325.672 291.152 317.309 c 291.152 308.949 297.953 302.145
 306.316 302.145 c 314.68 302.145 321.48 308.949 321.48 317.309 c h
349.062 201.312 m 348.031 207.195 342.965 211.453 336.992 211.453 c 135.301
 211.453 l 97.418 84.359 l 363 84.359 l h
367.68 57.734 m 373.359 57.734 377.98 62.359 377.98 68.039 c 377.98 73.719
 373.359 78.34 367.68 78.34 c 95.621 78.34 l 89.48 57.734 l h
346.176 253.484 m 352.191 253.484 357.086 258.379 357.086 264.395 c 357.086
 270.406 352.191 275.301 346.176 275.301 c 120.836 275.301 l 115.914 275.301
 111.633 272.027 110.324 267.309 c 108.238 217.32 l 108.23 217.066 108.188
 216.812 108.113 216.57 c 60.164 58.465 l 59.777 57.195 58.609 56.328 57.285
 56.328 c 16.926 56.328 l 10.914 56.328 6.02 51.434 6.02 45.418 c 6.02 39.402
 10.914 34.508 16.926 34.508 c 68.16 34.508 l 73.18 34.508 77.535 37.91 
78.746 42.781 c 78.758 42.824 78.77 42.871 78.781 42.914 c 130.785 217.371
 l 130.906 250.484 l 130.91 252.141 132.258 253.484 133.914 253.484 c h
346.176 253.484 m f
209.008 109.84 m 203.504 109.84 199.023 114.316 199.023 119.82 c 199.023
 175.75 l 199.023 181.254 203.504 185.734 209.008 185.734 c 214.512 185.734
 218.992 181.254 218.992 175.75 c 218.992 119.82 l 218.992 114.316 214.512
 109.84 209.008 109.84 c h
212.973 175.75 m 212.973 177.938 211.195 179.715 209.008 179.715 c 206.82
 179.715 205.043 177.938 205.043 175.75 c 205.043 119.82 l 205.043 117.637
 206.82 115.855 209.008 115.855 c 211.195 115.855 212.973 117.637 212.973
 119.82 c h
212.973 175.75 m f
158.637 109.84 m 153.133 109.84 148.656 114.316 148.656 119.82 c 148.656
 175.75 l 148.656 181.254 153.133 185.734 158.637 185.734 c 164.145 185.734
 168.621 181.254 168.621 175.75 c 168.621 119.82 l 168.621 114.316 164.145
 109.84 158.637 109.84 c h
162.605 175.75 m 162.605 177.938 160.824 179.715 158.637 179.715 c 156.453
 179.715 154.672 177.938 154.672 175.75 c 154.672 119.82 l 154.672 117.637
 156.453 115.855 158.637 115.855 c 160.824 115.855 162.605 117.637 162.605
 119.82 c h
162.605 175.75 m f
309.75 109.84 m 304.242 109.84 299.766 114.316 299.766 119.82 c 299.766
 175.75 l 299.766 181.254 304.242 185.734 309.75 185.734 c 315.254 185.734
 319.734 181.254 319.734 175.75 c 319.734 119.82 l 319.73 114.316 315.254
 109.84 309.75 109.84 c h
313.715 175.75 m 313.715 177.938 311.934 179.715 309.75 179.715 c 307.562
 179.715 305.785 177.938 305.785 175.75 c 305.785 119.82 l 305.785 117.637
 307.562 115.855 309.75 115.855 c 311.934 115.855 313.715 117.637 313.715
 119.82 c h
313.715 175.75 m f
259.379 109.84 m 253.871 109.84 249.395 114.316 249.395 119.82 c 249.395
 175.75 l 249.395 181.254 253.871 185.734 259.379 185.734 c 264.883 185.734
 269.363 181.254 269.363 175.75 c 269.363 119.82 l 269.363 114.316 264.883
 109.84 259.379 109.84 c h
263.344 175.75 m 263.344 177.938 261.566 179.715 259.379 179.715 c 257.191
 179.715 255.414 177.938 255.414 175.75 c 255.414 119.82 l 255.414 117.637
 257.191 115.855 259.379 115.855 c 261.566 115.855 263.344 117.637 263.344
 119.82 c h
263.344 175.75 m f
Q Q
showpage
%%Trailer
end
%%EOF
