%!PS-Adobe-3.0 EPSF-3.0
%%Creator: cairo 1.16.0 (https://cairographics.org)
%%CreationDate: Fri Feb 12 12:13:07 2021
%%Pages: 1
%%DocumentData: Clean7Bit
%%LanguageLevel: 2
%%BoundingBox: 0 99 384 285
%%EndComments
%%BeginProlog
50 dict begin
/q { gsave } bind def
/Q { grestore } bind def
/cm { 6 array astore concat } bind def
/w { setlinewidth } bind def
/J { setlinecap } bind def
/j { setlinejoin } bind def
/M { setmiterlimit } bind def
/d { setdash } bind def
/m { moveto } bind def
/l { lineto } bind def
/c { curveto } bind def
/h { closepath } bind def
/re { exch dup neg 3 1 roll 5 3 roll moveto 0 rlineto
      0 exch rlineto 0 rlineto closepath } bind def
/S { stroke } bind def
/f { fill } bind def
/f* { eofill } bind def
/n { newpath } bind def
/W { clip } bind def
/W* { eoclip } bind def
/BT { } bind def
/ET { } bind def
/BDC { mark 3 1 roll /BDC pdfmark } bind def
/EMC { mark /EMC pdfmark } bind def
/cairo_store_point { /cairo_point_y exch def /cairo_point_x exch def } def
/Tj { show currentpoint cairo_store_point } bind def
/TJ {
  {
    dup
    type /stringtype eq
    { show } { -0.001 mul 0 cairo_font_matrix dtransform rmoveto } ifelse
  } forall
  currentpoint cairo_store_point
} bind def
/cairo_selectfont { cairo_font_matrix aload pop pop pop 0 0 6 array astore
    cairo_font exch selectfont cairo_point_x cairo_point_y moveto } bind def
/Tf { pop /cairo_font exch def /cairo_font_matrix where
      { pop cairo_selectfont } if } bind def
/Td { matrix translate cairo_font_matrix matrix concatmatrix dup
      /cairo_font_matrix exch def dup 4 get exch 5 get cairo_store_point
      /cairo_font where { pop cairo_selectfont } if } bind def
/Tm { 2 copy 8 2 roll 6 array astore /cairo_font_matrix exch def
      cairo_store_point /cairo_font where { pop cairo_selectfont } if } bind def
/g { setgray } bind def
/rg { setrgbcolor } bind def
/d1 { setcachedevice } bind def
/cairo_data_source {
  CairoDataIndex CairoData length lt
    { CairoData CairoDataIndex get /CairoDataIndex CairoDataIndex 1 add def }
    { () } ifelse
} def
/cairo_flush_ascii85_file { cairo_ascii85_file status { cairo_ascii85_file flushfile } if } def
/cairo_image { image cairo_flush_ascii85_file } def
/cairo_imagemask { imagemask cairo_flush_ascii85_file } def
%%EndProlog
%%BeginSetup
%%EndSetup
%%Page: 1 1
%%BeginPageSetup
%%PageBoundingBox: 0 99 384 285
%%EndPageSetup
q 0 99 384 186 rectclip
1 0 0 -1 0 384 cm q
0.913725 0.760784 0.470588 rg
340.109 191.535 m 340.109 168.922 358.363 150.574 380.938 150.406 c 380.938
 102.273 l 3.062 102.273 l 3.062 150.402 l 3.105 150.402 3.148 150.398 3.191
 150.398 c 25.91 150.398 44.328 168.816 44.328 191.535 c 44.328 214.254 
25.914 232.672 3.191 232.672 c 3.148 232.672 3.105 232.668 3.062 232.668
 c 3.062 281.727 l 380.938 281.727 l 380.938 232.664 l 358.363 232.496 340.109
 214.152 340.109 191.535 c h
340.109 191.535 m f
0.976471 0.984314 0.988235 rg
368.156 113.637 m 369.449 113.637 370.496 112.59 370.496 111.301 c 370.496
 110.008 369.449 108.961 368.156 108.961 c 366.867 108.961 365.816 110.008
 365.816 111.301 c 365.816 112.59 366.867 113.637 368.156 113.637 c h
368.156 113.637 m f
375.98 120.895 m 377.273 120.895 378.32 119.848 378.32 118.555 c 378.32
 117.262 377.273 116.219 375.98 116.219 c 374.688 116.219 373.641 117.266
 373.641 118.555 c 373.641 119.848 374.688 120.895 375.98 120.895 c h
375.98 120.895 m f
368.156 128.719 m 369.449 128.719 370.496 127.672 370.496 126.379 c 370.496
 125.086 369.449 124.039 368.156 124.039 c 366.867 124.039 365.816 125.086
 365.816 126.379 c 365.816 127.672 366.867 128.719 368.156 128.719 c h
368.156 128.719 m f
375.98 135.973 m 377.273 135.973 378.32 134.926 378.32 133.633 c 378.32
 132.344 377.273 131.297 375.98 131.297 c 374.688 131.297 373.641 132.344
 373.641 133.633 c 373.641 134.926 374.688 135.973 375.98 135.973 c h
375.98 135.973 m f
368.156 143.797 m 369.449 143.797 370.496 142.75 370.496 141.457 c 370.496
 140.164 369.449 139.121 368.156 139.121 c 366.867 139.121 365.816 140.168
 365.816 141.457 c 365.816 142.75 366.867 143.797 368.156 143.797 c h
368.156 143.797 m f
378.32 148.711 m 378.32 147.422 377.273 146.375 375.98 146.375 c 374.688
 146.375 373.641 147.422 373.641 148.711 c 373.641 149.688 374.238 150.52
 375.086 150.871 c 375.836 150.762 376.59 150.672 377.352 150.598 c 377.938
 150.176 378.32 149.492 378.32 148.711 c h
378.32 148.711 m f
375.98 236.848 m 374.688 236.848 373.641 237.895 373.641 239.188 c 373.641
 240.48 374.688 241.527 375.98 241.527 c 377.273 241.527 378.32 240.48 378.32
 239.188 c 378.32 237.895 377.273 236.848 375.98 236.848 c h
375.98 236.848 m f
368.156 244.672 m 366.867 244.672 365.816 245.719 365.816 247.012 c 365.816
 248.301 366.867 249.348 368.156 249.348 c 369.449 249.348 370.496 248.301
 370.496 247.012 c 370.496 245.719 369.449 244.672 368.156 244.672 c h
368.156 244.672 m f
375.98 251.926 m 374.688 251.926 373.641 252.973 373.641 254.266 c 373.641
 255.559 374.688 256.605 375.98 256.605 c 377.273 256.605 378.32 255.559
 378.32 254.266 c 378.32 252.973 377.273 251.926 375.98 251.926 c h
375.98 251.926 m f
368.156 259.75 m 366.867 259.75 365.816 260.797 365.816 262.09 c 365.816
 263.383 366.867 264.426 368.156 264.426 c 369.449 264.426 370.496 263.379
 370.496 262.09 c 370.496 260.797 369.449 259.75 368.156 259.75 c h
368.156 259.75 m f
375.98 267.008 m 374.688 267.008 373.641 268.055 373.641 269.344 c 373.641
 270.637 374.688 271.684 375.98 271.684 c 377.273 271.684 378.32 270.637
 378.32 269.344 c 378.32 268.051 377.273 267.008 375.98 267.008 c h
375.98 267.008 m f
368.156 274.828 m 366.867 274.828 365.816 275.875 365.816 277.168 c 365.816
 278.461 366.867 279.508 368.156 279.508 c 369.449 279.508 370.496 278.461
 370.496 277.168 c 370.496 275.875 369.449 274.828 368.156 274.828 c h
368.156 274.828 m f
353.078 113.637 m 354.371 113.637 355.418 112.59 355.418 111.301 c 355.418
 110.008 354.371 108.961 353.078 108.961 c 351.785 108.961 350.738 110.008
 350.738 111.301 c 350.738 112.59 351.785 113.637 353.078 113.637 c h
353.078 113.637 m f
360.902 120.895 m 362.191 120.895 363.238 119.848 363.238 118.555 c 363.238
 117.262 362.191 116.219 360.902 116.219 c 359.609 116.219 358.562 117.266
 358.562 118.555 c 358.562 119.848 359.609 120.895 360.902 120.895 c h
360.902 120.895 m f
353.078 128.719 m 354.371 128.719 355.418 127.672 355.418 126.379 c 355.418
 125.086 354.371 124.039 353.078 124.039 c 351.785 124.039 350.738 125.086
 350.738 126.379 c 350.738 127.672 351.785 128.719 353.078 128.719 c h
353.078 128.719 m f
360.902 135.973 m 362.191 135.973 363.238 134.926 363.238 133.633 c 363.238
 132.344 362.191 131.297 360.902 131.297 c 359.609 131.297 358.562 132.344
 358.562 133.633 c 358.562 134.926 359.609 135.973 360.902 135.973 c h
360.902 135.973 m f
353.078 143.797 m 354.371 143.797 355.418 142.75 355.418 141.457 c 355.418
 140.164 354.371 139.121 353.078 139.121 c 351.785 139.121 350.738 140.168
 350.738 141.457 c 350.738 142.75 351.785 143.797 353.078 143.797 c h
353.078 143.797 m f
360.902 151.051 m 362.191 151.051 363.238 150.004 363.238 148.715 c 363.238
 147.422 362.191 146.375 360.902 146.375 c 359.609 146.375 358.562 147.422
 358.562 148.715 c 358.562 150.004 359.609 151.051 360.902 151.051 c h
360.902 151.051 m f
353.078 158.875 m 354.371 158.875 355.418 157.828 355.418 156.535 c 355.418
 155.246 354.371 154.199 353.078 154.199 c 351.785 154.199 350.738 155.246
 350.738 156.535 c 350.738 157.828 351.785 158.875 353.078 158.875 c h
353.078 158.875 m f
353.078 229.594 m 351.785 229.594 350.738 230.641 350.738 231.93 c 350.738
 233.223 351.785 234.27 353.078 234.27 c 354.371 234.27 355.418 233.223 
355.418 231.93 c 355.418 230.641 354.371 229.594 353.078 229.594 c h
353.078 229.594 m f
360.902 236.848 m 359.609 236.848 358.562 237.895 358.562 239.188 c 358.562
 240.48 359.609 241.527 360.902 241.527 c 362.191 241.527 363.238 240.48
 363.238 239.188 c 363.242 237.895 362.191 236.848 360.902 236.848 c h
360.902 236.848 m f
353.078 244.672 m 351.785 244.672 350.738 245.719 350.738 247.012 c 350.738
 248.301 351.785 249.348 353.078 249.348 c 354.371 249.348 355.418 248.301
 355.418 247.012 c 355.418 245.719 354.371 244.672 353.078 244.672 c h
353.078 244.672 m f
360.902 251.926 m 359.609 251.926 358.562 252.973 358.562 254.266 c 358.562
 255.559 359.609 256.605 360.902 256.605 c 362.191 256.605 363.238 255.559
 363.238 254.266 c 363.238 252.973 362.191 251.926 360.902 251.926 c h
360.902 251.926 m f
353.078 259.75 m 351.785 259.75 350.738 260.797 350.738 262.09 c 350.738
 263.383 351.785 264.426 353.078 264.426 c 354.371 264.426 355.418 263.379
 355.418 262.09 c 355.418 260.797 354.371 259.75 353.078 259.75 c h
353.078 259.75 m f
360.902 267.008 m 359.609 267.008 358.562 268.055 358.562 269.344 c 358.562
 270.637 359.609 271.684 360.902 271.684 c 362.191 271.684 363.238 270.637
 363.238 269.344 c 363.242 268.051 362.191 267.008 360.902 267.008 c h
360.902 267.008 m f
353.078 274.828 m 351.785 274.828 350.738 275.875 350.738 277.168 c 350.738
 278.461 351.785 279.508 353.078 279.508 c 354.371 279.508 355.418 278.461
 355.418 277.168 c 355.418 275.875 354.371 274.828 353.078 274.828 c h
353.078 274.828 m f
338 113.637 m 339.289 113.637 340.336 112.59 340.336 111.301 c 340.336 
110.008 339.289 108.961 338 108.961 c 336.707 108.961 335.66 110.008 335.66
 111.301 c 335.66 112.59 336.707 113.637 338 113.637 c h
338 113.637 m f
345.82 120.895 m 347.113 120.895 348.16 119.848 348.16 118.555 c 348.16
 117.262 347.113 116.219 345.82 116.219 c 344.531 116.219 343.484 117.266
 343.484 118.555 c 343.484 119.848 344.531 120.895 345.82 120.895 c h
345.82 120.895 m f
338 128.719 m 339.289 128.719 340.336 127.672 340.336 126.379 c 340.336
 125.086 339.289 124.039 338 124.039 c 336.707 124.039 335.66 125.086 335.66
 126.379 c 335.66 127.672 336.707 128.719 338 128.719 c h
338 128.719 m f
345.82 135.973 m 347.113 135.973 348.16 134.926 348.16 133.633 c 348.16
 132.344 347.113 131.297 345.82 131.297 c 344.531 131.297 343.484 132.344
 343.484 133.633 c 343.484 134.926 344.531 135.973 345.82 135.973 c h
345.82 135.973 m f
338 143.797 m 339.289 143.797 340.336 142.75 340.336 141.457 c 340.336 
140.164 339.289 139.121 338 139.121 c 336.707 139.121 335.66 140.168 335.66
 141.457 c 335.66 142.75 336.707 143.797 338 143.797 c h
338 143.797 m f
348.16 148.711 m 348.16 150.004 347.113 151.051 345.82 151.051 c 344.531
 151.051 343.484 150.004 343.484 148.711 c 343.484 147.422 344.531 146.375
 345.82 146.375 c 347.113 146.375 348.16 147.422 348.16 148.711 c h
348.16 148.711 m f
338 158.875 m 339.289 158.875 340.336 157.828 340.336 156.535 c 340.336
 155.246 339.289 154.199 338 154.199 c 336.707 154.199 335.66 155.246 335.66
 156.535 c 335.66 157.828 336.707 158.875 338 158.875 c h
338 158.875 m f
348.16 163.793 m 348.16 165.086 347.113 166.133 345.82 166.133 c 344.531
 166.133 343.484 165.086 343.484 163.793 c 343.484 162.5 344.531 161.453
 345.82 161.453 c 347.113 161.453 348.16 162.5 348.16 163.793 c h
348.16 163.793 m f
338 173.953 m 339.289 173.953 340.336 172.906 340.336 171.617 c 340.336
 170.324 339.289 169.277 338 169.277 c 336.707 169.277 335.66 170.324 335.66
 171.617 c 335.66 172.906 336.707 173.953 338 173.953 c h
338 173.953 m f
338 189.035 m 339.289 189.035 340.336 187.984 340.336 186.695 c 340.336
 185.402 339.289 184.355 338 184.355 c 336.707 184.355 335.66 185.402 335.66
 186.695 c 335.66 187.984 336.707 189.035 338 189.035 c h
338 189.035 m f
338 199.434 m 336.707 199.434 335.66 200.48 335.66 201.773 c 335.66 203.066
 336.707 204.113 338 204.113 c 339.289 204.113 340.336 203.066 340.336 201.773
 c 340.34 200.48 339.293 199.434 338 199.434 c h
338 199.434 m f
338 214.512 m 336.707 214.512 335.66 215.562 335.66 216.852 c 335.66 218.145
 336.707 219.191 338 219.191 c 339.289 219.191 340.336 218.145 340.336 216.852
 c 340.34 215.562 339.293 214.512 338 214.512 c h
338 214.512 m f
348.16 224.109 m 348.16 225.398 347.113 226.445 345.82 226.445 c 344.531
 226.445 343.484 225.398 343.484 224.109 c 343.484 222.816 344.531 221.77
 345.82 221.77 c 347.113 221.77 348.16 222.816 348.16 224.109 c h
348.16 224.109 m f
338 229.594 m 336.707 229.594 335.66 230.641 335.66 231.93 c 335.66 233.223
 336.707 234.27 338 234.27 c 339.289 234.27 340.336 233.223 340.336 231.93
 c 340.34 230.641 339.293 229.594 338 229.594 c h
338 229.594 m f
345.82 236.848 m 344.531 236.848 343.484 237.895 343.484 239.188 c 343.484
 240.48 344.531 241.527 345.82 241.527 c 347.113 241.527 348.16 240.48 348.16
 239.188 c 348.16 237.895 347.113 236.848 345.82 236.848 c h
345.82 236.848 m f
338 244.672 m 336.707 244.672 335.66 245.719 335.66 247.012 c 335.66 248.301
 336.707 249.348 338 249.348 c 339.289 249.348 340.336 248.301 340.336 247.012
 c 340.34 245.719 339.293 244.672 338 244.672 c h
338 244.672 m f
345.82 251.926 m 344.531 251.926 343.484 252.973 343.484 254.266 c 343.484
 255.559 344.531 256.605 345.82 256.605 c 347.113 256.605 348.16 255.559
 348.16 254.266 c 348.16 252.973 347.113 251.926 345.82 251.926 c h
345.82 251.926 m f
338 259.75 m 336.707 259.75 335.66 260.797 335.66 262.09 c 335.66 263.383
 336.707 264.426 338 264.426 c 339.289 264.426 340.336 263.379 340.336 262.09
 c 340.34 260.797 339.293 259.75 338 259.75 c h
338 259.75 m f
345.82 267.008 m 344.531 267.008 343.484 268.055 343.484 269.344 c 343.484
 270.637 344.531 271.684 345.82 271.684 c 347.113 271.684 348.16 270.637
 348.16 269.344 c 348.16 268.051 347.113 267.008 345.82 267.008 c h
345.82 267.008 m f
338 274.828 m 336.707 274.828 335.66 275.875 335.66 277.168 c 335.66 278.461
 336.707 279.508 338 279.508 c 339.289 279.508 340.336 278.461 340.336 277.168
 c 340.336 275.875 339.293 274.828 338 274.828 c h
338 274.828 m f
322.918 108.961 m 321.629 108.961 320.582 110.008 320.582 111.301 c 320.582
 112.594 321.629 113.637 322.918 113.637 c 324.211 113.637 325.258 112.59
 325.258 111.301 c 325.258 110.008 324.211 108.961 322.918 108.961 c h
322.918 108.961 m f
330.742 116.215 m 329.453 116.215 328.406 117.262 328.406 118.555 c 328.406
 119.848 329.453 120.895 330.742 120.895 c 332.035 120.895 333.082 119.848
 333.082 118.555 c 333.082 117.262 332.035 116.215 330.742 116.215 c h
330.742 116.215 m f
322.918 124.039 m 321.629 124.039 320.582 125.086 320.582 126.379 c 320.582
 127.672 321.629 128.719 322.918 128.719 c 324.211 128.719 325.258 127.672
 325.258 126.379 c 325.258 125.086 324.211 124.039 322.918 124.039 c h
322.918 124.039 m f
330.742 131.297 m 329.453 131.297 328.406 132.344 328.406 133.633 c 328.406
 134.926 329.453 135.973 330.742 135.973 c 332.035 135.973 333.082 134.926
 333.082 133.633 c 333.082 132.344 332.035 131.297 330.742 131.297 c h
330.742 131.297 m f
322.918 139.117 m 321.629 139.117 320.582 140.164 320.582 141.457 c 320.582
 142.75 321.629 143.797 322.918 143.797 c 324.211 143.797 325.258 142.75
 325.258 141.457 c 325.258 140.164 324.211 139.117 322.918 139.117 c h
322.918 139.117 m f
333.082 148.711 m 333.082 150.004 332.035 151.051 330.742 151.051 c 329.453
 151.051 328.406 150.004 328.406 148.711 c 328.406 147.422 329.453 146.375
 330.742 146.375 c 332.035 146.375 333.082 147.422 333.082 148.711 c h
333.082 148.711 m f
322.918 154.199 m 321.629 154.199 320.582 155.246 320.582 156.535 c 320.582
 157.828 321.629 158.875 322.918 158.875 c 324.211 158.875 325.258 157.828
 325.258 156.535 c 325.258 155.246 324.211 154.199 322.918 154.199 c h
322.918 154.199 m f
333.082 163.793 m 333.082 165.086 332.035 166.133 330.742 166.133 c 329.453
 166.133 328.406 165.086 328.406 163.793 c 328.406 162.5 329.453 161.453
 330.742 161.453 c 332.035 161.453 333.082 162.5 333.082 163.793 c h
333.082 163.793 m f
322.918 169.277 m 321.629 169.277 320.582 170.324 320.582 171.613 c 320.582
 172.906 321.629 173.953 322.918 173.953 c 324.211 173.953 325.258 172.906
 325.258 171.613 c 325.258 170.324 324.211 169.277 322.918 169.277 c h
322.918 169.277 m f
330.742 176.531 m 329.453 176.531 328.406 177.578 328.406 178.871 c 328.406
 180.164 329.453 181.211 330.742 181.211 c 332.035 181.211 333.082 180.164
 333.082 178.871 c 333.082 177.578 332.035 176.531 330.742 176.531 c h
330.742 176.531 m f
322.918 184.355 m 321.629 184.355 320.582 185.402 320.582 186.695 c 320.582
 187.984 321.629 189.035 322.918 189.035 c 324.211 189.035 325.258 187.984
 325.258 186.695 c 325.258 185.402 324.211 184.355 322.918 184.355 c h
322.918 184.355 m f
333.082 193.949 m 333.082 195.242 332.035 196.289 330.742 196.289 c 329.453
 196.289 328.406 195.242 328.406 193.949 c 328.406 192.66 329.453 191.609
 330.742 191.609 c 332.035 191.609 333.082 192.66 333.082 193.949 c h
333.082 193.949 m f
322.918 199.434 m 321.629 199.434 320.582 200.48 320.582 201.773 c 320.582
 203.066 321.629 204.113 322.918 204.113 c 324.211 204.113 325.258 203.066
 325.258 201.773 c 325.258 200.48 324.211 199.434 322.918 199.434 c h
322.918 199.434 m f
333.082 209.027 m 333.082 210.32 332.035 211.367 330.742 211.367 c 329.453
 211.367 328.406 210.32 328.406 209.027 c 328.406 207.738 329.453 206.691
 330.742 206.691 c 332.035 206.691 333.082 207.738 333.082 209.027 c h
333.082 209.027 m f
322.918 214.512 m 321.629 214.512 320.582 215.562 320.582 216.852 c 320.582
 218.145 321.629 219.191 322.918 219.191 c 324.211 219.191 325.258 218.145
 325.258 216.852 c 325.258 215.562 324.211 214.512 322.918 214.512 c h
322.918 214.512 m f
333.082 224.109 m 333.082 225.398 332.035 226.445 330.742 226.445 c 329.453
 226.445 328.406 225.398 328.406 224.109 c 328.406 222.816 329.453 221.77
 330.742 221.77 c 332.035 221.77 333.082 222.816 333.082 224.109 c h
333.082 224.109 m f
322.918 229.594 m 321.629 229.594 320.582 230.641 320.582 231.93 c 320.582
 233.223 321.629 234.27 322.918 234.27 c 324.211 234.27 325.258 233.223 
325.258 231.93 c 325.258 230.641 324.211 229.594 322.918 229.594 c h
322.918 229.594 m f
330.742 236.848 m 329.453 236.848 328.406 237.895 328.406 239.188 c 328.406
 240.48 329.453 241.527 330.742 241.527 c 332.035 241.527 333.082 240.48
 333.082 239.188 c 333.082 237.895 332.035 236.848 330.742 236.848 c h
330.742 236.848 m f
322.918 244.672 m 321.629 244.672 320.582 245.719 320.582 247.012 c 320.582
 248.301 321.629 249.348 322.918 249.348 c 324.211 249.348 325.258 248.301
 325.258 247.012 c 325.258 245.719 324.211 244.672 322.918 244.672 c h
322.918 244.672 m f
330.742 251.926 m 329.453 251.926 328.406 252.973 328.406 254.266 c 328.406
 255.559 329.453 256.605 330.742 256.605 c 332.035 256.605 333.082 255.559
 333.082 254.266 c 333.082 252.973 332.035 251.926 330.742 251.926 c h
330.742 251.926 m f
322.918 259.75 m 321.629 259.75 320.582 260.797 320.582 262.09 c 320.582
 263.383 321.629 264.426 322.918 264.426 c 324.211 264.426 325.258 263.379
 325.258 262.09 c 325.258 260.797 324.211 259.75 322.918 259.75 c h
322.918 259.75 m f
330.742 267.008 m 329.453 267.008 328.406 268.055 328.406 269.344 c 328.406
 270.637 329.453 271.684 330.742 271.684 c 332.035 271.684 333.082 270.637
 333.082 269.344 c 333.082 268.051 332.035 267.008 330.742 267.008 c h
330.742 267.008 m f
322.918 274.828 m 321.629 274.828 320.582 275.875 320.582 277.168 c 320.582
 278.461 321.629 279.508 322.918 279.508 c 324.211 279.508 325.258 278.461
 325.258 277.168 c 325.258 275.875 324.211 274.828 322.918 274.828 c h
322.918 274.828 m f
315.664 236.848 m 314.371 236.848 313.324 237.895 313.324 239.188 c 313.324
 240.48 314.371 241.527 315.664 241.527 c 316.957 241.527 318.004 240.48
 318.004 239.188 c 318.004 237.895 316.957 236.848 315.664 236.848 c h
315.664 236.848 m f
307.84 244.672 m 306.551 244.672 305.504 245.719 305.504 247.012 c 305.504
 248.301 306.551 249.348 307.84 249.348 c 309.133 249.348 310.18 248.301
 310.18 247.012 c 310.18 245.719 309.133 244.672 307.84 244.672 c h
307.84 244.672 m f
315.664 251.926 m 314.371 251.926 313.324 252.973 313.324 254.266 c 313.324
 255.559 314.371 256.605 315.664 256.605 c 316.957 256.605 318.004 255.559
 318.004 254.266 c 318.004 252.973 316.957 251.926 315.664 251.926 c h
315.664 251.926 m f
307.84 259.75 m 306.551 259.75 305.504 260.797 305.504 262.09 c 305.504
 263.383 306.551 264.426 307.84 264.426 c 309.133 264.426 310.18 263.379
 310.18 262.09 c 310.18 260.797 309.133 259.75 307.84 259.75 c h
307.84 259.75 m f
315.664 267.008 m 314.371 267.008 313.324 268.055 313.324 269.344 c 313.324
 270.637 314.371 271.684 315.664 271.684 c 316.957 271.684 318.004 270.637
 318.004 269.344 c 318.004 268.051 316.957 267.008 315.664 267.008 c h
315.664 267.008 m f
307.84 274.828 m 306.551 274.828 305.504 275.875 305.504 277.168 c 305.504
 278.461 306.551 279.508 307.84 279.508 c 309.133 279.508 310.18 278.461
 310.18 277.168 c 310.18 275.875 309.133 274.828 307.84 274.828 c h
307.84 274.828 m f
300.586 251.926 m 299.293 251.926 298.246 252.973 298.246 254.266 c 298.246
 255.559 299.293 256.605 300.586 256.605 c 301.879 256.605 302.926 255.559
 302.926 254.266 c 302.926 252.973 301.879 251.926 300.586 251.926 c h
300.586 251.926 m f
290.422 262.09 m 290.422 263.383 291.473 264.426 292.762 264.426 c 294.055
 264.426 295.102 263.379 295.102 262.09 c 295.102 260.797 294.055 259.75
 292.762 259.75 c 291.473 259.75 290.422 260.797 290.422 262.09 c h
290.422 262.09 m f
300.586 267.008 m 299.293 267.008 298.246 268.055 298.246 269.344 c 298.246
 270.637 299.293 271.684 300.586 271.684 c 301.879 271.684 302.926 270.637
 302.926 269.344 c 302.926 268.051 301.879 267.008 300.586 267.008 c h
300.586 267.008 m f
292.762 279.508 m 294.055 279.508 295.102 278.461 295.102 277.168 c 295.102
 275.875 294.055 274.828 292.762 274.828 c 291.473 274.828 290.422 275.875
 290.422 277.168 c 290.422 278.461 291.473 279.508 292.762 279.508 c h
292.762 279.508 m f
285.508 251.926 m 284.215 251.926 283.168 252.973 283.168 254.266 c 283.168
 255.559 284.215 256.605 285.508 256.605 c 286.797 256.605 287.848 255.559
 287.848 254.266 c 287.848 252.973 286.797 251.926 285.508 251.926 c h
285.508 251.926 m f
280.023 262.09 m 280.023 263.379 278.977 264.426 277.684 264.426 c 276.391
 264.426 275.344 263.379 275.344 262.09 c 275.344 260.797 276.391 259.75
 277.684 259.75 c 278.977 259.75 280.023 260.797 280.023 262.09 c h
280.023 262.09 m f
285.508 267.008 m 284.215 267.008 283.168 268.055 283.168 269.344 c 283.168
 270.637 284.215 271.684 285.508 271.684 c 286.797 271.684 287.848 270.637
 287.848 269.344 c 287.848 268.051 286.797 267.008 285.508 267.008 c h
285.508 267.008 m f
270.43 251.926 m 269.137 251.926 268.09 252.973 268.09 254.266 c 268.09
 255.559 269.137 256.605 270.43 256.605 c 271.719 256.605 272.766 255.559
 272.766 254.266 c 272.766 252.973 271.719 251.926 270.43 251.926 c h
270.43 251.926 m f
264.945 262.09 m 264.945 263.379 263.895 264.426 262.605 264.426 c 261.312
 264.426 260.266 263.379 260.266 262.09 c 260.266 260.797 261.312 259.75
 262.605 259.75 c 263.895 259.75 264.945 260.797 264.945 262.09 c h
264.945 262.09 m f
270.43 267.008 m 269.137 267.008 268.09 268.055 268.09 269.344 c 268.09
 270.637 269.137 271.684 270.43 271.684 c 271.719 271.684 272.766 270.637
 272.766 269.344 c 272.766 268.051 271.719 267.008 270.43 267.008 c h
270.43 267.008 m f
264.945 277.168 m 264.945 278.461 263.895 279.508 262.605 279.508 c 261.312
 279.508 260.266 278.461 260.266 277.168 c 260.266 275.875 261.312 274.828
 262.605 274.828 c 263.895 274.828 264.945 275.875 264.945 277.168 c h
264.945 277.168 m f
255.348 251.926 m 254.059 251.926 253.008 252.973 253.008 254.266 c 253.008
 255.559 254.059 256.605 255.348 256.605 c 256.641 256.605 257.688 255.559
 257.688 254.266 c 257.688 252.973 256.641 251.926 255.348 251.926 c h
255.348 251.926 m f
247.527 259.75 m 246.234 259.75 245.188 260.797 245.188 262.09 c 245.188
 263.383 246.234 264.426 247.527 264.426 c 248.816 264.426 249.863 263.379
 249.863 262.09 c 249.863 260.797 248.816 259.75 247.527 259.75 c h
247.527 259.75 m f
255.348 267.008 m 254.059 267.008 253.008 268.055 253.008 269.344 c 253.008
 270.637 254.059 271.684 255.348 271.684 c 256.641 271.684 257.688 270.637
 257.688 269.344 c 257.688 268.051 256.641 267.008 255.348 267.008 c h
255.348 267.008 m f
247.527 274.828 m 246.234 274.828 245.188 275.875 245.188 277.168 c 245.188
 278.461 246.234 279.508 247.527 279.508 c 248.816 279.508 249.863 278.461
 249.863 277.168 c 249.863 275.875 248.816 274.828 247.527 274.828 c h
247.527 274.828 m f
240.27 251.926 m 238.977 251.926 237.93 252.973 237.93 254.266 c 237.93
 255.559 238.977 256.605 240.27 256.605 c 241.562 256.605 242.609 255.559
 242.609 254.266 c 242.609 252.973 241.562 251.926 240.27 251.926 c h
240.27 251.926 m f
232.445 259.75 m 231.156 259.75 230.109 260.797 230.109 262.09 c 230.109
 263.383 231.156 264.426 232.445 264.426 c 233.738 264.426 234.785 263.379
 234.785 262.09 c 234.785 260.797 233.738 259.75 232.445 259.75 c h
232.445 259.75 m f
240.27 267.008 m 238.977 267.008 237.93 268.055 237.93 269.344 c 237.93
 270.637 238.977 271.684 240.27 271.684 c 241.562 271.684 242.609 270.637
 242.609 269.344 c 242.609 268.051 241.562 267.008 240.27 267.008 c h
240.27 267.008 m f
232.445 274.828 m 231.156 274.828 230.109 275.875 230.109 277.168 c 230.109
 278.461 231.156 279.508 232.445 279.508 c 233.738 279.508 234.785 278.461
 234.785 277.168 c 234.785 275.875 233.738 274.828 232.445 274.828 c h
232.445 274.828 m f
225.191 251.926 m 223.898 251.926 222.852 252.973 222.852 254.266 c 222.852
 255.559 223.898 256.605 225.191 256.605 c 226.484 256.605 227.531 255.559
 227.531 254.266 c 227.531 252.973 226.484 251.926 225.191 251.926 c h
225.191 251.926 m f
219.707 262.09 m 219.707 263.379 218.66 264.426 217.367 264.426 c 216.074
 264.426 215.027 263.379 215.027 262.09 c 215.027 260.797 216.074 259.75
 217.367 259.75 c 218.66 259.75 219.707 260.797 219.707 262.09 c h
219.707 262.09 m f
225.191 267.008 m 223.898 267.008 222.852 268.055 222.852 269.344 c 222.852
 270.637 223.898 271.684 225.191 271.684 c 226.484 271.684 227.531 270.637
 227.531 269.344 c 227.531 268.051 226.484 267.008 225.191 267.008 c h
225.191 267.008 m f
219.707 277.168 m 219.707 278.461 218.66 279.508 217.367 279.508 c 216.074
 279.508 215.027 278.461 215.027 277.168 c 215.027 275.875 216.074 274.828
 217.367 274.828 c 218.66 274.828 219.707 275.875 219.707 277.168 c h
219.707 277.168 m f
210.113 251.926 m 208.82 251.926 207.773 252.973 207.773 254.266 c 207.773
 255.559 208.82 256.605 210.113 256.605 c 211.402 256.605 212.449 255.559
 212.449 254.266 c 212.449 252.973 211.402 251.926 210.113 251.926 c h
210.113 251.926 m f
202.289 259.75 m 200.996 259.75 199.949 260.797 199.949 262.09 c 199.949
 263.383 200.996 264.426 202.289 264.426 c 203.582 264.426 204.629 263.379
 204.629 262.09 c 204.629 260.797 203.582 259.75 202.289 259.75 c h
202.289 259.75 m f
210.113 267.008 m 208.82 267.008 207.773 268.055 207.773 269.344 c 207.773
 270.637 208.82 271.684 210.113 271.684 c 211.402 271.684 212.449 270.637
 212.449 269.344 c 212.449 268.051 211.402 267.008 210.113 267.008 c h
210.113 267.008 m f
202.289 274.828 m 200.996 274.828 199.949 275.875 199.949 277.168 c 199.949
 278.461 200.996 279.508 202.289 279.508 c 203.582 279.508 204.629 278.461
 204.629 277.168 c 204.629 275.875 203.582 274.828 202.289 274.828 c h
202.289 274.828 m f
195.035 251.926 m 193.742 251.926 192.695 252.973 192.695 254.266 c 192.695
 255.559 193.742 256.605 195.035 256.605 c 196.324 256.605 197.371 255.559
 197.371 254.266 c 197.371 252.973 196.324 251.926 195.035 251.926 c h
195.035 251.926 m f
187.211 259.75 m 185.918 259.75 184.871 260.797 184.871 262.09 c 184.871
 263.383 185.918 264.426 187.211 264.426 c 188.5 264.426 189.547 263.379
 189.547 262.09 c 189.547 260.797 188.5 259.75 187.211 259.75 c h
187.211 259.75 m f
195.035 267.008 m 193.742 267.008 192.695 268.055 192.695 269.344 c 192.695
 270.637 193.742 271.684 195.035 271.684 c 196.324 271.684 197.371 270.637
 197.371 269.344 c 197.371 268.051 196.324 267.008 195.035 267.008 c h
195.035 267.008 m f
187.211 274.828 m 185.918 274.828 184.871 275.875 184.871 277.168 c 184.871
 278.461 185.918 279.508 187.211 279.508 c 188.5 279.508 189.547 278.461
 189.547 277.168 c 189.547 275.875 188.5 274.828 187.211 274.828 c h
187.211 274.828 m f
179.953 251.926 m 178.664 251.926 177.617 252.973 177.617 254.266 c 177.617
 255.559 178.664 256.605 179.953 256.605 c 181.246 256.605 182.293 255.559
 182.293 254.266 c 182.293 252.973 181.246 251.926 179.953 251.926 c h
179.953 251.926 m f
172.133 259.75 m 170.84 259.75 169.793 260.797 169.793 262.09 c 169.793
 263.383 170.84 264.426 172.133 264.426 c 173.422 264.426 174.469 263.379
 174.469 262.09 c 174.469 260.797 173.422 259.75 172.133 259.75 c h
172.133 259.75 m f
179.953 267.008 m 178.664 267.008 177.617 268.055 177.617 269.344 c 177.617
 270.637 178.664 271.684 179.953 271.684 c 181.246 271.684 182.293 270.637
 182.293 269.344 c 182.293 268.051 181.246 267.008 179.953 267.008 c h
179.953 267.008 m f
172.133 274.828 m 170.84 274.828 169.793 275.875 169.793 277.168 c 169.793
 278.461 170.84 279.508 172.133 279.508 c 173.422 279.508 174.469 278.461
 174.469 277.168 c 174.469 275.875 173.422 274.828 172.133 274.828 c h
172.133 274.828 m f
164.875 251.926 m 163.586 251.926 162.535 252.973 162.535 254.266 c 162.535
 255.559 163.586 256.605 164.875 256.605 c 166.168 256.605 167.215 255.559
 167.215 254.266 c 167.215 252.973 166.168 251.926 164.875 251.926 c h
164.875 251.926 m f
157.051 259.75 m 155.762 259.75 154.715 260.797 154.715 262.09 c 154.715
 263.383 155.762 264.426 157.051 264.426 c 158.344 264.426 159.391 263.379
 159.391 262.09 c 159.391 260.797 158.344 259.75 157.051 259.75 c h
157.051 259.75 m f
164.875 267.008 m 163.586 267.008 162.535 268.055 162.535 269.344 c 162.535
 270.637 163.586 271.684 164.875 271.684 c 166.168 271.684 167.215 270.637
 167.215 269.344 c 167.215 268.051 166.168 267.008 164.875 267.008 c h
164.875 267.008 m f
157.051 274.828 m 155.762 274.828 154.715 275.875 154.715 277.168 c 154.715
 278.461 155.762 279.508 157.051 279.508 c 158.344 279.508 159.391 278.461
 159.391 277.168 c 159.391 275.875 158.344 274.828 157.051 274.828 c h
157.051 274.828 m f
149.797 251.926 m 148.504 251.926 147.457 252.973 147.457 254.266 c 147.457
 255.559 148.504 256.605 149.797 256.605 c 151.09 256.605 152.137 255.559
 152.137 254.266 c 152.137 252.973 151.09 251.926 149.797 251.926 c h
149.797 251.926 m f
141.973 259.75 m 140.684 259.75 139.633 260.797 139.633 262.09 c 139.633
 263.383 140.684 264.426 141.973 264.426 c 143.266 264.426 144.312 263.379
 144.312 262.09 c 144.312 260.797 143.266 259.75 141.973 259.75 c h
141.973 259.75 m f
149.797 267.008 m 148.504 267.008 147.457 268.055 147.457 269.344 c 147.457
 270.637 148.504 271.684 149.797 271.684 c 151.09 271.684 152.137 270.637
 152.137 269.344 c 152.137 268.051 151.09 267.008 149.797 267.008 c h
149.797 267.008 m f
141.973 274.828 m 140.684 274.828 139.633 275.875 139.633 277.168 c 139.633
 278.461 140.684 279.508 141.973 279.508 c 143.266 279.508 144.312 278.461
 144.312 277.168 c 144.312 275.875 143.266 274.828 141.973 274.828 c h
141.973 274.828 m f
134.719 251.926 m 133.426 251.926 132.379 252.973 132.379 254.266 c 132.379
 255.559 133.426 256.605 134.719 256.605 c 136.008 256.605 137.055 255.559
 137.055 254.266 c 137.055 252.973 136.008 251.926 134.719 251.926 c h
134.719 251.926 m f
126.895 259.75 m 125.602 259.75 124.555 260.797 124.555 262.09 c 124.555
 263.383 125.602 264.426 126.895 264.426 c 128.188 264.426 129.234 263.379
 129.234 262.09 c 129.234 260.797 128.188 259.75 126.895 259.75 c h
126.895 259.75 m f
134.719 267.008 m 133.426 267.008 132.379 268.055 132.379 269.344 c 132.379
 270.637 133.426 271.684 134.719 271.684 c 136.008 271.684 137.055 270.637
 137.055 269.344 c 137.055 268.051 136.008 267.008 134.719 267.008 c h
134.719 267.008 m f
126.895 274.828 m 125.602 274.828 124.555 275.875 124.555 277.168 c 124.555
 278.461 125.602 279.508 126.895 279.508 c 128.188 279.508 129.234 278.461
 129.234 277.168 c 129.234 275.875 128.188 274.828 126.895 274.828 c h
126.895 274.828 m f
119.637 251.926 m 118.348 251.926 117.301 252.973 117.301 254.266 c 117.301
 255.559 118.348 256.605 119.637 256.605 c 120.93 256.605 121.977 255.559
 121.977 254.266 c 121.977 252.973 120.93 251.926 119.637 251.926 c h
119.637 251.926 m f
111.816 259.75 m 110.523 259.75 109.477 260.797 109.477 262.09 c 109.477
 263.383 110.523 264.426 111.816 264.426 c 113.105 264.426 114.152 263.379
 114.152 262.09 c 114.152 260.797 113.105 259.75 111.816 259.75 c h
111.816 259.75 m f
119.637 267.008 m 118.348 267.008 117.301 268.055 117.301 269.344 c 117.301
 270.637 118.348 271.684 119.637 271.684 c 120.93 271.684 121.977 270.637
 121.977 269.344 c 121.977 268.051 120.93 267.008 119.637 267.008 c h
119.637 267.008 m f
111.816 274.828 m 110.523 274.828 109.477 275.875 109.477 277.168 c 109.477
 278.461 110.523 279.508 111.816 279.508 c 113.105 279.508 114.152 278.461
 114.152 277.168 c 114.152 275.875 113.105 274.828 111.816 274.828 c h
111.816 274.828 m f
104.559 251.926 m 103.266 251.926 102.219 252.973 102.219 254.266 c 102.219
 255.559 103.27 256.605 104.559 256.605 c 105.852 256.605 106.898 255.559
 106.898 254.266 c 106.898 252.973 105.852 251.926 104.559 251.926 c h
104.559 251.926 m f
96.734 259.75 m 95.445 259.75 94.398 260.797 94.398 262.09 c 94.398 263.383
 95.445 264.426 96.734 264.426 c 98.027 264.426 99.074 263.379 99.074 262.09
 c 99.074 260.797 98.027 259.75 96.734 259.75 c h
96.734 259.75 m f
104.559 267.008 m 103.266 267.008 102.219 268.055 102.219 269.344 c 102.219
 270.637 103.27 271.684 104.559 271.684 c 105.852 271.684 106.898 270.637
 106.898 269.344 c 106.898 268.051 105.852 267.008 104.559 267.008 c h
104.559 267.008 m f
96.734 274.828 m 95.445 274.828 94.398 275.875 94.398 277.168 c 94.398 
278.461 95.445 279.508 96.734 279.508 c 98.027 279.508 99.074 278.461 99.074
 277.168 c 99.074 275.875 98.027 274.828 96.734 274.828 c h
96.734 274.828 m f
89.48 251.926 m 88.188 251.926 87.141 252.973 87.141 254.266 c 87.141 255.559
 88.188 256.605 89.48 256.605 c 90.773 256.605 91.82 255.559 91.82 254.266
 c 91.82 252.973 90.773 251.926 89.48 251.926 c h
89.48 251.926 m f
81.656 259.75 m 80.367 259.75 79.32 260.797 79.32 262.09 c 79.32 263.383
 80.367 264.426 81.656 264.426 c 82.949 264.426 83.996 263.379 83.996 262.09
 c 83.996 260.797 82.949 259.75 81.656 259.75 c h
81.656 259.75 m f
89.48 267.008 m 88.188 267.008 87.141 268.055 87.141 269.344 c 87.141 270.637
 88.188 271.684 89.48 271.684 c 90.773 271.684 91.82 270.637 91.82 269.344
 c 91.82 268.051 90.773 267.008 89.48 267.008 c h
89.48 267.008 m f
81.656 274.828 m 80.367 274.828 79.32 275.875 79.32 277.168 c 79.32 278.461
 80.367 279.508 81.656 279.508 c 82.949 279.508 83.996 278.461 83.996 277.168
 c 83.996 275.875 82.949 274.828 81.656 274.828 c h
81.656 274.828 m f
74.402 251.926 m 73.109 251.926 72.062 252.973 72.062 254.266 c 72.062 
255.559 73.109 256.605 74.402 256.605 c 75.695 256.605 76.742 255.559 76.742
 254.266 c 76.742 252.973 75.695 251.926 74.402 251.926 c h
74.402 251.926 m f
66.578 259.75 m 65.285 259.75 64.238 260.797 64.238 262.09 c 64.238 263.383
 65.285 264.426 66.578 264.426 c 67.871 264.426 68.918 263.379 68.918 262.09
 c 68.918 260.797 67.871 259.75 66.578 259.75 c h
66.578 259.75 m f
74.402 267.008 m 73.109 267.008 72.062 268.055 72.062 269.344 c 72.062 
270.637 73.109 271.684 74.402 271.684 c 75.695 271.684 76.742 270.637 76.742
 269.344 c 76.742 268.051 75.695 267.008 74.402 267.008 c h
74.402 267.008 m f
66.578 274.828 m 65.285 274.828 64.238 275.875 64.238 277.168 c 64.238 
278.461 65.285 279.508 66.578 279.508 c 67.871 279.508 68.918 278.461 68.918
 277.168 c 68.918 275.875 67.871 274.828 66.578 274.828 c h
66.578 274.828 m f
59.324 251.926 m 58.031 251.926 56.984 252.973 56.984 254.266 c 56.984 
255.559 58.031 256.605 59.324 256.605 c 60.613 256.605 61.66 255.559 61.66
 254.266 c 61.66 252.973 60.613 251.926 59.324 251.926 c h
59.324 251.926 m f
51.5 259.75 m 50.207 259.75 49.16 260.797 49.16 262.09 c 49.16 263.383 
50.207 264.426 51.5 264.426 c 52.793 264.426 53.84 263.379 53.84 262.09 
c 53.84 260.797 52.793 259.75 51.5 259.75 c h
51.5 259.75 m f
59.324 267.008 m 58.031 267.008 56.984 268.055 56.984 269.344 c 56.984 
270.637 58.031 271.684 59.324 271.684 c 60.613 271.684 61.66 270.637 61.66
 269.344 c 61.66 268.051 60.613 267.008 59.324 267.008 c h
59.324 267.008 m f
51.5 274.828 m 50.207 274.828 49.16 275.875 49.16 277.168 c 49.16 278.461
 50.207 279.508 51.5 279.508 c 52.793 279.508 53.84 278.461 53.84 277.168
 c 53.84 275.875 52.793 274.828 51.5 274.828 c h
51.5 274.828 m f
44.246 251.926 m 42.953 251.926 41.906 252.973 41.906 254.266 c 41.906 
255.559 42.953 256.605 44.246 256.605 c 45.535 256.605 46.582 255.559 46.582
 254.266 c 46.582 252.973 45.535 251.926 44.246 251.926 c h
44.246 251.926 m f
36.422 259.75 m 35.129 259.75 34.082 260.797 34.082 262.09 c 34.082 263.383
 35.129 264.426 36.422 264.426 c 37.711 264.426 38.758 263.379 38.758 262.09
 c 38.758 260.797 37.711 259.75 36.422 259.75 c h
36.422 259.75 m f
44.246 267.008 m 42.953 267.008 41.906 268.055 41.906 269.344 c 41.906 
270.637 42.953 271.684 44.246 271.684 c 45.535 271.684 46.582 270.637 46.582
 269.344 c 46.582 268.051 45.535 267.008 44.246 267.008 c h
44.246 267.008 m f
36.422 274.828 m 35.129 274.828 34.082 275.875 34.082 277.168 c 34.082 
278.461 35.129 279.508 36.422 279.508 c 37.711 279.508 38.758 278.461 38.758
 277.168 c 38.758 275.875 37.711 274.828 36.422 274.828 c h
36.422 274.828 m f
29.164 251.926 m 27.875 251.926 26.824 252.973 26.824 254.266 c 26.824 
255.559 27.875 256.605 29.164 256.605 c 30.457 256.605 31.504 255.559 31.504
 254.266 c 31.504 252.973 30.457 251.926 29.164 251.926 c h
29.164 251.926 m f
23.68 262.09 m 23.68 263.379 22.633 264.426 21.34 264.426 c 20.051 264.426
 19.004 263.379 19.004 262.09 c 19.004 260.797 20.051 259.75 21.34 259.75
 c 22.633 259.75 23.68 260.797 23.68 262.09 c h
23.68 262.09 m f
29.164 267.008 m 27.875 267.008 26.824 268.055 26.824 269.344 c 26.824 
270.637 27.875 271.684 29.164 271.684 c 30.457 271.684 31.504 270.637 31.504
 269.344 c 31.504 268.051 30.457 267.008 29.164 267.008 c h
29.164 267.008 m f
23.68 277.168 m 23.68 278.461 22.633 279.508 21.34 279.508 c 20.051 279.508
 19.004 278.461 19.004 277.168 c 19.004 275.875 20.051 274.828 21.34 274.828
 c 22.633 274.828 23.68 275.875 23.68 277.168 c h
23.68 277.168 m f
14.086 251.926 m 12.793 251.926 11.746 252.973 11.746 254.266 c 11.746 
255.559 12.793 256.605 14.086 256.605 c 15.379 256.605 16.426 255.559 16.426
 254.266 c 16.426 252.973 15.379 251.926 14.086 251.926 c h
14.086 251.926 m f
3.922 262.09 m 3.922 263.383 4.973 264.426 6.262 264.426 c 7.555 264.426
 8.602 263.379 8.602 262.09 c 8.602 260.797 7.555 259.75 6.262 259.75 c 
4.973 259.75 3.922 260.797 3.922 262.09 c h
3.922 262.09 m f
14.086 267.008 m 12.793 267.008 11.746 268.055 11.746 269.344 c 11.746 
270.637 12.793 271.684 14.086 271.684 c 15.379 271.684 16.426 270.637 16.426
 269.344 c 16.426 268.051 15.379 267.008 14.086 267.008 c h
14.086 267.008 m f
6.262 279.508 m 7.555 279.508 8.602 278.461 8.602 277.168 c 8.602 275.875
 7.555 274.828 6.262 274.828 c 4.973 274.828 3.926 275.875 3.926 277.168
 c 3.926 278.461 4.973 279.508 6.262 279.508 c h
6.262 279.508 m f
315.617 116.258 m 314.324 116.258 313.277 117.305 313.277 118.594 c 313.277
 119.887 314.324 120.934 315.617 120.934 c 316.906 120.934 317.953 119.887
 317.953 118.594 c 317.957 117.305 316.906 116.258 315.617 116.258 c h
315.617 116.258 m f
317.953 133.664 m 317.953 134.957 316.906 136.004 315.617 136.004 c 314.324
 136.004 313.277 134.957 313.277 133.664 c 313.277 132.371 314.324 131.324
 315.617 131.324 c 316.906 131.324 317.953 132.371 317.953 133.664 c h
317.953 133.664 m f
315.617 146.395 m 314.324 146.395 313.277 147.441 313.277 148.734 c 313.277
 150.027 314.324 151.07 315.617 151.07 c 316.906 151.07 317.953 150.023 
317.953 148.734 c 317.957 147.441 316.906 146.395 315.617 146.395 c h
315.617 146.395 m f
315.617 161.465 m 314.324 161.465 313.277 162.512 313.277 163.801 c 313.277
 165.094 314.324 166.141 315.617 166.141 c 316.906 166.141 317.953 165.094
 317.953 163.801 c 317.957 162.512 316.906 161.465 315.617 161.465 c h
315.617 161.465 m f
317.953 178.871 m 317.953 180.164 316.906 181.211 315.617 181.211 c 314.324
 181.211 313.277 180.164 313.277 178.871 c 313.277 177.582 314.324 176.531
 315.617 176.531 c 316.906 176.531 317.953 177.582 317.953 178.871 c h
317.953 178.871 m f
315.617 191.602 m 314.324 191.602 313.277 192.648 313.277 193.941 c 313.277
 195.234 314.324 196.281 315.617 196.281 c 316.906 196.281 317.953 195.23
 317.953 193.941 c 317.957 192.648 316.906 191.602 315.617 191.602 c h
315.617 191.602 m f
317.953 209.012 m 317.953 210.301 316.906 211.348 315.617 211.348 c 314.324
 211.348 313.277 210.301 313.277 209.012 c 313.277 207.719 314.324 206.672
 315.617 206.672 c 316.906 206.672 317.953 207.719 317.953 209.012 c h
317.953 209.012 m f
315.617 221.742 m 314.324 221.742 313.277 222.789 313.277 224.078 c 313.277
 225.371 314.324 226.418 315.617 226.418 c 316.906 226.418 317.953 225.371
 317.953 224.078 c 317.957 222.789 316.906 221.742 315.617 221.742 c h
315.617 221.742 m f
0.192157 0.215686 0.239216 rg
380.961 153.469 m 382.645 153.457 384 152.09 384 150.406 c 384 102.273 
l 384 100.582 382.629 99.211 380.938 99.211 c 3.062 99.211 l 1.371 99.211
 0 100.582 0 102.273 c 0 150.402 l 0 151.219 0.324 152.004 0.906 152.578
 c 1.48 153.145 2.254 153.465 3.062 153.465 c 3.09 153.465 l 3.195 153.461
 l 24.188 153.461 41.266 170.543 41.266 191.535 c 41.266 212.531 24.188 
229.609 3.234 229.609 c 3.207 229.609 3.117 229.605 3.09 229.605 c 2.289
 229.621 1.484 229.918 0.906 230.492 c 0.324 231.07 0 231.852 0 232.668 
c 0 281.727 l 0 283.418 1.371 284.789 3.062 284.789 c 380.938 284.789 l 
382.629 284.789 384 283.418 384 281.727 c 384 232.664 l 384 230.98 382.645
 229.613 380.961 229.602 c 360.125 229.449 343.172 212.371 343.172 191.535
 c 343.172 170.699 360.125 153.625 380.961 153.469 c h
337.047 191.535 m 337.047 214.703 355.098 233.863 377.875 235.602 c 377.875
 278.664 l 280.617 278.664 l 280.617 275.289 l 280.617 273.598 279.246 272.227
 277.555 272.227 c 275.863 272.227 274.492 273.598 274.492 275.289 c 274.492
 278.664 l 6.125 278.664 l 6.125 235.637 l 29.137 234.125 47.391 214.922
 47.391 191.535 c 47.391 168.148 29.133 148.949 6.125 147.434 c 6.125 105.336
 l 274.492 105.336 l 274.492 108.688 l 274.492 110.379 275.863 111.75 277.555
 111.75 c 279.246 111.75 280.617 110.379 280.617 108.688 c 280.617 105.336
 l 377.875 105.336 l 377.875 147.473 l 355.098 149.207 337.047 168.367 337.047
 191.535 c h
337.047 191.535 m f
277.555 221.934 m 275.863 221.934 274.492 223.305 274.492 224.992 c 274.492
 234.426 l 274.492 236.117 275.863 237.488 277.555 237.488 c 279.246 237.488
 280.617 236.117 280.617 234.426 c 280.617 224.992 l 280.617 223.305 279.246
 221.934 277.555 221.934 c h
277.555 221.934 m f
277.555 247.078 m 275.863 247.078 274.492 248.449 274.492 250.141 c 274.492
 259.57 l 274.492 261.262 275.863 262.633 277.555 262.633 c 279.246 262.633
 280.617 261.262 280.617 259.57 c 280.617 250.141 l 280.617 248.449 279.246
 247.078 277.555 247.078 c h
277.555 247.078 m f
277.555 121.34 m 275.863 121.34 274.492 122.711 274.492 124.402 c 274.492
 133.832 l 274.492 135.523 275.863 136.895 277.555 136.895 c 279.246 136.895
 280.617 135.523 280.617 133.832 c 280.617 124.402 l 280.617 122.711 279.246
 121.34 277.555 121.34 c h
277.555 121.34 m f
277.555 146.488 m 275.863 146.488 274.492 147.859 274.492 149.551 c 274.492
 158.98 l 274.492 160.672 275.863 162.043 277.555 162.043 c 279.246 162.043
 280.617 160.672 280.617 158.98 c 280.617 149.551 l 280.617 147.859 279.246
 146.488 277.555 146.488 c h
277.555 146.488 m f
277.555 196.785 m 275.863 196.785 274.492 198.156 274.492 199.848 c 274.492
 209.277 l 274.492 210.969 275.863 212.34 277.555 212.34 c 279.246 212.34
 280.617 210.969 280.617 209.277 c 280.617 199.848 l 280.617 198.156 279.246
 196.785 277.555 196.785 c h
277.555 196.785 m f
277.555 171.637 m 275.863 171.637 274.492 173.008 274.492 174.699 c 274.492
 184.129 l 274.492 185.82 275.863 187.191 277.555 187.191 c 279.246 187.191
 280.617 185.82 280.617 184.129 c 280.617 174.699 l 280.617 173.008 279.246
 171.637 277.555 171.637 c h
277.555 171.637 m f
1 g
137.809 246.852 m 137.066 246.852 136.312 246.707 135.59 246.402 c 132.664
 245.176 131.289 241.812 132.516 238.887 c 174.641 138.512 l 175.867 135.59
 179.234 134.215 182.156 135.441 c 185.078 136.668 186.457 140.031 185.23
 142.957 c 143.105 243.332 l 142.184 245.531 140.051 246.852 137.809 246.852
 c h
137.809 246.852 m f
0.192157 0.215686 0.239216 rg
137.809 249.914 m 136.637 249.914 135.492 249.684 134.402 249.227 c 129.926
 247.352 127.812 242.18 129.691 237.703 c 171.816 137.328 l 173.695 132.852
 178.867 130.738 183.34 132.617 c 187.82 134.492 189.93 139.664 188.055 
144.141 c 145.93 244.516 l 144.551 247.797 141.363 249.914 137.809 249.914
 c h
179.938 138.055 m 178.891 138.055 177.895 138.672 177.465 139.699 c 135.34
 240.074 l 134.77 241.434 135.41 243.008 136.773 243.578 c 137.105 243.719
 137.453 243.789 137.809 243.789 c 138.891 243.789 139.863 243.145 140.281
 242.148 c 182.406 141.77 l 182.977 140.41 182.332 138.836 180.973 138.266
 c 180.633 138.121 180.285 138.055 179.938 138.055 c h
179.938 138.055 m f
1 g
129.746 185.059 m 116.316 185.059 105.391 172.777 105.391 157.688 c 105.391
 142.594 116.316 130.312 129.746 130.312 c 143.176 130.312 154.102 142.594
 154.102 157.688 c 154.102 172.777 143.176 185.059 129.746 185.059 c h
129.746 141.797 m 122.648 141.797 116.875 148.926 116.875 157.688 c 116.875
 166.445 122.648 173.574 129.746 173.574 c 136.844 173.574 142.617 166.445
 142.617 157.688 c 142.617 148.926 136.844 141.797 129.746 141.797 c h
129.746 141.797 m f
0.192157 0.215686 0.239216 rg
129.746 188.121 m 114.629 188.121 102.328 174.465 102.328 157.688 c 102.328
 140.906 114.629 127.254 129.746 127.254 c 144.863 127.254 157.164 140.906
 157.164 157.688 c 157.164 174.465 144.863 188.121 129.746 188.121 c h
129.746 133.375 m 118.004 133.375 108.453 144.281 108.453 157.688 c 108.453
 171.09 118.004 181.996 129.746 181.996 c 141.488 181.996 151.039 171.09
 151.039 157.688 c 151.039 144.281 141.488 133.375 129.746 133.375 c h
129.746 176.637 m 120.961 176.637 113.812 168.133 113.812 157.688 c 113.812
 147.238 120.961 138.734 129.746 138.734 c 138.531 138.734 145.68 147.238
 145.68 157.688 c 145.68 168.133 138.531 176.637 129.746 176.637 c h
129.746 144.859 m 124.336 144.859 119.938 150.613 119.938 157.688 c 119.938
 164.758 124.336 170.512 129.746 170.512 c 135.152 170.512 139.555 164.758
 139.555 157.688 c 139.555 150.613 135.152 144.859 129.746 144.859 c h
129.746 144.859 m f
1 g
186.637 253.688 m 173.207 253.688 162.281 241.406 162.281 226.312 c 162.281
 211.223 173.207 198.941 186.637 198.941 c 200.066 198.941 210.992 211.223
 210.992 226.312 c 210.992 241.406 200.066 253.688 186.637 253.688 c h
186.637 210.426 m 179.539 210.426 173.766 217.555 173.766 226.312 c 173.766
 235.074 179.539 242.203 186.637 242.203 c 193.734 242.203 199.508 235.074
 199.508 226.312 c 199.508 217.555 193.734 210.426 186.637 210.426 c h
186.637 210.426 m f
0.192157 0.215686 0.239216 rg
186.637 256.746 m 171.52 256.746 159.219 243.094 159.219 226.312 c 159.219
 209.535 171.52 195.879 186.637 195.879 c 201.754 195.879 214.055 209.535
 214.055 226.312 c 214.055 243.094 201.754 256.746 186.637 256.746 c h
186.637 202.004 m 174.898 202.004 165.344 212.91 165.344 226.312 c 165.344
 239.719 174.898 250.625 186.637 250.625 c 198.379 250.625 207.93 239.719
 207.93 226.312 c 207.93 212.91 198.379 202.004 186.637 202.004 c h
186.637 245.266 m 177.852 245.266 170.703 236.762 170.703 226.312 c 170.703
 215.867 177.852 207.363 186.637 207.363 c 195.422 207.363 202.57 215.867
 202.57 226.312 c 202.57 236.762 195.422 245.266 186.637 245.266 c h
186.637 213.488 m 181.227 213.488 176.828 219.242 176.828 226.312 c 176.828
 233.387 181.227 239.141 186.637 239.141 c 192.047 239.141 196.445 233.387
 196.445 226.312 c 196.445 219.242 192.047 213.488 186.637 213.488 c h
186.637 213.488 m f
Q Q
showpage
%%Trailer
end
%%EOF
