%!PS-Adobe-3.0 EPSF-3.0
%%Creator: cairo 1.16.0 (https://cairographics.org)
%%CreationDate: Fri Feb 12 12:13:10 2021
%%Pages: 1
%%DocumentData: Clean7Bit
%%LanguageLevel: 2
%%BoundingBox: 17 0 367 384
%%EndComments
%%BeginProlog
50 dict begin
/q { gsave } bind def
/Q { grestore } bind def
/cm { 6 array astore concat } bind def
/w { setlinewidth } bind def
/J { setlinecap } bind def
/j { setlinejoin } bind def
/M { setmiterlimit } bind def
/d { setdash } bind def
/m { moveto } bind def
/l { lineto } bind def
/c { curveto } bind def
/h { closepath } bind def
/re { exch dup neg 3 1 roll 5 3 roll moveto 0 rlineto
      0 exch rlineto 0 rlineto closepath } bind def
/S { stroke } bind def
/f { fill } bind def
/f* { eofill } bind def
/n { newpath } bind def
/W { clip } bind def
/W* { eoclip } bind def
/BT { } bind def
/ET { } bind def
/BDC { mark 3 1 roll /BDC pdfmark } bind def
/EMC { mark /EMC pdfmark } bind def
/cairo_store_point { /cairo_point_y exch def /cairo_point_x exch def } def
/Tj { show currentpoint cairo_store_point } bind def
/TJ {
  {
    dup
    type /stringtype eq
    { show } { -0.001 mul 0 cairo_font_matrix dtransform rmoveto } ifelse
  } forall
  currentpoint cairo_store_point
} bind def
/cairo_selectfont { cairo_font_matrix aload pop pop pop 0 0 6 array astore
    cairo_font exch selectfont cairo_point_x cairo_point_y moveto } bind def
/Tf { pop /cairo_font exch def /cairo_font_matrix where
      { pop cairo_selectfont } if } bind def
/Td { matrix translate cairo_font_matrix matrix concatmatrix dup
      /cairo_font_matrix exch def dup 4 get exch 5 get cairo_store_point
      /cairo_font where { pop cairo_selectfont } if } bind def
/Tm { 2 copy 8 2 roll 6 array astore /cairo_font_matrix exch def
      cairo_store_point /cairo_font where { pop cairo_selectfont } if } bind def
/g { setgray } bind def
/rg { setrgbcolor } bind def
/d1 { setcachedevice } bind def
/cairo_data_source {
  CairoDataIndex CairoData length lt
    { CairoData CairoDataIndex get /CairoDataIndex CairoDataIndex 1 add def }
    { () } ifelse
} def
/cairo_flush_ascii85_file { cairo_ascii85_file status { cairo_ascii85_file flushfile } if } def
/cairo_image { image cairo_flush_ascii85_file } def
/cairo_imagemask { imagemask cairo_flush_ascii85_file } def
%%EndProlog
%%BeginSetup
%%EndSetup
%%Page: 1 1
%%BeginPageSetup
%%PageBoundingBox: 17 0 367 384
%%EndPageSetup
q 17 0 350 384 rectclip
1 0 0 -1 0 384 cm q
0.976471 0.984314 0.988235 rg
320.098 240.66 m 324.695 245.828 331.539 249.121 339.172 249.133 c 352.93
 249.16 364.027 238.543 363.953 225.414 c 363.883 212.504 353.039 201.984
 339.59 201.617 c 340.34 197.336 340.734 192.934 340.734 188.445 c 340.734
 105.117 l 340.734 62.914 306.203 28.383 264 28.383 c 236.426 28.383 l 194.223
 28.383 159.691 62.914 159.691 105.117 c 159.691 188.445 l 159.691 192.934
 160.086 197.336 160.836 201.621 c 147.434 202.035 136.641 212.535 136.57
 225.414 c 136.496 238.543 147.594 249.16 161.352 249.133 c 168.957 249.121
 175.781 245.848 180.379 240.711 c 191.531 252.656 206.426 261.066 223.145
 264.016 c 223.176 300.531 l 178.285 308.875 150.414 344.922 150.414 380.965
 c 250.262 380.98 l 350.109 380.965 l 350.109 344.941 322.266 308.91 277.414
 300.543 c 277.383 264 l 294.086 261.031 308.961 252.609 320.098 240.66 
c h
320.098 240.66 m f
0.913725 0.760784 0.470588 rg
284.551 302.16 m 284.551 302.16 287.039 326.359 250.625 326.359 c 214.215
 326.359 216.477 302.16 216.477 302.16 c 174.184 311.98 150.414 346.125 
150.414 380.965 c 250.262 380.98 l 350.109 380.965 l 350.109 346.125 326.836
 311.984 284.551 302.16 c h
284.551 302.16 m f
338.566 200.422 m 341.664 200.422 344.227 197.98 344.332 194.887 c 344.359
 194.008 344.375 193.129 344.375 192.246 c 344.453 109.477 l 344.453 65.539
 308.504 29.594 264.57 29.594 c 235.863 29.594 l 191.926 29.594 155.977 
65.539 155.977 109.477 c 155.898 192.246 l 155.898 193.008 155.91 193.77
 155.934 194.531 c 156.027 197.82 158.766 200.422 162.062 200.422 c 165.355
 200.422 161.309 116.652 200.418 88.57 c 209.727 81.887 228.199 122.004 
239.273 114.832 c 247.57 109.453 238.742 95.336 238.742 95.336 c 238.742
 95.336 256.473 114.871 264.574 109.758 c 273.098 104.383 264.574 89.695
 264.574 89.695 c 264.574 89.695 280.652 116.652 291.684 109.129 c 302.715
 101.605 289.809 89.586 290.793 88.281 c 293.297 84.977 303.656 89.301 306.277
 91.398 c 342 119.98 338.566 200.422 338.566 200.422 c h
338.566 200.422 m f
0.917647 0.658824 0.584314 rg
329.059 61.07 m 324.477 28.383 296.219 3.02 262.32 3.02 c 238.105 3.02 
l 204.207 3.02 175.949 28.383 171.367 61.07 c h
329.059 61.07 m f
0.913725 0.654902 0.580392 rg
209.73 296.297 m 167.457 308.777 141.68 344.867 141.68 380.973 c 209.73
 380.98 l h
209.73 296.297 m f
290.793 296.297 m 333.066 308.777 358.844 344.867 358.844 380.973 c 290.793
 380.98 l h
290.793 296.297 m f
0.976471 0.984314 0.988235 rg
330.859 359.801 m 310.742 359.801 l 308.676 359.801 307 358.125 307 356.055
 c 307 349.039 l 307 346.973 308.672 345.297 310.742 345.297 c 330.859 345.297
 l 332.926 345.297 334.602 346.973 334.602 349.039 c 334.602 356.055 l 334.602
 358.125 332.926 359.801 330.859 359.801 c h
330.859 359.801 m f
0.913725 0.760784 0.470588 rg
163.383 265.031 m 24.801 265.031 l 22.176 265.031 20.043 267.16 20.043 
269.789 c 20.043 376.223 l 20.043 378.852 22.176 380.98 24.801 380.98 c 
163.383 380.98 l 166.012 380.98 168.141 378.852 168.141 376.223 c 168.141
 269.789 l 168.141 267.16 166.012 265.031 163.383 265.031 c h
163.383 265.031 m f
1 g
78.547 265.031 31.09 64.848 re f
0.976471 0.984314 0.988235 rg
162.953 269.781 m 161.68 269.781 160.648 270.812 160.648 272.086 c 160.648
 273.359 161.68 274.395 162.953 274.395 c 164.227 274.395 165.262 273.359
 165.262 272.086 c 165.262 270.812 164.227 269.781 162.953 269.781 c h
162.953 269.781 m f
155.242 277.492 m 153.965 277.492 152.934 278.527 152.934 279.801 c 152.934
 281.074 153.965 282.105 155.242 282.105 c 156.516 282.105 157.547 281.074
 157.547 279.801 c 157.547 278.527 156.516 277.492 155.242 277.492 c h
155.242 277.492 m f
162.953 284.648 m 161.68 284.648 160.648 285.68 160.648 286.953 c 160.648
 288.227 161.68 289.262 162.953 289.262 c 164.227 289.262 165.262 288.227
 165.262 286.953 c 165.262 285.68 164.227 284.648 162.953 284.648 c h
162.953 284.648 m f
155.242 292.363 m 153.965 292.363 152.934 293.395 152.934 294.668 c 152.934
 295.941 153.965 296.973 155.242 296.973 c 156.516 296.973 157.547 295.941
 157.547 294.668 c 157.547 293.395 156.516 292.363 155.242 292.363 c h
155.242 292.363 m f
162.953 299.516 m 161.68 299.516 160.648 300.547 160.648 301.82 c 160.648
 303.094 161.68 304.125 162.953 304.125 c 164.227 304.125 165.262 303.094
 165.262 301.82 c 165.262 300.547 164.227 299.516 162.953 299.516 c h
162.953 299.516 m f
155.242 307.23 m 153.965 307.23 152.934 308.262 152.934 309.535 c 152.934
 310.809 153.965 311.84 155.242 311.84 c 156.516 311.84 157.547 310.809 
157.547 309.535 c 157.547 308.262 156.516 307.23 155.242 307.23 c h
155.242 307.23 m f
162.953 314.383 m 161.68 314.383 160.648 315.414 160.648 316.688 c 160.648
 317.961 161.68 318.996 162.953 318.996 c 164.227 318.996 165.262 317.961
 165.262 316.688 c 165.262 315.414 164.227 314.383 162.953 314.383 c h
162.953 314.383 m f
155.242 322.098 m 153.965 322.098 152.934 323.129 152.934 324.402 c 152.934
 325.676 153.965 326.711 155.242 326.711 c 156.516 326.711 157.547 325.676
 157.547 324.402 c 157.547 323.129 156.516 322.098 155.242 322.098 c h
155.242 322.098 m f
162.953 329.25 m 161.68 329.25 160.648 330.281 160.648 331.555 c 160.648
 332.828 161.68 333.863 162.953 333.863 c 164.227 333.863 165.262 332.828
 165.262 331.555 c 165.262 330.281 164.227 329.25 162.953 329.25 c h
162.953 329.25 m f
155.242 336.965 m 153.965 336.965 152.934 337.996 152.934 339.27 c 152.934
 340.543 153.965 341.578 155.242 341.578 c 156.516 341.578 157.547 340.543
 157.547 339.27 c 157.547 337.996 156.516 336.965 155.242 336.965 c h
155.242 336.965 m f
162.953 344.117 m 161.68 344.117 160.648 345.152 160.648 346.422 c 160.648
 347.699 161.68 348.73 162.953 348.73 c 164.227 348.73 165.262 347.699 165.262
 346.422 c 165.262 345.152 164.227 344.117 162.953 344.117 c h
162.953 344.117 m f
155.242 351.832 m 153.965 351.832 152.934 352.863 152.934 354.137 c 152.934
 355.41 153.965 356.445 155.242 356.445 c 156.516 356.445 157.547 355.41
 157.547 354.137 c 157.547 352.863 156.516 351.832 155.242 351.832 c h
155.242 351.832 m f
162.953 358.984 m 161.68 358.984 160.648 360.02 160.648 361.289 c 160.648
 362.562 161.68 363.598 162.953 363.598 c 164.227 363.598 165.262 362.562
 165.262 361.289 c 165.262 360.016 164.227 358.984 162.953 358.984 c h
162.953 358.984 m f
155.242 366.699 m 153.965 366.699 152.934 367.73 152.934 369.004 c 152.934
 370.277 153.965 371.312 155.242 371.312 c 156.516 371.312 157.547 370.277
 157.547 369.004 c 157.547 367.73 156.516 366.699 155.242 366.699 c h
155.242 366.699 m f
165.262 376.16 m 165.262 374.887 164.227 373.852 162.953 373.852 c 161.68
 373.852 160.648 374.887 160.648 376.16 c 160.648 377.434 161.68 378.465
 162.953 378.465 c 164.227 378.465 165.262 377.434 165.262 376.16 c h
165.262 376.16 m f
148.086 269.781 m 146.812 269.781 145.781 270.812 145.781 272.086 c 145.781
 273.359 146.812 274.395 148.086 274.395 c 149.359 274.395 150.395 273.359
 150.395 272.086 c 150.391 270.812 149.359 269.781 148.086 269.781 c h
148.086 269.781 m f
148.086 284.648 m 146.812 284.648 145.781 285.68 145.781 286.953 c 145.781
 288.227 146.812 289.262 148.086 289.262 c 149.359 289.262 150.395 288.227
 150.395 286.953 c 150.395 285.68 149.359 284.648 148.086 284.648 c h
148.086 284.648 m f
148.086 299.516 m 146.812 299.516 145.781 300.547 145.781 301.82 c 145.781
 303.094 146.812 304.125 148.086 304.125 c 149.359 304.125 150.395 303.094
 150.395 301.82 c 150.391 300.547 149.359 299.516 148.086 299.516 c h
148.086 299.516 m f
148.086 314.383 m 146.812 314.383 145.781 315.414 145.781 316.688 c 145.781
 317.961 146.812 318.996 148.086 318.996 c 149.359 318.996 150.395 317.961
 150.395 316.688 c 150.391 315.414 149.359 314.383 148.086 314.383 c h
148.086 314.383 m f
148.086 329.25 m 146.812 329.25 145.781 330.281 145.781 331.555 c 145.781
 332.828 146.812 333.863 148.086 333.863 c 149.359 333.863 150.395 332.828
 150.395 331.555 c 150.391 330.281 149.359 329.25 148.086 329.25 c h
148.086 329.25 m f
148.086 344.117 m 146.812 344.117 145.781 345.152 145.781 346.422 c 145.781
 347.699 146.812 348.73 148.086 348.73 c 149.359 348.73 150.395 347.699 
150.395 346.422 c 150.391 345.152 149.359 344.117 148.086 344.117 c h
148.086 344.117 m f
148.086 358.984 m 146.812 358.984 145.781 360.02 145.781 361.289 c 145.781
 362.562 146.812 363.598 148.086 363.598 c 149.359 363.598 150.395 362.562
 150.395 361.289 c 150.395 360.016 149.359 358.984 148.086 358.984 c h
148.086 358.984 m f
138.066 369.004 m 138.066 370.281 139.098 371.312 140.371 371.312 c 141.648
 371.312 142.68 370.281 142.68 369.004 c 142.68 367.73 141.648 366.699 140.371
 366.699 c 139.098 366.699 138.066 367.73 138.066 369.004 c h
138.066 369.004 m f
150.395 376.16 m 150.395 377.434 149.359 378.465 148.086 378.465 c 146.812
 378.465 145.781 377.434 145.781 376.16 c 145.781 374.887 146.812 373.852
 148.086 373.852 c 149.359 373.852 150.395 374.887 150.395 376.16 c h
150.395 376.16 m f
133.219 358.984 m 131.945 358.984 130.914 360.02 130.914 361.289 c 130.914
 362.562 131.945 363.598 133.219 363.598 c 134.492 363.598 135.523 362.562
 135.523 361.289 c 135.523 360.016 134.492 358.984 133.219 358.984 c h
133.219 358.984 m f
123.199 369.004 m 123.199 370.281 124.23 371.312 125.504 371.312 c 126.777
 371.312 127.812 370.281 127.812 369.004 c 127.812 367.73 126.777 366.699
 125.504 366.699 c 124.23 366.699 123.199 367.73 123.199 369.004 c h
123.199 369.004 m f
133.219 373.852 m 131.945 373.852 130.914 374.887 130.914 376.16 c 130.914
 377.434 131.945 378.465 133.219 378.465 c 134.492 378.465 135.523 377.434
 135.523 376.16 c 135.523 374.887 134.492 373.852 133.219 373.852 c h
133.219 373.852 m f
118.352 358.984 m 117.078 358.984 116.047 360.02 116.047 361.289 c 116.047
 362.562 117.078 363.598 118.352 363.598 c 119.625 363.598 120.656 362.562
 120.656 361.289 c 120.656 360.016 119.625 358.984 118.352 358.984 c h
118.352 358.984 m f
108.332 369.004 m 108.332 370.281 109.363 371.312 110.637 371.312 c 111.91
 371.312 112.945 370.281 112.945 369.004 c 112.945 367.73 111.91 366.699
 110.637 366.699 c 109.363 366.699 108.332 367.73 108.332 369.004 c h
108.332 369.004 m f
118.352 373.852 m 117.078 373.852 116.047 374.887 116.047 376.16 c 116.047
 377.434 117.078 378.465 118.352 378.465 c 119.625 378.465 120.656 377.434
 120.656 376.16 c 120.656 374.887 119.625 373.852 118.352 373.852 c h
118.352 373.852 m f
103.484 358.984 m 102.211 358.984 101.18 360.02 101.18 361.289 c 101.18
 362.562 102.211 363.598 103.484 363.598 c 104.758 363.598 105.789 362.562
 105.789 361.289 c 105.789 360.016 104.758 358.984 103.484 358.984 c h
103.484 358.984 m f
93.465 369.004 m 93.465 370.281 94.496 371.312 95.77 371.312 c 97.043 371.312
 98.078 370.281 98.078 369.004 c 98.078 367.73 97.043 366.699 95.77 366.699
 c 94.496 366.699 93.465 367.73 93.465 369.004 c h
93.465 369.004 m f
103.484 373.852 m 102.211 373.852 101.18 374.887 101.18 376.16 c 101.18
 377.434 102.211 378.465 103.484 378.465 c 104.758 378.465 105.789 377.434
 105.789 376.16 c 105.789 374.887 104.758 373.852 103.484 373.852 c h
103.484 373.852 m f
88.617 358.984 m 87.344 358.984 86.309 360.02 86.309 361.289 c 86.309 362.562
 87.344 363.598 88.617 363.598 c 89.891 363.598 90.922 362.562 90.922 361.289
 c 90.922 360.016 89.891 358.984 88.617 358.984 c h
88.617 358.984 m f
78.598 369.004 m 78.598 370.281 79.629 371.312 80.902 371.312 c 82.176 
371.312 83.211 370.281 83.211 369.004 c 83.211 367.73 82.176 366.699 80.902
 366.699 c 79.629 366.699 78.598 367.73 78.598 369.004 c h
78.598 369.004 m f
88.617 373.852 m 87.344 373.852 86.309 374.887 86.309 376.16 c 86.309 377.434
 87.344 378.465 88.617 378.465 c 89.891 378.465 90.922 377.434 90.922 376.16
 c 90.922 374.887 89.891 373.852 88.617 373.852 c h
88.617 373.852 m f
73.75 358.984 m 72.477 358.984 71.441 360.02 71.441 361.289 c 71.441 362.562
 72.477 363.598 73.75 363.598 c 75.023 363.598 76.055 362.562 76.055 361.289
 c 76.055 360.016 75.023 358.984 73.75 358.984 c h
73.75 358.984 m f
63.73 369.004 m 63.73 370.281 64.762 371.312 66.035 371.312 c 67.309 371.312
 68.34 370.281 68.34 369.004 c 68.34 367.73 67.309 366.699 66.035 366.699
 c 64.762 366.699 63.73 367.73 63.73 369.004 c h
63.73 369.004 m f
73.75 373.852 m 72.477 373.852 71.441 374.887 71.441 376.16 c 71.441 377.434
 72.477 378.465 73.75 378.465 c 75.023 378.465 76.055 377.434 76.055 376.16
 c 76.055 374.887 75.023 373.852 73.75 373.852 c h
73.75 373.852 m f
58.883 358.984 m 57.609 358.984 56.574 360.02 56.574 361.289 c 56.574 362.562
 57.609 363.598 58.883 363.598 c 60.156 363.598 61.188 362.562 61.188 361.289
 c 61.188 360.016 60.156 358.984 58.883 358.984 c h
58.883 358.984 m f
48.863 369.004 m 48.863 370.281 49.895 371.312 51.168 371.312 c 52.441 
371.312 53.473 370.281 53.473 369.004 c 53.473 367.73 52.441 366.699 51.168
 366.699 c 49.895 366.699 48.863 367.73 48.863 369.004 c h
48.863 369.004 m f
58.883 373.852 m 57.609 373.852 56.574 374.887 56.574 376.16 c 56.574 377.434
 57.609 378.465 58.883 378.465 c 60.156 378.465 61.188 377.434 61.188 376.16
 c 61.188 374.887 60.156 373.852 58.883 373.852 c h
58.883 373.852 m f
44.016 358.984 m 42.742 358.984 41.707 360.02 41.707 361.289 c 41.707 362.562
 42.742 363.598 44.016 363.598 c 45.289 363.598 46.32 362.562 46.32 361.289
 c 46.32 360.016 45.289 358.984 44.016 358.984 c h
44.016 358.984 m f
33.996 369.004 m 33.996 370.281 35.027 371.312 36.301 371.312 c 37.574 
371.312 38.605 370.281 38.605 369.004 c 38.605 367.73 37.574 366.699 36.301
 366.699 c 35.027 366.699 33.996 367.73 33.996 369.004 c h
33.996 369.004 m f
44.016 373.852 m 42.742 373.852 41.707 374.887 41.707 376.16 c 41.707 377.434
 42.742 378.465 44.016 378.465 c 45.289 378.465 46.32 377.434 46.32 376.16
 c 46.32 374.887 45.289 373.852 44.016 373.852 c h
44.016 373.852 m f
26.84 361.293 m 26.84 362.566 27.871 363.598 29.148 363.598 c 30.422 363.598
 31.453 362.566 31.453 361.293 c 31.453 360.02 30.422 358.984 29.148 358.984
 c 27.871 358.984 26.84 360.02 26.84 361.293 c h
26.84 361.293 m f
31.453 376.16 m 31.453 377.434 30.422 378.465 29.148 378.465 c 27.871 378.465
 26.84 377.434 26.84 376.16 c 26.84 374.887 27.871 373.852 29.148 373.852
 c 30.422 373.852 31.453 374.887 31.453 376.16 c h
31.453 376.16 m f
0.917647 0.658824 0.584314 rg
266.41 271.973 m 266.41 273.512 267.656 274.754 269.191 274.754 c 270.727
 274.754 271.969 273.512 271.969 271.973 c 271.969 270.438 270.727 269.195
 269.191 269.195 c 267.656 269.191 266.41 270.438 266.41 271.973 c h
266.41 271.973 m f
259.891 278.492 m 258.355 278.492 257.109 279.738 257.109 281.273 c 257.109
 282.809 258.355 284.055 259.891 284.055 c 261.426 284.055 262.672 282.809
 262.672 281.273 c 262.672 279.738 261.426 278.492 259.891 278.492 c h
259.891 278.492 m f
248.484 271.973 m 248.484 273.512 249.73 274.754 251.266 274.754 c 252.801
 274.754 254.047 273.512 254.047 271.973 c 254.047 270.438 252.801 269.195
 251.266 269.195 c 249.73 269.191 248.484 270.438 248.484 271.973 c h
248.484 271.973 m f
241.965 278.492 m 240.43 278.492 239.184 279.738 239.184 281.273 c 239.184
 282.809 240.43 284.055 241.965 284.055 c 243.5 284.055 244.746 282.809 
244.746 281.273 c 244.746 279.738 243.5 278.492 241.965 278.492 c h
241.965 278.492 m f
230.559 271.973 m 230.559 273.512 231.805 274.754 233.34 274.754 c 234.875
 274.754 236.121 273.512 236.121 271.973 c 236.121 270.438 234.875 269.195
 233.34 269.195 c 231.805 269.191 230.559 270.438 230.559 271.973 c h
230.559 271.973 m f
0.192157 0.215686 0.239216 rg
284.441 153.852 m 279.48 153.703 275.328 157.828 275.168 163.062 c 275.008
 168.301 278.902 172.672 283.863 172.82 c 288.824 172.973 292.977 168.848
 293.137 163.609 c 293.297 158.375 289.402 154.004 284.441 153.852 c h
284.441 153.852 m f
216.953 153.852 m 211.992 153.703 207.84 157.828 207.68 163.062 c 207.52
 168.301 211.414 172.672 216.375 172.82 c 221.336 172.973 225.488 168.848
 225.648 163.609 c 225.805 158.375 221.914 154.004 216.953 153.852 c h
216.953 153.852 m f
274.258 138.203 m 274.305 138.152 279.125 133.129 284.277 133.32 c 289.387
 133.508 293.777 138.918 293.875 139.039 c 294.473 139.793 295.355 140.188
 296.246 140.188 c 296.898 140.188 297.559 139.977 298.109 139.543 c 299.422
 138.512 299.648 136.613 298.617 135.305 c 298.371 134.988 292.457 127.582
 284.5 127.285 c 276.566 126.965 270.121 133.789 269.852 134.078 c 268.715
 135.293 268.781 137.195 269.996 138.332 c 271.207 139.473 273.117 139.414
 274.258 138.203 c h
274.258 138.203 m f
217.016 127.285 m 209.047 126.965 202.637 133.789 202.363 134.078 c 201.23
 135.293 201.293 137.195 202.508 138.336 c 203.719 139.473 205.629 139.414
 206.77 138.203 c 206.82 138.152 211.652 133.133 216.789 133.316 c 221.898
 133.508 226.289 138.918 226.387 139.039 c 226.984 139.793 227.867 140.188
 228.758 140.188 c 229.414 140.188 230.07 139.977 230.621 139.543 c 231.934
 138.512 232.16 136.613 231.129 135.305 c 230.883 134.988 224.969 127.582
 217.016 127.285 c h
217.016 127.285 m f
252.32 149.605 m 254.828 161.703 257.195 173.129 251.367 177.93 c 250.078
 178.988 249.895 180.891 250.957 182.176 c 251.555 182.902 252.418 183.277
 253.289 183.277 c 253.965 183.277 254.645 183.051 255.207 182.586 c 263.848
 175.473 261.121 162.312 258.234 148.379 c 257.23 143.535 256.191 138.523
 255.648 133.77 c 255.461 132.113 253.965 130.918 252.305 131.113 c 250.648
 131.305 249.461 132.801 249.648 134.457 c 250.223 139.48 251.289 144.629
 252.32 149.605 c h
252.32 149.605 m f
239.336 181.766 m 239.77 181.98 240.23 182.082 240.684 182.082 c 241.793
 182.082 242.859 181.473 243.387 180.414 c 244.648 177.887 l 245.395 176.395
 244.789 174.582 243.301 173.836 c 241.809 173.094 239.996 173.695 239.25
 175.188 c 237.988 177.715 l 237.242 179.203 237.848 181.02 239.336 181.766
 c h
239.336 181.766 m f
267.559 200.465 m 268.457 199.059 268.047 197.195 266.645 196.293 c 265.242
 195.398 263.375 195.805 262.477 197.207 c 259.531 201.801 255.062 204.438
 250.215 204.438 c 245.371 204.438 240.898 201.801 237.957 197.207 c 237.059
 195.805 235.191 195.395 233.785 196.293 c 232.383 197.195 231.973 199.062
 232.875 200.465 c 236.949 206.824 243.273 210.473 250.215 210.473 c 257.16
 210.473 263.48 206.824 267.559 200.465 c h
267.559 200.465 m f
291.648 293.406 m 290.734 293.133 289.75 293.312 288.984 293.883 c 288.223
 294.453 287.773 295.348 287.773 296.301 c 287.773 299.906 l 287.09 299.711
 286.402 299.512 285.707 299.328 c 285.582 299.289 285.453 299.254 285.32
 299.23 c 283.711 298.805 282.082 298.414 280.434 298.062 c 280.406 266.496
 l 295.742 263.273 309.469 255.637 320.191 244.977 c 325.191 249.414 331.859
 252.141 339.168 252.152 c 339.227 252.152 l 346.891 252.152 354.016 249.234
 359.297 243.938 c 364.285 238.93 367.012 232.348 366.973 225.398 c 366.906
 212.961 357.957 202.477 345.934 199.465 c 346.773 198.172 347.293 196.645
 347.348 194.984 c 347.375 194.074 347.391 193.16 347.391 192.246 c 347.469
 109.477 l 347.469 91.562 341.754 74.957 332.055 61.387 c 332.078 61.145
 332.082 60.898 332.047 60.652 c 327.199 26.074 297.223 0 262.324 0 c 238.105
 0 l 203.203 0 173.227 26.074 168.379 60.652 c 168.344 60.898 168.348 61.145
 168.375 61.387 c 158.676 74.957 152.961 91.559 152.961 109.473 c 152.883
 192.246 l 152.883 193.039 152.895 193.828 152.918 194.617 c 152.969 196.414
 153.562 198.082 154.535 199.477 c 142.543 202.508 133.621 212.984 133.555
 225.398 c 133.516 232.348 136.242 238.93 141.23 243.938 c 146.512 249.238
 153.637 252.152 161.301 252.152 c 161.359 252.152 l 168.645 252.141 175.293
 249.43 180.289 245.023 c 191.027 255.684 204.777 263.316 220.133 266.52
 c 220.16 298.051 l 217.645 298.582 215.18 299.207 212.75 299.906 c 212.75
 296.301 l 212.75 295.348 212.301 294.453 211.539 293.883 c 210.777 293.312
 209.789 293.133 208.879 293.406 c 194.664 297.602 181.895 304.492 171.16
 313.641 c 171.16 269.789 l 171.16 265.5 167.672 262.012 163.383 262.012
 c 24.801 262.012 l 20.516 262.012 17.027 265.5 17.027 269.789 c 17.027 
376.227 l 17.027 380.512 20.516 384 24.801 384 c 163.383 384 l 164.73 384
 166.004 383.652 167.109 383.047 c 167.109 383.996 l 209.73 384 l 209.754
 384 209.773 383.992 209.797 383.992 c 250.262 384 l 290.727 383.992 l 290.75
 383.992 290.773 384 290.793 384 c 358.844 383.988 l 360.512 383.988 361.863
 382.637 361.863 380.969 c 361.863 362.371 355.184 343.531 343.055 327.922
 c 330.293 311.5 312.52 299.562 291.648 293.406 c h
360.938 225.43 m 360.965 230.758 358.863 235.816 355.02 239.676 c 350.883
 243.828 345.273 246.117 339.227 246.117 c 339.18 246.117 l 333.457 246.105
 328.234 243.996 324.309 240.57 c 325.559 239.129 326.754 237.637 327.898
 236.109 c 328.078 236.016 328.254 235.91 328.418 235.777 c 336.152 229.539
 350.223 225.852 350.363 225.816 c 351.977 225.398 352.945 223.75 352.531
 222.137 c 352.113 220.523 350.465 219.551 348.855 219.969 c 348.441 220.078
 341.824 221.809 334.859 225.004 c 338.113 218.723 340.562 211.953 342.055
 204.84 c 352.66 206.309 360.879 214.988 360.938 225.43 c h
238.105 6.035 m 262.32 6.035 l 292.598 6.035 318.805 27.5 325.195 56.703
 c 311.992 51.387 254.664 50.031 248.828 50.105 c 243.172 50.035 188.066
 51.402 175.238 56.664 c 181.645 27.484 207.84 6.035 238.105 6.035 c h
158.996 109.477 m 158.996 94.855 163.105 81.184 170.223 69.535 c 171.762
 72.891 175.098 76.012 182.102 78.469 c 194.047 82.664 216.34 84.703 250.254
 84.703 c 284.164 84.703 306.457 82.664 318.402 78.469 c 325.367 76.027 
328.699 72.93 330.254 69.602 c 337.344 81.234 341.434 94.883 341.434 109.473
 c 341.367 181.266 l 340.059 155.18 333.961 109.684 308.16 89.043 c 305.559
 86.961 297.727 83.512 292.762 84.137 c 290.371 84.434 289.062 85.566 288.383
 86.461 c 286.875 88.453 288.113 90.418 289.543 92.691 c 293.613 99.152 
294.887 103.289 289.98 106.637 c 288.852 107.406 287.645 107.613 286.18 
107.289 c 279.02 105.711 270.027 92.938 267.168 88.148 c 266.316 86.727 
264.477 86.258 263.047 87.094 c 261.617 87.934 261.133 89.77 261.961 91.207
 c 262.031 91.328 268.832 103.508 262.965 107.207 c 259.086 109.652 247.699
 100.707 240.977 93.305 c 239.922 92.148 238.168 91.988 236.922 92.93 c 
235.676 93.871 235.355 95.605 236.18 96.934 c 236.25 97.047 243.25 108.66
 237.629 112.301 c 234.113 114.586 226.387 105.613 220.742 99.07 c 212.852
 89.922 205.398 81.277 198.66 86.121 c 181.789 98.23 169.996 121.223 163.609
 154.457 c 160.234 172.016 159.348 187.613 159.117 195.344 c 159.02 195.059
 158.961 194.758 158.949 194.445 c 158.93 193.715 158.918 192.98 158.918
 192.25 c h
161.348 246.117 m 155.258 246.156 149.652 243.84 145.504 239.676 c 141.66
 235.816 139.559 230.758 139.59 225.43 c 139.645 215.016 147.824 206.359
 158.391 204.855 c 159.871 211.906 162.285 218.617 165.5 224.855 c 158.652
 221.754 152.242 220.074 151.832 219.969 c 150.219 219.555 148.574 220.523
 148.156 222.137 c 147.738 223.75 148.711 225.398 150.324 225.816 c 150.465
 225.852 164.535 229.539 172.27 235.777 c 172.285 235.789 172.301 235.797
 172.316 235.809 c 173.539 237.461 174.82 239.066 176.164 240.617 c 172.246
 244.016 167.043 246.105 161.348 246.117 c h
164.094 202.637 m 164.129 202.605 164.168 202.582 164.203 202.547 c 164.77
 201.977 165.086 201.199 165.078 200.395 c 165.07 199.574 164.797 117.859
 202.18 91.023 c 204.43 89.402 211.777 97.922 216.168 103.012 c 222.871 
110.785 229.758 118.77 236.355 118.77 c 237.891 118.77 239.414 118.336 240.91
 117.363 c 245.062 114.672 246.18 110.461 245.785 106.133 c 252.191 111.285
 260.402 115.957 266.184 112.312 c 269.484 110.23 270.957 107.16 271.305
 103.805 c 275.25 108.117 280.039 112.117 284.875 113.184 c 287.949 113.863
 290.891 113.32 293.383 111.621 c 303.488 104.73 297.859 94.629 295.07 90.141
 c 297.914 90.543 302.598 92.324 304.391 93.758 c 338.5 121.047 335.586 
199.504 335.551 200.293 c 335.52 201.105 335.812 201.891 336.367 202.484
 c 329.793 236.438 299.848 262.156 264.004 262.156 c 236.426 262.156 l 200.637
 262.16 170.727 236.516 164.094 202.637 c h
223.73 303.496 m 225.16 303.23 226.199 301.984 226.199 300.527 c 226.168
 267.531 l 229.527 267.965 232.953 268.195 236.426 268.195 c 264.004 268.195
 l 267.516 268.195 270.977 267.961 274.367 267.52 c 274.398 300.543 l 274.398
 301.996 275.434 303.242 276.863 303.508 c 278.484 303.812 280.066 304.16
 281.633 304.535 c 279.938 317.078 264.605 322.824 250.297 322.824 c 235.984
 322.824 220.645 317.074 218.961 304.52 c 220.527 304.148 222.109 303.801
 223.73 303.496 c h
81.566 268.047 m 106.621 268.047 l 106.621 326.859 l 81.566 326.859 l h
165.121 376.223 m 165.121 377.184 164.344 377.965 163.383 377.965 c 24.801
 377.965 l 23.844 377.965 23.062 377.184 23.062 376.223 c 23.062 269.789
 l 23.062 268.828 23.844 268.047 24.801 268.047 c 75.527 268.047 l 75.527
 329.879 l 75.527 331.547 76.879 332.898 78.547 332.898 c 109.641 332.898
 l 111.305 332.898 112.656 331.547 112.656 329.879 c 112.656 268.047 l 163.383
 268.047 l 164.344 268.047 165.121 268.828 165.121 269.789 c h
206.711 377.961 m 170.957 377.957 l 171.086 377.398 171.16 376.82 171.16
 376.223 c 171.16 321.855 l 180.949 312.516 193.039 305.074 206.711 300.422
 c h
212.75 377.957 m 212.75 306.203 l 212.867 306.168 212.984 306.137 213.102
 306.102 c 215.449 319.684 230.082 328.863 250.297 328.863 c 270.504 328.863
 285.133 319.691 287.492 306.117 c 287.586 306.148 287.684 306.172 287.777
 306.203 c 287.777 377.957 l 250.266 377.961 l h
293.812 377.961 m 293.812 300.422 l 329.48 312.555 354.379 343.668 355.762
 377.953 c h
293.812 377.961 m f
Q Q
showpage
%%Trailer
end
%%EOF
