%!PS-Adobe-3.0 EPSF-3.0
%%Creator: cairo 1.16.0 (https://cairographics.org)
%%CreationDate: Fri Feb 12 12:13:17 2021
%%Pages: 1
%%DocumentData: Clean7Bit
%%LanguageLevel: 2
%%BoundingBox: 66 0 318 384
%%EndComments
%%BeginProlog
50 dict begin
/q { gsave } bind def
/Q { grestore } bind def
/cm { 6 array astore concat } bind def
/w { setlinewidth } bind def
/J { setlinecap } bind def
/j { setlinejoin } bind def
/M { setmiterlimit } bind def
/d { setdash } bind def
/m { moveto } bind def
/l { lineto } bind def
/c { curveto } bind def
/h { closepath } bind def
/re { exch dup neg 3 1 roll 5 3 roll moveto 0 rlineto
      0 exch rlineto 0 rlineto closepath } bind def
/S { stroke } bind def
/f { fill } bind def
/f* { eofill } bind def
/n { newpath } bind def
/W { clip } bind def
/W* { eoclip } bind def
/BT { } bind def
/ET { } bind def
/BDC { mark 3 1 roll /BDC pdfmark } bind def
/EMC { mark /EMC pdfmark } bind def
/cairo_store_point { /cairo_point_y exch def /cairo_point_x exch def } def
/Tj { show currentpoint cairo_store_point } bind def
/TJ {
  {
    dup
    type /stringtype eq
    { show } { -0.001 mul 0 cairo_font_matrix dtransform rmoveto } ifelse
  } forall
  currentpoint cairo_store_point
} bind def
/cairo_selectfont { cairo_font_matrix aload pop pop pop 0 0 6 array astore
    cairo_font exch selectfont cairo_point_x cairo_point_y moveto } bind def
/Tf { pop /cairo_font exch def /cairo_font_matrix where
      { pop cairo_selectfont } if } bind def
/Td { matrix translate cairo_font_matrix matrix concatmatrix dup
      /cairo_font_matrix exch def dup 4 get exch 5 get cairo_store_point
      /cairo_font where { pop cairo_selectfont } if } bind def
/Tm { 2 copy 8 2 roll 6 array astore /cairo_font_matrix exch def
      cairo_store_point /cairo_font where { pop cairo_selectfont } if } bind def
/g { setgray } bind def
/rg { setrgbcolor } bind def
/d1 { setcachedevice } bind def
/cairo_data_source {
  CairoDataIndex CairoData length lt
    { CairoData CairoDataIndex get /CairoDataIndex CairoDataIndex 1 add def }
    { () } ifelse
} def
/cairo_flush_ascii85_file { cairo_ascii85_file status { cairo_ascii85_file flushfile } if } def
/cairo_image { image cairo_flush_ascii85_file } def
/cairo_imagemask { imagemask cairo_flush_ascii85_file } def
%%EndProlog
%%BeginSetup
%%EndSetup
%%Page: 1 1
%%BeginPageSetup
%%PageBoundingBox: 66 0 318 384
%%EndPageSetup
q 66 0 252 384 rectclip
1 0 0 -1 0 384 cm q
0.917647 0.658824 0.584314 rg
284.516 102.703 m 281.848 94.137 273.855 87.922 264.414 87.922 c 90.43 
87.922 l 78.809 87.922 69.383 97.344 69.383 108.969 c 69.383 212.516 l 69.383
 216.293 70.262 220.016 71.945 223.395 c 87.562 254.688 l 87.562 366.59 
l 87.562 374.535 94.004 380.977 101.949 380.977 c 252.895 380.977 l 260.84
 380.977 267.281 374.535 267.281 366.59 c 267.281 366.207 l 284.117 366.207
 l 300.961 366.207 314.617 352.551 314.617 335.707 c 314.617 133.191 l 314.617
 116.477 301.176 102.914 284.516 102.703 c h
284.516 102.703 m f
0.913725 0.760784 0.470588 rg
232.188 230.469 m 123.723 230.469 l 116.551 230.469 110.734 224.656 110.734
 217.484 c 110.734 158.668 l 110.734 151.496 116.551 145.684 123.723 145.684
 c 232.188 145.684 l 239.355 145.684 245.172 151.496 245.172 158.668 c 245.172
 217.484 l 245.172 224.656 239.355 230.469 232.188 230.469 c h
232.188 230.469 m f
1 g
227.754 117.422 m 227.754 3.09 l 227.02 2.75 l 214.613 12.668 l 202.207
 2.75 l 189.809 12.668 l 177.406 2.75 l 165.012 12.668 l 152.617 2.75 l 
140.223 12.668 l 127.828 2.75 l 127.094 3.09 l 127.094 117.422 l h
227.754 117.422 m f
0.976471 0.984314 0.988235 rg
311.605 131.297 m 310.242 131.297 309.133 132.402 309.133 133.766 c 309.133
 135.133 310.242 136.238 311.605 136.238 c 312.969 136.238 314.074 135.133
 314.074 133.766 c 314.074 132.402 312.969 131.297 311.605 131.297 c h
311.605 131.297 m f
311.605 147.223 m 310.242 147.223 309.133 148.328 309.133 149.691 c 309.133
 151.059 310.242 152.164 311.605 152.164 c 312.969 152.164 314.074 151.059
 314.074 149.691 c 314.074 148.328 312.969 147.223 311.605 147.223 c h
311.605 147.223 m f
311.605 163.148 m 310.242 163.148 309.133 164.254 309.133 165.617 c 309.133
 166.98 310.242 168.09 311.605 168.09 c 312.969 168.09 314.074 166.98 314.074
 165.617 c 314.074 164.254 312.969 163.148 311.605 163.148 c h
311.605 163.148 m f
311.605 179.074 m 310.242 179.074 309.133 180.18 309.133 181.543 c 309.133
 182.906 310.242 184.016 311.605 184.016 c 312.969 184.016 314.074 182.906
 314.074 181.543 c 314.074 180.18 312.969 179.074 311.605 179.074 c h
311.605 179.074 m f
311.605 195 m 310.242 195 309.133 196.105 309.133 197.469 c 309.133 198.832
 310.242 199.941 311.605 199.941 c 312.969 199.941 314.074 198.832 314.074
 197.469 c 314.074 196.105 312.969 195 311.605 195 c h
311.605 195 m f
311.605 210.926 m 310.242 210.926 309.133 212.031 309.133 213.395 c 309.133
 214.758 310.242 215.867 311.605 215.867 c 312.969 215.867 314.074 214.758
 314.074 213.395 c 314.074 212.031 312.969 210.926 311.605 210.926 c h
311.605 210.926 m f
311.605 226.852 m 310.242 226.852 309.133 227.957 309.133 229.32 c 309.133
 230.684 310.242 231.793 311.605 231.793 c 312.969 231.793 314.074 230.684
 314.074 229.32 c 314.074 227.957 312.969 226.852 311.605 226.852 c h
311.605 226.852 m f
311.605 242.777 m 310.242 242.777 309.133 243.883 309.133 245.246 c 309.133
 246.609 310.242 247.715 311.605 247.715 c 312.969 247.715 314.074 246.609
 314.074 245.246 c 314.074 243.883 312.969 242.777 311.605 242.777 c h
311.605 242.777 m f
311.605 258.703 m 310.242 258.703 309.133 259.809 309.133 261.172 c 309.133
 262.535 310.242 263.641 311.605 263.641 c 312.969 263.641 314.074 262.535
 314.074 261.172 c 314.074 259.809 312.969 258.703 311.605 258.703 c h
311.605 258.703 m f
311.605 274.625 m 310.242 274.625 309.133 275.734 309.133 277.098 c 309.133
 278.461 310.242 279.566 311.605 279.566 c 312.969 279.566 314.074 278.461
 314.074 277.098 c 314.074 275.734 312.969 274.625 311.605 274.625 c h
311.605 274.625 m f
311.605 290.551 m 310.242 290.551 309.133 291.66 309.133 293.023 c 309.133
 294.387 310.242 295.492 311.605 295.492 c 312.969 295.492 314.074 294.387
 314.074 293.023 c 314.074 291.66 312.969 290.551 311.605 290.551 c h
311.605 290.551 m f
311.605 306.477 m 310.242 306.477 309.133 307.586 309.133 308.949 c 309.133
 310.312 310.242 311.418 311.605 311.418 c 312.969 311.418 314.074 310.312
 314.074 308.949 c 314.074 307.586 312.969 306.477 311.605 306.477 c h
311.605 306.477 m f
311.605 322.402 m 310.242 322.402 309.133 323.512 309.133 324.875 c 309.133
 326.238 310.242 327.344 311.605 327.344 c 312.969 327.344 314.074 326.238
 314.074 324.875 c 314.074 323.508 312.969 322.402 311.605 322.402 c h
311.605 322.402 m f
311.605 338.328 m 310.242 338.328 309.133 339.438 309.133 340.801 c 309.133
 342.164 310.242 343.27 311.605 343.27 c 312.969 343.27 314.074 342.164 
314.074 340.801 c 314.074 339.434 312.969 338.328 311.605 338.328 c h
311.605 338.328 m f
295.68 115.371 m 294.316 115.371 293.207 116.477 293.207 117.84 c 293.207
 119.207 294.316 120.312 295.68 120.312 c 297.043 120.312 298.148 119.207
 298.148 117.84 c 298.148 116.477 297.043 115.371 295.68 115.371 c h
295.68 115.371 m f
303.941 123.035 m 302.578 123.035 301.473 124.141 301.473 125.504 c 301.473
 126.867 302.578 127.977 303.941 127.977 c 305.305 127.977 306.41 126.867
 306.41 125.504 c 306.41 124.141 305.305 123.035 303.941 123.035 c h
303.941 123.035 m f
295.68 131.297 m 294.316 131.297 293.207 132.402 293.207 133.766 c 293.207
 135.133 294.316 136.238 295.68 136.238 c 297.043 136.238 298.148 135.133
 298.148 133.766 c 298.148 132.402 297.043 131.297 295.68 131.297 c h
295.68 131.297 m f
303.941 138.961 m 302.578 138.961 301.473 140.066 301.473 141.43 c 301.473
 142.793 302.578 143.898 303.941 143.898 c 305.305 143.898 306.41 142.793
 306.41 141.43 c 306.41 140.066 305.305 138.961 303.941 138.961 c h
303.941 138.961 m f
295.68 147.223 m 294.316 147.223 293.207 148.328 293.207 149.691 c 293.207
 151.059 294.316 152.164 295.68 152.164 c 297.043 152.164 298.148 151.059
 298.148 149.691 c 298.148 148.328 297.043 147.223 295.68 147.223 c h
295.68 147.223 m f
306.41 157.355 m 306.41 158.719 305.305 159.824 303.941 159.824 c 302.578
 159.824 301.473 158.719 301.473 157.355 c 301.473 155.992 302.578 154.883
 303.941 154.883 c 305.305 154.883 306.41 155.992 306.41 157.355 c h
306.41 157.355 m f
295.68 163.148 m 294.316 163.148 293.207 164.254 293.207 165.617 c 293.207
 166.98 294.316 168.09 295.68 168.09 c 297.043 168.09 298.148 166.98 298.148
 165.617 c 298.148 164.254 297.043 163.148 295.68 163.148 c h
295.68 163.148 m f
306.41 173.281 m 306.41 174.645 305.305 175.75 303.941 175.75 c 302.578
 175.75 301.473 174.645 301.473 173.281 c 301.473 171.918 302.578 170.809
 303.941 170.809 c 305.305 170.809 306.41 171.918 306.41 173.281 c h
306.41 173.281 m f
295.68 179.074 m 294.316 179.074 293.207 180.18 293.207 181.543 c 293.207
 182.906 294.316 184.016 295.68 184.016 c 297.043 184.016 298.148 182.906
 298.148 181.543 c 298.148 180.18 297.043 179.074 295.68 179.074 c h
295.68 179.074 m f
306.41 189.207 m 306.41 190.57 305.305 191.676 303.941 191.676 c 302.578
 191.676 301.473 190.57 301.473 189.207 c 301.473 187.844 302.578 186.734
 303.941 186.734 c 305.305 186.734 306.41 187.844 306.41 189.207 c h
306.41 189.207 m f
295.68 195 m 294.316 195 293.207 196.105 293.207 197.469 c 293.207 198.832
 294.316 199.941 295.68 199.941 c 297.043 199.941 298.148 198.832 298.148
 197.469 c 298.148 196.105 297.043 195 295.68 195 c h
295.68 195 m f
306.41 205.133 m 306.41 206.496 305.305 207.602 303.941 207.602 c 302.578
 207.602 301.473 206.496 301.473 205.133 c 301.473 203.77 302.578 202.66
 303.941 202.66 c 305.305 202.66 306.41 203.77 306.41 205.133 c h
306.41 205.133 m f
295.68 210.926 m 294.316 210.926 293.207 212.031 293.207 213.395 c 293.207
 214.758 294.316 215.867 295.68 215.867 c 297.043 215.867 298.148 214.758
 298.148 213.395 c 298.148 212.031 297.043 210.926 295.68 210.926 c h
295.68 210.926 m f
303.941 218.586 m 302.578 218.586 301.473 219.695 301.473 221.059 c 301.473
 222.422 302.578 223.527 303.941 223.527 c 305.305 223.527 306.41 222.422
 306.41 221.059 c 306.41 219.695 305.305 218.586 303.941 218.586 c h
303.941 218.586 m f
295.68 226.852 m 294.316 226.852 293.207 227.957 293.207 229.32 c 293.207
 230.684 294.316 231.793 295.68 231.793 c 297.043 231.793 298.148 230.684
 298.148 229.32 c 298.148 227.957 297.043 226.852 295.68 226.852 c h
295.68 226.852 m f
303.941 234.512 m 302.578 234.512 301.473 235.621 301.473 236.984 c 301.473
 238.348 302.578 239.453 303.941 239.453 c 305.305 239.453 306.41 238.348
 306.41 236.984 c 306.41 235.621 305.305 234.512 303.941 234.512 c h
303.941 234.512 m f
295.68 242.777 m 294.316 242.777 293.207 243.883 293.207 245.246 c 293.207
 246.609 294.316 247.715 295.68 247.715 c 297.043 247.715 298.148 246.609
 298.148 245.246 c 298.148 243.883 297.043 242.777 295.68 242.777 c h
295.68 242.777 m f
303.941 250.438 m 302.578 250.438 301.473 251.543 301.473 252.91 c 301.473
 254.273 302.578 255.379 303.941 255.379 c 305.305 255.379 306.41 254.273
 306.41 252.91 c 306.41 251.543 305.305 250.438 303.941 250.438 c h
303.941 250.438 m f
295.68 258.703 m 294.316 258.703 293.207 259.809 293.207 261.172 c 293.207
 262.535 294.316 263.641 295.68 263.641 c 297.043 263.641 298.148 262.535
 298.148 261.172 c 298.148 259.809 297.043 258.703 295.68 258.703 c h
295.68 258.703 m f
306.41 268.836 m 306.41 270.199 305.305 271.305 303.941 271.305 c 302.578
 271.305 301.473 270.199 301.473 268.836 c 301.473 267.469 302.578 266.363
 303.941 266.363 c 305.305 266.363 306.41 267.469 306.41 268.836 c h
306.41 268.836 m f
295.68 274.625 m 294.316 274.625 293.207 275.734 293.207 277.098 c 293.207
 278.461 294.316 279.566 295.68 279.566 c 297.043 279.566 298.148 278.461
 298.148 277.098 c 298.148 275.734 297.043 274.625 295.68 274.625 c h
295.68 274.625 m f
306.41 284.762 m 306.41 286.125 305.305 287.23 303.941 287.23 c 302.578
 287.23 301.473 286.125 301.473 284.762 c 301.473 283.395 302.578 282.289
 303.941 282.289 c 305.305 282.289 306.41 283.395 306.41 284.762 c h
306.41 284.762 m f
295.68 290.551 m 294.316 290.551 293.207 291.66 293.207 293.023 c 293.207
 294.387 294.316 295.492 295.68 295.492 c 297.043 295.492 298.148 294.387
 298.148 293.023 c 298.148 291.66 297.043 290.551 295.68 290.551 c h
295.68 290.551 m f
306.41 300.684 m 306.41 302.051 305.305 303.156 303.941 303.156 c 302.578
 303.156 301.473 302.051 301.473 300.684 c 301.473 299.32 302.578 298.215
 303.941 298.215 c 305.305 298.215 306.41 299.32 306.41 300.684 c h
306.41 300.684 m f
295.68 306.477 m 294.316 306.477 293.207 307.586 293.207 308.949 c 293.207
 310.312 294.316 311.418 295.68 311.418 c 297.043 311.418 298.148 310.312
 298.148 308.949 c 298.148 307.586 297.043 306.477 295.68 306.477 c h
295.68 306.477 m f
306.41 316.613 m 306.41 317.977 305.305 319.082 303.941 319.082 c 302.578
 319.082 301.473 317.977 301.473 316.613 c 301.473 315.246 302.578 314.141
 303.941 314.141 c 305.305 314.141 306.41 315.246 306.41 316.613 c h
306.41 316.613 m f
295.68 322.402 m 294.316 322.402 293.207 323.512 293.207 324.875 c 293.207
 326.238 294.316 327.344 295.68 327.344 c 297.043 327.344 298.148 326.238
 298.148 324.875 c 298.148 323.508 297.043 322.402 295.68 322.402 c h
295.68 322.402 m f
303.941 330.066 m 302.578 330.066 301.473 331.172 301.473 332.539 c 301.473
 333.902 302.578 335.008 303.941 335.008 c 305.305 335.008 306.41 333.902
 306.41 332.539 c 306.41 331.172 305.305 330.066 303.941 330.066 c h
303.941 330.066 m f
295.68 338.328 m 294.316 338.328 293.207 339.438 293.207 340.801 c 293.207
 342.164 294.316 343.27 295.68 343.27 c 297.043 343.27 298.148 342.164 298.148
 340.801 c 298.148 339.434 297.043 338.328 295.68 338.328 c h
295.68 338.328 m f
303.941 345.992 m 302.578 345.992 301.473 347.098 301.473 348.461 c 301.473
 349.828 302.578 350.934 303.941 350.934 c 305.305 350.934 306.41 349.828
 306.41 348.461 c 306.41 347.098 305.305 345.992 303.941 345.992 c h
303.941 345.992 m f
295.68 354.254 m 294.316 354.254 293.207 355.359 293.207 356.727 c 293.207
 358.09 294.316 359.195 295.68 359.195 c 297.043 359.195 298.148 358.09 
298.148 356.727 c 298.148 355.359 297.043 354.254 295.68 354.254 c h
295.68 354.254 m f
288.016 107.109 m 286.652 107.109 285.547 108.215 285.547 109.578 c 285.547
 110.941 286.652 112.047 288.016 112.047 c 289.379 112.047 290.484 110.941
 290.484 109.578 c 290.484 108.215 289.379 107.109 288.016 107.109 c h
288.016 107.109 m f
288.016 123.035 m 286.652 123.035 285.547 124.141 285.547 125.504 c 285.547
 126.867 286.652 127.977 288.016 127.977 c 289.379 127.977 290.484 126.867
 290.484 125.504 c 290.484 124.141 289.379 123.035 288.016 123.035 c h
288.016 123.035 m f
288.016 138.961 m 286.652 138.961 285.547 140.066 285.547 141.43 c 285.547
 142.793 286.652 143.898 288.016 143.898 c 289.379 143.898 290.484 142.793
 290.484 141.43 c 290.484 140.066 289.379 138.961 288.016 138.961 c h
288.016 138.961 m f
288.016 154.883 m 286.652 154.883 285.547 155.992 285.547 157.355 c 285.547
 158.719 286.652 159.824 288.016 159.824 c 289.379 159.824 290.484 158.719
 290.484 157.355 c 290.484 155.992 289.379 154.883 288.016 154.883 c h
288.016 154.883 m f
288.016 170.812 m 286.652 170.812 285.547 171.918 285.547 173.281 c 285.547
 174.645 286.652 175.754 288.016 175.754 c 289.379 175.754 290.484 174.645
 290.484 173.281 c 290.484 171.918 289.379 170.812 288.016 170.812 c h
288.016 170.812 m f
288.016 186.738 m 286.652 186.738 285.547 187.844 285.547 189.207 c 285.547
 190.57 286.652 191.676 288.016 191.676 c 289.379 191.676 290.484 190.57
 290.484 189.207 c 290.484 187.844 289.379 186.738 288.016 186.738 c h
288.016 186.738 m f
288.016 202.66 m 286.652 202.66 285.547 203.77 285.547 205.133 c 285.547
 206.496 286.652 207.602 288.016 207.602 c 289.379 207.602 290.484 206.496
 290.484 205.133 c 290.484 203.77 289.379 202.66 288.016 202.66 c h
288.016 202.66 m f
288.016 218.586 m 286.652 218.586 285.547 219.695 285.547 221.059 c 285.547
 222.422 286.652 223.527 288.016 223.527 c 289.379 223.527 290.484 222.422
 290.484 221.059 c 290.484 219.695 289.379 218.586 288.016 218.586 c h
288.016 218.586 m f
288.016 234.512 m 286.652 234.512 285.547 235.621 285.547 236.984 c 285.547
 238.348 286.652 239.453 288.016 239.453 c 289.379 239.453 290.484 238.348
 290.484 236.984 c 290.484 235.621 289.379 234.512 288.016 234.512 c h
288.016 234.512 m f
282.223 245.246 m 282.223 246.609 281.117 247.715 279.754 247.715 c 278.387
 247.715 277.281 246.609 277.281 245.246 c 277.281 243.883 278.387 242.777
 279.754 242.777 c 281.117 242.777 282.223 243.883 282.223 245.246 c h
282.223 245.246 m f
288.016 250.438 m 286.652 250.438 285.547 251.543 285.547 252.91 c 285.547
 254.273 286.652 255.379 288.016 255.379 c 289.379 255.379 290.484 254.273
 290.484 252.91 c 290.484 251.543 289.379 250.438 288.016 250.438 c h
288.016 250.438 m f
282.223 261.172 m 282.223 262.535 281.117 263.641 279.754 263.641 c 278.387
 263.641 277.281 262.535 277.281 261.172 c 277.281 259.809 278.387 258.703
 279.754 258.703 c 281.117 258.703 282.223 259.809 282.223 261.172 c h
282.223 261.172 m f
288.016 266.363 m 286.652 266.363 285.547 267.469 285.547 268.836 c 285.547
 270.199 286.652 271.305 288.016 271.305 c 289.379 271.305 290.484 270.199
 290.484 268.836 c 290.484 267.469 289.379 266.363 288.016 266.363 c h
288.016 266.363 m f
282.223 277.098 m 282.223 278.461 281.117 279.566 279.754 279.566 c 278.387
 279.566 277.281 278.461 277.281 277.098 c 277.281 275.734 278.387 274.625
 279.754 274.625 c 281.117 274.625 282.223 275.734 282.223 277.098 c h
282.223 277.098 m f
288.016 282.289 m 286.652 282.289 285.547 283.398 285.547 284.762 c 285.547
 286.125 286.652 287.23 288.016 287.23 c 289.379 287.23 290.484 286.125 
290.484 284.762 c 290.484 283.395 289.379 282.289 288.016 282.289 c h
288.016 282.289 m f
279.754 290.551 m 278.391 290.551 277.281 291.66 277.281 293.023 c 277.281
 294.387 278.391 295.492 279.754 295.492 c 281.117 295.492 282.223 294.387
 282.223 293.023 c 282.223 291.66 281.117 290.551 279.754 290.551 c h
279.754 290.551 m f
288.016 298.215 m 286.652 298.215 285.547 299.32 285.547 300.688 c 285.547
 302.051 286.652 303.156 288.016 303.156 c 289.379 303.156 290.484 302.051
 290.484 300.688 c 290.484 299.32 289.379 298.215 288.016 298.215 c h
288.016 298.215 m f
279.754 306.477 m 278.391 306.477 277.281 307.586 277.281 308.949 c 277.281
 310.312 278.391 311.418 279.754 311.418 c 281.117 311.418 282.223 310.312
 282.223 308.949 c 282.223 307.586 281.117 306.477 279.754 306.477 c h
279.754 306.477 m f
288.016 314.141 m 286.652 314.141 285.547 315.246 285.547 316.613 c 285.547
 317.977 286.652 319.082 288.016 319.082 c 289.379 319.082 290.484 317.977
 290.484 316.613 c 290.484 315.246 289.379 314.141 288.016 314.141 c h
288.016 314.141 m f
279.754 322.402 m 278.391 322.402 277.281 323.512 277.281 324.875 c 277.281
 326.238 278.391 327.344 279.754 327.344 c 281.117 327.344 282.223 326.238
 282.223 324.875 c 282.223 323.508 281.117 322.402 279.754 322.402 c h
279.754 322.402 m f
288.016 330.066 m 286.652 330.066 285.547 331.172 285.547 332.539 c 285.547
 333.902 286.652 335.008 288.016 335.008 c 289.379 335.008 290.484 333.902
 290.484 332.539 c 290.484 331.172 289.379 330.066 288.016 330.066 c h
288.016 330.066 m f
279.754 338.328 m 278.391 338.328 277.281 339.438 277.281 340.801 c 277.281
 342.164 278.391 343.27 279.754 343.27 c 281.117 343.27 282.223 342.164 
282.223 340.801 c 282.223 339.434 281.117 338.328 279.754 338.328 c h
279.754 338.328 m f
288.016 345.992 m 286.652 345.992 285.547 347.098 285.547 348.461 c 285.547
 349.828 286.652 350.934 288.016 350.934 c 289.379 350.934 290.484 349.828
 290.484 348.461 c 290.484 347.098 289.379 345.992 288.016 345.992 c h
288.016 345.992 m f
282.223 356.727 m 282.223 358.09 281.117 359.195 279.754 359.195 c 278.387
 359.195 277.281 358.09 277.281 356.727 c 277.281 355.359 278.387 354.254
 279.754 354.254 c 281.117 354.254 282.223 355.359 282.223 356.727 c h
282.223 356.727 m f
290.484 364.387 m 290.484 363.023 289.379 361.918 288.016 361.918 c 286.652
 361.918 285.547 363.023 285.547 364.387 c 285.547 365.066 285.816 365.676
 286.258 366.121 c 287.582 366.031 288.883 365.859 290.152 365.605 c 290.359
 365.246 290.484 364.832 290.484 364.387 c h
290.484 364.387 m f
272.09 250.438 m 270.727 250.438 269.621 251.543 269.621 252.91 c 269.621
 254.273 270.727 255.379 272.09 255.379 c 273.453 255.379 274.562 254.273
 274.562 252.91 c 274.562 251.543 273.453 250.438 272.09 250.438 c h
272.09 250.438 m f
274.562 268.836 m 274.562 270.199 273.453 271.305 272.09 271.305 c 270.727
 271.305 269.621 270.199 269.621 268.836 c 269.621 267.469 270.727 266.363
 272.09 266.363 c 273.453 266.363 274.562 267.469 274.562 268.836 c h
274.562 268.836 m f
274.562 284.762 m 274.562 286.125 273.453 287.23 272.09 287.23 c 270.727
 287.23 269.621 286.125 269.621 284.762 c 269.621 283.395 270.727 282.289
 272.09 282.289 c 273.453 282.289 274.562 283.395 274.562 284.762 c h
274.562 284.762 m f
274.562 300.684 m 274.562 302.051 273.453 303.156 272.09 303.156 c 270.727
 303.156 269.621 302.051 269.621 300.684 c 269.621 299.32 270.727 298.215
 272.09 298.215 c 273.453 298.215 274.562 299.32 274.562 300.684 c h
274.562 300.684 m f
274.562 316.613 m 274.562 317.977 273.453 319.082 272.09 319.082 c 270.727
 319.082 269.621 317.977 269.621 316.613 c 269.621 315.246 270.727 314.141
 272.09 314.141 c 273.453 314.141 274.562 315.246 274.562 316.613 c h
274.562 316.613 m f
272.09 330.066 m 270.727 330.066 269.621 331.172 269.621 332.539 c 269.621
 333.902 270.727 335.008 272.09 335.008 c 273.453 335.008 274.562 333.902
 274.562 332.539 c 274.562 331.172 273.453 330.066 272.09 330.066 c h
272.09 330.066 m f
272.09 345.992 m 270.727 345.992 269.621 347.098 269.621 348.461 c 269.621
 349.828 270.727 350.934 272.09 350.934 c 273.453 350.934 274.562 349.828
 274.562 348.461 c 274.562 347.098 273.453 345.992 272.09 345.992 c h
272.09 345.992 m f
274.562 364.387 m 274.562 363.023 273.453 361.918 272.09 361.918 c 270.727
 361.918 269.621 363.023 269.621 364.387 c 269.621 365.109 269.934 365.754
 270.43 366.207 c 273.75 366.207 l 274.246 365.754 274.562 365.109 274.562
 364.387 c h
274.562 364.387 m f
0.192157 0.215686 0.239216 rg
286.34 100.723 m 282.734 92.027 274.156 85.895 264.172 85.895 c 230.746
 85.895 l 230.746 3.352 l 230.746 2.176 230.062 1.109 228.996 0.613 c 228.266
 0.277 l 227.23 -0.199 226.012 -0.051 225.121 0.66 c 214.652 9.031 l 204.184
 0.66 l 203.086 -0.219 201.52 -0.219 200.422 0.66 c 189.961 9.031 l 179.5
 0.66 l 178.398 -0.219 176.836 -0.219 175.734 0.66 c 165.273 9.031 l 154.82
 0.66 l 153.719 -0.219 152.156 -0.219 151.055 0.66 c 140.598 9.027 l 130.141
 0.66 l 129.25 -0.051 128.031 -0.199 126.996 0.277 c 126.262 0.613 l 125.195
 1.109 124.512 2.176 124.512 3.352 c 124.512 85.895 l 90.77 85.895 l 77.543
 85.895 66.781 96.66 66.781 109.887 c 66.781 213.09 l 66.781 217.297 67.773
 221.512 69.652 225.277 c 84.898 255.828 l 84.898 366.648 l 84.898 376.215
 92.684 384 102.25 384 c 252.691 384 l 261.367 384 268.574 377.602 269.844
 369.277 c 283.812 369.277 l 302.234 369.277 317.219 354.293 317.219 335.871
 c 317.219 134.027 l 317.219 116.457 303.586 102.023 286.34 100.723 c h
138.719 15.242 m 139.816 16.121 141.383 16.121 142.48 15.242 c 152.938 
6.871 l 163.391 15.242 l 164.492 16.121 166.059 16.121 167.156 15.242 c 
177.617 6.871 l 188.078 15.242 l 189.18 16.121 190.742 16.121 191.844 15.242
 c 202.305 6.871 l 212.773 15.242 l 213.871 16.121 215.434 16.121 216.535
 15.242 c 224.723 8.695 l 224.723 113.777 l 130.539 113.777 l 130.539 8.699
 l h
264.336 253.773 m 264.125 254.191 264.02 254.652 264.02 255.121 c 264.02
 366.648 l 264.02 372.895 258.938 377.973 252.691 377.973 c 102.25 377.973
 l 96.004 377.973 90.926 372.895 90.926 366.648 c 90.926 255.117 l 90.926
 254.652 90.816 254.191 90.609 253.773 c 75.043 222.586 l 73.578 219.652
 72.805 216.367 72.805 213.09 c 72.805 109.887 l 72.805 99.98 80.863 91.922
 90.77 91.922 c 124.512 91.922 l 124.512 113.777 l 112.527 113.777 l 110.863
 113.777 109.516 115.125 109.516 116.789 c 109.516 118.453 110.867 119.801
 112.527 119.801 c 243.473 119.801 l 245.137 119.801 246.484 118.453 246.484
 116.789 c 246.484 115.125 245.133 113.777 243.473 113.777 c 230.746 113.777
 l 230.746 91.922 l 264.172 91.922 l 271.715 91.922 278.184 96.598 280.844
 103.199 c 280.82 103.34 280.797 103.484 280.797 103.629 c 280.797 104.441
 281.121 105.176 281.645 105.715 c 281.965 107.055 282.137 108.449 282.137
 109.887 c 282.137 213.09 l 282.137 216.367 281.363 219.652 279.902 222.586
 c h
311.195 335.871 m 311.195 350.969 298.91 363.254 283.812 363.254 c 270.047
 363.254 l 270.047 255.828 l 285.293 225.277 l 287.172 221.512 288.164 217.297
 288.164 213.09 c 288.164 109.887 l 288.164 108.895 288.098 107.922 287.98
 106.961 c 301.105 108.973 311.195 120.344 311.195 134.027 c h
311.195 335.871 m f
232.051 143.465 m 123.949 143.465 l 115.152 143.465 107.992 150.625 107.992
 159.422 c 107.992 218.039 l 107.992 226.836 115.152 233.996 123.949 233.996
 c 232.051 233.996 l 240.848 233.996 248.008 226.836 248.008 218.039 c 248.008
 159.422 l 248.008 150.625 240.848 143.465 232.051 143.465 c h
241.98 218.039 m 241.98 223.516 237.527 227.969 232.051 227.969 c 123.949
 227.969 l 118.473 227.969 114.02 223.516 114.02 218.039 c 114.02 159.422
 l 114.02 153.945 118.473 149.492 123.949 149.492 c 232.051 149.492 l 237.527
 149.492 241.98 153.945 241.98 159.422 c h
241.98 218.039 m f
138.406 268.871 m 122.406 268.871 l 116.332 268.871 111.391 273.812 111.391
 279.887 c 111.391 295.887 l 111.391 301.961 116.332 306.898 122.406 306.898
 c 138.406 306.898 l 144.477 306.898 149.418 301.961 149.418 295.887 c 149.418
 279.887 l 149.418 273.812 144.477 268.871 138.406 268.871 c h
138.406 268.871 m f
185.473 268.871 m 169.473 268.871 l 163.398 268.871 158.457 273.812 158.457
 279.887 c 158.457 295.887 l 158.457 301.961 163.398 306.898 169.473 306.898
 c 185.473 306.898 l 191.547 306.898 196.488 301.961 196.488 295.887 c 196.488
 279.887 l 196.484 273.812 191.547 268.871 185.473 268.871 c h
185.473 268.871 m f
232.539 268.871 m 216.539 268.871 l 210.465 268.871 205.523 273.812 205.523
 279.887 c 205.523 295.887 l 205.523 301.961 210.465 306.898 216.539 306.898
 c 232.539 306.898 l 238.609 306.898 243.551 301.961 243.551 295.887 c 243.551
 279.887 l 243.551 273.812 238.613 268.871 232.539 268.871 c h
232.539 268.871 m f
138.406 315.938 m 122.406 315.938 l 116.332 315.938 111.391 320.879 111.391
 326.953 c 111.391 342.953 l 111.391 349.023 116.332 353.965 122.406 353.965
 c 138.406 353.965 l 144.477 353.965 149.418 349.023 149.418 342.953 c 149.418
 326.953 l 149.418 320.879 144.477 315.938 138.406 315.938 c h
138.406 315.938 m f
185.473 315.938 m 169.473 315.938 l 163.398 315.938 158.457 320.879 158.457
 326.953 c 158.457 342.953 l 158.457 349.023 163.398 353.965 169.473 353.965
 c 185.473 353.965 l 191.547 353.965 196.488 349.023 196.488 342.953 c 196.488
 326.953 l 196.484 320.879 191.547 315.938 185.473 315.938 c h
185.473 315.938 m f
232.539 315.938 m 216.539 315.938 l 210.465 315.938 205.523 320.879 205.523
 326.953 c 205.523 342.953 l 205.523 349.023 210.465 353.965 216.539 353.965
 c 232.539 353.965 l 238.609 353.965 243.551 349.023 243.551 342.953 c 243.551
 326.953 l 243.551 320.879 238.613 315.938 232.539 315.938 c h
232.539 315.938 m f
151.043 54.227 m 203.898 54.227 l 205.562 54.227 206.914 52.879 206.914
 51.215 c 206.914 49.551 205.562 48.203 203.898 48.203 c 151.043 48.203 
l 149.383 48.203 148.031 49.551 148.031 51.215 c 148.031 52.879 149.383 
54.227 151.043 54.227 c h
151.043 54.227 m f
151.043 79.098 m 203.898 79.098 l 205.562 79.098 206.914 77.75 206.914 
76.086 c 206.914 74.422 205.562 73.074 203.898 73.074 c 151.043 73.074 l
 149.383 73.074 148.031 74.422 148.031 76.086 c 148.031 77.75 149.383 79.098
 151.043 79.098 c h
151.043 79.098 m f
Q Q
showpage
%%Trailer
end
%%EOF
