%!PS-Adobe-3.0 EPSF-3.0
%%Creator: cairo 1.16.0 (https://cairographics.org)
%%CreationDate: Fri Feb 12 12:13:19 2021
%%Pages: 1
%%DocumentData: Clean7Bit
%%LanguageLevel: 2
%%BoundingBox: 0 21 384 363
%%EndComments
%%BeginProlog
50 dict begin
/q { gsave } bind def
/Q { grestore } bind def
/cm { 6 array astore concat } bind def
/w { setlinewidth } bind def
/J { setlinecap } bind def
/j { setlinejoin } bind def
/M { setmiterlimit } bind def
/d { setdash } bind def
/m { moveto } bind def
/l { lineto } bind def
/c { curveto } bind def
/h { closepath } bind def
/re { exch dup neg 3 1 roll 5 3 roll moveto 0 rlineto
      0 exch rlineto 0 rlineto closepath } bind def
/S { stroke } bind def
/f { fill } bind def
/f* { eofill } bind def
/n { newpath } bind def
/W { clip } bind def
/W* { eoclip } bind def
/BT { } bind def
/ET { } bind def
/BDC { mark 3 1 roll /BDC pdfmark } bind def
/EMC { mark /EMC pdfmark } bind def
/cairo_store_point { /cairo_point_y exch def /cairo_point_x exch def } def
/Tj { show currentpoint cairo_store_point } bind def
/TJ {
  {
    dup
    type /stringtype eq
    { show } { -0.001 mul 0 cairo_font_matrix dtransform rmoveto } ifelse
  } forall
  currentpoint cairo_store_point
} bind def
/cairo_selectfont { cairo_font_matrix aload pop pop pop 0 0 6 array astore
    cairo_font exch selectfont cairo_point_x cairo_point_y moveto } bind def
/Tf { pop /cairo_font exch def /cairo_font_matrix where
      { pop cairo_selectfont } if } bind def
/Td { matrix translate cairo_font_matrix matrix concatmatrix dup
      /cairo_font_matrix exch def dup 4 get exch 5 get cairo_store_point
      /cairo_font where { pop cairo_selectfont } if } bind def
/Tm { 2 copy 8 2 roll 6 array astore /cairo_font_matrix exch def
      cairo_store_point /cairo_font where { pop cairo_selectfont } if } bind def
/g { setgray } bind def
/rg { setrgbcolor } bind def
/d1 { setcachedevice } bind def
/cairo_data_source {
  CairoDataIndex CairoData length lt
    { CairoData CairoDataIndex get /CairoDataIndex CairoDataIndex 1 add def }
    { () } ifelse
} def
/cairo_flush_ascii85_file { cairo_ascii85_file status { cairo_ascii85_file flushfile } if } def
/cairo_image { image cairo_flush_ascii85_file } def
/cairo_imagemask { imagemask cairo_flush_ascii85_file } def
%%EndProlog
%%BeginSetup
%%EndSetup
%%Page: 1 1
%%BeginPageSetup
%%PageBoundingBox: 0 21 384 363
%%EndPageSetup
q 0 21 384 342 rectclip
1 0 0 -1 0 384 cm q
0.917647 0.658824 0.584314 rg
211.469 281.199 m 80.945 281.199 l 67.559 281.199 56.703 270.348 56.703
 256.961 c 56.703 49.055 l 56.703 35.668 67.559 24.816 80.945 24.816 c 211.469
 24.816 l 224.855 24.816 235.707 35.668 235.707 49.055 c 235.707 256.961
 l 235.707 270.348 224.855 281.199 211.469 281.199 c h
211.469 281.199 m f
0.913725 0.760784 0.470588 rg
197.109 105.48 m 171.77 105.48 l 168.113 105.48 165.148 102.516 165.148
 98.859 c 165.148 59.695 l 165.148 56.039 168.113 53.074 171.77 53.074 c
 197.109 53.074 l 200.766 53.074 203.73 56.039 203.73 59.695 c 203.73 98.859
 l 203.73 102.516 200.766 105.48 197.109 105.48 c h
197.109 105.48 m f
0.976471 0.984314 0.988235 rg
322.613 207.277 m 321.582 184.188 304.809 163.895 283.23 156.844 c 238.516
 139.559 l 235.871 136.516 232.094 134.457 227.766 134.078 c 209.125 132.445
 l 195.117 131.223 182.77 141.582 181.547 155.586 c 176.164 217.117 l 174.91
 231.453 185.512 244.09 199.848 245.344 c 207.992 246.055 l 221.051 247.199
 232.695 238.5 235.613 226.109 c 235.613 256.098 l 236.945 260.422 236.566
 265.008 233.703 269.086 c 229.848 274.574 223.32 277.793 217.086 279.77
 c 210.594 281.824 204.391 281.902 197.656 281.594 c 186.203 281.07 174.746
 280.641 163.285 280.359 c 145.926 279.934 128.457 279.402 111.137 280.82
 c 93.453 282.27 58.945 285.387 56.926 260.559 c 55.797 260.559 l 55.797
 153.363 l 55.773 153.359 l 42.047 151.25 29.262 160.812 27.41 174.574 c
 25.582 188.156 35.109 200.652 48.691 202.48 c 48.34 208.078 l 29.871 206.242
 l 16.281 205.055 4.301 215.105 3.113 228.695 c 1.922 242.281 11.977 254.262
 25.566 255.453 c 40.008 256.457 l 34.125 262.062 27 271.234 24.422 279.211
 c 20.402 291.648 32.918 303.711 45.938 304.852 c 162.461 315.047 l 73.395
 307.488 l 61.363 307.008 51.219 316.375 50.738 328.406 c 50.258 340.438
 59.625 350.582 71.656 351.062 c 122.215 353.074 l 257.906 358.98 l 280.906
 360.996 301.695 347.617 310.121 327.383 c 379.223 334.219 l 379.223 211.711
 l h
322.613 207.277 m f
0.917647 0.658824 0.584314 rg
372.445 221.109 m 371.047 221.109 369.914 222.242 369.914 223.641 c 369.914
 225.035 371.047 226.168 372.445 226.168 c 373.84 226.168 374.973 225.035
 374.973 223.641 c 374.973 222.242 373.84 221.109 372.445 221.109 c h
372.445 221.109 m f
372.445 237.41 m 371.047 237.41 369.914 238.543 369.914 239.941 c 369.914
 241.336 371.047 242.469 372.445 242.469 c 373.84 242.469 374.973 241.336
 374.973 239.941 c 374.973 238.543 373.84 237.41 372.445 237.41 c h
372.445 237.41 m f
372.445 253.715 m 371.047 253.715 369.914 254.844 369.914 256.242 c 369.914
 257.637 371.047 258.77 372.445 258.77 c 373.84 258.77 374.973 257.637 374.973
 256.242 c 374.973 254.844 373.84 253.715 372.445 253.715 c h
372.445 253.715 m f
372.445 270.016 m 371.047 270.016 369.914 271.148 369.914 272.543 c 369.914
 273.941 371.047 275.07 372.445 275.07 c 373.84 275.07 374.973 273.941 374.973
 272.543 c 374.973 271.145 373.84 270.016 372.445 270.016 c h
372.445 270.016 m f
372.445 286.316 m 371.047 286.316 369.914 287.445 369.914 288.844 c 369.914
 290.242 371.047 291.371 372.445 291.371 c 373.84 291.371 374.973 290.242
 374.973 288.844 c 374.973 287.445 373.84 286.316 372.445 286.316 c h
372.445 286.316 m f
372.445 302.617 m 371.047 302.617 369.914 303.75 369.914 305.145 c 369.914
 306.543 371.047 307.676 372.445 307.676 c 373.84 307.676 374.973 306.543
 374.973 305.145 c 374.973 303.75 373.84 302.617 372.445 302.617 c h
372.445 302.617 m f
372.445 318.918 m 371.047 318.918 369.914 320.051 369.914 321.445 c 369.914
 322.844 371.047 323.977 372.445 323.977 c 373.84 323.977 374.973 322.844
 374.973 321.445 c 374.973 320.051 373.84 318.918 372.445 318.918 c h
372.445 318.918 m f
367.129 215.18 m 367.129 216.578 365.996 217.711 364.602 217.711 c 363.203
 217.711 362.07 216.578 362.07 215.18 c 362.07 213.785 363.203 212.652 364.602
 212.652 c 365.996 212.652 367.129 213.785 367.129 215.18 c h
367.129 215.18 m f
356.145 221.109 m 354.746 221.109 353.613 222.242 353.613 223.641 c 353.613
 225.035 354.746 226.168 356.145 226.168 c 357.539 226.168 358.672 225.035
 358.672 223.641 c 358.672 222.242 357.539 221.109 356.145 221.109 c h
356.145 221.109 m f
364.602 228.953 m 363.203 228.953 362.07 230.086 362.07 231.48 c 362.07
 232.879 363.203 234.012 364.602 234.012 c 365.996 234.012 367.129 232.879
 367.129 231.48 c 367.129 230.086 365.996 228.953 364.602 228.953 c h
364.602 228.953 m f
356.145 237.41 m 354.746 237.41 353.613 238.543 353.613 239.941 c 353.613
 241.336 354.746 242.469 356.145 242.469 c 357.539 242.469 358.672 241.336
 358.672 239.941 c 358.672 238.543 357.539 237.41 356.145 237.41 c h
356.145 237.41 m f
364.602 245.254 m 363.203 245.254 362.07 246.387 362.07 247.785 c 362.07
 249.18 363.203 250.312 364.602 250.312 c 365.996 250.312 367.129 249.18
 367.129 247.785 c 367.129 246.387 365.996 245.254 364.602 245.254 c h
364.602 245.254 m f
356.145 253.715 m 354.746 253.715 353.613 254.844 353.613 256.242 c 353.613
 257.637 354.746 258.77 356.145 258.77 c 357.539 258.77 358.672 257.637 
358.672 256.242 c 358.672 254.844 357.539 253.715 356.145 253.715 c h
356.145 253.715 m f
364.602 261.555 m 363.203 261.555 362.07 262.688 362.07 264.086 c 362.07
 265.48 363.203 266.613 364.602 266.613 c 365.996 266.613 367.129 265.48
 367.129 264.086 c 367.129 262.688 365.996 261.555 364.602 261.555 c h
364.602 261.555 m f
356.145 270.016 m 354.746 270.016 353.613 271.148 353.613 272.543 c 353.613
 273.941 354.746 275.07 356.145 275.07 c 357.539 275.07 358.672 273.941 
358.672 272.543 c 358.672 271.145 357.539 270.016 356.145 270.016 c h
356.145 270.016 m f
364.602 277.859 m 363.203 277.859 362.07 278.988 362.07 280.387 c 362.07
 281.781 363.203 282.914 364.602 282.914 c 365.996 282.914 367.129 281.781
 367.129 280.387 c 367.129 278.988 365.996 277.859 364.602 277.859 c h
364.602 277.859 m f
356.145 286.316 m 354.746 286.316 353.613 287.445 353.613 288.844 c 353.613
 290.242 354.746 291.371 356.145 291.371 c 357.539 291.371 358.672 290.242
 358.672 288.844 c 358.672 287.445 357.539 286.316 356.145 286.316 c h
356.145 286.316 m f
364.602 294.16 m 363.203 294.16 362.07 295.293 362.07 296.688 c 362.07 
298.086 363.203 299.219 364.602 299.219 c 365.996 299.219 367.129 298.086
 367.129 296.688 c 367.129 295.293 365.996 294.16 364.602 294.16 c h
364.602 294.16 m f
356.145 302.617 m 354.746 302.617 353.613 303.75 353.613 305.145 c 353.613
 306.543 354.746 307.676 356.145 307.676 c 357.539 307.676 358.672 306.543
 358.672 305.145 c 358.672 303.75 357.539 302.617 356.145 302.617 c h
356.145 302.617 m f
364.602 310.461 m 363.203 310.461 362.07 311.594 362.07 312.988 c 362.07
 314.387 363.203 315.516 364.602 315.516 c 365.996 315.516 367.129 314.387
 367.129 312.988 c 367.129 311.594 365.996 310.461 364.602 310.461 c h
364.602 310.461 m f
356.145 318.918 m 354.746 318.918 353.613 320.051 353.613 321.445 c 353.613
 322.844 354.746 323.977 356.145 323.977 c 357.539 323.977 358.672 322.844
 358.672 321.445 c 358.672 320.051 357.539 318.918 356.145 318.918 c h
356.145 318.918 m f
364.602 326.762 m 363.203 326.762 362.07 327.895 362.07 329.289 c 362.07
 330.688 363.203 331.82 364.602 331.82 c 365.996 331.82 367.129 330.688 
367.129 329.289 c 367.129 327.895 365.996 326.762 364.602 326.762 c h
364.602 326.762 m f
350.828 215.18 m 350.828 216.578 349.695 217.711 348.301 217.711 c 346.902
 217.711 345.77 216.578 345.77 215.18 c 345.77 213.785 346.902 212.652 348.301
 212.652 c 349.695 212.652 350.828 213.785 350.828 215.18 c h
350.828 215.18 m f
339.84 221.109 m 338.445 221.109 337.312 222.242 337.312 223.641 c 337.312
 225.035 338.445 226.168 339.84 226.168 c 341.238 226.168 342.371 225.035
 342.371 223.641 c 342.371 222.242 341.238 221.109 339.84 221.109 c h
339.84 221.109 m f
348.301 228.953 m 346.902 228.953 345.77 230.086 345.77 231.48 c 345.77
 232.879 346.902 234.012 348.301 234.012 c 349.695 234.012 350.828 232.879
 350.828 231.48 c 350.828 230.086 349.695 228.953 348.301 228.953 c h
348.301 228.953 m f
339.84 237.41 m 338.445 237.41 337.312 238.543 337.312 239.941 c 337.312
 241.336 338.445 242.469 339.84 242.469 c 341.238 242.469 342.371 241.336
 342.371 239.941 c 342.371 238.543 341.238 237.41 339.84 237.41 c h
339.84 237.41 m f
348.301 245.254 m 346.902 245.254 345.77 246.387 345.77 247.785 c 345.77
 249.18 346.902 250.312 348.301 250.312 c 349.695 250.312 350.828 249.18
 350.828 247.785 c 350.828 246.387 349.695 245.254 348.301 245.254 c h
348.301 245.254 m f
339.84 253.715 m 338.445 253.715 337.312 254.844 337.312 256.242 c 337.312
 257.637 338.445 258.77 339.84 258.77 c 341.238 258.77 342.371 257.637 342.371
 256.242 c 342.371 254.844 341.238 253.715 339.84 253.715 c h
339.84 253.715 m f
348.301 261.555 m 346.902 261.555 345.77 262.688 345.77 264.086 c 345.77
 265.48 346.902 266.613 348.301 266.613 c 349.695 266.613 350.828 265.48
 350.828 264.086 c 350.828 262.688 349.695 261.555 348.301 261.555 c h
348.301 261.555 m f
339.84 270.016 m 338.445 270.016 337.312 271.148 337.312 272.543 c 337.312
 273.941 338.445 275.07 339.84 275.07 c 341.238 275.07 342.371 273.941 342.371
 272.543 c 342.371 271.145 341.238 270.016 339.84 270.016 c h
339.84 270.016 m f
348.301 277.859 m 346.902 277.859 345.77 278.988 345.77 280.387 c 345.77
 281.781 346.902 282.914 348.301 282.914 c 349.695 282.914 350.828 281.781
 350.828 280.387 c 350.828 278.988 349.695 277.859 348.301 277.859 c h
348.301 277.859 m f
339.84 286.316 m 338.445 286.316 337.312 287.445 337.312 288.844 c 337.312
 290.242 338.445 291.371 339.84 291.371 c 341.238 291.371 342.371 290.242
 342.371 288.844 c 342.371 287.445 341.238 286.316 339.84 286.316 c h
339.84 286.316 m f
348.301 294.16 m 346.902 294.16 345.77 295.293 345.77 296.688 c 345.77 
298.086 346.902 299.219 348.301 299.219 c 349.695 299.219 350.828 298.086
 350.828 296.688 c 350.828 295.293 349.695 294.16 348.301 294.16 c h
348.301 294.16 m f
339.84 302.617 m 338.445 302.617 337.312 303.75 337.312 305.145 c 337.312
 306.543 338.445 307.676 339.84 307.676 c 341.238 307.676 342.371 306.543
 342.371 305.145 c 342.371 303.75 341.238 302.617 339.84 302.617 c h
339.84 302.617 m f
348.301 310.461 m 346.902 310.461 345.77 311.594 345.77 312.988 c 345.77
 314.387 346.902 315.516 348.301 315.516 c 349.695 315.516 350.828 314.387
 350.828 312.988 c 350.828 311.594 349.695 310.461 348.301 310.461 c h
348.301 310.461 m f
339.84 323.977 m 341.238 323.977 342.371 322.844 342.371 321.445 c 342.371
 320.051 341.238 318.918 339.84 318.918 c 338.445 318.918 337.312 320.051
 337.312 321.445 c 337.312 322.844 338.445 323.977 339.84 323.977 c h
339.84 323.977 m f
350.828 329.289 m 350.828 327.895 349.695 326.762 348.301 326.762 c 346.902
 326.762 345.77 327.895 345.77 329.289 c 345.77 329.938 346.02 330.52 346.418
 330.969 c 349.812 331.305 l 350.426 330.84 350.828 330.117 350.828 329.289
 c h
350.828 329.289 m f
331.996 294.16 m 330.602 294.16 329.469 295.293 329.469 296.688 c 329.469
 298.086 330.602 299.219 331.996 299.219 c 333.395 299.219 334.527 298.086
 334.527 296.688 c 334.527 295.293 333.395 294.16 331.996 294.16 c h
331.996 294.16 m f
323.539 302.617 m 322.145 302.617 321.012 303.75 321.012 305.145 c 321.012
 306.543 322.145 307.676 323.539 307.676 c 324.938 307.676 326.07 306.543
 326.07 305.145 c 326.07 303.75 324.938 302.617 323.539 302.617 c h
323.539 302.617 m f
331.996 310.461 m 330.602 310.461 329.469 311.594 329.469 312.988 c 329.469
 314.387 330.602 315.516 331.996 315.516 c 333.395 315.516 334.527 314.387
 334.527 312.988 c 334.527 311.594 333.395 310.461 331.996 310.461 c h
331.996 310.461 m f
323.539 318.918 m 322.145 318.918 321.012 320.051 321.012 321.445 c 321.012
 322.844 322.145 323.977 323.539 323.977 c 324.938 323.977 326.07 322.844
 326.07 321.445 c 326.07 320.051 324.938 318.918 323.539 318.918 c h
323.539 318.918 m f
313.168 296.688 m 313.168 298.086 314.301 299.219 315.695 299.219 c 317.094
 299.219 318.227 298.086 318.227 296.688 c 318.227 295.293 317.094 294.16
 315.695 294.16 c 314.301 294.16 313.168 295.293 313.168 296.688 c h
313.168 296.688 m f
307.238 302.617 m 305.844 302.617 304.711 303.75 304.711 305.145 c 304.711
 306.543 305.844 307.676 307.238 307.676 c 308.637 307.676 309.77 306.543
 309.77 305.145 c 309.766 303.75 308.637 302.617 307.238 302.617 c h
307.238 302.617 m f
315.695 315.516 m 317.094 315.516 318.227 314.387 318.227 312.988 c 318.227
 311.594 317.094 310.461 315.695 310.461 c 314.301 310.461 313.168 311.594
 313.168 312.988 c 313.168 314.387 314.301 315.516 315.695 315.516 c h
315.695 315.516 m f
307.238 323.977 m 308.637 323.977 309.77 322.844 309.77 321.445 c 309.77
 320.051 308.637 318.918 307.238 318.918 c 305.844 318.918 304.711 320.051
 304.711 321.445 c 304.711 322.844 305.844 323.977 307.238 323.977 c h
307.238 323.977 m f
299.395 294.16 m 298 294.16 296.867 295.293 296.867 296.688 c 296.867 298.086
 298 299.219 299.395 299.219 c 300.793 299.219 301.922 298.086 301.922 296.688
 c 301.922 295.293 300.793 294.16 299.395 294.16 c h
299.395 294.16 m f
290.938 302.617 m 289.543 302.617 288.41 303.75 288.41 305.145 c 288.41
 306.543 289.539 307.676 290.938 307.676 c 292.336 307.676 293.465 306.543
 293.465 305.145 c 293.465 303.75 292.336 302.617 290.938 302.617 c h
290.938 302.617 m f
299.395 310.461 m 298 310.461 296.867 311.594 296.867 312.988 c 296.867
 314.387 298 315.516 299.395 315.516 c 300.793 315.516 301.922 314.387 301.922
 312.988 c 301.922 311.594 300.793 310.461 299.395 310.461 c h
299.395 310.461 m f
290.938 318.918 m 289.543 318.918 288.41 320.051 288.41 321.445 c 288.41
 322.844 289.539 323.977 290.938 323.977 c 292.336 323.977 293.465 322.844
 293.465 321.445 c 293.465 320.051 292.336 318.918 290.938 318.918 c h
290.938 318.918 m f
299.395 326.762 m 298 326.762 296.867 327.895 296.867 329.289 c 296.867
 330.688 298 331.82 299.395 331.82 c 300.793 331.82 301.922 330.688 301.922
 329.289 c 301.922 327.895 300.793 326.762 299.395 326.762 c h
299.395 326.762 m f
290.938 335.219 m 289.543 335.219 288.41 336.352 288.41 337.75 c 288.41
 339.145 289.539 340.277 290.938 340.277 c 292.336 340.277 293.465 339.145
 293.465 337.75 c 293.465 336.352 292.336 335.219 290.938 335.219 c h
290.938 335.219 m f
283.094 294.16 m 281.695 294.16 280.566 295.293 280.566 296.688 c 280.566
 298.086 281.695 299.219 283.094 299.219 c 284.488 299.219 285.621 298.086
 285.621 296.688 c 285.621 295.293 284.488 294.16 283.094 294.16 c h
283.094 294.16 m f
274.637 302.617 m 273.238 302.617 272.109 303.75 272.109 305.145 c 272.109
 306.543 273.238 307.676 274.637 307.676 c 276.031 307.676 277.164 306.543
 277.164 305.145 c 277.164 303.75 276.031 302.617 274.637 302.617 c h
274.637 302.617 m f
283.094 310.461 m 281.695 310.461 280.566 311.594 280.566 312.988 c 280.566
 314.387 281.695 315.516 283.094 315.516 c 284.488 315.516 285.621 314.387
 285.621 312.988 c 285.621 311.594 284.488 310.461 283.094 310.461 c h
283.094 310.461 m f
274.637 318.918 m 273.238 318.918 272.109 320.051 272.109 321.445 c 272.109
 322.844 273.238 323.977 274.637 323.977 c 276.031 323.977 277.164 322.844
 277.164 321.445 c 277.164 320.051 276.031 318.918 274.637 318.918 c h
274.637 318.918 m f
283.094 326.762 m 281.695 326.762 280.566 327.895 280.566 329.289 c 280.566
 330.688 281.695 331.82 283.094 331.82 c 284.488 331.82 285.621 330.688 
285.621 329.289 c 285.621 327.895 284.488 326.762 283.094 326.762 c h
283.094 326.762 m f
274.637 335.219 m 273.238 335.219 272.109 336.352 272.109 337.75 c 272.109
 339.145 273.238 340.277 274.637 340.277 c 276.031 340.277 277.164 339.145
 277.164 337.75 c 277.164 336.352 276.031 335.219 274.637 335.219 c h
274.637 335.219 m f
283.094 343.062 m 281.695 343.062 280.566 344.195 280.566 345.59 c 280.566
 346.988 281.695 348.121 283.094 348.121 c 284.488 348.121 285.621 346.988
 285.621 345.59 c 285.621 344.195 284.488 343.062 283.094 343.062 c h
283.094 343.062 m f
274.637 351.52 m 273.238 351.52 272.109 352.652 272.109 354.051 c 272.109
 355.445 273.238 356.578 274.637 356.578 c 276.031 356.578 277.164 355.445
 277.164 354.051 c 277.164 352.652 276.031 351.52 274.637 351.52 c h
274.637 351.52 m f
258.336 302.617 m 256.938 302.617 255.805 303.75 255.805 305.145 c 255.805
 306.543 256.938 307.676 258.336 307.676 c 259.73 307.676 260.863 306.543
 260.863 305.145 c 260.863 303.75 259.73 302.617 258.336 302.617 c h
258.336 302.617 m f
266.793 310.461 m 265.395 310.461 264.266 311.594 264.266 312.988 c 264.266
 314.387 265.395 315.516 266.793 315.516 c 268.188 315.516 269.32 314.387
 269.32 312.988 c 269.32 311.594 268.188 310.461 266.793 310.461 c h
266.793 310.461 m f
258.336 323.977 m 259.73 323.977 260.863 322.844 260.863 321.445 c 260.863
 320.051 259.73 318.918 258.336 318.918 c 256.938 318.918 255.805 320.051
 255.805 321.445 c 255.805 322.844 256.938 323.977 258.336 323.977 c h
258.336 323.977 m f
266.793 326.762 m 265.395 326.762 264.266 327.895 264.266 329.289 c 264.266
 330.688 265.395 331.82 266.793 331.82 c 268.188 331.82 269.32 330.688 269.32
 329.289 c 269.32 327.895 268.188 326.762 266.793 326.762 c h
266.793 326.762 m f
258.336 340.277 m 259.73 340.277 260.863 339.145 260.863 337.746 c 260.863
 336.352 259.73 335.219 258.336 335.219 c 256.938 335.219 255.805 336.352
 255.805 337.746 c 255.805 339.145 256.938 340.277 258.336 340.277 c h
258.336 340.277 m f
266.793 348.121 m 268.188 348.121 269.32 346.988 269.32 345.59 c 269.32
 344.195 268.188 343.062 266.793 343.062 c 265.395 343.062 264.266 344.195
 264.266 345.59 c 264.266 346.988 265.398 348.121 266.793 348.121 c h
266.793 348.121 m f
258.336 356.578 m 259.73 356.578 260.863 355.445 260.863 354.051 c 260.863
 352.652 259.73 351.52 258.336 351.52 c 256.938 351.52 255.805 352.652 255.805
 354.051 c 255.805 355.445 256.938 356.578 258.336 356.578 c h
258.336 356.578 m f
250.492 315.516 m 251.887 315.516 253.02 314.387 253.02 312.988 c 253.02
 311.594 251.887 310.461 250.492 310.461 c 249.094 310.461 247.961 311.594
 247.961 312.988 c 247.961 314.387 249.094 315.516 250.492 315.516 c h
250.492 315.516 m f
242.035 318.918 m 240.637 318.918 239.504 320.051 239.504 321.445 c 239.504
 322.844 240.637 323.977 242.035 323.977 c 243.43 323.977 244.562 322.844
 244.562 321.445 c 244.562 320.051 243.43 318.918 242.035 318.918 c h
242.035 318.918 m f
250.492 331.82 m 251.887 331.82 253.02 330.688 253.02 329.289 c 253.02 
327.895 251.887 326.762 250.492 326.762 c 249.094 326.762 247.961 327.895
 247.961 329.289 c 247.961 330.688 249.094 331.82 250.492 331.82 c h
250.492 331.82 m f
242.035 335.219 m 240.637 335.219 239.504 336.352 239.504 337.75 c 239.504
 339.145 240.637 340.277 242.035 340.277 c 243.43 340.277 244.562 339.145
 244.562 337.75 c 244.562 336.352 243.43 335.219 242.035 335.219 c h
242.035 335.219 m f
250.492 348.121 m 251.887 348.121 253.02 346.988 253.02 345.59 c 253.02
 344.195 251.887 343.062 250.492 343.062 c 249.094 343.062 247.961 344.195
 247.961 345.59 c 247.961 346.988 249.094 348.121 250.492 348.121 c h
250.492 348.121 m f
242.035 351.52 m 240.637 351.52 239.504 352.652 239.504 354.051 c 239.504
 355.445 240.637 356.578 242.035 356.578 c 243.43 356.578 244.562 355.445
 244.562 354.051 c 244.562 352.652 243.43 351.52 242.035 351.52 c h
242.035 351.52 m f
225.734 318.918 m 224.336 318.918 223.203 320.051 223.203 321.445 c 223.203
 322.844 224.336 323.977 225.734 323.977 c 227.129 323.977 228.262 322.844
 228.262 321.445 c 228.262 320.051 227.129 318.918 225.734 318.918 c h
225.734 318.918 m f
234.191 326.762 m 232.793 326.762 231.66 327.895 231.66 329.289 c 231.66
 330.688 232.793 331.82 234.191 331.82 c 235.586 331.82 236.719 330.688 
236.719 329.289 c 236.719 327.895 235.586 326.762 234.191 326.762 c h
234.191 326.762 m f
225.734 335.219 m 224.336 335.219 223.203 336.352 223.203 337.75 c 223.203
 339.145 224.336 340.277 225.734 340.277 c 227.129 340.277 228.262 339.145
 228.262 337.75 c 228.262 336.352 227.129 335.219 225.734 335.219 c h
225.734 335.219 m f
234.191 343.062 m 232.793 343.062 231.66 344.195 231.66 345.59 c 231.66
 346.988 232.793 348.121 234.191 348.121 c 235.586 348.121 236.719 346.988
 236.719 345.59 c 236.719 344.195 235.586 343.062 234.191 343.062 c h
234.191 343.062 m f
225.734 351.52 m 224.336 351.52 223.203 352.652 223.203 354.051 c 223.203
 355.445 224.336 356.578 225.734 356.578 c 227.129 356.578 228.262 355.445
 228.262 354.051 c 228.262 352.652 227.129 351.52 225.734 351.52 c h
225.734 351.52 m f
209.43 318.918 m 208.035 318.918 206.902 320.051 206.902 321.445 c 206.902
 322.844 208.035 323.977 209.43 323.977 c 210.828 323.977 211.961 322.844
 211.961 321.445 c 211.961 320.051 210.828 318.918 209.43 318.918 c h
209.43 318.918 m f
215.359 329.289 m 215.359 330.688 216.492 331.82 217.887 331.82 c 219.285
 331.82 220.418 330.688 220.418 329.289 c 220.418 327.895 219.285 326.762
 217.887 326.762 c 216.492 326.762 215.359 327.895 215.359 329.289 c h
215.359 329.289 m f
209.43 335.219 m 208.035 335.219 206.902 336.352 206.902 337.75 c 206.902
 339.145 208.035 340.277 209.43 340.277 c 210.828 340.277 211.961 339.145
 211.961 337.75 c 211.961 336.352 210.828 335.219 209.43 335.219 c h
209.43 335.219 m f
217.887 348.121 m 219.285 348.121 220.418 346.988 220.418 345.59 c 220.418
 344.195 219.285 343.062 217.887 343.062 c 216.492 343.062 215.359 344.195
 215.359 345.59 c 215.359 346.988 216.492 348.121 217.887 348.121 c h
217.887 348.121 m f
209.43 351.52 m 208.035 351.52 206.902 352.652 206.902 354.051 c 206.902
 355.445 208.035 356.578 209.43 356.578 c 210.828 356.578 211.961 355.445
 211.961 354.051 c 211.961 352.652 210.828 351.52 209.43 351.52 c h
209.43 351.52 m f
193.129 318.918 m 191.734 318.918 190.602 320.051 190.602 321.445 c 190.602
 322.844 191.734 323.977 193.129 323.977 c 194.527 323.977 195.656 322.844
 195.656 321.445 c 195.66 320.051 194.527 318.918 193.129 318.918 c h
193.129 318.918 m f
201.586 326.762 m 200.191 326.762 199.059 327.895 199.059 329.289 c 199.059
 330.688 200.191 331.82 201.586 331.82 c 202.984 331.82 204.117 330.688 
204.117 329.289 c 204.117 327.895 202.984 326.762 201.586 326.762 c h
201.586 326.762 m f
193.129 335.219 m 191.734 335.219 190.602 336.352 190.602 337.75 c 190.602
 339.145 191.734 340.277 193.129 340.277 c 194.527 340.277 195.656 339.145
 195.656 337.75 c 195.656 336.352 194.527 335.219 193.129 335.219 c h
193.129 335.219 m f
201.586 343.062 m 200.191 343.062 199.059 344.195 199.059 345.59 c 199.059
 346.988 200.191 348.121 201.586 348.121 c 202.984 348.121 204.117 346.988
 204.117 345.59 c 204.117 344.195 202.984 343.062 201.586 343.062 c h
201.586 343.062 m f
195.66 354.051 m 195.66 352.652 194.527 351.52 193.129 351.52 c 191.734
 351.52 190.602 352.652 190.602 354.051 c 190.602 354.895 191.02 355.637
 191.656 356.098 c 194.414 356.219 l 195.156 355.777 195.66 354.977 195.66
 354.051 c h
195.66 354.051 m f
176.828 318.918 m 175.434 318.918 174.301 320.051 174.301 321.445 c 174.301
 322.844 175.434 323.977 176.828 323.977 c 178.227 323.977 179.355 322.844
 179.355 321.445 c 179.355 320.051 178.227 318.918 176.828 318.918 c h
176.828 318.918 m f
185.285 326.762 m 183.891 326.762 182.758 327.895 182.758 329.289 c 182.758
 330.688 183.891 331.82 185.285 331.82 c 186.684 331.82 187.816 330.688 
187.816 329.289 c 187.812 327.895 186.684 326.762 185.285 326.762 c h
185.285 326.762 m f
176.828 335.219 m 175.434 335.219 174.301 336.352 174.301 337.75 c 174.301
 339.145 175.434 340.277 176.828 340.277 c 178.227 340.277 179.355 339.145
 179.355 337.75 c 179.355 336.352 178.227 335.219 176.828 335.219 c h
176.828 335.219 m f
185.285 343.062 m 183.891 343.062 182.758 344.195 182.758 345.59 c 182.758
 346.988 183.891 348.121 185.285 348.121 c 186.684 348.121 187.816 346.988
 187.816 345.59 c 187.816 344.195 186.684 343.062 185.285 343.062 c h
185.285 343.062 m f
176.828 351.52 m 175.434 351.52 174.301 352.652 174.301 354.051 c 174.301
 354.531 174.441 354.977 174.676 355.359 c 178.863 355.539 l 179.168 355.121
 179.355 354.609 179.355 354.051 c 179.355 352.652 178.227 351.52 176.828
 351.52 c h
176.828 351.52 m f
160.527 318.918 m 159.129 318.918 157.996 320.051 157.996 321.445 c 157.996
 322.844 159.129 323.977 160.527 323.977 c 161.922 323.977 163.055 322.844
 163.055 321.445 c 163.055 320.051 161.922 318.918 160.527 318.918 c h
160.527 318.918 m f
168.984 326.762 m 167.59 326.762 166.457 327.895 166.457 329.289 c 166.457
 330.688 167.59 331.82 168.984 331.82 c 170.383 331.82 171.512 330.688 171.512
 329.289 c 171.512 327.895 170.383 326.762 168.984 326.762 c h
168.984 326.762 m f
160.527 335.219 m 159.129 335.219 157.996 336.352 157.996 337.75 c 157.996
 339.145 159.129 340.277 160.527 340.277 c 161.922 340.277 163.055 339.145
 163.055 337.75 c 163.055 336.352 161.922 335.219 160.527 335.219 c h
160.527 335.219 m f
168.984 343.062 m 167.59 343.062 166.457 344.195 166.457 345.59 c 166.457
 346.988 167.59 348.121 168.984 348.121 c 170.383 348.121 171.512 346.988
 171.512 345.59 c 171.512 344.195 170.383 343.062 168.984 343.062 c h
168.984 343.062 m f
144.227 318.918 m 142.828 318.918 141.699 320.051 141.699 321.445 c 141.699
 322.844 142.828 323.977 144.227 323.977 c 145.621 323.977 146.754 322.844
 146.754 321.445 c 146.754 320.051 145.621 318.918 144.227 318.918 c h
144.227 318.918 m f
152.684 326.762 m 151.285 326.762 150.156 327.895 150.156 329.289 c 150.156
 330.688 151.285 331.82 152.684 331.82 c 154.078 331.82 155.211 330.688 
155.211 329.289 c 155.211 327.895 154.078 326.762 152.684 326.762 c h
152.684 326.762 m f
144.227 335.219 m 142.828 335.219 141.699 336.352 141.699 337.75 c 141.699
 339.145 142.828 340.277 144.227 340.277 c 145.621 340.277 146.754 339.145
 146.754 337.75 c 146.754 336.352 145.621 335.219 144.227 335.219 c h
144.227 335.219 m f
152.684 343.062 m 151.285 343.062 150.156 344.195 150.156 345.59 c 150.156
 346.988 151.285 348.121 152.684 348.121 c 154.078 348.121 155.211 346.988
 155.211 345.59 c 155.211 344.195 154.078 343.062 152.684 343.062 c h
152.684 343.062 m f
127.926 318.918 m 126.527 318.918 125.395 320.051 125.395 321.445 c 125.395
 322.844 126.527 323.977 127.926 323.977 c 129.32 323.977 130.453 322.844
 130.453 321.445 c 130.453 320.051 129.32 318.918 127.926 318.918 c h
127.926 318.918 m f
136.383 326.762 m 134.984 326.762 133.855 327.895 133.855 329.289 c 133.855
 330.688 134.984 331.82 136.383 331.82 c 137.777 331.82 138.91 330.688 138.91
 329.289 c 138.91 327.895 137.777 326.762 136.383 326.762 c h
136.383 326.762 m f
127.926 335.219 m 126.527 335.219 125.395 336.352 125.395 337.75 c 125.395
 339.145 126.527 340.277 127.926 340.277 c 129.32 340.277 130.453 339.145
 130.453 337.75 c 130.453 336.352 129.32 335.219 127.926 335.219 c h
127.926 335.219 m f
136.383 343.062 m 134.984 343.062 133.855 344.195 133.855 345.59 c 133.855
 346.988 134.984 348.121 136.383 348.121 c 137.777 348.121 138.91 346.988
 138.91 345.59 c 138.91 344.195 137.777 343.062 136.383 343.062 c h
136.383 343.062 m f
120.082 315.516 m 121.477 315.516 122.609 314.387 122.609 312.988 c 122.609
 312.699 122.551 312.426 122.461 312.168 c 117.77 311.969 l 117.633 312.281
 117.551 312.625 117.551 312.988 c 117.551 314.387 118.684 315.516 120.082
 315.516 c h
120.082 315.516 m f
111.625 318.918 m 110.227 318.918 109.094 320.051 109.094 321.445 c 109.094
 322.844 110.227 323.977 111.625 323.977 c 113.02 323.977 114.152 322.844
 114.152 321.445 c 114.152 320.051 113.02 318.918 111.625 318.918 c h
111.625 318.918 m f
120.082 326.762 m 118.684 326.762 117.551 327.895 117.551 329.289 c 117.551
 330.688 118.684 331.82 120.082 331.82 c 121.477 331.82 122.609 330.688 
122.609 329.289 c 122.609 327.895 121.477 326.762 120.082 326.762 c h
120.082 326.762 m f
111.625 335.219 m 110.227 335.219 109.094 336.352 109.094 337.75 c 109.094
 339.145 110.227 340.277 111.625 340.277 c 113.02 340.277 114.152 339.145
 114.152 337.75 c 114.152 336.352 113.02 335.219 111.625 335.219 c h
111.625 335.219 m f
120.082 343.062 m 118.684 343.062 117.551 344.195 117.551 345.59 c 117.551
 346.988 118.684 348.121 120.082 348.121 c 121.477 348.121 122.609 346.988
 122.609 345.59 c 122.609 344.195 121.477 343.062 120.082 343.062 c h
120.082 343.062 m f
103.777 315.516 m 105.176 315.516 106.309 314.387 106.309 312.988 c 106.309
 312.41 106.105 311.883 105.777 311.461 c 101.914 311.297 l 101.504 311.746
 101.25 312.336 101.25 312.988 c 101.25 314.387 102.383 315.516 103.777 
315.516 c h
103.777 315.516 m f
95.32 318.918 m 93.926 318.918 92.793 320.051 92.793 321.445 c 92.793 322.844
 93.926 323.977 95.32 323.977 c 96.719 323.977 97.852 322.844 97.852 321.445
 c 97.852 320.051 96.719 318.918 95.32 318.918 c h
95.32 318.918 m f
103.777 326.762 m 102.383 326.762 101.25 327.895 101.25 329.289 c 101.25
 330.688 102.383 331.82 103.777 331.82 c 105.176 331.82 106.309 330.688 
106.309 329.289 c 106.309 327.895 105.176 326.762 103.777 326.762 c h
103.777 326.762 m f
95.32 335.219 m 93.926 335.219 92.793 336.352 92.793 337.75 c 92.793 339.145
 93.926 340.277 95.32 340.277 c 96.719 340.277 97.852 339.145 97.852 337.75
 c 97.852 336.352 96.719 335.219 95.32 335.219 c h
95.32 335.219 m f
103.777 343.062 m 102.383 343.062 101.25 344.195 101.25 345.59 c 101.25
 346.988 102.383 348.121 103.777 348.121 c 105.176 348.121 106.309 346.988
 106.309 345.59 c 106.309 344.195 105.176 343.062 103.777 343.062 c h
103.777 343.062 m f
84.949 312.988 m 84.949 314.387 86.082 315.516 87.477 315.516 c 88.875 
315.516 90.008 314.387 90.008 312.988 c 90.008 311.992 89.426 311.141 88.59
 310.727 c 86.555 310.641 l 85.613 311.012 84.949 311.922 84.949 312.988
 c h
84.949 312.988 m f
79.02 318.918 m 77.625 318.918 76.492 320.051 76.492 321.445 c 76.492 322.844
 77.625 323.977 79.02 323.977 c 80.418 323.977 81.551 322.844 81.551 321.445
 c 81.551 320.051 80.418 318.918 79.02 318.918 c h
79.02 318.918 m f
87.477 326.762 m 86.082 326.762 84.949 327.895 84.949 329.289 c 84.949 
330.688 86.082 331.82 87.477 331.82 c 88.875 331.82 90.008 330.688 90.008
 329.289 c 90.008 327.895 88.875 326.762 87.477 326.762 c h
87.477 326.762 m f
79.02 335.219 m 77.625 335.219 76.492 336.352 76.492 337.75 c 76.492 339.145
 77.625 340.277 79.02 340.277 c 80.418 340.277 81.551 339.145 81.551 337.75
 c 81.551 336.352 80.418 335.219 79.02 335.219 c h
79.02 335.219 m f
87.477 343.062 m 86.082 343.062 84.949 344.195 84.949 345.59 c 84.949 346.988
 86.082 348.121 87.477 348.121 c 88.875 348.121 90.008 346.988 90.008 345.59
 c 90.008 344.195 88.875 343.062 87.477 343.062 c h
87.477 343.062 m f
71.176 310.461 m 69.781 310.461 68.648 311.594 68.648 312.988 c 68.648 
314.387 69.781 315.516 71.176 315.516 c 72.574 315.516 73.703 314.387 73.703
 312.988 c 73.707 311.594 72.574 310.461 71.176 310.461 c h
71.176 310.461 m f
60.191 321.445 m 60.191 322.844 61.32 323.977 62.719 323.977 c 64.117 323.977
 65.246 322.844 65.246 321.445 c 65.246 320.051 64.117 318.918 62.719 318.918
 c 61.32 318.918 60.191 320.051 60.191 321.445 c h
60.191 321.445 m f
71.176 326.762 m 69.781 326.762 68.648 327.895 68.648 329.289 c 68.648 
330.688 69.781 331.82 71.176 331.82 c 72.574 331.82 73.703 330.688 73.703
 329.289 c 73.707 327.895 72.574 326.762 71.176 326.762 c h
71.176 326.762 m f
62.719 340.277 m 64.117 340.277 65.246 339.145 65.246 337.746 c 65.246 
336.352 64.117 335.219 62.719 335.219 c 61.324 335.219 60.191 336.352 60.191
 337.746 c 60.191 339.145 61.32 340.277 62.719 340.277 c h
62.719 340.277 m f
71.176 343.062 m 69.781 343.062 68.648 344.195 68.648 345.59 c 68.648 346.988
 69.781 348.121 71.176 348.121 c 72.574 348.121 73.703 346.988 73.703 345.59
 c 73.703 344.195 72.574 343.062 71.176 343.062 c h
71.176 343.062 m f
54.875 326.762 m 53.48 326.762 52.348 327.895 52.348 329.289 c 52.348 330.688
 53.48 331.82 54.875 331.82 c 56.273 331.82 57.402 330.688 57.402 329.289
 c 57.402 327.895 56.273 326.762 54.875 326.762 c h
54.875 326.762 m f
0.192157 0.215686 0.239216 rg
380.871 331.613 m 310.43 324.383 l 309.098 324.25 307.848 324.996 307.336
 326.223 c 299.152 345.875 279.402 357.836 258.168 355.977 c 258.125 355.973
 258.082 355.973 258.039 355.969 c 122.336 350.062 l 71.777 348.047 l 61.426
 347.633 53.344 338.879 53.754 328.527 c 54.156 318.43 62.5 310.488 72.516
 310.488 c 72.75 310.488 72.98 310.492 73.211 310.5 c 162.207 318.051 l 
163.84 318.191 165.324 316.965 165.469 315.305 c 165.613 313.645 164.383
 312.184 162.727 312.039 c 46.203 301.848 l 40.707 301.363 35.727 298.773
 32.184 294.547 c 28.637 290.32 26.949 284.969 27.43 279.473 c 27.91 273.977
 30.504 268.996 34.727 265.453 c 38.953 261.906 44.305 260.215 49.801 260.699
 c 53.996 261.066 l 55.984 274.156 67.309 284.219 80.945 284.219 c 211.469
 284.219 l 226.5 284.219 238.727 271.992 238.727 256.961 c 238.727 224.957
 l 238.797 224.633 238.867 224.312 238.934 223.984 c 241.387 226.395 244.102
 228.574 247.059 230.484 c 255.492 235.938 265.105 238.754 274.918 238.754
 c 278.543 238.754 282.203 238.367 285.836 237.586 c 287.465 237.234 288.5
 235.633 288.152 234.004 c 287.801 232.371 286.199 231.336 284.566 231.684
 c 272.691 234.234 260.535 232.008 250.336 225.414 c 246.293 222.801 242.766
 219.617 239.805 215.992 c 242.16 189.09 l 242.305 187.43 241.078 185.965
 239.414 185.82 c 237.77 185.68 236.293 186.902 236.148 188.562 c 233.375
 220.227 l 232.797 226.859 229.668 232.871 224.566 237.148 c 219.469 241.43
 213.008 243.465 206.371 242.887 c 201.992 242.504 l 188.301 241.305 178.137
 229.191 179.336 215.5 c 184.281 158.953 l 185.352 146.711 195.293 134.27
 209.5 135.508 c 222.953 136.398 251.105 147.465 273.723 156.359 c 276.609
 157.492 279.426 158.602 282.117 159.648 c 303.977 168.352 318.691 187.098
 319.602 207.414 c 319.668 208.926 320.844 210.152 322.352 210.285 c 380.719
 215.391 l 382.367 215.539 383.844 214.309 383.988 212.648 c 384.137 210.984
 382.906 209.523 381.246 209.379 c 325.445 204.496 l 323.336 182.852 307.473
 163.246 284.328 154.035 c 281.625 152.98 278.812 151.875 275.934 150.742
 c 263.652 145.914 250.539 140.762 238.727 136.73 c 238.727 49.055 l 238.727
 34.023 226.5 21.797 211.469 21.797 c 80.945 21.797 l 65.914 21.797 53.688
 34.023 53.688 49.055 c 53.688 150.117 l 47.113 149.707 40.676 151.602 35.332
 155.598 c 29.301 160.109 25.426 166.707 24.422 174.172 c 23.43 181.539 
25.363 188.852 29.875 194.766 c 33.387 199.371 38.133 202.695 43.551 204.41
 c 30.133 203.238 l 22.754 202.594 15.574 204.859 9.902 209.617 c 4.23 214.375
 0.754 221.059 0.109 228.434 c -1.223 243.656 10.078 257.125 25.305 258.457
 c 33.086 259.141 l 32.316 259.66 31.57 260.223 30.848 260.828 c 25.391 
265.41 22.039 271.848 21.418 278.945 c 20.797 286.047 22.977 292.965 27.559
 298.426 c 32.141 303.887 38.578 307.238 45.676 307.859 c 58.258 308.961
 l 57.363 309.59 56.504 310.285 55.688 311.039 c 50.816 315.535 47.988 321.66
 47.723 328.285 c 47.18 341.961 57.863 353.531 71.539 354.078 c 122.082 
356.094 l 257.711 361.996 l 259.316 362.133 260.914 362.203 262.5 362.203
 c 283.723 362.203 302.984 350 312 330.609 c 380.258 337.617 l 381.914 337.785
 383.395 336.582 383.566 334.922 c 383.738 333.266 382.531 331.781 380.871
 331.613 c h
232.691 49.055 m 232.691 134.73 l 223.691 131.863 215.754 129.871 209.961
 129.488 c 194 128.098 179.785 141.074 178.266 158.43 c 173.32 214.973 l
 171.836 231.98 184.461 247.027 201.465 248.516 c 205.848 248.898 l 206.766
 248.977 207.684 249.02 208.598 249.02 c 215.855 249.02 222.82 246.492 228.445
 241.773 c 230.016 240.457 231.434 239.008 232.691 237.449 c 232.691 256.961
 l 232.691 268.664 223.172 278.184 211.469 278.184 c 130.355 278.184 l 130.355
 27.832 l 211.469 27.832 l 223.168 27.832 232.691 37.352 232.691 49.055 
c h
59.723 49.055 m 59.723 37.352 69.242 27.832 80.945 27.832 c 90.27 27.832
 l 90.27 278.184 l 80.945 278.184 l 69.242 278.184 59.723 268.664 59.723
 256.961 c h
34.672 191.105 m 31.141 186.477 29.625 180.746 30.402 174.977 c 31.188 
169.133 34.223 163.965 38.949 160.434 c 43.23 157.227 48.41 155.742 53.688
 156.16 c 53.688 200.074 l 49.094 199.488 l 43.324 198.711 38.203 195.734
 34.672 191.105 c h
25.828 252.445 m 13.918 251.402 5.078 240.867 6.117 228.957 c 7.16 217.047
 17.699 208.203 29.605 209.25 c 53.688 211.355 l 53.688 254.883 l h
25.828 252.445 m f
171.77 108.5 m 197.109 108.5 l 202.426 108.5 206.75 104.172 206.75 98.859
 c 206.75 59.695 l 206.75 54.383 202.426 50.055 197.109 50.055 c 171.77 
50.055 l 166.453 50.055 162.129 54.383 162.129 59.695 c 162.129 98.859 l
 162.129 104.176 166.453 108.5 171.77 108.5 c h
168.164 59.695 m 168.164 57.711 169.781 56.094 171.77 56.094 c 197.109 
56.094 l 199.098 56.094 200.715 57.711 200.715 59.695 c 200.715 98.859 l
 200.715 100.848 199.098 102.465 197.109 102.465 c 171.77 102.465 l 169.781
 102.465 168.164 100.848 168.164 98.859 c h
168.164 59.695 m f
Q Q
showpage
%%Trailer
end
%%EOF
