%!PS-Adobe-3.0 EPSF-3.0
%%Creator: cairo 1.16.0 (https://cairographics.org)
%%CreationDate: Fri Feb 12 12:13:22 2021
%%Pages: 1
%%DocumentData: Clean7Bit
%%LanguageLevel: 2
%%BoundingBox: 0 61 384 323
%%EndComments
%%BeginProlog
50 dict begin
/q { gsave } bind def
/Q { grestore } bind def
/cm { 6 array astore concat } bind def
/w { setlinewidth } bind def
/J { setlinecap } bind def
/j { setlinejoin } bind def
/M { setmiterlimit } bind def
/d { setdash } bind def
/m { moveto } bind def
/l { lineto } bind def
/c { curveto } bind def
/h { closepath } bind def
/re { exch dup neg 3 1 roll 5 3 roll moveto 0 rlineto
      0 exch rlineto 0 rlineto closepath } bind def
/S { stroke } bind def
/f { fill } bind def
/f* { eofill } bind def
/n { newpath } bind def
/W { clip } bind def
/W* { eoclip } bind def
/BT { } bind def
/ET { } bind def
/BDC { mark 3 1 roll /BDC pdfmark } bind def
/EMC { mark /EMC pdfmark } bind def
/cairo_store_point { /cairo_point_y exch def /cairo_point_x exch def } def
/Tj { show currentpoint cairo_store_point } bind def
/TJ {
  {
    dup
    type /stringtype eq
    { show } { -0.001 mul 0 cairo_font_matrix dtransform rmoveto } ifelse
  } forall
  currentpoint cairo_store_point
} bind def
/cairo_selectfont { cairo_font_matrix aload pop pop pop 0 0 6 array astore
    cairo_font exch selectfont cairo_point_x cairo_point_y moveto } bind def
/Tf { pop /cairo_font exch def /cairo_font_matrix where
      { pop cairo_selectfont } if } bind def
/Td { matrix translate cairo_font_matrix matrix concatmatrix dup
      /cairo_font_matrix exch def dup 4 get exch 5 get cairo_store_point
      /cairo_font where { pop cairo_selectfont } if } bind def
/Tm { 2 copy 8 2 roll 6 array astore /cairo_font_matrix exch def
      cairo_store_point /cairo_font where { pop cairo_selectfont } if } bind def
/g { setgray } bind def
/rg { setrgbcolor } bind def
/d1 { setcachedevice } bind def
/cairo_data_source {
  CairoDataIndex CairoData length lt
    { CairoData CairoDataIndex get /CairoDataIndex CairoDataIndex 1 add def }
    { () } ifelse
} def
/cairo_flush_ascii85_file { cairo_ascii85_file status { cairo_ascii85_file flushfile } if } def
/cairo_image { image cairo_flush_ascii85_file } def
/cairo_imagemask { imagemask cairo_flush_ascii85_file } def
%%EndProlog
%%BeginSetup
%%EndSetup
%%Page: 1 1
%%BeginPageSetup
%%PageBoundingBox: 0 61 384 323
%%EndPageSetup
q 0 61 384 262 rectclip
1 0 0 -1 0 384 cm q
1 g
344.906 319.047 m 39.094 319.047 l 19.223 319.047 3.113 302.941 3.113 283.07
 c 3.113 100.93 l 3.113 81.059 19.223 64.953 39.094 64.953 c 344.906 64.953
 l 364.777 64.953 380.887 81.059 380.887 100.93 c 380.887 283.07 l 380.887
 302.941 364.777 319.047 344.906 319.047 c h
344.906 319.047 m f
0.917647 0.658824 0.584314 rg
380.23 191.691 m 380.23 156.715 l 181.387 156.715 l 181.438 155.961 181.473
 155.199 181.473 154.434 c 181.473 135.973 166.453 120.953 147.992 120.953
 c 135.418 120.953 127.547 127.086 121.867 134.66 c 121.867 64.766 l 86.895
 64.766 l 86.895 134.141 l 81.246 126.812 73.453 120.953 61.168 120.953 
c 42.707 120.953 27.688 135.973 27.688 154.434 c 27.688 155.203 27.723 155.961
 27.773 156.715 c 3.402 156.715 l 3.402 191.691 l 86.895 191.691 l 86.895
 194.008 l 76.559 211.668 64.219 232.562 64.027 232.883 c 61.762 236.723
 63.035 241.676 66.875 243.941 c 68.164 244.703 69.578 245.062 70.973 245.062
 c 73.734 245.062 76.426 243.645 77.934 241.094 c 78.348 240.395 82.016 
234.18 86.895 225.898 c 86.895 318.051 l 121.867 318.051 l 121.867 225.359
 l 126.902 233.91 130.719 240.379 131.145 241.094 c 132.648 243.645 135.34
 245.062 138.102 245.062 c 139.496 245.062 140.914 244.703 142.199 243.941
 c 146.039 241.676 147.312 236.723 145.047 232.883 c 144.855 232.559 132.266
 211.238 121.867 193.465 c 121.867 191.691 l h
147.992 137.102 m 157.551 137.102 165.324 144.879 165.324 154.434 c 165.324
 155.207 165.27 155.969 165.168 156.715 c 127.355 156.715 l 128.641 154.457
 129.844 152.332 130.883 150.48 c 137.23 139.172 141.625 137.102 147.992
 137.102 c h
43.836 154.434 m 43.836 144.879 51.609 137.102 61.164 137.102 c 67.535 
137.102 71.93 139.172 78.277 150.484 c 79.316 152.336 80.516 154.457 81.801
 156.715 c 43.988 156.715 l 43.891 155.969 43.836 155.207 43.836 154.434
 c h
43.836 154.434 m f
0.913725 0.760784 0.470588 rg
200.449 294.023 m 175.09 294.023 l 171.719 294.023 168.984 291.289 168.984
 287.914 c 168.984 281.113 l 168.984 277.742 171.719 275.008 175.09 275.008
 c 200.449 275.008 l 203.82 275.008 206.559 277.742 206.559 281.113 c 206.559
 287.914 l 206.559 291.289 203.82 294.023 200.449 294.023 c h
200.449 294.023 m f
252.941 294.023 m 227.578 294.023 l 224.207 294.023 221.473 291.289 221.473
 287.914 c 221.473 281.113 l 221.473 277.742 224.207 275.008 227.578 275.008
 c 252.938 275.008 l 256.312 275.008 259.047 277.742 259.047 281.113 c 259.047
 287.914 l 259.047 291.289 256.312 294.023 252.941 294.023 c h
252.941 294.023 m f
292.492 294.023 m 278.777 294.023 l 276.117 294.023 273.965 291.867 273.965
 289.211 c 273.965 279.82 l 273.965 277.164 276.117 275.008 278.777 275.008
 c 292.492 275.008 l 295.148 275.008 297.305 277.164 297.305 279.82 c 297.305
 289.211 l 297.305 291.867 295.148 294.023 292.492 294.023 c h
292.492 294.023 m f
330.75 294.023 m 317.035 294.023 l 314.375 294.023 312.223 291.867 312.223
 289.211 c 312.223 279.82 l 312.223 277.164 314.375 275.008 317.035 275.008
 c 330.75 275.008 l 333.406 275.008 335.562 277.164 335.562 279.82 c 335.562
 289.211 l 335.562 291.867 333.406 294.023 330.75 294.023 c h
330.75 294.023 m f
0.917647 0.658824 0.584314 rg
368.695 80.41 m 368.695 81.852 367.527 83.02 366.086 83.02 c 364.645 83.02
 363.477 81.852 363.477 80.41 c 363.477 78.969 364.645 77.801 366.086 77.801
 c 367.527 77.801 368.695 78.969 368.695 80.41 c h
368.695 80.41 m f
374.812 85.895 m 373.371 85.895 372.203 87.062 372.203 88.504 c 372.203
 89.941 373.371 91.109 374.812 91.109 c 376.254 91.109 377.422 89.941 377.422
 88.504 c 377.422 87.062 376.254 85.895 374.812 85.895 c h
374.812 85.895 m f
366.086 99.836 m 367.527 99.836 368.695 98.672 368.695 97.227 c 368.695
 95.789 367.527 94.621 366.086 94.621 c 364.645 94.621 363.477 95.789 363.477
 97.227 c 363.477 98.672 364.645 99.836 366.086 99.836 c h
366.086 99.836 m f
374.812 102.715 m 373.371 102.715 372.203 103.883 372.203 105.324 c 372.203
 106.762 373.371 107.934 374.812 107.934 c 376.254 107.934 377.422 106.762
 377.422 105.324 c 377.422 103.883 376.254 102.715 374.812 102.715 c h
374.812 102.715 m f
368.695 114.051 m 368.695 115.492 367.527 116.66 366.086 116.66 c 364.645
 116.66 363.477 115.492 363.477 114.051 c 363.477 112.609 364.645 111.441
 366.086 111.441 c 367.527 111.441 368.695 112.609 368.695 114.051 c h
368.695 114.051 m f
374.812 119.535 m 373.371 119.535 372.203 120.703 372.203 122.145 c 372.203
 123.582 373.371 124.75 374.812 124.75 c 376.254 124.75 377.422 123.582 
377.422 122.145 c 377.422 120.703 376.254 119.535 374.812 119.535 c h
374.812 119.535 m f
366.086 133.477 m 367.527 133.477 368.695 132.309 368.695 130.871 c 368.695
 129.43 367.527 128.262 366.086 128.262 c 364.645 128.262 363.477 129.43
 363.477 130.871 c 363.477 132.309 364.645 133.477 366.086 133.477 c h
366.086 133.477 m f
374.812 136.355 m 373.371 136.355 372.203 137.523 372.203 138.965 c 372.203
 140.402 373.371 141.57 374.812 141.57 c 376.254 141.57 377.422 140.406 
377.422 138.965 c 377.422 137.523 376.254 136.355 374.812 136.355 c h
374.812 136.355 m f
368.695 147.691 m 368.695 149.133 367.527 150.301 366.086 150.301 c 364.645
 150.301 363.477 149.133 363.477 147.691 c 363.477 146.25 364.645 145.082
 366.086 145.082 c 367.527 145.082 368.695 146.25 368.695 147.691 c h
368.695 147.691 m f
376.805 157.453 m 377.184 157 377.422 156.422 377.422 155.785 c 377.422
 154.344 376.254 153.176 374.812 153.176 c 373.371 153.176 372.203 154.34
 372.203 155.785 c 372.203 156.422 372.441 157 372.824 157.453 c h
376.805 157.453 m f
372.391 190.379 m 372.773 191.348 373.711 192.031 374.812 192.031 c 375.918
 192.031 376.855 191.348 377.238 190.379 c h
372.391 190.379 m f
366.086 200.762 m 367.527 200.762 368.695 199.594 368.695 198.152 c 368.695
 196.711 367.527 195.543 366.086 195.543 c 364.645 195.543 363.477 196.711
 363.477 198.152 c 363.477 199.59 364.645 200.762 366.086 200.762 c h
366.086 200.762 m f
374.812 203.637 m 373.371 203.637 372.203 204.805 372.203 206.242 c 372.203
 207.684 373.371 208.852 374.812 208.852 c 376.254 208.852 377.422 207.684
 377.422 206.242 c 377.422 204.805 376.254 203.637 374.812 203.637 c h
374.812 203.637 m f
368.695 214.973 m 368.695 216.41 367.527 217.582 366.086 217.582 c 364.645
 217.582 363.477 216.41 363.477 214.973 c 363.477 213.531 364.645 212.363
 366.086 212.363 c 367.527 212.363 368.695 213.531 368.695 214.973 c h
368.695 214.973 m f
374.812 220.457 m 373.371 220.457 372.203 221.625 372.203 223.066 c 372.203
 224.504 373.371 225.672 374.812 225.672 c 376.254 225.672 377.422 224.504
 377.422 223.066 c 377.422 221.625 376.254 220.457 374.812 220.457 c h
374.812 220.457 m f
366.086 234.402 m 367.527 234.402 368.695 233.234 368.695 231.793 c 368.695
 230.352 367.527 229.184 366.086 229.184 c 364.645 229.184 363.477 230.352
 363.477 231.793 c 363.477 233.23 364.645 234.402 366.086 234.402 c h
366.086 234.402 m f
374.812 237.273 m 373.371 237.273 372.203 238.445 372.203 239.883 c 372.203
 241.324 373.371 242.492 374.812 242.492 c 376.254 242.492 377.422 241.324
 377.422 239.883 c 377.422 238.445 376.254 237.273 374.812 237.273 c h
374.812 237.273 m f
368.695 248.613 m 368.695 250.051 367.527 251.223 366.086 251.223 c 364.645
 251.223 363.477 250.051 363.477 248.613 c 363.477 247.172 364.645 246.004
 366.086 246.004 c 367.527 246.004 368.695 247.172 368.695 248.613 c h
368.695 248.613 m f
374.812 254.098 m 373.371 254.098 372.203 255.266 372.203 256.707 c 372.203
 258.145 373.371 259.312 374.812 259.312 c 376.254 259.312 377.422 258.145
 377.422 256.707 c 377.422 255.266 376.254 254.098 374.812 254.098 c h
374.812 254.098 m f
366.086 268.039 m 367.527 268.039 368.695 266.875 368.695 265.434 c 368.695
 263.992 367.527 262.824 366.086 262.824 c 364.645 262.824 363.477 263.992
 363.477 265.434 c 363.477 266.871 364.645 268.039 366.086 268.039 c h
366.086 268.039 m f
374.812 270.918 m 373.371 270.918 372.203 272.086 372.203 273.523 c 372.203
 274.965 373.371 276.133 374.812 276.133 c 376.254 276.133 377.422 274.965
 377.422 273.523 c 377.422 272.086 376.254 270.918 374.812 270.918 c h
374.812 270.918 m f
368.695 282.254 m 368.695 283.691 367.527 284.859 366.086 284.859 c 364.645
 284.859 363.477 283.691 363.477 282.254 c 363.477 280.812 364.645 279.645
 366.086 279.645 c 367.527 279.645 368.695 280.812 368.695 282.254 c h
368.695 282.254 m f
374.812 292.953 m 376.254 292.953 377.422 291.785 377.422 290.348 c 377.422
 288.906 376.254 287.738 374.812 287.738 c 373.371 287.738 372.203 288.906
 372.203 290.348 c 372.203 291.785 373.371 292.953 374.812 292.953 c h
374.812 292.953 m f
366.086 301.68 m 367.527 301.68 368.695 300.512 368.695 299.07 c 368.695
 297.633 367.527 296.465 366.086 296.465 c 364.645 296.465 363.477 297.633
 363.477 299.07 c 363.477 300.512 364.645 301.68 366.086 301.68 c h
366.086 301.68 m f
357.992 74.293 m 359.434 74.293 360.602 73.121 360.602 71.684 c 360.602
 70.242 359.434 69.074 357.992 69.074 c 356.551 69.074 355.383 70.242 355.383
 71.684 c 355.383 73.121 356.551 74.293 357.992 74.293 c h
357.992 74.293 m f
357.992 91.113 m 359.434 91.113 360.602 89.945 360.602 88.504 c 360.602
 87.062 359.434 85.895 357.992 85.895 c 356.551 85.895 355.383 87.062 355.383
 88.504 c 355.383 89.945 356.551 91.113 357.992 91.113 c h
357.992 91.113 m f
357.992 107.934 m 359.434 107.934 360.602 106.762 360.602 105.324 c 360.602
 103.883 359.434 102.715 357.992 102.715 c 356.551 102.715 355.383 103.883
 355.383 105.324 c 355.383 106.762 356.551 107.934 357.992 107.934 c h
357.992 107.934 m f
357.992 124.754 m 359.434 124.754 360.602 123.586 360.602 122.145 c 360.602
 120.703 359.434 119.535 357.992 119.535 c 356.551 119.535 355.383 120.703
 355.383 122.145 c 355.383 123.582 356.551 124.754 357.992 124.754 c h
357.992 124.754 m f
357.992 141.57 m 359.434 141.57 360.602 140.406 360.602 138.965 c 360.602
 137.523 359.434 136.355 357.992 136.355 c 356.551 136.355 355.383 137.523
 355.383 138.965 c 355.383 140.402 356.551 141.57 357.992 141.57 c h
357.992 141.57 m f
359.984 157.453 m 360.363 157 360.602 156.422 360.602 155.785 c 360.602
 154.344 359.434 153.176 357.992 153.176 c 356.551 153.176 355.383 154.34
 355.383 155.785 c 355.383 156.422 355.621 157 356.004 157.453 c h
359.984 157.453 m f
355.57 190.379 m 355.953 191.348 356.891 192.031 357.992 192.031 c 359.098
 192.031 360.035 191.348 360.418 190.379 c h
355.57 190.379 m f
357.992 208.852 m 359.434 208.852 360.602 207.684 360.602 206.242 c 360.602
 204.805 359.434 203.637 357.992 203.637 c 356.551 203.637 355.383 204.805
 355.383 206.242 c 355.383 207.684 356.551 208.852 357.992 208.852 c h
357.992 208.852 m f
357.992 225.672 m 359.434 225.672 360.602 224.504 360.602 223.066 c 360.602
 221.625 359.434 220.457 357.992 220.457 c 356.551 220.457 355.383 221.625
 355.383 223.066 c 355.383 224.504 356.551 225.672 357.992 225.672 c h
357.992 225.672 m f
357.992 242.492 m 359.434 242.492 360.602 241.324 360.602 239.883 c 360.602
 238.445 359.434 237.273 357.992 237.273 c 356.551 237.273 355.383 238.445
 355.383 239.883 c 355.383 241.324 356.551 242.492 357.992 242.492 c h
357.992 242.492 m f
357.992 259.312 m 359.434 259.312 360.602 258.145 360.602 256.707 c 360.602
 255.266 359.434 254.098 357.992 254.098 c 356.551 254.098 355.383 255.266
 355.383 256.707 c 355.383 258.145 356.551 259.312 357.992 259.312 c h
357.992 259.312 m f
357.992 276.133 m 359.434 276.133 360.602 274.965 360.602 273.523 c 360.602
 272.086 359.434 270.918 357.992 270.918 c 356.551 270.918 355.383 272.086
 355.383 273.523 c 355.383 274.965 356.551 276.133 357.992 276.133 c h
357.992 276.133 m f
349.266 279.645 m 347.824 279.645 346.656 280.809 346.656 282.254 c 346.656
 283.691 347.824 284.859 349.266 284.859 c 350.707 284.859 351.875 283.695
 351.875 282.254 c 351.875 280.812 350.707 279.645 349.266 279.645 c h
349.266 279.645 m f
357.992 292.953 m 359.434 292.953 360.602 291.785 360.602 290.348 c 360.602
 288.906 359.434 287.738 357.992 287.738 c 356.551 287.738 355.383 288.906
 355.383 290.348 c 355.383 291.785 356.551 292.953 357.992 292.953 c h
357.992 292.953 m f
349.266 296.465 m 347.824 296.465 346.656 297.633 346.656 299.07 c 346.656
 300.512 347.824 301.68 349.266 301.68 c 350.707 301.68 351.875 300.512 
351.875 299.07 c 351.875 297.633 350.707 296.465 349.266 296.465 c h
349.266 296.465 m f
357.992 309.773 m 359.434 309.773 360.602 308.605 360.602 307.164 c 360.602
 305.727 359.434 304.555 357.992 304.555 c 356.551 304.555 355.383 305.727
 355.383 307.164 c 355.383 308.605 356.551 309.773 357.992 309.773 c h
357.992 309.773 m f
349.266 318.5 m 350.707 318.5 351.875 317.336 351.875 315.891 c 351.875
 314.453 350.707 313.285 349.266 313.285 c 347.824 313.285 346.656 314.449
 346.656 315.891 c 346.656 317.336 347.824 318.5 349.266 318.5 c h
349.266 318.5 m f
341.172 287.738 m 339.73 287.738 338.562 288.906 338.562 290.348 c 338.562
 291.785 339.73 292.953 341.172 292.953 c 342.613 292.953 343.781 291.785
 343.781 290.348 c 343.781 288.906 342.613 287.738 341.172 287.738 c h
341.172 287.738 m f
332.445 296.465 m 331.004 296.465 329.836 297.633 329.836 299.07 c 329.836
 300.512 331.004 301.68 332.445 301.68 c 333.887 301.68 335.055 300.512 
335.055 299.07 c 335.055 297.633 333.887 296.465 332.445 296.465 c h
332.445 296.465 m f
343.781 307.164 m 343.781 305.727 342.613 304.555 341.172 304.555 c 339.73
 304.555 338.562 305.727 338.562 307.164 c 338.562 308.605 339.73 309.773
 341.172 309.773 c 342.613 309.773 343.781 308.605 343.781 307.164 c h
343.781 307.164 m f
332.445 313.285 m 331.004 313.285 329.836 314.449 329.836 315.891 c 329.836
 317.332 331.004 318.5 332.445 318.5 c 333.887 318.5 335.055 317.336 335.055
 315.891 c 335.055 314.453 333.887 313.285 332.445 313.285 c h
332.445 313.285 m f
315.625 296.465 m 314.184 296.465 313.016 297.633 313.016 299.07 c 313.016
 300.512 314.184 301.68 315.625 301.68 c 317.066 301.68 318.234 300.512 
318.234 299.07 c 318.234 297.633 317.066 296.465 315.625 296.465 c h
315.625 296.465 m f
324.352 304.559 m 322.91 304.559 321.742 305.727 321.742 307.168 c 321.742
 308.605 322.91 309.777 324.352 309.777 c 325.793 309.777 326.961 308.609
 326.961 307.168 c 326.961 305.727 325.793 304.559 324.352 304.559 c h
324.352 304.559 m f
318.234 315.891 m 318.234 317.332 317.066 318.5 315.625 318.5 c 314.184
 318.5 313.016 317.332 313.016 315.891 c 313.016 314.453 314.184 313.285
 315.625 313.285 c 317.066 313.285 318.234 314.453 318.234 315.891 c h
318.234 315.891 m f
298.805 296.465 m 297.363 296.465 296.195 297.633 296.195 299.07 c 296.195
 300.512 297.363 301.68 298.805 301.68 c 300.246 301.68 301.414 300.512 
301.414 299.07 c 301.414 297.633 300.246 296.465 298.805 296.465 c h
298.805 296.465 m f
307.531 304.559 m 306.09 304.559 304.922 305.727 304.922 307.168 c 304.922
 308.605 306.09 309.777 307.531 309.777 c 308.973 309.777 310.141 308.609
 310.141 307.168 c 310.141 305.727 308.973 304.559 307.531 304.559 c h
307.531 304.559 m f
298.805 313.285 m 297.363 313.285 296.195 314.449 296.195 315.891 c 296.195
 317.332 297.363 318.5 298.805 318.5 c 300.246 318.5 301.414 317.336 301.414
 315.891 c 301.414 314.453 300.246 313.285 298.805 313.285 c h
298.805 313.285 m f
281.984 296.465 m 280.543 296.465 279.375 297.633 279.375 299.07 c 279.375
 300.512 280.543 301.68 281.984 301.68 c 283.426 301.68 284.594 300.512 
284.594 299.07 c 284.594 297.633 283.426 296.465 281.984 296.465 c h
281.984 296.465 m f
290.711 304.559 m 289.27 304.559 288.102 305.727 288.102 307.168 c 288.102
 308.605 289.27 309.777 290.711 309.777 c 292.152 309.777 293.32 308.609
 293.32 307.168 c 293.32 305.727 292.152 304.559 290.711 304.559 c h
290.711 304.559 m f
281.984 313.285 m 280.543 313.285 279.375 314.449 279.375 315.891 c 279.375
 317.332 280.543 318.5 281.984 318.5 c 283.426 318.5 284.594 317.336 284.594
 315.891 c 284.594 314.453 283.426 313.285 281.984 313.285 c h
281.984 313.285 m f
265.164 296.465 m 263.723 296.465 262.555 297.633 262.555 299.07 c 262.555
 300.512 263.723 301.68 265.164 301.68 c 266.605 301.68 267.773 300.512 
267.773 299.07 c 267.773 297.633 266.605 296.465 265.164 296.465 c h
265.164 296.465 m f
273.891 304.559 m 272.449 304.559 271.281 305.727 271.281 307.168 c 271.281
 308.605 272.449 309.777 273.891 309.777 c 275.332 309.777 276.5 308.609
 276.5 307.168 c 276.5 305.727 275.332 304.559 273.891 304.559 c h
273.891 304.559 m f
267.773 315.891 m 267.773 317.332 266.605 318.5 265.164 318.5 c 263.723
 318.5 262.555 317.332 262.555 315.891 c 262.555 314.453 263.723 313.285
 265.164 313.285 c 266.605 313.285 267.773 314.453 267.773 315.891 c h
267.773 315.891 m f
248.344 296.465 m 246.902 296.465 245.734 297.633 245.734 299.07 c 245.734
 300.512 246.902 301.68 248.344 301.68 c 249.785 301.68 250.953 300.512 
250.953 299.07 c 250.953 297.633 249.785 296.465 248.344 296.465 c h
248.344 296.465 m f
257.07 304.559 m 255.629 304.559 254.461 305.727 254.461 307.168 c 254.461
 308.605 255.629 309.777 257.07 309.777 c 258.512 309.777 259.68 308.609
 259.68 307.168 c 259.68 305.727 258.512 304.559 257.07 304.559 c h
257.07 304.559 m f
248.344 313.285 m 246.902 313.285 245.734 314.449 245.734 315.891 c 245.734
 317.332 246.902 318.5 248.344 318.5 c 249.785 318.5 250.953 317.336 250.953
 315.891 c 250.953 314.453 249.785 313.285 248.344 313.285 c h
248.344 313.285 m f
231.523 296.465 m 230.082 296.465 228.914 297.633 228.914 299.07 c 228.914
 300.512 230.082 301.68 231.523 301.68 c 232.965 301.68 234.133 300.512 
234.133 299.07 c 234.133 297.633 232.965 296.465 231.523 296.465 c h
231.523 296.465 m f
240.25 304.559 m 238.809 304.559 237.641 305.727 237.641 307.168 c 237.641
 308.605 238.809 309.777 240.25 309.777 c 241.691 309.777 242.859 308.609
 242.859 307.168 c 242.859 305.727 241.691 304.559 240.25 304.559 c h
240.25 304.559 m f
231.523 313.285 m 230.082 313.285 228.914 314.449 228.914 315.891 c 228.914
 317.332 230.082 318.5 231.523 318.5 c 232.965 318.5 234.133 317.336 234.133
 315.891 c 234.133 314.453 232.965 313.285 231.523 313.285 c h
231.523 313.285 m f
214.703 296.465 m 213.262 296.465 212.094 297.633 212.094 299.07 c 212.094
 300.512 213.262 301.68 214.703 301.68 c 216.145 301.68 217.312 300.512 
217.312 299.07 c 217.312 297.633 216.145 296.465 214.703 296.465 c h
214.703 296.465 m f
223.43 304.559 m 221.992 304.559 220.82 305.727 220.82 307.168 c 220.82
 308.605 221.992 309.777 223.43 309.777 c 224.871 309.777 226.039 308.609
 226.039 307.168 c 226.039 305.727 224.871 304.559 223.43 304.559 c h
223.43 304.559 m f
217.312 315.891 m 217.312 317.332 216.145 318.5 214.703 318.5 c 213.262
 318.5 212.094 317.332 212.094 315.891 c 212.094 314.453 213.262 313.285
 214.703 313.285 c 216.145 313.285 217.312 314.453 217.312 315.891 c h
217.312 315.891 m f
197.883 296.465 m 196.441 296.465 195.273 297.633 195.273 299.07 c 195.273
 300.512 196.441 301.68 197.883 301.68 c 199.324 301.68 200.492 300.512 
200.492 299.07 c 200.492 297.633 199.324 296.465 197.883 296.465 c h
197.883 296.465 m f
206.609 304.559 m 205.172 304.559 204 305.727 204 307.168 c 204 308.605
 205.168 309.777 206.609 309.777 c 208.051 309.777 209.219 308.609 209.219
 307.168 c 209.219 305.727 208.051 304.559 206.609 304.559 c h
206.609 304.559 m f
197.883 313.285 m 196.441 313.285 195.273 314.449 195.273 315.891 c 195.273
 317.332 196.441 318.5 197.883 318.5 c 199.324 318.5 200.492 317.336 200.492
 315.891 c 200.492 314.453 199.324 313.285 197.883 313.285 c h
197.883 313.285 m f
181.062 296.465 m 179.621 296.465 178.453 297.633 178.453 299.07 c 178.453
 300.512 179.621 301.68 181.062 301.68 c 182.504 301.68 183.672 300.512 
183.672 299.07 c 183.672 297.633 182.504 296.465 181.062 296.465 c h
181.062 296.465 m f
189.789 304.559 m 188.348 304.559 187.18 305.727 187.18 307.168 c 187.18
 308.605 188.348 309.777 189.789 309.777 c 191.23 309.777 192.398 308.609
 192.398 307.168 c 192.398 305.727 191.23 304.559 189.789 304.559 c h
189.789 304.559 m f
181.062 313.285 m 179.621 313.285 178.453 314.449 178.453 315.891 c 178.453
 317.332 179.621 318.5 181.062 318.5 c 182.504 318.5 183.672 317.336 183.672
 315.891 c 183.672 314.453 182.504 313.285 181.062 313.285 c h
181.062 313.285 m f
164.242 296.465 m 162.801 296.465 161.633 297.633 161.633 299.07 c 161.633
 300.512 162.801 301.68 164.242 301.68 c 165.684 301.68 166.852 300.512 
166.852 299.07 c 166.852 297.633 165.684 296.465 164.242 296.465 c h
164.242 296.465 m f
172.969 304.559 m 171.527 304.559 170.359 305.727 170.359 307.168 c 170.359
 308.605 171.527 309.777 172.969 309.777 c 174.41 309.777 175.578 308.609
 175.578 307.168 c 175.578 305.727 174.41 304.559 172.969 304.559 c h
172.969 304.559 m f
166.852 315.891 m 166.852 317.332 165.684 318.5 164.242 318.5 c 162.801
 318.5 161.633 317.332 161.633 315.891 c 161.633 314.453 162.801 313.285
 164.242 313.285 c 165.684 313.285 166.852 314.453 166.852 315.891 c h
166.852 315.891 m f
147.422 296.465 m 145.98 296.465 144.812 297.633 144.812 299.07 c 144.812
 300.512 145.98 301.68 147.422 301.68 c 148.863 301.68 150.031 300.512 150.031
 299.07 c 150.031 297.633 148.863 296.465 147.422 296.465 c h
147.422 296.465 m f
156.148 304.559 m 154.707 304.559 153.539 305.727 153.539 307.168 c 153.539
 308.605 154.707 309.777 156.148 309.777 c 157.59 309.777 158.758 308.609
 158.758 307.168 c 158.758 305.727 157.59 304.559 156.148 304.559 c h
156.148 304.559 m f
147.422 313.285 m 145.98 313.285 144.812 314.449 144.812 315.891 c 144.812
 317.332 145.98 318.5 147.422 318.5 c 148.863 318.5 150.031 317.336 150.031
 315.891 c 150.031 314.453 148.863 313.285 147.422 313.285 c h
147.422 313.285 m f
130.602 296.465 m 129.16 296.465 127.992 297.633 127.992 299.07 c 127.992
 300.512 129.16 301.68 130.602 301.68 c 132.043 301.68 133.211 300.512 133.211
 299.07 c 133.211 297.633 132.043 296.465 130.602 296.465 c h
130.602 296.465 m f
139.328 304.559 m 137.887 304.559 136.719 305.727 136.719 307.168 c 136.719
 308.605 137.887 309.777 139.328 309.777 c 140.77 309.777 141.938 308.609
 141.938 307.168 c 141.938 305.727 140.77 304.559 139.328 304.559 c h
139.328 304.559 m f
130.602 313.285 m 129.16 313.285 127.992 314.449 127.992 315.891 c 127.992
 317.332 129.16 318.5 130.602 318.5 c 132.043 318.5 133.211 317.336 133.211
 315.891 c 133.211 314.453 132.043 313.285 130.602 313.285 c h
130.602 313.285 m f
113.781 296.465 m 112.34 296.465 111.172 297.633 111.172 299.07 c 111.172
 300.512 112.34 301.68 113.781 301.68 c 115.223 301.68 116.391 300.512 116.391
 299.07 c 116.391 297.633 115.223 296.465 113.781 296.465 c h
113.781 296.465 m f
122.508 304.559 m 121.07 304.559 119.898 305.727 119.898 307.168 c 119.898
 308.605 121.066 309.777 122.508 309.777 c 123.949 309.777 125.117 308.609
 125.117 307.168 c 125.117 305.727 123.949 304.559 122.508 304.559 c h
122.508 304.559 m f
116.391 315.891 m 116.391 317.332 115.223 318.5 113.781 318.5 c 112.34 
318.5 111.172 317.332 111.172 315.891 c 111.172 314.453 112.34 313.285 113.781
 313.285 c 115.223 313.285 116.391 314.453 116.391 315.891 c h
116.391 315.891 m f
105.688 292.953 m 107.078 292.953 108.203 291.867 108.281 290.5 c 103.098
 290.5 l 103.176 291.867 104.301 292.953 105.688 292.953 c h
105.688 292.953 m f
96.961 296.465 m 95.523 296.465 94.352 297.633 94.352 299.07 c 94.352 300.512
 95.523 301.68 96.961 301.68 c 98.402 301.68 99.57 300.512 99.57 299.07 
c 99.57 297.633 98.402 296.465 96.961 296.465 c h
96.961 296.465 m f
108.297 307.164 m 108.297 308.605 107.129 309.773 105.688 309.773 c 104.25
 309.773 103.078 308.605 103.078 307.164 c 103.078 305.723 104.25 304.555
 105.688 304.555 c 107.129 304.555 108.297 305.723 108.297 307.164 c h
108.297 307.164 m f
96.961 313.285 m 95.523 313.285 94.352 314.449 94.352 315.891 c 94.352 
317.332 95.523 318.5 96.961 318.5 c 98.402 318.5 99.57 317.336 99.57 315.891
 c 99.57 314.453 98.402 313.285 96.961 313.285 c h
96.961 313.285 m f
80.141 296.465 m 78.703 296.465 77.531 297.633 77.531 299.07 c 77.531 300.512
 78.703 301.68 80.141 301.68 c 81.582 301.68 82.75 300.512 82.75 299.07 
c 82.75 297.633 81.582 296.465 80.141 296.465 c h
80.141 296.465 m f
88.867 304.559 m 87.43 304.559 86.258 305.727 86.258 307.168 c 86.258 308.605
 87.426 309.777 88.867 309.777 c 90.309 309.777 91.477 308.609 91.477 307.168
 c 91.477 305.727 90.309 304.559 88.867 304.559 c h
88.867 304.559 m f
80.141 313.285 m 78.703 313.285 77.531 314.449 77.531 315.891 c 77.531 
317.332 78.703 318.5 80.141 318.5 c 81.582 318.5 82.75 317.336 82.75 315.891
 c 82.75 314.453 81.582 313.285 80.141 313.285 c h
80.141 313.285 m f
63.32 296.465 m 61.883 296.465 60.711 297.633 60.711 299.07 c 60.711 300.512
 61.883 301.68 63.32 301.68 c 64.762 301.68 65.93 300.512 65.93 299.07 c
 65.93 297.633 64.762 296.465 63.32 296.465 c h
63.32 296.465 m f
72.047 304.559 m 70.605 304.559 69.438 305.727 69.438 307.168 c 69.438 
308.605 70.605 309.777 72.047 309.777 c 73.488 309.777 74.656 308.609 74.656
 307.168 c 74.656 305.727 73.488 304.559 72.047 304.559 c h
72.047 304.559 m f
65.93 315.891 m 65.93 317.332 64.762 318.5 63.32 318.5 c 61.879 318.5 60.711
 317.332 60.711 315.891 c 60.711 314.453 61.879 313.285 63.32 313.285 c 
64.762 313.285 65.93 314.453 65.93 315.891 c h
65.93 315.891 m f
46.5 296.465 m 45.062 296.465 43.891 297.633 43.891 299.07 c 43.891 300.512
 45.059 301.68 46.5 301.68 c 47.941 301.68 49.109 300.512 49.109 299.07 
c 49.109 297.633 47.941 296.465 46.5 296.465 c h
46.5 296.465 m f
57.836 307.164 m 57.836 308.605 56.668 309.773 55.227 309.773 c 53.785 
309.773 52.617 308.605 52.617 307.164 c 52.617 305.723 53.785 304.555 55.227
 304.555 c 56.668 304.555 57.836 305.723 57.836 307.164 c h
57.836 307.164 m f
46.5 313.285 m 45.062 313.285 43.891 314.449 43.891 315.891 c 43.891 317.332
 45.059 318.5 46.5 318.5 c 47.941 318.5 49.109 317.336 49.109 315.891 c 
49.109 314.453 47.941 313.285 46.5 313.285 c h
46.5 313.285 m f
27.07 299.07 m 27.07 300.512 28.238 301.68 29.68 301.68 c 31.121 301.68
 32.289 300.512 32.289 299.07 c 32.289 297.633 31.121 296.465 29.68 296.465
 c 28.238 296.465 27.07 297.633 27.07 299.07 c h
27.07 299.07 m f
41.016 307.164 m 41.016 305.727 39.848 304.555 38.406 304.555 c 36.965 
304.555 35.797 305.727 35.797 307.164 c 35.797 308.605 36.965 309.773 38.406
 309.773 c 39.848 309.773 41.016 308.605 41.016 307.164 c h
41.016 307.164 m f
32.289 315.891 m 32.289 314.453 31.121 313.285 29.68 313.285 c 28.238 313.285
 27.07 314.449 27.07 315.891 c 27.07 316.324 27.188 316.727 27.375 317.086
 c 28.555 317.496 29.766 317.848 31 318.133 c 31.77 317.68 32.289 316.848
 32.289 315.891 c h
32.289 315.891 m f
10.25 299.07 m 10.25 300.512 11.422 301.68 12.859 301.68 c 14.301 301.68
 15.469 300.512 15.469 299.07 c 15.469 297.633 14.301 296.465 12.859 296.465
 c 11.422 296.465 10.25 297.633 10.25 299.07 c h
10.25 299.07 m f
21.586 304.559 m 20.148 304.559 18.977 305.727 18.977 307.168 c 18.977 
308.605 20.148 309.777 21.586 309.777 c 23.027 309.777 24.195 308.609 24.195
 307.168 c 24.195 305.727 23.027 304.559 21.586 304.559 c h
21.586 304.559 m f
1 g
372.379 156.676 m 372.742 157.672 373.688 158.391 374.812 158.391 c 375.938
 158.391 376.883 157.672 377.25 156.676 c h
372.379 156.676 m f
366.086 161.902 m 364.645 161.902 363.477 163.07 363.477 164.508 c 363.477
 165.949 364.645 167.117 366.086 167.117 c 367.527 167.117 368.695 165.949
 368.695 164.508 c 368.695 163.07 367.527 161.902 366.086 161.902 c h
366.086 161.902 m f
374.812 169.996 m 373.371 169.996 372.203 171.164 372.203 172.602 c 372.203
 174.043 373.371 175.211 374.812 175.211 c 376.254 175.211 377.422 174.047
 377.422 172.602 c 377.422 171.164 376.254 169.996 374.812 169.996 c h
374.812 169.996 m f
368.695 181.332 m 368.695 182.773 367.527 183.941 366.086 183.941 c 364.645
 183.941 363.477 182.773 363.477 181.332 c 363.477 179.891 364.645 178.723
 366.086 178.723 c 367.527 178.723 368.695 179.891 368.695 181.332 c h
368.695 181.332 m f
373.543 191.688 m 376.086 191.688 l 376.879 191.242 377.422 190.398 377.422
 189.422 c 377.422 187.984 376.254 186.816 374.812 186.816 c 373.371 186.816
 372.203 187.984 372.203 189.422 c 372.203 190.398 372.746 191.242 373.543
 191.688 c h
373.543 191.688 m f
355.559 156.676 m 355.922 157.672 356.867 158.391 357.992 158.391 c 359.117
 158.391 360.062 157.672 360.43 156.676 c h
355.559 156.676 m f
357.992 175.211 m 359.434 175.211 360.602 174.047 360.602 172.602 c 360.602
 171.164 359.434 169.996 357.992 169.996 c 356.551 169.996 355.383 171.164
 355.383 172.602 c 355.383 174.047 356.551 175.211 357.992 175.211 c h
357.992 175.211 m f
356.723 191.688 m 359.266 191.688 l 360.059 191.242 360.602 190.398 360.602
 189.422 c 360.602 187.984 359.434 186.816 357.992 186.816 c 356.555 186.816
 355.383 187.984 355.383 189.422 c 355.383 190.398 355.926 191.242 356.723
 191.688 c h
356.723 191.688 m f
113.781 296.465 m 112.34 296.465 111.172 297.633 111.172 299.07 c 111.172
 300.512 112.34 301.68 113.781 301.68 c 115.223 301.68 116.391 300.512 116.391
 299.07 c 116.391 297.633 115.223 296.465 113.781 296.465 c h
113.781 296.465 m f
121.898 304.641 m 120.754 304.918 119.898 305.938 119.898 307.164 c 119.898
 308.395 120.754 309.414 121.898 309.691 c h
121.898 304.641 m f
116.391 315.891 m 116.391 317.332 115.223 318.5 113.781 318.5 c 112.34 
318.5 111.172 317.332 111.172 315.891 c 111.172 314.453 112.34 313.285 113.781
 313.285 c 115.223 313.285 116.391 314.453 116.391 315.891 c h
116.391 315.891 m f
96.961 296.465 m 95.523 296.465 94.352 297.633 94.352 299.07 c 94.352 300.512
 95.523 301.68 96.961 301.68 c 98.402 301.68 99.57 300.512 99.57 299.07 
c 99.57 297.633 98.402 296.465 96.961 296.465 c h
96.961 296.465 m f
108.297 307.164 m 108.297 308.605 107.129 309.773 105.688 309.773 c 104.25
 309.773 103.078 308.605 103.078 307.164 c 103.078 305.723 104.25 304.555
 105.688 304.555 c 107.129 304.555 108.297 305.723 108.297 307.164 c h
108.297 307.164 m f
96.961 313.285 m 95.523 313.285 94.352 314.449 94.352 315.891 c 94.352 
317.332 95.523 318.5 96.961 318.5 c 98.402 318.5 99.57 317.336 99.57 315.891
 c 99.57 314.453 98.402 313.285 96.961 313.285 c h
96.961 313.285 m f
88.867 304.559 m 88.07 304.559 87.363 304.926 86.883 305.492 c 86.883 308.84
 l 87.363 309.406 88.07 309.773 88.867 309.773 c 90.309 309.773 91.477 308.605
 91.477 307.164 c 91.477 305.727 90.309 304.559 88.867 304.559 c h
88.867 304.559 m f
0.192157 0.215686 0.239216 rg
344.91 322.164 m 39.094 322.164 l 17.535 322.164 0 304.625 0 283.07 c 0
 100.93 l 0 79.375 17.535 61.836 39.094 61.836 c 344.91 61.836 l 366.465
 61.836 384 79.375 384 100.93 c 384 283.07 l 384 304.625 366.465 322.164
 344.91 322.164 c h
39.094 68.066 m 20.973 68.066 6.227 82.809 6.227 100.93 c 6.227 283.07 
l 6.227 301.191 20.973 315.934 39.094 315.934 c 344.91 315.934 l 363.031
 315.934 377.773 301.191 377.773 283.07 c 377.773 100.93 l 377.773 82.809
 363.031 68.066 344.91 68.066 c h
39.094 68.066 m f
138.102 248.18 m 134.16 248.18 130.465 246.07 128.461 242.68 c 128.414 
242.598 l 125.965 238.453 114.18 218.477 104.539 201.992 c 95.414 217.598
 84.246 236.523 80.793 242.379 c 80.617 242.676 l 78.609 246.07 74.918 248.176
 70.973 248.176 c 68.98 248.176 67.016 247.641 65.293 246.621 c 59.98 243.484
 58.211 236.613 61.348 231.301 c 61.469 231.098 74.484 209.051 84.926 191.203
 c 61.082 191.023 l 51.371 191.027 42.203 187.215 35.293 180.297 c 28.379
 173.375 24.57 164.188 24.57 154.434 c 24.57 134.258 40.988 117.84 61.164
 117.84 c 79.672 117.84 89.008 130.246 95.074 141.055 c 97.688 145.711 101.344
 152.105 104.578 157.738 c 107.816 152.105 111.473 145.711 114.086 141.055
 c 120.152 130.246 129.488 117.84 147.992 117.84 c 168.172 117.84 184.586
 134.258 184.586 154.434 c 184.586 174.609 168.172 191.027 147.992 191.027
 c 124.152 191.203 l 134.602 209.062 147.609 231.098 147.727 231.297 c 150.867
 236.613 149.098 243.484 143.785 246.621 c 142.062 247.641 140.098 248.18
 138.102 248.18 c h
104.539 192.703 m 105.648 192.703 106.672 193.293 107.227 194.25 c 117.215
 211.371 131.098 234.891 133.777 239.434 c 133.824 239.512 l 134.727 241.039
 136.324 241.949 138.102 241.949 c 138.984 241.949 139.855 241.711 140.617
 241.262 c 142.973 239.871 143.758 236.82 142.367 234.465 c 142.242 234.254
 126.816 208.129 116.059 189.699 c 115.5 188.738 115.492 187.555 116.043
 186.59 c 116.594 185.625 117.617 185.023 118.727 185.016 c 147.973 184.797
 l 164.738 184.797 178.359 171.176 178.359 154.434 c 178.359 137.691 164.738
 124.07 147.996 124.07 c 132.852 124.07 125.359 133.699 119.52 144.102 c
 116.125 150.148 110.988 159.094 107.277 165.535 c 106.723 166.504 105.695
 167.098 104.582 167.098 c 103.469 167.098 102.438 166.5 101.883 165.535
 c 98.172 159.094 93.035 150.145 89.645 144.102 c 83.805 133.699 76.309 
124.07 61.168 124.07 c 44.426 124.07 30.801 137.691 30.801 154.434 c 30.801
 162.527 33.961 170.148 39.699 175.895 c 45.434 181.637 53.035 184.797 61.105
 184.797 c 90.352 185.016 l 91.465 185.023 92.484 185.621 93.035 186.586
 c 93.586 187.551 93.578 188.738 93.02 189.699 c 82.062 208.473 66.84 234.25
 66.711 234.469 c 65.32 236.82 66.105 239.867 68.461 241.258 c 69.227 241.711
 70.094 241.949 70.977 241.949 c 72.727 241.949 74.367 241.016 75.254 239.512
 c 75.43 239.211 l 79.23 232.77 92.375 210.492 101.852 194.25 c 102.406 
193.293 103.43 192.703 104.539 192.703 c h
118.609 175.098 m 117.5 175.098 116.477 174.508 115.918 173.551 c 115.355
 172.586 115.352 171.395 115.91 170.43 c 121.344 160.996 125.465 153.773
 128.168 148.961 c 134.449 137.766 139.453 133.988 147.992 133.988 c 159.266
 133.988 168.438 143.16 168.438 154.434 c 168.438 165.703 159.246 174.871
 147.945 174.879 c 118.633 175.098 l 118.625 175.098 118.617 175.098 118.609
 175.098 c h
147.992 140.219 m 143.297 140.219 139.754 141.039 133.598 152.008 c 131.355
 156.004 128.141 161.648 124.016 168.828 c 147.91 168.652 l 147.934 168.652
 l 155.805 168.648 162.211 162.273 162.211 154.434 c 162.211 146.594 155.832
 140.219 147.992 140.219 c h
90.551 175.098 m 90.543 175.098 90.535 175.098 90.527 175.098 c 61.141 
174.879 l 49.891 174.879 40.719 165.707 40.719 154.434 c 40.719 143.16 49.891
 133.988 61.164 133.988 c 69.707 133.988 74.711 137.766 80.992 148.957 c
 84.379 154.996 89.527 163.965 93.25 170.426 c 93.809 171.395 93.805 172.586
 93.242 173.551 c 92.684 174.508 91.66 175.098 90.551 175.098 c h
61.164 140.219 m 53.328 140.219 46.949 146.594 46.949 154.434 c 46.949 
162.273 53.328 168.648 61.164 168.648 c 85.145 168.828 l 81.883 163.148 
78.195 156.699 75.562 152.008 c 69.402 141.039 65.863 140.219 61.164 140.219
 c h
61.164 140.219 m f
200.449 297.137 m 175.09 297.137 l 170.004 297.137 165.867 293 165.867 
287.914 c 165.867 281.113 l 165.867 276.031 170.004 271.895 175.09 271.895
 c 200.449 271.895 l 205.531 271.895 209.672 276.031 209.672 281.113 c 209.672
 287.914 l 209.672 293 205.535 297.137 200.449 297.137 c h
175.09 278.121 m 173.441 278.121 172.098 279.465 172.098 281.117 c 172.098
 287.918 l 172.098 289.566 173.441 290.91 175.09 290.91 c 200.449 290.91
 l 202.102 290.91 203.441 289.566 203.441 287.918 c 203.441 281.117 l 203.441
 279.465 202.102 278.121 200.449 278.121 c h
175.09 278.121 m f
252.941 297.137 m 227.578 297.137 l 222.496 297.137 218.359 293 218.359
 287.914 c 218.359 281.113 l 218.359 276.031 222.496 271.895 227.578 271.895
 c 252.941 271.895 l 258.023 271.895 262.16 276.031 262.16 281.113 c 262.16
 287.914 l 262.16 293 258.023 297.137 252.941 297.137 c h
227.578 278.121 m 225.93 278.121 224.586 279.465 224.586 281.117 c 224.586
 287.918 l 224.586 289.566 225.93 290.91 227.578 290.91 c 252.941 290.91
 l 254.59 290.91 255.934 289.566 255.934 287.918 c 255.934 281.117 l 255.934
 279.465 254.59 278.121 252.941 278.121 c h
227.578 278.121 m f
292.492 297.137 m 278.777 297.137 l 274.406 297.137 270.852 293.582 270.852
 289.211 c 270.852 279.82 l 270.852 275.449 274.406 271.895 278.777 271.895
 c 292.492 271.895 l 296.863 271.895 300.418 275.449 300.418 279.82 c 300.418
 289.211 l 300.418 293.582 296.863 297.137 292.492 297.137 c h
278.777 278.121 m 277.84 278.121 277.078 278.887 277.078 279.82 c 277.078
 289.211 l 277.078 290.148 277.84 290.91 278.777 290.91 c 292.492 290.91
 l 293.43 290.91 294.191 290.148 294.191 289.211 c 294.191 279.82 l 294.191
 278.887 293.43 278.121 292.492 278.121 c h
278.777 278.121 m f
330.75 297.137 m 317.035 297.137 l 312.664 297.137 309.109 293.582 309.109
 289.211 c 309.109 279.82 l 309.109 275.449 312.664 271.895 317.035 271.895
 c 330.75 271.895 l 335.121 271.895 338.676 275.449 338.676 279.82 c 338.676
 289.211 l 338.676 293.582 335.121 297.137 330.75 297.137 c h
317.035 278.121 m 316.098 278.121 315.336 278.887 315.336 279.82 c 315.336
 289.211 l 315.336 290.148 316.098 290.91 317.035 290.91 c 330.75 290.91
 l 331.688 290.91 332.449 290.148 332.449 289.211 c 332.449 279.82 l 332.449
 278.887 331.688 278.121 330.75 278.121 c h
317.035 278.121 m f
279.832 242.898 m 170.652 242.898 l 168.934 242.898 167.539 241.504 167.539
 239.785 c 167.539 238.066 168.934 236.672 170.652 236.672 c 279.832 236.672
 l 281.551 236.672 282.945 238.066 282.945 239.785 c 282.945 241.504 281.551
 242.898 279.832 242.898 c h
279.832 242.898 m f
333.891 242.898 m 300.504 242.898 l 298.781 242.898 297.387 241.504 297.387
 239.785 c 297.387 238.066 298.781 236.672 300.504 236.672 c 333.891 236.672
 l 335.613 236.672 337.008 238.066 337.008 239.785 c 337.008 241.504 335.613
 242.898 333.891 242.898 c h
333.891 242.898 m f
Q Q
showpage
%%Trailer
end
%%EOF
