%!PS-Adobe-3.0 EPSF-3.0
%%Creator: cairo 1.16.0 (https://cairographics.org)
%%CreationDate: Tue Feb  2 14:04:23 2021
%%Pages: 1
%%DocumentData: Clean7Bit
%%LanguageLevel: 2
%%BoundingBox: 41 3 343 381
%%EndComments
%%BeginProlog
50 dict begin
/q { gsave } bind def
/Q { grestore } bind def
/cm { 6 array astore concat } bind def
/w { setlinewidth } bind def
/J { setlinecap } bind def
/j { setlinejoin } bind def
/M { setmiterlimit } bind def
/d { setdash } bind def
/m { moveto } bind def
/l { lineto } bind def
/c { curveto } bind def
/h { closepath } bind def
/re { exch dup neg 3 1 roll 5 3 roll moveto 0 rlineto
      0 exch rlineto 0 rlineto closepath } bind def
/S { stroke } bind def
/f { fill } bind def
/f* { eofill } bind def
/n { newpath } bind def
/W { clip } bind def
/W* { eoclip } bind def
/BT { } bind def
/ET { } bind def
/BDC { mark 3 1 roll /BDC pdfmark } bind def
/EMC { mark /EMC pdfmark } bind def
/cairo_store_point { /cairo_point_y exch def /cairo_point_x exch def } def
/Tj { show currentpoint cairo_store_point } bind def
/TJ {
  {
    dup
    type /stringtype eq
    { show } { -0.001 mul 0 cairo_font_matrix dtransform rmoveto } ifelse
  } forall
  currentpoint cairo_store_point
} bind def
/cairo_selectfont { cairo_font_matrix aload pop pop pop 0 0 6 array astore
    cairo_font exch selectfont cairo_point_x cairo_point_y moveto } bind def
/Tf { pop /cairo_font exch def /cairo_font_matrix where
      { pop cairo_selectfont } if } bind def
/Td { matrix translate cairo_font_matrix matrix concatmatrix dup
      /cairo_font_matrix exch def dup 4 get exch 5 get cairo_store_point
      /cairo_font where { pop cairo_selectfont } if } bind def
/Tm { 2 copy 8 2 roll 6 array astore /cairo_font_matrix exch def
      cairo_store_point /cairo_font where { pop cairo_selectfont } if } bind def
/g { setgray } bind def
/rg { setrgbcolor } bind def
/d1 { setcachedevice } bind def
/cairo_data_source {
  CairoDataIndex CairoData length lt
    { CairoData CairoDataIndex get /CairoDataIndex CairoDataIndex 1 add def }
    { () } ifelse
} def
/cairo_flush_ascii85_file { cairo_ascii85_file status { cairo_ascii85_file flushfile } if } def
/cairo_image { image cairo_flush_ascii85_file } def
/cairo_imagemask { imagemask cairo_flush_ascii85_file } def
%%EndProlog
%%BeginSetup
%%EndSetup
%%Page: 1 1
%%BeginPageSetup
%%PageBoundingBox: 41 3 343 381
%%EndPageSetup
q 41 3 302 378 rectclip
1 0 0 -1 0 384 cm q
0.482353 0.435294 0.596078 rg
320.398 188.152 m 315.25 179.688 309.105 171.867 302.094 164.863 c 299.34
 162.113 296.488 159.523 293.543 157.086 c 262.777 131.586 222.375 123.488
 185.039 132.766 c 178.945 134.285 172.969 136.254 167.168 138.66 c 152.602
 144.156 139.012 153.219 127.043 165.188 c 115.395 176.836 106.656 190.746
 100.508 205.312 c 98.281 210.793 96.453 216.43 95.031 222.172 c 85.828 
259.344 93.906 300.082 119.602 331.074 c 122.031 334.004 124.621 336.844
 127.363 339.594 c 134.371 346.609 142.195 352.758 150.668 357.906 c 198.203
 386.738 261.051 380.633 302.094 339.594 c 343.133 298.551 349.238 235.688
 320.398 188.152 c h
320.398 188.152 m f
0.564706 0.517647 0.639216 rg
185.031 132.734 m 185.039 132.766 l 178.945 134.285 172.969 136.254 167.168
 138.66 c 152.602 144.156 139.012 153.219 127.043 165.188 c 115.395 176.836
 106.656 190.746 100.508 205.312 c 98.281 210.793 96.453 216.43 95.031 222.172
 c 88.066 209.918 l 74.309 185.711 78.418 155.297 98.105 135.605 c 117.797
 115.918 148.211 111.809 172.418 125.566 c h
185.031 132.734 m f
0.52549 0.564706 0.615686 rg
320.398 188.152 m 320.379 188.168 l 312.031 194.488 291.977 191.109 281.031
 202.051 c 266.477 216.609 278.047 228.18 263.488 242.738 c 248.934 257.297
 237.352 245.73 222.797 260.289 c 208.238 274.844 219.809 286.418 205.246
 300.977 c 190.68 315.531 179.113 303.969 164.551 318.531 c 153.629 329.453
 156.984 349.453 150.703 357.84 c 150.668 357.906 l 142.195 352.758 134.371
 346.609 127.363 339.594 c 124.621 336.848 122.031 334.008 119.602 331.074
 c 119.992 330.75 l 128.707 323.926 123.797 301.434 135.621 289.605 c 150.188
 275.039 161.762 286.613 176.316 272.047 c 190.875 257.484 179.309 245.918
 193.867 231.359 c 208.426 216.801 219.996 228.367 234.555 213.809 c 249.113
 199.254 237.547 187.68 252.105 173.113 c 264.113 161.113 287.086 166.352
 293.535 157.094 c 293.543 157.086 l 296.484 159.516 299.332 162.109 302.094
 164.863 c 309.105 171.867 315.25 179.688 320.398 188.152 c h
320.398 188.152 m f
0.337255 0.317647 0.419608 rg
173.168 357.906 m 164.695 352.758 156.871 346.609 149.863 339.594 c 147.121
 336.848 144.531 334.008 142.102 331.074 c 116.406 300.082 108.328 259.344
 117.531 222.172 c 118.953 216.43 120.781 210.793 123.008 205.312 c 129.156
 190.746 137.895 176.836 149.543 165.188 c 161.512 153.219 175.102 144.156
 189.668 138.66 c 201.441 133.766 213.895 130.703 226.594 129.57 c 206.344
 127.742 185.949 130.859 167.168 138.66 c 152.602 144.156 139.012 153.219
 127.043 165.188 c 115.395 176.836 106.656 190.746 100.508 205.312 c 98.281
 210.793 96.453 216.43 95.031 222.172 c 85.828 259.344 93.906 300.082 119.602
 331.074 c 122.031 334.004 124.621 336.844 127.363 339.594 c 153.277 365.578
 189.43 378.648 225.965 375.238 c 207.277 373.559 189.219 367.629 173.168
 357.906 c h
173.168 357.906 m f
0.678431 0.639216 0.756863 rg
120.609 135.609 m 129.465 126.746 140.809 120.789 153.133 118.527 c 129.473
 114.137 105.41 123.867 91.453 143.473 c 77.496 163.078 76.176 188.996 88.066
 209.918 c 95.031 222.172 l 96.453 216.43 98.281 210.793 100.508 205.312
 c 101.816 202.211 103.25 199.141 104.801 196.109 c 98.742 174.566 104.785
 151.434 120.609 135.609 c h
120.609 135.609 m f
0.345098 0.376471 0.407843 rg
149.863 339.594 m 147.121 336.848 144.531 334.008 142.102 331.074 c 136.34
 324.121 131.367 316.547 127.273 308.496 c 125.508 317.758 124.996 326.836
 119.992 330.754 c 119.602 331.074 l 122.031 334.008 124.621 336.848 127.363
 339.594 c 134.371 346.609 142.195 352.762 150.668 357.91 c 150.703 357.844
 l 153.082 354.664 154.078 349.816 154.992 344.434 c 153.25 342.875 151.543
 341.262 149.863 339.594 c h
149.863 339.594 m f
0.156863 0.258824 0.407843 rg
195.977 164.984 m 196.277 164.984 196.578 164.953 196.875 164.895 c 198.391
 164.586 199.938 164.316 201.465 164.086 c 203.934 163.734 205.645 161.438
 205.277 158.969 c 204.91 156.504 202.605 154.805 200.141 155.184 c 198.457
 155.438 196.758 155.734 195.09 156.074 c 189.762 157.145 190.547 164.984
 195.977 164.984 c h
195.977 164.984 m f
115.637 253.352 m 115.637 259.352 124.637 259.352 124.637 253.352 c 124.602
 217.133 146.238 184.41 179.578 170.266 c 185.098 167.914 181.574 159.633
 176.055 161.984 c 139.391 177.539 115.598 213.523 115.637 253.352 c h
115.637 253.352 m f
91.863 135.727 m 73.375 156.996 70.285 187.605 84.156 212.141 c 90.246 
222.863 l 86.137 240.453 85.758 258.703 89.133 276.449 c 98.094 322.945 
131.992 360.695 177.262 374.59 c 222.531 388.48 271.773 376.246 305.273 
342.777 c 355.199 292.848 355.199 211.613 305.273 161.688 c 273.75 130.156
 228.594 117.887 185.73 127.957 c 174.641 121.656 l 150.105 107.789 119.496
 110.875 98.227 129.367 c 60.227 91.359 l 53.703 85.004 50 76.301 49.941
 67.191 c 49.883 58.086 53.473 49.336 59.914 42.898 c 66.352 36.457 75.102
 32.867 84.211 32.926 c 93.316 32.984 102.02 36.688 108.375 43.207 c 130.164
 64.996 l 146.977 81.805 174.23 81.805 191.039 64.996 c 206.414 49.617 l
 210.656 45.375 204.293 39.012 200.051 43.254 c 184.676 58.633 l 178.289
 65.02 169.629 68.605 160.602 68.605 c 151.57 68.605 142.91 65.02 136.527
 58.633 c 114.734 36.844 l 97.875 20.328 70.859 20.469 54.172 37.16 c 37.48
 53.852 37.344 80.863 53.859 97.727 c h
298.91 336.41 m 260.449 374.867 202.008 381.461 156.695 356.188 c 158.227
 352.402 158.973 347.934 159.75 343.273 c 161.078 335.27 162.449 326.996
 167.734 321.711 c 173.906 315.543 179.238 314.934 185.41 314.223 c 192.266
 313.441 200.035 312.551 208.43 304.16 c 216.824 295.77 217.707 288 218.492
 281.145 c 219.199 274.969 219.809 269.637 225.977 263.469 c 232.148 257.301
 237.48 256.688 243.652 255.984 c 250.508 255.199 258.277 254.309 266.668
 245.918 c 275.059 237.531 275.949 229.758 276.73 222.902 c 277.438 216.73
 278.047 211.398 284.219 205.23 c 289.5 199.945 297.773 198.574 305.777 
197.246 c 310.434 196.473 314.902 195.727 318.688 194.191 c 343.961 239.504
 337.371 297.949 298.91 336.41 c h
298.91 168.047 m 304.504 173.637 309.531 179.773 313.91 186.359 c 310.758
 187.242 307.551 187.914 304.309 188.367 c 295.344 189.855 285.184 191.543
 277.859 198.867 c 269.465 207.254 268.574 215.023 267.789 221.879 c 267.086
 228.055 266.477 233.387 260.305 239.555 c 254.137 245.727 248.805 246.336
 242.629 247.043 c 235.773 247.824 228.004 248.715 219.613 257.105 c 211.223
 265.496 210.336 273.266 209.551 280.125 c 208.844 286.301 208.234 291.629
 202.066 297.801 c 195.895 303.969 190.562 304.582 184.387 305.285 c 177.531
 306.07 169.762 306.961 161.371 315.352 c 154.047 322.676 152.359 332.84
 150.871 341.805 c 150.418 345.047 149.746 348.258 148.863 351.41 c 142.273
 347.031 136.141 342.008 130.547 336.41 c 128.855 334.719 127.238 332.973
 125.664 331.195 c 128.738 326.816 129.762 320.727 130.82 314.348 c 132.148
 306.344 133.52 298.066 138.805 292.785 c 144.977 286.613 150.309 286.004
 156.484 285.297 c 163.34 284.512 171.109 283.625 179.5 275.234 c 187.895
 266.84 188.781 259.07 189.562 252.215 c 190.27 246.043 190.879 240.711 
197.051 234.543 c 203.219 228.371 208.551 227.762 214.727 227.055 c 221.578
 226.27 229.352 225.383 237.742 216.992 c 246.133 208.602 247.02 200.832
 247.805 193.977 c 248.512 187.801 249.121 182.469 255.289 176.301 c 260.57
 171.02 268.848 169.645 276.848 168.316 c 283.227 167.258 289.332 166.238
 293.707 163.164 c 295.48 164.734 297.215 166.359 298.91 168.047 c h
215.336 133.52 m 240.863 133.484 265.719 141.727 286.168 157.012 c 283.336
 158.113 279.426 158.766 275.375 159.438 c 266.41 160.926 256.25 162.613
 248.926 169.938 c 240.535 178.328 239.645 186.098 238.863 192.953 c 238.156
 199.125 237.547 204.457 231.375 210.629 c 225.207 216.797 219.875 217.406
 213.703 218.113 c 206.844 218.898 199.078 219.785 190.684 228.176 c 182.293
 236.566 181.406 244.336 180.621 251.191 c 179.914 257.367 179.305 262.699
 173.137 268.867 c 166.965 275.039 161.633 275.648 155.461 276.355 c 148.602
 277.141 140.836 278.027 132.441 286.422 c 125.117 293.746 123.43 303.906
 121.941 312.871 c 121.266 316.934 120.613 320.84 119.512 323.672 c 94.43
 290.109 88.789 245.848 104.656 207.066 c 111.02 191.992 119.621 178.977
 130.223 168.375 c 141.902 156.695 154.863 148.117 168.754 142.867 c 168.797
 142.852 168.844 142.836 168.887 142.816 c 183.609 136.691 199.391 133.535
 215.336 133.52 c h
101.293 138.793 m 119.57 120.586 147.738 116.777 170.195 129.48 c 173.621
 131.43 l 170.898 132.352 168.195 133.367 165.508 134.473 c 150.438 140.18
 136.426 149.441 123.859 162.008 c 112.434 173.438 103.18 187.418 96.34 
203.621 c 95.387 205.973 94.523 208.352 93.711 210.742 c 91.98 207.695 l
 79.277 185.238 83.086 157.07 101.293 138.793 c h
101.293 138.793 m f
213.602 36.066 m 215.355 37.824 218.207 37.824 219.965 36.066 c 233.609
 22.426 l 235.391 20.672 235.402 17.801 233.633 16.035 c 231.867 14.27 228.996
 14.281 227.242 16.062 c 213.602 29.699 l 211.84 31.457 211.84 34.309 213.602
 36.066 c h
213.602 36.066 m f
200.578 28.355 m 202.867 29.32 205.504 28.242 206.469 25.949 c 213.168 
9.992 l 215.492 4.461 207.191 0.977 204.871 6.508 c 198.168 22.465 l 197.207
 24.758 198.285 27.395 200.578 28.355 c h
200.578 28.355 m f
221.312 49.094 m 222.273 51.383 224.91 52.461 227.203 51.5 c 243.16 44.801
 l 248.66 42.461 245.195 34.211 239.676 36.5 c 223.719 43.199 l 221.426 
44.164 220.348 46.801 221.312 49.094 c h
221.312 49.094 m f
Q Q
showpage
%%Trailer
end
%%EOF
