%!PS-Adobe-3.0 EPSF-3.0
%%Creator: cairo 1.16.0 (https://cairographics.org)
%%CreationDate: Tue Feb  2 14:04:24 2021
%%Pages: 1
%%DocumentData: Clean7Bit
%%LanguageLevel: 2
%%BoundingBox: 3 33 381 351
%%EndComments
%%BeginProlog
50 dict begin
/q { gsave } bind def
/Q { grestore } bind def
/cm { 6 array astore concat } bind def
/w { setlinewidth } bind def
/J { setlinecap } bind def
/j { setlinejoin } bind def
/M { setmiterlimit } bind def
/d { setdash } bind def
/m { moveto } bind def
/l { lineto } bind def
/c { curveto } bind def
/h { closepath } bind def
/re { exch dup neg 3 1 roll 5 3 roll moveto 0 rlineto
      0 exch rlineto 0 rlineto closepath } bind def
/S { stroke } bind def
/f { fill } bind def
/f* { eofill } bind def
/n { newpath } bind def
/W { clip } bind def
/W* { eoclip } bind def
/BT { } bind def
/ET { } bind def
/BDC { mark 3 1 roll /BDC pdfmark } bind def
/EMC { mark /EMC pdfmark } bind def
/cairo_store_point { /cairo_point_y exch def /cairo_point_x exch def } def
/Tj { show currentpoint cairo_store_point } bind def
/TJ {
  {
    dup
    type /stringtype eq
    { show } { -0.001 mul 0 cairo_font_matrix dtransform rmoveto } ifelse
  } forall
  currentpoint cairo_store_point
} bind def
/cairo_selectfont { cairo_font_matrix aload pop pop pop 0 0 6 array astore
    cairo_font exch selectfont cairo_point_x cairo_point_y moveto } bind def
/Tf { pop /cairo_font exch def /cairo_font_matrix where
      { pop cairo_selectfont } if } bind def
/Td { matrix translate cairo_font_matrix matrix concatmatrix dup
      /cairo_font_matrix exch def dup 4 get exch 5 get cairo_store_point
      /cairo_font where { pop cairo_selectfont } if } bind def
/Tm { 2 copy 8 2 roll 6 array astore /cairo_font_matrix exch def
      cairo_store_point /cairo_font where { pop cairo_selectfont } if } bind def
/g { setgray } bind def
/rg { setrgbcolor } bind def
/d1 { setcachedevice } bind def
/cairo_data_source {
  CairoDataIndex CairoData length lt
    { CairoData CairoDataIndex get /CairoDataIndex CairoDataIndex 1 add def }
    { () } ifelse
} def
/cairo_flush_ascii85_file { cairo_ascii85_file status { cairo_ascii85_file flushfile } if } def
/cairo_image { image cairo_flush_ascii85_file } def
/cairo_imagemask { imagemask cairo_flush_ascii85_file } def
%%EndProlog
%%BeginSetup
%%EndSetup
%%Page: 1 1
%%BeginPageSetup
%%PageBoundingBox: 3 33 381 351
%%EndPageSetup
q 3 33 378 318 rectclip
1 0 0 -1 0 384 cm q
0.662745 0.713726 0.847059 rg
334.289 64.492 m 308.723 38.926 l 307.574 37.777 305.715 37.777 304.566
 38.926 c 274.828 68.664 l 304.551 98.387 l 334.289 68.648 l 335.438 67.5
 335.438 65.641 334.289 64.492 c h
334.289 64.492 m f
0.278431 0.607843 0.498039 rg
276.383 70.223 m 303.512 97.352 l 288.57 112.289 l 277.16 123.699 270.113
 138.746 268.648 154.816 c 267.191 170.879 260.145 185.926 248.738 197.332
 c 236.543 209.527 l 164.203 137.191 l 176.398 124.996 l 187.805 113.586
 202.852 106.539 218.918 105.082 c 234.984 103.617 250.031 96.57 261.441
 85.164 c h
276.383 70.223 m f
0.67451 0.74902 0.788235 rg
236.543 209.527 m 210.246 235.824 l 210.238 235.828 l 205.734 231.832 200.406
 228.691 192 228.691 c 169.035 228.691 169.035 252.141 146.062 252.141 c
 123.148 252.141 123.09 228.816 100.305 228.691 c 100.305 228.512 l 86.594
 214.801 l 164.203 137.191 l h
236.543 209.527 m f
0.278431 0.607843 0.498039 rg
100.305 228.512 m 100.305 228.691 l 100.125 228.691 l 77.152 228.691 77.152
 252.141 54.188 252.141 c 52.82 252.148 51.453 252.059 50.102 251.871 c 
50.562 251.027 51.145 250.25 51.824 249.57 c 86.594 214.801 l h
100.305 228.512 m f
0.662745 0.713726 0.847059 rg
176.348 197.387 m 181.594 202.629 183.16 210.52 180.324 217.371 c 177.484
 224.223 170.797 228.691 163.379 228.691 c 155.961 228.691 149.277 224.223
 146.438 217.371 c 143.598 210.52 145.168 202.629 150.414 197.387 c 153.852
 193.945 158.516 192.012 163.379 192.012 c 168.242 192.012 172.91 193.945
 176.348 197.387 c h
176.348 197.387 m f
0.576471 0.611765 0.698039 rg
308.723 38.926 m 307.574 37.777 305.715 37.777 304.566 38.926 c 274.828
 68.664 l 289.828 83.664 l 319.566 53.926 l 320.715 52.777 322.574 52.777
 323.723 53.926 c h
308.723 38.926 m f
0.223529 0.478431 0.388235 rg
233.918 120.082 m 249.984 118.617 265.031 111.57 276.441 100.164 c 291.383
 85.223 l 276.383 70.223 l 261.441 85.164 l 250.031 96.57 234.984 103.617
 218.918 105.082 c 202.852 106.539 187.805 113.586 176.398 124.996 c 164.203
 137.191 l 179.203 152.191 l 191.398 139.996 l 202.805 128.586 217.852 121.539
 233.918 120.082 c h
233.918 120.082 m f
0.54902 0.615686 0.647059 rg
102.699 228.793 m 179.254 152.191 l 164.23 137.191 l 86.703 214.801 l 100.5
 228.512 l 100.5 228.691 l 101.25 228.695 101.957 228.734 102.699 228.793
 c h
102.699 228.793 m f
0.156863 0.258824 0.407843 rg
137.227 144.32 m 138.422 144.32 139.566 143.848 140.41 143 c 141.5 141.91
 l 145.629 137.668 139.383 131.418 135.141 135.543 c 134.047 136.637 l 131.211
 139.473 133.219 144.316 137.227 144.32 c h
137.227 144.32 m f
86.598 194.949 m 87.789 194.953 88.934 194.477 89.777 193.633 c 130.707
 152.699 l 134.879 148.457 128.586 142.164 124.344 146.336 c 83.414 187.266
 l 80.578 190.102 82.586 194.949 86.598 194.949 c h
86.598 194.949 m f
375.75 224.191 m 362.375 224.191 355.57 231.141 349.566 237.27 c 344.113
 242.836 339.402 247.641 329.809 247.641 c 320.215 247.641 315.508 242.836
 310.055 237.27 c 304.055 231.141 297.246 224.191 283.871 224.191 c 270.496
 224.191 263.691 231.141 257.688 237.27 c 252.234 242.836 247.527 247.641
 237.934 247.641 c 228.34 247.641 223.633 242.836 218.184 237.27 c 217.691
 236.766 217.188 236.258 216.684 235.75 c 251.918 200.516 l 264.059 188.355
 271.566 172.332 273.133 155.219 c 274.508 140.203 281.094 126.141 291.75
 115.473 c 304.355 102.867 l 304.418 102.867 304.484 102.887 304.551 102.887
 c 305.742 102.887 306.887 102.414 307.73 101.57 c 337.473 71.824 l 340.375
 68.918 340.375 64.215 337.473 61.309 c 311.906 35.738 l 309 32.84 304.293
 32.84 301.387 35.738 c 271.645 65.48 l 270.527 66.602 270.086 68.23 270.48
 69.762 c 258.258 81.984 l 247.59 92.637 233.531 99.223 218.516 100.598 
c 201.402 102.164 185.379 109.672 173.219 121.812 c 48.645 246.391 l 48.48
 246.555 48.328 246.723 48.172 246.895 c 42.348 245.34 38.602 241.531 34.43
 237.273 c 28.43 231.141 21.625 224.195 8.246 224.195 c 2.246 224.195 2.246
 233.195 8.246 233.195 c 17.84 233.195 22.547 238.004 28 243.57 c 34 249.699
 40.809 256.645 54.184 256.645 c 67.559 256.645 74.363 249.699 80.367 243.57
 c 85.82 238.004 90.527 233.195 100.121 233.195 c 109.715 233.195 114.422
 238.004 119.875 243.57 c 125.875 249.699 132.684 256.645 146.059 256.645
 c 159.438 256.645 166.242 249.699 172.246 243.57 c 177.695 238.004 182.406
 233.195 191.996 233.195 c 201.59 233.195 206.297 238.004 211.75 243.57 
c 217.75 249.699 224.555 256.645 237.93 256.645 c 251.305 256.645 258.109
 249.699 264.113 243.57 c 269.566 238.004 274.273 233.195 283.867 233.195
 c 293.461 233.195 298.172 238.004 303.621 243.57 c 309.621 249.699 316.43
 256.645 329.809 256.645 c 343.184 256.645 349.988 249.699 355.992 243.57
 c 361.445 238.004 366.152 233.195 375.746 233.195 c 381.746 233.195 381.746
 224.195 375.746 224.195 c h
306.648 43.207 m 330.004 66.566 l 304.551 92.023 l 281.191 68.664 l h
179.582 128.176 m 190.25 117.52 204.312 110.934 219.328 109.559 c 236.441
 107.992 252.465 100.488 264.625 88.352 c 276.383 76.59 l 297.148 97.352
 l 285.387 109.113 l 273.246 121.27 265.742 137.293 264.172 154.406 c 262.797
 169.422 256.211 183.484 245.559 194.152 c 236.543 203.168 l 170.57 137.195
 l h
73.941 237.27 m 70 241.289 66.441 244.906 61.152 246.609 c 86.598 221.164
 l 90.91 225.48 l 83.266 227.766 78.379 232.738 73.941 237.27 c h
173.164 220.133 m 168.5 224.805 161.184 225.527 155.695 221.859 c 150.207
 218.195 148.07 211.16 150.594 205.062 c 153.121 198.961 159.602 195.496
 166.078 196.781 c 172.551 198.07 177.215 203.75 177.215 210.352 c 177.227
 214.023 175.766 217.547 173.164 220.133 c h
209.906 229.801 m 204.711 226.023 198.422 224.055 192 224.191 c 187.586
 224.125 183.211 225.027 179.18 226.832 c 179.297 226.719 179.414 226.613
 179.527 226.5 c 187.766 218.238 188.426 205.086 181.055 196.047 c 173.684
 187.004 160.668 185 150.918 191.402 c 141.168 197.809 137.84 210.547 143.211
 220.906 c 148.582 231.262 160.91 235.879 171.766 231.598 c 169.594 233.414
 167.668 235.379 165.816 237.27 c 160.363 242.836 155.656 247.641 146.062
 247.641 c 136.469 247.641 131.762 242.836 126.309 237.27 c 120.66 231.5
 114.301 225.016 102.43 224.266 c 92.961 214.801 l 164.203 143.559 l 230.176
 209.527 l h
209.906 229.801 m f
375.75 271.09 m 362.375 271.09 355.57 278.039 349.566 284.168 c 344.113
 289.734 339.402 294.539 329.809 294.539 c 320.215 294.539 315.508 289.734
 310.055 284.168 c 304.055 278.039 297.246 271.09 283.871 271.09 c 270.496
 271.09 263.691 278.039 257.688 284.168 c 252.234 289.734 247.527 294.539
 237.934 294.539 c 228.34 294.539 223.633 289.734 218.184 284.168 c 212.184
 278.039 205.375 271.09 192 271.09 c 178.625 271.09 171.82 278.039 165.816
 284.168 c 160.363 289.734 155.656 294.539 146.062 294.539 c 136.469 294.539
 131.762 289.734 126.309 284.168 c 120.309 278.039 113.5 271.09 100.125 
271.09 c 86.75 271.09 79.941 278.039 73.941 284.168 c 68.488 289.734 63.777
 294.539 54.188 294.539 c 44.594 294.539 39.883 289.734 34.434 284.168 c
 28.434 278.039 21.625 271.09 8.25 271.09 c 2.25 271.09 2.25 280.09 8.25
 280.09 c 17.844 280.09 22.551 284.898 28.004 290.465 c 34.004 296.594 40.809
 303.539 54.188 303.539 c 67.562 303.539 74.367 296.594 80.371 290.465 c
 85.82 284.898 90.531 280.09 100.125 280.09 c 109.719 280.09 114.426 284.898
 119.879 290.465 c 125.879 296.594 132.688 303.539 146.062 303.539 c 159.438
 303.539 166.242 296.594 172.246 290.465 c 177.699 284.898 182.406 280.09
 192 280.09 c 201.594 280.09 206.301 284.898 211.75 290.465 c 217.75 296.594
 224.559 303.539 237.934 303.539 c 251.309 303.539 258.113 296.594 264.117
 290.465 c 269.57 284.898 274.277 280.09 283.871 280.09 c 293.465 280.09
 298.172 284.898 303.625 290.465 c 309.625 296.594 316.434 303.539 329.809
 303.539 c 343.188 303.539 349.992 296.594 355.996 290.465 c 361.449 284.898
 366.156 280.09 375.75 280.09 c 378.234 280.09 380.25 278.078 380.25 275.59
 c 380.25 273.105 378.234 271.09 375.75 271.09 c h
375.75 271.09 m f
375.75 317.988 m 362.375 317.988 355.57 324.938 349.566 331.066 c 344.113
 336.633 339.402 341.438 329.809 341.438 c 320.215 341.438 315.508 336.633
 310.055 331.066 c 304.055 324.938 297.246 317.988 283.871 317.988 c 270.496
 317.988 263.691 324.938 257.688 331.066 c 252.234 336.633 247.527 341.438
 237.934 341.438 c 228.34 341.438 223.633 336.633 218.184 331.066 c 212.184
 324.938 205.375 317.988 192 317.988 c 178.625 317.988 171.82 324.938 165.816
 331.066 c 160.363 336.633 155.656 341.438 146.062 341.438 c 136.469 341.438
 131.762 336.633 126.309 331.066 c 120.309 324.938 113.5 317.988 100.125
 317.988 c 86.75 317.988 79.941 324.938 73.941 331.066 c 68.488 336.633 
63.777 341.438 54.188 341.438 c 44.594 341.438 39.883 336.633 34.434 331.066
 c 28.434 324.938 21.625 317.988 8.25 317.988 c 2.25 317.988 2.25 326.988
 8.25 326.988 c 17.844 326.988 22.551 331.797 28.004 337.363 c 34.004 343.492
 40.809 350.438 54.188 350.438 c 67.562 350.438 74.367 343.492 80.371 337.363
 c 85.82 331.797 90.531 326.988 100.125 326.988 c 109.719 326.988 114.426
 331.797 119.879 337.363 c 125.879 343.492 132.688 350.438 146.062 350.438
 c 159.438 350.438 166.242 343.492 172.246 337.363 c 177.699 331.797 182.406
 326.988 192 326.988 c 201.594 326.988 206.301 331.797 211.75 337.363 c 
217.75 343.492 224.559 350.438 237.934 350.438 c 251.309 350.438 258.113
 343.492 264.117 337.363 c 269.57 331.797 274.277 326.988 283.871 326.988
 c 293.465 326.988 298.172 331.797 303.625 337.363 c 309.625 343.492 316.434
 350.438 329.809 350.438 c 343.188 350.438 349.992 343.492 355.996 337.363
 c 361.449 331.797 366.156 326.988 375.75 326.988 c 378.234 326.988 380.25
 324.977 380.25 322.488 c 380.25 320.004 378.234 317.988 375.75 317.988 
c h
375.75 317.988 m f
Q Q
showpage
%%Trailer
end
%%EOF
