%!PS-Adobe-3.0 EPSF-3.0
%%Creator: cairo 1.16.0 (https://cairographics.org)
%%CreationDate: Tue Feb  2 14:04:25 2021
%%Pages: 1
%%DocumentData: Clean7Bit
%%LanguageLevel: 2
%%BoundingBox: 3 65 381 319
%%EndComments
%%BeginProlog
50 dict begin
/q { gsave } bind def
/Q { grestore } bind def
/cm { 6 array astore concat } bind def
/w { setlinewidth } bind def
/J { setlinecap } bind def
/j { setlinejoin } bind def
/M { setmiterlimit } bind def
/d { setdash } bind def
/m { moveto } bind def
/l { lineto } bind def
/c { curveto } bind def
/h { closepath } bind def
/re { exch dup neg 3 1 roll 5 3 roll moveto 0 rlineto
      0 exch rlineto 0 rlineto closepath } bind def
/S { stroke } bind def
/f { fill } bind def
/f* { eofill } bind def
/n { newpath } bind def
/W { clip } bind def
/W* { eoclip } bind def
/BT { } bind def
/ET { } bind def
/BDC { mark 3 1 roll /BDC pdfmark } bind def
/EMC { mark /EMC pdfmark } bind def
/cairo_store_point { /cairo_point_y exch def /cairo_point_x exch def } def
/Tj { show currentpoint cairo_store_point } bind def
/TJ {
  {
    dup
    type /stringtype eq
    { show } { -0.001 mul 0 cairo_font_matrix dtransform rmoveto } ifelse
  } forall
  currentpoint cairo_store_point
} bind def
/cairo_selectfont { cairo_font_matrix aload pop pop pop 0 0 6 array astore
    cairo_font exch selectfont cairo_point_x cairo_point_y moveto } bind def
/Tf { pop /cairo_font exch def /cairo_font_matrix where
      { pop cairo_selectfont } if } bind def
/Td { matrix translate cairo_font_matrix matrix concatmatrix dup
      /cairo_font_matrix exch def dup 4 get exch 5 get cairo_store_point
      /cairo_font where { pop cairo_selectfont } if } bind def
/Tm { 2 copy 8 2 roll 6 array astore /cairo_font_matrix exch def
      cairo_store_point /cairo_font where { pop cairo_selectfont } if } bind def
/g { setgray } bind def
/rg { setrgbcolor } bind def
/d1 { setcachedevice } bind def
/cairo_data_source {
  CairoDataIndex CairoData length lt
    { CairoData CairoDataIndex get /CairoDataIndex CairoDataIndex 1 add def }
    { () } ifelse
} def
/cairo_flush_ascii85_file { cairo_ascii85_file status { cairo_ascii85_file flushfile } if } def
/cairo_image { image cairo_flush_ascii85_file } def
/cairo_imagemask { imagemask cairo_flush_ascii85_file } def
%%EndProlog
%%BeginSetup
%%EndSetup
%%Page: 1 1
%%BeginPageSetup
%%PageBoundingBox: 3 65 381 319
%%EndPageSetup
q 3 65 378 254 rectclip
1 0 0 -1 0 384 cm q
0.823529 0.745098 0.572549 rg
339.539 98.656 m 369.379 96.109 l 375.566 168.594 l 345.727 171.141 l h
339.539 98.656 m f
0.317647 0.403922 0.431373 rg
340.254 104.883 m 147.547 110.121 l 146.242 110.199 l 144.645 110.246 143.047
 110.328 141.449 110.402 c 145.043 119.965 147.781 135.746 149.121 151.617
 c 203.977 184.941 l 345.336 164.25 l 345.352 164.25 l h
340.254 104.883 m f
0.498039 0.239216 0.196078 rg
141.449 110.422 m 127.41 111.066 113.441 112.852 99.691 115.754 c 97.926
 116.121 96.172 116.512 94.418 116.926 c 94.859 110.625 l 95.414 102.871
 101.523 96.676 109.266 96.008 c 117.426 95.309 l 129.789 94.254 l 137.406
 93.598 144.398 98.5 146.387 105.887 c 147.547 110.203 l 146.242 110.242
 l 144.648 110.289 143.051 110.348 141.449 110.422 c h
141.449 110.422 m f
0.823529 0.745098 0.572549 rg
141.449 110.422 m 127.41 111.066 113.441 112.852 99.691 115.754 c 99.766
 116.121 l 103.199 125.145 105.84 140.844 107.094 156.441 c 107.113 156.496
 l 149.121 151.629 l 147.781 135.758 145.043 119.984 141.449 110.422 c h
141.449 110.422 m f
0.317647 0.403922 0.431373 rg
107.094 156.441 m 105.84 140.844 103.199 125.145 99.766 116.121 c 99.691
 115.754 l 97.926 116.121 96.172 116.512 94.418 116.926 c 88.035 118.41 
81.707 120.137 75.434 122.102 c 40.867 132.945 l 45.594 188.219 l 66.816
 191.25 l 66.824 191.25 l 107.113 156.684 l h
107.094 156.441 m f
0.498039 0.239216 0.196078 rg
149.121 151.629 m 171.215 154.832 191.031 166.93 203.977 185.113 c 213.781
 198.848 219.039 215.305 219.016 232.176 c 219.016 277.141 182.414 313.59
 137.273 313.59 c 92.129 313.59 55.531 277.141 55.531 232.176 c 55.508 217.645
 59.41 203.375 66.824 190.875 c 83.785 162.34 116.273 146.848 149.121 151.629
 c h
149.121 151.629 m f
0.854902 0.666667 0.47451 rg
200.805 232.176 m 147.832 232.176 l 147.836 229.387 146.723 226.711 144.742
 224.746 c 144.742 224.738 l 182.199 187.441 l 194.121 199.273 200.82 215.379
 200.805 232.176 c h
200.805 232.176 m f
0.882353 0.717647 0.639216 rg
147.832 232.176 m 200.805 232.176 l 200.82 248.977 194.121 265.09 182.199
 276.922 c 144.742 239.617 l 146.723 237.648 147.836 234.969 147.832 232.176
 c h
147.832 232.176 m f
0.780392 0.603922 0.513726 rg
182.199 187.441 m 144.742 224.738 l 144.742 224.746 l 142.762 222.766 140.074
 221.656 137.273 221.664 c 137.273 168.906 l 154.113 168.879 170.273 175.547
 182.199 187.441 c h
182.199 187.441 m f
144.742 239.617 m 182.199 276.922 l 170.273 288.816 154.113 295.484 137.273
 295.453 c 137.273 242.699 l 140.074 242.703 142.762 241.594 144.742 239.617
 c h
144.742 239.617 m f
0.854902 0.666667 0.47451 rg
137.273 242.699 m 137.273 295.453 l 120.434 295.48 104.273 288.812 92.348
 276.922 c 129.801 239.617 l 131.785 241.594 134.473 242.703 137.273 242.699
 c h
137.273 242.699 m f
0.882353 0.717647 0.639216 rg
137.273 168.906 m 137.273 221.664 l 134.473 221.656 131.785 222.766 129.801
 224.746 c 129.801 224.738 l 92.348 187.441 l 104.273 175.547 120.434 168.883
 137.273 168.906 c h
137.273 168.906 m f
0.854902 0.666667 0.47451 rg
129.801 224.738 m 129.801 224.746 l 127.82 226.711 126.703 229.387 126.703
 232.176 c 73.734 232.176 l 73.719 215.379 80.418 199.27 92.348 187.441 
c h
129.801 224.738 m f
0.780392 0.603922 0.513726 rg
129.801 239.617 m 92.348 276.922 l 80.418 265.09 73.719 248.98 73.734 232.176
 c 126.703 232.176 l 126.703 234.973 127.82 237.648 129.801 239.617 c h
129.801 239.617 m f
0.592157 0.54902 0.67451 rg
40.785 131.977 m 40.609 129.91 38.793 128.379 36.727 128.559 c 11.672 130.711
 l 9.605 130.883 8.078 132.699 8.258 134.762 c 13.141 191.789 l 13.32 193.852
 15.137 195.379 17.199 195.203 c 42.254 193.059 l 44.316 192.879 45.848 
191.062 45.676 189 c h
40.785 131.977 m f
0.698039 0.627451 0.482353 rg
369.547 96.008 m 339.699 98.566 l 341.199 115.066 l 370.961 112.516 l h
369.547 96.008 m f
0.254902 0.321569 0.337255 rg
340.254 104.883 m 141.449 110.398 l 143.328 115.734 144.773 121.207 145.773
 126.773 c 341.672 121.383 l h
340.254 104.883 m f
0.447059 0.419608 0.517647 rg
40.785 131.977 m 40.609 129.91 38.793 128.379 36.727 128.559 c 11.672 130.711
 l 9.605 130.883 8.078 132.699 8.258 134.762 c 9.758 151.262 l 9.578 149.199
 11.105 147.383 13.172 147.211 c 38.227 145.059 l 39.988 144.91 41.617 146.008
 42.133 147.699 c h
40.785 131.977 m f
0.698039 0.627451 0.482353 rg
141.449 110.422 m 127.41 111.066 113.441 112.852 99.691 115.754 c 99.766
 116.121 l 101.617 121.191 103.039 126.41 104.008 131.723 c 116.945 129.113
 130.066 127.508 143.25 126.922 c 143.25 126.898 l 144 126.855 144.98 126.812
 145.922 126.773 c 144.879 121.211 143.383 115.742 141.449 110.422 c h
141.449 110.422 m f
0.254902 0.321569 0.337255 rg
99.766 116.121 m 99.691 115.754 l 97.926 116.121 96.172 116.512 94.418 
116.926 c 88.035 118.41 81.707 120.137 75.434 122.102 c 40.867 132.945 l
 42.367 149.445 l 76.934 138.602 l 83.203 136.637 89.531 134.91 95.918 133.426
 c 97.672 133.012 99.43 132.621 101.191 132.254 c 102.078 132.066 102.969
 131.898 103.859 131.719 c 102.93 126.414 101.562 121.199 99.766 116.121
 c h
99.766 116.121 m f
0.156863 0.258824 0.407843 rg
374.027 95.625 m 373.82 93.148 371.637 91.309 369.16 91.527 c 339.312 94.082
 l 336.836 94.293 335 96.473 335.211 98.949 c 335.363 100.688 l 150.977 
105.613 l 150.734 104.719 l 148.188 95.223 139.199 88.922 129.402 89.77 
c 121.527 90.441 l 121.195 86.547 l 120.887 82.965 119.168 79.648 116.418
 77.328 c 113.664 75.012 110.105 73.883 106.52 74.188 c 104.008 74.402 101.797
 72.543 101.578 70.027 c 101.066 64.047 92.094 64.82 92.609 70.801 c 93.254
 78.262 99.82 83.793 107.285 83.16 c 109.797 82.945 112.008 84.809 112.223
 87.32 c 112.559 91.215 l 108.887 91.527 l 98.918 92.344 91.047 100.328 
90.375 110.305 c 90.16 113.32 l 84.762 114.648 79.406 116.141 74.09 117.805
 c 43.648 127.359 l 41.949 125.074 39.188 123.832 36.348 124.078 c 11.289
 126.227 l 6.75 126.617 3.387 130.613 3.773 135.148 c 8.656 192.172 l 9.023
 196.438 12.586 199.711 16.863 199.719 c 17.102 199.719 17.344 199.711 17.582
 199.688 c 42.641 197.543 l 45.477 197.297 47.984 195.602 49.277 193.066
 c 59.793 194.477 l 54.016 206.203 51.016 219.109 51.027 232.184 c 51.027
 279.555 89.715 318.09 137.273 318.09 c 184.828 318.09 223.516 279.555 223.516
 232.184 c 223.531 216.832 219.395 201.762 211.547 188.566 c 341.277 169.727
 l 341.426 171.461 l 341.625 173.785 343.566 175.57 345.898 175.574 c 346.027
 175.574 346.156 175.57 346.289 175.559 c 376.141 173 l 378.617 172.789 
380.449 170.609 380.238 168.133 c h
17.562 190.656 m 12.805 135.125 l 36.367 133.105 l 41.125 188.637 l h
99.352 110.945 m 99.727 105.391 104.105 100.945 109.656 100.492 c 130.172
 98.734 l 135.168 98.305 139.852 101.227 141.66 105.906 c 127.43 106.539
 113.273 108.32 99.332 111.23 c h
144.121 146.543 m 141.859 146.363 139.578 146.273 137.273 146.273 c 128.375
 146.266 119.531 147.637 111.055 150.336 c 109.812 138.133 107.848 127.098
 105.512 119.18 c 116.34 117.113 127.289 115.75 138.293 115.098 c 140.727
 122.844 142.805 134.066 144.121 146.543 c h
49.766 184.051 m 45.664 136.164 l 76.789 126.395 l 83.352 124.336 89.98
 122.547 96.68 121.027 c 99.07 128.848 101.141 140.754 102.332 153.648 c
 86.848 160.52 73.719 171.777 64.562 186.031 c h
214.516 232.184 m 214.516 274.59 179.867 309.09 137.273 309.09 c 94.68 
309.09 60.027 274.59 60.027 232.184 c 60.027 189.777 94.68 155.273 137.273
 155.273 c 179.867 155.273 214.516 189.773 214.516 232.18 c h
205.953 180.281 m 193.016 163.312 174.258 151.73 153.289 147.762 c 152.043
 134.914 150.035 123.355 147.574 114.707 c 336.129 109.668 l 340.508 160.742
 l h
350.008 166.211 m 344.562 102.664 l 365.445 100.875 l 370.891 164.422 l
 h
350.008 166.211 m f
317.816 122.25 m 317.727 122.25 l 316.18 122.219 l 310.207 122.328 310.297
 131.258 316.266 131.25 c 316.359 131.25 l 317.906 131.172 l 323.852 131.113
 323.766 122.191 317.816 122.25 c h
317.816 122.25 m f
302.406 122.434 m 243.785 124.344 l 237.785 124.438 237.93 133.438 243.93
 133.344 c 244.078 133.344 l 302.699 131.434 l 308.629 131.176 308.344 122.309
 302.406 122.438 c h
302.406 122.434 m f
137.273 164.402 m 99.758 164.402 69.234 194.809 69.234 232.18 c 69.234 
269.551 99.758 299.953 137.273 299.953 c 174.785 299.953 205.309 269.551
 205.309 232.18 c 205.309 194.809 174.789 164.402 137.273 164.402 c h
141.75 173.594 m 154.246 174.559 166.113 179.461 175.648 187.59 c 144.238
 218.879 l 143.434 218.48 142.602 218.137 141.75 217.848 c h
132.75 173.594 m 132.75 217.848 l 131.906 218.137 131.082 218.48 130.285
 218.879 c 98.859 187.59 l 108.395 179.457 120.258 174.559 132.75 173.594
 c h
92.496 194.176 m 123.926 225.395 l 123.398 226.18 123.051 227.066 122.902
 228 c 78.426 228 l 79.254 215.48 84.199 203.586 92.496 194.176 c h
78.426 237 m 122.898 237 l 123.188 237.781 123.531 238.543 123.926 239.281
 c 92.492 270.66 l 84.328 261.23 79.398 249.434 78.426 237 c h
132.75 290.766 m 120.258 289.801 108.391 284.898 98.859 276.77 c 130.285
 245.48 l 131.082 245.879 131.906 246.223 132.75 246.512 c h
137.273 238.199 m 134.84 238.184 132.66 236.703 131.742 234.453 c 130.82
 232.203 131.348 229.621 133.074 227.906 c 134.797 226.195 137.383 225.688
 139.629 226.621 c 141.871 227.555 143.336 229.75 143.336 232.18 c 143.32
 235.516 140.605 238.207 137.273 238.199 c h
141.75 290.766 m 141.75 246.516 l 142.602 246.227 143.43 245.883 144.238
 245.484 c 175.648 276.77 l 166.113 284.898 154.246 289.801 141.75 290.766
 c h
182.047 270.66 m 150.617 239.281 l 151.012 238.543 151.355 237.781 151.641
 237 c 196.117 237 l 195.145 249.434 190.215 261.23 182.047 270.66 c h
151.641 228 m 151.492 227.07 151.145 226.184 150.617 225.398 c 182.047 
194.176 l 190.344 203.586 195.293 215.48 196.117 228 c h
151.641 228 m f
Q Q
showpage
%%Trailer
end
%%EOF
