%!PS-Adobe-3.0 EPSF-3.0
%%Creator: cairo 1.16.0 (https://cairographics.org)
%%CreationDate: Tue Feb  2 14:04:26 2021
%%Pages: 1
%%DocumentData: Clean7Bit
%%LanguageLevel: 2
%%BoundingBox: 72 3 312 381
%%EndComments
%%BeginProlog
50 dict begin
/q { gsave } bind def
/Q { grestore } bind def
/cm { 6 array astore concat } bind def
/w { setlinewidth } bind def
/J { setlinecap } bind def
/j { setlinejoin } bind def
/M { setmiterlimit } bind def
/d { setdash } bind def
/m { moveto } bind def
/l { lineto } bind def
/c { curveto } bind def
/h { closepath } bind def
/re { exch dup neg 3 1 roll 5 3 roll moveto 0 rlineto
      0 exch rlineto 0 rlineto closepath } bind def
/S { stroke } bind def
/f { fill } bind def
/f* { eofill } bind def
/n { newpath } bind def
/W { clip } bind def
/W* { eoclip } bind def
/BT { } bind def
/ET { } bind def
/BDC { mark 3 1 roll /BDC pdfmark } bind def
/EMC { mark /EMC pdfmark } bind def
/cairo_store_point { /cairo_point_y exch def /cairo_point_x exch def } def
/Tj { show currentpoint cairo_store_point } bind def
/TJ {
  {
    dup
    type /stringtype eq
    { show } { -0.001 mul 0 cairo_font_matrix dtransform rmoveto } ifelse
  } forall
  currentpoint cairo_store_point
} bind def
/cairo_selectfont { cairo_font_matrix aload pop pop pop 0 0 6 array astore
    cairo_font exch selectfont cairo_point_x cairo_point_y moveto } bind def
/Tf { pop /cairo_font exch def /cairo_font_matrix where
      { pop cairo_selectfont } if } bind def
/Td { matrix translate cairo_font_matrix matrix concatmatrix dup
      /cairo_font_matrix exch def dup 4 get exch 5 get cairo_store_point
      /cairo_font where { pop cairo_selectfont } if } bind def
/Tm { 2 copy 8 2 roll 6 array astore /cairo_font_matrix exch def
      cairo_store_point /cairo_font where { pop cairo_selectfont } if } bind def
/g { setgray } bind def
/rg { setrgbcolor } bind def
/d1 { setcachedevice } bind def
/cairo_data_source {
  CairoDataIndex CairoData length lt
    { CairoData CairoDataIndex get /CairoDataIndex CairoDataIndex 1 add def }
    { () } ifelse
} def
/cairo_flush_ascii85_file { cairo_ascii85_file status { cairo_ascii85_file flushfile } if } def
/cairo_image { image cairo_flush_ascii85_file } def
/cairo_imagemask { imagemask cairo_flush_ascii85_file } def
%%EndProlog
%%BeginSetup
%%EndSetup
%%Page: 1 1
%%BeginPageSetup
%%PageBoundingBox: 72 3 312 381
%%EndPageSetup
q 72 3 240 378 rectclip
1 0 0 -1 0 384 cm q
0.627451 0.478431 0.415686 rg
301.949 348.898 m 299.023 345.898 295.051 344.25 290.852 344.25 c 93.148
 344.25 l 84.449 344.25 77.398 351.301 77.398 360 c 77.398 368.699 84.449
 375.75 93.148 375.75 c 290.926 375.75 l 299.625 375.75 306.602 368.625 
306.602 360 c 306.523 355.801 304.875 351.824 301.949 348.898 c h
301.949 348.898 m f
0.517647 0.627451 0.639216 rg
245.023 223.875 m 246.602 225.074 248.102 226.273 249.602 227.551 c 265.648
 241.273 276.301 260.25 279.523 281.176 c 289.5 344.551 l 94.5 344.551 l
 104.477 281.176 l 112.125 232.801 157.5 199.801 205.801 207.375 c 220.051
 209.551 233.477 215.25 245.023 223.875 c h
245.023 223.875 m f
0.690196 0.709804 0.792157 rg
243.977 59.398 m 243.301 30.449 219.227 7.574 190.352 8.324 c 165.824 8.926
 144.977 26.477 140.25 50.551 c 139.352 55.273 142.426 59.773 147.148 60.676
 c 147.676 60.75 148.199 60.824 148.727 60.824 c 149.023 60.824 l 153.148
 60.75 156.676 57.824 157.426 53.773 c 161.25 34.875 179.699 22.648 198.602
 26.477 c 217.5 30.301 229.727 48.75 225.898 67.648 c 223.727 78.523 216.523
 87.676 206.477 92.324 c 192.301 98.926 183.148 113.176 183.074 128.852 
c 183.074 171.898 l 200.324 171.75 l 200.324 128.852 l 200.398 119.926 205.648
 111.898 213.75 108.148 c 232.574 99.301 244.426 80.176 243.977 59.398 c
 h
243.977 59.398 m f
0.592157 0.54902 0.67451 rg
229.5 186.676 m 239.398 196.5 244.949 209.926 245.023 223.875 c 213.523
 200.398 170.398 200.398 138.898 223.875 c 139.051 198.227 157.574 176.324
 182.852 171.898 c 199.949 168.898 217.273 174.449 229.5 186.676 c h
229.5 186.676 m f
0.27451 0.537255 0.827451 rg
259.875 297.148 m 259.875 305.809 252.855 312.824 244.199 312.824 c 235.543
 312.824 228.523 305.809 228.523 297.148 c 228.523 288.492 235.543 281.477
 244.199 281.477 c 252.855 281.477 259.875 288.492 259.875 297.148 c h
259.875 297.148 m f
0.298039 0.662745 0.529412 rg
207.676 297.148 m 207.676 305.809 200.656 312.824 192 312.824 c 183.344
 312.824 176.324 305.809 176.324 297.148 c 176.324 288.492 183.344 281.477
 192 281.477 c 200.656 281.477 207.676 288.492 207.676 297.148 c h
207.676 297.148 m f
0.921569 0.447059 0.533333 rg
155.477 297.148 m 155.477 305.809 148.457 312.824 139.801 312.824 c 131.145
 312.824 124.125 305.809 124.125 297.148 c 124.125 288.492 131.145 281.477
 139.801 281.477 c 148.457 281.477 155.477 288.492 155.477 297.148 c h
155.477 297.148 m f
0.431373 0.505882 0.509804 rg
161.477 223.875 m 173.699 214.727 188.102 208.875 203.25 207 c 155.699 
200.926 111.977 233.699 104.477 281.023 c 94.5 344.25 l 117 344.25 l 126.977
 280.949 l 130.5 258.148 142.949 237.676 161.477 223.875 c h
161.477 223.875 m f
0.509804 0.396078 0.356863 rg
99.977 360 m 99.977 351.301 106.949 344.324 115.648 344.25 c 93.148 344.25
 l 84.449 344.25 77.398 351.301 77.398 360 c 77.398 368.699 84.449 375.75
 93.148 375.75 c 115.648 375.75 l 106.949 375.676 99.977 368.699 99.977 
360 c h
99.977 360 m f
0.47451 0.447059 0.54902 rg
203.25 172.273 m 202.273 172.051 201.301 171.898 200.25 171.75 c 171.301
 167.176 144.148 186.977 139.574 215.926 c 139.125 218.551 138.977 221.25
 138.898 223.875 c 146.25 218.398 154.352 214.051 163.051 211.125 c 168.074
 191.551 183.602 176.551 203.25 172.273 c h
203.25 172.273 m f
0.156863 0.258824 0.407843 rg
192 276.977 m 180.824 276.977 171.824 285.977 171.824 297.148 c 171.824
 308.324 180.824 317.324 192 317.324 c 203.176 317.324 212.176 308.324 212.176
 297.148 c 212.176 285.977 203.102 276.977 192 276.977 c h
192 308.324 m 185.852 308.324 180.824 303.301 180.824 297.148 c 180.824
 291 185.852 285.977 192 285.977 c 198.148 285.977 203.176 291 203.176 297.148
 c 203.176 303.301 198.148 308.25 192 308.324 c h
192 308.324 m f
139.801 276.977 m 128.625 276.977 119.625 285.977 119.625 297.148 c 119.625
 308.324 128.625 317.324 139.801 317.324 c 150.977 317.324 159.977 308.324
 159.977 297.148 c 159.898 285.977 150.898 276.977 139.801 276.977 c h
150.977 297.148 m 150.977 303.301 145.949 308.324 139.801 308.324 c 133.648
 308.324 128.625 303.301 128.625 297.148 c 128.625 291 133.648 285.977 139.801
 285.977 c 145.949 285.977 150.977 290.926 150.977 297.148 c h
150.977 297.148 m f
244.199 276.977 m 233.023 276.977 224.023 285.977 224.023 297.148 c 224.023
 308.324 233.023 317.324 244.199 317.324 c 255.375 317.324 264.375 308.324
 264.375 297.148 c 264.375 285.977 255.375 276.977 244.199 276.977 c h
244.199 308.324 m 238.051 308.324 233.023 303.301 233.023 297.148 c 233.023
 291 238.051 285.977 244.199 285.977 c 250.352 285.977 255.375 291 255.375
 297.148 c 255.375 303.301 250.352 308.25 244.199 308.324 c h
244.199 308.324 m f
293.398 340.051 m 284.023 280.352 l 280.574 258.449 269.398 238.5 252.523
 224.023 c 251.551 223.199 250.5 222.375 249.523 221.551 c 248.324 195.676
 230.023 173.773 204.824 168 c 204.824 128.773 l 204.898 121.574 209.102
 115.125 215.625 112.125 c 244.125 98.852 256.426 65.023 243.148 36.523 
c 229.875 8.023 196.051 -4.273 167.551 9 c 151.125 16.648 139.352 31.648
 135.75 49.426 c 134.398 56.625 139.051 63.523 146.25 64.875 c 147.074 65.023
 147.824 65.102 148.648 65.102 c 148.949 65.102 l 155.176 65.023 160.5 60.602
 161.699 54.449 c 165.074 37.949 181.125 27.375 197.625 30.676 c 214.125
 34.051 224.699 50.102 221.398 66.602 c 219.449 76.051 213.227 84 204.449
 88.125 c 188.625 95.477 178.5 111.301 178.426 128.699 c 178.426 168.074
 l 153.523 174.148 135.602 195.898 134.477 221.477 c 133.426 222.301 132.449
 223.125 131.477 223.949 c 114.602 238.352 103.426 258.375 99.977 280.273
 c 90.602 339.977 l 79.574 341.324 71.699 351.449 73.051 362.477 c 74.324
 372.602 82.875 380.176 93.074 380.176 c 290.852 380.176 l 301.949 380.176
 311.023 371.176 311.023 360 c 311.023 349.949 303.449 341.324 293.398 340.051
 c h
187.5 128.852 m 187.574 114.898 195.676 102.301 208.273 96.375 c 228 87.148
 236.551 63.676 227.324 43.949 c 218.102 24.227 194.625 15.676 174.898 24.898
 c 163.574 30.227 155.398 40.574 152.926 52.801 c 152.625 54.75 150.898 
56.176 148.949 56.25 c 148.648 56.25 l 147.375 56.25 146.25 55.648 145.426
 54.676 c 144.676 53.773 144.375 52.5 144.602 51.301 c 149.773 25.352 174.977
 8.477 200.852 13.648 c 226.801 18.824 243.676 44.023 238.5 69.898 c 235.5
 84.898 225.602 97.574 211.727 104.023 c 202.051 108.523 195.824 118.125
 195.676 128.773 c 195.676 166.648 l 194.398 166.574 193.199 166.5 191.926
 166.5 c 190.426 166.5 188.926 166.574 187.426 166.727 c 187.426 128.852
 l h
192 175.574 m 215.176 175.574 235.199 192.074 239.625 214.801 c 210.301
 197.324 173.699 197.324 144.301 214.801 c 148.801 192.074 168.824 175.648
 192 175.574 c h
108.898 281.699 m 116.176 235.801 159.301 204.523 205.199 211.801 c 241.199
 217.5 269.398 245.699 275.102 281.699 c 284.25 339.75 l 99.75 339.75 l 
h
290.852 371.25 m 93.148 371.25 l 86.926 371.25 81.898 366.227 81.898 360
 c 81.898 353.773 86.926 348.75 93.148 348.75 c 290.926 348.75 l 297.148
 348.75 302.176 353.773 302.176 360 c 302.102 366.227 297.074 371.25 290.852
 371.25 c h
290.852 371.25 m f
171.75 227.023 m 170.926 224.699 168.301 223.5 165.977 224.324 c 157.648
 227.398 149.926 231.898 143.176 237.676 c 134.773 244.875 127.875 254.023
 123.375 264.148 c 122.324 266.398 123.375 269.102 125.625 270.074 c 126.227
 270.375 126.824 270.449 127.426 270.449 c 129.148 270.449 130.801 269.477
 131.551 267.75 c 135.523 258.824 141.523 250.801 148.949 244.426 c 154.875
 239.324 161.625 235.352 169.051 232.648 c 171.449 231.977 172.648 229.352
 171.75 227.023 c h
171.75 227.023 m f
181.5 229.5 m 181.727 229.5 181.949 229.5 182.176 229.426 c 183.898 229.125
 185.699 228.977 187.426 228.824 c 189.898 228.676 191.773 226.5 191.625
 224.023 c 191.477 221.551 189.301 219.676 186.824 219.824 c 184.801 219.977
 182.773 220.199 180.824 220.5 c 178.352 220.875 176.699 223.199 177.074
 225.602 c 177.375 227.926 179.25 229.5 181.5 229.5 c h
181.5 229.5 m f
Q Q
showpage
%%Trailer
end
%%EOF
