%!PS-Adobe-3.0 EPSF-3.0
%%Creator: cairo 1.16.0 (https://cairographics.org)
%%CreationDate: Tue Feb  2 14:04:29 2021
%%Pages: 1
%%DocumentData: Clean7Bit
%%LanguageLevel: 2
%%BoundingBox: 3 23 381 361
%%EndComments
%%BeginProlog
50 dict begin
/q { gsave } bind def
/Q { grestore } bind def
/cm { 6 array astore concat } bind def
/w { setlinewidth } bind def
/J { setlinecap } bind def
/j { setlinejoin } bind def
/M { setmiterlimit } bind def
/d { setdash } bind def
/m { moveto } bind def
/l { lineto } bind def
/c { curveto } bind def
/h { closepath } bind def
/re { exch dup neg 3 1 roll 5 3 roll moveto 0 rlineto
      0 exch rlineto 0 rlineto closepath } bind def
/S { stroke } bind def
/f { fill } bind def
/f* { eofill } bind def
/n { newpath } bind def
/W { clip } bind def
/W* { eoclip } bind def
/BT { } bind def
/ET { } bind def
/BDC { mark 3 1 roll /BDC pdfmark } bind def
/EMC { mark /EMC pdfmark } bind def
/cairo_store_point { /cairo_point_y exch def /cairo_point_x exch def } def
/Tj { show currentpoint cairo_store_point } bind def
/TJ {
  {
    dup
    type /stringtype eq
    { show } { -0.001 mul 0 cairo_font_matrix dtransform rmoveto } ifelse
  } forall
  currentpoint cairo_store_point
} bind def
/cairo_selectfont { cairo_font_matrix aload pop pop pop 0 0 6 array astore
    cairo_font exch selectfont cairo_point_x cairo_point_y moveto } bind def
/Tf { pop /cairo_font exch def /cairo_font_matrix where
      { pop cairo_selectfont } if } bind def
/Td { matrix translate cairo_font_matrix matrix concatmatrix dup
      /cairo_font_matrix exch def dup 4 get exch 5 get cairo_store_point
      /cairo_font where { pop cairo_selectfont } if } bind def
/Tm { 2 copy 8 2 roll 6 array astore /cairo_font_matrix exch def
      cairo_store_point /cairo_font where { pop cairo_selectfont } if } bind def
/g { setgray } bind def
/rg { setrgbcolor } bind def
/d1 { setcachedevice } bind def
/cairo_data_source {
  CairoDataIndex CairoData length lt
    { CairoData CairoDataIndex get /CairoDataIndex CairoDataIndex 1 add def }
    { () } ifelse
} def
/cairo_flush_ascii85_file { cairo_ascii85_file status { cairo_ascii85_file flushfile } if } def
/cairo_image { image cairo_flush_ascii85_file } def
/cairo_imagemask { imagemask cairo_flush_ascii85_file } def
%%EndProlog
%%BeginSetup
%%EndSetup
%%Page: 1 1
%%BeginPageSetup
%%PageBoundingBox: 3 23 381 361
%%EndPageSetup
q 3 23 378 338 rectclip
1 0 0 -1 0 384 cm q
0.498039 0.486275 0.517647 rg
371.977 158.43 m 376.059 166.273 376.859 175.414 374.199 183.844 c 371.539
 192.277 365.637 199.305 357.797 203.387 c 344.738 210.172 328.754 206.527
 318.523 196.434 c 313.875 191.734 306.707 190.609 300.84 193.656 c 235.77
 228.047 l 236.02 226.57 236.184 225.078 236.258 223.582 c 237.051 206.887
 l 237.398 199.938 239.734 193.23 243.781 187.566 c 243.789 187.566 l 286.281
 165.457 l 292.062 162.387 295.219 155.957 294.113 149.504 c 292.629 140.199
 295.156 130.699 301.066 123.359 c 306.977 116.016 315.719 111.52 325.125
 110.984 c 334.535 110.445 343.73 113.914 350.441 120.535 c 357.148 127.152
 360.742 136.301 360.328 145.719 c 365.27 148.852 369.289 153.238 371.977
 158.43 c h
371.977 158.43 m f
0.580392 0.564706 0.6 rg
357.773 263.273 m 368.336 268.77 375.16 279.484 375.68 291.379 c 376.195
 303.277 370.328 314.543 360.285 320.941 c 360.801 332.836 354.934 344.102
 344.891 350.5 c 334.848 356.895 322.156 357.445 311.594 351.945 c 298.539
 345.141 292.359 329.953 294.758 315.797 c 295.938 309.293 292.754 302.777
 286.898 299.715 c 205.305 257.887 l 217.824 255.988 228.465 247.73 233.406
 236.07 c 301.629 271.613 l 307.461 274.586 314.543 273.488 319.199 268.883
 c 329.512 258.914 345.047 256.652 357.773 263.273 c h
357.773 263.273 m f
0.498039 0.486275 0.517647 rg
179.258 257.918 m 97.629 301.074 l 91.887 304.16 88.766 310.57 89.871 316.996
 c 91.379 326.305 88.871 335.82 82.969 343.176 c 77.066 350.535 68.324 355.047
 58.906 355.594 c 49.492 356.145 40.281 352.676 33.566 346.055 c 26.852 
339.43 23.254 330.273 23.672 320.852 c 13.629 314.453 7.762 303.184 8.285
 291.289 c 8.809 279.391 15.641 268.68 26.203 263.191 c 38.938 256.574 54.473
 258.84 64.785 268.816 c 69.434 273.426 76.52 274.527 82.352 271.551 c 150.906
 235.883 l 150.922 235.875 l 155.852 247.684 166.602 256.047 179.258 257.918
 c h
179.258 257.918 m f
0.580392 0.564706 0.6 rg
148.809 228.922 m 82.352 194.859 l 76.531 191.922 69.484 193.039 64.859
 197.633 c 58.102 204.211 48.871 207.617 39.457 207.008 c 30.043 206.398
 21.332 201.828 15.477 194.43 c 9.625 187.035 7.18 177.504 8.75 168.203 
c 10.32 158.902 15.758 150.699 23.715 145.637 c 23.309 136.219 26.906 127.07
 33.617 120.457 c 40.328 113.84 49.527 110.375 58.934 110.918 c 68.344 111.457
 77.082 115.957 82.988 123.301 c 88.898 130.645 91.418 140.145 89.934 149.453
 c 88.82 155.902 91.977 162.336 97.754 165.406 c 141.398 188.145 l 141.406
 188.145 l 145.176 193.672 147.309 200.156 147.555 206.844 c 148.141 223.156
 l 148.207 225.094 148.434 227.02 148.809 228.922 c h
148.809 228.922 m f
0.533333 0.537255 0.52549 rg
148.809 228.922 m 148.434 227.02 148.207 225.094 148.141 223.156 c 147.555
 206.844 l 147.309 200.156 145.176 193.672 141.406 188.145 c 141.398 188.145
 l 139.176 184.863 136.438 181.965 133.289 179.559 c 113.266 164.199 100.125
 142.215 100.125 115.559 c 100.125 67.352 141.254 28.273 192 28.273 c 242.746
 28.273 283.875 67.352 283.875 115.559 c 283.875 142.215 271.297 164.199
 251.477 179.559 c 248.531 181.832 245.938 184.531 243.789 187.566 c 243.781
 187.566 l 239.734 193.23 237.398 199.938 237.051 206.887 c 236.258 223.582
 l 236.184 225.078 236.02 226.57 235.77 228.047 c 235.77 228.051 l 235.297
 230.809 234.504 233.5 233.406 236.07 c 227.695 249.543 214.48 258.297 199.844
 258.301 c 184.574 258.301 l 182.797 258.297 181.02 258.172 179.258 257.918
 c 166.602 256.047 155.852 247.684 150.922 235.875 c 149.98 233.637 149.273
 231.305 148.809 228.922 c h
148.809 228.922 m f
0.313726 0.317647 0.309804 rg
243.906 101.723 m 249.34 107.16 250.176 115.68 245.902 122.07 c 241.629
 128.461 233.438 130.945 226.336 128 c 219.234 125.055 215.203 117.508 216.703
 109.969 c 218.203 102.426 224.82 96.996 232.508 96.996 c 236.785 96.992
 240.887 98.695 243.906 101.723 c h
243.906 101.723 m f
202.566 157.328 m 204.48 161.016 204.328 165.438 202.172 168.988 c 200.012
 172.539 196.156 174.707 192 174.707 c 187.844 174.707 183.988 172.539 181.828
 168.988 c 179.672 165.438 179.52 161.016 181.434 157.328 c 185.82 148.801
 l 187.012 146.484 189.398 145.031 192 145.031 c 194.602 145.031 196.988
 146.484 198.18 148.801 c h
202.566 157.328 m f
162.891 101.723 m 168.324 107.16 169.16 115.68 164.891 122.07 c 160.617
 128.461 152.422 130.945 145.32 128 c 138.219 125.055 134.188 117.508 135.688
 109.969 c 137.188 102.426 143.805 96.996 151.492 96.996 c 155.77 96.992
 159.871 98.695 162.891 101.723 c h
162.891 101.723 m f
0.388235 0.388235 0.380392 rg
201.758 257.918 m 189.102 256.047 178.352 247.684 173.422 235.875 c 172.48
 233.637 171.773 231.305 171.309 228.922 c 170.934 227.02 170.707 225.094
 170.641 223.156 c 170.055 206.895 l 169.844 200.219 167.711 193.742 163.906
 188.25 c 163.898 188.25 l 161.613 185.004 158.883 182.098 155.789 179.609
 c 135.766 164.25 122.625 142.242 122.625 115.586 c 122.625 70.996 157.812
 34.211 203.25 28.941 c 199.516 28.504 195.758 28.285 192 28.281 c 141.254
 28.281 100.125 67.355 100.125 115.562 c 100.125 142.219 113.266 164.25 
133.289 179.613 c 136.383 182.098 139.113 185.008 141.398 188.25 c 141.406
 188.25 l 145.211 193.742 147.344 200.219 147.555 206.895 c 148.141 223.18
 l 148.207 225.113 148.434 227.039 148.809 228.934 c 149.273 231.316 149.98
 233.645 150.922 235.883 c 155.863 247.652 166.621 255.961 179.258 257.77
 c 181.023 257.973 182.801 258.047 184.574 258 c 199.844 258 l 201.055 258
 202.254 258.082 203.438 257.965 c 202.875 257.91 202.312 258 201.758 257.918
 c h
201.758 257.918 m f
0.156863 0.258824 0.407843 rg
206.57 155.27 m 202.18 146.738 l 200.219 142.926 196.289 140.531 192 140.531
 c 187.711 140.531 183.781 142.926 181.82 146.738 c 177.43 155.27 l 174.812
 160.352 175.035 166.426 178.008 171.305 c 180.984 176.18 186.285 179.156
 192 179.156 c 197.715 179.156 203.016 176.18 205.992 171.305 c 208.965 
166.426 209.188 160.352 206.57 155.27 c h
198.309 166.617 m 196.238 170.016 191.848 171.164 188.379 169.219 c 184.91
 167.27 183.605 162.926 185.43 159.387 c 189.82 150.859 l 190.734 149.086
 193.266 149.086 194.18 150.859 c 198.57 159.387 l 199.777 161.672 199.68
 164.426 198.309 166.617 c h
198.309 166.617 m f
151.492 92.5 m 143.148 92.5 135.629 97.523 132.434 105.23 c 129.242 112.938
 131.008 121.809 136.906 127.707 c 142.805 133.605 151.676 135.371 159.383
 132.18 c 167.09 128.988 172.117 121.465 172.117 113.125 c 172.105 101.738
 162.875 92.512 151.492 92.5 c h
151.492 124.742 m 146.789 124.742 142.551 121.91 140.75 117.566 c 138.949
 113.223 139.945 108.223 143.27 104.898 c 146.594 101.574 151.594 100.578
 155.938 102.379 c 160.281 104.176 163.117 108.414 163.117 113.117 c 163.109
 119.535 157.91 124.738 151.492 124.742 c h
151.492 124.742 m f
253.133 113.121 m 253.133 104.777 248.105 97.258 240.398 94.066 c 232.691
 90.875 223.82 92.637 217.922 98.535 c 212.023 104.438 210.258 113.309 213.453
 121.016 c 216.645 128.723 224.164 133.746 232.508 133.746 c 243.895 133.734
 253.121 124.508 253.133 113.121 c h
232.508 124.746 m 227.805 124.746 223.566 121.914 221.766 117.57 c 219.969
 113.227 220.961 108.227 224.285 104.902 c 227.613 101.574 232.613 100.582
 236.957 102.383 c 241.301 104.18 244.133 108.418 244.133 113.121 c 244.125
 119.535 238.926 124.734 232.508 124.742 c h
232.508 124.746 m f
175.5 206.453 m 173.016 206.453 171 208.469 171 210.953 c 171 222.555 l
 171 228.555 180 228.555 180 222.555 c 180 210.953 l 180 208.469 177.984
 206.453 175.5 206.453 c h
175.5 206.453 m f
208.5 206.453 m 206.016 206.453 204 208.469 204 210.953 c 204 222.555 l
 204 228.555 213 228.555 213 222.555 c 213 210.953 l 213 208.469 210.984
 206.453 208.5 206.453 c h
208.5 206.453 m f
192 206.453 m 189.516 206.453 187.5 208.469 187.5 210.953 c 187.5 222.555
 l 187.5 228.555 196.5 228.555 196.5 222.555 c 196.5 210.953 l 196.5 208.469
 194.484 206.453 192 206.453 c h
192 206.453 m f
177.367 54.941 m 177.668 54.941 177.969 54.914 178.266 54.852 c 179.418
 54.617 180.594 54.41 181.762 54.238 c 187.68 53.34 186.355 44.469 180.438
 45.336 c 179.113 45.531 177.781 45.766 176.477 46.031 c 171.152 47.102 
171.934 54.945 177.367 54.941 c h
177.367 54.941 m f
165.086 58.945 m 170.605 56.594 167.078 48.312 161.559 50.664 c 140.629
 59.547 124.641 77.148 117.797 98.832 c 117.051 101.199 118.363 103.73 120.734
 104.477 c 123.105 105.227 125.633 103.91 126.383 101.539 c 132.434 82.367
 146.574 66.801 165.086 58.945 c h
165.086 58.945 m f
302.941 197.633 m 307.074 195.508 312.109 196.32 315.367 199.637 c 327.426
 211.543 345.73 214.727 359.875 207.375 c 371.457 201.348 379.113 189.77
 380.125 176.75 c 381.141 163.734 375.367 151.113 364.855 143.363 c 364.605
 132.891 360.027 122.992 352.207 116.023 c 344.391 109.051 334.031 105.637
 323.602 106.586 c 313.168 107.535 303.598 112.766 297.168 121.035 c 290.738
 129.305 288.023 139.867 289.668 150.211 c 290.461 154.75 288.258 159.281
 284.203 161.461 c 268.246 169.762 l 281.281 154.711 288.43 135.449 288.375
 115.539 c 288.375 64.93 245.141 23.773 192 23.773 c 138.859 23.773 95.625
 64.949 95.625 115.559 c 95.625 135.797 102.977 154.664 116.625 170.16 c
 99.836 161.414 l 95.781 159.234 93.582 154.699 94.375 150.164 c 96.027 
139.82 93.32 129.254 86.891 120.984 c 80.465 112.711 70.898 107.473 60.465
 106.516 c 50.031 105.562 39.672 108.973 31.848 115.941 c 24.027 122.91 
19.441 132.809 19.191 143.277 c 10.75 149.496 5.266 158.934 4.047 169.344
 c 2.832 179.758 5.988 190.207 12.766 198.203 c 19.543 206.199 29.332 211.023
 39.805 211.527 c 50.273 212.031 60.484 208.172 67.996 200.863 c 71.242 
197.625 76.191 196.82 80.293 198.863 c 144.93 232 l 145.074 232.566 145.227
 233.125 145.398 233.684 c 80.273 267.562 l 76.156 269.633 71.18 268.836
 67.918 265.582 c 60.391 258.293 50.184 254.453 39.723 254.973 c 29.262 
255.488 19.484 260.32 12.719 268.316 c 5.953 276.312 2.801 286.754 4.02 
297.156 c 5.238 307.559 10.715 316.992 19.145 323.207 c 19.395 333.688 23.977
 343.594 31.805 350.566 c 39.633 357.539 50.004 360.949 60.441 359.988 c
 70.883 359.023 80.453 353.773 86.875 345.488 c 93.293 337.203 95.988 326.625
 94.316 316.273 c 93.523 311.762 95.703 307.246 99.727 305.055 c 180.578
 262.312 l 181.891 262.438 183.223 262.504 184.57 262.504 c 199.848 262.504
 l 201.254 262.504 202.648 262.43 204.023 262.293 c 284.84 303.719 l 288.953
 305.883 291.18 310.477 290.324 315.047 c 287.484 331.758 295.375 348.57
 309.516 355.941 c 321.098 361.973 334.973 361.602 346.219 354.961 c 357.465
 348.324 364.492 336.355 364.809 323.301 c 373.242 317.09 378.727 307.66
 379.949 297.258 c 381.172 286.855 378.027 276.41 371.266 268.41 c 364.504
 260.414 354.727 255.574 344.266 255.051 c 333.805 254.531 323.598 258.367
 316.07 265.648 c 312.805 268.902 307.824 269.699 303.711 267.625 c 238.945
 233.887 l 239.234 232.957 239.488 232.016 239.711 231.055 c h
288.355 169.449 m 295.855 165.484 299.965 157.156 298.555 148.793 c 297.27
 140.742 299.453 132.523 304.566 126.172 c 309.676 119.82 317.238 115.93
 325.379 115.465 c 333.516 115 341.473 118 347.277 123.727 c 353.082 129.453
 356.188 137.367 355.832 145.512 c 355.758 147.125 356.555 148.656 357.922
 149.523 c 366.602 155.059 371.668 164.805 371.215 175.09 c 370.762 185.379
 364.855 194.641 355.723 199.391 c 344.996 204.961 331.004 202.43 321.688
 193.23 c 315.645 187.148 306.34 185.707 298.738 189.676 c 240.914 220.234
 l 241.547 207.031 l 241.832 201.332 243.652 195.812 246.816 191.062 c h
84.398 190.852 m 76.863 187.047 67.734 188.48 61.727 194.41 c 55.879 200.098
 47.895 203.047 39.754 202.52 c 31.613 201.992 24.074 198.039 19.012 191.641
 c 13.949 185.246 11.832 177.004 13.188 168.957 c 14.543 160.914 19.242 
153.82 26.121 149.434 c 27.488 148.57 28.285 147.039 28.211 145.422 c 27.863
 137.277 30.977 129.367 36.785 123.648 c 42.59 117.93 50.547 114.934 58.684
 115.406 c 66.824 115.879 74.379 119.77 79.488 126.125 c 84.594 132.477 
86.773 140.691 85.488 148.742 c 84.078 157.105 88.184 165.43 95.68 169.398
 c 138.273 191.586 l 141.203 196.211 142.855 201.531 143.062 207.004 c 143.574
 221.188 l h
95.523 297.094 m 88.082 301.09 84.02 309.387 85.434 317.711 c 86.734 325.766
 84.566 333.992 79.461 340.355 c 74.359 346.719 66.797 350.625 58.656 351.098
 c 50.512 351.574 42.547 348.578 36.734 342.855 c 30.926 337.129 27.812 
329.211 28.168 321.062 c 28.242 319.445 27.445 317.914 26.078 317.051 c 
19.211 312.664 14.516 305.574 13.164 297.539 c 11.809 289.5 13.922 281.266
 18.977 274.871 c 24.031 268.48 31.555 264.523 39.688 263.984 c 47.82 263.445
 55.801 266.375 61.656 272.047 c 67.695 278 76.875 279.41 84.426 275.547
 c 148.961 241.973 l 153.246 249.477 159.812 255.418 167.711 258.93 c h
299.551 275.602 m 307.102 279.473 316.281 278.066 322.328 272.113 c 328.184
 266.441 336.168 263.516 344.301 264.059 c 352.434 264.598 359.961 268.559
 365.012 274.957 c 370.062 281.355 372.172 289.594 370.812 297.633 c 369.449
 305.672 364.754 312.758 357.875 317.137 c 356.512 318.004 355.715 319.535
 355.789 321.148 c 356.23 331.438 351.152 341.18 342.465 346.707 c 333.781
 352.234 322.805 352.711 313.672 347.957 c 302.957 342.371 297.004 329.457
 299.195 316.547 c 300.719 308.105 296.562 299.656 288.949 295.711 c 216.949
 258.801 l 224.652 255.289 231.074 249.469 235.324 242.145 c h
232.559 206.68 m 231.758 223.227 l 230.949 240.238 216.875 253.586 199.848
 253.5 c 184.574 253.5 l 167.379 253.629 153.215 240.027 152.645 222.84 
c 152.059 206.609 l 151.578 194.504 145.695 183.25 136.027 175.949 c 115.777
 160.418 104.625 138.977 104.625 115.539 c 104.625 69.891 143.82 32.766 
192 32.766 c 240.18 32.766 279.375 69.906 279.375 115.551 c 279.375 139.559
 268.777 160.465 248.723 176 c 239.102 183.367 233.195 194.578 232.559 206.676
 c h
232.559 206.68 m f
Q Q
showpage
%%Trailer
end
%%EOF
