%!PS-Adobe-3.0 EPSF-3.0
%%Creator: cairo 1.16.0 (https://cairographics.org)
%%CreationDate: Tue Feb  2 14:04:29 2021
%%Pages: 1
%%DocumentData: Clean7Bit
%%LanguageLevel: 2
%%BoundingBox: 13 3 371 381
%%EndComments
%%BeginProlog
50 dict begin
/q { gsave } bind def
/Q { grestore } bind def
/cm { 6 array astore concat } bind def
/w { setlinewidth } bind def
/J { setlinecap } bind def
/j { setlinejoin } bind def
/M { setmiterlimit } bind def
/d { setdash } bind def
/m { moveto } bind def
/l { lineto } bind def
/c { curveto } bind def
/h { closepath } bind def
/re { exch dup neg 3 1 roll 5 3 roll moveto 0 rlineto
      0 exch rlineto 0 rlineto closepath } bind def
/S { stroke } bind def
/f { fill } bind def
/f* { eofill } bind def
/n { newpath } bind def
/W { clip } bind def
/W* { eoclip } bind def
/BT { } bind def
/ET { } bind def
/BDC { mark 3 1 roll /BDC pdfmark } bind def
/EMC { mark /EMC pdfmark } bind def
/cairo_store_point { /cairo_point_y exch def /cairo_point_x exch def } def
/Tj { show currentpoint cairo_store_point } bind def
/TJ {
  {
    dup
    type /stringtype eq
    { show } { -0.001 mul 0 cairo_font_matrix dtransform rmoveto } ifelse
  } forall
  currentpoint cairo_store_point
} bind def
/cairo_selectfont { cairo_font_matrix aload pop pop pop 0 0 6 array astore
    cairo_font exch selectfont cairo_point_x cairo_point_y moveto } bind def
/Tf { pop /cairo_font exch def /cairo_font_matrix where
      { pop cairo_selectfont } if } bind def
/Td { matrix translate cairo_font_matrix matrix concatmatrix dup
      /cairo_font_matrix exch def dup 4 get exch 5 get cairo_store_point
      /cairo_font where { pop cairo_selectfont } if } bind def
/Tm { 2 copy 8 2 roll 6 array astore /cairo_font_matrix exch def
      cairo_store_point /cairo_font where { pop cairo_selectfont } if } bind def
/g { setgray } bind def
/rg { setrgbcolor } bind def
/d1 { setcachedevice } bind def
/cairo_data_source {
  CairoDataIndex CairoData length lt
    { CairoData CairoDataIndex get /CairoDataIndex CairoDataIndex 1 add def }
    { () } ifelse
} def
/cairo_flush_ascii85_file { cairo_ascii85_file status { cairo_ascii85_file flushfile } if } def
/cairo_image { image cairo_flush_ascii85_file } def
/cairo_imagemask { imagemask cairo_flush_ascii85_file } def
%%EndProlog
%%BeginSetup
%%EndSetup
%%Page: 1 1
%%BeginPageSetup
%%PageBoundingBox: 13 3 371 381
%%EndPageSetup
q 13 3 358 378 rectclip
1 0 0 -1 0 384 cm q
0.85098 0.733333 0.294118 rg
361.836 317.398 m 355.977 311.543 346.48 311.543 340.621 317.398 c 307.816
 350.203 l 301.961 356.062 301.961 365.559 307.816 371.414 c 312.148 375.75
 l 366.164 321.727 l h
361.836 317.398 m f
0.690196 0.709804 0.792157 rg
268.395 245.258 m 235.68 277.973 l 235.547 277.836 l 31.379 73.672 l 22.703
 64.996 17.828 53.23 17.828 40.961 c 17.828 28.691 22.703 16.926 31.379 
8.25 c 268.262 245.121 l h
268.395 245.258 m f
0.290196 0.317647 0.376471 rg
336.801 321.227 m 311.641 346.387 l 311.289 346.035 l 284.113 318.863 l
 284.137 318.84 l 326.781 311.297 l 326.828 311.25 l 336.449 320.871 l h
336.801 321.227 m f
0.427451 0.454902 0.52549 rg
301.746 286.164 m 326.828 311.25 l 326.781 311.297 l 284.137 318.84 l 284.113
 318.863 l 258.977 293.715 l h
301.746 286.164 m f
0.290196 0.317647 0.376471 rg
301.746 286.164 m 258.977 293.715 l 251.191 285.93 l 276.352 260.766 l 
276.832 261.246 l h
301.746 286.164 m f
0.564706 0.584314 0.647059 rg
46.379 59.422 m 33.984 47.031 29.66 28.699 35.207 12.074 c 31.379 8.25 
l 22.703 16.926 17.828 28.691 17.828 40.961 c 17.828 53.23 22.703 64.996
 31.379 73.672 c 235.547 277.836 l 235.68 277.973 l 250.305 263.348 l h
46.379 59.422 m f
0.85098 0.733333 0.294118 rg
297.426 218.324 m 291.73 212.633 282.57 212.406 276.602 217.816 c 270.633
 223.223 269.957 232.363 275.062 238.59 c 229.621 284.031 l 225 280.242 
218.582 279.531 213.242 282.215 c 207.906 284.902 204.652 290.48 204.945
 296.449 c 205.238 302.418 209.02 307.652 214.594 309.805 c 220.168 311.957
 226.488 310.621 230.715 306.398 c 297.426 239.684 l 303.324 233.785 303.324
 224.227 297.426 218.324 c h
297.426 218.324 m f
0.698039 0.592157 0.258824 rg
224.355 292.148 m 221.316 289.109 219.719 284.914 219.969 280.625 c 214.93
 280.645 210.234 283.18 207.453 287.375 c 204.668 291.574 204.16 296.887
 206.098 301.535 c 208.035 306.184 212.168 309.559 217.109 310.535 c 222.051
 311.512 227.152 309.961 230.715 306.398 c 242.566 294.547 l 236.652 297.961
 229.184 296.977 224.355 292.148 c h
224.355 292.148 m f
0.156863 0.258824 0.407843 rg
44.23 112.441 m 48.238 112.441 50.246 107.594 47.41 104.758 c 46.316 103.664
 l 42.074 99.492 35.781 105.789 39.953 110.031 c 41.047 111.121 l 41.891
 111.969 43.035 112.441 44.23 112.441 c h
44.23 112.441 m f
94.859 163.07 m 98.871 163.07 100.879 158.223 98.043 155.391 c 57.113 114.461
 l 55.359 112.68 52.492 112.668 50.723 114.434 c 48.957 116.203 48.969 119.07
 50.75 120.824 c 91.68 161.754 l 92.523 162.598 93.668 163.074 94.859 163.07
 c h
94.859 163.07 m f
365.02 314.219 m 357.398 306.613 345.062 306.613 337.441 314.219 c 336.801
 314.859 l 282.711 260.766 l 300.609 242.871 l 305.82 237.648 307.664 229.941
 305.371 222.926 c 303.082 215.914 297.047 210.777 289.754 209.641 c 282.465
 208.504 275.152 211.559 270.836 217.543 c 266.516 223.523 265.926 231.426
 269.301 237.988 c 268.391 238.898 l 34.562 5.066 l 32.805 3.309 29.957 
3.309 28.199 5.066 c 8.406 24.906 8.406 57.02 28.199 76.855 c 229.316 277.973
 l 229.016 278.273 l 222.453 274.895 214.555 275.488 208.57 279.809 c 202.586
 284.125 199.531 291.438 200.668 298.727 c 201.805 306.02 206.941 312.055
 213.957 314.344 c 220.969 316.637 228.676 314.793 233.898 309.578 c 251.184
 292.293 l 305.277 346.383 l 304.637 347.023 l 297.031 354.645 297.031 366.98
 304.637 374.602 c 308.969 378.934 l 310.723 380.691 313.574 380.691 315.332
 378.934 c 369.352 324.914 l 371.109 323.156 371.109 320.309 369.352 318.551
 c h
34.562 70.492 m 19.512 55.402 18.215 31.41 31.551 14.785 c 262.027 245.258
 l 252.035 255.25 l 55.176 58.391 l 53.418 56.633 50.566 56.633 48.809 58.391
 c 47.055 60.148 47.055 63 48.812 64.754 c 245.672 261.617 l 235.68 271.609
 l h
227.539 303.219 m 224.57 306.199 220.121 307.148 216.195 305.637 c 212.27
 304.129 209.605 300.445 209.398 296.242 c 209.188 292.043 211.48 288.113
 215.238 286.227 c 218.996 284.336 223.516 284.84 226.762 287.516 c 228.551
 288.984 231.164 288.859 232.801 287.223 c 278.254 241.77 l 279.891 240.133
 280.016 237.52 278.547 235.73 c 275.887 232.484 275.391 227.98 277.277 
224.234 c 279.164 220.488 283.082 218.203 287.273 218.41 c 291.461 218.617
 295.137 221.277 296.645 225.191 c 298.156 229.105 297.215 233.539 294.25
 236.508 c h
257.555 285.93 m 276.348 267.133 l 292.453 283.238 l 260.504 288.879 l 
h
268.27 296.648 m 300.223 291.008 l 317.57 308.355 l 285.633 314.012 l h
293.395 321.773 m 325.332 316.117 l 330.438 321.219 l 311.641 340.016 l
 h
312.148 369.387 m 311 368.234 l 306.906 364.133 306.906 357.488 311 353.387
 c 343.805 320.578 l 347.91 316.488 354.551 316.488 358.656 320.578 c 359.805
 321.73 l h
312.148 369.387 m f
Q Q
showpage
%%Trailer
end
%%EOF
