%!PS-Adobe-3.0 EPSF-3.0
%%Creator: cairo 1.16.0 (https://cairographics.org)
%%CreationDate: Tue Feb  2 14:04:29 2021
%%Pages: 1
%%DocumentData: Clean7Bit
%%LanguageLevel: 2
%%BoundingBox: 13 3 371 381
%%EndComments
%%BeginProlog
50 dict begin
/q { gsave } bind def
/Q { grestore } bind def
/cm { 6 array astore concat } bind def
/w { setlinewidth } bind def
/J { setlinecap } bind def
/j { setlinejoin } bind def
/M { setmiterlimit } bind def
/d { setdash } bind def
/m { moveto } bind def
/l { lineto } bind def
/c { curveto } bind def
/h { closepath } bind def
/re { exch dup neg 3 1 roll 5 3 roll moveto 0 rlineto
      0 exch rlineto 0 rlineto closepath } bind def
/S { stroke } bind def
/f { fill } bind def
/f* { eofill } bind def
/n { newpath } bind def
/W { clip } bind def
/W* { eoclip } bind def
/BT { } bind def
/ET { } bind def
/BDC { mark 3 1 roll /BDC pdfmark } bind def
/EMC { mark /EMC pdfmark } bind def
/cairo_store_point { /cairo_point_y exch def /cairo_point_x exch def } def
/Tj { show currentpoint cairo_store_point } bind def
/TJ {
  {
    dup
    type /stringtype eq
    { show } { -0.001 mul 0 cairo_font_matrix dtransform rmoveto } ifelse
  } forall
  currentpoint cairo_store_point
} bind def
/cairo_selectfont { cairo_font_matrix aload pop pop pop 0 0 6 array astore
    cairo_font exch selectfont cairo_point_x cairo_point_y moveto } bind def
/Tf { pop /cairo_font exch def /cairo_font_matrix where
      { pop cairo_selectfont } if } bind def
/Td { matrix translate cairo_font_matrix matrix concatmatrix dup
      /cairo_font_matrix exch def dup 4 get exch 5 get cairo_store_point
      /cairo_font where { pop cairo_selectfont } if } bind def
/Tm { 2 copy 8 2 roll 6 array astore /cairo_font_matrix exch def
      cairo_store_point /cairo_font where { pop cairo_selectfont } if } bind def
/g { setgray } bind def
/rg { setrgbcolor } bind def
/d1 { setcachedevice } bind def
/cairo_data_source {
  CairoDataIndex CairoData length lt
    { CairoData CairoDataIndex get /CairoDataIndex CairoDataIndex 1 add def }
    { () } ifelse
} def
/cairo_flush_ascii85_file { cairo_ascii85_file status { cairo_ascii85_file flushfile } if } def
/cairo_image { image cairo_flush_ascii85_file } def
/cairo_imagemask { imagemask cairo_flush_ascii85_file } def
%%EndProlog
%%BeginSetup
%%EndSetup
%%Page: 1 1
%%BeginPageSetup
%%PageBoundingBox: 13 3 371 381
%%EndPageSetup
q 13 3 358 378 rectclip
1 0 0 -1 0 384 cm q
0.34902 0.376471 0.4 rg
255.867 192.227 m 251.25 192.219 l 249.75 192 l 190.5 262.328 l 190.5 375.75
 l 366 375.75 l 366 306.504 l 366 244.98 317.359 193.754 255.867 192.227
 c h
255.867 192.227 m f
0.380392 0.411765 0.447059 rg
132 192 m 130.5 192.129 l 126.164 192.121 l 65.836 193.461 18 243.637 18
 303.977 c 18 375.75 l 190.5 375.75 l 190.5 262.5 l h
132 192 m f
0.909804 0.643137 0.403922 rg
191.023 305.949 m 199.832 306.031 206.926 313.195 206.926 322 c 206.926
 330.809 199.832 337.969 191.023 338.055 c 190.965 338.062 190.906 338.062
 190.844 338.062 c 186.586 338.062 182.5 336.371 179.488 333.359 c 176.477
 330.348 174.785 326.262 174.785 322 c 174.785 317.742 176.477 313.656 179.488
 310.645 c 182.5 307.633 186.586 305.941 190.844 305.941 c 190.906 305.938
 190.965 305.941 191.023 305.949 c h
191.023 305.949 m f
0.419608 0.396078 0.372549 rg
130.5 192.129 m 130.5 202.441 l 130.633 235.598 157.508 262.426 190.664
 262.5 c 190.844 262.5 l 224.016 262.5 251.25 235.621 251.25 202.441 c 251.25
 192.219 l h
130.5 192.129 m f
0.298039 0.317647 0.337255 rg
133.289 193.551 m 132 192 l 130.5 192.129 l 126.164 192.121 l 65.836 193.461
 18 243.637 18 303.977 c 18 375.75 l 40.5 375.75 l 40.5 303.977 l 40.5 248.867
 80.406 202.242 133.289 193.551 c h
133.289 193.551 m f
0.776471 0.745098 0.733333 rg
192 8.25 m 184.719 8.246 177.461 9.129 170.391 10.887 c 161.652 13.039 
153.301 16.535 145.633 21.254 c 145.637 21.262 l 122.188 35.691 106.68 60.773
 106.68 89.301 c 106.68 114.059 118.891 134.477 137.477 148.734 c 145.457
 154.777 150.316 164.07 150.727 174.074 c 151.273 189.219 l 151.312 190.207
 151.387 191.254 151.508 192.219 c 153.586 209.199 167.992 221.973 185.102
 222 c 199.281 222 l 216.371 221.969 230.766 209.23 232.883 192.273 c 232.988
 191.426 233.055 190.527 233.102 189.656 c 233.844 174.137 l 234.371 164.117
 239.266 154.836 247.238 148.742 c 252.09 144.984 256.516 140.707 260.438
 135.988 c 259.078 134.621 l 260.438 135.984 l 265.957 129.367 270.25 121.816
 273.113 113.691 c 273.121 113.699 l 275.887 105.863 277.293 97.613 277.273
 89.301 c 277.273 44.535 239.121 8.25 192 8.25 c h
192 8.25 m f
0.639216 0.611765 0.6 rg
174.008 192.215 m 173.887 191.254 173.812 190.207 173.773 189.215 c 173.227
 174.07 l 172.816 164.066 167.957 154.773 159.977 148.73 c 141.391 134.473
 129.18 114.055 129.18 89.297 c 129.18 60.77 144.688 35.688 168.137 21.258
 c 168.133 21.25 l 175.801 16.535 184.152 13.039 192.891 10.887 c 196.309
 10.039 199.773 9.391 203.266 8.953 c 199.527 8.484 195.766 8.25 192 8.25
 c 184.719 8.246 177.461 9.129 170.391 10.887 c 161.652 13.039 153.301 16.535
 145.633 21.254 c 145.637 21.262 l 122.188 35.691 106.68 60.773 106.68 89.301
 c 106.68 114.059 118.891 134.477 137.477 148.734 c 145.457 154.777 150.316
 164.07 150.727 174.074 c 151.273 189.219 l 151.312 190.207 151.387 191.254
 151.508 192.219 c 153.586 209.199 167.992 221.973 185.102 222 c 199.281
 222 l 200.672 221.996 202.062 221.91 203.441 221.738 c 188.027 219.797 
175.902 207.633 174.008 192.215 c h
174.008 192.215 m f
0.313726 0.317647 0.309804 rg
170.391 10.887 m 161.652 13.039 153.301 16.535 145.633 21.254 c 260.438
 135.984 l 265.961 129.363 270.258 121.805 273.121 113.672 c h
170.391 10.887 m f
0.247059 0.247059 0.243137 rg
241.523 63 m 217.719 63 l 210.996 62.984 205.527 68.414 205.5 75.137 c 
205.5 98.949 l 205.516 102.168 206.816 105.246 209.109 107.508 c 211.398
 109.77 214.496 111.027 217.719 111 c 241.523 111 l 244.719 111.016 247.785
 109.75 250.039 107.484 c 252.289 105.219 253.539 102.141 253.5 98.949 c
 253.5 75.137 l 253.539 71.934 252.297 68.844 250.047 66.566 c 247.797 64.285
 244.727 63 241.523 63 c h
241.523 63 m f
0.639216 0.615686 0.607843 rg
201.816 128.094 m 203.59 131.52 203.449 135.625 201.445 138.922 c 199.438
 142.219 195.859 144.23 192 144.23 c 188.141 144.23 184.562 142.219 182.555
 138.922 c 180.551 135.625 180.41 131.52 182.184 128.094 c 186.262 120.172
 l 187.367 118.023 189.582 116.672 192 116.672 c 194.418 116.672 196.633
 118.023 197.738 120.172 c h
201.816 128.094 m f
169.352 84.227 m 169.352 89.859 l 169.352 93.082 168.07 96.176 165.789 
98.453 c 163.508 100.734 160.418 102.016 157.191 102.016 c 151.566 102.016
 l 144.855 102.016 139.41 96.57 139.41 89.859 c 139.41 84.227 l 139.41 77.512
 144.855 72.07 151.566 72.066 c 157.191 72.066 l 160.418 72.066 163.508 
73.348 165.789 75.629 c 168.07 77.906 169.352 81 169.352 84.227 c h
169.352 84.227 m f
0.156863 0.258824 0.407843 rg
255.656 187.73 m 255.621 187.73 255.582 187.73 255.551 187.73 c 237.699
 187.707 l 238.336 174.371 l 238.805 165.668 243.062 157.605 249.992 152.312
 c 270.516 136.414 281.82 114.031 281.82 89.312 c 281.82 42.137 241.527 
3.75 192 3.75 c 142.473 3.75 102.18 42.129 102.18 89.305 c 102.18 113.828
 113.746 136.203 134.738 152.305 c 141.66 157.523 145.879 165.57 146.234
 174.234 c 146.711 187.637 l 126.422 187.617 l 126.332 187.617 l 96.059 
188.262 67.281 200.922 46.352 222.801 c 25.273 244.566 13.492 273.676 13.5
 303.977 c 13.5 375.449 l 13.621 378.051 15.707 380.133 18.309 380.25 c 
365.691 380.25 l 368.293 380.133 370.379 378.051 370.5 375.449 c 370.5 306.5
 l 370.504 275.629 358.523 245.961 337.082 223.75 c 315.789 201.422 286.5
 188.465 255.656 187.73 c h
260.039 129.27 m 245.812 115.043 l 251.23 113.586 255.559 109.508 257.336
 104.184 c 268.008 114.859 l 265.953 119.973 263.277 124.809 260.039 129.27
 c h
241.34 106.5 m 217.66 106.5 l 215.629 106.5 213.68 105.691 212.242 104.258
 c 210.809 102.82 210 100.871 210 98.84 c 210 75.16 l 210 73.129 210.809
 71.18 212.242 69.742 c 213.68 68.309 215.629 67.5 217.66 67.5 c 241.34 
67.5 l 245.57 67.5 249 70.93 249 75.16 c 249 98.84 l 249 100.871 248.191
 102.82 246.758 104.258 c 245.32 105.691 243.371 106.5 241.34 106.5 c h
192 12.754 m 236.562 12.754 272.773 47.094 272.773 89.305 c 272.773 94.645
 272.16 99.965 270.953 105.168 c 258 92.305 l 258 75.137 l 258.035 70.742
 256.316 66.512 253.223 63.391 c 250.133 60.266 245.918 58.508 241.523 58.5
 c 224.355 58.5 l 179.539 13.672 l 183.664 13.062 187.828 12.758 192 12.754
 c h
169.051 15.898 m 212.477 59.324 l 207.152 61.102 203.074 65.43 201.617 
70.848 c 153.027 22.258 l 158.133 19.586 163.504 17.457 169.051 15.898 c
 h
140.219 145.184 m 121.492 130.82 111.18 110.973 111.18 89.312 c 111.18 
63.668 124.535 40.922 145.035 27.023 c 201 83.016 l 201 98.945 l 201.047
 108.133 208.527 115.543 217.715 115.5 c 233.648 115.5 l 254.293 136.199
 l 251.27 139.453 247.984 142.457 244.477 145.18 c 235.469 152.078 229.938
 162.578 229.344 173.906 c 228.602 189.48 l 227.875 205.148 214.969 217.484
 199.285 217.5 c 185.102 217.5 l 169.266 217.52 156.273 204.957 155.77 189.129
 c 155.227 173.949 l 154.781 162.598 149.273 152.043 140.219 145.184 c h
135 196.629 m 147.711 196.641 l 151.637 214.125 167.18 226.539 185.102 
226.5 c 199.285 226.5 l 217.164 226.492 232.664 214.133 236.652 196.703 
c 246.75 196.715 l 246.75 202.441 l 246.75 233.086 221.52 258.016 190.875
 258.016 c 160.23 258.016 135 233.086 135 202.441 c h
186.207 371.25 m 84 371.25 l 84 317.363 l 84 311.363 75 311.363 75 317.363
 c 75 371.25 l 48 371.25 l 48 314.312 l 48 308.312 39 308.312 39 314.312
 c 39 371.25 l 22.5 371.25 l 22.5 303.977 l 22.449 276.02 33.285 249.145
 52.711 229.043 c 71.887 208.965 98.242 197.309 126 196.625 c 126 202.441
 l 126 236.484 152.621 264.441 186.066 266.832 c 186.418 301.902 l 176.961
 303.957 170.211 312.324 170.211 322.004 c 170.227 331.723 176.977 340.133
 186.465 342.254 c h
179.242 322 m 179.23 317.305 182.047 313.066 186.379 311.258 c 190.711 
309.453 195.707 310.438 199.031 313.75 c 202.355 317.066 203.355 322.059
 201.562 326.395 c 199.77 330.734 195.535 333.562 190.844 333.562 c 184.449
 333.566 179.262 328.395 179.242 322 c h
361.5 371.25 m 306.75 371.25 l 306.75 317.363 l 306.75 311.363 297.75 311.363
 297.75 317.363 c 297.75 371.25 l 195.207 371.25 l 195.48 342.184 l 204.82
 340.008 211.43 331.688 211.43 322.098 c 211.43 312.512 204.824 304.184 
195.488 302.008 c 195.367 266.871 l 228.945 264.621 255.75 236.582 255.75
 202.441 c 255.75 196.512 l 284.117 197.332 311.012 209.32 330.586 229.867
 c 350.422 250.449 361.5 277.918 361.5 306.5 c h
361.5 371.25 m f
43.5 294.547 m 41.016 294.547 39 296.562 39 299.047 c 39 300.594 l 39 306.594
 48 306.594 48 300.594 c 48 299.047 l 48 296.562 45.984 294.547 43.5 294.547
 c h
43.5 294.547 m f
192 148.688 m 197.418 148.688 202.445 145.867 205.266 141.242 c 208.086
 136.617 208.297 130.855 205.816 126.039 c 201.742 118.117 l 199.863 114.469
 196.102 112.176 192 112.176 c 187.898 112.176 184.137 114.469 182.258 118.117
 c 178.184 126.039 l 175.703 130.855 175.914 136.617 178.734 141.242 c 181.555
 145.867 186.582 148.688 192 148.688 c h
186.184 130.156 m 190.262 122.234 l 190.988 120.82 193.012 120.82 193.738
 122.234 c 197.816 130.156 l 198.859 132.184 198.77 134.605 197.582 136.555
 c 196.395 138.5 194.281 139.688 192 139.688 c 189.719 139.688 187.605 138.5
 186.418 136.555 c 185.23 134.605 185.141 132.184 186.184 130.156 c h
186.184 130.156 m f
174 89.84 m 174 84.16 l 174 74.957 166.543 67.5 157.34 67.5 c 151.66 67.5
 l 142.457 67.5 135 74.957 135 84.16 c 135 89.84 l 135 94.262 136.754 98.496
 139.879 101.621 c 143.004 104.746 147.238 106.5 151.66 106.5 c 157.34 106.5
 l 166.543 106.5 174 99.043 174 89.84 c h
144 89.84 m 144 84.16 l 144 82.129 144.809 80.18 146.242 78.742 c 147.68
 77.309 149.629 76.5 151.66 76.5 c 157.34 76.5 l 159.371 76.5 161.32 77.309
 162.758 78.742 c 164.191 80.18 165 82.129 165 84.16 c 165 89.84 l 165 94.07
 161.57 97.5 157.34 97.5 c 151.66 97.5 l 149.629 97.5 147.68 96.691 146.242
 95.258 c 144.809 93.82 144 91.871 144 89.84 c h
144 89.84 m f
171.75 177.895 m 171.75 188.668 l 171.75 194.668 180.75 194.668 180.75 
188.668 c 180.75 177.895 l 180.75 171.895 171.75 171.895 171.75 177.895 
c h
171.75 177.895 m f
203.25 177.895 m 203.25 188.668 l 203.25 194.668 212.25 194.668 212.25 
188.668 c 212.25 177.895 l 212.25 171.895 203.25 171.895 203.25 177.895 
c h
203.25 177.895 m f
192 173.395 m 189.516 173.395 187.5 175.406 187.5 177.895 c 187.5 188.668
 l 187.5 194.668 196.5 194.668 196.5 188.668 c 196.5 177.895 l 196.5 175.406
 194.484 173.395 192 173.395 c h
192 173.395 m f
Q Q
showpage
%%Trailer
end
%%EOF
