%!PS-Adobe-3.0 EPSF-3.0
%%Creator: cairo 1.16.0 (https://cairographics.org)
%%CreationDate: Tue Feb  2 14:04:30 2021
%%Pages: 1
%%DocumentData: Clean7Bit
%%LanguageLevel: 2
%%BoundingBox: 14 5 370 379
%%EndComments
%%BeginProlog
50 dict begin
/q { gsave } bind def
/Q { grestore } bind def
/cm { 6 array astore concat } bind def
/w { setlinewidth } bind def
/J { setlinecap } bind def
/j { setlinejoin } bind def
/M { setmiterlimit } bind def
/d { setdash } bind def
/m { moveto } bind def
/l { lineto } bind def
/c { curveto } bind def
/h { closepath } bind def
/re { exch dup neg 3 1 roll 5 3 roll moveto 0 rlineto
      0 exch rlineto 0 rlineto closepath } bind def
/S { stroke } bind def
/f { fill } bind def
/f* { eofill } bind def
/n { newpath } bind def
/W { clip } bind def
/W* { eoclip } bind def
/BT { } bind def
/ET { } bind def
/BDC { mark 3 1 roll /BDC pdfmark } bind def
/EMC { mark /EMC pdfmark } bind def
/cairo_store_point { /cairo_point_y exch def /cairo_point_x exch def } def
/Tj { show currentpoint cairo_store_point } bind def
/TJ {
  {
    dup
    type /stringtype eq
    { show } { -0.001 mul 0 cairo_font_matrix dtransform rmoveto } ifelse
  } forall
  currentpoint cairo_store_point
} bind def
/cairo_selectfont { cairo_font_matrix aload pop pop pop 0 0 6 array astore
    cairo_font exch selectfont cairo_point_x cairo_point_y moveto } bind def
/Tf { pop /cairo_font exch def /cairo_font_matrix where
      { pop cairo_selectfont } if } bind def
/Td { matrix translate cairo_font_matrix matrix concatmatrix dup
      /cairo_font_matrix exch def dup 4 get exch 5 get cairo_store_point
      /cairo_font where { pop cairo_selectfont } if } bind def
/Tm { 2 copy 8 2 roll 6 array astore /cairo_font_matrix exch def
      cairo_store_point /cairo_font where { pop cairo_selectfont } if } bind def
/g { setgray } bind def
/rg { setrgbcolor } bind def
/d1 { setcachedevice } bind def
/cairo_data_source {
  CairoDataIndex CairoData length lt
    { CairoData CairoDataIndex get /CairoDataIndex CairoDataIndex 1 add def }
    { () } ifelse
} def
/cairo_flush_ascii85_file { cairo_ascii85_file status { cairo_ascii85_file flushfile } if } def
/cairo_image { image cairo_flush_ascii85_file } def
/cairo_imagemask { imagemask cairo_flush_ascii85_file } def
%%EndProlog
%%BeginSetup
%%EndSetup
%%Page: 1 1
%%BeginPageSetup
%%PageBoundingBox: 14 5 370 379
%%EndPageSetup
q 14 5 356 374 rectclip
1 0 0 -1 0 384 cm q
0.337255 0.388235 0.482353 rg
365.094 229.402 m 365.094 351.676 l 365.094 364.102 355.02 374.176 342.594
 374.176 c 220.32 374.176 l 207.895 374.176 197.82 364.102 197.82 351.676
 c 197.82 229.402 l 197.82 216.977 207.895 206.902 220.32 206.902 c 342.594
 206.902 l 355.02 206.902 365.094 216.977 365.094 229.402 c h
365.094 229.402 m f
230.234 102.879 m 234.457 107.094 236.828 112.816 236.828 118.785 c 236.828
 124.754 234.457 130.473 230.234 134.691 c 143.773 221.16 l 134.984 229.941
 120.742 229.941 111.953 221.16 c 25.492 134.691 l 16.707 125.906 16.707
 111.664 25.492 102.879 c 111.953 16.418 l 116.172 12.195 121.895 9.824 
127.863 9.824 c 133.832 9.824 139.555 12.195 143.773 16.418 c h
230.234 102.879 m f
0.6 0.568627 0.560784 rg
333.684 253.906 m 333.684 262.727 326.531 269.879 317.707 269.879 c 308.883
 269.879 301.734 262.727 301.734 253.906 c 301.734 245.082 308.883 237.93
 317.707 237.93 c 326.531 237.93 333.684 245.082 333.684 253.906 c h
333.684 253.906 m f
317.707 310.809 m 324.172 310.805 329.996 314.699 332.473 320.668 c 334.945
 326.637 333.582 333.512 329.012 338.082 c 324.445 342.652 317.57 344.023
 311.602 341.551 c 305.629 339.078 301.734 333.254 301.734 326.789 c 301.73
 322.551 303.414 318.488 306.41 315.488 c 309.406 312.492 313.469 310.809
 317.707 310.809 c h
317.707 310.809 m f
244.824 237.93 m 251.285 237.93 257.109 241.82 259.582 247.793 c 262.055
 253.762 260.688 260.633 256.117 265.199 c 251.551 269.77 244.68 271.137
 238.711 268.664 c 232.738 266.191 228.848 260.367 228.848 253.906 c 228.848
 249.668 230.531 245.605 233.527 242.609 c 236.523 239.613 240.586 237.93
 244.824 237.93 c h
244.824 237.93 m f
244.824 310.809 m 251.285 310.805 257.113 314.699 259.586 320.668 c 262.062
 326.637 260.695 333.512 256.129 338.082 c 251.559 342.652 244.688 344.023
 238.715 341.551 c 232.742 339.078 228.848 333.254 228.848 326.789 c 228.848
 317.965 236 310.812 244.824 310.809 c h
244.824 310.809 m f
202.461 118.785 m 202.461 126.703 196.043 133.125 188.121 133.125 c 180.203
 133.125 173.781 126.703 173.781 118.785 c 173.781 110.867 180.203 104.445
 188.121 104.445 c 196.043 104.445 202.461 110.867 202.461 118.785 c h
202.461 118.785 m f
138.008 108.645 m 142.109 112.746 143.336 118.914 141.117 124.273 c 138.895
 129.633 133.668 133.125 127.867 133.125 c 122.066 133.125 116.84 129.633
 114.617 124.273 c 112.398 118.914 113.625 112.746 117.727 108.645 c 123.328
 103.051 132.406 103.051 138.008 108.645 c h
138.008 108.645 m f
81.945 118.785 m 81.945 126.703 75.527 133.121 67.609 133.121 c 59.691 
133.121 53.273 126.703 53.273 118.785 c 53.273 110.867 59.691 104.449 67.609
 104.449 c 75.527 104.449 81.945 110.867 81.945 118.785 c h
81.945 118.785 m f
0.286275 0.32549 0.388235 rg
143.773 16.418 m 139.555 12.195 133.832 9.824 127.863 9.824 c 121.895 9.824
 116.172 12.195 111.953 16.418 c 25.492 102.879 l 16.707 111.664 16.707 
125.906 25.492 134.691 c 40.492 149.691 l 31.707 140.906 31.707 126.664 
40.492 117.879 c 126.953 31.418 l 131.172 27.195 136.895 24.824 142.863 
24.824 c 148.832 24.824 154.555 27.195 158.773 31.418 c h
143.773 16.418 m f
0.156863 0.258824 0.407843 rg
241.324 118.785 m 241.344 111.621 238.496 104.746 233.418 99.695 c 146.957
 13.234 l 136.406 2.707 119.324 2.707 108.773 13.234 c 22.312 99.695 l 17.25
 104.758 14.402 111.625 14.402 118.785 c 14.402 125.945 17.25 132.812 22.312
 137.879 c 108.773 224.34 l 119.324 234.867 136.406 234.867 146.957 224.34
 c 233.418 137.879 l 238.496 132.824 241.344 125.949 241.324 118.785 c h
227.055 131.516 m 140.594 217.977 l 133.559 224.992 122.172 224.992 115.137
 217.977 c 28.676 131.516 l 21.648 124.484 21.648 113.086 28.676 106.059
 c 115.137 19.598 l 122.172 12.578 133.559 12.578 140.594 19.598 c 227.055
 106.059 l 234.082 113.086 234.082 124.484 227.055 131.516 c h
227.055 131.516 m f
114.547 105.465 m 109.156 110.852 107.547 118.957 110.461 125.996 c 113.379
 133.035 120.246 137.625 127.867 137.625 c 135.484 137.625 142.355 133.035
 145.27 125.996 c 148.184 118.957 146.574 110.852 141.188 105.465 c 133.824
 98.121 121.906 98.121 114.547 105.465 c h
134.82 125.742 m 132.008 128.551 127.781 129.391 124.109 127.867 c 120.434
 126.348 118.039 122.762 118.039 118.785 c 118.039 114.809 120.434 111.227
 124.109 109.703 c 127.781 108.18 132.008 109.02 134.82 111.828 c 136.684
 113.664 137.73 116.172 137.73 118.785 c 137.73 121.398 136.684 123.906 
134.82 125.742 c h
134.82 125.742 m f
54.289 105.465 m 48.902 110.852 47.289 118.957 50.207 125.996 c 53.121 
133.035 59.988 137.625 67.609 137.625 c 75.227 137.625 82.098 133.035 85.012
 125.996 c 87.93 118.957 86.316 110.852 80.93 105.465 c 73.566 98.121 61.652
 98.121 54.289 105.465 c h
74.566 125.742 m 71.754 128.551 67.523 129.391 63.852 127.867 c 60.18 126.348
 57.785 122.762 57.785 118.785 c 57.785 114.809 60.18 111.227 63.852 109.703
 c 67.523 108.18 71.754 109.02 74.566 111.828 c 76.426 113.664 77.473 116.172
 77.473 118.785 c 77.473 121.398 76.426 123.906 74.566 125.742 c h
74.566 125.742 m f
174.801 105.465 m 169.414 110.852 167.801 118.957 170.719 125.996 c 173.633
 133.035 180.504 137.625 188.121 137.625 c 195.742 137.625 202.609 133.035
 205.523 125.996 c 208.441 118.957 206.828 110.852 201.441 105.465 c 194.082
 98.121 182.164 98.121 174.801 105.465 c h
195.074 125.742 m 192.262 128.551 188.035 129.391 184.359 127.867 c 180.688
 126.348 178.293 122.762 178.293 118.785 c 178.293 114.809 180.688 111.227
 184.359 109.703 c 188.035 108.18 192.262 109.02 195.074 111.828 c 198.91
 115.672 198.91 121.898 195.074 125.742 c h
195.074 125.742 m f
121.523 41.207 m 122.715 41.211 123.859 40.734 124.703 39.891 c 125.797
 38.797 l 127.578 37.043 127.59 34.176 125.824 32.406 c 124.055 30.641 121.188
 30.652 119.434 32.434 c 118.34 33.523 l 115.508 36.359 117.516 41.207 121.523
 41.207 c h
121.523 41.207 m f
70.891 91.84 m 72.086 91.84 73.23 91.367 74.074 90.523 c 115.004 49.594
 l 119.176 45.352 112.879 39.055 108.637 43.23 c 67.711 84.156 l 64.875 
86.992 66.883 91.84 70.891 91.84 c h
70.891 91.84 m f
342.75 202.5 m 220.5 202.5 l 205.59 202.5 193.5 214.59 193.5 229.5 c 193.5
 351.75 l 193.5 366.66 205.59 378.75 220.5 378.75 c 342.75 378.75 l 357.66
 378.75 369.75 366.66 369.75 351.75 c 369.75 229.5 l 369.75 214.59 357.66
 202.5 342.75 202.5 c h
360.75 351.75 m 360.75 361.691 352.691 369.75 342.75 369.75 c 220.5 369.75
 l 210.559 369.75 202.5 361.691 202.5 351.75 c 202.5 229.5 l 202.5 219.559
 210.559 211.5 220.5 211.5 c 342.75 211.5 l 352.691 211.5 360.75 219.559
 360.75 229.5 c h
360.75 351.75 m f
244.824 233.426 m 236.543 233.426 229.078 238.414 225.91 246.066 c 222.738
 253.715 224.492 262.523 230.348 268.379 c 236.203 274.234 245.008 275.988
 252.66 272.816 c 260.312 269.648 265.301 262.184 265.301 253.902 c 265.285
 242.598 256.125 233.441 244.824 233.426 c h
244.824 265.383 m 240.184 265.383 236 262.586 234.223 258.297 c 232.445
 254.012 233.43 249.074 236.711 245.793 c 239.992 242.512 244.93 241.531
 249.215 243.305 c 253.504 245.082 256.301 249.266 256.301 253.906 c 256.289
 260.242 251.16 265.375 244.824 265.383 c h
244.824 265.383 m f
244.824 306.309 m 236.543 306.309 229.078 311.301 225.91 318.949 c 222.738
 326.602 224.492 335.406 230.348 341.262 c 236.203 347.121 245.008 348.871
 252.66 345.703 c 260.312 342.531 265.301 335.066 265.301 326.785 c 265.285
 315.484 256.125 306.324 244.824 306.309 c h
244.824 338.266 m 240.184 338.266 236 335.469 234.223 331.184 c 232.445
 326.895 233.43 321.957 236.711 318.676 c 239.992 315.395 244.93 314.414
 249.215 316.188 c 253.504 317.965 256.301 322.148 256.301 326.789 c 256.289
 333.125 251.16 338.258 244.824 338.266 c h
244.824 338.266 m f
317.707 233.426 m 309.426 233.426 301.961 238.414 298.793 246.066 c 295.621
 253.715 297.375 262.523 303.23 268.379 c 309.086 274.234 317.895 275.988
 325.543 272.816 c 333.195 269.648 338.184 262.184 338.184 253.902 c 338.168
 242.598 329.012 233.441 317.707 233.426 c h
317.707 265.383 m 313.066 265.383 308.883 262.586 307.105 258.297 c 305.332
 254.012 306.312 249.074 309.594 245.793 c 312.875 242.512 317.812 241.531
 322.098 243.305 c 326.387 245.082 329.184 249.266 329.184 253.906 c 329.176
 260.242 324.043 265.375 317.707 265.383 c h
317.707 265.383 m f
317.707 306.309 m 309.426 306.309 301.961 311.301 298.793 318.949 c 295.621
 326.602 297.375 335.406 303.23 341.262 c 309.086 347.121 317.895 348.871
 325.543 345.703 c 333.195 342.531 338.184 335.066 338.184 326.785 c 338.168
 315.484 329.012 306.324 317.707 306.309 c h
317.707 338.266 m 313.066 338.266 308.883 335.469 307.105 331.184 c 305.332
 326.895 306.312 321.957 309.594 318.676 c 312.875 315.395 317.812 314.414
 322.098 316.188 c 326.387 317.965 329.184 322.148 329.184 326.789 c 329.176
 333.125 324.043 338.258 317.707 338.266 c h
317.707 338.266 m f
Q Q
showpage
%%Trailer
end
%%EOF
