%!PS-Adobe-3.0 EPSF-3.0
%%Creator: cairo 1.16.0 (https://cairographics.org)
%%CreationDate: Tue Feb  2 14:04:30 2021
%%Pages: 1
%%DocumentData: Clean7Bit
%%LanguageLevel: 2
%%BoundingBox: 3 100 381 284
%%EndComments
%%BeginProlog
50 dict begin
/q { gsave } bind def
/Q { grestore } bind def
/cm { 6 array astore concat } bind def
/w { setlinewidth } bind def
/J { setlinecap } bind def
/j { setlinejoin } bind def
/M { setmiterlimit } bind def
/d { setdash } bind def
/m { moveto } bind def
/l { lineto } bind def
/c { curveto } bind def
/h { closepath } bind def
/re { exch dup neg 3 1 roll 5 3 roll moveto 0 rlineto
      0 exch rlineto 0 rlineto closepath } bind def
/S { stroke } bind def
/f { fill } bind def
/f* { eofill } bind def
/n { newpath } bind def
/W { clip } bind def
/W* { eoclip } bind def
/BT { } bind def
/ET { } bind def
/BDC { mark 3 1 roll /BDC pdfmark } bind def
/EMC { mark /EMC pdfmark } bind def
/cairo_store_point { /cairo_point_y exch def /cairo_point_x exch def } def
/Tj { show currentpoint cairo_store_point } bind def
/TJ {
  {
    dup
    type /stringtype eq
    { show } { -0.001 mul 0 cairo_font_matrix dtransform rmoveto } ifelse
  } forall
  currentpoint cairo_store_point
} bind def
/cairo_selectfont { cairo_font_matrix aload pop pop pop 0 0 6 array astore
    cairo_font exch selectfont cairo_point_x cairo_point_y moveto } bind def
/Tf { pop /cairo_font exch def /cairo_font_matrix where
      { pop cairo_selectfont } if } bind def
/Td { matrix translate cairo_font_matrix matrix concatmatrix dup
      /cairo_font_matrix exch def dup 4 get exch 5 get cairo_store_point
      /cairo_font where { pop cairo_selectfont } if } bind def
/Tm { 2 copy 8 2 roll 6 array astore /cairo_font_matrix exch def
      cairo_store_point /cairo_font where { pop cairo_selectfont } if } bind def
/g { setgray } bind def
/rg { setrgbcolor } bind def
/d1 { setcachedevice } bind def
/cairo_data_source {
  CairoDataIndex CairoData length lt
    { CairoData CairoDataIndex get /CairoDataIndex CairoDataIndex 1 add def }
    { () } ifelse
} def
/cairo_flush_ascii85_file { cairo_ascii85_file status { cairo_ascii85_file flushfile } if } def
/cairo_image { image cairo_flush_ascii85_file } def
/cairo_imagemask { imagemask cairo_flush_ascii85_file } def
%%EndProlog
%%BeginSetup
%%EndSetup
%%Page: 1 1
%%BeginPageSetup
%%PageBoundingBox: 3 100 381 284
%%EndPageSetup
q 3 100 378 184 rectclip
1 0 0 -1 0 384 cm q
0.580392 0.564706 0.6 rg
238.5 186.75 m 238.5 140.25 l 238.5 124.727 229.426 110.773 215.023 105.301
 c 211.426 103.875 207.375 105.602 206.023 109.199 c 206.023 109.273 l 204.75
 112.875 206.324 116.852 209.926 118.125 c 219.227 121.352 225.074 130.574
 225.074 140.398 c 225.074 186.75 l 188.324 186.75 l 188.324 154.801 l 188.477
 139.125 178.727 125.102 164.023 119.699 c 160.5 118.426 156.676 120.227
 155.398 123.75 c 155.398 123.824 155.324 123.898 155.324 123.977 c 154.125
 127.648 156 131.625 159.602 132.977 c 168.523 136.5 174.074 145.199 174.074
 154.875 c 174.074 186.75 l 137.324 186.75 l 137.324 169.273 l 137.324 153.602
 127.875 139.426 113.102 134.176 c 109.648 132.898 105.824 134.699 104.551
 138.148 c 104.551 138.227 104.477 138.301 104.477 138.375 c 103.273 142.051
 105.148 146.023 108.75 147.301 c 117.824 150.824 123.824 159.523 123.75
 169.273 c 123.75 186.75 l 68.023 186.75 l 67.949 200.176 l 68.25 200.25
 l 123.75 200.25 l 123.75 215.852 l 123.75 225.375 117.449 233.477 108.523
 236.699 c 105 238.051 103.199 241.949 104.551 245.477 c 105.602 248.25 
108.227 250.051 111.148 250.051 c 111.824 250.051 112.426 249.898 113.102
 249.676 c 127.875 244.352 137.324 230.25 137.324 214.574 c 137.324 200.25
 l 174.074 200.25 l 174.074 229.574 l 174.074 239.324 167.852 247.648 158.852
 251.324 c 155.477 252.75 153.898 256.648 155.25 260.023 c 156.301 262.801
 158.926 264.602 161.926 264.602 c 162.602 264.602 163.352 264.449 163.949
 264.227 c 178.648 258.824 188.398 244.801 188.324 229.051 c 188.324 200.25
 l 225.074 200.25 l 225.074 244.352 l 225.074 254.023 218.852 262.273 209.852
 265.801 c 206.398 267.227 204.75 271.125 206.102 274.574 c 207.148 277.352
 209.773 279.148 212.699 279.148 c 213.301 279.148 213.898 279 214.426 278.773
 c 229.199 273.449 238.5 259.352 238.5 243.602 c 238.5 200.25 l 290.25 200.25
 l 290.25 186.75 l h
238.5 186.75 m f
0.498039 0.486275 0.517647 rg
347.102 163.273 m 339.523 155.699 330.602 149.699 320.699 145.574 c 310.801
 141.523 300.227 139.426 289.5 139.352 c 289.5 244.5 l 311.102 244.5 331.875
 235.949 347.176 220.574 c 375.824 191.926 l h
347.102 163.273 m f
70.273 186.676 m 70.648 188.398 70.801 190.125 70.801 191.926 c 70.801 
202.352 64.352 211.727 54.676 215.477 c 8.25 233.398 l 31.051 209.25 l 40.199
 199.5 40.199 184.352 31.051 174.602 c 8.25 150.449 l 54.676 168.375 l 62.699
 171.449 68.551 178.352 70.273 186.676 c h
70.273 186.676 m f
0.356863 0.352941 0.368627 rg
347.102 178.273 m 368.324 199.426 l 375.824 191.926 l 347.102 163.273 l
 339.523 155.699 330.602 149.699 320.699 145.574 c 310.801 141.523 300.227
 139.426 289.5 139.352 c 289.5 154.352 l 300.227 154.352 310.801 156.523
 320.699 160.574 c 330.523 164.699 339.523 170.699 347.102 178.273 c h
347.102 178.273 m f
70.273 186.676 m 68.477 178.352 62.625 171.449 54.676 168.375 c 8.25 150.449
 l 30.523 174.074 l 54.676 183.375 l 61.875 186.148 67.426 192.074 69.676
 199.426 c 70.426 197.023 70.801 194.477 70.801 191.926 c 70.875 190.199
 70.648 188.398 70.273 186.676 c h
70.273 186.676 m f
0.580392 0.564706 0.6 rg
313.727 162 m 318.523 162 322.426 165.898 322.426 170.699 c 322.426 175.5
 318.523 179.398 313.727 179.398 c 308.926 179.398 305.023 175.5 305.023
 170.699 c 305.023 165.898 308.926 162 313.727 162 c h
313.727 162 m f
0.156863 0.258824 0.407843 rg
313.727 157.5 m 306.449 157.5 300.523 163.426 300.523 170.699 c 300.523
 177.977 306.449 183.898 313.727 183.898 c 321 183.898 326.926 177.977 326.926
 170.699 c 326.926 163.426 321 157.5 313.727 157.5 c h
313.727 174.898 m 311.398 174.898 309.523 173.023 309.523 170.699 c 309.523
 168.375 311.398 166.5 313.727 166.5 c 316.051 166.5 317.926 168.375 317.926
 170.699 c 317.926 173.023 316.051 174.898 313.727 174.898 c h
313.727 174.898 m f
378.898 188.773 m 350.25 160.051 l 334.125 143.852 312.227 134.773 289.426
 134.852 c 286.949 134.852 285 136.875 285 139.273 c 285 182.25 l 243 182.25
 l 243 140.25 l 243 122.551 232.648 107.176 216.602 101.102 c 213.676 99.977
 210.449 100.125 207.602 101.398 c 204.898 102.676 202.727 104.926 201.75
 107.773 c 200.699 110.699 200.852 114 202.125 116.773 c 203.398 119.398
 205.648 121.426 208.426 122.398 c 215.625 124.875 220.5 132.148 220.5 140.398
 c 220.5 182.25 l 192.75 182.25 l 192.75 154.801 l 192.75 137.176 181.801
 121.352 165.449 115.426 c 162.676 114.375 159.523 114.523 156.824 115.801
 c 154.051 117.074 151.949 119.477 150.977 122.324 c 149.023 128.25 152.023
 134.773 157.875 137.023 c 164.926 139.801 169.5 146.773 169.5 154.727 c
 169.5 182.25 l 141.75 182.25 l 141.75 169.273 l 141.75 151.574 130.801 
135.75 114.602 129.898 c 111.824 128.852 108.75 129 106.051 130.273 c 103.273
 131.551 101.176 133.949 100.199 136.801 c 98.176 142.801 101.25 149.25 
107.176 151.5 c 114.523 154.352 119.324 161.398 119.25 169.273 c 119.25 
182.25 l 73.727 182.25 l 70.875 174 64.5 167.398 56.324 164.176 c 9.824 
146.25 l 7.5 145.352 4.875 146.477 3.977 148.801 c 3.375 150.449 3.676 152.25
 4.875 153.523 c 27.75 177.676 l 35.25 185.699 35.25 198.148 27.75 206.102
 c 4.949 230.324 l 3.227 232.125 3.301 234.977 5.102 236.699 c 6.375 237.898
 8.176 238.273 9.824 237.602 c 56.324 219.676 l 63.375 216.898 69.148 211.574
 72.375 204.75 c 119.25 204.75 l 119.25 215.852 l 119.25 223.273 114.449
 229.801 106.949 232.5 c 101.023 234.75 98.102 241.352 100.352 247.273 c
 102.074 251.699 106.352 254.625 111.074 254.625 c 112.273 254.625 113.398
 254.398 114.523 253.949 c 130.801 248.102 141.75 232.273 141.75 214.574
 c 141.75 204.75 l 169.5 204.75 l 169.5 229.574 l 169.5 237.148 164.625 
244.051 157.051 247.125 c 151.5 249.523 148.801 255.898 150.977 261.523 
c 152.625 266.102 156.977 269.102 161.852 269.102 c 163.051 269.102 164.25
 268.875 165.449 268.426 c 181.949 262.352 192.824 246.602 192.824 229.051
 c 192.824 204.75 l 220.574 204.75 l 220.574 244.352 l 220.574 251.852 215.699
 258.602 208.199 261.602 c 202.5 263.926 199.727 270.375 201.898 276.074
 c 203.551 280.648 207.898 283.648 212.773 283.648 c 213.824 283.648 214.801
 283.5 215.773 283.051 c 216.074 282.977 l 232.273 277.125 243.148 261.301
 243.148 243.602 c 243.148 204.75 l 285.148 204.75 l 285.148 244.5 l 285.148
 246.977 287.102 249 289.5 249 c 289.574 249 l 312.449 249.074 334.352 240
 350.477 223.801 c 379.125 195.148 l 380.699 193.352 380.699 190.5 378.898
 188.773 c h
64.949 199.426 m 62.852 204.898 58.5 209.176 53.102 211.273 c 25.125 222.074
 l 34.273 212.398 l 45.074 200.926 45.074 183.074 34.273 171.602 c 25.125
 161.926 l 53.102 172.727 l 63.75 176.699 69.074 188.699 64.949 199.426 
c h
285 195.75 m 238.5 195.75 l 236.023 195.75 234 197.699 234 200.102 c 234
 243.602 l 234 257.773 225.75 269.852 212.852 274.5 c 212.477 274.648 l 
211.5 274.574 210.602 273.977 210.227 273.074 c 209.699 271.875 210.227 
270.523 211.352 270 c 222.375 265.648 229.426 255.602 229.426 244.352 c 
229.426 200.176 l 229.426 197.699 227.398 195.75 225 195.75 c 225 195.75
 225 195.75 224.926 195.75 c 188.176 195.75 l 185.699 195.75 183.676 197.699
 183.676 200.102 c 183.676 229.051 l 183.75 242.852 175.199 255.148 162.301
 259.949 c 162 260.102 161.852 260.102 161.852 260.102 c 161.773 260.102
 l 160.727 260.102 159.75 259.5 159.375 258.523 c 159 257.398 159.227 255.977
 160.426 255.449 c 171.375 250.949 178.426 240.75 178.426 229.574 c 178.426
 200.176 l 178.426 197.699 176.398 195.75 174 195.75 c 174 195.75 174 195.75
 173.926 195.75 c 137.176 195.75 l 134.699 195.75 132.676 197.699 132.676
 200.102 c 132.676 214.574 l 132.676 228.449 124.125 240.898 111.375 245.477
 c 111.227 245.551 111.074 245.551 111 245.625 c 109.949 245.625 109.051
 244.949 108.676 244.051 c 108.148 242.852 108.75 241.5 109.949 240.977 
c 121.051 236.926 128.176 227.102 128.176 215.852 c 128.176 200.176 l 128.176
 197.699 126.148 195.75 123.75 195.75 c 123.75 195.75 123.75 195.75 123.676
 195.75 c 75.148 195.75 l 75.148 191.25 l 123.75 191.25 l 126.227 191.25
 128.25 189.148 128.25 186.676 c 128.25 169.273 l 128.25 157.648 121.125
 147.227 110.324 143.023 c 108.977 142.574 108.301 141.148 108.676 139.801
 c 108.898 139.199 109.273 138.676 109.875 138.375 c 110.398 138.148 111
 138.148 111.523 138.301 c 124.199 142.875 132.75 155.324 132.75 169.199
 c 132.75 186.602 l 132.75 189.074 134.773 191.176 137.25 191.176 c 174 
191.176 l 176.477 191.176 178.5 189.074 178.5 186.602 c 178.5 154.727 l 
178.5 143.023 171.676 132.75 161.176 128.625 c 159.824 128.102 159.074 126.676
 159.523 125.25 c 159.75 124.648 160.199 124.125 160.727 123.824 c 161.25
 123.602 161.852 123.523 162.449 123.75 c 175.199 128.324 183.75 140.773
 183.75 154.648 c 183.75 186.523 l 183.75 189 185.773 191.102 188.25 191.102
 c 225 191.102 l 227.477 191.102 229.5 189 229.5 186.523 c 229.5 140.25 
l 229.5 128.176 222.227 117.523 211.352 113.773 c 210.824 113.625 210.449
 113.25 210.227 112.801 c 209.926 112.125 209.926 111.375 210.148 110.699
 c 210.375 110.176 210.75 109.727 211.273 109.5 c 211.949 109.199 212.699
 109.199 213.375 109.426 c 225.898 114.148 234 126.227 234 140.176 c 234
 186.602 l 234 189.074 236.023 191.102 238.5 191.176 c 285 191.176 l h
343.949 217.426 m 330.602 230.773 312.824 238.801 294 239.926 c 294 144
 l 312.824 145.051 330.676 153.074 343.949 166.5 c 369.449 192 l h
343.949 217.426 m f
305.023 202.949 m 302.551 202.949 300.523 204.977 300.523 207.449 c 300.523
 226.801 l 300.523 229.273 302.551 231.301 305.023 231.301 c 307.5 231.301
 309.523 229.273 309.523 226.801 c 309.523 207.449 l 309.523 204.977 307.5
 202.949 305.023 202.949 c h
305.023 202.949 m f
305.023 187.648 m 302.551 187.648 300.523 189.676 300.523 192.148 c 300.523
 194.699 l 300.523 197.176 302.551 199.199 305.023 199.199 c 307.5 199.199
 309.523 197.176 309.523 194.699 c 309.523 192.148 l 309.523 189.676 307.5
 187.648 305.023 187.648 c h
305.023 187.648 m f
Q Q
showpage
%%Trailer
end
%%EOF
