%!PS-Adobe-3.0 EPSF-3.0
%%Creator: cairo 1.16.0 (https://cairographics.org)
%%CreationDate: Tue Feb  2 14:04:32 2021
%%Pages: 1
%%DocumentData: Clean7Bit
%%LanguageLevel: 2
%%BoundingBox: 3 12 381 372
%%EndComments
%%BeginProlog
50 dict begin
/q { gsave } bind def
/Q { grestore } bind def
/cm { 6 array astore concat } bind def
/w { setlinewidth } bind def
/J { setlinecap } bind def
/j { setlinejoin } bind def
/M { setmiterlimit } bind def
/d { setdash } bind def
/m { moveto } bind def
/l { lineto } bind def
/c { curveto } bind def
/h { closepath } bind def
/re { exch dup neg 3 1 roll 5 3 roll moveto 0 rlineto
      0 exch rlineto 0 rlineto closepath } bind def
/S { stroke } bind def
/f { fill } bind def
/f* { eofill } bind def
/n { newpath } bind def
/W { clip } bind def
/W* { eoclip } bind def
/BT { } bind def
/ET { } bind def
/BDC { mark 3 1 roll /BDC pdfmark } bind def
/EMC { mark /EMC pdfmark } bind def
/cairo_store_point { /cairo_point_y exch def /cairo_point_x exch def } def
/Tj { show currentpoint cairo_store_point } bind def
/TJ {
  {
    dup
    type /stringtype eq
    { show } { -0.001 mul 0 cairo_font_matrix dtransform rmoveto } ifelse
  } forall
  currentpoint cairo_store_point
} bind def
/cairo_selectfont { cairo_font_matrix aload pop pop pop 0 0 6 array astore
    cairo_font exch selectfont cairo_point_x cairo_point_y moveto } bind def
/Tf { pop /cairo_font exch def /cairo_font_matrix where
      { pop cairo_selectfont } if } bind def
/Td { matrix translate cairo_font_matrix matrix concatmatrix dup
      /cairo_font_matrix exch def dup 4 get exch 5 get cairo_store_point
      /cairo_font where { pop cairo_selectfont } if } bind def
/Tm { 2 copy 8 2 roll 6 array astore /cairo_font_matrix exch def
      cairo_store_point /cairo_font where { pop cairo_selectfont } if } bind def
/g { setgray } bind def
/rg { setrgbcolor } bind def
/d1 { setcachedevice } bind def
/cairo_data_source {
  CairoDataIndex CairoData length lt
    { CairoData CairoDataIndex get /CairoDataIndex CairoDataIndex 1 add def }
    { () } ifelse
} def
/cairo_flush_ascii85_file { cairo_ascii85_file status { cairo_ascii85_file flushfile } if } def
/cairo_image { image cairo_flush_ascii85_file } def
/cairo_imagemask { imagemask cairo_flush_ascii85_file } def
%%EndProlog
%%BeginSetup
%%EndSetup
%%Page: 1 1
%%BeginPageSetup
%%PageBoundingBox: 3 12 381 372
%%EndPageSetup
q 3 12 378 360 rectclip
1 0 0 -1 0 384 cm q
0.498039 0.239216 0.196078 rg
291.227 224.25 m 287.551 224.25 284.398 226.949 283.801 230.551 c 281.25
 247.199 266.926 259.426 250.051 259.5 c 123.301 259.5 l 109.648 259.574
 97.273 251.398 91.875 238.801 c 87.676 228.824 l 86.477 226.051 83.773 
224.25 80.773 224.25 c 36.523 224.25 l 38.926 225.977 40.426 228.75 40.352
 231.676 c 40.426 256.875 55.125 279.75 78 290.324 c 83.477 284.773 89.176
 279.602 99.977 279.602 c 122.926 279.602 122.926 303.074 145.875 303.074
 c 168.824 303.074 168.824 279.602 191.773 279.602 c 214.727 279.602 214.727
 303.074 237.676 303.074 c 260.625 303.074 260.625 279.602 283.574 279.602
 c 289.5 279.449 295.352 281.477 300 285.227 c 317.699 273.227 328.273 253.199
 328.273 231.75 c 328.273 228.676 329.926 225.824 332.551 224.25 c h
291.227 224.25 m f
0.6 0.568627 0.560784 rg
293.699 156.75 m 90.227 156.75 l 88.426 156.676 86.773 157.352 85.426 158.551
 c 84.148 159.824 83.477 161.625 83.477 163.426 c 83.477 167.176 86.477 
170.25 90.227 170.25 c 293.699 170.25 l 295.5 170.176 297.227 169.426 298.5
 168.074 c 299.773 166.875 300.449 165.148 300.449 163.426 c 300.449 159.676
 297.449 156.676 293.699 156.75 c h
293.699 156.75 m f
293.773 36.75 m 90.227 36.75 l 88.426 36.676 86.773 37.352 85.426 38.551
 c 84.148 39.824 83.477 41.625 83.477 43.426 c 83.477 47.176 86.477 50.25
 90.227 50.25 c 293.699 50.25 l 295.5 50.176 297.227 49.426 298.5 48.074
 c 299.773 46.875 300.523 45.148 300.523 43.426 c 300.523 39.75 297.523 
36.75 293.852 36.75 c 293.773 36.75 293.773 36.75 293.773 36.75 c h
293.773 36.75 m f
0.776471 0.745098 0.733333 rg
281.324 50.25 m 93.074 50.25 l 101.926 85.199 101.926 121.801 93.074 156.75
 c 281.25 156.75 l 290.176 121.801 290.176 85.199 281.324 50.25 c h
281.324 50.25 m f
0.690196 0.709804 0.792157 rg
196.801 19.125 m 194.176 16.5 189.898 16.5 187.273 19.125 c 186 20.398 
185.324 22.125 185.324 23.926 c 185.324 243 l 198.824 243 l 198.824 23.852
 l 198.75 22.051 198.074 20.398 196.801 19.125 c h
196.801 19.125 m f
0.780392 0.603922 0.513726 rg
285.375 207.75 m 275.625 207.75 267.75 215.699 267.75 225.449 c 267.75 
235.125 259.875 243 250.199 243 c 123.375 243 l 116.324 243 109.949 238.801
 107.176 232.352 c 101.324 218.551 l 98.551 212.023 92.176 207.824 85.125
 207.824 c 12 207.824 l 12.148 216.074 19.273 222.824 27.75 222.824 c 31.875
 222.824 l 33.602 222.898 35.25 223.426 36.676 224.324 c 80.926 224.324 
l 83.926 224.324 86.625 226.199 87.824 228.977 c 92.023 238.875 l 97.352
 251.477 109.727 259.648 123.449 259.574 c 250.199 259.574 l 267 259.574
 281.324 247.273 283.949 230.625 c 284.551 226.949 287.699 224.324 291.375
 224.324 c 332.926 224.324 l 334.273 223.574 335.852 223.125 337.426 223.125
 c 343.574 223.125 349.727 221.926 355.426 219.523 c 361.125 217.125 366.301
 213.523 370.5 209.102 c 371.773 207.824 l 285.375 207.824 l h
285.375 207.75 m f
0.4 0.180392 0.152941 rg
63 231.676 m 63 228.676 61.574 225.898 59.176 224.25 c 36.676 224.25 l 
39.074 225.977 40.574 228.75 40.5 231.676 c 40.574 256.875 55.273 279.75
 78.148 290.324 c 81.074 287.398 84.074 284.477 87.898 282.449 c 72.227 
270.301 63.074 251.551 63 231.676 c h
63 231.676 m f
0.619608 0.466667 0.4 rg
50.25 222.75 m 41.773 222.75 34.648 216 34.5 207.75 c 12 207.75 l 12.148
 216 19.273 222.75 27.75 222.75 c 31.875 222.75 l 33.602 222.824 35.25 223.352
 36.676 224.25 c 59.176 224.25 l 57.75 223.352 56.102 222.824 54.375 222.75
 c h
50.25 222.75 m f
0.156863 0.258824 0.407843 rg
375.75 275.102 m 362.398 275.102 355.574 282.074 349.574 288.148 c 344.102
 293.699 339.449 298.5 329.852 298.5 c 320.25 298.5 315.523 293.699 310.125
 288.148 c 309.227 287.25 308.398 286.352 307.426 285.449 c 323.625 272.324
 333 252.676 333.074 231.824 c 333.074 229.5 335.023 227.551 337.352 227.551
 c 351 227.551 364.125 222 373.648 212.176 c 374.852 211.051 l 376.648 209.324
 376.727 206.398 374.926 204.602 c 374.102 203.699 372.898 203.25 371.699
 203.176 c 285.375 203.176 l 273.148 203.176 263.25 213.074 263.25 225.301
 c 263.25 232.574 257.398 238.426 250.125 238.426 c 203.25 238.426 l 203.25
 174.676 l 293.773 174.676 l 300 174.676 305.023 169.648 305.023 163.426
 c 305.023 157.199 300 152.176 293.773 152.176 c 287.023 152.176 l 294.227
 120.074 294.227 86.773 287.023 54.676 c 293.773 54.676 l 300 54.676 305.023
 49.648 305.023 43.426 c 305.023 37.199 300 32.176 293.773 32.176 c 203.25
 32.176 l 203.25 23.852 l 203.25 17.625 198.227 12.602 192 12.602 c 185.773
 12.602 180.75 17.625 180.75 23.852 c 180.75 32.25 l 90.227 32.25 l 84.074
 32.176 79.051 37.125 79.051 43.273 c 78.977 49.199 83.625 54.148 89.551
 54.449 c 97.051 86.551 97.125 119.926 89.551 151.949 c 83.25 152.398 78.523
 157.875 78.977 164.176 c 79.426 170.102 84.301 174.676 90.227 174.75 c 
180.75 174.75 l 180.75 238.5 l 123.375 238.5 l 118.125 238.5 113.398 235.426
 111.301 230.551 c 105.449 216.75 l 102 208.574 93.977 203.25 85.125 203.25
 c 13.426 203.25 l 12.977 203.25 12.523 203.102 12 203.102 c 9.523 203.102
 7.5 205.199 7.5 207.676 c 7.5 208.051 l 7.727 218.699 16.727 227.25 27.75
 227.25 c 31.875 227.25 l 34.125 227.25 36 229.352 36 231.75 c 36.148 256.426
 49.273 279.148 70.574 291.449 c 66.301 295.5 61.801 298.5 54.148 298.5 
c 44.551 298.5 39.824 293.699 34.426 288.148 c 28.426 282 21.602 275.102
 8.25 275.102 c 5.773 275.102 3.75 277.125 3.75 279.602 c 3.75 282.074 5.773
 284.102 8.25 284.102 c 17.852 284.102 22.574 288.898 27.977 294.449 c 33.977
 300.602 40.801 307.5 54.148 307.5 c 67.5 307.5 74.324 300.523 80.324 294.449
 c 85.801 288.898 90.449 284.102 100.051 284.102 c 109.648 284.102 114.375
 288.898 119.773 294.449 c 125.773 300.602 132.602 307.5 145.949 307.5 c
 159.301 307.5 166.125 300.523 172.125 294.449 c 177.602 288.898 182.25 
284.102 191.852 284.102 c 201.449 284.102 206.176 288.898 211.574 294.449
 c 217.574 300.602 224.398 307.5 237.75 307.5 c 251.102 307.5 257.926 300.523
 263.926 294.449 c 269.398 288.898 274.051 284.102 283.648 284.102 c 293.25
 284.102 297.977 288.898 303.375 294.449 c 309.375 300.602 316.199 307.5
 329.551 307.5 c 342.898 307.5 349.727 300.523 355.727 294.449 c 361.199
 288.898 365.852 284.102 375.449 284.102 c 377.926 284.102 379.949 282.074
 379.949 279.602 c 379.949 277.125 378.227 275.102 375.75 275.102 c h
203.25 41.25 m 293.773 41.25 l 295.051 41.25 296.023 42.227 296.023 43.5
 c 296.023 44.773 295.051 45.75 293.773 45.75 c 203.25 45.75 l h
203.25 54.75 m 277.801 54.75 l 285.301 86.852 285.301 120.148 277.801 152.25
 c 203.25 152.25 l h
203.25 161.25 m 293.773 161.25 l 295.051 161.25 296.023 162.227 296.023
 163.5 c 296.023 164.773 295.051 165.75 293.773 165.75 c 203.25 165.75 l
 h
189.75 23.852 m 189.75 22.574 190.727 21.602 192 21.602 c 193.273 21.602
 194.25 22.574 194.25 23.852 c 194.25 238.5 l 189.75 238.5 l h
90.227 45.75 m 88.949 45.75 87.977 44.773 87.977 43.5 c 87.977 42.227 88.949
 41.25 90.227 41.25 c 180.75 41.25 l 180.75 45.75 l h
98.773 54.75 m 180.75 54.75 l 180.75 152.25 l 98.852 152.25 l 106.051 120.148
 106.051 86.852 98.773 54.75 c h
90.227 165.75 m 88.949 165.75 87.977 164.773 87.977 163.5 c 87.977 162.227
 88.949 161.25 90.227 161.25 c 180.75 161.25 l 180.75 165.75 l h
31.875 218.25 m 27.75 218.25 l 23.477 218.398 19.574 216 17.625 212.25 
c 85.051 212.25 l 90.301 212.25 95.102 215.477 97.125 220.273 c 102.977 
234.074 l 106.5 242.25 114.523 247.5 123.375 247.5 c 250.125 247.5 l 262.352
 247.5 272.25 237.602 272.25 225.375 c 272.25 218.102 278.102 212.25 285.375
 212.25 c 359.25 212.25 l 352.727 216.75 345.074 218.477 337.273 218.477
 c 335.324 218.477 333.449 218.926 331.648 219.75 c 291.227 219.75 l 285.301
 219.75 280.273 224.023 279.375 229.875 c 277.051 244.273 264.676 254.926
 250.125 255 c 123.375 255 l 111.523 255.074 100.801 247.949 96.148 237 
c 91.949 227.023 l 90.074 222.602 85.727 219.676 80.926 219.676 c 37.875
 219.676 l 36 218.852 33.977 218.324 31.875 218.25 c h
300.227 279.676 m 295.352 276.602 289.648 275.023 283.875 275.102 c 270.523
 275.102 263.699 282.074 257.699 288.148 c 252.227 293.699 247.574 298.5
 237.977 298.5 c 228.375 298.5 223.648 293.699 218.25 288.148 c 212.25 282
 205.426 275.102 192.074 275.102 c 178.727 275.102 171.898 282.074 165.898
 288.148 c 160.426 293.699 155.773 298.5 146.176 298.5 c 136.574 298.5 131.852
 293.699 126.449 288.148 c 120.449 282 113.625 275.102 100.273 275.102 c
 89.25 275.102 82.727 279.824 77.398 284.852 c 57.523 274.5 45.148 254.102
 45 231.75 c 45 230.773 44.926 229.727 44.699 228.75 c 80.926 228.75 l 82.125
 228.75 83.25 229.5 83.699 230.625 c 87.898 240.523 l 93.977 254.773 107.926
 264 123.449 264 c 250.199 264 l 269.25 263.926 285.375 250.051 288.375 
231.227 c 288.602 229.801 289.875 228.75 291.301 228.75 c 324.375 228.75
 l 324.148 229.727 324 230.773 324 231.75 c 324 231.824 l 324 250.648 315.227
 268.352 300.227 279.676 c h
300.227 279.676 m f
375.75 307.051 m 362.398 307.051 355.574 314.023 349.574 320.102 c 344.102
 325.648 339.449 330.449 329.852 330.449 c 320.25 330.449 315.523 325.648
 310.125 320.102 c 304.125 313.949 297.301 307.051 283.949 307.051 c 270.602
 307.051 263.773 314.023 257.773 320.102 c 252.301 325.648 247.648 330.449
 238.051 330.449 c 228.449 330.449 223.727 325.648 218.324 320.102 c 212.324
 313.949 205.5 307.051 192.148 307.051 c 178.801 307.051 171.977 314.023
 165.977 320.102 c 160.5 325.648 155.852 330.449 146.25 330.449 c 136.648
 330.449 131.926 325.648 126.523 320.102 c 120.523 313.949 113.699 307.051
 100.352 307.051 c 87 307.051 80.176 314.023 74.176 320.102 c 68.699 325.648
 64.051 330.449 54.449 330.449 c 44.852 330.449 40.125 325.648 34.727 320.102
 c 28.727 313.949 21.898 307.051 8.551 307.051 c 6.074 307.051 4.051 309.074
 4.051 311.551 c 4.051 314.023 6.074 316.051 8.551 316.051 c 18.148 316.051
 22.875 320.852 28.273 326.398 c 34.273 332.551 41.102 339.449 54.449 339.449
 c 67.801 339.449 74.625 332.477 80.625 326.398 c 86.102 320.852 90.75 316.051
 100.352 316.051 c 109.949 316.051 114.676 320.852 120.074 326.398 c 126.074
 332.551 132.898 339.449 146.25 339.449 c 159.602 339.449 166.426 332.477
 172.426 326.398 c 177.898 320.852 182.551 316.051 192.148 316.051 c 201.75
 316.051 206.477 320.852 211.875 326.398 c 217.875 332.551 224.699 339.449
 238.051 339.449 c 251.398 339.449 258.227 332.477 264.227 326.398 c 269.699
 320.852 274.352 316.051 283.949 316.051 c 293.551 316.051 298.273 320.852
 303.676 326.398 c 309.676 332.551 316.5 339.449 329.852 339.449 c 343.199
 339.449 350.023 332.477 356.023 326.398 c 361.5 320.852 366.148 316.051
 375.75 316.051 c 378.227 316.051 380.25 314.023 380.25 311.551 c 380.25
 309.074 378.227 307.051 375.75 307.051 c h
375.75 307.051 m f
375.75 338.926 m 362.398 338.926 355.574 345.898 349.574 351.977 c 344.102
 357.523 339.449 362.324 329.852 362.324 c 320.25 362.324 315.523 357.523
 310.125 351.977 c 304.125 345.824 297.301 338.926 283.949 338.926 c 270.602
 338.926 263.773 345.898 257.773 351.977 c 252.301 357.523 247.648 362.324
 238.051 362.324 c 228.449 362.324 223.727 357.523 218.324 351.977 c 212.324
 345.824 205.5 338.926 192.148 338.926 c 178.801 338.926 171.977 345.898
 165.977 351.977 c 160.5 357.523 155.852 362.324 146.25 362.324 c 136.648
 362.324 131.926 357.523 126.523 351.977 c 120.523 345.824 113.699 338.926
 100.352 338.926 c 87 338.926 80.176 345.898 74.176 351.977 c 68.699 357.523
 64.051 362.324 54.449 362.324 c 44.852 362.324 40.125 357.523 34.727 351.977
 c 28.727 345.824 21.898 338.926 8.551 338.926 c 6.074 338.926 4.051 340.949
 4.051 343.426 c 4.051 345.898 6.074 347.926 8.551 347.926 c 18.148 347.926
 22.875 352.727 28.273 358.273 c 34.273 364.426 41.102 371.324 54.449 371.324
 c 67.801 371.324 74.625 364.352 80.625 358.273 c 86.102 352.727 90.75 347.926
 100.352 347.926 c 109.949 347.926 114.676 352.727 120.074 358.273 c 126.074
 364.426 132.898 371.324 146.25 371.324 c 159.602 371.324 166.426 364.352
 172.426 358.273 c 177.898 352.727 182.551 347.926 192.148 347.926 c 201.75
 347.926 206.477 352.727 211.875 358.273 c 217.875 364.426 224.699 371.324
 238.051 371.324 c 251.398 371.324 258.227 364.352 264.227 358.273 c 269.699
 352.727 274.352 347.926 283.949 347.926 c 293.551 347.926 298.273 352.727
 303.676 358.273 c 309.676 364.426 316.5 371.324 329.852 371.324 c 343.199
 371.324 350.023 364.352 356.023 358.273 c 361.5 352.727 366.148 347.926
 375.75 347.926 c 378.227 347.926 380.25 345.898 380.25 343.426 c 380.25
 340.949 378.227 338.926 375.75 338.926 c h
375.75 338.926 m f
214.949 136.801 m 212.477 136.801 210.449 134.773 210.449 132.301 c 210.449
 85.199 l 210.449 82.727 212.477 80.699 214.949 80.699 c 217.426 80.699 
219.449 82.727 219.449 85.199 c 219.449 132.301 l 219.449 134.773 217.426
 136.801 214.949 136.801 c h
214.949 136.801 m f
214.949 75.523 m 212.477 75.523 210.449 73.5 210.449 71.023 c 210.449 68.477
 l 210.449 66 212.477 63.977 214.949 63.977 c 217.426 63.977 219.449 66 
219.449 68.477 c 219.449 71.023 l 219.449 73.5 217.426 75.523 214.949 75.523
 c h
214.949 75.523 m f
Q Q
showpage
%%Trailer
end
%%EOF
