%!PS-Adobe-3.0 EPSF-3.0
%%Creator: cairo 1.16.0 (https://cairographics.org)
%%CreationDate: Tue Feb  2 14:04:33 2021
%%Pages: 1
%%DocumentData: Clean7Bit
%%LanguageLevel: 2
%%BoundingBox: 3 50 381 334
%%EndComments
%%BeginProlog
50 dict begin
/q { gsave } bind def
/Q { grestore } bind def
/cm { 6 array astore concat } bind def
/w { setlinewidth } bind def
/J { setlinecap } bind def
/j { setlinejoin } bind def
/M { setmiterlimit } bind def
/d { setdash } bind def
/m { moveto } bind def
/l { lineto } bind def
/c { curveto } bind def
/h { closepath } bind def
/re { exch dup neg 3 1 roll 5 3 roll moveto 0 rlineto
      0 exch rlineto 0 rlineto closepath } bind def
/S { stroke } bind def
/f { fill } bind def
/f* { eofill } bind def
/n { newpath } bind def
/W { clip } bind def
/W* { eoclip } bind def
/BT { } bind def
/ET { } bind def
/BDC { mark 3 1 roll /BDC pdfmark } bind def
/EMC { mark /EMC pdfmark } bind def
/cairo_store_point { /cairo_point_y exch def /cairo_point_x exch def } def
/Tj { show currentpoint cairo_store_point } bind def
/TJ {
  {
    dup
    type /stringtype eq
    { show } { -0.001 mul 0 cairo_font_matrix dtransform rmoveto } ifelse
  } forall
  currentpoint cairo_store_point
} bind def
/cairo_selectfont { cairo_font_matrix aload pop pop pop 0 0 6 array astore
    cairo_font exch selectfont cairo_point_x cairo_point_y moveto } bind def
/Tf { pop /cairo_font exch def /cairo_font_matrix where
      { pop cairo_selectfont } if } bind def
/Td { matrix translate cairo_font_matrix matrix concatmatrix dup
      /cairo_font_matrix exch def dup 4 get exch 5 get cairo_store_point
      /cairo_font where { pop cairo_selectfont } if } bind def
/Tm { 2 copy 8 2 roll 6 array astore /cairo_font_matrix exch def
      cairo_store_point /cairo_font where { pop cairo_selectfont } if } bind def
/g { setgray } bind def
/rg { setrgbcolor } bind def
/d1 { setcachedevice } bind def
/cairo_data_source {
  CairoDataIndex CairoData length lt
    { CairoData CairoDataIndex get /CairoDataIndex CairoDataIndex 1 add def }
    { () } ifelse
} def
/cairo_flush_ascii85_file { cairo_ascii85_file status { cairo_ascii85_file flushfile } if } def
/cairo_image { image cairo_flush_ascii85_file } def
/cairo_imagemask { imagemask cairo_flush_ascii85_file } def
%%EndProlog
%%BeginSetup
%%EndSetup
%%Page: 1 1
%%BeginPageSetup
%%PageBoundingBox: 3 50 381 334
%%EndPageSetup
q 3 50 378 284 rectclip
1 0 0 -1 0 384 cm q
0.94902 0.803922 0.427451 rg
268.125 289.199 107.625 40.199 re f
0.968627 0.913725 0.513726 rg
362.852 269.102 m 375.75 289.199 l 268.125 289.199 l 281.023 269.102 l 
h
362.852 269.102 m f
0.94902 0.803922 0.427451 rg
203.102 223.125 107.699 40.199 re f
0.968627 0.913725 0.513726 rg
297.898 203.023 m 310.801 223.125 l 203.102 223.125 l 216.074 203.023 l
 h
297.898 203.023 m f
0.94902 0.803922 0.427451 rg
138.148 289.199 107.703 40.199 re f
138.148 158.324 107.703 39.449 re f
0.968627 0.913725 0.513726 rg
232.875 138.227 m 245.852 158.324 l 138.148 158.324 l 151.051 138.227 l
 h
232.875 138.227 m f
232.875 269.102 m 245.852 289.199 l 138.148 289.199 l 151.051 269.102 l
 h
232.875 269.102 m f
0.94902 0.803922 0.427451 rg
73.199 223.125 107.699 40.199 re f
0.968627 0.913725 0.513726 rg
167.926 203.023 m 180.898 223.125 l 73.199 223.125 l 86.102 203.023 l h
167.926 203.023 m f
0.94902 0.803922 0.427451 rg
8.25 289.199 107.699 40.199 re f
0.968627 0.913725 0.513726 rg
102.977 269.102 m 115.949 289.199 l 8.25 289.199 l 21.148 269.102 l h
102.977 269.102 m f
0.847059 0.792157 0.458824 rg
281.023 269.25 m 268.125 289.5 l 291.375 289.5 l 304.273 269.25 l h
281.023 269.25 m f
216.074 203.25 m 203.102 223.5 l 226.352 223.5 l 239.324 203.25 l h
216.074 203.25 m f
0.788235 0.662745 0.380392 rg
138 289.5 23.25 39.75 re f
138 158.25 23.25 39.75 re f
0.847059 0.792157 0.458824 rg
151.051 138 m 138.148 158.25 l 161.398 158.25 l 174.301 138 l h
151.051 138 m f
151.051 269.25 m 138.148 289.5 l 161.398 289.5 l 174.301 269.25 l h
151.051 269.25 m f
0.788235 0.662745 0.380392 rg
73.5 223.5 23.25 39.75 re f
267.75 289.5 23.25 39.75 re f
203.25 223.5 23.25 39.75 re f
8.25 289.5 23.25 39.75 re f
0.847059 0.792157 0.458824 rg
86.102 203.25 m 73.199 223.5 l 96.449 223.5 l 109.352 203.25 l h
86.102 203.25 m f
21.148 269.25 m 8.25 289.5 l 31.5 289.5 l 44.398 269.25 l h
21.148 269.25 m f
0.156863 0.258824 0.407843 rg
379.5 286.727 m 366.602 266.625 l 365.773 265.352 364.352 264.523 362.852
 264.523 c 315.148 264.523 l 315.301 223.125 l 315.301 222.227 315.074 221.398
 314.551 220.727 c 301.648 200.625 l 300.824 199.352 299.398 198.523 297.898
 198.523 c 250.273 198.523 l 250.352 158.324 l 250.352 157.426 250.125 156.602
 249.602 155.926 c 236.699 135.824 l 235.875 134.551 234.449 133.727 232.949
 133.727 c 151.051 133.727 l 149.551 133.727 148.125 134.477 147.301 135.824
 c 134.398 155.926 l 133.949 156.676 133.648 157.5 133.648 158.324 c 133.727
 198.523 l 86.102 198.523 l 84.602 198.523 83.176 199.273 82.352 200.625
 c 69.449 220.727 l 69 221.477 68.699 222.301 68.699 223.125 c 68.852 264.523
 l 21.148 264.523 l 19.648 264.523 18.227 265.273 17.398 266.625 c 4.5 286.727
 l 4.051 287.477 3.75 288.301 3.75 289.125 c 3.75 329.324 l 3.75 331.801
 5.773 333.824 8.25 333.824 c 115.949 333.824 l 118.426 333.824 120.449 
331.801 120.449 329.324 c 120.449 289.125 l 120.449 288.227 120.227 287.398
 119.699 286.727 c 107.551 267.824 l 146.551 267.824 l 134.398 286.727 l
 133.949 287.477 133.648 288.301 133.648 289.125 c 133.648 329.324 l 133.648
 331.801 135.676 333.824 138.148 333.824 c 245.852 333.824 l 248.324 333.824
 250.352 331.801 250.352 329.324 c 250.352 289.125 l 250.352 288.227 250.125
 287.398 249.602 286.727 c 237.449 267.824 l 276.449 267.824 l 264.301 286.727
 l 263.852 287.477 263.551 288.301 263.551 289.125 c 263.551 329.324 l 263.551
 331.801 265.574 333.824 268.051 333.824 c 375.75 333.824 l 378.227 333.824
 380.25 331.801 380.25 329.324 c 380.25 289.125 l 380.25 288.301 380.023
 287.477 379.5 286.727 c h
295.426 207.523 m 302.551 218.625 l 211.352 218.625 l 218.477 207.523 l
 h
153.523 142.727 m 230.477 142.727 l 237.602 153.824 l 146.398 153.824 l
 h
142.648 162.824 m 241.352 162.824 l 241.352 193.273 l 142.648 193.273 l
 h
198.824 264.602 m 185.25 264.602 l 185.398 223.199 l 185.398 222.301 185.176
 221.477 184.648 220.801 c 172.875 202.426 l 211.199 202.426 l 199.426 220.801
 l 198.977 221.551 198.676 222.375 198.676 223.199 c h
88.574 207.523 m 165.449 207.523 l 172.574 218.625 l 81.449 218.625 l h
111.449 324.898 m 12.75 324.898 l 12.75 293.699 l 111.449 293.699 l h
107.699 284.699 m 16.5 284.699 l 23.625 273.602 l 100.5 273.602 l h
77.699 258.824 m 77.699 227.625 l 176.398 227.625 l 176.398 258.824 l h
241.352 324.898 m 142.648 324.898 l 142.648 293.699 l 241.352 293.699 l
 h
237.602 284.699 m 146.398 284.699 l 153.523 273.602 l 230.477 273.602 l
 h
207.602 258.824 m 207.602 227.625 l 306.301 227.625 l 306.301 258.824 l
 h
283.426 273.602 m 360.375 273.602 l 367.5 284.699 l 276.301 284.699 l h
371.25 324.898 m 272.551 324.898 l 272.551 293.699 l 371.25 293.699 l h
371.25 324.898 m f
192 85.801 m 194.477 85.801 196.5 83.773 196.5 81.301 c 196.5 54.602 l 
196.5 52.125 194.477 50.102 192 50.102 c 189.523 50.102 187.5 52.125 187.5
 54.602 c 187.5 81.227 l 187.5 83.773 189.523 85.801 192 85.801 c h
192 85.801 m f
287.852 181.648 m 287.852 184.125 289.875 186.148 292.352 186.148 c 318.977
 186.148 l 321.449 186.148 323.477 184.125 323.477 181.648 c 323.477 179.176
 321.449 177.148 318.977 177.148 c 292.352 177.148 l 289.875 177.148 287.852
 179.176 287.852 181.648 c h
287.852 181.648 m f
64.949 186.148 m 91.574 186.148 l 94.051 186.148 96.074 184.125 96.074 
181.648 c 96.074 179.176 94.051 177.148 91.574 177.148 c 64.949 177.148 
l 62.477 177.148 60.449 179.176 60.449 181.648 c 60.449 184.125 62.477 186.148
 64.949 186.148 c h
64.949 186.148 m f
264.898 113.25 m 266.023 113.25 267.227 112.801 268.051 111.898 c 288.824
 91.125 l 290.551 89.398 290.551 86.551 288.824 84.75 c 287.102 83.023 284.25
 83.023 282.449 84.75 c 261.75 105.602 l 260.023 107.324 260.023 110.176
 261.75 111.977 c 262.648 112.801 263.773 113.25 264.898 113.25 c h
264.898 113.25 m f
115.875 111.898 m 116.773 112.801 117.898 113.25 119.023 113.25 c 120.148
 113.25 121.352 112.801 122.176 111.898 c 123.898 110.176 123.898 107.324
 122.176 105.523 c 101.477 84.75 l 99.75 83.023 96.898 83.023 95.102 84.75
 c 93.375 86.477 93.375 89.324 95.102 91.125 c h
115.875 111.898 m f
206.398 171 m 169.051 171 l 166.574 171 164.551 173.023 164.551 175.5 c
 164.551 177.977 166.574 180 169.051 180 c 206.398 180 l 208.875 180 210.898
 177.977 210.898 175.5 c 210.898 173.023 208.875 171 206.398 171 c h
206.398 171 m f
154.875 171 m 152.324 171 l 149.852 171 147.824 173.023 147.824 175.5 c
 147.824 177.977 149.852 180 152.324 180 c 154.875 180 l 157.352 180 159.375
 177.977 159.375 175.5 c 159.375 173.023 157.352 171 154.875 171 c h
154.875 171 m f
Q Q
showpage
%%Trailer
end
%%EOF
