%!PS-Adobe-3.0 EPSF-3.0
%%Creator: cairo 1.16.0 (https://cairographics.org)
%%CreationDate: Tue Feb  2 14:04:36 2021
%%Pages: 1
%%DocumentData: Clean7Bit
%%LanguageLevel: 2
%%BoundingBox: 84 3 300 381
%%EndComments
%%BeginProlog
50 dict begin
/q { gsave } bind def
/Q { grestore } bind def
/cm { 6 array astore concat } bind def
/w { setlinewidth } bind def
/J { setlinecap } bind def
/j { setlinejoin } bind def
/M { setmiterlimit } bind def
/d { setdash } bind def
/m { moveto } bind def
/l { lineto } bind def
/c { curveto } bind def
/h { closepath } bind def
/re { exch dup neg 3 1 roll 5 3 roll moveto 0 rlineto
      0 exch rlineto 0 rlineto closepath } bind def
/S { stroke } bind def
/f { fill } bind def
/f* { eofill } bind def
/n { newpath } bind def
/W { clip } bind def
/W* { eoclip } bind def
/BT { } bind def
/ET { } bind def
/BDC { mark 3 1 roll /BDC pdfmark } bind def
/EMC { mark /EMC pdfmark } bind def
/cairo_store_point { /cairo_point_y exch def /cairo_point_x exch def } def
/Tj { show currentpoint cairo_store_point } bind def
/TJ {
  {
    dup
    type /stringtype eq
    { show } { -0.001 mul 0 cairo_font_matrix dtransform rmoveto } ifelse
  } forall
  currentpoint cairo_store_point
} bind def
/cairo_selectfont { cairo_font_matrix aload pop pop pop 0 0 6 array astore
    cairo_font exch selectfont cairo_point_x cairo_point_y moveto } bind def
/Tf { pop /cairo_font exch def /cairo_font_matrix where
      { pop cairo_selectfont } if } bind def
/Td { matrix translate cairo_font_matrix matrix concatmatrix dup
      /cairo_font_matrix exch def dup 4 get exch 5 get cairo_store_point
      /cairo_font where { pop cairo_selectfont } if } bind def
/Tm { 2 copy 8 2 roll 6 array astore /cairo_font_matrix exch def
      cairo_store_point /cairo_font where { pop cairo_selectfont } if } bind def
/g { setgray } bind def
/rg { setrgbcolor } bind def
/d1 { setcachedevice } bind def
/cairo_data_source {
  CairoDataIndex CairoData length lt
    { CairoData CairoDataIndex get /CairoDataIndex CairoDataIndex 1 add def }
    { () } ifelse
} def
/cairo_flush_ascii85_file { cairo_ascii85_file status { cairo_ascii85_file flushfile } if } def
/cairo_image { image cairo_flush_ascii85_file } def
/cairo_imagemask { imagemask cairo_flush_ascii85_file } def
%%EndProlog
%%BeginSetup
%%EndSetup
%%Page: 1 1
%%BeginPageSetup
%%PageBoundingBox: 84 3 300 381
%%EndPageSetup
q 84 3 216 378 rectclip
1 0 0 -1 0 384 cm q
0.419608 0.396078 0.372549 rg
279.234 351.75 m 104.766 351.75 l 96.391 351.75 89.25 358.266 89.25 366.645
 c 89.25 375.75 l 294.75 375.75 l 294.75 366.645 l 294.75 358.266 287.609
 351.75 279.234 351.75 c h
279.234 351.75 m f
0.32549 0.847059 0.847059 rg
257.25 126.75 m 126.75 126.75 l 103.5 258.75 l 280.5 258.75 l h
257.25 126.75 m f
0.564706 0.54902 0.521569 rg
264.652 319.879 m 262.492 313.852 256.805 309.812 250.402 309.754 c 133.598
 309.754 l 127.195 309.812 121.508 313.852 119.348 319.879 c 107.805 351.75
 l 276.195 351.75 l h
264.652 319.879 m f
0.419608 0.396078 0.372549 rg
227.273 102 m 156.727 102 l 126.391 126.75 l 257.609 126.75 l h
227.273 102 m f
0.298039 0.282353 0.266667 rg
244.336 285.488 m 244.336 309.758 l 139.664 309.758 l 139.664 284.73 l 
244.336 284.73 l h
244.336 285.488 m f
0.564706 0.54902 0.521569 rg
153.75 63 76.5 20.25 re f
0.298039 0.282353 0.266667 rg
221.391 101.551 m 221.391 102.031 l 162.609 102.031 l 162.609 82.965 l 
221.391 82.965 l h
221.391 101.551 m f
0.419608 0.396078 0.372549 rg
103.637 258.75 m 133.973 285 l 249.945 285 l 280.363 258.75 l h
103.637 258.75 m f
0.690196 0.709804 0.792157 rg
192 222.383 m 205.328 222.383 l 205.328 258.562 l 179.109 258.562 l 179.109
 222.383 l h
192 222.383 m f
0.905882 0.317647 0.388235 rg
204.27 187.852 m 192.141 172.254 l 179.844 187.996 l 174.996 194.141 175.484
 202.93 180.984 208.5 c 183.695 211.309 187.414 212.926 191.316 213 c 192.328
 213 l 196.324 212.914 200.121 211.25 202.891 208.371 c 208.445 202.852 
209.035 194.066 204.27 187.852 c h
204.27 187.852 m f
0.917647 0.87451 0.32549 rg
192 212.934 m 191.82 212.934 l 191.656 212.934 191.484 212.934 191.316 
212.926 c 189.594 212.809 187.969 212.066 186.75 210.84 c 184.176 208.242
 183.945 204.133 186.211 201.262 c 191.969 193.891 l 197.648 201.195 l 199.27
 203.336 199.586 206.195 198.477 208.641 c 197.367 211.09 195.008 212.73
 192.328 212.926 c 192.219 212.926 192.113 212.934 192 212.934 c h
192 212.934 m f
0.447059 0.431373 0.411765 rg
156.098 309.75 m 133.598 309.75 l 127.195 309.809 121.508 313.848 119.348
 319.875 c 107.805 351.75 l 130.305 351.75 l 141.848 319.879 l 144.008 313.852
 149.695 309.809 156.098 309.75 c h
156.098 309.75 m f
0.317647 0.301961 0.290196 rg
156.727 102 m 126.391 126.75 l 148.891 126.75 l 179.227 102 l h
156.727 102 m f
127.266 351.75 m 104.766 351.75 l 96.391 351.75 89.25 358.266 89.25 366.645
 c 89.25 375.75 l 111.75 375.75 l 111.75 366.645 l 111.75 358.266 118.891
 351.75 127.266 351.75 c h
127.266 351.75 m f
0.447059 0.431373 0.411765 rg
153.75 63 22.5 20.25 re f
0.286275 0.698039 0.686275 rg
126.75 126.75 m 103.5 258.75 l 126 258.75 l 149.25 126.75 l h
126.75 126.75 m f
0.376471 0.364706 0.352941 rg
139.5 285 22.5 24.75 re f
162.75 83.25 22.5 18.75 re f
0.317647 0.301961 0.290196 rg
103.637 258.75 m 133.973 285 l 156.473 285 l 126.137 258.75 l h
103.637 258.75 m f
0.156863 0.258824 0.407843 rg
279.523 346.98 m 268.973 318.203 l 266.094 310.43 258.688 305.266 250.398
 305.25 c 249 305.25 l 249 289.5 l 250.027 289.5 l 251.121 289.449 252.16
 289.016 252.965 288.273 c 283.305 262.035 l 284.496 261.062 285.07 259.523
 284.801 258.012 c 267.836 159.75 l 282.262 159.75 l 284.746 159.75 286.5
 157.371 286.5 154.887 c 286.5 98.512 l 286.5 46.262 244.254 3.75 192 3.75
 c 139.746 3.75 97.5 46.262 97.5 98.512 c 97.5 154.887 l 97.5 157.371 99.25
 159.75 101.738 159.75 c 116.164 159.75 l 99.199 257.977 l 98.93 259.508
 99.5 261.062 100.695 262.059 c 131.035 288.316 l 131.844 289.047 132.883
 289.465 133.973 289.5 c 135 289.5 l 135 305.25 l 133.602 305.25 l 125.336
 305.27 117.957 310.438 115.117 318.203 c 104.477 346.977 l 93.629 347.043
 84.844 355.805 84.75 366.648 c 84.75 375.75 l 84.75 378.234 87.117 380.25
 89.602 380.25 c 294.398 380.25 l 296.883 380.25 299.25 378.234 299.25 375.75
 c 299.25 366.648 l 299.156 355.805 290.371 347.043 279.523 346.98 c h
106.5 150.75 m 106.5 98.512 l 106.5 51.227 144.711 12.75 192 12.75 c 239.289
 12.75 277.5 51.227 277.5 98.512 c 277.5 150.75 l 266.281 150.75 l 262.051
 125.996 l 261.867 124.895 261.297 123.895 260.445 123.172 c 230.102 98.562
 l 229.305 97.898 228.309 97.523 227.27 97.5 c 225.75 97.5 l 225.75 87.75
 l 230.496 87.75 l 232.98 87.75 234.75 85.449 234.75 82.965 c 234.75 63.242
 l 234.75 60.758 232.98 58.5 230.496 58.5 c 153.504 58.5 l 151.02 58.5 149.25
 60.758 149.25 63.242 c 149.25 82.969 l 149.25 85.453 151.02 87.754 153.504
 87.754 c 158.25 87.754 l 158.25 97.504 l 156.73 97.504 l 155.695 97.508
 154.699 97.867 153.898 98.52 c 123.559 123.074 l 122.703 123.832 122.137
 124.863 121.953 125.992 c 117.719 150.75 l h
158.25 78.75 m 158.25 67.5 l 225.75 67.5 l 225.75 78.75 l h
216.75 87.75 m 216.75 97.5 l 167.25 97.5 l 167.25 87.75 l h
158.324 106.5 m 225.676 106.5 l 244.895 122.25 l 139.105 122.25 l h
130.184 131.25 m 253.82 131.25 l 275.023 254.25 l 210 254.25 l 210 222.387
 l 210 219.902 207.812 218.25 205.328 218.25 c 196.5 218.25 l 196.5 216.883
 l 200.125 216.02 203.441 214.16 206.07 211.52 c 213.219 204.402 213.969
 193.09 207.824 185.094 c 195.699 169.617 l 194.832 168.551 193.52 167.953
 192.148 168 c 192.145 168 l 190.777 167.953 189.465 168.547 188.598 169.605
 c 176.293 185.285 l 170.059 193.199 170.707 204.52 177.801 211.676 c 180.461
 214.332 183.828 216.168 187.5 216.965 c 187.5 218.25 l 179.109 218.25 l
 176.625 218.25 174.75 219.898 174.75 222.387 c 174.75 254.25 l 108.977 
254.25 l h
191.98 189.75 m 191.977 189.75 l 190.617 189.684 189.305 190.254 188.43
 191.301 c 182.672 198.578 l 182.184 199.188 181.762 199.844 181.41 200.539
 c 180.5 197.152 181.23 193.531 183.387 190.766 c 192.137 179.574 l 200.719
 190.617 l 202.887 193.43 203.547 197.125 202.488 200.516 c 202.137 199.777
 201.707 199.078 201.207 198.43 c 195.527 191.305 l 194.656 190.258 193.34
 189.684 191.98 189.75 c h
193.824 207.602 m 191.438 210.145 187.547 206.727 189.762 204.031 c 191.965
 201.211 l 194.098 203.953 l 194.938 205.066 194.816 206.629 193.824 207.602
 c h
201 227.25 m 201 254.25 l 183.75 254.25 l 183.75 227.25 l h
115.742 263.25 m 268.258 263.25 l 248.352 280.5 l 135.645 280.5 l h
240 289.5 m 240 305.25 l 144 305.25 l 144 289.5 l h
123.574 321.414 m 125.098 317.172 129.094 314.32 133.602 314.25 c 250.398
 314.25 l 254.906 314.32 258.902 317.172 260.426 321.414 c 269.77 347.25
 l 114.23 347.25 l h
290.25 371.25 m 93.75 371.25 l 93.75 366.648 l 93.75 360.766 98.887 356.25
 104.77 356.25 c 279.23 356.25 l 285.113 356.25 290.25 360.766 290.25 366.648
 c h
290.25 371.25 m f
142.176 148.508 m 139.723 148.117 137.414 149.789 137.023 152.242 c 136.777
 153.77 l 136.387 156.223 138.059 158.531 140.516 158.922 c 142.969 159.312
 145.277 157.641 145.668 155.188 c 145.91 153.66 l 146.301 151.207 144.629
 148.898 142.176 148.508 c h
142.176 148.508 m f
139.773 163.586 m 137.316 163.191 135.012 164.867 134.621 167.32 c 125.512
 224.48 l 125.121 226.934 126.793 229.242 129.246 229.633 c 129.48 229.672
 129.719 229.691 129.961 229.691 c 132.168 229.688 134.051 228.082 134.398
 225.898 c 143.512 168.738 l 143.902 166.281 142.23 163.973 139.773 163.586
 c h
139.773 163.586 m f
Q Q
showpage
%%Trailer
end
%%EOF
