%!PS-Adobe-3.0 EPSF-3.0
%%Creator: cairo 1.16.0 (https://cairographics.org)
%%CreationDate: Tue Feb  2 14:04:38 2021
%%Pages: 1
%%DocumentData: Clean7Bit
%%LanguageLevel: 2
%%BoundingBox: 39 3 346 381
%%EndComments
%%BeginProlog
50 dict begin
/q { gsave } bind def
/Q { grestore } bind def
/cm { 6 array astore concat } bind def
/w { setlinewidth } bind def
/J { setlinecap } bind def
/j { setlinejoin } bind def
/M { setmiterlimit } bind def
/d { setdash } bind def
/m { moveto } bind def
/l { lineto } bind def
/c { curveto } bind def
/h { closepath } bind def
/re { exch dup neg 3 1 roll 5 3 roll moveto 0 rlineto
      0 exch rlineto 0 rlineto closepath } bind def
/S { stroke } bind def
/f { fill } bind def
/f* { eofill } bind def
/n { newpath } bind def
/W { clip } bind def
/W* { eoclip } bind def
/BT { } bind def
/ET { } bind def
/BDC { mark 3 1 roll /BDC pdfmark } bind def
/EMC { mark /EMC pdfmark } bind def
/cairo_store_point { /cairo_point_y exch def /cairo_point_x exch def } def
/Tj { show currentpoint cairo_store_point } bind def
/TJ {
  {
    dup
    type /stringtype eq
    { show } { -0.001 mul 0 cairo_font_matrix dtransform rmoveto } ifelse
  } forall
  currentpoint cairo_store_point
} bind def
/cairo_selectfont { cairo_font_matrix aload pop pop pop 0 0 6 array astore
    cairo_font exch selectfont cairo_point_x cairo_point_y moveto } bind def
/Tf { pop /cairo_font exch def /cairo_font_matrix where
      { pop cairo_selectfont } if } bind def
/Td { matrix translate cairo_font_matrix matrix concatmatrix dup
      /cairo_font_matrix exch def dup 4 get exch 5 get cairo_store_point
      /cairo_font where { pop cairo_selectfont } if } bind def
/Tm { 2 copy 8 2 roll 6 array astore /cairo_font_matrix exch def
      cairo_store_point /cairo_font where { pop cairo_selectfont } if } bind def
/g { setgray } bind def
/rg { setrgbcolor } bind def
/d1 { setcachedevice } bind def
/cairo_data_source {
  CairoDataIndex CairoData length lt
    { CairoData CairoDataIndex get /CairoDataIndex CairoDataIndex 1 add def }
    { () } ifelse
} def
/cairo_flush_ascii85_file { cairo_ascii85_file status { cairo_ascii85_file flushfile } if } def
/cairo_image { image cairo_flush_ascii85_file } def
/cairo_imagemask { imagemask cairo_flush_ascii85_file } def
%%EndProlog
%%BeginSetup
%%EndSetup
%%Page: 1 1
%%BeginPageSetup
%%PageBoundingBox: 39 3 346 381
%%EndPageSetup
q 39 3 307 378 rectclip
1 0 0 -1 0 384 cm q
0.839216 0.811765 0.807843 rg
144.75 237.75 m 145.125 237.75 l 145 237.742 144.875 237.73 144.75 237.727
 c h
144.75 237.75 m f
321 355.688 m 321 274.5 l 321 254.184 304.238 237.75 283.922 237.75 c 145.125
 237.75 l 162.195 238.543 175.5 252.734 175.5 270.129 c 175.5 338.887 l 
175.582 359.258 192.105 375.73 212.477 375.75 c 339.188 375.75 l 328.844
 375 321 366.234 321 355.688 c h
321 355.688 m f
0.776471 0.745098 0.733333 rg
196.273 44.258 m 185.348 44.258 185.285 36.891 174.355 36.891 c 163.43 
36.891 163.406 44.258 152.477 44.258 c 141.547 44.258 141.539 36.891 130.621
 36.891 c 119.699 36.891 119.688 44.258 108.766 44.258 c 97.844 44.258 97.836
 36.891 86.914 36.891 c 75.992 36.891 76.133 44.258 65.211 44.258 c 54.289
 44.258 54 36.891 43.5 36.891 c 43.5 286.688 l 43.438 295.637 46.949 304.238
 53.258 310.586 c 59.566 316.934 68.145 320.5 77.094 320.488 c 78.258 320.488
 79.465 320.43 80.598 320.316 c 97.852 318.551 110.977 304.031 111 286.688
 c 111 270.129 l 110.961 261.535 114.348 253.281 120.418 247.199 c 126.543
 241.105 134.836 237.691 143.477 237.703 c 143.859 237.703 144 237.711 144.75
 237.727 c 144.75 237.75 l 218.25 237.75 l 218.25 36.891 l 207 36.891 207.195
 44.258 196.273 44.258 c h
196.273 44.258 m f
0.6 0.568627 0.560784 rg
175.68 270.129 m 175.68 320.332 l 80.477 320.332 l 80.477 320.316 l 97.719
 318.547 110.828 304.02 110.828 286.688 c 110.828 270.129 l 110.832 252.219
 125.352 237.707 143.258 237.703 c 143.641 237.703 144.023 237.711 144.406
 237.727 c 161.852 238.348 175.68 252.668 175.68 270.129 c h
175.68 270.129 m f
0.298039 0.662745 0.529412 rg
282.203 35.363 m 269.754 63.945 l 253.156 52.434 l 238.113 65.238 226.137
 81.254 218.105 99.301 c 205.23 128.254 201.867 160.547 208.5 191.535 c 
208.5 191.527 l 216.633 198.496 l 216.504 198.781 l 216.566 198.801 l 217.039
 198.719 217.516 198.629 217.98 198.531 c 280.602 186.398 328.141 134.297
 333.309 70.254 c 338.105 8.25 l h
282.203 35.363 m f
0.690196 0.709804 0.792157 rg
311.137 46.266 m 308.672 44.664 305.375 45.328 303.723 47.762 c 191.336
 217.621 l 190.5 218.898 190.215 220.461 190.535 221.957 c 190.859 223.449
 191.766 224.75 193.055 225.574 c 194.344 226.395 195.906 226.664 197.398
 226.328 c 198.891 225.988 200.184 225.066 200.988 223.77 c 312.625 53.574
 l 314.23 51.145 313.566 47.875 311.137 46.266 c h
311.137 46.266 m f
0.427451 0.454902 0.52549 rg
188.184 125.934 m 188.184 142.664 180.293 156.457 167.852 166.094 c 162.469
 170.211 159.16 176.48 158.797 183.246 c 158.301 193.727 l 157.715 205.918
 147.656 215.504 135.449 215.504 c 125.863 215.504 l 113.551 215.504 103.449
 205.754 103.012 193.449 c 102.645 183.219 l 102.367 176.461 99.082 170.18
 93.691 166.094 c 81.129 156.457 72.879 142.664 72.879 125.934 c 72.879 
95.684 98.684 71.168 130.531 71.168 c 162.375 71.168 188.184 95.684 188.184
 125.934 c h
188.184 125.934 m f
0.717647 0.701961 0.701961 rg
198 338.887 m 198 270.129 l 198 252.734 184.695 238.543 167.625 237.75 
c 145.125 237.75 l 162.195 238.543 175.5 252.734 175.5 270.129 c 175.5 338.887
 l 175.582 359.258 192.105 375.73 212.477 375.75 c 234.977 375.75 l 214.605
 375.73 198.082 359.258 198 338.887 c h
198 338.887 m f
0.639216 0.611765 0.6 rg
75.762 310.59 m 69.453 304.242 65.941 295.637 66 286.688 c 66 44.242 l 
65.742 44.25 65.484 44.258 65.211 44.258 c 54.285 44.258 54 36.891 43.5 
36.891 c 43.5 286.688 l 43.438 295.637 46.949 304.238 53.258 310.586 c 59.566
 316.934 68.145 320.5 77.094 320.488 c 78.258 320.488 79.465 320.43 80.598
 320.316 c 83.254 320.047 85.875 319.461 88.395 318.574 c 83.641 316.887
 79.324 314.16 75.762 310.59 c h
75.762 310.59 m f
0.345098 0.368627 0.419608 rg
125.512 193.449 m 125.145 183.219 l 124.867 176.461 121.582 170.18 116.191
 166.094 c 103.629 156.457 95.379 142.664 95.379 125.934 c 95.379 99.344
 115.324 77.188 141.777 72.219 c 138.07 71.52 134.305 71.168 130.527 71.168
 c 98.684 71.168 72.875 95.684 72.875 125.934 c 72.875 142.664 81.125 156.457
 93.688 166.094 c 99.082 170.18 102.367 176.461 102.645 183.219 c 103.012
 193.32 l 103.461 205.602 113.574 215.309 125.863 215.25 c 135.449 215.25
 l 137.629 215.293 139.805 215.023 141.91 214.449 c 132.48 211.723 125.867
 203.254 125.512 193.449 c h
125.512 193.449 m f
0.321569 0.345098 0.4 rg
155.828 114.293 m 156.066 114.293 l 161.605 114.293 166.066 118.75 166.066
 124.289 c 166.066 124.523 l 166.066 130.062 161.605 134.52 156.066 134.52
 c 155.828 134.52 l 150.289 134.52 145.828 130.062 145.828 124.523 c 145.828
 124.289 l 145.828 118.75 150.289 114.293 155.828 114.293 c h
155.828 114.293 m f
137.16 152.145 m 138.363 154.461 138.27 157.234 136.914 159.465 c 135.559
 161.695 133.141 163.055 130.531 163.055 c 127.922 163.055 125.5 161.695
 124.145 159.465 c 122.793 157.234 122.699 154.461 123.898 152.145 c 126.652
 146.789 l 128.277 143.641 132.781 143.641 134.406 146.789 c h
137.16 152.145 m f
115.223 124.289 m 115.223 124.523 l 115.223 127.176 114.172 129.719 112.297
 131.594 c 110.422 133.469 107.875 134.52 105.227 134.52 c 104.992 134.52
 l 99.473 134.52 94.996 130.043 94.996 124.523 c 94.996 124.289 l 94.996
 121.637 96.047 119.094 97.922 117.219 c 99.797 115.344 102.34 114.293 104.992
 114.293 c 105.227 114.293 l 107.879 114.289 110.422 115.344 112.297 117.219
 c 114.172 119.094 115.223 121.637 115.223 124.289 c h
115.223 124.289 m f
0.156863 0.258824 0.407843 rg
340.777 371.25 m 339.312 371.25 l 331.375 370.422 325.379 363.668 325.5
 355.688 c 325.5 274.5 l 325.5 251.73 306.688 233.25 283.918 233.25 c 222.75
 233.25 l 222.75 202.133 l 285.641 188.184 332.617 134.852 337.801 70.602
 c 342.602 8.598 l 342.867 5.133 339.277 2.684 336.148 4.199 c 280.242 31.312
 l 279.277 31.781 278.508 32.578 278.082 33.562 c 267.82 57.121 l 255.723
 48.734 l 254.047 47.574 251.801 47.684 250.246 49 c 239.441 58.195 230.164
 69.039 222.75 81.137 c 222.75 36.895 l 222.691 34.387 220.633 32.387 218.121
 32.395 c 211.285 32.395 207.562 34.859 204.621 36.844 c 202.113 38.531 
200.266 39.754 196.18 39.754 c 192.09 39.754 190.262 38.531 187.75 36.844
 c 184.809 34.859 181.141 32.395 174.305 32.395 c 167.465 32.395 163.805
 34.859 160.863 36.844 c 158.352 38.531 156.539 39.754 152.453 39.754 c 
148.363 39.754 146.551 38.531 144.043 36.844 c 141.102 34.859 137.441 32.395
 130.605 32.395 c 123.77 32.395 120.105 34.859 117.168 36.844 c 114.656 
38.531 112.844 39.754 108.758 39.754 c 104.672 39.754 102.859 38.531 100.348
 36.844 c 97.406 34.859 93.75 32.395 86.914 32.395 c 80.074 32.395 76.418
 34.863 73.477 36.844 c 70.969 38.531 69.156 39.754 65.07 39.754 c 60.984
 39.754 59.172 38.531 56.664 36.844 c 53.723 34.863 50.199 32.395 43.363
 32.395 c 40.906 32.406 38.938 34.438 39.004 36.895 c 39.004 286.688 l 38.984
 296.828 42.992 306.562 50.152 313.746 c 57.309 320.93 67.027 324.973 77.168
 324.992 c 171 324.75 l 171 338.887 l 171.105 361.73 189.633 380.207 212.477
 380.25 c 340.777 380.285 l 343.27 380.262 345.281 378.227 345.277 375.734
 c 345.273 373.25 343.258 371.242 340.777 371.25 c h
212.984 196.012 m 212.957 196.047 212.938 196.082 212.914 196.117 c 197.195
 221.395 l 196.844 221.965 196.094 222.137 195.531 221.773 c 194.969 221.414
 194.812 220.66 195.188 220.105 c 307.582 50.238 l 308.148 49.375 309.445
 50.227 308.879 51.09 c h
253.473 58.125 m 267.188 67.641 l 269.52 69.258 272.746 68.344 273.879 
65.742 c 285.664 38.684 l 333.02 15.719 l 328.828 69.895 l 324.121 128.25
 282.648 177.027 226.445 191.977 c 316.383 56.055 l 319.359 51.551 318.121
 45.488 313.621 42.512 c 309.117 39.535 303.051 40.773 300.074 45.277 c 
211.238 179.539 l 208.398 158.383 210.195 136.863 216.504 116.473 c 223.68
 93.52 236.43 73.418 253.473 58.125 c h
77.25 315.992 m 61.086 315.969 47.992 302.855 48 286.688 c 48 42.102 l 
49.355 42.656 50.621 43.398 51.77 44.309 c 54.711 46.289 58.301 48.754 65.137
 48.754 c 71.973 48.754 75.598 46.289 78.535 44.309 c 81.047 42.617 82.84
 41.395 86.926 41.395 c 91.012 41.395 92.82 42.617 95.328 44.309 c 98.27
 46.289 101.926 48.754 108.758 48.754 c 115.594 48.754 119.254 46.289 122.195
 44.309 c 124.703 42.617 126.516 41.395 130.602 41.395 c 134.691 41.395 
136.504 42.617 139.012 44.309 c 141.953 46.289 145.609 48.754 152.445 48.754
 c 159.285 48.754 162.945 46.289 165.887 44.309 c 168.395 42.617 170.207
 41.395 174.293 41.395 c 178.383 41.395 180.195 42.617 182.707 44.309 c 
185.648 46.289 189.305 48.754 196.145 48.754 c 202.98 48.754 206.77 46.289
 209.711 44.309 c 210.953 43.395 212.312 42.652 213.75 42.102 c 213.75 98.289
 l 211.516 103.34 209.566 108.516 207.914 113.785 c 200.23 138.656 198.863
 165.047 203.934 190.574 c 187.68 215.137 l 185.613 218.266 185.43 222.277
 187.199 225.582 c 188.973 228.887 192.414 230.953 196.164 230.965 c 196.945
 230.961 197.73 230.871 198.492 230.695 c 201.129 230.086 203.414 228.449
 204.836 226.148 c 213.75 211.816 l 213.75 233.25 l 143.34 233.219 l 122.977
 233.242 106.484 249.766 106.5 270.133 c 106.5 286.688 l 106.508 302.855
 93.414 315.969 77.25 315.992 c h
171 315.75 m 101.836 315.75 l 110.488 308.578 115.496 297.926 115.5 286.688
 c 115.5 270.133 l 115.5 254.805 127.926 242.383 143.25 242.383 c 158.574
 242.383 171 254.805 171 270.133 c h
212.477 371.25 m 194.598 371.211 180.102 356.766 180 338.887 c 180 270.133
 l 180.074 259.441 175.469 249.254 167.391 242.25 c 283.918 242.25 l 301.727
 242.25 316.5 256.691 316.5 274.5 c 316.5 355.688 l 316.438 361.316 318.281
 366.801 321.73 371.25 c h
212.477 371.25 m f
287.055 328.5 m 208.906 328.5 l 202.906 328.5 202.906 337.5 208.906 337.5
 c 287.055 337.5 l 293.055 337.5 293.055 328.5 287.055 328.5 c h
287.055 328.5 m f
287.055 300 m 208.906 300 l 202.906 300 202.906 309 208.906 309 c 287.055
 309 l 293.055 309 293.055 300 287.055 300 c h
287.055 300 m f
287.055 271.5 m 208.906 271.5 l 202.906 271.5 202.906 280.5 208.906 280.5
 c 287.055 280.5 l 293.055 280.5 293.055 271.5 287.055 271.5 c h
287.055 271.5 m f
135.449 219.75 m 150.043 219.824 162.098 208.387 162.793 193.809 c 163.293
 183.398 l 163.59 177.953 166.262 172.918 170.605 169.621 c 184.836 158.594
 192.676 143.082 192.676 125.918 c 192.676 93.238 164.797 66.656 130.527
 66.656 c 96.258 66.656 68.375 93.25 68.375 125.93 c 68.375 142.965 76.391
 158.496 90.949 169.66 c 95.246 172.938 97.84 177.977 98.016 183.375 c 98.25
 193.609 l 98.25 193.484 l 98.938 208.223 111.113 219.805 125.867 219.75
 c h
107.25 193.16 m 107.25 193.227 l 107.012 183.023 l 106.742 174.949 102.855
 167.422 96.426 162.523 c 87.738 155.859 77.375 144.102 77.375 125.938 c
 77.375 98.219 101.219 75.668 130.527 75.668 c 159.836 75.668 183.68 98.219
 183.68 125.938 c 183.68 144.289 173.574 155.973 165.094 162.535 c 158.672
 167.457 154.727 174.949 154.305 183.031 c 153.805 193.379 l 153.336 203.156
 145.238 210.82 135.449 210.75 c 125.863 210.75 l 115.93 210.75 108 203.094
 107.25 193.16 c h
107.25 193.16 m f
119.895 150.086 m 117.988 153.793 118.148 158.227 120.32 161.785 c 122.492
 165.348 126.359 167.52 130.527 167.52 c 134.699 167.52 138.566 165.348 
140.738 161.785 c 142.91 158.227 143.07 153.793 141.164 150.086 c 138.406
 144.734 l 136.895 141.777 133.852 139.922 130.531 139.93 c 127.211 139.922
 124.168 141.777 122.652 144.734 c 119.898 150.086 l h
127.898 154.207 m 130.527 149.094 l 133.16 154.207 l 134.176 156.176 132.746
 158.52 130.527 158.52 c 128.312 158.52 126.883 156.176 127.898 154.207 
c h
127.898 154.207 m f
120 124.254 m 120 123.996 l 120 115.992 113.508 109.5 105.504 109.5 c 105.246
 109.5 l 97.242 109.5 90.75 115.992 90.75 123.996 c 90.75 124.254 l 90.75
 128.098 92.277 131.785 94.996 134.504 c 97.715 137.223 101.402 138.75 105.246
 138.75 c 105.504 138.75 l 109.348 138.75 113.035 137.223 115.754 134.504
 c 118.473 131.785 120 128.098 120 124.254 c h
111 124.254 m 111 125.711 110.422 127.109 109.391 128.141 c 108.359 129.172
 106.961 129.75 105.504 129.75 c 105.246 129.75 l 103.789 129.75 102.391
 129.172 101.359 128.141 c 100.328 127.109 99.75 125.711 99.75 124.254 c
 99.75 123.996 l 99.75 122.539 100.328 121.141 101.359 120.109 c 102.391
 119.078 103.789 118.5 105.246 118.5 c 105.504 118.5 l 108.539 118.5 111
 120.961 111 123.996 c h
111 124.254 m f
155.496 138.75 m 155.754 138.75 l 163.758 138.75 170.25 132.258 170.25 
124.254 c 170.25 123.996 l 170.25 115.992 163.758 109.5 155.754 109.5 c 
155.496 109.5 l 147.492 109.5 141 115.992 141 123.996 c 141 124.254 l 141
 128.098 142.527 131.785 145.246 134.504 c 147.965 137.223 151.652 138.75
 155.496 138.75 c h
150 123.996 m 150 122.539 150.578 121.141 151.609 120.109 c 152.641 119.078
 154.039 118.5 155.496 118.5 c 155.754 118.5 l 157.211 118.5 158.609 119.078
 159.641 120.109 c 160.672 121.141 161.25 122.539 161.25 123.996 c 161.25
 124.254 l 161.25 127.289 158.789 129.75 155.754 129.75 c 155.496 129.75
 l 154.039 129.75 152.641 129.172 151.609 128.141 c 150.578 127.109 150 
125.711 150 124.254 c h
150 123.996 m f
120 181.297 m 117.516 181.297 115.5 183.309 115.5 185.797 c 115.5 193.074
 l 115.5 199.074 124.5 199.074 124.5 193.074 c 124.5 185.797 l 124.5 183.309
 122.484 181.297 120 181.297 c h
120 181.297 m f
141 181.297 m 138.516 181.297 136.5 183.309 136.5 185.797 c 136.5 193.074
 l 136.5 199.074 145.5 199.074 145.5 193.074 c 145.5 185.797 l 145.5 183.309
 143.484 181.297 141 181.297 c h
141 181.297 m f
130.5 181.297 m 128.016 181.297 126 183.309 126 185.797 c 126 193.074 l
 126 199.074 135 199.074 135 193.074 c 135 185.797 l 135 183.309 132.984
 181.297 130.5 181.297 c h
130.5 181.297 m f
67.5 181.297 m 65.016 181.297 63 183.309 63 185.797 c 63 187.34 l 63 193.34
 72 193.34 72 187.34 c 72 185.797 l 72 183.309 69.984 181.297 67.5 181.297
 c h
67.5 181.297 m f
67.5 196.562 m 65.016 196.562 63 198.578 63 201.062 c 63 258.945 l 63 264.945
 72 264.945 72 258.945 c 72 201.062 l 72 198.578 69.984 196.562 67.5 196.562
 c h
67.5 196.562 m f
Q Q
showpage
%%Trailer
end
%%EOF
