%!PS-Adobe-3.0 EPSF-3.0
%%Creator: cairo 1.16.0 (https://cairographics.org)
%%CreationDate: Tue Feb  2 14:04:40 2021
%%Pages: 1
%%DocumentData: Clean7Bit
%%LanguageLevel: 2
%%BoundingBox: 57 3 327 381
%%EndComments
%%BeginProlog
50 dict begin
/q { gsave } bind def
/Q { grestore } bind def
/cm { 6 array astore concat } bind def
/w { setlinewidth } bind def
/J { setlinecap } bind def
/j { setlinejoin } bind def
/M { setmiterlimit } bind def
/d { setdash } bind def
/m { moveto } bind def
/l { lineto } bind def
/c { curveto } bind def
/h { closepath } bind def
/re { exch dup neg 3 1 roll 5 3 roll moveto 0 rlineto
      0 exch rlineto 0 rlineto closepath } bind def
/S { stroke } bind def
/f { fill } bind def
/f* { eofill } bind def
/n { newpath } bind def
/W { clip } bind def
/W* { eoclip } bind def
/BT { } bind def
/ET { } bind def
/BDC { mark 3 1 roll /BDC pdfmark } bind def
/EMC { mark /EMC pdfmark } bind def
/cairo_store_point { /cairo_point_y exch def /cairo_point_x exch def } def
/Tj { show currentpoint cairo_store_point } bind def
/TJ {
  {
    dup
    type /stringtype eq
    { show } { -0.001 mul 0 cairo_font_matrix dtransform rmoveto } ifelse
  } forall
  currentpoint cairo_store_point
} bind def
/cairo_selectfont { cairo_font_matrix aload pop pop pop 0 0 6 array astore
    cairo_font exch selectfont cairo_point_x cairo_point_y moveto } bind def
/Tf { pop /cairo_font exch def /cairo_font_matrix where
      { pop cairo_selectfont } if } bind def
/Td { matrix translate cairo_font_matrix matrix concatmatrix dup
      /cairo_font_matrix exch def dup 4 get exch 5 get cairo_store_point
      /cairo_font where { pop cairo_selectfont } if } bind def
/Tm { 2 copy 8 2 roll 6 array astore /cairo_font_matrix exch def
      cairo_store_point /cairo_font where { pop cairo_selectfont } if } bind def
/g { setgray } bind def
/rg { setrgbcolor } bind def
/d1 { setcachedevice } bind def
/cairo_data_source {
  CairoDataIndex CairoData length lt
    { CairoData CairoDataIndex get /CairoDataIndex CairoDataIndex 1 add def }
    { () } ifelse
} def
/cairo_flush_ascii85_file { cairo_ascii85_file status { cairo_ascii85_file flushfile } if } def
/cairo_image { image cairo_flush_ascii85_file } def
/cairo_imagemask { imagemask cairo_flush_ascii85_file } def
%%EndProlog
%%BeginSetup
%%EndSetup
%%Page: 1 1
%%BeginPageSetup
%%PageBoundingBox: 57 3 327 381
%%EndPageSetup
q 57 3 270 378 rectclip
1 0 0 -1 0 384 cm q
0.419608 0.396078 0.372549 rg
61.5 8.25 261 367.5 re f
0.52549 0.564706 0.615686 rg
192 152.406 m 226.828 152.375 258.246 173.328 271.598 205.496 c 284.949
 237.664 277.605 274.707 252.988 299.348 c 228.371 323.988 191.336 331.367
 159.156 318.047 c 126.977 304.727 105.988 273.328 105.988 238.5 c 105.977
 215.676 115.035 193.785 131.164 177.641 c 147.293 161.492 169.176 152.418
 192 152.406 c h
192 152.406 m f
0.298039 0.662745 0.529412 rg
249.676 221.094 m 249.676 237.824 241.777 251.633 229.336 261.27 c 223.949
 265.387 220.641 271.66 220.281 278.43 c 219.781 288.906 l 219.199 301.105
 209.141 310.695 196.926 310.695 c 187.336 310.695 l 175.02 310.695 164.91
 300.945 164.469 288.637 c 164.102 278.398 l 163.824 271.637 160.539 265.355
 155.145 261.27 c 142.574 251.633 134.324 237.824 134.324 221.094 c 134.324
 190.828 160.148 166.305 192 166.305 c 223.852 166.305 249.676 190.828 249.676
 221.094 c h
249.676 221.094 m f
0.317647 0.298039 0.282353 rg
61.5 8.25 22.5 367.5 re f
0.564706 0.54902 0.521569 rg
61.828 8.25 m 86.641 72.465 l 90.551 82.59 100.289 89.258 111.141 89.25
 c 272.859 89.25 l 283.711 89.258 293.449 82.59 297.359 72.465 c 322.172
 8.25 l h
61.828 8.25 m f
0.729412 0.639216 0.47451 rg
204.797 63.18 m 192.062 52.746 l 179.352 63.18 l 165.75 52.746 l 165.75
 114.039 l 177.965 103.613 l 192.012 114.039 l 204.348 103.613 l 217.5 114.039
 l 217.5 52.746 l h
204.797 63.18 m f
0.407843 0.396078 0.372549 rg
109.141 72.465 m 84.328 8.25 l 61.828 8.25 l 86.641 72.465 l 90.551 82.59
 100.289 89.258 111.141 89.25 c 133.641 89.25 l 122.789 89.258 113.051 82.59
 109.141 72.465 c h
109.141 72.465 m f
0.239216 0.517647 0.403922 rg
186.969 288.637 m 186.602 278.398 l 186.324 271.637 183.039 265.355 177.645
 261.27 c 165.074 251.633 156.824 237.824 156.824 221.094 c 156.824 194.488
 176.785 172.324 203.25 167.355 c 199.539 166.656 195.773 166.305 192 166.305
 c 160.148 166.305 134.324 190.828 134.324 221.09 c 134.324 237.824 142.574
 251.633 155.145 261.27 c 160.543 265.352 163.828 271.637 164.102 278.398
 c 164.469 288.539 l 164.922 300.828 175.039 310.543 187.336 310.5 c 196.926
 310.5 l 199.109 310.531 201.281 310.254 203.383 309.672 c 193.945 306.938
 187.328 298.457 186.969 288.637 c h
186.969 288.637 m f
0.372549 0.803922 0.643137 rg
224.586 212.406 m 228.008 215.824 228.539 221.18 225.855 225.199 c 223.172
 229.223 218.02 230.785 213.555 228.938 c 209.086 227.086 206.547 222.34
 207.492 217.598 c 208.438 212.855 212.598 209.441 217.434 209.445 c 220.117
 209.441 222.691 210.508 224.586 212.406 c h
224.586 212.406 m f
198.637 247.312 m 199.84 249.629 199.746 252.406 198.391 254.641 c 197.035
 256.871 194.613 258.234 192 258.234 c 189.387 258.234 186.965 256.871 185.609
 254.641 c 184.254 252.406 184.16 249.629 185.363 247.312 c 188.121 241.957
 l 189.75 238.809 194.25 238.809 195.879 241.957 c h
198.637 247.312 m f
173.73 212.406 m 177.148 215.824 177.68 221.18 175 225.199 c 172.316 229.219
 167.164 230.785 162.699 228.938 c 158.23 227.09 155.691 222.344 156.633
 217.605 c 157.574 212.863 161.734 209.445 166.566 209.445 c 169.254 209.438
 171.832 210.504 173.73 212.406 c h
173.73 212.406 m f
0.156863 0.258824 0.407843 rg
321.75 3.75 m 61.5 3.75 l 59.016 3.75 57 5.766 57 8.25 c 57 375.75 l 57
 378.234 59.016 380.25 61.5 380.25 c 321.75 380.25 l 324.234 380.25 326.25
 378.234 326.25 375.75 c 326.25 8.25 l 326.25 5.766 324.234 3.75 321.75 
3.75 c h
315.609 12.75 m 293.164 70.848 l 289.891 79.207 281.84 84.723 272.859 84.75
 c 222 84.75 l 222 52.746 l 221.875 48.914 217.426 46.875 214.441 49.281
 c 204.691 57.34 l 194.875 49.27 l 193.211 47.906 190.816 47.906 189.152
 49.27 c 179.203 57.434 l 168.441 49.176 l 165.492 46.902 161.223 49.023
 161.25 52.746 c 161.25 84.75 l 111.141 84.75 l 102.16 84.723 94.109 79.207
 90.836 70.844 c 68.391 12.75 l h
213 62.324 m 213 104.676 l 207.156 100.102 l 205.445 98.754 203.023 98.789
 201.359 100.191 c 191.836 108.297 l 180.633 100 l 179.855 99.426 178.914
 99.113 177.945 99.113 c 176.879 99.113 175.852 99.496 175.043 100.191 c
 170.25 104.289 l 170.25 61.875 l 176.578 66.75 l 178.234 68.023 180.551
 67.984 182.164 66.656 c 192 58.574 l 201.812 66.656 l 203.523 68.027 205.961
 68.023 207.668 66.645 c h
318 371.25 m 66 371.25 l 66 32.391 l 82.273 74.086 l 86.973 85.926 98.406
 93.711 111.141 93.75 c 161.25 93.75 l 161.25 114.043 l 161.238 115.793 
162.25 117.387 163.84 118.125 c 164.426 118.398 165.066 118.543 165.715 
118.543 c 166.785 118.543 167.816 118.16 168.629 117.465 c 178.137 109.355
 l 189.324 117.656 l 191.008 118.906 193.332 118.824 194.926 117.465 c 204.312
 109.445 l 214.438 117.555 l 215.836 118.637 217.723 118.844 219.324 118.098
 c 220.914 117.363 221.949 115.793 222 114.043 c 222 93.75 l 273 93.75 l
 273 93.77 l 285.73 93.762 297.156 85.957 301.793 74.102 c 318 32.391 l 
h
318 371.25 m f
87 103.152 m 84.516 103.152 82.5 105.168 82.5 107.652 c 82.5 109.199 l 
82.5 115.199 91.5 115.199 91.5 109.199 c 91.5 107.652 l 91.5 105.168 89.484
 103.152 87 103.152 c h
87 103.152 m f
87 118.418 m 84.516 118.418 82.5 120.434 82.5 122.918 c 82.5 180.801 l 
82.5 186.801 91.5 186.801 91.5 180.801 c 91.5 122.918 l 91.5 120.434 89.484
 118.418 87 118.418 c h
87 118.418 m f
192 147.906 m 142.094 147.906 101.492 188.547 101.492 238.5 c 101.492 288.453
 142.094 329.094 192 329.094 c 241.906 329.094 282.508 288.453 282.508 238.5
 c 282.508 188.547 241.906 147.906 192 147.906 c h
192 320.094 m 147.055 320.094 110.492 283.492 110.492 238.5 c 110.492 193.508
 147.055 156.906 192 156.906 c 236.945 156.906 273.508 193.508 273.508 238.5
 c 273.508 283.492 236.945 320.094 192 320.094 c h
192 320.094 m f
192 161.801 m 157.715 161.801 129.824 188.398 129.824 221.094 c 129.824
 238.137 137.844 253.672 152.406 264.84 c 156.738 268.105 159.379 273.137
 159.605 278.559 c 159.973 288.699 l 160.457 303.434 172.594 315.098 187.336
 315 c 196.926 315 l 211.527 315.062 223.586 303.609 224.277 289.023 c 224.777
 278.594 l 225.074 273.145 227.75 268.102 232.094 264.801 c 246.332 253.77
 254.176 238.25 254.176 221.078 c 254.176 188.387 226.285 161.801 192 161.801
 c h
226.582 257.711 m 220.156 262.633 216.211 270.129 215.789 278.211 c 215.285
 288.594 l 214.82 298.379 206.723 306.059 196.926 306 c 187.336 306 l 177.445
 306.082 169.297 298.262 168.965 288.375 c 168.598 278.188 l 168.281 270.09
 164.348 262.559 157.883 257.672 c 149.188 251.004 138.824 239.254 138.824
 221.078 c 138.824 193.348 162.68 170.797 192 170.797 c 221.32 170.797 245.176
 193.359 245.176 221.09 c 245.176 239.449 235.062 251.141 226.582 257.711
 c h
226.582 257.711 m f
202.211 256.961 m 204.398 253.406 204.562 248.965 202.637 245.262 c 199.879
 239.906 l 198.359 236.953 195.32 235.098 192 235.098 c 188.68 235.098 185.641
 236.953 184.121 239.906 c 181.363 245.258 l 178.406 250.984 180.516 258.027
 186.137 261.184 c 191.758 264.336 198.867 262.473 202.215 256.965 c h
194.531 252.273 m 192.543 255.516 187.633 252.758 189.367 249.375 c 192
 244.258 l 194.633 249.375 l 195.117 250.293 195.078 251.395 194.531 252.273
 c h
194.531 252.273 m f
166.57 204.941 m 160.656 204.941 155.324 208.504 153.062 213.969 c 150.797
 219.434 152.047 225.723 156.23 229.902 c 160.41 234.086 166.699 235.336
 172.164 233.07 c 177.629 230.809 181.191 225.477 181.191 219.562 c 181.18
 211.492 174.641 204.953 166.57 204.941 c h
166.57 225.184 m 164.297 225.184 162.246 223.816 161.375 221.715 c 160.504
 219.617 160.984 217.199 162.594 215.59 c 164.199 213.98 166.617 213.5 168.719
 214.367 c 170.816 215.238 172.188 217.285 172.191 219.559 c 172.191 222.664
 169.676 225.184 166.57 225.184 c h
166.57 225.184 m f
217.43 204.941 m 211.516 204.941 206.184 208.504 203.922 213.969 c 201.656
 219.43 202.906 225.719 207.09 229.902 c 211.27 234.086 217.559 235.336 
223.023 233.07 c 228.488 230.809 232.051 225.477 232.051 219.562 c 232.039
 211.492 225.5 204.953 217.43 204.941 c h
217.43 225.184 m 215.156 225.184 213.105 223.816 212.238 221.715 c 211.367
 219.617 211.848 217.199 213.453 215.59 c 215.059 213.98 217.477 213.5 219.578
 214.367 c 221.68 215.238 223.051 217.285 223.051 219.559 c 223.051 222.664
 220.535 225.184 217.43 225.184 c h
217.43 225.184 m f
181.5 276.48 m 179.016 276.48 177 278.492 177 280.98 c 177 288.262 l 177
 294.262 186 294.262 186 288.262 c 186 280.98 l 186 278.492 183.984 276.48
 181.5 276.48 c h
181.5 276.48 m f
202.5 276.48 m 200.016 276.48 198 278.492 198 280.98 c 198 288.262 l 198
 294.262 207 294.262 207 288.262 c 207 280.98 l 207 278.492 204.984 276.48
 202.5 276.48 c h
202.5 276.48 m f
192 276.48 m 189.516 276.48 187.5 278.492 187.5 280.98 c 187.5 288.262 
l 187.5 294.262 196.5 294.262 196.5 288.262 c 196.5 280.98 l 196.5 278.492
 194.484 276.48 192 276.48 c h
192 276.48 m f
Q Q
showpage
%%Trailer
end
%%EOF
