%!PS-Adobe-3.0 EPSF-3.0
%%Creator: cairo 1.16.0 (https://cairographics.org)
%%CreationDate: Tue Feb  2 14:04:41 2021
%%Pages: 1
%%DocumentData: Clean7Bit
%%LanguageLevel: 2
%%BoundingBox: 46 3 338 381
%%EndComments
%%BeginProlog
50 dict begin
/q { gsave } bind def
/Q { grestore } bind def
/cm { 6 array astore concat } bind def
/w { setlinewidth } bind def
/J { setlinecap } bind def
/j { setlinejoin } bind def
/M { setmiterlimit } bind def
/d { setdash } bind def
/m { moveto } bind def
/l { lineto } bind def
/c { curveto } bind def
/h { closepath } bind def
/re { exch dup neg 3 1 roll 5 3 roll moveto 0 rlineto
      0 exch rlineto 0 rlineto closepath } bind def
/S { stroke } bind def
/f { fill } bind def
/f* { eofill } bind def
/n { newpath } bind def
/W { clip } bind def
/W* { eoclip } bind def
/BT { } bind def
/ET { } bind def
/BDC { mark 3 1 roll /BDC pdfmark } bind def
/EMC { mark /EMC pdfmark } bind def
/cairo_store_point { /cairo_point_y exch def /cairo_point_x exch def } def
/Tj { show currentpoint cairo_store_point } bind def
/TJ {
  {
    dup
    type /stringtype eq
    { show } { -0.001 mul 0 cairo_font_matrix dtransform rmoveto } ifelse
  } forall
  currentpoint cairo_store_point
} bind def
/cairo_selectfont { cairo_font_matrix aload pop pop pop 0 0 6 array astore
    cairo_font exch selectfont cairo_point_x cairo_point_y moveto } bind def
/Tf { pop /cairo_font exch def /cairo_font_matrix where
      { pop cairo_selectfont } if } bind def
/Td { matrix translate cairo_font_matrix matrix concatmatrix dup
      /cairo_font_matrix exch def dup 4 get exch 5 get cairo_store_point
      /cairo_font where { pop cairo_selectfont } if } bind def
/Tm { 2 copy 8 2 roll 6 array astore /cairo_font_matrix exch def
      cairo_store_point /cairo_font where { pop cairo_selectfont } if } bind def
/g { setgray } bind def
/rg { setrgbcolor } bind def
/d1 { setcachedevice } bind def
/cairo_data_source {
  CairoDataIndex CairoData length lt
    { CairoData CairoDataIndex get /CairoDataIndex CairoDataIndex 1 add def }
    { () } ifelse
} def
/cairo_flush_ascii85_file { cairo_ascii85_file status { cairo_ascii85_file flushfile } if } def
/cairo_image { image cairo_flush_ascii85_file } def
/cairo_imagemask { imagemask cairo_flush_ascii85_file } def
%%EndProlog
%%BeginSetup
%%EndSetup
%%Page: 1 1
%%BeginPageSetup
%%PageBoundingBox: 46 3 338 381
%%EndPageSetup
q 46 3 292 378 rectclip
1 0 0 -1 0 384 cm q
0.976471 0.831373 0.219608 rg
308.617 66.414 m 250.453 8.25 l 250.453 8.25 211.793 34.094 215.086 86.738
 c 192.984 65.723 l 160.738 97.965 160.262 151.207 192.75 183.195 c 196.996
 187.344 201.684 191.016 206.73 194.145 c 210.008 196.203 213.449 197.992
 217.012 199.5 c 217.02 199.5 l 232.449 204.715 l 268.145 212.77 304.867
 196.25 322.52 164.195 c 340.176 132.141 334.508 92.277 308.617 66.414 c
 h
308.617 66.414 m f
0.827451 0.705882 0.207843 rg
237.586 86.738 m 235.512 53.586 250.07 31.07 261.141 18.938 c 250.453 8.25
 l 250.453 8.25 221.875 27.355 215.953 66.172 c h
237.586 86.738 m f
254.949 204.715 m 239.52 199.5 l 239.512 199.5 l 235.949 197.992 232.508
 196.199 229.23 194.141 c 224.184 191.012 219.496 187.344 215.25 183.195
 c 186.52 154.91 183.574 110.004 205.574 77.695 c 192.984 65.723 l 160.738
 97.965 160.262 151.207 192.75 183.195 c 196.996 187.344 201.684 191.016
 206.73 194.145 c 210.008 196.203 213.449 197.992 217.012 199.5 c 217.02
 199.5 l 232.449 204.715 l 242.105 206.93 252.082 207.355 261.895 205.98
 c 259.566 205.652 257.25 205.23 254.949 204.715 c h
254.949 204.715 m f
0.780392 0.603922 0.513726 rg
51.297 365.355 m 186.828 229.824 l 197.086 240.082 l 61.555 375.609 l h
51.297 365.355 m f
0.905882 0.317647 0.388235 rg
285.254 135.328 m 251.062 91.336 l 216.359 135.727 l 202.711 153.188 204.09
 177.938 219.594 193.441 c 220.223 194.07 220.867 194.676 221.52 195.254
 c 234.238 203.055 l 247.824 208.285 263.113 206.492 275.117 198.262 c 287.125
 190.035 294.309 176.422 294.328 161.863 c 294.348 152.258 291.152 142.918
 285.254 135.328 c h
285.254 135.328 m f
0.760784 0.407843 0.309804 rg
232.223 184.695 m 232.02 184.754 l 186.84 229.941 l 197.094 240.203 l 242.281
 195.016 l 242.34 194.812 l h
232.223 184.695 m f
0.290196 0.317647 0.376471 rg
271.875 155.168 m 279.488 162.773 277.637 176.969 267.734 186.871 c 260.16
 194.438 250.074 197.301 242.34 194.812 c 237.508 193.309 233.727 189.527
 232.223 184.695 c 229.734 176.961 232.598 166.875 240.172 159.301 c 250.066
 149.406 264.262 147.555 271.875 155.168 c h
271.875 155.168 m f
0.156863 0.258824 0.407843 rg
253.637 5.066 m 252.117 3.551 249.738 3.316 247.953 4.508 c 247.531 4.793
 237.488 11.586 227.867 25.148 c 217.254 40.109 211.215 57.828 210.484 76.156
 c 196.082 62.465 l 194.312 60.781 191.527 60.816 189.801 62.543 c 173.156
 79.145 163.891 101.742 164.09 125.25 c 164.035 148.234 173.223 170.273 
189.59 186.406 c 194.07 190.82 199.016 194.738 204.336 198.086 c 205.992
 199.129 207.691 200.113 209.422 201.043 c 48.148 362.312 l 46.375 364.055
 46.359 366.91 48.113 368.676 c 58.367 378.934 l 60.121 380.688 62.969 380.688
 64.727 378.934 c 233.906 209.75 l 262.219 215.281 291.426 206.348 311.801
 185.926 c 328.074 169.656 337.215 147.59 337.215 124.578 c 337.215 101.57
 328.074 79.504 311.801 63.234 c h
61.543 369.387 m 57.648 365.492 l 186.836 236.305 l 190.73 240.199 l h
197.094 233.836 m 193.199 229.941 l 231.043 192.102 l 232.148 193.578 233.457
 194.887 234.934 195.996 c h
239.215 187.824 m 236.543 185.152 235.402 181.164 235.996 176.594 c 236.844
 171.215 239.426 166.258 243.352 162.484 c 248.277 157.559 254.395 154.938
 259.75 154.938 c 263.066 154.824 266.289 156.055 268.691 158.348 c 274.535
 164.191 272.68 175.559 264.555 183.684 c 260.777 187.609 255.824 190.195
 250.445 191.039 c 245.875 191.633 241.887 190.492 239.215 187.824 c h
242.789 200.867 m 243.832 199.828 l 245.234 200.074 246.656 200.199 248.078
 200.195 c 249.258 200.195 250.438 200.117 251.609 199.965 c 258.574 199.055
 265.434 195.531 270.918 190.047 c 282.551 178.414 284.41 161.336 275.055
 151.98 c 265.699 142.629 248.625 144.48 236.988 156.121 c 231.504 161.605
 227.984 168.461 227.074 175.43 c 226.734 178.016 226.797 180.637 227.258
 183.203 c 221.52 188.945 l 208.844 175.02 208.055 153.656 219.902 138.496
 c 251.047 98.656 l 281.699 138.094 l 293.738 153.582 292.227 175.855 278.176
 189.906 c 268.926 199.199 255.672 203.305 242.789 200.867 c h
305.438 179.562 m 301.395 183.605 296.922 187.195 292.098 190.266 c 290.625
 191.203 289.125 192.082 287.598 192.91 c 301.953 175.617 302.691 150.438
 288.797 132.57 c 254.613 88.656 l 253.754 87.582 252.441 86.969 251.066
 87 c 251.059 87 l 249.684 86.969 248.375 87.578 247.516 88.648 c 212.812
 132.996 l 199.031 150.52 199.062 175.207 212.887 192.695 c 211.613 191.992
 210.352 191.254 209.125 190.48 c 204.355 187.473 199.922 183.961 195.906
 180 c 181.254 165.543 173.031 145.801 173.09 125.219 c 172.926 105.633 
180.078 86.688 193.145 72.098 c 211.984 90 l 214.949 92.82 219.832 90.539
 219.578 86.457 c 218.285 65.812 223.473 47.035 234.992 30.656 c 239.273
 24.543 244.34 19.016 250.062 14.219 c 305.438 69.602 l 320.02 84.184 328.215
 103.961 328.215 124.582 c 328.215 145.203 320.02 164.984 305.438 179.566
 c h
305.438 179.562 m f
267.949 43.719 m 265.199 40.973 l 260.957 36.727 254.594 43.09 258.836 
47.336 c 261.582 50.082 l 265.824 54.328 272.191 47.965 267.949 43.719 c
 h
267.949 43.719 m f
276.934 52.703 m 275.184 50.906 272.301 50.887 270.527 52.66 c 268.75 54.434
 268.77 57.316 270.57 59.066 c 293.27 81.766 l 295.02 83.547 297.891 83.559
 299.656 81.793 c 301.426 80.023 301.414 77.156 299.633 75.402 c h
276.934 52.703 m f
Q Q
showpage
%%Trailer
end
%%EOF
