%!PS-Adobe-3.0 EPSF-3.0
%%Creator: cairo 1.16.0 (https://cairographics.org)
%%CreationDate: Tue Feb  2 14:04:42 2021
%%Pages: 1
%%DocumentData: Clean7Bit
%%LanguageLevel: 2
%%BoundingBox: 79 3 305 381
%%EndComments
%%BeginProlog
50 dict begin
/q { gsave } bind def
/Q { grestore } bind def
/cm { 6 array astore concat } bind def
/w { setlinewidth } bind def
/J { setlinecap } bind def
/j { setlinejoin } bind def
/M { setmiterlimit } bind def
/d { setdash } bind def
/m { moveto } bind def
/l { lineto } bind def
/c { curveto } bind def
/h { closepath } bind def
/re { exch dup neg 3 1 roll 5 3 roll moveto 0 rlineto
      0 exch rlineto 0 rlineto closepath } bind def
/S { stroke } bind def
/f { fill } bind def
/f* { eofill } bind def
/n { newpath } bind def
/W { clip } bind def
/W* { eoclip } bind def
/BT { } bind def
/ET { } bind def
/BDC { mark 3 1 roll /BDC pdfmark } bind def
/EMC { mark /EMC pdfmark } bind def
/cairo_store_point { /cairo_point_y exch def /cairo_point_x exch def } def
/Tj { show currentpoint cairo_store_point } bind def
/TJ {
  {
    dup
    type /stringtype eq
    { show } { -0.001 mul 0 cairo_font_matrix dtransform rmoveto } ifelse
  } forall
  currentpoint cairo_store_point
} bind def
/cairo_selectfont { cairo_font_matrix aload pop pop pop 0 0 6 array astore
    cairo_font exch selectfont cairo_point_x cairo_point_y moveto } bind def
/Tf { pop /cairo_font exch def /cairo_font_matrix where
      { pop cairo_selectfont } if } bind def
/Td { matrix translate cairo_font_matrix matrix concatmatrix dup
      /cairo_font_matrix exch def dup 4 get exch 5 get cairo_store_point
      /cairo_font where { pop cairo_selectfont } if } bind def
/Tm { 2 copy 8 2 roll 6 array astore /cairo_font_matrix exch def
      cairo_store_point /cairo_font where { pop cairo_selectfont } if } bind def
/g { setgray } bind def
/rg { setrgbcolor } bind def
/d1 { setcachedevice } bind def
/cairo_data_source {
  CairoDataIndex CairoData length lt
    { CairoData CairoDataIndex get /CairoDataIndex CairoDataIndex 1 add def }
    { () } ifelse
} def
/cairo_flush_ascii85_file { cairo_ascii85_file status { cairo_ascii85_file flushfile } if } def
/cairo_image { image cairo_flush_ascii85_file } def
/cairo_imagemask { imagemask cairo_flush_ascii85_file } def
%%EndProlog
%%BeginSetup
%%EndSetup
%%Page: 1 1
%%BeginPageSetup
%%PageBoundingBox: 79 3 305 381
%%EndPageSetup
q 79 3 226 378 rectclip
1 0 0 -1 0 384 cm q
0.301961 0.309804 0.376471 rg
287.195 191.242 m 252.844 155.234 l 233.531 134.996 222.758 108.098 222.75
 80.121 c 222.75 80.25 l 161.25 80.25 l 161.25 80.121 l 161.234 108.098 
150.449 134.996 131.133 155.234 c 96.828 191.234 l 88.586 199.891 83.992
 211.391 84 223.344 c 84 352.492 l 83.977 358.652 86.406 364.562 90.754 
368.93 c 95.098 373.293 101 375.746 107.16 375.75 c 276.84 375.75 l 283 
375.746 288.902 373.293 293.246 368.93 c 297.594 364.562 300.023 358.652
 300 352.492 c 300 223.344 l 300.02 211.395 295.43 199.898 287.195 191.242
 c h
287.195 191.242 m f
0.658824 0.513726 0.45098 rg
224.762 8.25 m 220.102 47.766 l 163.898 47.766 l 159.238 8.25 l h
224.762 8.25 m f
0.443137 0.686275 0.556863 rg
182.379 236.648 117.719 106.363 re f
0.258824 0.270588 0.337255 rg
106.5 352.492 m 106.5 223.344 l 106.492 211.391 111.082 199.891 119.324
 191.234 c 153.633 155.234 l 172.918 135.031 183.703 108.184 183.75 80.25
 c 161.25 80.25 l 161.25 80.121 l 161.234 108.098 150.449 134.996 131.133
 155.234 c 96.828 191.234 l 88.586 199.891 83.992 211.391 84 223.344 c 84
 352.492 l 83.977 358.652 86.406 364.562 90.754 368.93 c 95.098 373.293 
101 375.746 107.16 375.75 c 129.66 375.75 l 123.5 375.746 117.598 373.293
 113.254 368.93 c 108.906 364.562 106.477 358.652 106.5 352.492 c h
106.5 352.492 m f
0.498039 0.388235 0.34902 rg
186.398 48 m 181.738 8.25 l 159.238 8.25 l 163.898 48 l h
186.398 48 m f
0.34902 0.356863 0.419608 rg
157.5 47.25 69 33 re f
0.305882 0.313726 0.368627 rg
157.5 47.25 22.5 33 re f
0.156863 0.258824 0.407843 rg
106.5 236.625 m 104.016 236.625 102 238.641 102 241.125 c 102 242.672 l
 102 248.672 111 248.672 111 242.672 c 111 241.125 l 111 238.641 108.984
 236.625 106.5 236.625 c h
106.5 236.625 m f
106.5 251.891 m 104.016 251.891 102 253.902 102 256.391 c 102 314.27 l 
102 320.27 111 320.27 111 314.27 c 111 256.391 l 111 253.902 108.984 251.891
 106.5 251.891 c h
106.5 251.891 m f
256.164 152.129 m 238.645 133.855 228.398 109.816 227.348 84.523 c 229.488
 84.145 231.035 82.266 231 80.094 c 231 47.02 l 231.055 44.609 229.066 42.652
 226.656 42.75 c 225.164 42.75 l 229.227 8.844 l 229.551 6.156 227.465 3.777
 224.758 3.75 c 159.242 3.75 l 156.547 3.75 154.453 6.109 154.773 8.785 
c 158.84 42.75 l 157.344 42.75 l 154.938 42.652 152.945 44.605 153 47.016
 c 153 80.09 l 152.965 82.262 154.512 84.141 156.652 84.52 c 155.617 109.809
 145.383 133.848 127.875 152.125 c 93.57 188.125 l 84.508 197.605 79.465
 210.227 79.5 223.344 c 79.5 352.492 l 79.484 359.84 82.395 366.895 87.578
 372.102 c 92.766 377.305 99.809 380.238 107.16 380.25 c 276.84 380.25 l
 284.191 380.238 291.234 377.305 296.422 372.102 c 301.609 366.895 304.516
 359.84 304.5 352.492 c 304.5 223.344 l 304.543 210.234 299.508 197.613 
290.449 188.133 c h
219.684 12.75 m 216.113 42.75 l 167.887 42.75 l 164.316 12.75 l h
162 51.75 m 222 51.75 l 222 75.75 l 162 75.75 l h
295.5 338.25 m 186.75 338.25 l 186.75 241.5 l 295.5 241.5 l h
295.5 232.5 m 182.379 232.5 l 179.895 232.5 177.75 234.16 177.75 236.645
 c 177.75 343.012 l 177.75 345.496 179.895 347.25 182.379 347.25 c 295.5
 347.25 l 295.5 352.492 l 295.516 357.453 293.559 362.219 290.059 365.738
 c 286.559 369.258 281.805 371.242 276.84 371.25 c 107.16 371.25 l 102.195
 371.242 97.441 369.258 93.941 365.738 c 90.441 362.219 88.484 357.453 88.5
 352.492 c 88.5 223.344 l 88.465 212.547 92.605 202.152 100.062 194.34 c
 134.375 158.418 l 153.469 138.523 164.574 112.305 165.574 84.75 c 218.426
 84.75 l 219.434 112.309 230.551 138.531 249.648 158.422 c 283.938 194.383
 l 291.391 202.18 295.535 212.559 295.5 223.344 c h
295.5 232.5 m f
Q Q
showpage
%%Trailer
end
%%EOF
