%!PS-Adobe-3.0 EPSF-3.0
%%Creator: cairo 1.16.0 (https://cairographics.org)
%%CreationDate: Tue Feb  2 14:04:43 2021
%%Pages: 1
%%DocumentData: Clean7Bit
%%LanguageLevel: 2
%%BoundingBox: 137 3 247 381
%%EndComments
%%BeginProlog
50 dict begin
/q { gsave } bind def
/Q { grestore } bind def
/cm { 6 array astore concat } bind def
/w { setlinewidth } bind def
/J { setlinecap } bind def
/j { setlinejoin } bind def
/M { setmiterlimit } bind def
/d { setdash } bind def
/m { moveto } bind def
/l { lineto } bind def
/c { curveto } bind def
/h { closepath } bind def
/re { exch dup neg 3 1 roll 5 3 roll moveto 0 rlineto
      0 exch rlineto 0 rlineto closepath } bind def
/S { stroke } bind def
/f { fill } bind def
/f* { eofill } bind def
/n { newpath } bind def
/W { clip } bind def
/W* { eoclip } bind def
/BT { } bind def
/ET { } bind def
/BDC { mark 3 1 roll /BDC pdfmark } bind def
/EMC { mark /EMC pdfmark } bind def
/cairo_store_point { /cairo_point_y exch def /cairo_point_x exch def } def
/Tj { show currentpoint cairo_store_point } bind def
/TJ {
  {
    dup
    type /stringtype eq
    { show } { -0.001 mul 0 cairo_font_matrix dtransform rmoveto } ifelse
  } forall
  currentpoint cairo_store_point
} bind def
/cairo_selectfont { cairo_font_matrix aload pop pop pop 0 0 6 array astore
    cairo_font exch selectfont cairo_point_x cairo_point_y moveto } bind def
/Tf { pop /cairo_font exch def /cairo_font_matrix where
      { pop cairo_selectfont } if } bind def
/Td { matrix translate cairo_font_matrix matrix concatmatrix dup
      /cairo_font_matrix exch def dup 4 get exch 5 get cairo_store_point
      /cairo_font where { pop cairo_selectfont } if } bind def
/Tm { 2 copy 8 2 roll 6 array astore /cairo_font_matrix exch def
      cairo_store_point /cairo_font where { pop cairo_selectfont } if } bind def
/g { setgray } bind def
/rg { setrgbcolor } bind def
/d1 { setcachedevice } bind def
/cairo_data_source {
  CairoDataIndex CairoData length lt
    { CairoData CairoDataIndex get /CairoDataIndex CairoDataIndex 1 add def }
    { () } ifelse
} def
/cairo_flush_ascii85_file { cairo_ascii85_file status { cairo_ascii85_file flushfile } if } def
/cairo_image { image cairo_flush_ascii85_file } def
/cairo_imagemask { imagemask cairo_flush_ascii85_file } def
%%EndProlog
%%BeginSetup
%%EndSetup
%%Page: 1 1
%%BeginPageSetup
%%PageBoundingBox: 137 3 247 381
%%EndPageSetup
q 137 3 110 378 rectclip
1 0 0 -1 0 384 cm q
0.592157 0.54902 0.67451 rg
208.762 24.285 m 208.762 74.648 l 175.238 74.648 l 175.238 24.285 l 175.238
 20.031 176.926 15.953 179.934 12.945 c 182.941 9.938 187.02 8.25 191.273
 8.25 c 192.727 8.25 l 196.98 8.25 201.059 9.938 204.066 12.945 c 207.074
 15.953 208.762 20.031 208.762 24.285 c h
208.762 24.285 m f
0.643137 0.741176 0.756863 rg
141.75 246.75 m 141.75 301.004 l 141.746 317.359 148.332 333.023 160.02
 344.461 c 192.008 375.75 l 223.984 344.461 l 235.672 333.023 242.254 317.359
 242.25 301.004 c 242.25 246.75 l h
141.75 246.75 m f
0.729412 0.745098 0.8 rg
183 95.25 m 183 293.387 l 183.066 295.695 184.043 297.887 185.715 299.484
 c 187.293 301.102 189.457 302.012 191.715 302.012 c 193.992 302.008 196.176
 301.094 197.777 299.473 c 199.379 297.855 200.27 295.664 200.25 293.387
 c 200.25 95.25 l h
183 95.25 m f
0.729412 0.670588 0.831373 rg
175.5 73.5 33 21.75 re f
0.501961 0.580392 0.588235 rg
182.52 344.461 m 170.832 333.023 164.246 317.359 164.25 301.004 c 164.25
 246.75 l 141.75 246.75 l 141.75 301.004 l 141.746 317.359 148.332 333.023
 160.02 344.461 c 192.008 375.75 l 203.258 364.742 l h
182.52 344.461 m f
0.156863 0.258824 0.407843 rg
242.277 242.25 m 204.75 242.25 l 204.75 99.75 l 208.766 99.75 l 211.25 
99.75 213 97.363 213 94.879 c 213 24.289 l 213.055 18.871 210.941 13.656
 207.137 9.801 c 203.332 5.945 198.145 3.766 192.727 3.75 c 191.273 3.75
 l 185.855 3.766 180.668 5.945 176.863 9.801 c 173.059 13.656 170.945 18.871
 171 24.289 c 171 94.879 l 171 97.363 172.75 99.75 175.234 99.75 c 179.25
 99.75 l 179.25 242.25 l 141.723 242.25 l 139.207 242.348 137.223 244.43
 137.25 246.945 c 137.25 301 l 137.289 318.559 144.355 335.367 156.875 347.676
 c 188.859 378.969 l 190.609 380.676 193.402 380.676 195.148 378.969 c 227.125
 347.676 l 239.645 335.367 246.711 318.559 246.75 301 c 246.75 246.945 l
 246.777 244.43 244.793 242.348 242.277 242.25 c h
180 24.289 m 179.941 21.258 181.105 18.328 183.223 16.16 c 185.344 13.992
 188.242 12.762 191.273 12.75 c 192.727 12.75 l 195.758 12.762 198.656 13.992
 200.777 16.16 c 202.895 18.328 204.059 21.258 204 24.289 c 204 69 l 180
 69 l h
180 78 m 204 78 l 204 90.75 l 180 90.75 l h
195.75 99.75 m 195.75 293.383 l 195.75 295.656 194.273 297.508 192 297.508
 c 189.727 297.508 188.25 295.66 188.25 293.383 c 188.25 99.75 l h
237.75 301 m 237.719 316.137 231.625 330.629 220.832 341.242 c 191.992 
369.457 l 163.164 341.242 l 152.371 330.629 146.281 316.137 146.25 301 c
 146.25 251.25 l 179.25 251.25 l 179.25 293.383 l 179.25 300.621 184.766
 306.508 192 306.508 c 199.234 306.508 204.75 300.621 204.75 293.383 c 204.75
 251.25 l 237.75 251.25 l h
237.75 301 m f
221.25 290.391 m 223.734 290.391 225.75 288.379 225.75 285.891 c 225.75
 266.281 l 225.75 260.281 216.75 260.281 216.75 266.281 c 216.75 285.891
 l 216.75 288.379 218.766 290.391 221.25 290.391 c h
221.25 290.391 m f
221.25 306.645 m 223.734 306.645 225.75 304.629 225.75 302.145 c 225.75
 299.773 l 225.75 293.773 216.75 293.773 216.75 299.773 c 216.75 302.148
 l 216.75 304.629 218.766 306.645 221.25 306.645 c h
221.25 306.645 m f
Q Q
showpage
%%Trailer
end
%%EOF
