%!PS-Adobe-3.0 EPSF-3.0
%%Creator: cairo 1.16.0 (https://cairographics.org)
%%CreationDate: Tue Feb  2 14:04:44 2021
%%Pages: 1
%%DocumentData: Clean7Bit
%%LanguageLevel: 2
%%BoundingBox: 3 45 381 339
%%EndComments
%%BeginProlog
50 dict begin
/q { gsave } bind def
/Q { grestore } bind def
/cm { 6 array astore concat } bind def
/w { setlinewidth } bind def
/J { setlinecap } bind def
/j { setlinejoin } bind def
/M { setmiterlimit } bind def
/d { setdash } bind def
/m { moveto } bind def
/l { lineto } bind def
/c { curveto } bind def
/h { closepath } bind def
/re { exch dup neg 3 1 roll 5 3 roll moveto 0 rlineto
      0 exch rlineto 0 rlineto closepath } bind def
/S { stroke } bind def
/f { fill } bind def
/f* { eofill } bind def
/n { newpath } bind def
/W { clip } bind def
/W* { eoclip } bind def
/BT { } bind def
/ET { } bind def
/BDC { mark 3 1 roll /BDC pdfmark } bind def
/EMC { mark /EMC pdfmark } bind def
/cairo_store_point { /cairo_point_y exch def /cairo_point_x exch def } def
/Tj { show currentpoint cairo_store_point } bind def
/TJ {
  {
    dup
    type /stringtype eq
    { show } { -0.001 mul 0 cairo_font_matrix dtransform rmoveto } ifelse
  } forall
  currentpoint cairo_store_point
} bind def
/cairo_selectfont { cairo_font_matrix aload pop pop pop 0 0 6 array astore
    cairo_font exch selectfont cairo_point_x cairo_point_y moveto } bind def
/Tf { pop /cairo_font exch def /cairo_font_matrix where
      { pop cairo_selectfont } if } bind def
/Td { matrix translate cairo_font_matrix matrix concatmatrix dup
      /cairo_font_matrix exch def dup 4 get exch 5 get cairo_store_point
      /cairo_font where { pop cairo_selectfont } if } bind def
/Tm { 2 copy 8 2 roll 6 array astore /cairo_font_matrix exch def
      cairo_store_point /cairo_font where { pop cairo_selectfont } if } bind def
/g { setgray } bind def
/rg { setrgbcolor } bind def
/d1 { setcachedevice } bind def
/cairo_data_source {
  CairoDataIndex CairoData length lt
    { CairoData CairoDataIndex get /CairoDataIndex CairoDataIndex 1 add def }
    { () } ifelse
} def
/cairo_flush_ascii85_file { cairo_ascii85_file status { cairo_ascii85_file flushfile } if } def
/cairo_image { image cairo_flush_ascii85_file } def
/cairo_imagemask { imagemask cairo_flush_ascii85_file } def
%%EndProlog
%%BeginSetup
%%EndSetup
%%Page: 1 1
%%BeginPageSetup
%%PageBoundingBox: 3 45 381 339
%%EndPageSetup
q 3 45 378 294 rectclip
1 0 0 -1 0 384 cm q
0.509804 0.266667 0.235294 rg
374.496 99.504 m 369.473 91.078 l 374.469 82.762 l 375.461 81.105 375.891
 79.164 375.684 77.242 c 374 61.152 360.02 49.195 343.867 50.023 c 327.711
 50.852 315.027 64.18 315 80.355 c 315 248.273 l 324.023 260.094 l 315 271.68
 l 315 303.398 l 314.957 304.172 315.887 304.598 316.445 304.059 c 322.438
 298.277 330.031 294.441 338.242 293.047 c 358.68 289.77 373.328 307.547
 374.957 309.156 c 375.758 104.07 l 375.762 102.461 375.324 100.883 374.496
 99.504 c h
374.496 99.504 m f
0.882353 0.717647 0.639216 rg
239.715 92.25 m 231.637 99.77 l 224.094 90.645 l 189.816 89.25 l 189.75
 89.574 l 189.75 215.25 l 315 215.25 l 315 92.25 l h
239.715 92.25 m f
0.780392 0.603922 0.513726 rg
338.203 293.047 m 330.008 294.438 322.422 298.277 316.445 304.059 c 315.887
 304.598 314.957 304.172 315 303.398 c 315 271.68 l 324.023 260.094 l 315
 248.273 l 315 215.25 l 189.75 215.25 l 189.75 333.75 l 236.664 333.75 l
 252.586 325.656 l 264.172 333.75 l 275.273 333.75 l 285.887 325.656 l 296.504
 333.75 l 349.98 333.75 l 356.574 333.793 362.91 331.211 367.594 326.57 
c 372.277 321.93 374.922 315.617 374.941 309.023 c 373.312 307.41 358.641
 289.77 338.203 293.047 c h
338.203 293.047 m f
0.882353 0.717647 0.639216 rg
69 215.25 m 69 303.398 l 69.07 304.164 68.145 304.598 67.598 304.059 c 
61.617 298.273 54.027 294.438 45.824 293.047 c 25.59 289.801 10.98 303.684
 9.113 305.52 c 9.141 309.023 l 9.164 315.617 11.809 321.93 16.492 326.57
 c 21.176 331.207 27.516 333.793 34.109 333.75 c 84.051 333.75 l 88.164 
333.801 92.16 332.402 95.34 329.797 c 111.988 315.977 l 127.965 329.598 
l 131.172 332.316 135.246 333.789 139.449 333.75 c 189.75 333.75 l 189.75
 215.25 l h
69 215.25 m f
0.780392 0.603922 0.513726 rg
158.25 87.961 m 158.25 104.07 l 134.625 87.75 l 69 87.75 l 69 163.254 l
 69.043 165.246 68.402 167.195 67.184 168.773 c 61.957 175.395 l 66.336 
179.648 l 68.07 181.328 69.031 183.648 69 186.059 c 69 215.25 l 189.75 215.25
 l 189.75 89.574 l 189.773 89.25 l h
158.25 87.961 m f
0.509804 0.266667 0.235294 rg
69 163.254 m 69 80.355 l 69.039 72.297 65.859 64.559 60.168 58.855 c 54.477
 53.152 46.742 49.957 38.684 49.98 c 33.539 49.98 32.34 59.34 28.094 61.574
 c 24.953 63.234 18.539 57.324 16.172 59.918 c 11.031 65.527 8.199 72.867
 8.242 80.477 c 9.141 305.52 l 11.008 303.684 25.652 289.801 45.887 293.047
 c 54.07 294.434 61.645 298.273 67.602 304.059 c 68.145 304.594 69.066 304.16
 69 303.398 c 69 186.059 l 69.043 183.652 68.09 181.332 66.367 179.648 c
 61.957 175.395 l 67.156 168.773 l 68.379 167.195 69.031 165.25 69 163.254
 c h
69 163.254 m f
0.494118 0.494118 0.6 rg
132.285 215.414 m 128.098 207.512 125.926 198.695 125.961 189.75 c 125.961
 155.781 154.379 128.113 189.863 127.051 c 190.566 127.02 191.281 127.012
 192 127.012 c 228.473 127.012 258.039 155.102 258.039 189.75 c 258.094 
198.672 255.996 207.473 251.934 215.414 c 247.77 223.375 241.902 230.32 
234.75 235.754 c 228.582 240.469 224.793 247.652 224.387 255.406 c 223.816
 267.406 l 223.145 281.371 211.621 292.352 197.641 292.352 c 186.66 292.352
 l 172.555 292.355 160.98 281.188 160.477 267.09 c 160.059 255.367 l 159.742
 247.625 155.977 240.43 149.797 235.754 c 142.559 230.32 136.586 223.379
 132.285 215.414 c h
132.285 215.414 m f
0.388235 0.388235 0.486275 rg
174.473 187.719 m 174.473 188.289 l 174.469 194.531 169.406 199.59 163.164
 199.59 c 162.602 199.59 l 156.355 199.59 151.293 194.531 151.289 188.289
 c 151.289 187.719 l 151.289 184.719 152.48 181.844 154.602 179.723 c 156.723
 177.602 159.602 176.414 162.602 176.414 c 163.164 176.414 l 166.16 176.414
 169.039 177.602 171.16 179.723 c 173.281 181.844 174.473 184.719 174.473
 187.719 c h
174.473 187.719 m f
232.711 187.719 m 232.711 188.289 l 232.707 194.531 227.645 199.59 221.398
 199.59 c 220.836 199.59 l 214.594 199.59 209.531 194.531 209.527 188.289
 c 209.527 187.719 l 209.527 184.719 210.719 181.844 212.84 179.723 c 214.961
 177.602 217.84 176.414 220.836 176.414 c 221.398 176.414 l 224.398 176.414
 227.277 177.602 229.398 179.723 c 231.52 181.844 232.711 184.719 232.711
 187.719 c h
232.711 187.719 m f
199.598 219.781 m 200.973 222.434 200.863 225.609 199.312 228.164 c 197.758
 230.719 194.988 232.277 192 232.277 c 189.012 232.277 186.242 230.719 184.688
 228.164 c 183.137 225.609 183.027 222.434 184.402 219.781 c 187.559 213.645
 l 189.418 210.031 194.582 210.031 196.441 213.645 c h
199.598 219.781 m f
0.419608 0.203922 0.176471 rg
38.672 59.918 m 41.039 57.324 47.453 63.234 50.598 61.574 c 52.691 60.473
 54.047 57.637 55.492 55.043 c 50.516 51.73 44.664 49.969 38.684 49.98 c
 33.539 49.98 32.34 59.34 28.094 61.574 c 24.953 63.234 18.539 57.324 16.172
 59.918 c 11.031 65.527 8.199 72.867 8.242 80.477 c 9.141 305.52 l 10.531
 304.152 19.008 296.113 31.594 293.43 c 30.742 80.477 l 30.699 72.867 33.531
 65.527 38.672 59.918 c h
38.672 59.918 m f
0.380392 0.380392 0.458824 rg
182.977 267.09 m 182.559 255.367 l 182.242 247.625 178.477 240.43 172.297
 235.754 c 165.059 230.32 159.086 223.379 154.785 215.414 c 150.598 207.512
 148.426 198.695 148.461 189.75 c 148.461 158.734 172.164 132.984 203.289
 127.93 c 199.555 127.32 195.781 127.012 192 127.012 c 191.281 127.012 190.566
 127.02 189.863 127.051 c 154.379 128.113 125.961 155.781 125.961 189.75
 c 125.926 198.695 128.098 207.512 132.285 215.414 c 136.586 223.379 142.559
 230.32 149.797 235.754 c 155.977 240.43 159.742 247.625 160.059 255.367
 c 160.477 267.164 l 160.973 281.277 172.539 292.469 186.66 292.5 c 197.641
 292.5 l 199.582 292.473 201.512 292.234 203.398 291.781 c 191.781 289.133
 183.398 279 182.977 267.09 c h
182.977 267.09 m f
0.156863 0.258824 0.407843 rg
374.719 91.086 m 378.328 85.078 l 379.812 82.582 380.457 79.676 380.164
 76.789 c 378.238 58.312 362.188 44.578 343.637 45.531 c 325.09 46.48 310.527
 61.781 310.5 80.355 c 310.5 87.75 l 239.719 87.75 l 238.582 87.75 237.484
 88.184 236.652 88.957 c 232.062 93.227 l 227.559 87.777 l 226.742 86.793
 225.551 86.203 224.273 86.148 c 158.523 83.465 l 157.289 83.414 156.082
 83.867 155.18 84.715 c 154.281 85.559 153.766 86.73 153.75 87.965 c 153.75
 95.57 l 137.109 84.133 l 136.391 83.598 135.527 83.289 134.629 83.25 c 
73.5 83.25 l 73.5 80.355 l 73.5 61.094 57.887 45.48 38.625 45.48 c 33.059
 45.48 30.457 50.301 28.512 53.816 c 27.902 55.039 27.18 56.203 26.352 57.293
 c 25.52 57.031 24.699 56.723 23.898 56.371 c 21.023 55.184 16.223 53.199
 12.855 56.883 c 6.957 63.328 3.707 71.758 3.75 80.492 c 4.656 309.027 l
 4.684 316.809 7.801 324.262 13.328 329.742 c 18.852 335.227 26.328 338.285
 34.113 338.25 c 84.055 338.25 l 89.219 338.297 94.234 336.527 98.223 333.254
 c 111.949 321.871 l 125.031 333.012 l 129.055 336.426 134.168 338.285 139.445
 338.25 c 236.664 338.25 l 237.359 338.297 238.059 338.176 238.703 337.898
 c 252.223 331.094 l 261.594 337.539 l 262.359 338.039 263.258 338.285 264.172
 338.25 c 275.27 338.25 l 276.242 338.297 277.203 338.023 277.996 337.465
 c 285.887 331.52 l 293.777 337.43 l 294.57 337.996 295.527 338.285 296.504
 338.25 c 349.98 338.25 l 357.762 338.285 365.234 335.227 370.762 329.75
 c 376.285 324.27 379.406 316.824 379.438 309.043 c 380.25 104.02 l 380.262
 101.605 379.609 99.234 378.363 97.164 c h
194.25 93.938 m 221.852 95.062 l 228.141 102.641 l 229.801 104.637 232.793
 104.832 234.695 103.066 c 241.488 96.75 l 310.5 96.75 l 310.5 210.75 l 
258.855 210.75 l 261.309 204.023 262.559 196.918 262.539 189.762 c 262.539
 153.402 232.109 123.684 194.25 122.551 c h
70.672 171.578 m 72.531 169.203 73.527 166.27 73.5 163.254 c 73.5 92.25
 l 133.246 92.25 l 155.812 107.684 l 156.555 108.207 157.434 108.496 158.34
 108.516 c 159.059 108.523 159.766 108.352 160.402 108.02 c 161.863 107.246
 162.77 105.719 162.75 104.066 c 162.75 92.652 l 185.25 93.57 l 185.25 122.824
 l 149.508 126.07 121.461 154.848 121.461 189.75 c 121.449 196.926 122.738
 204.039 125.273 210.75 c 73.5 210.75 l 73.5 186.055 l 73.535 182.418 72.082
 178.926 69.473 176.391 c 68.047 174.977 l h
12.75 80.457 m 12.723 74.441 14.801 68.605 18.629 63.965 c 19.207 64.164
 19.93 64.465 20.477 64.688 c 23.316 65.863 26.855 67.328 30.219 65.559 
c 33.254 63.961 34.953 60.883 36.453 58.168 c 37.121 56.953 38.109 54.953
 38.762 54.48 c 53.004 54.551 64.508 66.117 64.5 80.355 c 64.5 163.254 l
 64.539 164.227 64.246 165.18 63.668 165.965 c 58.441 172.586 l 56.992 174.418
 57.188 177.051 58.887 178.652 c 63.25 182.906 l 64.082 183.738 64.535 184.879
 64.5 186.059 c 64.5 295.879 l 59.121 292.121 52.961 289.637 46.48 288.605
 c 32.289 286.328 20.773 291.496 13.547 296.242 c h
185.25 329.25 m 139.445 329.25 l 136.324 329.301 133.289 328.223 130.895
 326.219 c 114.918 312.559 l 113.242 311.137 110.785 311.133 109.105 312.551
 c 92.453 326.324 l 90.082 328.258 87.109 329.293 84.051 329.25 c 34.113
 329.25 l 28.715 329.285 23.52 327.172 19.684 323.375 c 15.844 319.578 13.676
 314.406 13.656 309.008 c 13.648 307.418 l 17.738 303.855 29.746 294.984
 45.176 297.461 c 52.5 298.703 59.277 302.133 64.617 307.301 c 66.133 308.789
 68.402 309.207 70.348 308.355 c 72.301 307.492 73.547 305.539 73.496 303.402
 c 73.496 219.75 l 129.566 219.75 l 134.062 227.352 140.004 234.004 147.055
 239.324 c 152.172 243.184 155.289 249.129 155.555 255.531 c 155.977 267.324
 l 156.488 283.336 169.246 296.254 185.25 296.965 c h
164.973 267 m 164.551 255.242 l 164.195 246.148 159.789 237.695 152.539
 232.199 c 142.465 224.473 130.461 210.836 130.461 189.758 c 130.461 157.645
 158.066 131.516 192 131.516 c 225.934 131.516 253.539 157.641 253.539 189.75
 c 253.539 206.602 246.09 221.277 231.996 232.195 c 224.789 237.715 220.363
 246.117 219.891 255.184 c 219.316 267.258 l 218.781 278.848 209.242 287.977
 197.641 288 c 186.66 288 l 174.945 288.008 165.344 278.707 164.973 267 
c h
349.98 329.25 m 298.02 329.25 l 288.613 322.215 l 287.016 320.969 284.785
 320.941 283.156 322.148 c 273.75 329.25 l 265.586 329.25 l 255.164 322.105
 l 253.816 321.133 252.043 320.984 250.551 321.715 c 235.586 329.25 l 194.25
 329.25 l 194.25 297 l 197.641 297 l 214.047 296.984 227.547 284.082 228.305
 267.691 c 228.879 255.652 l 229.23 249.211 232.383 243.246 237.508 239.328
 c 244.477 234.008 250.312 227.352 254.68 219.75 c 310.5 219.75 l 310.5 
248.273 l 310.473 249.25 310.773 250.211 311.352 251.004 c 318.234 260.062
 l 311.395 268.914 l 310.797 269.707 310.48 270.68 310.5 271.68 c 310.5 
303.402 l 310.434 308.129 316.102 310.59 319.512 307.316 c 324.848 302.156
 331.617 298.73 338.938 297.492 c 349.559 295.793 360.406 300.277 370.375
 310.73 c 369.43 321.27 360.562 329.32 349.98 329.25 c h
365.613 93.387 m 370.637 101.809 l 371.043 102.484 371.254 103.262 371.25
 104.051 c 370.477 298.711 l 360.387 290.512 350.891 288.145 343.289 288.145
 c 341.371 288.145 339.457 288.301 337.566 288.605 c 331.07 289.637 324.895
 292.125 319.5 295.883 c 319.5 273.227 l 327.504 262.855 l 328.77 261.25
 328.797 258.992 327.566 257.359 c 319.5 246.75 l 319.5 80.355 l 319.535
 66.57 330.348 55.223 344.113 54.516 c 357.883 53.809 369.797 63.992 371.246
 77.703 c 371.34 78.66 371.125 79.621 370.629 80.445 c 365.625 88.762 l 
364.77 90.184 364.766 91.961 365.613 93.387 c h
365.613 93.387 m f
28.5 85.914 m 26.016 85.914 24 87.93 24 90.414 c 24 95.414 l 24 101.414
 33 101.414 33 95.414 c 33 90.414 l 33 87.93 30.984 85.914 28.5 85.914 c
 h
28.5 85.914 m f
28.5 107.137 m 26.016 107.137 24 109.152 24 111.637 c 24 158.766 l 24 164.766
 33 164.766 33 158.766 c 33 111.637 l 33 109.152 30.984 107.137 28.5 107.137
 c h
28.5 107.137 m f
203.137 230.48 m 205.523 226.605 205.699 221.758 203.598 217.719 c 200.445
 211.586 l 198.816 208.426 195.559 206.438 192 206.438 c 188.441 206.438
 185.184 208.426 183.555 211.586 c 180.402 217.719 l 177.188 223.961 179.492
 231.625 185.613 235.062 c 191.738 238.5 199.48 236.477 203.137 230.48 c
 h
188.551 225.797 m 187.805 224.594 187.75 223.09 188.406 221.836 c 191.562
 215.707 l 191.746 215.348 192.258 215.348 192.445 215.707 c 195.602 221.836
 l 197.973 226.457 191.262 230.227 188.551 225.797 c h
188.551 225.797 m f
179.25 187.555 m 179.25 183.363 177.586 179.344 174.621 176.379 c 171.656
 173.414 167.637 171.75 163.445 171.75 c 162.805 171.75 l 154.074 171.75
 147 178.824 147 187.555 c 147 188.195 l 147 192.387 148.664 196.406 151.629
 199.371 c 154.594 202.336 158.613 204 162.805 204 c 163.445 204 l 167.637
 204 171.656 202.336 174.621 199.371 c 177.586 196.406 179.25 192.387 179.25
 188.195 c h
170.25 188.195 m 170.25 191.953 167.203 195 163.445 195 c 162.805 195 l
 159.047 195 156 191.953 156 188.195 c 156 187.555 l 156 185.75 156.719 
184.02 157.992 182.742 c 159.27 181.469 161 180.75 162.805 180.75 c 163.445
 180.75 l 165.25 180.75 166.98 181.469 168.258 182.742 c 169.531 184.02 
170.25 185.75 170.25 187.555 c h
170.25 188.195 m f
220.555 204 m 221.195 204 l 229.926 204 237 196.922 237 188.195 c 237 187.555
 l 237 178.828 229.926 171.75 221.195 171.75 c 220.555 171.75 l 211.824 
171.75 204.75 178.828 204.75 187.555 c 204.75 188.195 l 204.75 196.922 211.824
 204 220.555 204 c h
213.75 187.555 m 213.75 183.797 216.797 180.75 220.555 180.75 c 221.195
 180.75 l 224.953 180.75 228 183.797 228 187.555 c 228 188.195 l 228 191.953
 224.953 195 221.195 195 c 220.555 195 l 216.797 195 213.75 191.953 213.75
 188.195 c h
213.75 187.555 m f
180 253.824 m 177.516 253.824 175.5 255.836 175.5 258.324 c 175.5 266.66
 l 175.5 272.66 184.5 272.66 184.5 266.66 c 184.5 258.324 l 184.5 255.836
 182.484 253.824 180 253.824 c h
180 253.824 m f
204 253.824 m 201.516 253.824 199.5 255.836 199.5 258.324 c 199.5 266.66
 l 199.5 272.66 208.5 272.66 208.5 266.66 c 208.5 258.324 l 208.5 255.836
 206.484 253.824 204 253.824 c h
204 253.824 m f
192 253.824 m 189.516 253.824 187.5 255.836 187.5 258.324 c 187.5 266.66
 l 187.5 272.66 196.5 272.66 196.5 266.66 c 196.5 258.324 l 196.5 255.836
 194.484 253.824 192 253.824 c h
192 253.824 m f
Q Q
showpage
%%Trailer
end
%%EOF
