%!PS-Adobe-3.0 EPSF-3.0
%%Creator: cairo 1.16.0 (https://cairographics.org)
%%CreationDate: Tue Feb  2 14:04:48 2021
%%Pages: 1
%%DocumentData: Clean7Bit
%%LanguageLevel: 2
%%BoundingBox: 43 3 341 380
%%EndComments
%%BeginProlog
50 dict begin
/q { gsave } bind def
/Q { grestore } bind def
/cm { 6 array astore concat } bind def
/w { setlinewidth } bind def
/J { setlinecap } bind def
/j { setlinejoin } bind def
/M { setmiterlimit } bind def
/d { setdash } bind def
/m { moveto } bind def
/l { lineto } bind def
/c { curveto } bind def
/h { closepath } bind def
/re { exch dup neg 3 1 roll 5 3 roll moveto 0 rlineto
      0 exch rlineto 0 rlineto closepath } bind def
/S { stroke } bind def
/f { fill } bind def
/f* { eofill } bind def
/n { newpath } bind def
/W { clip } bind def
/W* { eoclip } bind def
/BT { } bind def
/ET { } bind def
/BDC { mark 3 1 roll /BDC pdfmark } bind def
/EMC { mark /EMC pdfmark } bind def
/cairo_store_point { /cairo_point_y exch def /cairo_point_x exch def } def
/Tj { show currentpoint cairo_store_point } bind def
/TJ {
  {
    dup
    type /stringtype eq
    { show } { -0.001 mul 0 cairo_font_matrix dtransform rmoveto } ifelse
  } forall
  currentpoint cairo_store_point
} bind def
/cairo_selectfont { cairo_font_matrix aload pop pop pop 0 0 6 array astore
    cairo_font exch selectfont cairo_point_x cairo_point_y moveto } bind def
/Tf { pop /cairo_font exch def /cairo_font_matrix where
      { pop cairo_selectfont } if } bind def
/Td { matrix translate cairo_font_matrix matrix concatmatrix dup
      /cairo_font_matrix exch def dup 4 get exch 5 get cairo_store_point
      /cairo_font where { pop cairo_selectfont } if } bind def
/Tm { 2 copy 8 2 roll 6 array astore /cairo_font_matrix exch def
      cairo_store_point /cairo_font where { pop cairo_selectfont } if } bind def
/g { setgray } bind def
/rg { setrgbcolor } bind def
/d1 { setcachedevice } bind def
/cairo_data_source {
  CairoDataIndex CairoData length lt
    { CairoData CairoDataIndex get /CairoDataIndex CairoDataIndex 1 add def }
    { () } ifelse
} def
/cairo_flush_ascii85_file { cairo_ascii85_file status { cairo_ascii85_file flushfile } if } def
/cairo_image { image cairo_flush_ascii85_file } def
/cairo_imagemask { imagemask cairo_flush_ascii85_file } def
%%EndProlog
%%BeginSetup
%%EndSetup
%%Page: 1 1
%%BeginPageSetup
%%PageBoundingBox: 43 3 341 380
%%EndPageSetup
q 43 3 298 377 rectclip
1 0 0 -1 0 384 cm q
0.290196 0.317647 0.376471 rg
145.637 189.789 m 133.543 177.754 126.746 161.391 126.75 144.328 c 126.75
 144.234 l 124.5 143.863 123 143.113 120.75 142.043 c 120.75 165.621 l 119.094
 191.656 l 118.324 203.062 120.258 214.488 124.742 225.008 c 162 225.309
 l 162 201.645 l 155.965 198.559 150.445 194.559 145.637 189.789 c h
145.637 189.789 m f
264.91 191.566 m 263.25 165.531 l 263.25 140.676 l 260.836 142.523 258 
143.742 255 144.227 c 255 144.328 l 255 169.172 240.695 191.797 218.25 202.449
 c 218.25 225 l 259.066 225.199 l 263.672 214.617 265.676 203.082 264.91
 191.566 c h
264.91 191.566 m f
258.449 99.496 m 257.422 114.344 l 257.414 114.508 257.395 114.668 257.363
 114.824 c 257.156 116.312 256.445 117.688 255.344 118.711 c 249.93 123.766
 l 249.227 124.418 248.086 124.125 247.777 123.219 c 243.898 111.578 l 242.582
 107.625 241.523 103.586 240.734 99.496 c h
258.449 99.496 m f
138.906 99.496 m 137.168 121.191 l 137.09 122.129 136.09 122.688 135.254
 122.258 c 127.551 118.305 l 126.172 117.594 125.172 116.32 124.809 114.809
 c 124.742 114.523 124.699 114.234 124.68 113.941 c 123.684 99.496 l h
138.906 99.496 m f
0.494118 0.494118 0.6 rg
262.703 80.664 m 262.703 80.723 l 119.387 80.723 l 119.387 80.664 l 119.387
 61.656 126.934 43.43 140.375 29.992 c 153.812 16.555 172.039 9.004 191.043
 9.004 c 210.051 9.004 228.277 16.555 241.715 29.992 c 255.152 43.43 262.703
 61.656 262.703 80.664 c h
262.703 80.664 m f
0.380392 0.466667 0.388235 rg
259.199 225.562 m 254.379 224.684 249.484 224.246 244.582 224.25 c 240.75
 224.25 l 191.25 269.391 l 191.25 375.75 l 336 375.75 l 336 318.441 l 336
 272.477 303.043 233.633 259.199 225.562 c h
259.199 225.562 m f
0.458824 0.588235 0.478431 rg
141 223.5 m 137.754 223.5 l 133.336 224.25 128.867 224.152 124.641 224.863
 c 81.012 232.164 48 270.832 48 316.352 c 48 375.75 l 191.25 375.75 l 191.25
 269.25 l h
141 223.5 m f
0.298039 0.282353 0.266667 rg
191.191 317.977 m 198.477 318.055 204.344 323.984 204.344 331.27 c 204.344
 338.559 198.477 344.488 191.191 344.566 c 191.039 344.566 l 187.516 344.566
 184.133 343.164 181.641 340.672 c 179.148 338.18 177.746 334.797 177.746
 331.27 c 177.746 327.746 179.148 324.363 181.641 321.871 c 184.133 319.379
 187.516 317.977 191.039 317.977 c h
191.191 317.977 m f
190.891 282.047 m 163.492 281.957 141.328 259.727 141.324 232.328 c 141.324
 223.785 l 161.918 223.809 l 161.918 223.859 l 161.918 239.504 174.602 252.188
 190.246 252.188 c 205.891 252.188 218.574 239.504 218.574 223.859 c 218.574
 223.852 l 240.758 223.875 l 240.758 232.328 l 240.758 259.785 218.496 282.043
 191.039 282.047 c h
190.891 282.047 m f
0.937255 0.772549 0.592157 rg
218.574 223.852 m 218.574 223.859 l 218.574 239.504 205.891 252.188 190.246
 252.188 c 174.602 252.188 161.918 239.504 161.918 223.859 c 161.918 201.645
 l 179.664 210.656 200.578 210.949 218.574 202.449 c h
218.574 223.852 m f
1 0.847059 0.717647 rg
218.574 202.449 m 198.652 211.871 175.297 210.438 156.68 198.648 c 138.062
 186.863 126.777 166.363 126.773 144.328 c 126.773 144.234 l 122.312 143.445
 118.375 140.848 115.898 137.051 c 113.426 133.258 112.633 128.605 113.715
 124.207 c 114.973 119.023 119.422 115.238 124.738 114.824 c 124.809 114.809
 l 125.172 116.32 126.172 117.594 127.551 118.305 c 135.254 122.258 l 136.09
 122.688 137.09 122.129 137.168 121.191 c 138.906 99.496 l 240.734 99.496
 l 241.523 103.586 242.582 107.625 243.898 111.578 c 247.777 123.219 l 248.086
 124.125 249.227 124.418 249.93 123.766 c 255.344 118.711 l 256.445 117.688
 257.156 116.312 257.363 114.824 c 257.391 114.824 l 262.691 115.258 267.117
 119.039 268.363 124.207 c 269.617 129.297 268.352 134.68 264.969 138.684
 c 264.355 139.402 263.684 140.07 262.957 140.676 c 260.773 142.508 258.148
 143.73 255.344 144.227 c 255.344 144.328 l 255.336 169.18 241.023 191.801
 218.574 202.449 c h
218.574 202.449 m f
0.427451 0.427451 0.576471 rg
113.289 99.008 m 113.25 99.105 l 111.059 102.449 107.875 105.023 104.145
 106.461 c 82.102 114.969 l 78.941 116.184 76.32 112.277 78.645 109.816 
c 86.242 101.766 l 93.188 94.418 93.188 82.926 86.242 75.578 c 78.645 67.523
 l 76.324 65.059 78.945 61.156 82.102 62.371 c 104.145 70.875 l 108.59 72.59
 112.23 75.906 114.359 80.168 c 110.031 81.066 106.844 84.762 106.59 89.176
 c 106.34 93.59 109.086 97.625 113.289 99.008 c h
113.289 99.008 m f
0.388235 0.388235 0.486275 rg
265.746 80.25 m 116.332 80.25 l 115.676 80.203 115.016 80.223 114.359 80.305
 c 109.824 81.18 106.555 85.156 106.574 89.773 c 106.574 94.016 109.273 
97.789 113.289 99.156 c 114.293 99.516 115.344 99.719 116.41 99.754 c 265.746
 99.754 l 268.352 99.711 270.832 98.637 272.648 96.77 c 274.477 94.969 275.504
 92.512 275.504 89.945 c 275.504 87.363 274.477 84.887 272.645 83.066 c 
270.812 81.246 268.328 80.234 265.746 80.25 c h
265.746 80.25 m f
0.333333 0.419608 0.341176 rg
142.355 225.809 m 141 224.25 l 141 223.5 l 137.754 223.5 l 87.832 225 48
 266.414 48 316.352 c 48 375.75 l 70.5 375.75 l 70.5 316.352 l 70.562 273.16
 100.309 235.676 142.355 225.809 c h
142.355 225.809 m f
0.388235 0.388235 0.458824 rg
202.223 9.883 m 198.488 9.293 194.719 9 190.938 9 c 151.355 9 119.262 41.078
 119.25 80.664 c 119.25 81 l 141.75 81 l 141.75 80.664 l 141.781 45.418 
167.414 15.414 202.223 9.883 c h
202.223 9.883 m f
0.32549 0.32549 0.4 rg
129.074 89.773 m 129.055 85.16 132.328 81.184 136.859 80.309 c 137.004 
80.281 137.148 80.262 137.293 80.254 c 116.332 80.254 l 115.676 80.207 115.016
 80.227 114.359 80.309 c 109.828 81.184 106.555 85.16 106.574 89.773 c 106.574
 94.016 109.273 97.789 113.289 99.156 c 114.293 99.516 115.344 99.719 116.41
 99.754 c 138.91 99.754 l 137.844 99.719 136.793 99.516 135.789 99.156 c
 131.773 97.789 129.074 94.016 129.074 89.773 c h
129.074 89.773 m f
0.156863 0.258824 0.407843 rg
312.625 249.426 m 299.738 235.918 283.234 226.41 265.086 222.035 c 265.211
 222.059 l 268.699 212.219 270.125 201.762 269.406 191.344 c 267.75 165.375
 l 267.75 142.637 l 270.75 138.855 273.48 133.715 273.48 128.109 c 273.457
 126.434 273.234 124.762 272.812 123.137 c 271.48 117.688 267.477 113.285
 262.176 111.449 c 262.645 104.25 l 265.746 104.25 l 273.383 104.195 279.641
 98.176 279.988 90.547 c 280.336 82.918 274.648 76.352 267.051 75.605 c 
264.602 35.871 231.965 4.727 192.16 4.145 c 152.355 3.559 118.816 33.727
 115.199 73.371 c 112.66 70.391 109.418 68.094 105.766 66.684 c 83.723 58.176
 l 80.375 56.887 76.582 58.086 74.582 61.062 c 72.582 64.043 72.914 68.008
 75.375 70.617 c 82.977 78.664 l 88.273 84.285 88.273 93.059 82.977 98.676
 c 75.375 106.727 l 73.273 108.953 72.695 112.219 73.902 115.031 c 75.109
 117.848 77.875 119.676 80.938 119.688 c 81.891 119.688 82.836 119.508 83.727
 119.164 c 105.766 110.66 l 109.426 109.297 112.68 107.023 115.223 104.062
 c 115.594 104.09 115.961 104.246 116.336 104.246 c 119.488 104.246 l 119.992
 111.426 l 114.672 113.281 110.664 117.715 109.348 123.191 c 108.906 124.805
 108.656 126.465 108.609 128.137 c 108.676 134.402 111.465 140.328 116.25
 144.375 c 116.25 165.473 l 114.609 191.348 l 113.883 201.605 115.238 211.906
 118.59 221.629 c 118.676 221.613 l 100.445 225.742 83.832 235.145 70.902
 248.645 c 53.32 266.797 43.492 291.078 43.5 316.352 c 43.5 375.496 l 43.602
 378.082 45.676 380.152 48.262 380.25 c 335.738 380.25 l 338.32 380.156 
340.398 378.082 340.5 375.5 c 340.5 318.441 l 340.504 292.695 330.508 267.949
 312.625 249.426 c h
191.043 13.363 m 226.332 13.23 255.656 40.539 258.031 75.75 c 124.051 75.75
 l 126.426 40.539 155.75 13.23 191.043 13.363 c h
106.457 99.996 m 105.273 100.953 103.945 101.719 102.523 102.266 c 85.906
 108.676 l 89.516 104.852 l 98.086 95.762 98.086 81.57 89.516 72.48 c 85.906
 68.656 l 102.523 75.074 l 104.453 75.82 106.203 76.973 107.652 78.449 c
 104.359 80.969 102.328 84.805 102.098 88.949 c 101.871 93.09 103.461 97.125
 106.457 99.996 c h
116.336 95.25 m 109.336 95.25 109.336 84.75 116.336 84.75 c 265.746 84.75
 l 272.746 84.75 272.746 95.25 265.746 95.25 c h
253.625 104.25 m 252.934 114.16 l 252.895 114.672 252.66 115.148 252.273
 115.484 c 250.48 117.125 l 248.168 110.297 l 247.492 108.273 246.895 105.754
 246.359 104.254 c h
134.031 104.25 m 133.066 116.203 l 129.609 114.363 l 129.363 114.273 129.191
 114.051 129.168 113.793 c 128.504 104.25 l h
117.738 128.109 m 117.738 127.156 117.855 126.203 118.082 125.277 c 118.621
 122.891 120.285 120.914 122.539 119.969 c 123.363 120.934 124.367 121.727
 125.496 122.305 c 133.199 126.262 l 134.93 127.152 136.988 127.117 138.688
 126.168 c 140.379 125.277 141.5 123.582 141.656 121.676 c 143.059 104.25
 l 237.102 104.25 l 237.809 107.25 238.648 110.176 239.629 113.125 c 243.512
 124.703 l 244.152 126.57 245.699 127.988 247.613 128.465 c 249.531 128.938
 251.559 128.41 253 127.059 c 258.414 122.004 l 259 121.453 259.523 120.84
 259.977 120.176 c 262.016 121.184 263.496 123.059 263.996 125.277 c 264.785
 128.488 264.191 131.879 262.367 134.637 c 260.543 137.395 257.652 139.262
 254.391 139.793 c 252.203 140.156 250.578 142.012 250.5 144.227 c 250.5
 144.328 l 250.5 177.258 223.805 203.953 190.875 203.953 c 157.945 203.953
 131.25 177.258 131.25 144.328 c 131.25 144.23 l 131.254 142.047 129.688
 140.176 127.539 139.797 c 121.863 138.809 117.727 133.871 117.738 128.109
 c h
256.32 220.352 m 252.492 219.797 248.633 219.473 244.762 219.375 c 244.621
 219.375 l 222.75 219.355 l 222.75 205.199 l 241.078 195.535 254.242 178.309
 258.75 158.082 c 258.75 165.527 l 258.75 165.633 258.609 165.734 258.617
 165.84 c 260.344 191.961 l 261.031 201.602 259.645 211.281 256.273 220.34
 c h
123.711 191.961 m 125.371 165.938 l 125.379 165.836 125.25 165.73 125.25
 165.629 c 125.25 165.215 l 130.5 181.902 142.5 195.836 157.5 204.297 c 
157.5 219.301 l 137.715 219.285 l 137.633 219.285 l 134.242 219.359 130.855
 219.617 127.492 220.051 c 127.613 220.031 l 124.348 211.055 123.02 201.488
 123.711 191.961 c h
145.5 228.293 m 157.805 228.305 l 159.918 244.527 173.734 256.672 190.098
 256.684 c 206.461 256.699 220.297 244.578 222.438 228.355 c 236.25 228.367
 l 236.25 232.328 l 236.25 257.387 215.934 277.703 190.875 277.703 c 165.816
 277.703 145.5 257.387 145.5 232.328 c h
166.5 223.859 m 166.5 208.535 l 174.289 211.582 182.582 213.137 190.941
 213.117 c 198.719 213.164 206.445 211.824 213.75 209.16 c 213.75 223.859
 l 213.75 236.906 203.172 247.484 190.125 247.484 c 177.078 247.484 166.5
 236.906 166.5 223.859 c h
186.438 371.25 m 103.5 371.25 l 103.5 327.434 l 103.5 321.434 94.5 321.434
 94.5 327.434 c 94.5 371.25 l 74.25 371.25 l 74.25 315.961 l 74.25 309.961
 65.25 309.961 65.25 315.961 c 65.25 371.25 l 52.5 371.25 l 52.5 316.352
 l 52.441 293.422 61.312 271.375 77.234 254.879 c 92.75 238.605 114.031 
229.07 136.5 228.32 c 136.5 232.328 l 136.5 260.668 158.523 283.984 186.266
 286.332 c 186.574 314.023 l 178.691 316.035 173.176 323.137 173.18 331.273
 c 173.195 339.445 178.723 346.578 186.629 348.645 c h
182.219 331.27 m 182.207 327.699 184.348 324.473 187.645 323.098 c 190.941
 321.723 194.738 322.473 197.27 324.992 c 199.797 327.512 200.559 331.309
 199.195 334.609 c 197.832 337.91 194.613 340.062 191.043 340.062 c 186.18
 340.066 182.234 336.133 182.219 331.27 c h
331.5 371.25 m 288 371.25 l 288 327.434 l 288 321.434 279 321.434 279 327.434
 c 279 371.25 l 195.438 371.25 l 195.652 348.582 l 203.445 346.484 208.863
 339.422 208.863 331.352 c 208.863 323.281 203.449 316.215 195.656 314.117
 c 195.426 286.367 l 223.555 284.043 245.215 260.555 245.25 232.328 c 245.25
 228.402 l 268.34 229.125 290.211 238.914 306.129 255.656 c 322.398 272.508
 331.496 295.016 331.5 318.441 c h
331.5 371.25 m f
69.75 296.195 m 67.266 296.195 65.25 298.211 65.25 300.695 c 65.25 302.242
 l 65.25 308.242 74.25 308.242 74.25 302.242 c 74.25 300.695 l 74.25 298.211
 72.234 296.195 69.75 296.195 c h
69.75 296.195 m f
Q Q
showpage
%%Trailer
end
%%EOF
