%!PS-Adobe-3.0 EPSF-3.0
%%Creator: cairo 1.16.0 (https://cairographics.org)
%%CreationDate: Tue Feb  2 14:04:49 2021
%%Pages: 1
%%DocumentData: Clean7Bit
%%LanguageLevel: 2
%%BoundingBox: 6 6 378 378
%%EndComments
%%BeginProlog
50 dict begin
/q { gsave } bind def
/Q { grestore } bind def
/cm { 6 array astore concat } bind def
/w { setlinewidth } bind def
/J { setlinecap } bind def
/j { setlinejoin } bind def
/M { setmiterlimit } bind def
/d { setdash } bind def
/m { moveto } bind def
/l { lineto } bind def
/c { curveto } bind def
/h { closepath } bind def
/re { exch dup neg 3 1 roll 5 3 roll moveto 0 rlineto
      0 exch rlineto 0 rlineto closepath } bind def
/S { stroke } bind def
/f { fill } bind def
/f* { eofill } bind def
/n { newpath } bind def
/W { clip } bind def
/W* { eoclip } bind def
/BT { } bind def
/ET { } bind def
/BDC { mark 3 1 roll /BDC pdfmark } bind def
/EMC { mark /EMC pdfmark } bind def
/cairo_store_point { /cairo_point_y exch def /cairo_point_x exch def } def
/Tj { show currentpoint cairo_store_point } bind def
/TJ {
  {
    dup
    type /stringtype eq
    { show } { -0.001 mul 0 cairo_font_matrix dtransform rmoveto } ifelse
  } forall
  currentpoint cairo_store_point
} bind def
/cairo_selectfont { cairo_font_matrix aload pop pop pop 0 0 6 array astore
    cairo_font exch selectfont cairo_point_x cairo_point_y moveto } bind def
/Tf { pop /cairo_font exch def /cairo_font_matrix where
      { pop cairo_selectfont } if } bind def
/Td { matrix translate cairo_font_matrix matrix concatmatrix dup
      /cairo_font_matrix exch def dup 4 get exch 5 get cairo_store_point
      /cairo_font where { pop cairo_selectfont } if } bind def
/Tm { 2 copy 8 2 roll 6 array astore /cairo_font_matrix exch def
      cairo_store_point /cairo_font where { pop cairo_selectfont } if } bind def
/g { setgray } bind def
/rg { setrgbcolor } bind def
/d1 { setcachedevice } bind def
/cairo_data_source {
  CairoDataIndex CairoData length lt
    { CairoData CairoDataIndex get /CairoDataIndex CairoDataIndex 1 add def }
    { () } ifelse
} def
/cairo_flush_ascii85_file { cairo_ascii85_file status { cairo_ascii85_file flushfile } if } def
/cairo_image { image cairo_flush_ascii85_file } def
/cairo_imagemask { imagemask cairo_flush_ascii85_file } def
%%EndProlog
%%BeginSetup
%%EndSetup
%%Page: 1 1
%%BeginPageSetup
%%PageBoundingBox: 6 6 378 378
%%EndPageSetup
q 6 6 372 372 rectclip
1 0 0 -1 0 384 cm q
0.462745 0.431373 0.537255 rg
281.969 11.16 m 267.051 26.07 l 261.277 31.852 261.047 41.145 266.527 47.203
 c 336.797 117.473 l 342.855 122.953 352.148 122.723 357.93 116.949 c 372.84
 102.031 l h
281.969 11.16 m f
0.592157 0.54902 0.67451 rg
336.238 116.949 m 267.051 47.762 l 266.871 47.578 266.691 47.391 266.527
 47.203 c 266.512 47.219 l 166.672 147.051 l 164.141 149.582 162.719 153.016
 162.719 156.598 c 162.719 160.176 164.141 163.609 166.672 166.141 c 217.859
 217.328 l 220.391 219.859 223.824 221.281 227.402 221.281 c 230.984 221.281
 234.418 219.859 236.949 217.328 c 336.781 117.488 l 336.797 117.473 l 336.609
 117.309 336.422 117.129 336.238 116.949 c h
336.238 116.949 m f
93.742 261.164 m 33.652 321.246 l 33.57 321.352 l 63.148 351.141 l 63.391
 350.992 l 123.48 290.902 l h
93.742 261.164 m f
0.254902 0.709804 0.698039 rg
349.762 34.238 m 369.219 53.684 376.012 79.523 367.641 96.832 c 287.281
 16.469 l 287.594 16.156 l 304.906 8.102 330.48 14.949 349.762 34.238 c 
h
349.762 34.238 m f
0.462745 0.431373 0.537255 rg
63.148 351.141 m 33.57 321.352 l 27.664 316.965 19.375 317.883 14.566 323.449
 c 9.762 329.02 10.066 337.355 15.27 342.555 c 41.445 368.73 l 46.527 373.812
 54.633 374.238 60.219 369.711 c 65.805 365.184 67.07 357.172 63.148 351.141
 c h
63.148 351.141 m f
0.729412 0.670588 0.831373 rg
167.34 166.809 m 92.91 241.238 l 90.379 243.77 88.953 247.203 88.953 250.785
 c 88.953 254.367 90.379 257.801 92.91 260.332 c 123.668 291.09 l 126.199
 293.621 129.633 295.047 133.215 295.047 c 136.797 295.047 140.23 293.621
 142.762 291.09 c 217.191 216.66 l h
167.34 166.809 m f
0.360784 0.341176 0.427451 rg
296.969 26.16 m 281.969 11.16 l 267.051 26.07 l 261.277 31.852 261.047 
41.145 266.527 47.203 c 281.527 62.203 l 276.047 56.145 276.277 46.852 282.051
 41.07 c h
296.969 26.16 m f
0.203922 0.576471 0.556863 rg
356.781 42.227 m 354.617 39.414 352.27 36.746 349.762 34.238 c 330.48 14.949
 304.906 8.102 287.594 16.156 c 287.281 16.469 l 302.281 31.469 l 302.594
 31.156 l 317.605 24.168 338.832 28.398 356.781 42.227 c h
356.781 42.227 m f
0.545098 0.517647 0.627451 rg
182.34 181.809 m 167.34 166.809 l 92.91 241.238 l 90.379 243.77 88.953 
247.203 88.953 250.785 c 88.953 254.367 90.379 257.801 92.91 260.332 c 107.91
 275.332 l 105.379 272.801 103.953 269.367 103.953 265.785 c 103.953 262.203
 105.379 258.77 107.91 256.238 c h
182.34 181.809 m f
0.411765 0.388235 0.478431 rg
181.672 162.051 m 281.512 62.219 l 267.051 47.762 l 266.871 47.578 266.691
 47.391 266.527 47.203 c 266.512 47.219 l 166.672 147.051 l 164.141 149.582
 162.719 153.016 162.719 156.598 c 162.719 160.176 164.141 163.609 166.672
 166.141 c 181.672 181.141 l 179.141 178.609 177.719 175.176 177.719 171.598
 c 177.719 168.016 179.141 164.582 181.672 162.051 c h
181.672 162.051 m f
0.156863 0.258824 0.407843 rg
251.348 89.18 m 246.762 93.762 l 244.93 95.504 244.891 98.418 246.68 100.207
 c 248.469 101.996 251.383 101.961 253.125 100.125 c 257.711 95.543 l 261.953
 91.297 255.586 84.934 251.344 89.18 c h
251.348 89.18 m f
233.969 106.559 m 194.301 146.227 l 190.059 150.469 196.422 156.832 200.664
 152.59 c 240.332 112.922 l 244.574 108.68 238.211 102.316 233.969 106.559
 c h
233.969 106.559 m f
372.969 95.793 m 380.277 76.562 372.363 50.465 352.949 31.051 c 333.598
 11.703 307.422 3.738 288.207 11.031 c 285.148 7.977 l 283.395 6.219 280.543
 6.219 278.785 7.977 c 263.875 22.887 l 257.562 29.203 256.246 38.949 260.648
 46.715 c 163.492 143.867 l 157.445 149.934 156.5 159.418 161.23 166.559
 c 89.73 238.059 l 83.609 244.18 82.715 253.789 87.594 260.938 c 32.797 
315.734 l 24.641 312.062 15.023 314.742 9.941 322.105 c 4.859 329.465 5.766
 339.41 12.09 345.734 c 38.266 371.91 l 44.461 378.109 54.152 379.125 61.496
 374.336 c 68.84 369.547 71.824 360.27 68.652 352.098 c 123.855 296.895 
l 130.941 301.223 140.07 300.137 145.941 294.27 c 217.438 222.773 l 224.578
 227.512 234.07 226.566 240.133 220.508 c 337.289 123.348 l 345.055 127.742
 354.797 126.426 361.113 120.121 c 376.023 105.211 l 377.781 103.453 377.781
 100.605 376.023 98.848 c h
58.125 365.551 m 54.395 369.27 48.359 369.27 44.629 365.551 c 18.449 339.375
 l 14.723 335.648 14.723 329.605 18.453 325.875 c 22.18 322.148 28.223 322.152
 31.949 325.879 c 58.125 352.055 l 61.848 355.781 61.848 361.82 58.125 365.551
 c h
63.414 344.617 m 40.027 321.234 l 93.738 267.523 l 117.121 290.906 l h
139.574 287.906 m 136.059 291.414 130.363 291.414 126.848 287.906 c 96.09
 257.148 l 94.402 255.461 93.457 253.172 93.457 250.785 c 93.457 248.398
 94.402 246.109 96.09 244.422 c 167.34 173.172 l 210.824 216.656 l h
233.766 214.141 m 232.078 215.832 229.789 216.777 227.402 216.777 c 225.016
 216.777 222.727 215.832 221.035 214.141 c 169.855 162.961 l 166.348 159.441
 166.348 153.75 169.855 150.23 c 266.508 53.578 l 330.422 117.492 l h
354.75 113.762 m 350.516 117.988 343.656 117.988 339.422 113.762 c 270.238
 44.582 l 266.004 40.348 266.004 33.484 270.238 29.254 c 281.969 17.523 
l 366.477 102.031 l h
365.773 88.594 m 295.391 18.219 l 310.926 14.57 331.055 21.887 346.586 
37.418 c 361.895 52.727 369.285 73.148 365.77 88.594 c h
365.773 88.594 m f
Q Q
showpage
%%Trailer
end
%%EOF
