%!PS-Adobe-3.0 EPSF-3.0
%%Creator: cairo 1.16.0 (https://cairographics.org)
%%CreationDate: Tue Feb  2 14:48:15 2021
%%Pages: 1
%%DocumentData: Clean7Bit
%%LanguageLevel: 2
%%BoundingBox: 3 86 381 298
%%EndComments
%%BeginProlog
50 dict begin
/q { gsave } bind def
/Q { grestore } bind def
/cm { 6 array astore concat } bind def
/w { setlinewidth } bind def
/J { setlinecap } bind def
/j { setlinejoin } bind def
/M { setmiterlimit } bind def
/d { setdash } bind def
/m { moveto } bind def
/l { lineto } bind def
/c { curveto } bind def
/h { closepath } bind def
/re { exch dup neg 3 1 roll 5 3 roll moveto 0 rlineto
      0 exch rlineto 0 rlineto closepath } bind def
/S { stroke } bind def
/f { fill } bind def
/f* { eofill } bind def
/n { newpath } bind def
/W { clip } bind def
/W* { eoclip } bind def
/BT { } bind def
/ET { } bind def
/BDC { mark 3 1 roll /BDC pdfmark } bind def
/EMC { mark /EMC pdfmark } bind def
/cairo_store_point { /cairo_point_y exch def /cairo_point_x exch def } def
/Tj { show currentpoint cairo_store_point } bind def
/TJ {
  {
    dup
    type /stringtype eq
    { show } { -0.001 mul 0 cairo_font_matrix dtransform rmoveto } ifelse
  } forall
  currentpoint cairo_store_point
} bind def
/cairo_selectfont { cairo_font_matrix aload pop pop pop 0 0 6 array astore
    cairo_font exch selectfont cairo_point_x cairo_point_y moveto } bind def
/Tf { pop /cairo_font exch def /cairo_font_matrix where
      { pop cairo_selectfont } if } bind def
/Td { matrix translate cairo_font_matrix matrix concatmatrix dup
      /cairo_font_matrix exch def dup 4 get exch 5 get cairo_store_point
      /cairo_font where { pop cairo_selectfont } if } bind def
/Tm { 2 copy 8 2 roll 6 array astore /cairo_font_matrix exch def
      cairo_store_point /cairo_font where { pop cairo_selectfont } if } bind def
/g { setgray } bind def
/rg { setrgbcolor } bind def
/d1 { setcachedevice } bind def
/cairo_data_source {
  CairoDataIndex CairoData length lt
    { CairoData CairoDataIndex get /CairoDataIndex CairoDataIndex 1 add def }
    { () } ifelse
} def
/cairo_flush_ascii85_file { cairo_ascii85_file status { cairo_ascii85_file flushfile } if } def
/cairo_image { image cairo_flush_ascii85_file } def
/cairo_imagemask { imagemask cairo_flush_ascii85_file } def
%%EndProlog
%%BeginSetup
%%EndSetup
%%Page: 1 1
%%BeginPageSetup
%%PageBoundingBox: 3 86 381 298
%%EndPageSetup
q 3 86 378 212 rectclip
1 0 0 -1 0 384 cm q
0.992157 0.866667 0.847059 rg
254.398 268.191 m 254.355 265.852 253.262 263.656 251.422 262.207 c 251.461
 262.156 l 251.461 262.156 303.523 244.648 324.18 191.129 c 359.145 179.273
 375.75 194.113 375.75 194.113 c 351.082 284.566 254.398 273.621 254.398
 273.621 c h
254.398 268.191 m f
0.960784 0.792157 0.756863 rg
324.18 191.129 m 303.523 244.648 251.461 262.156 251.461 262.156 c 251.422
 262.207 l 250.043 261.105 248.328 260.508 246.562 260.512 c 227.934 260.512
 l 227.934 260.512 271.254 230.203 275.055 158.363 c 305.113 136.926 332.414
 140.371 332.414 140.371 c 332.949 160.074 329.676 176.879 324.18 191.129
 c h
324.18 191.129 m f
0.992157 0.866667 0.847059 rg
211.926 260.512 m 192.711 260.512 l 192.711 260.512 233.16 203.43 219.922
 143.355 c 236.129 117.441 272.672 114.734 272.672 114.734 c 274.957 129.156
 275.754 143.777 275.055 158.363 c 271.254 230.203 227.934 260.512 227.934
 260.512 c h
211.926 260.512 m f
0.960784 0.792157 0.756863 rg
190.688 260.512 m 190.688 260.512 149.656 203.219 162.914 143.023 c 166.816
 125.332 175.402 107.387 191.109 90.57 c 191.559 90.57 l 207.359 107.488
 216 125.559 219.922 143.355 c 233.16 203.43 192.711 260.512 192.711 260.512
 c h
190.688 260.512 m f
0.992157 0.866667 0.847059 rg
172.41 260.512 m 155.551 260.512 l 155.551 260.512 111.855 229.941 108.383
 157.434 c 107.766 143.156 108.578 128.852 110.812 114.734 c 110.812 114.734
 146.707 117.105 162.914 143.023 c 149.656 203.219 190.688 260.512 190.688
 260.512 c h
172.41 260.512 m f
0.960784 0.792157 0.756863 rg
143.453 260.512 m 140.379 260.512 l 138.801 260.508 137.262 260.984 135.961
 261.879 c 135.922 261.824 l 135.922 261.824 81.832 244.551 60.262 191.211
 c 54.496 176.961 51.051 160.133 51.586 140.371 c 51.586 140.371 78.324 
135.996 108.383 157.434 c 111.855 229.941 155.551 260.512 155.551 260.512
 c h
143.453 260.512 m f
0.992157 0.866667 0.847059 rg
135.961 261.879 m 133.82 263.336 132.539 265.758 132.539 268.352 c 132.539
 273.156 l 132.539 273.156 32.918 284.566 8.25 194.113 c 8.25 194.113 25.281
 179.355 60.262 191.211 c 81.832 244.551 135.922 261.824 135.922 261.824
 c h
135.961 261.879 m f
0.819608 0.721569 0.713726 rg
30.855 194.113 m 30.855 194.113 35.93 189.691 46.305 187.633 c 20.785 183.32
 8.379 194.113 8.379 194.113 c 33.047 284.566 132.75 273.156 132.75 273.156
 c 132.75 273.148 l 102 270.742 48.066 257.219 30.855 194.113 c h
30.855 194.113 m f
0.780392 0.603922 0.513726 rg
251.348 262.078 m 250.008 260.938 248.32 260.293 246.562 260.25 c 140.379
 260.25 l 138.82 260.293 137.312 260.816 136.066 261.75 c 133.945 263.273
 132.707 265.738 132.75 268.352 c 132.75 285.594 l 132.711 287.629 133.5
 289.598 134.938 291.039 c 136.375 292.484 138.34 293.281 140.379 293.25
 c 246.562 293.25 l 248.598 293.301 250.566 292.523 252.016 291.094 c 253.469
 289.66 254.273 287.703 254.25 285.668 c 254.25 268.191 l 254.258 265.82
 253.191 263.57 251.348 262.078 c h
251.348 262.078 m f
0.556863 0.435294 0.380392 rg
155.25 285.594 m 155.25 268.352 l 155.207 265.738 156.445 263.273 158.566
 261.75 c 159.812 260.816 161.32 260.293 162.879 260.25 c 140.379 260.25
 l 138.82 260.293 137.312 260.816 136.066 261.75 c 133.945 263.273 132.707
 265.738 132.75 268.352 c 132.75 285.594 l 132.711 287.629 133.5 289.598
 134.938 291.039 c 136.375 292.484 138.34 293.281 140.379 293.25 c 162.879
 293.25 l 160.84 293.281 158.875 292.484 157.438 291.039 c 156 289.598 155.211
 287.629 155.25 285.594 c h
155.25 285.594 m f
0.156863 0.258824 0.407843 rg
331.18 184.414 m 335.488 170.102 337.426 155.184 336.914 140.25 c 336.852
 138.027 335.18 136.184 332.977 135.906 c 331.887 135.77 307.871 133.016
 279.766 149.91 c 279.855 137.906 278.969 125.914 277.117 114.055 c 276.766
 111.73 274.68 110.07 272.336 110.25 c 270.91 110.355 240.488 112.855 221.855
 133.395 c 216.68 116.629 207.648 101.211 194.844 87.5 c 193.992 86.59 192.801
 86.074 191.555 86.074 c 191.105 86.074 l 189.855 86.074 188.668 86.59 187.816
 87.5 c 175.098 101.117 166.133 116.422 160.984 133.059 c 142.438 112.566
 112.512 110.34 111.109 110.246 c 108.781 110.098 106.719 111.75 106.363
 114.055 c 104.559 125.617 103.668 137.309 103.707 149.012 c 75.582 132.172
 51.934 135.754 50.855 135.93 c 48.727 136.281 47.145 138.094 47.086 140.25
 c 46.57 155.223 48.609 170.172 53.109 184.457 c 21.824 176.852 6.016 190.094
 5.305 190.711 c 3.996 191.844 3.453 193.629 3.91 195.297 c 17.195 244.008
 51.719 263.82 78.344 271.863 c 92.438 276.027 107.055 278.141 121.754 278.133
 c 124.207 278.133 126.32 278.07 128.039 277.992 c 128.039 285.594 l 128.047
 292.402 133.566 297.922 140.375 297.93 c 246.562 297.93 l 253.375 297.922
 258.891 292.406 258.898 285.594 c 258.898 278.438 l 260.398 278.5 262.191
 278.547 264.254 278.547 c 278.805 278.547 293.273 276.367 307.176 272.078
 c 333.109 263.922 366.816 243.98 380.094 195.297 c 380.543 193.652 380.023
 191.895 378.75 190.758 c 378.051 190.133 362.535 176.738 331.18 184.414
 c h
222.418 204.398 m 227.746 183.211 228.449 163.043 224.652 144.352 c 236.625
 126.773 259.484 121.312 268.848 119.773 c 275.504 169.285 263.781 203.543
 252.574 223.75 c 242.035 242.746 230.012 253.156 226.414 256.016 c 221.656
 256.016 l 232.469 242.266 240.199 226.883 245.02 215.605 c 245.996 213.32
 244.938 210.676 242.652 209.699 c 240.367 208.719 237.723 209.781 236.746
 212.066 c 231.477 224.398 222.59 241.844 209.918 256.016 c 200.918 256.016
 l 210.508 239.922 217.746 222.539 222.418 204.398 c h
166.316 149.102 m 169.551 129.949 177.961 112.461 191.332 97.043 c 204.672
 112.418 213.113 129.871 216.438 148.965 c 219.312 165.469 218.41 183.293
 213.758 201.938 c 209.859 217.105 204.078 231.723 196.551 245.457 c 196.656
 213.602 l 196.664 211.117 194.656 209.098 192.172 209.09 c 192.156 209.09
 l 189.676 209.09 187.664 211.094 187.656 213.574 c 187.547 246.887 l 179.586
 232.824 173.465 217.801 169.332 202.18 c 164.535 183.5 163.52 165.641 166.316
 149.102 c h
114.641 119.746 m 123.867 121.211 146.266 126.496 158.188 144.02 c 154.375
 162.812 155.145 183.094 160.621 204.418 c 165.398 222.566 172.742 239.941
 182.43 256.016 c 174.422 256.016 l 161.75 241.84 152.863 224.395 147.598
 212.062 c 145.238 206.547 136.961 210.082 139.32 215.602 c 144.141 226.883
 151.871 242.262 162.684 256.012 c 157.07 256.012 l 153.473 253.156 141.449
 242.742 130.91 223.746 c 119.699 203.539 107.977 169.273 114.637 119.746
 c h
80.086 246.707 m 74.617 244.34 71.02 252.496 76.453 254.941 c 88.012 260.039
 102.211 265.781 116.797 269.012 c 104.551 268.621 92.406 266.652 80.664
 263.16 c 46.285 252.688 23.691 230.102 13.469 196 c 18.684 193 32.945 187.242
 56.992 194.879 c 64.426 212.086 75.66 227.387 89.852 239.633 c 99.625 248.117
 110.477 255.277 122.121 260.926 c 107.152 258.074 92.141 252.023 80.086
 246.707 c h
107.215 217.438 m 103.727 212.555 96.402 217.785 99.891 222.668 c 107.961
 233.848 117.172 244.16 127.375 253.441 c 115.949 248.047 105.312 241.117
 95.766 232.848 c 81.637 220.535 71.25 206.289 64.648 190.227 c 64.543 189.754
 64.363 189.301 64.113 188.887 c 58.758 175.348 56.062 160.562 56.035 144.531
 c 60.188 144.426 64.34 144.711 68.441 145.375 c 77.039 146.723 90.066 150.371
 104.066 159.918 c 105.941 190.566 114.77 213.332 123.312 228.59 c 128.176
 237.348 134.031 245.516 140.762 252.934 c 123.688 239.625 110.965 222.691
 107.215 217.438 c h
249.898 285.594 m 249.898 287.438 248.406 288.93 246.566 288.93 c 140.375
 288.93 l 138.535 288.93 137.043 287.438 137.039 285.594 c 137.039 268.352
 l 137.043 266.508 138.535 265.016 140.375 265.016 c 246.562 265.016 l 248.406
 265.016 249.898 266.508 249.898 268.352 c h
256.199 255.332 m 268.199 244.562 277.777 232.012 284.445 222.668 c 287.934
 217.785 280.609 212.555 277.121 217.438 c 269.082 228.703 256.66 244.82
 241.039 256.016 c 239.797 256.016 l 247.785 247.824 254.641 238.602 260.18
 228.59 c 268.633 213.488 277.371 191.027 279.363 160.848 c 300.43 146.457
 319.926 144.703 327.969 144.68 c 327.961 160.625 325.395 175.359 320.273
 188.891 c 320.039 189.301 319.867 189.746 319.77 190.211 c 313.48 206.25
 303.578 220.5 290.113 232.84 c 280.027 242.031 268.59 249.617 256.199 255.332
 c h
304.766 263.398 m 294.496 266.598 283.883 268.551 273.148 269.219 c 283.344
 266.23 292.711 261.906 300.816 258.16 c 303.301 257.012 305.645 255.926
 307.883 254.938 c 310.176 253.945 311.219 251.277 310.211 248.992 c 309.203
 246.707 306.527 245.68 304.25 246.703 c 301.941 247.723 299.562 248.824
 297.043 249.988 c 286.379 254.918 274.52 260.387 261.723 262.715 c 274.18
 256.762 285.699 249.016 295.914 239.727 c 309.656 227.285 320.441 211.93
 327.484 194.785 c 351.512 187.164 365.457 192.938 370.547 195.953 c 360.352
 230.102 338.234 252.781 304.766 263.398 c h
304.766 263.398 m f
191.297 205.66 m 191.305 205.66 l 193.789 205.656 195.801 203.637 195.797
 201.152 c 195.773 187.617 l 195.77 185.137 193.754 183.125 191.273 183.125
 c 191.266 183.125 l 188.781 183.129 186.77 185.148 186.773 187.633 c 186.797
 201.168 l 186.801 203.648 188.812 205.66 191.297 205.66 c h
191.297 205.66 m f
135.395 205.785 m 137.488 211.41 145.922 208.27 143.828 202.645 c 141.184
 195.535 139.891 190.855 139.879 190.809 c 138.242 185.117 129.707 187.453
 131.199 193.188 c 131.254 193.391 132.602 198.262 135.395 205.785 c h
135.395 205.785 m f
95.121 198.332 m 92.336 193.02 84.363 197.199 87.148 202.516 c 87.246 202.703
 89.602 207.172 93.949 213.922 c 95.289 216.02 98.086 216.633 100.18 215.281
 c 102.273 213.93 102.875 211.137 101.516 209.047 c 97.41 202.668 95.145
 198.375 95.121 198.332 c h
95.121 198.332 m f
70.906 242.391 m 64.117 239.004 59.98 236.469 59.938 236.441 c 54.84 233.336
 50.148 240.949 55.219 244.105 c 55.398 244.219 59.707 246.859 66.887 250.445
 c 69.109 251.555 71.812 250.652 72.922 248.43 c 74.031 246.203 73.129 243.504
 70.906 242.391 c h
70.906 242.391 m f
243.156 208.434 m 245.484 209.301 248.078 208.113 248.941 205.785 c 251.742
 198.262 253.082 193.391 253.137 193.184 c 254.723 187.398 246.043 185.02
 244.457 190.809 c 244.445 190.855 243.152 195.535 240.508 202.645 c 239.641
 204.973 240.824 207.566 243.156 208.434 c h
243.156 208.434 m f
297.184 202.516 m 298.34 200.316 297.492 197.594 295.293 196.441 c 293.094
 195.285 290.371 196.133 289.215 198.332 c 289.195 198.375 286.93 202.668
 282.82 209.047 c 279.57 214.09 287.137 218.965 290.387 213.922 c 294.73
 207.172 297.086 202.703 297.184 202.516 c h
297.184 202.516 m f
324.398 236.441 m 324.359 236.469 320.219 239.004 313.434 242.391 c 308.062
 245.074 312.082 253.125 317.453 250.445 c 324.633 246.859 328.938 244.219
 329.117 244.105 c 334.227 240.961 329.508 233.297 324.398 236.441 c h
324.398 236.441 m f
Q Q
showpage
%%Trailer
end
%%EOF
