%!PS-Adobe-3.0 EPSF-3.0
%%Creator: cairo 1.16.0 (https://cairographics.org)
%%CreationDate: Tue Feb  2 14:48:16 2021
%%Pages: 1
%%DocumentData: Clean7Bit
%%LanguageLevel: 2
%%BoundingBox: 3 29 381 355
%%EndComments
%%BeginProlog
50 dict begin
/q { gsave } bind def
/Q { grestore } bind def
/cm { 6 array astore concat } bind def
/w { setlinewidth } bind def
/J { setlinecap } bind def
/j { setlinejoin } bind def
/M { setmiterlimit } bind def
/d { setdash } bind def
/m { moveto } bind def
/l { lineto } bind def
/c { curveto } bind def
/h { closepath } bind def
/re { exch dup neg 3 1 roll 5 3 roll moveto 0 rlineto
      0 exch rlineto 0 rlineto closepath } bind def
/S { stroke } bind def
/f { fill } bind def
/f* { eofill } bind def
/n { newpath } bind def
/W { clip } bind def
/W* { eoclip } bind def
/BT { } bind def
/ET { } bind def
/BDC { mark 3 1 roll /BDC pdfmark } bind def
/EMC { mark /EMC pdfmark } bind def
/cairo_store_point { /cairo_point_y exch def /cairo_point_x exch def } def
/Tj { show currentpoint cairo_store_point } bind def
/TJ {
  {
    dup
    type /stringtype eq
    { show } { -0.001 mul 0 cairo_font_matrix dtransform rmoveto } ifelse
  } forall
  currentpoint cairo_store_point
} bind def
/cairo_selectfont { cairo_font_matrix aload pop pop pop 0 0 6 array astore
    cairo_font exch selectfont cairo_point_x cairo_point_y moveto } bind def
/Tf { pop /cairo_font exch def /cairo_font_matrix where
      { pop cairo_selectfont } if } bind def
/Td { matrix translate cairo_font_matrix matrix concatmatrix dup
      /cairo_font_matrix exch def dup 4 get exch 5 get cairo_store_point
      /cairo_font where { pop cairo_selectfont } if } bind def
/Tm { 2 copy 8 2 roll 6 array astore /cairo_font_matrix exch def
      cairo_store_point /cairo_font where { pop cairo_selectfont } if } bind def
/g { setgray } bind def
/rg { setrgbcolor } bind def
/d1 { setcachedevice } bind def
/cairo_data_source {
  CairoDataIndex CairoData length lt
    { CairoData CairoDataIndex get /CairoDataIndex CairoDataIndex 1 add def }
    { () } ifelse
} def
/cairo_flush_ascii85_file { cairo_ascii85_file status { cairo_ascii85_file flushfile } if } def
/cairo_image { image cairo_flush_ascii85_file } def
/cairo_imagemask { imagemask cairo_flush_ascii85_file } def
%%EndProlog
%%BeginSetup
%%EndSetup
%%Page: 1 1
%%BeginPageSetup
%%PageBoundingBox: 3 29 381 355
%%EndPageSetup
q 3 29 378 326 rectclip
1 0 0 -1 0 384 cm q
0.505882 0.784314 0.239216 rg
355.254 56.234 m 356.781 56.316 357.344 58.285 356.086 59.16 c 302.648 
96.578 271.531 77.762 260.16 69.922 c 247.102 60.93 231.293 65.477 230.859
 65.602 c 236.664 56.941 247.262 44.941 264.262 38.281 c 283.926 30.578 
306.082 33.449 323.738 45.031 c 331.574 50.168 342.668 55.59 355.254 56.234
 c h
355.254 56.234 m f
0.556863 0.509804 0.490196 rg
225.129 75.938 m 232.02 92.16 l 231.219 92.797 230.465 93.484 229.754 94.223
 c 227.785 96.289 224.957 97.309 222.121 96.969 c 221.391 96.879 220.598
 96.809 219.758 96.789 c 219.758 96.781 l 206.773 66.504 l 206.477 65.793
 206.566 64.98 207.016 64.359 c 213.031 56.012 l 214.031 54.621 216.164 
54.863 216.832 56.438 c h
225.129 75.938 m f
0.298039 0.662745 0.529412 rg
193.734 144.074 m 191.602 169.297 191.184 191.543 183.164 223.824 c 178.605
 242.184 177.547 267.891 184.109 291.316 c 184.102 291.316 l 183.578 291.449
 178.102 293.191 133.336 308.379 c 115.402 314.461 95.617 314.414 76.957
 308.738 c 14.062 289.582 -11.348 214.664 24.914 159.84 c 51.473 119.691
 96.277 107.16 133.336 121.344 c 187.922 142.246 193.734 144.074 193.734
 144.074 c h
193.734 144.074 m f
0.952941 0.807843 0.490196 rg
331.629 176.543 m 369.938 210.254 419.715 302.656 303.246 343.824 c 228.246
 364.23 195.227 331.059 184.109 291.316 c 177.547 267.891 178.605 242.184
 183.164 223.824 c 191.184 191.543 191.602 169.297 193.734 144.074 c 194.309
 137.219 195.016 130.148 196.035 122.594 c 199.094 99.93 211.664 96.516 
219.758 96.789 c 220.598 96.809 221.391 96.879 222.121 96.969 c 224.957 
97.309 227.785 96.289 229.754 94.223 c 230.465 93.484 231.219 92.797 232.02
 92.16 c 237.93 87.48 248.691 84.105 263.371 100.656 c 287.039 127.359 299.859
 148.598 331.629 176.543 c h
331.629 176.543 m f
0.737255 0.368627 0.317647 rg
334.035 263.609 m 334.035 291.277 309.539 313.711 279.324 313.711 c 249.105
 313.711 224.602 291.277 224.602 263.609 c 224.602 235.941 237.367 197.047
 267.594 197.047 c 297.816 197.047 334.035 235.934 334.035 263.609 c h
334.035 263.609 m f
0.254902 0.517647 0.411765 rg
47.414 159.84 m 64.418 134.133 88.906 119.77 114.047 116.469 c 81.684 112.191
 46.996 126.465 24.914 159.84 c -11.348 214.664 14.062 289.582 76.957 308.738
 c 89.664 312.656 103.055 313.859 116.258 312.273 c 110.566 311.59 104.941
 310.406 99.457 308.738 c 36.562 289.582 11.152 214.664 47.414 159.84 c 
h
47.414 159.84 m f
0.54902 0.282353 0.254902 rg
247.102 263.609 m 247.102 239.465 256.82 206.793 279.367 198.848 c 275.547
 197.691 271.582 197.082 267.59 197.047 c 237.367 197.047 224.602 235.934
 224.602 263.609 c 224.602 291.285 249.102 313.711 279.32 313.711 c 283.098
 313.711 286.863 313.355 290.57 312.645 c 265.75 307.895 247.102 287.746
 247.102 263.609 c h
247.102 263.609 m f
0.156863 0.258824 0.407843 rg
267.59 192.551 m 232.996 192.551 220.105 236.137 220.105 263.609 c 220.105
 293.715 246.672 318.207 279.324 318.207 c 311.973 318.207 338.539 293.715
 338.539 263.609 c 338.539 249.207 329.879 231.711 315.371 216.812 c 300.574
 201.621 282.715 192.551 267.59 192.551 c h
279.324 309.207 m 251.633 309.207 229.105 288.754 229.105 263.609 c 229.105
 249.004 232.707 233.473 238.742 222.059 c 243.695 212.703 252.707 201.555
 267.59 201.555 c 280.34 201.555 295.789 209.605 308.922 223.094 c 321.641
 236.152 329.539 251.68 329.539 263.609 c 329.539 288.75 307.012 309.207
 279.324 309.207 c h
279.324 309.207 m f
94.691 135.312 m 93.062 135.453 91.422 135.656 89.824 135.914 c 87.352 
136.293 85.66 138.617 86.062 141.086 c 86.465 143.559 88.809 145.223 91.273
 144.797 c 92.645 144.57 94.047 144.398 95.453 144.281 c 101.434 143.773
 100.672 134.805 94.691 135.312 c h
94.691 135.312 m f
73.867 140.766 m 64.777 144.941 56.812 151.215 50.625 159.074 c 49.051 
161.027 49.375 163.887 51.348 165.438 c 53.316 166.984 56.176 166.625 57.699
 164.637 c 63 157.902 69.824 152.527 77.609 148.949 c 79.891 147.93 80.898
 145.242 79.859 142.973 c 78.82 140.699 76.129 139.711 73.867 140.766 c 
h
73.867 140.766 m f
334.598 173.164 m 313.352 154.473 300.727 138.863 287.359 122.34 c 281.004
 114.48 274.426 106.352 266.734 97.672 c 258.734 88.645 250.699 83.988 242.855
 83.832 c 239.848 83.766 236.867 84.375 234.129 85.617 c 230.039 76 l 231.125
 73.785 232.336 71.637 233.672 69.562 c 237.648 68.77 248.562 67.395 257.609
 73.633 c 264.598 78.449 275.773 84.973 292.062 86.008 c 293.52 86.098 294.98
 86.145 296.453 86.145 c 315.664 86.145 336.57 78.32 358.668 62.848 c 360.805
 61.352 361.758 58.664 361.039 56.16 c 360.32 53.652 358.086 51.879 355.48
 51.742 c 343.547 51.129 332.973 45.711 326.207 41.27 c 307.027 28.691 283.254
 26.004 262.621 34.09 c 242.879 41.82 231.32 56.16 225.562 65.465 c 220.977
 54.676 l 220.031 52.449 217.961 50.91 215.559 50.641 c 213.156 50.371 210.797
 51.418 209.383 53.379 c 203.363 61.727 l 201.996 63.633 201.723 66.117 
202.641 68.277 c 213.18 92.859 l 210.246 93.477 207.453 94.641 204.949 96.293
 c 197.73 101.078 193.23 109.727 191.578 121.996 c 190.836 127.508 190.262
 132.773 189.777 137.879 c 182.969 135.387 167.852 129.742 134.941 117.141
 c 115.297 109.699 93.684 109.277 73.766 115.949 c 52.609 122.992 34.422
 137.312 21.16 157.359 c 2.812 184.793 -1.359 219.328 9.926 250.344 c 24.281
 290.535 62.332 317.387 105.012 317.434 c 115.129 317.465 125.184 315.844
 134.781 312.633 c 163.227 302.984 175.695 298.801 181.145 296.996 c 185.824
 311.363 193.047 323.535 202.488 332.77 c 213.23 343.27 226.773 350.055 
242.746 352.93 c 248.891 354.008 255.117 354.539 261.355 354.516 c 274.465
 354.516 288.883 352.391 304.426 348.16 c 304.535 348.133 304.641 348.098
 304.746 348.062 c 347.953 332.789 372.898 309.316 378.895 278.285 c 382.457
 259.844 378.891 239.012 368.57 218.035 c 360.316 201.254 347.934 184.898
 334.598 173.164 c h
265.902 42.469 m 283.828 35.445 304.527 37.809 321.27 48.793 c 327.473 
52.863 336.539 57.66 347.121 59.742 c 327.473 72.262 309.18 78.074 292.633
 77.023 c 278.574 76.133 268.828 70.43 262.719 66.223 c 255.387 61.172 247.395
 59.852 241.09 59.84 c 247.898 52.199 256.395 46.25 265.902 42.469 c h
211.426 65.93 m 214.289 61.957 l 226.629 90.984 l 226.59 91.023 226.547
 91.062 226.508 91.105 c 225.555 92.109 224.195 92.625 222.816 92.504 c 
h
178.801 222.742 m 174.586 239.719 173.812 259.93 176.676 278.195 c 177.223
 281.668 177.91 285.043 178.703 288.328 c 169.926 291.23 149.465 298.152
 131.891 304.113 c 115.219 309.766 96.176 309.883 78.273 304.43 c 50.352
 296.016 28.109 274.793 18.398 247.297 c 8.086 218.953 11.902 187.395 28.672
 162.328 c 40.809 143.973 57.387 130.891 76.617 124.488 c 94.559 118.473
 114.031 118.848 131.73 125.547 c 168.629 139.676 183.301 145.109 188.973
 147.16 c 188.707 150.5 188.457 153.789 188.223 157.035 c 186.711 177.375
 185.289 196.59 178.801 222.742 c h
370.059 276.582 m 364.719 304.215 341.793 325.391 301.906 339.523 c 260.535
 350.746 229.207 346.309 208.785 326.336 c 193.711 311.594 187.836 291.262
 185.57 276.801 c 182.883 259.68 183.602 240.766 187.535 224.91 c 194.211
 198.016 195.727 177.52 197.195 157.699 c 198 146.824 198.832 135.574 200.5
 123.199 c 201.875 112.984 206.207 101.262 218.832 101.262 c 219.75 101.262
 220.668 101.32 221.578 101.434 c 225.816 101.934 230.047 100.422 233.004
 97.344 c 235.027 95.238 238.312 92.75 242.68 92.832 c 247.836 92.934 253.828
 96.676 260.004 103.645 c 267.562 112.172 274.07 120.219 280.367 128.004
 c 293.98 144.832 306.836 160.73 328.656 179.926 c 341.141 190.906 352.746
 206.25 360.5 222.012 c 367.082 235.398 374.086 255.734 370.059 276.582 
c h
370.059 276.582 m f
Q Q
showpage
%%Trailer
end
%%EOF
