%!PS-Adobe-3.0 EPSF-3.0
%%Creator: cairo 1.16.0 (https://cairographics.org)
%%CreationDate: Tue Feb  2 14:48:16 2021
%%Pages: 1
%%DocumentData: Clean7Bit
%%LanguageLevel: 2
%%BoundingBox: 51 3 333 381
%%EndComments
%%BeginProlog
50 dict begin
/q { gsave } bind def
/Q { grestore } bind def
/cm { 6 array astore concat } bind def
/w { setlinewidth } bind def
/J { setlinecap } bind def
/j { setlinejoin } bind def
/M { setmiterlimit } bind def
/d { setdash } bind def
/m { moveto } bind def
/l { lineto } bind def
/c { curveto } bind def
/h { closepath } bind def
/re { exch dup neg 3 1 roll 5 3 roll moveto 0 rlineto
      0 exch rlineto 0 rlineto closepath } bind def
/S { stroke } bind def
/f { fill } bind def
/f* { eofill } bind def
/n { newpath } bind def
/W { clip } bind def
/W* { eoclip } bind def
/BT { } bind def
/ET { } bind def
/BDC { mark 3 1 roll /BDC pdfmark } bind def
/EMC { mark /EMC pdfmark } bind def
/cairo_store_point { /cairo_point_y exch def /cairo_point_x exch def } def
/Tj { show currentpoint cairo_store_point } bind def
/TJ {
  {
    dup
    type /stringtype eq
    { show } { -0.001 mul 0 cairo_font_matrix dtransform rmoveto } ifelse
  } forall
  currentpoint cairo_store_point
} bind def
/cairo_selectfont { cairo_font_matrix aload pop pop pop 0 0 6 array astore
    cairo_font exch selectfont cairo_point_x cairo_point_y moveto } bind def
/Tf { pop /cairo_font exch def /cairo_font_matrix where
      { pop cairo_selectfont } if } bind def
/Td { matrix translate cairo_font_matrix matrix concatmatrix dup
      /cairo_font_matrix exch def dup 4 get exch 5 get cairo_store_point
      /cairo_font where { pop cairo_selectfont } if } bind def
/Tm { 2 copy 8 2 roll 6 array astore /cairo_font_matrix exch def
      cairo_store_point /cairo_font where { pop cairo_selectfont } if } bind def
/g { setgray } bind def
/rg { setrgbcolor } bind def
/d1 { setcachedevice } bind def
/cairo_data_source {
  CairoDataIndex CairoData length lt
    { CairoData CairoDataIndex get /CairoDataIndex CairoDataIndex 1 add def }
    { () } ifelse
} def
/cairo_flush_ascii85_file { cairo_ascii85_file status { cairo_ascii85_file flushfile } if } def
/cairo_image { image cairo_flush_ascii85_file } def
/cairo_imagemask { imagemask cairo_flush_ascii85_file } def
%%EndProlog
%%BeginSetup
%%EndSetup
%%Page: 1 1
%%BeginPageSetup
%%PageBoundingBox: 51 3 333 381
%%EndPageSetup
q 51 3 282 378 rectclip
1 0 0 -1 0 384 cm q
0.498039 0.239216 0.196078 rg
136.703 236.039 m 136.973 275.438 135.602 312.414 133.184 346.629 c 132.043
 362.969 118.484 375.664 102.102 375.727 c 85.719 375.793 72.059 363.207
 70.785 346.875 c 68.023 312.023 66.457 273.945 66.871 233.078 c 67.297 
190.816 69.781 151.719 73.395 116.289 c 130.828 116.289 l 134.168 152.879
 136.402 192.945 136.703 236.039 c h
136.703 236.039 m f
0.298039 0.662745 0.529412 rg
328.312 114.668 m 328.484 124.461 327.945 134.254 326.699 143.969 c 326.254
 146.859 324.793 149.496 322.582 151.41 c 320.34 153.367 317.48 154.473 
314.504 154.539 c 308.918 154.648 306.871 151.688 302.789 145.867 c 302.316
 145.199 301.828 144.539 301.312 143.91 c 300.66 143.102 l 297.859 139.629
 293.262 138.156 288.965 139.344 c 284.664 140.535 281.484 144.164 280.867
 148.582 c 279.367 159.18 l 278.723 163.809 274.797 167.277 270.121 167.348
 c 265.449 167.418 261.418 164.074 260.633 159.465 c 256.914 137.941 l 256.086
 134.008 252.629 131.184 248.613 131.16 c 244.594 131.137 241.105 133.922
 240.234 137.844 c 238.344 146.34 l 237.305 150.996 233.176 154.309 228.406
 154.312 c 223.457 154.289 219.211 150.793 218.234 145.941 c 218.227 145.914
 218.227 145.875 218.219 145.836 c 216.793 135.512 216.172 125.09 216.359
 114.668 c 216.707 95.191 219.844 75.863 225.684 57.277 c 227.355 51.934
 232.305 48.293 237.906 48.285 c 306.758 48.285 l 312.359 48.285 317.312
 51.93 318.984 57.277 c 324.824 75.863 327.965 95.191 328.312 114.668 c 
h
328.312 114.668 m f
0.921569 0.447059 0.533333 rg
322.582 151.41 m 320.34 153.367 317.48 154.473 314.504 154.539 c 308.918
 154.648 306.871 151.688 302.789 145.867 c 302.316 145.199 301.828 144.539
 301.312 143.91 c 300.66 143.102 l 297.859 139.629 293.262 138.156 288.965
 139.344 c 284.664 140.535 281.484 144.164 280.867 148.582 c 279.367 159.18
 l 278.723 163.809 274.797 167.277 270.121 167.348 c 265.449 167.418 261.418
 164.074 260.633 159.465 c 256.914 137.941 l 256.086 134.008 252.629 131.184
 248.613 131.16 c 244.594 131.137 241.105 133.922 240.234 137.844 c 238.344
 146.34 l 237.305 150.996 233.176 154.309 228.406 154.312 c 223.457 154.289
 219.211 150.793 218.234 145.941 c 219.789 157.242 222.289 168.391 225.703
 179.273 c 227.383 184.598 232.324 188.215 237.906 188.211 c 306.758 188.211
 l 312.344 188.219 317.285 184.598 318.969 179.273 c 322.582 167.758 325.172
 155.941 326.699 143.969 c 326.254 146.859 324.793 149.496 322.582 151.41
 c h
322.582 151.41 m f
0.952941 0.807843 0.490196 rg
116.895 23.398 m 116.895 83.016 l 86.648 83.016 l 86.648 23.398 l 86.648
 19.391 88.242 15.543 91.078 12.707 c 93.914 9.871 97.762 8.277 101.77 8.277
 c 105.781 8.277 109.629 9.871 112.465 12.707 c 115.301 15.543 116.895 19.391
 116.895 23.398 c h
116.895 23.398 m f
0.760784 0.407843 0.309804 rg
131.25 83.016 m 72.293 83.016 l 63.105 83.016 55.656 90.465 55.656 99.652
 c 55.656 108.84 63.105 116.289 72.293 116.289 c 131.25 116.289 l 140.438
 116.289 147.887 108.84 147.887 99.652 c 147.887 90.465 140.438 83.016 131.25
 83.016 c h
131.25 83.016 m f
0.419608 0.215686 0.184314 rg
103.246 367.426 m 97.453 362.074 93.898 354.734 93.285 346.875 c 90.523
 312.023 88.957 273.926 89.371 233.059 c 89.797 190.801 92.281 151.5 95.895
 116.25 c 73.395 116.25 l 69.781 151.5 67.297 190.801 66.871 233.059 c 66.457
 273.926 68.023 312.012 70.785 346.867 c 71.543 356.723 76.914 365.645 85.277
 370.922 c 93.637 376.195 104 377.207 113.227 373.648 c 109.535 372.227 
106.148 370.113 103.246 367.426 c h
103.246 367.426 m f
0.254902 0.517647 0.411765 rg
238.859 114.598 m 239.207 95.051 242.348 75.652 248.184 56.996 c 249.602
 52.484 253.332 49.5 257.816 48 c 237.906 48 l 232.281 48.066 227.34 51.758
 225.684 57.137 c 219.844 75.746 216.707 95.094 216.359 114.598 c 216.172
 125.031 216.793 135.465 218.219 145.801 c 218.227 145.84 218.227 145.895
 218.234 145.926 c 219.207 150.777 223.457 154.277 228.406 154.305 c 233.176
 154.301 237.305 150.992 238.344 146.336 c 239.93 139.199 l 239.07 131.027
 238.715 122.812 238.859 114.598 c h
238.859 114.598 m f
0.619608 0.317647 0.247059 rg
78.156 99.633 m 78.148 95.258 79.906 91.062 83.031 88 c 86.16 84.906 90.395
 83.195 94.793 83.25 c 72.293 83.25 l 63.18 83.25 55.793 90.637 55.793 99.75
 c 55.793 108.863 63.18 116.25 72.293 116.25 c 94.793 116.25 l 90.383 116.254
 86.152 114.504 83.031 111.391 c 79.91 108.273 78.156 104.043 78.156 99.633
 c h
78.156 99.633 m f
0.737255 0.4 0.470588 rg
248.211 179.305 m 244.664 168.445 242.164 157.27 240.75 145.934 c 240.75
 145.926 l 240.746 145.883 240.738 145.844 240.727 145.801 c 240.426 143.652
 240.168 141.445 239.93 139.203 c 238.344 146.344 l 237.305 151 233.176 
154.309 228.406 154.316 c 223.457 154.293 219.211 150.793 218.234 145.945
 c 219.789 157.25 222.289 168.406 225.703 179.293 c 227.383 184.621 232.32
 188.246 237.906 188.25 c 259.48 188.25 l 254.293 187.5 249.793 184.34 248.211
 179.305 c h
248.211 179.305 m f
0.921569 0.447059 0.533333 rg
135.434 185.047 m 135.434 185.055 l 124.883 194.195 111.164 198.824 97.23
 197.941 c 79.816 196.816 67.98 191.184 67.98 191.184 c 68.453 180.09 69.055
 169.254 69.789 158.676 c 69.789 158.676 98.055 173.023 134.055 158.676 
c 134.594 167.309 135.055 176.102 135.434 185.047 c h
135.434 185.047 m f
0.737255 0.4 0.470588 rg
91.902 164.516 m 78.293 162.984 69.789 158.676 69.789 158.676 c 69.059 
169.254 68.457 180.086 67.98 191.184 c 67.98 191.184 76.727 195.34 90.238
 197.223 c 90.664 186.066 91.219 175.164 91.902 164.516 c h
91.902 164.516 m f
0.156863 0.258824 0.407843 rg
68.477 120.434 m 64.812 157.723 62.746 195.574 62.367 233.035 c 61.984 
270.984 63.309 309.41 66.297 347.23 c 67.742 365.922 83.371 380.328 102.117
 380.25 c 120.863 380.176 136.375 365.645 137.672 346.945 c 140.27 310.191
 141.457 272.863 141.199 236.008 c 141.086 219.715 140.684 203.371 139.996
 186.977 c 144.629 182.664 148.52 177.621 151.516 172.051 c 157.512 160.902
 l 161.879 152.762 171.105 148.496 180.137 150.438 c 189.168 152.383 195.824
 160.066 196.453 169.285 c 196.453 196.52 l 196.422 214.59 209.789 229.891
 227.699 232.293 c 245.613 234.691 262.535 223.449 267.262 206.004 c 268.555
 201.094 270.957 196.543 274.285 192.711 c 306.758 192.711 l 314.316 192.738
 321.008 187.836 323.258 180.621 c 336.031 140.039 336.035 96.512 323.273
 55.926 c 321.031 48.691 314.332 43.766 306.758 43.785 c 237.906 43.785 
l 230.336 43.77 223.637 48.691 221.391 55.926 c 212.227 85.055 209.605 115.844
 213.711 146.102 c 213.707 146.102 l 213.711 146.133 213.719 146.164 213.723
 146.199 c 215.309 157.867 217.879 169.387 221.41 180.621 c 223.66 187.836
 230.352 192.742 237.91 192.711 c 263.215 192.711 l 261.176 196.129 259.613
 199.809 258.574 203.648 c 255.031 216.738 242.332 225.176 228.891 223.371
 c 215.449 221.57 205.426 210.086 205.453 196.523 c 205.453 169.133 l 205.453
 169.035 205.453 168.938 205.445 168.844 c 204.613 155.59 195.094 144.496
 182.121 141.66 c 169.145 138.828 155.867 144.941 149.582 156.641 c 143.59
 167.789 l 142.371 170.047 140.98 172.207 139.422 174.246 c 138.52 156.211
 137.273 138.23 135.691 120.309 c 146.258 118.043 153.406 108.164 152.266
 97.418 c 151.125 86.672 142.059 78.516 131.25 78.52 c 121.391 78.52 l 121.391
 23.398 l 121.391 12.562 112.605 3.777 101.77 3.777 c 90.934 3.777 82.148
 12.562 82.148 23.398 c 82.148 78.52 l 72.289 78.52 l 61.359 78.516 52.234
 86.848 51.242 97.734 c 50.25 108.617 57.727 118.461 68.477 120.434 c h
222.637 144.941 m 218.695 115.977 221.203 86.504 229.977 58.625 c 231.055
 55.148 234.27 52.781 237.91 52.785 c 306.758 52.785 l 310.398 52.781 313.613
 55.148 314.691 58.625 c 323.281 85.938 325.863 114.785 322.266 143.191 
c 321.648 147.074 318.34 149.957 314.406 150.035 c 311.453 150.098 310.656
 149.258 306.543 143.383 c 306.473 143.281 l 305.953 142.539 305.391 141.797
 304.809 141.078 c 304.156 140.266 l 300.227 135.406 293.785 133.344 287.762
 135.012 c 281.738 136.68 277.281 141.766 276.414 147.953 c 274.914 158.551
 l 274.129 164.191 266.02 164.316 265.062 158.699 c 261.344 137.176 l 261.336
 137.121 261.324 137.066 261.312 137.016 c 260.027 130.992 254.719 126.684
 248.562 126.656 c 242.445 126.629 237.145 130.883 235.844 136.863 c 233.949
 145.359 l 233.383 147.961 231.074 149.816 228.41 149.809 c 225.562 149.789
 223.137 147.742 222.637 144.941 c h
237.91 183.715 m 234.285 183.73 231.078 181.383 229.996 177.93 c 227.977
 171.5 226.281 164.977 224.922 158.383 c 226.062 158.664 227.234 158.809
 228.406 158.812 c 235.297 158.84 241.27 154.051 242.734 147.32 c 244.625
 138.824 l 245.027 136.973 246.668 135.652 248.562 135.66 c 250.445 135.672
 252.074 136.977 252.496 138.809 c 256.199 160.238 l 257.367 167.031 263.305
 171.957 270.191 171.852 c 277.082 171.746 282.867 166.641 283.828 159.816
 c 285.328 149.223 l 285.691 146.578 287.594 144.406 290.164 143.691 c 292.734
 142.977 295.484 143.859 297.16 145.934 c 297.816 146.746 l 298.266 147.305
 298.703 147.879 299.105 148.453 c 299.176 148.551 l 303.344 154.504 306.645
 159.207 314.598 159.039 c 316.367 159 318.121 158.688 319.797 158.117 c
 318.43 164.805 316.719 171.418 314.672 177.93 c 313.59 181.387 310.379 
183.734 306.758 183.719 c h
128.699 346.309 m 127.73 360.312 116.117 371.191 102.086 371.246 c 88.051
 371.301 76.352 360.516 75.273 346.52 c 72.305 308.965 70.992 270.812 71.371
 233.125 c 71.492 221.332 71.785 209.504 72.25 197.648 c 80.242 200.289 
88.543 201.895 96.941 202.43 c 109.016 203.188 121.023 200.129 131.262 193.684
 c 131.785 207.836 132.098 221.965 132.203 236.07 c 132.457 272.695 131.277
 309.785 128.699 346.309 c h
101.332 169.59 m 111.043 169.574 120.688 168.012 129.906 164.965 c 130.25
 170.973 130.551 176.988 130.816 183.004 c 121.387 190.477 109.523 194.195
 97.516 193.445 c 89.012 192.91 80.629 191.152 72.625 188.227 c 72.973 180.539
 73.395 172.852 73.891 165.172 c 82.734 168.129 92.004 169.621 101.328 169.59
 c h
74.52 155.801 m 75.348 144.09 76.336 132.418 77.484 120.785 c 126.699 120.785
 l 127.719 132.363 128.602 143.984 129.34 155.652 c 103.316 164.914 81.848
 158.594 74.52 155.801 c h
91.148 23.398 m 91.148 20.582 92.266 17.883 94.258 15.891 c 96.25 13.898
 98.953 12.777 101.77 12.777 c 104.586 12.777 107.289 13.898 109.281 15.891
 c 111.273 17.883 112.391 20.582 112.391 23.398 c 112.391 78.52 l 91.148
 78.52 l h
72.289 87.52 m 131.25 87.52 l 134.484 87.492 137.594 88.762 139.891 91.039
 c 142.188 93.316 143.477 96.418 143.477 99.652 c 143.477 102.887 142.188
 105.984 139.891 108.266 c 137.594 110.543 134.484 111.809 131.25 111.785
 c 72.289 111.785 l 69.055 111.809 65.945 110.543 63.648 108.266 c 61.352
 105.984 60.062 102.887 60.062 99.652 c 60.062 96.418 61.352 93.316 63.648
 91.039 c 65.945 88.762 69.055 87.492 72.289 87.52 c h
72.289 87.52 m f
Q Q
showpage
%%Trailer
end
%%EOF
