%!PS-Adobe-3.0 EPSF-3.0
%%Creator: cairo 1.16.0 (https://cairographics.org)
%%CreationDate: Tue Feb  2 14:48:17 2021
%%Pages: 1
%%DocumentData: Clean7Bit
%%LanguageLevel: 2
%%BoundingBox: 11 3 373 381
%%EndComments
%%BeginProlog
50 dict begin
/q { gsave } bind def
/Q { grestore } bind def
/cm { 6 array astore concat } bind def
/w { setlinewidth } bind def
/J { setlinecap } bind def
/j { setlinejoin } bind def
/M { setmiterlimit } bind def
/d { setdash } bind def
/m { moveto } bind def
/l { lineto } bind def
/c { curveto } bind def
/h { closepath } bind def
/re { exch dup neg 3 1 roll 5 3 roll moveto 0 rlineto
      0 exch rlineto 0 rlineto closepath } bind def
/S { stroke } bind def
/f { fill } bind def
/f* { eofill } bind def
/n { newpath } bind def
/W { clip } bind def
/W* { eoclip } bind def
/BT { } bind def
/ET { } bind def
/BDC { mark 3 1 roll /BDC pdfmark } bind def
/EMC { mark /EMC pdfmark } bind def
/cairo_store_point { /cairo_point_y exch def /cairo_point_x exch def } def
/Tj { show currentpoint cairo_store_point } bind def
/TJ {
  {
    dup
    type /stringtype eq
    { show } { -0.001 mul 0 cairo_font_matrix dtransform rmoveto } ifelse
  } forall
  currentpoint cairo_store_point
} bind def
/cairo_selectfont { cairo_font_matrix aload pop pop pop 0 0 6 array astore
    cairo_font exch selectfont cairo_point_x cairo_point_y moveto } bind def
/Tf { pop /cairo_font exch def /cairo_font_matrix where
      { pop cairo_selectfont } if } bind def
/Td { matrix translate cairo_font_matrix matrix concatmatrix dup
      /cairo_font_matrix exch def dup 4 get exch 5 get cairo_store_point
      /cairo_font where { pop cairo_selectfont } if } bind def
/Tm { 2 copy 8 2 roll 6 array astore /cairo_font_matrix exch def
      cairo_store_point /cairo_font where { pop cairo_selectfont } if } bind def
/g { setgray } bind def
/rg { setrgbcolor } bind def
/d1 { setcachedevice } bind def
/cairo_data_source {
  CairoDataIndex CairoData length lt
    { CairoData CairoDataIndex get /CairoDataIndex CairoDataIndex 1 add def }
    { () } ifelse
} def
/cairo_flush_ascii85_file { cairo_ascii85_file status { cairo_ascii85_file flushfile } if } def
/cairo_image { image cairo_flush_ascii85_file } def
/cairo_imagemask { imagemask cairo_flush_ascii85_file } def
%%EndProlog
%%BeginSetup
%%EndSetup
%%Page: 1 1
%%BeginPageSetup
%%PageBoundingBox: 11 3 373 381
%%EndPageSetup
q 11 3 362 378 rectclip
1 0 0 -1 0 384 cm q
0.952941 0.807843 0.490196 rg
148.109 8.25 m 148.109 8.25 137.363 24.75 127.012 51 c 119.277 73.5 l 110.988
 100.5 104.094 136.5 103.676 177.75 c 104.211 200.195 l 105.844 232.082 
112.117 268.5 123.84 306.75 c 131.129 328.5 l 136.711 343.5 143.715 360.121
 151.359 375.75 c 192 375.75 l 192 8.25 l h
148.109 8.25 m f
0.827451 0.698039 0.443137 rg
264.348 73.5 m 256.848 51 l 246.355 24 236.066 8.25 236.066 8.25 c 192 
8.25 l 192 375.75 l 232.809 375.75 l 240.48 360.066 247.371 343.5 252.953
 328.5 c 260.273 306.75 l 272.094 268.5 277.832 232.699 279.422 200.195 
c 279.918 177.75 l 279.633 136.5 272.68 100.5 264.348 73.5 c h
264.348 73.5 m f
0.976471 0.862745 0.627451 rg
131.129 328.5 m 123.668 306.75 l 111.945 268.5 105.883 232.141 104.242 
200.25 c 103.578 177.75 l 104 136.5 111.062 100.5 119.348 73.5 c 126.965
 51 l 137.316 24.75 148.105 8.25 148.105 8.25 c 102.953 8.25 l 99.766 8.234
 96.746 9.68 94.762 12.172 c 89.859 18.359 79.891 32.25 69.516 51 c 58.242
 73.5 l 46.121 100.5 35.75 137.25 33.785 177.75 c 33.172 200.25 l 34.68 
232.387 42.434 269.25 58.891 306.75 c 70.012 328.5 l 77.852 343.355 86.73
 357.633 96.594 371.23 c 98.543 374.012 101.707 375.691 105.105 375.75 c
 151.359 375.75 l 143.715 360.121 136.711 343.5 131.129 328.5 c h
131.129 328.5 m f
0.737255 0.623529 0.423529 rg
325.746 73.5 m 325.5 73.5 l 314.316 51 l 304.191 33 294.254 18.227 289.453
 12.172 c 287.469 9.68 284.453 8.234 281.266 8.25 c 236.062 8.25 l 236.062
 8.25 246.359 24 256.852 51 c 264.48 73.5 l 272.812 100.5 279.668 136.5 
279.953 177.75 c 279.488 200.25 l 277.898 232.754 272.199 268.5 260.379 
306.75 c 252.953 328.5 l 247.371 343.5 240.48 360.066 232.809 375.75 c 279.113
 375.75 l 282.508 375.691 285.672 374.012 287.625 371.23 c 297.527 357.637
 306.457 343.355 314.348 328.5 c 325.23 306.75 l 340.035 273.086 348.516
 236.984 350.25 200.25 c 350.25 177.75 l 348.75 137.25 337.816 100.5 325.746
 73.5 c h
325.746 73.5 m f
0.827451 0.72549 0.537255 rg
119.094 371.23 m 109.23 357.633 100.352 343.355 92.512 328.5 c 81.391 306.75
 l 64.934 269.25 57.18 232.387 55.672 200.25 c 56.285 177.75 l 58.25 137.25
 68.621 100.5 80.742 73.5 c 92.016 51 l 102.391 32.25 112.359 18.359 117.262
 12.172 c 119.246 9.68 122.266 8.234 125.453 8.25 c 102.953 8.25 l 99.766
 8.234 96.746 9.68 94.762 12.172 c 89.859 18.359 79.891 32.25 69.516 51 
c 58.242 73.5 l 46.121 100.5 35.75 137.25 33.785 177.75 c 33.172 200.25 
l 34.68 232.387 42.434 269.25 58.891 306.75 c 70.012 328.5 l 77.852 343.355
 86.73 357.633 96.594 371.23 c 98.543 374.012 101.707 375.691 105.105 375.75
 c 127.605 375.75 l 124.207 375.691 121.043 374.012 119.094 371.23 c h
119.094 371.23 m f
0.686275 0.470588 0.419608 rg
356.637 177.75 m 27.422 177.75 l 21.207 177.75 16.172 182.785 16.172 189
 c 16.172 195.215 21.207 200.25 27.422 200.25 c 356.711 200.25 l 359.633
 200.254 362.434 199.078 364.484 196.996 c 366.559 194.852 367.715 191.984
 367.699 189 c 367.727 182.848 362.789 177.824 356.637 177.75 c h
356.637 177.75 m f
325.738 306.75 m 58.262 306.75 l 55.496 306.727 52.844 307.828 50.906 309.801
 c 48.973 311.773 47.922 314.449 48 317.211 c 48 318.164 l 47.93 320.914
 48.984 323.574 50.922 325.523 c 52.859 327.477 55.512 328.551 58.262 328.5
 c 325.738 328.5 l 328.488 328.551 331.141 327.477 333.078 325.523 c 335.016
 323.574 336.07 320.914 336 318.164 c 336 317.211 l 336.078 314.449 335.027
 311.773 333.094 309.801 c 331.156 307.828 328.504 306.727 325.738 306.75
 c h
325.738 306.75 m f
58.262 73.5 m 325.746 73.5 l 331.613 73.5 336 68.52 336 62.648 c 336 61.695
 l 336 55.824 331.605 51 325.738 51 c 58.262 51 l 52.395 51 48 55.824 48
 61.695 c 48 62.648 l 48 68.52 52.395 73.5 58.262 73.5 c h
58.262 73.5 m f
0.921569 0.447059 0.533333 rg
214.973 189.75 m 214.973 202.438 204.688 212.723 192 212.723 c 179.312 
212.723 169.027 202.438 169.027 189.75 c 169.027 177.062 179.312 166.777
 192 166.777 c 204.688 166.777 214.973 177.062 214.973 189.75 c h
214.973 189.75 m f
0.517647 0.364706 0.333333 rg
38.836 189.074 m 38.844 182.918 43.766 177.891 49.922 177.75 c 27.422 177.75
 l 21.207 177.75 16.172 182.785 16.172 189 c 16.172 195.215 21.207 200.25
 27.422 200.25 c 49.922 200.25 l 43.781 200.211 38.824 195.215 38.836 189.074
 c h
38.836 189.074 m f
70.5 318.164 m 70.5 317.211 l 70.422 314.449 71.473 311.773 73.406 309.801
 c 75.344 307.828 77.996 306.727 80.762 306.75 c 58.262 306.75 l 55.496 
306.727 52.844 307.828 50.906 309.801 c 48.973 311.773 47.922 314.449 48
 317.211 c 48 318.164 l 47.93 320.914 48.984 323.574 50.922 325.523 c 52.859
 327.477 55.512 328.551 58.262 328.5 c 80.762 328.5 l 78.012 328.551 75.359
 327.477 73.422 325.523 c 71.484 323.574 70.43 320.914 70.5 318.164 c h
70.5 318.164 m f
58.262 73.5 m 80.762 73.5 l 74.895 73.5 70.5 68.52 70.5 62.648 c 70.5 61.695
 l 70.5 55.824 74.895 51 80.762 51 c 58.262 51 l 52.395 51 48 55.824 48 
61.695 c 48 62.648 l 48 68.52 52.395 73.5 58.262 73.5 c h
58.262 73.5 m f
0.156863 0.258824 0.407843 rg
356.578 173.25 m 354.562 173.25 l 352.086 132.75 341.234 98.902 331.797
 76.266 c 337.145 73.855 340.559 68.512 340.5 62.648 c 340.5 61.695 l 340.5
 53.352 334.082 46.5 325.738 46.5 c 316.965 46.5 l 306.668 28.5 297.121 
14.598 292.984 9.383 c 290.152 5.801 285.832 3.723 281.266 3.75 c 102.953
 3.75 l 98.391 3.723 94.066 5.797 91.234 9.375 c 82.07 21.035 73.914 33.457
 66.859 46.5 c 58.262 46.5 l 49.918 46.5 43.5 53.352 43.5 61.695 c 43.5 
62.648 l 43.438 68.574 46.922 73.961 52.352 76.34 c 39.68 106.629 31.504
 141 29.402 173.25 c 27.422 173.25 l 18.723 173.25 11.672 180.301 11.672
 189 c 11.672 197.699 18.723 204.75 27.422 204.75 c 28.922 204.75 l 30.98
 237.582 39.238 271.434 52.59 303.258 c 47.02 305.645 43.43 311.152 43.5
 317.211 c 43.5 318.164 l 43.434 322.105 44.965 325.906 47.742 328.703 c
 50.523 331.496 54.316 333.047 58.262 333 c 67.352 333 l 74.965 347.172 
83.512 360.82 92.941 373.855 c 95.742 377.809 100.262 380.184 105.105 380.25
 c 279.113 380.25 l 283.957 380.184 288.477 377.809 291.281 373.855 c 300.664
 360.762 309.258 347.121 317.012 333 c 325.738 333 l 329.684 333.047 333.477
 331.496 336.258 328.703 c 339.035 325.906 340.566 322.105 340.5 318.164
 c 340.5 317.211 l 340.57 311.148 336.98 305.641 331.402 303.254 c 344.75
 271.438 352.648 238.352 354.559 204.75 c 356.578 204.75 l 360.719 204.762
 364.691 203.113 367.605 200.176 c 372.059 195.668 373.391 188.934 370.988
 183.07 c 368.586 177.207 362.918 173.34 356.578 173.25 c h
345.539 173.25 m 284.383 173.25 l 283.863 141.035 279.195 109.023 270.496
 78 c 322.789 78 l 335.73 108.227 343.422 140.438 345.539 173.25 c h
187.352 216.789 m 187.266 302.25 l 127.016 302.25 l 117.238 270 111.051
 236.25 109.027 204.75 c 168.961 204.75 l 173.145 211.148 179.812 215.516
 187.352 216.789 c h
108.328 173.25 m 108.984 141.004 113.848 108.984 122.793 78 c 187.266 78
 l 187.348 162.504 l 180.266 163.695 173.859 168 169.625 173.25 c h
175.5 198.172 m 172.613 192.602 172.73 185.953 175.812 180.492 c 175.852
 180.43 175.891 180.367 175.93 180.301 c 179.227 174.633 185.289 171.141
 191.848 171.141 c 198.41 171.141 204.473 174.633 207.77 180.301 c 207.809
 180.367 207.844 180.43 207.887 180.492 c 210.93 185.887 211.086 192.445
 208.297 197.977 c 208.262 198.039 208.223 198.105 208.191 198.168 c 205.02
 204.266 198.719 208.086 191.848 208.086 c 184.973 208.086 178.672 204.266
 175.5 198.168 c h
196.352 216.793 m 203.891 215.516 210.555 211.152 214.734 204.75 c 274.727
 204.75 l 272.641 237.824 266.715 270.543 257.066 302.25 c 196.266 302.25
 l h
214.074 173.25 m 209.836 168 203.43 163.691 196.348 162.504 c 196.266 78
 l 261.113 78 l 269.855 107.25 274.762 140.25 275.383 173.25 c h
281.266 12.75 m 283.078 12.73 284.801 13.547 285.93 14.969 c 289.57 19.559
 297.594 30.75 306.617 46.5 c 259.914 46.5 l 255.387 34.895 250.059 23.617
 243.961 12.75 c h
196.5 12.75 m 233.551 12.75 l 239.871 23.602 245.434 34.879 250.199 46.5
 c 196.5 46.5 l h
187.5 12.75 m 187.5 46.5 l 133.691 46.5 l 138.484 34.844 144.137 23.562
 150.609 12.75 c h
98.293 14.961 m 99.422 13.547 101.141 12.73 102.953 12.75 c 140.164 12.75
 l 134.082 23.66 128.672 34.93 123.965 46.5 c 77.199 46.5 l 83.398 35.453
 90.453 24.91 98.293 14.961 c h
52.5 61.695 m 52.5 58.312 54.883 55.5 58.262 55.5 c 325.738 55.5 l 329.113
 55.5 331.5 58.312 331.5 61.695 c 331.5 62.648 l 331.539 64.25 330.93 65.805
 329.812 66.957 c 328.695 68.109 327.164 68.766 325.559 68.773 c 325.562
 69 l 58.262 69 l 54.883 69 52.5 66.027 52.5 62.648 c h
61.379 78 m 113.43 78 l 104.75 109.031 100.012 141.035 99.328 173.25 c 
38.406 173.25 l 41.211 131.25 53.43 96 61.379 78 c h
27.422 195.75 m 23.777 195.738 20.832 192.785 20.836 189.141 c 20.832 187.348
 21.523 185.617 22.77 184.324 c 23.984 183.043 25.656 182.297 27.422 182.25
 c 165.34 182.25 l 164.723 184.609 164.414 187.035 164.414 189.473 c 164.418
 191.586 164.652 193.688 165.117 195.75 c h
37.949 204.75 m 100.012 204.75 l 102.242 237.805 108.145 270.504 117.617
 302.25 c 61.695 302.25 l 48.227 270.75 40.055 237.207 37.949 204.75 c h
105.105 371.25 m 103.16 371.188 101.355 370.207 100.246 368.605 c 91.938
 357.246 84.387 345.352 77.637 333 c 128.023 333 l 132.719 345.75 138.234
 358.609 144.207 371.25 c h
187.5 371.25 m 154.188 371.25 l 148.129 358.695 142.484 345.75 137.656 
333 c 187.5 333 l h
196.5 371.25 m 196.5 333 l 246.43 333 l 241.461 346.5 235.84 359.086 229.977
 371.25 c h
283.969 368.605 m 282.863 370.207 281.059 371.188 279.113 371.25 c 239.953
 371.25 l 245.734 358.984 251.223 345.75 256.059 333 c 306.711 333 l 299.816
 345.293 292.223 357.18 283.969 368.605 c h
331.5 317.211 m 331.5 318.164 l 331.57 319.719 330.988 321.234 329.895 
322.34 c 328.801 323.449 327.297 324.051 325.738 324 c 58.262 324 l 56.703
 324.051 55.199 323.449 54.105 322.34 c 53.012 321.234 52.43 319.719 52.5
 318.164 c 52.5 317.211 l 52.426 315.645 53 314.113 54.09 312.984 c 55.18
 311.855 56.691 311.227 58.262 311.25 c 325.738 311.25 l 327.309 311.227
 328.82 311.855 329.91 312.984 c 331 314.113 331.574 315.645 331.5 317.211
 c h
322.305 302.25 m 266.465 302.25 l 275.91 270.512 281.707 237.801 283.738
 204.75 c 345.547 204.75 l 343.508 238.352 335.641 271.344 322.305 302.25
 c h
361.227 193.82 m 360 195.059 358.324 195.754 356.578 195.75 c 218.582 195.75
 l 219.047 193.688 219.281 191.586 219.285 189.473 c 219.285 187.035 218.977
 184.609 218.359 182.25 c 356.578 182.25 l 360.25 182.328 363.18 185.332
 363.164 189 c 363.172 190.797 362.477 192.523 361.23 193.82 c h
361.227 193.82 m f
Q Q
showpage
%%Trailer
end
%%EOF
