%!PS-Adobe-3.0 EPSF-3.0
%%Creator: cairo 1.16.0 (https://cairographics.org)
%%CreationDate: Tue Feb  2 14:48:17 2021
%%Pages: 1
%%DocumentData: Clean7Bit
%%LanguageLevel: 2
%%BoundingBox: 3 19 381 365
%%EndComments
%%BeginProlog
50 dict begin
/q { gsave } bind def
/Q { grestore } bind def
/cm { 6 array astore concat } bind def
/w { setlinewidth } bind def
/J { setlinecap } bind def
/j { setlinejoin } bind def
/M { setmiterlimit } bind def
/d { setdash } bind def
/m { moveto } bind def
/l { lineto } bind def
/c { curveto } bind def
/h { closepath } bind def
/re { exch dup neg 3 1 roll 5 3 roll moveto 0 rlineto
      0 exch rlineto 0 rlineto closepath } bind def
/S { stroke } bind def
/f { fill } bind def
/f* { eofill } bind def
/n { newpath } bind def
/W { clip } bind def
/W* { eoclip } bind def
/BT { } bind def
/ET { } bind def
/BDC { mark 3 1 roll /BDC pdfmark } bind def
/EMC { mark /EMC pdfmark } bind def
/cairo_store_point { /cairo_point_y exch def /cairo_point_x exch def } def
/Tj { show currentpoint cairo_store_point } bind def
/TJ {
  {
    dup
    type /stringtype eq
    { show } { -0.001 mul 0 cairo_font_matrix dtransform rmoveto } ifelse
  } forall
  currentpoint cairo_store_point
} bind def
/cairo_selectfont { cairo_font_matrix aload pop pop pop 0 0 6 array astore
    cairo_font exch selectfont cairo_point_x cairo_point_y moveto } bind def
/Tf { pop /cairo_font exch def /cairo_font_matrix where
      { pop cairo_selectfont } if } bind def
/Td { matrix translate cairo_font_matrix matrix concatmatrix dup
      /cairo_font_matrix exch def dup 4 get exch 5 get cairo_store_point
      /cairo_font where { pop cairo_selectfont } if } bind def
/Tm { 2 copy 8 2 roll 6 array astore /cairo_font_matrix exch def
      cairo_store_point /cairo_font where { pop cairo_selectfont } if } bind def
/g { setgray } bind def
/rg { setrgbcolor } bind def
/d1 { setcachedevice } bind def
/cairo_data_source {
  CairoDataIndex CairoData length lt
    { CairoData CairoDataIndex get /CairoDataIndex CairoDataIndex 1 add def }
    { () } ifelse
} def
/cairo_flush_ascii85_file { cairo_ascii85_file status { cairo_ascii85_file flushfile } if } def
/cairo_image { image cairo_flush_ascii85_file } def
/cairo_imagemask { imagemask cairo_flush_ascii85_file } def
%%EndProlog
%%BeginSetup
%%EndSetup
%%Page: 1 1
%%BeginPageSetup
%%PageBoundingBox: 3 19 381 365
%%EndPageSetup
q 3 19 378 346 rectclip
1 0 0 -1 0 384 cm q
0.827451 0.670588 0.517647 rg
172.074 64.793 m 154.641 63.914 107.617 63.156 82.59 110.391 c 112.844 
138.742 144.613 182.676 164.691 248.113 c 178.441 71.488 l 178.441 67.918
 175.641 64.973 172.074 64.793 c h
172.074 64.793 m f
0.929412 0.74902 0.541176 rg
82.59 110.391 m 112.844 138.742 144.613 182.676 164.691 248.113 c 156.449
 354.066 l 156.176 357.594 153.23 360.316 149.691 360.316 c 44.316 360.316
 l 40.852 360.316 37.941 357.703 37.574 354.254 c 8.25 76.613 l 8.246 73.984
 9.527 71.52 11.676 70.012 c 13.828 68.5 16.578 68.137 19.051 69.031 c 34.551
 74.684 58.074 87.422 82.59 110.391 c h
82.59 110.391 m f
0.847059 0.54902 0.419608 rg
372.93 238.734 m 374.609 241.887 373.516 245.805 370.449 247.637 c 211.746
 326.566 l 257.648 275.746 279.059 225.906 287.863 185.379 c 341.266 182.617
 364.734 223.336 372.93 238.734 c h
372.93 238.734 m f
0.917647 0.627451 0.52549 rg
287.863 185.379 m 279.059 225.906 257.648 275.746 211.746 326.566 c 211.738
 326.574 l 156.449 354.066 l 164.691 248.113 l 169.516 186.219 l 278.707
 104.273 l 280.961 102.918 283.734 102.75 286.133 103.82 c 288.535 104.891
 290.266 107.062 290.766 109.641 c 293.863 125.828 295.004 152.551 287.863
 185.379 c h
287.863 185.379 m f
0.372549 0.803922 0.643137 rg
350.289 154.539 m 338.355 134.594 313.395 127.449 293.184 138.504 c 293.176
 138.504 l 293.254 129.879 292.633 121.262 291.316 112.738 c 300.285 110.348
 318.227 107.559 327.57 119.648 c 327.805 119.949 328.027 120.262 328.23
 120.586 c 331.336 125.496 337.215 128.242 344.012 127.949 c 352.273 127.598
 357.246 132.414 361.141 138.93 c 362.258 140.797 363.027 142.848 363.406
 144.988 c 364.043 148.625 366 151.898 368.902 154.184 c 370.609 155.535
 372.059 157.18 373.176 159.047 c 377.078 165.57 376.395 173.773 372.148
 180.887 c 368.602 186.855 368.43 193.395 371.332 198.555 c 371.469 198.789
 371.586 199.027 371.707 199.266 c 377.836 211.793 373.074 221.242 366.93
 228.352 c 361.383 219.461 354.527 211.457 346.598 204.609 c 356.289 191.086
 359.371 169.719 350.289 154.539 c h
350.289 154.539 m f
0.298039 0.662745 0.529412 rg
350.289 154.539 m 359.371 169.719 356.289 191.086 346.598 204.609 c 343.57
 202.035 340.367 199.676 337.004 197.559 c 343.418 187.402 345.586 171.871
 338.676 161.086 c 329.16 146.211 307.598 142.02 292.719 151.531 c 293.023
 146.969 293.168 142.621 293.176 138.504 c 293.184 138.504 l 313.395 127.449
 338.355 134.594 350.289 154.539 c h
350.289 154.539 m f
0.831373 0.305882 0.301961 rg
338.676 161.086 m 345.586 171.871 343.418 187.402 337.004 197.559 c 330.391
 193.379 323.184 190.219 315.629 188.176 c 315.629 188.168 l 314.227 162.496
 291.285 170.406 290.602 170.648 c 291.629 163.934 292.312 157.547 292.719
 151.531 c 307.598 142.02 329.16 146.211 338.676 161.086 c h
338.676 161.086 m f
0.921569 0.447059 0.533333 rg
315.629 188.168 m 315.629 188.176 l 306.582 185.77 297.211 184.824 287.863
 185.379 c 288.969 180.316 289.867 175.402 290.602 170.648 c 291.285 170.406
 314.227 162.496 315.629 188.168 c h
315.629 188.168 m f
0.372549 0.803922 0.643137 rg
137.551 45.586 m 151.449 46.754 157.117 55.695 160.074 64.613 c 149.543
 64.805 139.102 66.594 129.105 69.914 c 122.258 51.219 105.84 41.012 88.141
 41.012 c 64.898 41.012 45.953 58.754 45.066 81.766 c 45.059 81.773 l 37.699
 77.273 29.984 73.387 21.988 70.148 c 24.539 61.223 31.352 44.398 46.531
 42.594 c 46.91 42.543 47.293 42.516 47.676 42.512 c 53.484 42.359 58.859
 38.73 62.094 32.746 c 66.031 25.477 72.719 23.684 80.309 23.684 c 82.484
 23.688 84.645 24.082 86.676 24.855 c 90.129 26.176 93.945 26.176 97.395
 24.855 c 99.43 24.086 101.586 23.688 103.762 23.684 c 111.367 23.684 118.066
 28.484 121.996 35.766 c 125.297 41.879 130.824 45.383 136.746 45.539 c 
137.016 45.547 137.281 45.562 137.551 45.586 c h
137.551 45.586 m f
0.298039 0.662745 0.529412 rg
129.105 69.914 m 125.391 71.18 121.773 72.707 118.273 74.484 c 112.844 
63.766 100.613 53.934 87.809 54.324 c 70.156 54.855 55.484 71.211 56.016
 88.852 c 52.254 86.254 48.602 83.891 45.059 81.773 c 45.066 81.766 l 45.953
 58.754 64.898 41.012 88.141 41.012 c 105.84 41.012 122.258 51.219 129.105
 69.914 c h
129.105 69.914 m f
0.831373 0.305882 0.301961 rg
118.273 74.484 m 111.293 78.008 104.879 82.559 99.246 87.988 c 74.602 80.398
 71.355 100.492 71.355 100.492 c 71.348 100.5 l 66.113 96.156 60.984 92.297
 56.016 88.852 c 55.484 71.211 70.156 54.855 87.809 54.324 c 100.613 53.934
 112.844 63.766 118.273 74.484 c h
118.273 74.484 m f
0.921569 0.447059 0.533333 rg
71.355 100.492 m 71.355 100.492 74.602 80.398 99.246 87.988 c 92.535 94.523
 86.914 102.086 82.59 110.391 c 78.809 106.852 75.062 103.555 71.348 100.5
 c h
71.355 100.492 m f
0.717647 0.458824 0.368627 rg
339.953 235.262 m 341.594 238.004 341.418 241.469 339.508 244.031 c 337.602
 246.598 334.336 247.762 331.234 246.98 c 328.137 246.199 325.809 243.629
 325.344 240.465 c 324.879 237.305 326.363 234.172 329.109 232.531 c 330.906
 231.453 333.062 231.133 335.098 231.645 c 337.133 232.156 338.879 233.457
 339.953 235.262 c h
339.953 235.262 m f
0.847059 0.54902 0.419608 rg
202.363 241.328 m 204.129 244.277 203.945 248.004 201.895 250.766 c 199.84
 253.523 196.328 254.777 192.992 253.941 c 189.66 253.102 187.156 250.336
 186.656 246.934 c 186.152 243.531 187.75 240.16 190.703 238.395 c 192.637
 237.234 194.953 236.891 197.141 237.441 c 199.328 237.992 201.211 239.391
 202.363 241.328 c h
202.363 241.328 m f
238.793 171.023 m 240.516 173.902 240.336 177.535 238.336 180.23 c 236.336
 182.926 232.91 184.148 229.652 183.332 c 226.398 182.516 223.957 179.816
 223.469 176.496 c 222.977 173.176 224.535 169.887 227.414 168.164 c 229.301
 167.035 231.562 166.699 233.695 167.234 c 235.832 167.77 237.664 169.133
 238.793 171.023 c h
238.793 171.023 m f
0.698039 0.556863 0.439216 rg
152.16 91.289 m 155.355 91.289 158.238 93.215 159.465 96.168 c 160.688 
99.125 160.012 102.523 157.75 104.785 c 155.488 107.047 152.09 107.723 149.137
 106.5 c 146.18 105.273 144.254 102.391 144.254 99.195 c 144.258 94.828 
147.793 91.293 152.16 91.289 c h
152.16 91.289 m f
0.756863 0.603922 0.454902 rg
86.766 212.438 m 90.207 212.438 93.305 214.512 94.617 217.688 c 95.934 
220.863 95.207 224.52 92.773 226.949 c 90.344 229.383 86.688 230.109 83.512
 228.793 c 80.336 227.48 78.266 224.379 78.262 220.941 c 78.266 216.246 
82.07 212.441 86.766 212.438 c h
86.766 212.438 m f
142.191 330.629 m 143.957 333.582 143.773 337.309 141.719 340.07 c 139.668
 342.832 136.156 344.086 132.82 343.246 c 129.48 342.406 126.98 339.641 
126.477 336.238 c 125.973 332.836 127.57 329.465 130.523 327.699 c 132.457
 326.539 134.777 326.195 136.965 326.746 c 139.152 327.297 141.035 328.691
 142.191 330.629 c h
142.191 330.629 m f
0.729412 0.576471 0.423529 rg
60.074 354.098 m 30.75 76.535 l 30.754 75.727 30.883 74.922 31.129 74.152
 c 27.191 72.238 23.16 70.52 19.051 69.012 c 16.578 68.117 13.824 68.488
 11.676 70 c 9.527 71.512 8.246 73.973 8.25 76.602 c 37.574 354.094 l 37.957
 357.508 40.879 360.07 44.316 360 c 66.816 360 l 63.383 360.074 60.457 357.512
 60.074 354.098 c h
60.074 354.098 m f
0.756863 0.603922 0.454902 rg
53.387 153.406 m 53.387 157.984 49.672 161.699 45.09 161.699 c 40.508 161.699
 36.797 157.984 36.797 153.406 c 36.797 148.824 40.508 145.109 45.09 145.109
 c 49.672 145.109 53.387 148.824 53.387 153.406 c h
53.387 153.406 m f
0.156863 0.258824 0.407843 rg
377.035 156.734 m 375.641 154.402 373.836 152.348 371.703 150.66 c 369.66
 149.055 368.281 146.75 367.832 144.188 c 367.355 141.516 366.395 138.949
 365.004 136.617 c 361.477 130.727 355.449 122.953 343.816 123.457 c 338.668
 123.68 334.262 121.703 332.031 118.184 c 331.754 117.738 331.449 117.305
 331.133 116.895 c 326.781 111.27 316.434 102.945 294.805 107.305 c 293.625
 103.668 290.848 100.766 287.266 99.422 c 283.684 98.078 279.688 98.441 
276.402 100.406 c 276.27 100.484 276.137 100.574 276.012 100.668 c 174.77
 176.648 l 182.926 71.84 l 182.934 71.723 182.938 71.609 182.938 71.492 
c 182.941 65.52 178.258 60.598 172.297 60.301 c 169.195 60.145 166.168 60.09
 163.195 60.117 c 158.406 48.367 150.117 42.129 137.93 41.102 c 137.574 
41.074 137.219 41.055 136.867 41.043 c 132.41 40.926 128.434 38.227 125.957
 33.637 c 121.07 24.59 112.777 19.188 103.766 19.188 c 101.047 19.188 98.355
 19.684 95.812 20.645 c 93.383 21.574 90.695 21.574 88.266 20.645 c 85.727
 19.684 83.031 19.188 80.316 19.188 c 73.453 19.188 63.684 20.371 58.145
 30.609 c 55.691 35.141 51.734 37.906 47.566 38.012 c 47.043 38.023 46.52
 38.062 46 38.125 c 30.727 39.945 22.906 53.805 19.125 64.367 c 15.395 63.508
 11.477 64.398 8.484 66.781 c 5.492 69.168 3.75 72.785 3.75 76.613 c 3.75
 76.77 3.758 76.93 3.773 77.086 c 33.102 354.727 l 33.695 360.469 38.543
 364.828 44.316 364.816 c 149.691 364.816 l 154.516 364.793 158.801 361.715
 160.363 357.148 c 372.449 251.668 l 372.555 251.617 372.656 251.559 372.754
 251.5 c 377.887 248.441 379.711 241.895 376.902 236.621 c 375.449 233.891
 373.949 231.258 372.398 228.73 c 380.035 218.594 381.129 208.277 375.75
 197.289 c 375.598 196.969 375.43 196.656 375.258 196.352 c 373.074 192.469
 373.352 187.672 376.02 183.191 c 381.281 174.359 381.664 164.469 377.035
 156.734 c h
342.469 158.656 m 333.207 144.184 313.73 138.422 297.586 144.18 c 297.617
 143.203 297.637 142.242 297.652 141.297 c 315.176 133.211 336.18 139.723
 346.422 156.848 c 354 169.516 351.719 186.43 345.465 197.93 c 344.637 197.297
 343.797 196.684 342.953 196.09 c 348.145 185.406 349.957 170.355 342.469
 158.656 c h
334.891 163.508 m 338.953 169.852 340.102 180.938 335.309 191.273 c 333.09
 190.035 330.82 188.91 328.508 187.898 c 328.676 187.914 328.844 187.93 
329.016 187.93 c 335.062 187.969 336.574 179.547 330.895 177.48 c 325.211
 175.414 320.961 182.836 325.617 186.691 c 323.715 185.941 321.785 185.262
 319.824 184.652 c 318.809 177.004 315.75 171.441 310.703 168.102 c 305.855
 164.895 300.238 164.559 295.941 164.977 c 296.41 161.246 296.777 157.664
 297.039 154.227 c 309.93 147.375 327.145 151.41 334.891 163.508 c h
294.59 174.25 m 297.453 173.68 302.223 173.258 305.766 175.621 c 307.805
 176.984 309.273 179.215 310.168 182.273 c 304.641 181.266 299.031 180.758
 293.41 180.754 c 293.84 178.551 294.234 176.375 294.59 174.25 c h
47.059 47.059 m 47.297 47.027 47.543 47.012 47.785 47.004 c 55.219 46.82
 62.047 42.289 66.055 34.891 c 68.633 30.129 72.762 28.184 80.312 28.184
 c 81.945 28.188 83.566 28.484 85.09 29.062 c 89.562 30.777 94.512 30.777
 98.984 29.062 c 100.512 28.484 102.133 28.188 103.766 28.184 c 109.414 
28.184 114.75 31.82 118.035 37.91 c 122.023 45.301 128.98 49.836 136.633
 50.039 c 136.809 50.043 136.988 50.055 137.172 50.07 c 144.77 50.707 149.961
 53.996 153.469 60.527 c 146.102 61.086 138.805 62.387 131.695 64.406 c 
123.719 47.09 107.391 36.504 88.145 36.504 c 64.914 36.504 45.617 52.684
 41.398 74.461 c 36.082 71.523 31.398 69.273 27.539 67.594 c 30.293 59.918
 36.195 48.355 47.059 47.059 c h
101.34 68.363 m 98.055 68.352 95.547 71.305 96.09 74.547 c 96.633 77.789
 99.961 79.766 103.066 78.684 c 101.305 80.039 99.598 81.469 97.941 82.969
 c 89.52 80.867 82.41 81.551 76.793 85.039 c 73.648 87.027 71.078 89.801
 69.34 93.086 c 66.336 90.73 63.402 88.543 60.547 86.531 c 60.992 79.699
 63.77 73.23 68.418 68.203 c 73.668 62.457 80.785 59.035 87.945 58.82 c 
95.465 58.609 105.578 63.301 111.996 72.707 c 109.801 73.977 107.676 75.34
 105.621 76.801 c 108.195 73.301 105.691 68.355 101.344 68.363 c h
90.367 90.82 m 87.066 94.715 84.086 98.871 81.461 103.246 c 79.797 101.758
 78.148 100.32 76.516 98.934 c 77.504 96.348 79.293 94.141 81.621 92.641
 c 83.961 91.211 86.891 90.609 90.367 90.82 c h
87.676 49.824 m 78.094 50.113 68.652 54.602 61.773 62.137 c 56.945 67.414
 53.641 73.902 52.219 80.91 c 51.391 80.383 50.57 79.867 49.766 79.367 c
 51.809 60.184 68.184 45.508 88.145 45.508 c 103.066 45.328 116.723 53.852
 123.121 67.332 c 122.09 67.742 121.07 68.172 120.062 68.617 c 113.555 58.684
 101.578 49.41 87.676 49.824 c h
34.633 283.566 m 33.863 276.27 l 37.262 277.266 37.75 281.883 34.633 283.566
 c h
158.07 275.242 m 158.078 275.137 158.086 275.031 158.086 274.922 c 158.105
 271.93 155.738 269.469 152.75 269.363 c 149.758 269.258 147.227 271.547
 147.031 274.535 c 146.84 277.52 149.055 280.121 152.035 280.402 c 155.016
 280.684 157.676 278.543 158.047 275.574 c 151.965 353.723 l 151.867 354.906
 150.883 355.82 149.695 355.824 c 44.316 355.824 l 43.152 355.824 42.172
 354.945 42.051 353.789 c 35.605 292.754 l 42.02 291.297 46.332 285.27 45.641
 278.723 c 44.949 272.18 39.473 267.184 32.895 267.098 c 12.754 76.426 l
 12.805 75.324 13.371 74.312 14.277 73.688 c 15.219 73.02 16.426 72.859 
17.508 73.258 c 28.293 77.191 56.75 89.812 87.992 122.012 c 120.141 155.145
 144.41 197.738 160.141 248.625 c h
94.449 115.742 m 92.359 113.586 90.281 111.516 88.211 109.523 c 98.34 91.961
 112.918 79.957 131.586 73.824 c 147.109 68.723 161.996 68.789 171.844 69.285
 c 172.969 69.34 173.871 70.234 173.938 71.359 c 165.234 183.172 l 164.344
 180.746 161.883 179.27 159.324 179.625 c 156.762 179.977 154.793 182.066
 154.594 184.645 c 154.395 187.219 156.016 189.59 158.488 190.336 c 160.965
 191.078 163.625 190 164.879 187.742 c 161.918 225.805 l 145.879 182.367
 123.238 145.414 94.449 115.742 c h
161.551 346.5 m 173.836 188.598 l 281.184 108.039 l 282.156 107.52 283.32
 107.48 284.324 107.938 c 285.379 108.402 286.137 109.355 286.348 110.488
 c 288.508 121.766 292.273 152.668 280.66 196.012 c 268.711 240.625 244.586
 283.32 208.961 322.926 c h
368.242 243.707 m 267.691 293.715 l 269.355 291.742 269.422 288.879 267.852
 286.828 c 266.285 284.781 263.5 284.098 261.164 285.188 c 258.824 286.281
 257.559 288.852 258.121 291.367 c 258.68 293.887 260.918 295.676 263.5 
295.672 c 263.598 295.672 263.699 295.656 263.797 295.652 c 229.473 312.723
 l 258.535 276.676 278.652 238.285 289.352 198.34 c 290.133 195.426 290.848
 192.566 291.496 189.762 c 311.77 189.441 329.555 195.781 344.395 208.645
 c 356.746 219.348 364.324 232.148 368.953 240.852 c 369.48 241.844 369.176
 243.078 368.242 243.707 c h
367.418 200.766 m 367.508 200.922 367.59 201.082 367.668 201.246 c 371.02
 208.094 370.859 214.238 367.043 220.602 c 362.766 214.531 357.883 208.91
 352.473 203.824 c 360.832 189.723 363.938 168.586 354.148 152.223 c 342.23
 132.293 318.434 124.043 297.57 131.598 c 297.363 125.531 296.895 120.359
 296.355 116.191 c 304.359 114.617 317.324 113.742 324.012 122.395 c 324.164
 122.586 324.301 122.785 324.43 122.996 c 328.406 129.277 335.793 132.812
 344.207 132.445 c 349.625 132.207 353.41 134.762 357.281 141.234 c 358.117
 142.637 358.695 144.18 358.98 145.785 c 359.805 150.5 362.344 154.746 366.109
 157.707 c 367.391 158.719 368.477 159.953 369.316 161.355 c 372.215 166.199
 371.832 172.641 368.289 178.582 c 363.984 185.805 363.66 194.102 367.414
 200.766 c h
367.418 200.766 m f
306.824 164.387 m 307.25 164.496 307.688 164.551 308.129 164.551 c 314.801
 164.555 315.414 154.766 308.793 153.941 c 302.168 153.113 300.355 162.75
 306.824 164.387 c h
306.824 164.387 m f
323.734 170.926 m 329.184 170.914 331.078 163.684 326.34 161 c 321.598 
158.316 316.375 163.668 319.172 168.344 c 320.129 169.953 321.863 170.934
 323.734 170.926 c h
323.734 170.926 m f
225.105 164.297 m 219.09 167.945 217.148 175.77 220.758 181.805 c 224.367
 187.844 232.176 189.836 238.238 186.262 c 241.172 184.531 243.297 181.699
 244.137 178.398 c 244.98 175.098 244.469 171.598 242.719 168.672 c 240.973
 165.746 238.129 163.641 234.82 162.82 c 231.516 162 228.02 162.531 225.105
 164.297 c h
235.355 176.203 m 235.109 177.184 234.488 178.023 233.621 178.535 c 230.719
 180.27 227.172 177.629 227.996 174.352 c 228.824 171.078 233.199 170.434
 234.93 173.336 c 235.449 174.195 235.602 175.23 235.355 176.203 c h
235.355 176.203 m f
188.395 234.535 m 183.879 237.234 181.438 242.387 182.203 247.59 c 182.969
 252.793 186.797 257.023 191.895 258.305 c 196.996 259.59 202.367 257.672
 205.508 253.449 c 208.645 249.23 208.93 243.535 206.23 239.02 c 204.477
 236.043 201.602 233.891 198.25 233.047 c 194.898 232.207 191.348 232.738
 188.395 234.535 c h
198.953 246.668 m 198.695 247.699 198.039 248.582 197.125 249.125 c 195.227
 250.262 192.766 249.641 191.629 247.746 c 190.168 245.297 191.664 242.148
 194.488 241.734 c 197.309 241.316 199.648 243.902 198.953 246.668 c h
198.953 246.668 m f
326.801 228.668 m 320.953 232.199 319.059 239.793 322.566 245.656 c 326.07
 251.516 333.656 253.441 339.535 249.961 c 345.414 246.445 347.328 238.828
 343.812 232.949 c 340.297 227.066 332.68 225.152 326.801 228.668 c h
336.477 240.145 m 335.566 243.754 330.352 243.496 329.809 239.809 c 329.266
 236.125 334.184 234.371 336.098 237.566 c 336.559 238.344 336.695 239.27
 336.473 240.145 c h
336.477 240.145 m f
267.977 127.219 m 266.195 126.773 264.309 127.242 262.945 128.477 c 261.586
 129.707 260.926 131.539 261.195 133.355 c 261.461 135.172 262.617 136.734
 264.277 137.523 c 265.934 138.309 267.879 138.219 269.453 137.277 c 271.363
 136.137 272.398 133.957 272.074 131.754 c 271.75 129.551 270.133 127.762
 267.973 127.219 c h
267.977 127.219 m f
234.93 232.43 m 233.016 233.57 231.98 235.754 232.305 237.953 c 232.629
 240.156 234.246 241.945 236.402 242.492 c 238.562 243.035 240.836 242.223
 242.164 240.438 c 243.492 238.652 243.613 236.238 242.469 234.328 c 241.727
 233.07 240.512 232.16 239.094 231.805 c 237.68 231.449 236.176 231.672 
234.93 232.43 c h
234.93 232.43 m f
179.66 325.133 m 177.066 326.695 176.223 330.066 177.777 332.668 c 179.332
 335.27 182.699 336.121 185.305 334.578 c 185.312 334.578 l 186.574 333.836
 187.492 332.617 187.855 331.195 c 188.219 329.777 187.996 328.27 187.246
 327.008 c 186.492 325.75 185.266 324.844 183.844 324.492 c 182.418 324.141
 180.914 324.371 179.66 325.137 c h
179.66 325.133 m f
196.754 273.172 m 193.809 272.43 190.82 274.219 190.078 277.168 c 189.336
 280.113 191.125 283.102 194.07 283.844 c 194.512 283.953 194.965 284.012
 195.422 284.012 c 196.414 284.012 197.387 283.742 198.234 283.23 c 200.145
 282.09 201.18 279.91 200.855 277.707 c 200.527 275.504 198.91 273.715 196.754
 273.176 c h
196.754 273.172 m f
294.461 232.23 m 292.68 231.781 290.789 232.254 289.426 233.484 c 288.062
 234.719 287.406 236.551 287.672 238.371 c 287.941 240.188 289.098 241.754
 290.762 242.539 c 292.422 243.328 294.367 243.234 295.945 242.289 c 297.852
 241.148 298.887 238.965 298.562 236.766 c 298.238 234.566 296.617 232.777
 294.461 232.234 c h
294.461 232.23 m f
333.637 218.859 m 336.137 218.855 338.316 217.168 338.949 214.754 c 339.582
 212.34 338.508 209.801 336.336 208.57 c 334.16 207.344 331.434 207.73 329.688
 209.52 c 327.945 211.305 327.625 214.043 328.906 216.184 c 329.898 217.852
 331.699 218.871 333.637 218.859 c h
333.637 218.859 m f
70.547 74.285 m 65.816 74.285 63.449 80.004 66.793 83.348 c 70.137 86.691
 75.852 84.324 75.852 79.594 c 75.848 76.664 73.477 74.289 70.547 74.285
 c h
70.547 74.285 m f
84.035 64.172 m 79.305 64.172 76.938 69.887 80.281 73.23 c 83.625 76.574
 89.344 74.207 89.344 69.477 c 89.34 66.547 86.965 64.172 84.035 64.172 
c h
84.035 64.172 m f
45.09 140.613 m 39.914 140.613 35.25 143.73 33.273 148.512 c 31.293 153.293
 32.391 158.797 36.051 162.453 c 39.707 166.113 45.211 167.207 49.992 165.227
 c 54.77 163.246 57.887 158.578 57.887 153.406 c 57.879 146.344 52.152 140.617
 45.09 140.613 c h
45.09 157.199 m 41.711 157.195 40.023 153.109 42.414 150.723 c 44.805 148.336
 48.887 150.027 48.887 153.406 c 48.883 155.5 47.184 157.199 45.09 157.199
 c h
45.09 157.199 m f
73.766 220.941 m 73.766 226.199 76.93 230.945 81.793 232.957 c 86.652 234.973
 92.246 233.859 95.965 230.141 c 99.688 226.422 100.801 220.828 98.789 215.969
 c 96.773 211.105 92.031 207.938 86.77 207.938 c 79.594 207.945 73.773 213.762
 73.766 220.941 c h
90.777 220.941 m 90.781 224.508 86.465 226.301 83.941 223.777 c 81.414 
221.254 83.199 216.938 86.77 216.938 c 88.98 216.941 90.773 218.73 90.777
 220.941 c h
90.777 220.941 m f
164.57 99.195 m 164.574 94.18 161.551 89.652 156.914 87.73 c 152.277 85.809
 146.941 86.867 143.391 90.418 c 139.84 93.965 138.777 99.301 140.699 103.938
 c 142.617 108.578 147.145 111.602 152.164 111.602 c 159.012 111.594 164.562
 106.047 164.57 99.195 c h
152.164 102.602 m 149.129 102.598 147.613 98.93 149.762 96.789 c 151.906
 94.645 155.57 96.164 155.57 99.195 c 155.566 101.074 154.043 102.598 152.164
 102.602 c h
152.164 102.602 m f
26.34 95.988 m 24.113 95.988 22.109 97.328 21.258 99.387 c 20.406 101.441
 20.875 103.809 22.449 105.383 c 24.023 106.957 26.391 107.426 28.445 106.574
 c 30.5 105.723 31.84 103.719 31.84 101.492 c 31.84 98.453 29.375 95.992
 26.34 95.988 c h
26.34 95.988 m f
78.867 177.957 m 81.094 177.957 83.098 176.617 83.949 174.562 c 84.801 
172.504 84.332 170.141 82.758 168.566 c 81.184 166.992 78.816 166.523 76.762
 167.375 c 74.703 168.227 73.363 170.23 73.363 172.457 c 73.367 175.496 
75.828 177.957 78.867 177.957 c h
78.867 177.957 m f
40.211 239.469 m 37.988 239.469 35.98 240.809 35.129 242.867 c 34.277 244.922
 34.75 247.289 36.32 248.863 c 37.895 250.434 40.262 250.906 42.316 250.055
 c 44.375 249.203 45.715 247.195 45.715 244.973 c 45.711 241.934 43.25 239.473
 40.211 239.469 c h
40.211 239.469 m f
62.688 329.324 m 60.461 329.324 58.457 330.664 57.605 332.723 c 56.754 
334.777 57.223 337.145 58.797 338.719 c 60.371 340.293 62.738 340.762 64.793
 339.91 c 66.848 339.059 68.188 337.051 68.188 334.828 c 68.188 331.789 
65.723 329.328 62.688 329.324 c h
62.688 329.324 m f
130.109 127.152 m 127.887 127.152 125.879 128.492 125.027 130.551 c 124.176
 132.605 124.648 134.973 126.219 136.547 c 127.793 138.121 130.16 138.59
 132.215 137.738 c 134.273 136.887 135.613 134.879 135.613 132.656 c 135.609
 129.617 133.148 127.156 130.109 127.152 c h
130.109 127.152 m f
135.629 85.41 m 135.668 88.449 133.234 90.941 130.195 90.977 c 127.156 
91.016 124.664 88.582 124.625 85.543 c 124.59 82.504 127.023 80.012 130.062
 79.973 c 133.102 79.938 135.594 82.371 135.629 85.41 c h
135.629 85.41 m f
134.91 347.992 m 140.809 347.977 145.957 343.996 147.453 338.289 c 148.949
 332.582 146.414 326.586 141.277 323.684 c 136.145 320.777 129.699 321.695
 125.578 325.918 c 121.461 330.141 120.699 336.605 123.727 341.668 c 126.07
 345.609 130.324 348.016 134.91 347.992 c h
131.004 334.02 m 131.695 331.246 134.984 330.07 137.277 331.773 c 139.57
 333.473 139.398 336.961 136.945 338.426 c 133.887 340.262 130.137 337.477
 131.004 334.02 c h
131.004 334.02 m f
82.09 278.754 m 80.18 279.895 79.148 282.074 79.473 284.277 c 79.797 286.477
 81.414 288.266 83.57 288.809 c 84.012 288.922 84.465 288.977 84.922 288.977
 c 86.637 288.977 88.254 288.168 89.293 286.801 c 90.332 285.434 90.672 
283.66 90.211 282.004 c 89.754 280.352 88.551 279.004 86.953 278.367 c 85.359
 277.727 83.559 277.871 82.086 278.754 c h
82.09 278.754 m f
136.012 221.422 m 136.453 221.531 136.906 221.59 137.363 221.59 c 140.277
 221.59 142.691 219.32 142.871 216.414 c 143.051 213.504 140.938 210.953
 138.047 210.594 c 135.152 210.234 132.48 212.188 131.941 215.051 c 131.402
 217.918 133.188 220.707 136.012 221.422 c h
136.012 221.422 m f
Q Q
showpage
%%Trailer
end
%%EOF
