%!PS-Adobe-3.0 EPSF-3.0
%%Creator: cairo 1.16.0 (https://cairographics.org)
%%CreationDate: Tue Feb  2 14:48:18 2021
%%Pages: 1
%%DocumentData: Clean7Bit
%%LanguageLevel: 2
%%BoundingBox: 73 3 311 381
%%EndComments
%%BeginProlog
50 dict begin
/q { gsave } bind def
/Q { grestore } bind def
/cm { 6 array astore concat } bind def
/w { setlinewidth } bind def
/J { setlinecap } bind def
/j { setlinejoin } bind def
/M { setmiterlimit } bind def
/d { setdash } bind def
/m { moveto } bind def
/l { lineto } bind def
/c { curveto } bind def
/h { closepath } bind def
/re { exch dup neg 3 1 roll 5 3 roll moveto 0 rlineto
      0 exch rlineto 0 rlineto closepath } bind def
/S { stroke } bind def
/f { fill } bind def
/f* { eofill } bind def
/n { newpath } bind def
/W { clip } bind def
/W* { eoclip } bind def
/BT { } bind def
/ET { } bind def
/BDC { mark 3 1 roll /BDC pdfmark } bind def
/EMC { mark /EMC pdfmark } bind def
/cairo_store_point { /cairo_point_y exch def /cairo_point_x exch def } def
/Tj { show currentpoint cairo_store_point } bind def
/TJ {
  {
    dup
    type /stringtype eq
    { show } { -0.001 mul 0 cairo_font_matrix dtransform rmoveto } ifelse
  } forall
  currentpoint cairo_store_point
} bind def
/cairo_selectfont { cairo_font_matrix aload pop pop pop 0 0 6 array astore
    cairo_font exch selectfont cairo_point_x cairo_point_y moveto } bind def
/Tf { pop /cairo_font exch def /cairo_font_matrix where
      { pop cairo_selectfont } if } bind def
/Td { matrix translate cairo_font_matrix matrix concatmatrix dup
      /cairo_font_matrix exch def dup 4 get exch 5 get cairo_store_point
      /cairo_font where { pop cairo_selectfont } if } bind def
/Tm { 2 copy 8 2 roll 6 array astore /cairo_font_matrix exch def
      cairo_store_point /cairo_font where { pop cairo_selectfont } if } bind def
/g { setgray } bind def
/rg { setrgbcolor } bind def
/d1 { setcachedevice } bind def
/cairo_data_source {
  CairoDataIndex CairoData length lt
    { CairoData CairoDataIndex get /CairoDataIndex CairoDataIndex 1 add def }
    { () } ifelse
} def
/cairo_flush_ascii85_file { cairo_ascii85_file status { cairo_ascii85_file flushfile } if } def
/cairo_image { image cairo_flush_ascii85_file } def
/cairo_imagemask { imagemask cairo_flush_ascii85_file } def
%%EndProlog
%%BeginSetup
%%EndSetup
%%Page: 1 1
%%BeginPageSetup
%%PageBoundingBox: 73 3 311 381
%%EndPageSetup
q 73 3 238 378 rectclip
1 0 0 -1 0 384 cm q
0.666667 0.478431 0.396078 rg
251.934 293.707 m 233.887 375 l 148.883 375 l 127.875 293.707 l h
251.934 293.707 m f
0.298039 0.662745 0.529412 rg
286.23 53.191 m 304.32 58.898 314.102 76.883 298.746 163.719 c 290.941 
207.848 255.246 215.422 219.211 208.352 c 219.203 203.699 219.156 199.141
 219.082 194.766 c 219.082 194.766 259.352 195.871 271.172 178.477 c 282.121
 162.375 276.277 134.656 279.344 117.797 c 281.512 105.848 287.496 69.562
 286.23 53.191 c h
286.23 53.191 m f
0.372549 0.803922 0.643137 rg
286.23 53.191 m 287.496 69.562 281.512 105.848 279.344 117.797 c 276.277
 134.656 282.121 162.375 271.172 178.477 c 259.352 195.871 219.082 194.766
 219.082 194.766 c 218.969 188.25 218.789 182.152 218.551 176.781 c 219.262
 176.828 263.773 179.504 256.559 146.211 c 249.285 112.648 255.594 47.488
 278.379 51.383 c 281.035 51.801 283.656 52.406 286.23 53.191 c h
286.23 53.191 m f
0.34902 0.666667 0.4 rg
215.953 37.539 m 210.773 20.578 203.691 12.578 196.363 9.645 c 192.164 
8.031 187.559 7.801 183.219 8.992 c 180.617 9.637 178.129 10.66 175.828 
12.031 c 167.219 17.227 161.914 26.512 161.805 36.57 c 159.137 189.129 l
 158.414 230.281 l 157.641 274.273 l 216.504 274.273 l 218.445 259.441 219.277
 232.719 219.211 208.352 c 219.203 203.699 219.156 199.141 219.082 194.766
 c 218.969 188.25 218.789 182.152 218.551 176.781 c 218.34 172.125 218.078
 168.023 217.77 164.684 c 216.391 149.543 218.805 96.098 220.035 71.602 
c 220.656 60.098 219.273 48.57 215.953 37.539 c h
215.953 37.539 m f
0.298039 0.662745 0.529412 rg
159.137 189.129 m 158.715 213.195 l 143.266 210.137 117.84 215.438 107.887
 189.719 c 95.145 156.789 100.086 92.512 100.086 92.512 c 102.406 91.227
 104.91 90.305 107.512 89.781 c 134.273 84.422 121.172 155.984 124.574 172.004
 c 126.609 181.598 157.637 188.781 159.137 189.129 c h
159.137 189.129 m f
0.372549 0.803922 0.643137 rg
158.715 213.195 m 158.414 230.281 l 125.992 232.672 92.477 228.922 84.914
 200.895 c 70.434 147.262 78.691 104.348 100.086 92.512 c 100.086 92.512
 95.145 156.789 107.887 189.719 c 117.84 215.438 143.266 210.137 158.715
 213.195 c h
158.715 213.195 m f
196.363 9.645 m 196.363 9.645 205.801 78.422 200.242 122.559 c 196.246 
154.305 196.539 214.777 197.387 223.898 c 198.141 232.148 199.41 252.652
 196.711 274.273 c 175.734 274.273 l 178.426 252.652 177.164 232.148 176.398
 223.898 c 175.559 214.777 175.266 154.305 179.266 122.559 c 184.824 78.422
 175.828 12.031 175.828 12.031 c 178.129 10.66 180.617 9.637 183.219 8.992
 c 187.559 7.801 192.164 8.031 196.363 9.645 c h
196.363 9.645 m f
0.882353 0.717647 0.639216 rg
121.5 273.75 136.5 20.25 re f
0.529412 0.376471 0.32549 rg
127.875 294 m 148.883 375 l 171.383 375 l 150.375 294 l h
127.875 294 m f
0.717647 0.580392 0.52549 rg
121.5 273.75 22.5 20.25 re f
0.156863 0.258824 0.407843 rg
279.137 46.945 m 275.363 46.301 269.75 46.707 264.402 52.297 c 248.324 
69.102 246.391 120.523 252.16 147.168 c 253.672 154.129 252.734 159.457 
249.297 163.453 c 242.887 170.902 229.5 172.176 222.816 172.328 c 222.648
 169.285 222.461 166.57 222.254 164.277 c 220.883 149.277 223.387 94.625
 224.527 71.824 c 225.18 59.801 223.738 47.754 220.262 36.227 c 216.172 
22.836 210.465 13.461 203.305 8.359 c 197.18 3.996 189.859 2.707 182.133
 4.629 c 167.734 8.203 157.523 21.316 157.309 36.496 c 154.738 183.359 l
 151.812 182.555 148.031 181.422 144.207 180.031 c 129.93 174.836 128.984
 171.105 128.977 171.07 c 128.141 167.133 128.488 158.109 128.859 148.555
 c 129.777 124.82 130.816 97.922 119.672 88.426 c 116.148 85.426 111.637
 84.367 106.629 85.375 c 97.645 87.176 89.883 92.996 84.176 102.207 c 70.848
 123.734 69.5 161.059 80.57 202.066 c 84.445 216.414 94.699 226.25 111.047
 231.301 c 119.875 234.027 130.418 235.383 143.02 235.383 c 146.465 235.383
 150.07 235.277 153.836 235.07 c 153.227 269.773 l 121.508 269.773 l 119.02
 269.773 117.008 271.789 117.008 274.273 c 117.008 294.457 l 117.008 296.945
 119.02 298.957 121.508 298.957 c 124.391 298.957 l 144.523 376.875 l 145.039
 378.863 146.832 380.25 148.883 380.25 c 233.887 380.25 l 235.996 380.25
 237.824 378.785 238.281 376.727 c 255.539 298.961 l 258.301 298.961 l 260.785
 298.961 262.801 296.945 262.801 294.461 c 262.801 274.273 l 262.801 271.789
 260.785 269.773 258.301 269.773 c 221.551 269.773 l 222.988 255.375 223.641
 234.027 223.691 213.703 c 229.551 214.641 235.473 215.129 241.406 215.152
 c 256.543 215.152 269.492 211.66 279.543 204.77 c 292.016 196.223 299.965
 182.672 303.18 164.496 c 313.52 106.004 313.426 74.641 302.855 59.625 c
 296.781 51 287.867 48.434 279.137 46.945 c h
204.879 49.223 m 204 37.23 202.918 26.699 202.094 19.426 c 205.84 23.809
 209.043 30.312 211.652 38.852 c 214.824 49.383 216.141 60.391 215.539 71.375
 c 214.113 99.93 211.918 150.078 213.289 165.094 c 215.375 187.984 215.238
 243.469 212.496 269.777 c 201.738 269.777 l 203.188 254.379 203.23 238.883
 201.863 223.48 c 201.023 214.402 200.773 154.367 204.711 123.121 c 207.051
 104.523 207.109 79.66 204.879 49.223 c h
184.121 50.426 m 182.969 34.008 181.422 20.477 180.695 14.59 c 181.859 
14.082 183.066 13.672 184.301 13.359 c 186.902 12.66 189.629 12.562 192.273
 13.086 c 193.941 26.418 200.566 83.965 195.781 121.996 c 191.777 153.793
 192.043 215.039 192.902 224.309 c 194.219 239.438 194.148 254.66 192.695
 269.777 c 180.758 269.777 l 182.207 254.383 182.246 238.887 180.879 223.48
 c 180.043 214.406 179.793 154.363 183.73 123.121 c 186.066 104.527 186.199
 80.07 184.121 50.426 c h
166.305 36.637 m 166.375 30.785 168.516 25.148 172.352 20.727 c 174.496
 39.684 179.086 87.918 174.797 121.996 c 170.793 153.785 171.059 215.035
 171.918 224.309 c 173.234 239.438 173.164 254.66 171.711 269.777 c 162.227
 269.777 l h
104.406 95.422 m 105.691 94.883 107.027 94.473 108.395 94.199 c 111.391
 93.598 112.871 94.457 113.832 95.277 c 121.652 101.938 120.574 129.781 
119.863 148.207 c 119.438 159.211 119.102 167.906 120.172 172.941 c 121.414
 178.801 128.074 183.742 141.129 188.488 c 146.305 190.371 151.328 191.789
 154.574 192.633 c 154.305 208.02 l 152.164 207.797 149.941 207.641 147.648
 207.48 c 133.473 206.5 118.812 205.484 112.082 188.098 c 101.266 160.141
 103.676 107.586 104.406 95.422 c h
89.258 199.727 m 78.977 161.652 79.957 126.105 91.828 106.949 c 92.785 
105.398 93.855 103.918 95.031 102.52 c 94.758 109.137 94.523 118.414 94.707
 128.848 c 95.191 156.164 98.215 177.191 103.691 191.344 c 112.484 214.07
 132.449 215.453 147.027 216.461 c 149.52 216.633 151.926 216.801 154.145
 217.055 c 153.988 226.055 l 115.805 228.199 94.617 219.57 89.258 199.727
 c h
230.277 371.25 m 152.367 371.25 l 133.684 298.961 l 246.32 298.961 l h
253.801 278.773 m 253.801 289.957 l 126.008 289.957 l 126.008 278.773 l
 h
223.215 181.332 m 231.359 181.121 247.453 179.371 256.102 169.344 c 261.445
 163.148 263.074 155.043 260.957 145.262 c 255.066 118.082 258.836 71.137
 270.906 58.52 c 273.746 55.551 276.098 55.555 277.621 55.82 c 279.121 56.074
 280.539 56.352 281.883 56.668 c 282.203 72.148 277.766 101.297 274.914 
116.992 c 273.781 123.234 273.789 130.555 273.797 138.301 c 273.809 151.555
 273.824 166.578 267.449 175.953 c 259.875 187.094 236.102 189.953 223.469
 190.262 c 223.398 187.145 223.312 184.156 223.215 181.332 c h
294.312 162.93 m 291.539 178.637 284.855 190.219 274.453 197.352 c 259.461
 207.625 239.195 207.188 223.672 204.586 c 223.66 202.785 223.641 201 223.621
 199.238 c 229.586 199.086 235.535 198.535 241.426 197.59 c 258.012 194.859
 269.273 189.285 274.895 181.012 c 282.828 169.344 282.812 152.848 282.797
 138.293 c 282.789 130.965 282.781 124.043 283.773 118.602 c 284.535 114.402
 290.5 80.973 290.883 60.285 c 292.688 61.496 294.254 63.031 295.496 64.812
 c 304.312 77.332 303.934 108.512 294.312 162.93 c h
294.312 162.93 m f
Q Q
showpage
%%Trailer
end
%%EOF
