%!PS-Adobe-3.0 EPSF-3.0
%%Creator: cairo 1.16.0 (https://cairographics.org)
%%CreationDate: Tue Feb  2 14:48:18 2021
%%Pages: 1
%%DocumentData: Clean7Bit
%%LanguageLevel: 2
%%BoundingBox: 65 3 319 381
%%EndComments
%%BeginProlog
50 dict begin
/q { gsave } bind def
/Q { grestore } bind def
/cm { 6 array astore concat } bind def
/w { setlinewidth } bind def
/J { setlinecap } bind def
/j { setlinejoin } bind def
/M { setmiterlimit } bind def
/d { setdash } bind def
/m { moveto } bind def
/l { lineto } bind def
/c { curveto } bind def
/h { closepath } bind def
/re { exch dup neg 3 1 roll 5 3 roll moveto 0 rlineto
      0 exch rlineto 0 rlineto closepath } bind def
/S { stroke } bind def
/f { fill } bind def
/f* { eofill } bind def
/n { newpath } bind def
/W { clip } bind def
/W* { eoclip } bind def
/BT { } bind def
/ET { } bind def
/BDC { mark 3 1 roll /BDC pdfmark } bind def
/EMC { mark /EMC pdfmark } bind def
/cairo_store_point { /cairo_point_y exch def /cairo_point_x exch def } def
/Tj { show currentpoint cairo_store_point } bind def
/TJ {
  {
    dup
    type /stringtype eq
    { show } { -0.001 mul 0 cairo_font_matrix dtransform rmoveto } ifelse
  } forall
  currentpoint cairo_store_point
} bind def
/cairo_selectfont { cairo_font_matrix aload pop pop pop 0 0 6 array astore
    cairo_font exch selectfont cairo_point_x cairo_point_y moveto } bind def
/Tf { pop /cairo_font exch def /cairo_font_matrix where
      { pop cairo_selectfont } if } bind def
/Td { matrix translate cairo_font_matrix matrix concatmatrix dup
      /cairo_font_matrix exch def dup 4 get exch 5 get cairo_store_point
      /cairo_font where { pop cairo_selectfont } if } bind def
/Tm { 2 copy 8 2 roll 6 array astore /cairo_font_matrix exch def
      cairo_store_point /cairo_font where { pop cairo_selectfont } if } bind def
/g { setgray } bind def
/rg { setrgbcolor } bind def
/d1 { setcachedevice } bind def
/cairo_data_source {
  CairoDataIndex CairoData length lt
    { CairoData CairoDataIndex get /CairoDataIndex CairoDataIndex 1 add def }
    { () } ifelse
} def
/cairo_flush_ascii85_file { cairo_ascii85_file status { cairo_ascii85_file flushfile } if } def
/cairo_image { image cairo_flush_ascii85_file } def
/cairo_imagemask { imagemask cairo_flush_ascii85_file } def
%%EndProlog
%%BeginSetup
%%EndSetup
%%Page: 1 1
%%BeginPageSetup
%%PageBoundingBox: 65 3 319 381
%%EndPageSetup
q 65 3 254 378 rectclip
1 0 0 -1 0 384 cm q
0.52549 0.564706 0.615686 rg
306.336 119.316 m 77.664 119.316 l 75.625 119.32 73.672 120.133 72.23 121.574
 c 70.793 123.02 69.988 124.973 69.988 127.012 c 69.988 242.707 l 69.926
 255.039 79.867 265.086 92.199 265.156 c 101.281 265.156 l 113.609 265.223
 123.551 275.273 123.488 287.602 c 123.488 307.859 l 123.488 345.352 153.562
 375.75 190.656 375.75 c 202.426 375.75 l 239.52 375.75 269.586 345.352 
269.586 307.859 c 269.586 287.602 l 269.57 281.66 271.91 275.953 276.09 
271.734 c 280.234 267.523 285.895 265.152 291.801 265.156 c 304.133 265.086
 314.074 255.039 314.012 242.707 c 314.012 127.012 l 314.012 124.973 313.207
 123.02 311.77 121.574 c 310.328 120.133 308.375 119.32 306.336 119.316 
c h
306.336 119.316 m f
0.921569 0.447059 0.533333 rg
187.066 8.25 m 214.559 28.363 196.5 54.676 189.848 58.598 c 166.641 41.887
 184.891 35.602 187.066 8.25 c h
187.066 8.25 m f
0.419608 0.396078 0.372549 rg
172.289 303.699 m 172.289 320.844 l 172.367 323.938 171.195 326.93 169.035
 329.145 c 166.875 331.359 163.914 332.609 160.82 332.609 c 157.723 332.609
 154.762 331.359 152.602 329.145 c 150.441 326.93 149.27 323.938 149.348
 320.844 c 149.348 303.699 l 149.27 300.605 150.441 297.609 152.602 295.395
 c 154.762 293.18 157.723 291.93 160.82 291.93 c 163.914 291.93 166.875 
293.18 169.035 295.395 c 171.195 297.609 172.367 300.605 172.289 303.699
 c h
172.289 303.699 m f
218.918 303.699 m 218.918 320.844 l 218.918 327.18 213.781 332.316 207.441
 332.316 c 201.105 332.316 195.969 327.18 195.969 320.844 c 195.969 303.699
 l 195.969 297.359 201.105 292.223 207.441 292.223 c 213.781 292.223 218.918
 297.359 218.918 303.699 c h
218.918 303.699 m f
0.45098 0.486275 0.529412 rg
216.336 248.039 m 216.336 259.746 l 216.359 262.559 214.949 265.188 212.598
 266.723 c 210.242 268.258 207.27 268.488 204.703 267.336 c 195.539 262.566
 l 193.273 261.531 190.656 261.586 188.438 262.719 c 179.617 266.551 l 177.051
 267.84 173.992 267.703 171.555 266.184 c 169.113 264.664 167.637 261.984
 167.664 259.109 c 167.664 248.039 l 167.594 234.527 178.488 223.52 192 
223.449 c 198.469 223.445 204.668 226.039 209.203 230.648 c 213.789 235.273
 216.352 241.527 216.336 248.039 c h
216.336 248.039 m f
252.531 148.254 m 272.551 148.254 288.773 164.656 288.773 184.883 c 288.773
 205.109 272.551 221.504 252.531 221.504 c 232.516 221.504 216.301 205.109
 216.301 184.883 c 216.301 164.656 232.523 148.254 252.531 148.254 c h
252.531 148.254 m f
131.469 148.254 m 151.477 148.254 167.699 164.656 167.699 184.883 c 167.699
 205.109 151.477 221.504 131.469 221.504 c 111.457 221.504 95.227 205.109
 95.227 184.883 c 95.227 164.656 111.449 148.254 131.469 148.254 c h
131.469 148.254 m f
0.866667 0.756863 0.74902 rg
215.109 59.512 m 157.715 85.777 l 156.16 86.516 155.191 88.105 155.25 89.828
 c 155.25 119.527 l 155.25 127.461 161.551 134.25 169.461 134.25 c 174.996
 134.25 l 175.164 134.25 175.5 133.891 175.5 133.883 c 175.5 148.117 l 175.477
 153.23 179.566 157.414 184.68 157.5 c 198.961 157.5 l 208.539 157.5 216
 149.551 216 139.949 c 216 123.473 l 216.133 121.109 218.082 119.262 220.449
 119.25 c 221.25 119.25 l 221.25 63.562 l 221.34 60.355 218.027 58.168 215.109
 59.512 c h
215.109 59.512 m f
0.447059 0.419608 0.396078 rg
195.969 303.699 m 195.969 320.844 l 195.875 327.289 190.578 332.438 184.133
 332.348 c 181.008 332.355 178.004 331.148 175.754 328.98 c 173.547 326.848
 172.297 323.91 172.289 320.844 c 172.289 303.699 l 172.387 297.25 177.688
 292.102 184.133 292.191 c 187.254 292.18 190.258 293.391 192.504 295.559
 c 194.711 297.691 195.961 300.629 195.969 303.699 c h
195.969 303.699 m f
241.867 303.699 m 241.867 320.844 l 241.867 327.18 236.73 332.316 230.391
 332.316 c 224.055 332.316 218.918 327.18 218.918 320.844 c 218.918 303.699
 l 218.918 297.359 224.055 292.223 230.391 292.223 c 236.73 292.223 241.867
 297.359 241.867 303.699 c h
241.867 303.699 m f
0.384314 0.415686 0.447059 rg
146.25 307.859 m 146.25 287.602 l 146.25 275.203 136.043 265.5 123.781 
265.5 c 114.699 265.5 l 102.434 265.5 92.25 255.105 92.25 242.707 c 92.25
 127.012 l 92.352 122.711 95.859 119.27 100.164 119.25 c 77.664 119.25 l
 73.359 119.27 69.852 122.711 69.75 127.012 c 69.75 242.707 l 69.75 255.105
 79.934 265.5 92.199 265.5 c 101.281 265.5 l 113.543 265.5 123.75 275.203
 123.75 287.602 c 123.75 307.859 l 123.75 345.352 153.562 375.75 190.656
 375.75 c 202.426 375.75 l 204.23 375.75 206.152 375.676 207.922 375.535
 c 173.336 372.77 146.25 343.527 146.25 307.859 c h
146.25 307.859 m f
0.156863 0.258824 0.407843 rg
230.391 287.691 m 226.059 287.691 221.914 289.461 218.918 292.586 c 215.91
 289.449 211.754 287.68 207.41 287.691 c 203.066 287.699 198.914 289.488
 195.922 292.637 c 192.812 289.473 188.566 287.691 184.129 287.691 c 179.695
 287.691 175.445 289.473 172.336 292.637 c 167.832 287.91 160.898 286.406
 154.84 288.844 c 148.781 291.281 144.82 297.164 144.844 303.695 c 144.844
 320.84 l 144.82 327.371 148.781 333.258 154.84 335.695 c 160.898 338.129
 167.832 336.629 172.336 331.902 c 175.445 335.062 179.695 336.848 184.129
 336.848 c 188.566 336.848 192.816 335.062 195.922 331.902 c 198.914 335.051
 203.066 336.836 207.41 336.848 c 211.754 336.855 215.91 335.086 218.918
 331.949 c 223.434 336.648 230.355 338.129 236.398 335.684 c 242.441 333.238
 246.391 327.359 246.367 320.84 c 246.367 303.695 l 246.363 294.867 239.219
 287.707 230.391 287.691 c h
167.793 320.84 m 167.793 324.691 164.668 327.816 160.816 327.816 c 156.965
 327.816 153.844 324.691 153.844 320.84 c 153.844 303.695 l 153.844 301.844
 154.578 300.07 155.887 298.762 c 157.191 297.457 158.969 296.719 160.816
 296.719 c 162.668 296.719 164.441 297.457 165.75 298.762 c 167.059 300.07
 167.793 301.844 167.793 303.695 c h
191.469 320.84 m 191.25 324.734 188.031 327.777 184.129 327.777 c 180.23
 327.777 177.012 324.734 176.793 320.84 c 176.793 303.695 l 177.012 299.801
 180.23 296.758 184.129 296.758 c 188.031 296.758 191.25 299.801 191.469
 303.695 c h
214.418 320.84 m 214.418 324.691 211.297 327.816 207.445 327.816 c 203.594
 327.816 200.469 324.691 200.469 320.84 c 200.469 303.695 l 200.469 299.844
 203.594 296.719 207.445 296.719 c 211.297 296.719 214.418 299.844 214.418
 303.695 c h
237.367 320.84 m 237.367 324.691 234.246 327.816 230.395 327.816 c 226.543
 327.816 223.418 324.691 223.418 320.84 c 223.418 303.695 l 223.418 299.844
 226.543 296.719 230.395 296.719 c 234.246 296.719 237.367 299.844 237.367
 303.695 c h
237.367 320.84 m f
163.164 248.043 m 163.164 259.105 l 163.141 263.582 165.461 267.742 169.285
 270.07 c 172.992 272.363 177.625 272.57 181.527 270.625 c 190.227 266.848
 l 190.312 266.812 190.395 266.773 190.48 266.73 c 191.445 266.234 192.582
 266.195 193.582 266.621 c 202.625 271.332 l 202.695 271.367 202.766 271.406
 202.836 271.434 c 206.762 273.23 211.328 272.902 214.949 270.559 c 218.633
 268.195 220.852 264.117 220.836 259.746 c 220.836 248.043 l 220.891 240.359
 217.879 232.973 212.465 227.52 c 207.051 222.066 199.684 219 192 219 c 
184.312 219 176.949 222.066 171.535 227.52 c 166.121 232.973 163.105 240.359
 163.16 248.043 c h
172.164 248.043 m 172.117 242.75 174.188 237.66 177.914 233.902 c 181.637
 230.145 186.711 228.031 192 228.031 c 197.293 228.031 202.363 230.145 206.09
 233.902 c 209.816 237.66 211.883 242.75 211.84 248.043 c 211.84 259.742
 l 211.855 261.055 211.191 262.281 210.086 262.988 c 209.066 263.652 207.777
 263.766 206.66 263.285 c 197.617 258.57 l 197.547 258.535 197.477 258.5
 197.406 258.469 c 193.941 256.879 189.941 256.941 186.531 258.641 c 177.828
 262.418 l 177.742 262.453 177.66 262.492 177.574 262.535 c 176.438 263.125
 175.074 263.074 173.988 262.395 c 172.84 261.699 172.145 260.445 172.164
 259.105 c h
172.164 248.043 m f
172.199 184.879 m 172.199 162.203 153.926 143.754 131.465 143.754 c 109.004
 143.754 90.73 162.203 90.73 184.879 c 90.73 207.555 109.004 226.004 131.465
 226.004 c 153.926 226.004 172.199 207.555 172.199 184.879 c h
131.465 217.004 m 113.965 217.004 99.73 202.594 99.73 184.879 c 99.73 167.164
 113.965 152.754 131.465 152.754 c 148.965 152.754 163.199 167.164 163.199
 184.879 c 163.199 202.594 148.965 217.004 131.465 217.004 c h
131.465 217.004 m f
252.535 143.754 m 230.074 143.754 211.801 162.203 211.801 184.879 c 211.801
 207.555 230.074 226.004 252.535 226.004 c 274.996 226.004 293.27 207.555
 293.27 184.879 c 293.27 162.203 274.996 143.754 252.535 143.754 c h
252.535 217.004 m 235.035 217.004 220.801 202.594 220.801 184.879 c 220.801
 167.164 235.035 152.754 252.535 152.754 c 270.035 152.754 284.27 167.164
 284.27 184.879 c 284.27 202.594 270.035 217.004 252.535 217.004 c h
252.535 217.004 m f
306.336 114.816 m 226.086 114.816 l 226.086 63.562 l 226.086 60.516 224.535
 57.68 221.973 56.031 c 219.41 54.383 216.184 54.152 213.41 55.418 c 194.344
 64.117 l 194.344 60.855 l 199.586 56.332 205.75 46.379 206.301 35.383 c
 206.707 27.18 204.164 15.184 189.723 4.617 c 186.883 2.539 182.863 4.383
 182.582 7.891 c 181.875 16.742 179.387 23.168 177.191 28.832 c 173.086 
39.422 169.527 48.621 185.344 60.852 c 185.344 68.227 l 155.867 81.68 l 
152.68 83.141 150.637 86.324 150.629 89.828 c 150.629 114.816 l 77.664 114.816
 l 70.938 114.832 65.492 120.285 65.488 127.012 c 65.488 242.707 l 65.441
 257.516 77.391 269.57 92.199 269.656 c 101.281 269.656 l 111.121 269.73
 119.043 277.762 118.988 287.605 c 118.988 307.859 l 118.988 347.777 151.137
 380.25 190.656 380.25 c 202.426 380.25 l 241.941 380.25 274.09 347.773 
274.09 307.859 c 274.09 287.605 l 274.035 277.762 281.957 269.73 291.801
 269.656 c 306.609 269.57 318.559 257.516 318.512 242.707 c 318.512 127.012
 l 318.508 120.285 313.062 114.828 306.336 114.816 c h
185.586 32.086 m 187.594 27.23 189.18 22.211 190.336 17.086 c 195.297 22.441
 197.637 28.418 197.309 34.938 c 196.918 42.773 192.695 49.562 189.684 52.844
 c 180.402 45.445 181.863 41.684 185.582 32.086 c h
217.086 63.633 m 217.086 115.5 l 213.883 116.859 211.805 120 211.801 123.477
 c 211.801 139.949 l 211.805 147.047 206.062 152.812 198.965 152.832 c 184.68
 152.832 l 182.086 152.82 179.992 150.715 179.992 148.121 c 179.992 137.414
 l 182.715 136.301 184.992 134.324 186.477 131.789 c 188.184 128.789 186.008
 125.062 182.555 125.078 c 180.98 125.066 179.516 125.895 178.711 127.254
 c 177.945 128.582 176.527 129.398 174.996 129.402 c 169.465 129.402 l 164.027
 129.387 159.629 124.973 159.633 119.535 c 159.605 89.875 l h
309.512 242.707 m 309.566 252.547 301.645 260.578 291.801 260.656 c 276.988
 260.738 265.043 272.793 265.09 287.605 c 265.09 307.859 l 265.09 342.809
 236.98 371.25 202.426 371.25 c 190.656 371.25 l 156.102 371.25 127.988 
342.812 127.988 307.859 c 127.988 287.605 l 128.039 272.793 116.09 260.738
 101.281 260.656 c 92.199 260.656 l 82.355 260.578 74.434 252.547 74.488
 242.707 c 74.488 127.012 l 74.484 125.254 75.906 123.824 77.664 123.816
 c 151.129 123.816 l 153.117 132.34 160.711 138.375 169.465 138.395 c 170.992
 138.395 l 170.992 148.121 l 170.996 155.68 177.117 161.812 184.68 161.828
 c 198.965 161.828 l 211.027 161.801 220.797 152.016 220.801 139.949 c 220.801
 123.816 l 306.336 123.816 l 308.094 123.824 309.516 125.254 309.512 127.012
 c h
309.512 242.707 m f
183.258 113.074 m 185.746 113.074 187.758 111.059 187.758 108.574 c 187.758
 90.043 l 187.758 84.043 178.758 84.043 178.758 90.043 c 178.758 108.574
 l 178.758 111.059 180.773 113.074 183.258 113.074 c h
183.258 113.074 m f
199.543 133.082 m 202.027 133.082 204.043 131.066 204.043 128.582 c 204.043
 110.051 l 204.043 104.051 195.043 104.051 195.043 110.051 c 195.043 128.582
 l 195.043 131.066 197.059 133.082 199.543 133.082 c h
199.543 133.082 m f
Q Q
showpage
%%Trailer
end
%%EOF
