%!PS-Adobe-3.0 EPSF-3.0
%%Creator: cairo 1.16.0 (https://cairographics.org)
%%CreationDate: Tue Feb  2 14:48:19 2021
%%Pages: 1
%%DocumentData: Clean7Bit
%%LanguageLevel: 2
%%BoundingBox: 16 3 368 381
%%EndComments
%%BeginProlog
50 dict begin
/q { gsave } bind def
/Q { grestore } bind def
/cm { 6 array astore concat } bind def
/w { setlinewidth } bind def
/J { setlinecap } bind def
/j { setlinejoin } bind def
/M { setmiterlimit } bind def
/d { setdash } bind def
/m { moveto } bind def
/l { lineto } bind def
/c { curveto } bind def
/h { closepath } bind def
/re { exch dup neg 3 1 roll 5 3 roll moveto 0 rlineto
      0 exch rlineto 0 rlineto closepath } bind def
/S { stroke } bind def
/f { fill } bind def
/f* { eofill } bind def
/n { newpath } bind def
/W { clip } bind def
/W* { eoclip } bind def
/BT { } bind def
/ET { } bind def
/BDC { mark 3 1 roll /BDC pdfmark } bind def
/EMC { mark /EMC pdfmark } bind def
/cairo_store_point { /cairo_point_y exch def /cairo_point_x exch def } def
/Tj { show currentpoint cairo_store_point } bind def
/TJ {
  {
    dup
    type /stringtype eq
    { show } { -0.001 mul 0 cairo_font_matrix dtransform rmoveto } ifelse
  } forall
  currentpoint cairo_store_point
} bind def
/cairo_selectfont { cairo_font_matrix aload pop pop pop 0 0 6 array astore
    cairo_font exch selectfont cairo_point_x cairo_point_y moveto } bind def
/Tf { pop /cairo_font exch def /cairo_font_matrix where
      { pop cairo_selectfont } if } bind def
/Td { matrix translate cairo_font_matrix matrix concatmatrix dup
      /cairo_font_matrix exch def dup 4 get exch 5 get cairo_store_point
      /cairo_font where { pop cairo_selectfont } if } bind def
/Tm { 2 copy 8 2 roll 6 array astore /cairo_font_matrix exch def
      cairo_store_point /cairo_font where { pop cairo_selectfont } if } bind def
/g { setgray } bind def
/rg { setrgbcolor } bind def
/d1 { setcachedevice } bind def
/cairo_data_source {
  CairoDataIndex CairoData length lt
    { CairoData CairoDataIndex get /CairoDataIndex CairoDataIndex 1 add def }
    { () } ifelse
} def
/cairo_flush_ascii85_file { cairo_ascii85_file status { cairo_ascii85_file flushfile } if } def
/cairo_image { image cairo_flush_ascii85_file } def
/cairo_imagemask { imagemask cairo_flush_ascii85_file } def
%%EndProlog
%%BeginSetup
%%EndSetup
%%Page: 1 1
%%BeginPageSetup
%%PageBoundingBox: 16 3 368 381
%%EndPageSetup
q 16 3 352 378 rectclip
1 0 0 -1 0 384 cm q
0.490196 0.529412 0.568627 rg
172.191 309.512 m 179.609 310.445 187.098 310.672 194.559 310.176 c 202.734
 309.57 210.977 307.844 218.355 304.336 c 218.352 297.406 221.102 290.758
 226.004 285.859 c 230.902 280.957 237.547 278.203 244.477 278.203 c 245.91
 278.203 l 246.977 278.203 248.031 278.16 249.066 278.062 c 249.082 278.203
 l 249.082 309.562 l 249.082 346.117 219.449 375.754 182.891 375.754 c 146.336
 375.754 116.699 346.117 116.699 309.562 c 116.699 278.203 l 116.723 277.973
 l 118.078 278.129 119.438 278.207 120.801 278.203 c 121.297 278.203 l 135.727
 278.207 147.426 289.902 147.426 304.336 c 155.516 306.785 163.801 308.516
 172.191 309.512 c h
172.191 309.512 m f
0.388235 0.415686 0.447059 rg
158.738 356.363 m 146.348 343.945 139.426 327.102 139.5 309.562 c 139.5
 285.312 l 134.25 280.906 128.227 278.25 121.297 278.25 c 120.801 278.25
 l 119.488 278.246 118.176 278.16 116.871 277.996 c 117 278.203 l 117 309.562
 l 116.934 327.098 123.855 343.938 136.234 356.359 c 148.609 368.777 165.426
 375.758 182.961 375.75 c 186.746 375.75 190.52 375.43 194.25 374.793 c 
180.789 372.477 168.379 366.035 158.738 356.363 c h
158.738 356.363 m f
0.647059 0.501961 0.247059 rg
287.738 147.328 m 290.426 150.023 290.84 154.238 288.723 157.402 c 286.605
 160.562 282.551 161.793 279.035 160.332 c 275.523 158.875 273.527 155.137
 274.27 151.406 c 275.016 147.676 278.293 144.988 282.098 144.988 c 284.215
 144.988 286.242 145.832 287.738 147.328 c h
287.738 147.328 m f
0.917647 0.87451 0.32549 rg
315.449 152.969 m 316.848 152.969 317.848 154.32 317.438 155.656 c 315.816
 160.875 311.387 172.02 302.586 173.461 c 287.738 158.609 l 289.234 157.113
 290.07 155.086 290.07 152.969 c h
315.449 152.969 m f
0.298039 0.662745 0.529412 rg
145.996 45.336 m 144.773 49.641 144.34 54.133 144.711 58.59 c 144.703 58.598
 l 138.293 51.809 131.477 45.41 124.289 39.441 c 124.289 39.441 145.996 
-14.984 196.004 19.949 c 210.227 29.879 212.039 27.406 219.148 25.98 c 232.695
 23.266 253.785 19.305 267.824 39.441 c 262.102 45.535 256.816 52.031 252.016
 58.875 c 252.105 58.508 254.953 46.215 238.77 40.582 c 235.676 39.461 232.434
 38.801 229.148 38.625 c 224.672 38.352 220.227 39.484 216.426 41.863 c 
210.371 45.605 202.523 44.594 197.609 39.441 c 192.359 34.043 183.93 24.539
 169.793 26.168 c 166.605 26.5 163.48 27.289 160.516 28.508 c 151.809 32.176
 147.797 39.066 145.996 45.336 c h
145.996 45.336 m f
0.929412 0.717647 0.25098 rg
326.055 84.316 m 323.398 87.039 319.613 89.348 314.355 91.02 c 312.867 
88.551 310.879 86.418 308.52 84.766 c 301.605 79.648 299.684 75.832 299.586
 73.238 c 299.512 69.602 297.555 66.266 294.422 64.426 c 286.891 60.141 
275.504 55.266 270.977 61.703 c 267.148 67.133 262.066 65.953 258.227 63.742
 c 255.246 62.031 250.926 63.523 247.141 66.27 c 247.133 66.262 l 247.133
 66.262 248.871 63.352 252.016 58.883 c 252.016 58.875 l 256.816 52.031 
262.102 45.535 267.824 39.441 c 287.023 19.133 316.996 -1.289 346.469 24.18
 c 374.926 48.781 358.027 90.324 326.062 84.324 c h
326.055 84.316 m f
0.74902 0.686275 0.686275 rg
273.449 103.703 m 270.211 96.48 260.879 95.184 256.199 93.945 c 259.297
 84.863 268.816 76.828 280.836 80.535 c 292.434 84.105 299.969 95.992 296.879
 105.074 c 289.113 104.074 281.281 103.621 273.449 103.719 c h
273.449 103.703 m f
0.552941 0.807843 0.8 rg
314.355 91.02 m 319.371 99.801 312.336 107.844 312.336 107.844 c 312.324
 107.895 l 307.227 106.688 302.074 105.746 296.879 105.074 c 299.969 95.992
 292.434 84.105 280.836 80.535 c 268.816 76.828 259.297 84.863 256.199 93.945
 c 254.852 93.594 253.883 93.238 253.559 92.754 c 251.605 89.691 248.207
 87.859 244.574 87.914 c 243.098 87.961 241.516 87.961 239.91 87.977 c 236.699
 83.324 238.973 77.242 239.258 76.184 c 240.156 72.914 243.391 68.977 247.141
 66.27 c 250.926 63.523 255.246 62.031 258.227 63.742 c 262.066 65.953 267.148
 67.133 270.977 61.703 c 275.504 55.266 286.891 60.141 294.422 64.426 c 
297.555 66.266 299.512 69.602 299.586 73.238 c 299.684 75.832 301.605 79.648
 308.52 84.766 c 310.879 86.418 312.867 88.551 314.355 91.02 c h
314.355 91.02 m f
0.486275 0.678431 0.760784 rg
238.77 40.582 m 254.953 46.215 252.105 58.508 252.016 58.875 c 252.016 
58.883 l 248.871 63.352 247.133 66.262 247.133 66.262 c 247.141 66.27 l 
243.391 68.977 240.156 72.914 239.258 76.184 c 238.973 77.242 236.699 83.324
 239.91 87.977 c 234.031 88.012 227.762 88.172 224.82 91.02 c 223.117 90.047
 221.469 89.203 219.863 88.469 c 233.062 71.258 229.148 38.625 229.148 38.625
 c 232.434 38.801 235.676 39.461 238.77 40.582 c h
238.77 40.582 m f
0.580392 0.741176 0.803922 rg
229.148 38.625 m 229.148 38.625 233.062 71.258 219.863 88.469 c 216.438
 86.867 212.84 85.672 209.137 84.906 c 209.137 84.898 l 216.172 63.629 197.609
 39.441 197.609 39.441 c 202.523 44.594 210.371 45.605 216.426 41.863 c 
220.227 39.484 224.672 38.352 229.148 38.625 c h
229.148 38.625 m f
0.486275 0.678431 0.760784 rg
197.609 39.441 m 197.609 39.441 216.172 63.629 209.137 84.898 c 205.613
 84.168 202.004 83.965 198.422 84.293 c 191.699 49.824 160.516 28.508 160.516
 28.508 c 163.48 27.289 166.605 26.5 169.793 26.168 c 183.93 24.539 192.359
 34.043 197.609 39.441 c h
197.609 39.441 m f
0.580392 0.741176 0.803922 rg
187.738 87.594 m 190.898 80.379 180.832 73.164 173.266 68.941 c 168.391
 53.559 145.996 45.336 145.996 45.336 c 147.797 39.066 151.809 32.176 160.516
 28.508 c 160.516 28.508 191.699 49.824 198.422 84.293 c 191.543 84.969 
187.738 87.594 187.738 87.594 c h
187.738 87.594 m f
0.486275 0.678431 0.760784 rg
173.266 68.941 m 170.066 67.215 166.203 67.27 163.059 69.09 c 161.398 70.004
 158.691 70.441 154.254 69.336 c 154.246 69.328 l 154.051 69.09 150.562 
64.762 144.703 58.598 c 144.711 58.59 l 144.34 54.133 144.773 49.641 145.996
 45.336 c 145.996 45.336 168.391 53.559 173.266 68.941 c h
173.266 68.941 m f
0.929412 0.717647 0.25098 rg
57.098 86.609 m 25.133 92.602 6.75 48.781 35.203 24.18 c 63.75 -0.488 99.465
 18.945 124.289 39.441 c 131.477 45.41 138.293 51.809 144.703 58.598 c 150.562
 64.762 154.051 69.09 154.246 69.328 c 152.305 68.832 150.406 68.191 148.559
 67.418 c 131.797 60.539 126.848 76.109 126.848 76.109 c 126.789 76.176 
l 122.73 72.84 117.758 70.777 114.449 72.684 c 110.609 74.895 105.523 76.078
 101.699 70.648 c 97.172 64.215 85.785 69.09 78.246 73.371 c 75.117 75.211
 73.164 78.547 73.086 82.176 c 73.004 84.309 71.699 87.246 67.426 91.066
 c 63.77 90.141 60.285 88.637 57.105 86.609 c 57.098 86.617 57.098 86.609
 57.098 86.609 c h
57.098 86.609 m f
0.552941 0.807843 0.8 rg
134.773 91.059 m 134.98 93.215 134.449 95.383 133.266 97.199 c 131.488 
97.012 129.727 96.906 128.102 96.863 c 125.891 96.801 123.719 97.473 121.926
 98.766 c 118.828 89.691 101.566 86.453 92.754 91.066 c 82.004 96.684 76.754
 110.723 79.852 119.797 c 73.551 117.746 66.883 117.047 60.293 117.75 c 
60.293 117.75 49.582 104.488 64.148 93.711 c 65.398 92.789 66.48 91.906 
67.426 91.066 c 71.699 87.246 73.004 84.309 73.086 82.176 c 73.164 78.547
 75.117 75.211 78.246 73.371 c 85.785 69.09 97.172 64.215 101.699 70.648
 c 105.523 76.078 110.609 74.895 114.449 72.684 c 117.758 70.777 122.73 
72.84 126.789 76.176 c 129.988 78.809 132.621 82.23 133.41 85.133 c 134.129
 87.035 134.59 89.031 134.773 91.059 c h
134.773 91.059 m f
0.866667 0.756863 0.74902 rg
121.926 98.766 m 120.816 99.566 119.863 100.559 119.109 101.699 c 117.668
 103.859 114.051 106.125 105.48 106.898 c 87.426 108.523 90.219 124.621 
90.219 124.621 c 86.969 122.598 83.488 120.98 79.852 119.797 c 76.754 110.723
 82.004 96.684 92.754 91.066 c 101.566 86.453 118.828 89.691 121.926 98.766
 c h
121.926 98.766 m f
0.74902 0.686275 0.686275 rg
144.621 137.91 m 130.914 139.996 118.051 137.398 107.109 133.133 c 109.184
 123.766 137.129 113.371 144.621 137.91 c h
144.621 137.91 m f
0.627451 0.917647 0.917647 rg
167.977 119.797 m 169.715 122.293 170.234 125.441 169.395 128.363 c 169.086
 129.453 168.586 130.477 167.918 131.391 c 161.617 133.41 155.746 135.207
 150.309 136.785 c 148.402 137.25 146.508 137.625 144.621 137.91 c 137.129
 113.371 109.184 123.766 107.109 133.133 c 101.227 130.82 95.574 127.969
 90.219 124.621 c 90.219 124.621 87.426 108.523 105.48 106.898 c 114.051
 106.125 117.668 103.859 119.109 101.699 c 119.863 100.559 120.816 99.566
 121.926 98.766 c 123.719 97.473 125.891 96.801 128.102 96.863 c 129.727
 96.906 131.488 97.012 133.266 97.199 c 140.953 98.004 149.113 100.359 149.543
 106.734 c 149.984 113.363 154.941 114.996 159.375 115.109 c 162.828 115.199
 166.031 116.941 167.977 119.797 c h
167.977 119.797 m f
0.552941 1 0.976471 rg
192.609 99.547 m 198.586 102.84 197.07 109.32 195.391 115.934 c 194.836
 118.094 191.016 123.473 189.953 124.02 c 189.945 124.02 l 182.062 126.766
 174.719 129.223 167.918 131.391 c 168.586 130.477 169.086 129.453 169.395
 128.363 c 170.234 125.441 169.715 122.293 167.977 119.797 c 177.684 108.105
 173.934 94.996 166.523 88.906 c 157.148 81.211 140.934 83.707 134.773 91.059
 c 134.59 89.031 134.129 87.035 133.41 85.133 c 132.621 82.23 129.988 78.809
 126.789 76.176 c 126.848 76.109 l 126.848 76.109 131.797 60.539 148.559
 67.418 c 150.406 68.191 152.305 68.832 154.246 69.328 c 154.254 69.336 
l 158.691 70.441 161.398 70.004 163.059 69.09 c 166.203 67.27 170.066 67.215
 173.266 68.941 c 180.832 73.164 190.898 80.379 187.738 87.594 c 185.078
 93.676 188.723 97.41 192.609 99.547 c h
192.609 99.547 m f
0.866667 0.756863 0.74902 rg
166.523 88.906 m 173.934 94.996 177.684 108.105 167.977 119.797 c 166.031
 116.941 162.828 115.199 159.375 115.109 c 154.941 114.996 149.984 113.363
 149.543 106.734 c 149.113 100.359 140.953 98.004 133.266 97.199 c 134.449
 95.383 134.98 93.215 134.773 91.059 c 140.934 83.707 157.148 81.211 166.523
 88.906 c h
166.523 88.906 m f
0.27451 0.537255 0.827451 rg
224.82 91.02 m 223.789 92.016 223.184 93.375 223.133 94.809 c 222.691 101.438
 217.734 103.074 213.301 103.176 c 206.477 103.352 206.281 112.566 210.734
 116.559 c 203.406 119.258 196.48 121.746 189.953 124.02 c 191.016 123.473
 194.836 118.094 195.391 115.934 c 197.07 109.32 198.586 102.84 192.609 
99.547 c 188.723 97.41 185.078 93.676 187.738 87.594 c 187.738 87.594 191.543
 84.969 198.422 84.293 c 202.004 83.965 205.613 84.168 209.137 84.898 c 
209.137 84.906 l 212.84 85.672 216.438 86.867 219.863 88.469 c 221.469 89.203
 223.117 90.047 224.82 91.02 c h
224.82 91.02 m f
0.905882 0.317647 0.388235 rg
273.449 103.703 m 273.449 103.719 l 254.473 103.887 235.664 107.332 217.859
 113.91 c 215.445 114.816 213.07 115.699 210.734 116.559 c 206.281 112.566
 206.477 103.352 213.301 103.176 c 217.734 103.074 222.691 101.438 223.133
 94.809 c 223.184 93.375 223.789 92.016 224.82 91.02 c 227.762 88.172 234.031
 88.012 239.91 87.977 c 241.516 87.961 243.098 87.961 244.574 87.914 c 248.207
 87.859 251.605 89.691 253.559 92.754 c 253.883 93.238 254.852 93.594 256.199
 93.945 c 260.879 95.184 270.211 96.48 273.449 103.703 c h
273.449 103.703 m f
0.737255 0.368627 0.317647 rg
150.309 136.785 m 155.754 135.203 161.621 133.406 167.918 131.391 c 174.727
 129.211 182.07 126.754 189.945 124.02 c 189.953 124.02 l 196.492 121.738
 203.422 119.254 210.734 116.559 c 213.066 115.695 215.441 114.812 217.859
 113.91 c 235.664 107.332 254.473 103.887 273.449 103.719 c 281.281 103.621
 289.113 104.074 296.879 105.074 c 302.074 105.746 307.227 106.688 312.324
 107.895 c 330.816 112.297 346.246 119.902 355.777 129.48 c 364.246 138.004
 365.277 151.414 358.207 161.129 c 339.621 186.984 305.453 181.027 305.453
 181.027 c 306.738 179.695 306.715 177.574 305.398 176.273 c 302.586 173.461
 l 311.387 172.02 315.816 160.875 317.438 155.656 c 317.848 154.32 316.848
 152.969 315.449 152.969 c 311.422 152.969 l 314.891 145.07 313.875 135.922
 308.762 128.977 c 308.168 128.164 306.984 128.074 306.277 128.789 c 303.359
 131.707 l 300.137 122.992 289.727 119.004 284.766 117.562 c 283.43 117.184
 282.102 118.188 282.098 119.578 c 282.098 127.461 l 274.688 121.941 266.191
 123.562 261.113 125.391 c 259.871 125.836 259.023 126.988 258.969 128.301
 c 240.457 131.004 219.414 136.207 197.773 143.844 c 197.762 143.848 197.746
 143.848 197.73 143.852 c 189.758 146.664 181.703 149.805 173.664 153.27
 c 138.047 168.629 108.008 172.875 84.18 172.027 c 60 171.18 42.219 165.098
 31.469 160.086 c 27.875 158.402 25.164 155.273 24.004 151.48 c 22.844 147.684
 23.344 143.574 25.379 140.168 c 25.539 139.914 25.688 139.656 25.844 139.395
 c 33.324 127.207 46.062 119.203 60.293 117.75 c 70.754 116.641 81.285 119.059
 90.219 124.621 c 95.574 127.969 101.227 130.82 107.109 133.133 c 118.051
 137.398 130.914 139.996 144.621 137.91 c 146.508 137.625 148.402 137.25
 150.309 136.785 c h
150.309 136.785 m f
0.498039 0.239216 0.196078 rg
259.926 130.801 m 264.621 135.496 l 257.34 135.434 251.859 142.379 248.789
 147.523 c 247.359 149.926 249.086 152.969 251.879 152.969 c 254.82 152.969
 l 234.594 163.215 224.566 156.375 216.797 149.91 c 207.512 142.184 198.512
 143.699 197.773 143.844 c 219.414 136.207 240.457 131.004 258.969 128.301
 c 258.914 129.234 259.266 130.145 259.926 130.801 c h
259.926 130.801 m f
0.929412 0.717647 0.25098 rg
308.762 128.977 m 313.875 135.922 314.891 145.07 311.422 152.969 c 290.07
 152.969 l 290.074 150.855 289.234 148.824 287.738 147.328 c 287.738 147.324
 l 303.359 131.707 l 306.277 128.789 l 306.984 128.074 308.168 128.164 308.762
 128.977 c h
308.762 128.977 m f
0.917647 0.87451 0.32549 rg
303.359 131.707 m 287.738 147.324 l 287.738 147.328 l 286.242 145.832 284.215
 144.988 282.098 144.988 c 282.098 119.578 l 282.102 118.188 283.43 117.184
 284.766 117.562 c 289.727 119.004 300.137 122.992 303.359 131.707 c h
303.359 131.707 m f
0.929412 0.717647 0.25098 rg
258.969 128.301 m 259.023 126.988 259.871 125.836 261.113 125.391 c 266.191
 123.562 274.688 121.941 282.098 127.461 c 282.098 144.988 l 279.98 144.988
 277.953 145.828 276.457 147.324 c 264.629 135.496 l 264.621 135.496 l 259.926
 130.801 l 259.266 130.145 258.914 129.234 258.969 128.301 c h
258.969 128.301 m f
0.917647 0.87451 0.32549 rg
276.457 147.324 m 274.957 148.816 274.113 150.852 274.117 152.969 c 251.879
 152.969 l 249.086 152.969 247.359 149.926 248.789 147.523 c 251.859 142.379
 257.34 135.434 264.621 135.496 c 264.629 135.496 l h
276.457 147.324 m f
0.929412 0.717647 0.25098 rg
262.648 172.426 m 259.207 175.859 l 257.867 177.203 255.594 176.777 254.828
 175.043 c 251.664 167.746 252.676 159.312 257.477 152.969 c 274.117 152.969
 l 274.113 155.086 274.957 157.117 276.457 158.609 c h
262.648 172.426 m f
0.917647 0.87451 0.32549 rg
282.098 182.684 m 282.098 186.188 l 282.102 186.762 281.93 187.32 281.602
 187.793 c 280.988 188.707 279.895 189.184 278.805 189.016 c 269.016 187.434
 262.836 172.883 262.648 172.426 c 276.457 158.609 l 277.953 160.105 279.98
 160.945 282.098 160.941 c h
282.098 182.684 m f
0.929412 0.717647 0.25098 rg
305.398 176.273 m 306.715 177.574 306.738 179.695 305.453 181.027 c 295.469
 191.109 282.098 182.684 282.098 182.684 c 282.098 160.941 l 284.211 160.941
 286.242 160.105 287.738 158.609 c 302.586 173.461 l h
305.398 176.273 m f
0.686275 0.72549 0.74902 rg
194.559 310.176 m 187.098 310.672 179.609 310.445 172.191 309.512 c 163.801
 308.516 155.516 306.785 147.426 304.336 c 147.426 289.902 135.727 278.207
 121.297 278.203 c 120.801 278.203 l 119.438 278.207 118.078 278.129 116.723
 277.973 c 98.578 275.91 84.832 260.629 84.699 242.371 c 84.18 172.035 l
 84.18 172.027 l 108.008 172.875 138.047 168.629 173.664 153.27 c 181.703
 149.805 189.758 146.664 197.73 143.852 c 197.746 143.848 197.762 143.848
 197.773 143.844 c 198.512 143.699 207.512 142.184 216.797 149.91 c 224.566
 156.375 234.594 163.215 254.82 152.969 c 257.477 152.969 l 252.676 159.312
 251.664 167.746 254.828 175.043 c 255.594 176.777 257.867 177.203 259.207
 175.859 c 262.648 172.426 l 262.836 172.883 269.016 187.434 278.805 189.016
 c 279.895 189.184 280.988 188.707 281.602 187.793 c 282.008 241.828 l 282.156
 260.648 267.816 276.422 249.066 278.062 c 248.031 278.16 246.977 278.203
 245.91 278.203 c 244.477 278.203 l 237.547 278.203 230.902 280.957 226.004
 285.859 c 221.102 290.758 218.352 297.406 218.355 304.336 c 210.977 307.844
 202.734 309.57 194.559 310.176 c h
194.559 310.176 m f
0.52549 0.564706 0.615686 rg
201.105 257.324 m 202.566 259.785 203.316 262.602 203.273 265.461 c 203.219
 273 198.141 279.016 191.844 279.016 c 188.711 278.957 185.77 277.512 183.809
 275.07 c 183.344 274.48 182.449 274.473 181.973 275.055 c 179.875 277.707
 176.617 279.172 173.242 278.992 c 167.617 278.594 163.004 273.211 162.547
 266.484 c 162.273 263.055 163.152 259.633 165.039 256.754 c 166.914 253.809
 172.629 249.27 177.262 245.863 c 181.09 243.062 186.336 243.254 189.953
 246.324 c 194.504 250.184 200.109 255.195 201.098 257.309 c h
201.105 257.324 m f
227.617 181.215 m 238.785 181.215 248.852 187.945 253.125 198.262 c 257.398
 208.578 255.035 220.453 247.137 228.352 c 239.242 236.246 227.367 238.609
 217.051 234.336 c 206.73 230.062 200.004 219.996 200.004 208.828 c 200 
201.504 202.91 194.48 208.09 189.301 c 213.27 184.121 220.293 181.215 227.617
 181.215 c h
227.617 181.215 m f
138.164 181.215 m 149.332 181.215 159.398 187.945 163.672 198.262 c 167.945
 208.578 165.582 220.453 157.684 228.352 c 149.789 236.246 137.914 238.609
 127.598 234.336 c 117.281 230.062 110.551 219.996 110.551 208.828 c 110.547
 201.504 113.457 194.48 118.637 189.301 c 123.816 184.121 130.84 181.215
 138.164 181.215 c h
138.164 181.215 m f
0.541176 0.580392 0.6 rg
194.691 309.512 m 194.051 309.434 193.414 309.352 192.785 309.266 c 181.621
 307.766 172.059 300.895 166.359 291.176 c 161.672 283.164 153.082 278.242
 143.797 278.25 c 143.301 278.25 l 141.938 278.246 140.578 278.16 139.223
 277.996 c 121.059 275.938 107.281 260.66 107.109 242.383 c 106.719 171.293
 l 106.598 171.309 l 106.5 171.316 l 99.023 172.047 91.508 172.281 84 172.027
 c 84 172.035 l 84.609 242.371 l 84.762 260.641 98.523 275.93 116.676 277.996
 c 118.047 278.16 119.422 278.246 120.801 278.25 c 121.297 278.25 l 128.227
 278.246 134.871 280.992 139.773 285.891 c 144.672 290.785 147.426 297.43
 147.426 304.359 c 155.516 306.801 163.801 308.527 172.191 309.52 c 179.609
 310.457 187.098 310.676 194.559 310.184 c 195.684 310.098 196.809 309.988
 197.934 309.859 c 196.836 309.75 195.75 309.637 194.691 309.512 c h
194.691 309.512 m f
0.156863 0.258824 0.407843 rg
170.277 208.828 m 170.273 195.84 162.449 184.129 150.453 179.16 c 138.453
 174.188 124.641 176.938 115.457 186.121 c 106.273 195.305 103.527 209.117
 108.496 221.117 c 113.465 233.117 125.176 240.938 138.164 240.938 c 155.891
 240.918 170.258 226.555 170.277 208.828 c h
138.164 231.938 m 128.816 231.938 120.387 226.309 116.809 217.672 c 113.23
 209.035 115.211 199.094 121.82 192.484 c 128.43 185.871 138.371 183.895
 147.008 187.473 c 155.645 191.051 161.277 199.477 161.277 208.828 c 161.262
 221.586 150.922 231.926 138.164 231.938 c h
138.164 231.938 m f
227.617 176.715 m 214.629 176.715 202.918 184.539 197.949 196.539 c 192.977
 208.539 195.723 222.352 204.91 231.535 c 214.094 240.719 227.906 243.465
 239.906 238.496 c 251.906 233.523 259.73 221.816 259.73 208.828 c 259.707
 191.102 245.344 176.734 227.617 176.715 c h
227.617 231.938 m 218.27 231.938 209.84 226.309 206.262 217.672 c 202.684
 209.035 204.664 199.094 211.273 192.484 c 217.883 185.871 227.824 183.895
 236.461 187.473 c 245.098 191.051 250.73 199.477 250.73 208.828 c 250.715
 221.586 240.375 231.922 227.617 231.938 c h
227.617 231.938 m f
192.859 242.887 m 187.664 238.457 180.102 238.188 174.602 242.238 c 164.125
 249.926 161.973 253.188 161.266 254.297 c 158.852 257.992 157.723 262.387
 158.055 266.789 c 158.668 275.75 165.062 282.926 172.93 283.48 c 176.516
 283.719 180.062 282.617 182.887 280.391 c 185.434 282.41 188.59 283.508
 191.84 283.516 c 200.695 283.516 207.695 275.602 207.773 265.496 c 207.82
 261.879 206.891 258.316 205.074 255.188 c 204.484 253.984 202.93 251.422
 192.859 242.887 c h
191.844 274.516 m 190.039 274.453 188.355 273.59 187.25 272.16 c 186.164
 270.871 184.57 270.129 182.887 270.125 c 181.207 270.125 179.613 270.871
 178.535 272.156 c 177.348 273.688 175.5 274.559 173.562 274.5 c 170.203
 274.262 167.336 270.605 167.035 266.176 c 166.832 263.746 167.441 261.316
 168.766 259.27 c 168.789 259.238 168.812 259.203 168.832 259.168 c 169.262
 258.496 171.328 255.801 179.93 249.496 c 182.07 247.918 185.02 248.027 
187.039 249.754 c 195.441 256.871 196.883 258.996 197.055 259.285 c 197.117
 259.41 197.188 259.539 197.258 259.656 c 198.289 261.402 198.812 263.402
 198.773 265.43 c 198.738 270.438 195.625 274.516 191.844 274.516 c h
191.844 274.516 m f
51.375 91.652 m 52.984 91.652 54.59 91.539 56.184 91.32 c 56.922 91.75 
57.691 92.172 58.527 92.57 c 55.055 95.711 52.797 99.969 52.145 104.602 
c 51.762 107.91 52.195 111.262 53.402 114.367 c 40.32 117.414 29.008 125.582
 22.008 137.047 c 21.84 137.32 21.676 137.598 21.512 137.871 c 18.824 142.371
 18.168 147.797 19.703 152.809 c 21.234 157.816 24.82 161.945 29.566 164.168
 c 40.539 169.289 57.391 175.004 79.707 176.387 c 80.195 242.406 l 80.395
 261.383 93.668 277.707 112.199 281.773 c 112.199 309.559 l 112.141 328.348
 119.559 346.387 132.824 359.691 c 146.086 373 164.102 380.48 182.891 380.48
 c 201.68 380.48 219.695 373 232.957 359.691 c 246.223 346.387 253.641 328.348
 253.582 309.559 c 253.582 281.98 l 272.809 278.273 286.656 261.379 286.512
 241.797 c 286.117 189.32 l 288.555 190.059 291.082 190.441 293.629 190.457
 c 298.477 190.516 303.188 188.852 306.926 185.766 c 309.363 186.023 311.816
 186.152 314.27 186.148 c 326.598 186.148 348 183.047 361.863 163.754 c 
370.223 152.254 369 136.383 358.969 126.305 c 349.867 117.156 335.898 109.77
 319.172 105.031 c 320.395 102.109 320.875 98.926 320.559 95.77 c 320.48
 95.047 320.355 94.328 320.188 93.621 c 322.855 92.465 325.348 90.945 327.59
 89.102 c 329.055 89.285 330.531 89.379 332.008 89.383 c 344.754 89.488 
356.383 82.137 361.754 70.574 c 365.434 62.777 366.43 53.98 364.586 45.555
 c 362.582 36.195 357.336 27.629 349.41 20.781 c 337.281 10.297 323.984 
6.133 309.891 8.406 c 293.957 10.977 279.512 21.441 268.168 32.613 c 252.375
 14.734 230.434 19.125 218.262 21.57 c 217.238 21.777 216.32 22 215.512 
22.199 c 211.223 23.242 209.266 23.723 198.582 16.262 c 182.305 4.891 166.98
 1.238 153.043 5.41 c 136.77 10.281 127.02 24.516 122.715 32.398 c 104.121
 17.898 86.652 9.816 70.684 8.355 c 56.258 7.035 43.328 11.211 32.266 20.773
 c 14.645 36 13.738 57.301 20.656 71.656 c 26.73 84.262 38.367 91.652 51.375
 91.652 c h
244.574 309.559 m 244.633 325.957 238.156 341.703 226.582 353.32 c 215.008
 364.938 199.285 371.465 182.887 371.465 c 166.484 371.465 150.762 364.938
 139.188 353.32 c 127.613 341.703 121.137 325.957 121.195 309.559 c 121.195
 282.711 l 121.293 282.711 l 133.23 282.723 142.906 292.398 142.918 304.336
 c 142.918 316.168 l 142.918 322.168 151.918 322.168 151.918 316.168 c 151.918
 310.273 l 157.117 311.598 162.383 312.652 167.688 313.438 c 167.688 318.227
 l 167.688 324.227 176.688 324.227 176.688 318.227 c 176.688 314.484 l 180.328
 314.793 183.855 314.961 187.254 314.961 c 188.195 314.961 189.129 314.945
 190.051 314.922 c 190.051 318.223 l 190.051 324.223 199.051 324.223 199.051
 318.223 c 199.051 314.277 l 204.086 313.695 209.043 312.594 213.852 310.992
 c 213.852 316.168 l 213.852 322.168 222.852 322.168 222.852 316.168 c 222.852
 304.332 l 222.863 292.395 232.539 282.719 244.477 282.707 c 244.574 282.707
 l h
268.336 264.367 m 262.414 270.367 254.328 273.734 245.902 273.707 c 244.477
 273.707 l 228.73 273.727 215.559 285.668 214 301.336 c 209.199 303.246 
204.176 304.539 199.051 305.18 c 199.051 303.035 l 199.051 297.035 190.051
 297.035 190.051 303.035 c 190.051 305.891 l 185.594 306.004 181.129 305.852
 176.688 305.438 c 176.688 303.035 l 176.688 297.035 167.688 297.035 167.688
 303.035 c 167.688 304.312 l 162.309 303.469 156.977 302.328 151.723 300.902
 c 149.961 285.422 136.871 273.727 121.293 273.707 c 120.797 273.707 l 103.453
 273.66 89.367 259.68 89.195 242.336 c 88.707 176.688 l 89.102 176.688 89.492
 176.695 89.891 176.695 c 113.348 176.695 142.004 171.82 175.441 157.402
 c 183.164 154.07 191.031 151.004 198.934 148.211 c 200.438 148.02 206.973
 147.594 213.91 153.367 c 218.27 156.988 225.094 162.664 236.09 162.664 
c 240.555 162.605 244.98 161.793 249.18 160.266 c 247.859 165.793 248.387
 171.602 250.68 176.805 c 251.609 178.988 253.566 180.57 255.898 181.016
 c 257.82 181.391 259.809 180.969 261.41 179.844 c 264.445 184.891 269.754
 191.594 277.137 193.254 c 277.504 241.863 l 277.594 250.289 274.293 258.398
 268.34 264.367 c h
270.469 148.465 m 253.508 148.465 l 255.613 145.23 258.996 141.098 262.953
 140.188 c 270.691 147.926 l 270.613 148.105 270.543 148.285 270.473 148.465
 c h
270.688 158.008 m 258.059 170.641 l 256.898 166.184 257.543 161.449 259.859
 157.465 c 270.473 157.465 l 270.543 157.648 270.613 157.828 270.691 158.008
 c h
244.918 145.227 m 243.625 147.406 243.422 150.062 244.371 152.414 c 232.656
 155.973 226.141 151.836 219.668 146.449 c 218.125 145.164 216.473 144.02
 214.727 143.027 c 228.293 138.859 242.125 135.613 256.129 133.301 c 252.059
 135.605 248.266 139.609 244.922 145.227 c h
277.598 183.977 m 273.555 182.137 270.047 176.949 268.09 173.336 c 277.059
 164.371 l 277.234 164.445 277.414 164.52 277.598 164.59 c h
277.598 141.344 m 277.414 141.414 277.234 141.484 277.059 141.562 c 264.516
 129.023 l 268.367 127.941 273.18 127.539 277.598 129.914 c h
282.098 156.445 m 279 156.445 277.445 152.699 279.637 150.508 c 281.828
 148.316 285.574 149.871 285.574 152.969 c 285.57 154.887 284.016 156.441
 282.098 156.441 c h
286.598 179.934 m 286.598 164.59 l 286.777 164.52 286.961 164.449 287.137
 164.371 c 301.41 178.645 l 296.195 183.074 289.844 181.32 286.598 179.93
 c h
287.137 141.562 m 286.961 141.488 286.777 141.414 286.598 141.344 c 286.598
 122.922 l 290.289 124.328 295.199 126.836 297.871 130.828 c h
306.875 134.551 m 309.043 138.859 309.547 143.812 308.281 148.469 c 293.719
 148.469 l 293.648 148.285 293.578 148.105 293.5 147.926 c h
303.863 168.367 m 293.5 158.008 l 293.574 157.828 293.648 157.648 293.719
 157.469 c 312.023 157.469 l 310.531 161.207 307.824 166.453 303.863 168.367
 c h
352.59 132.656 m 359.5 139.621 360.336 150.574 354.555 158.504 c 341.684
 176.414 320.043 177.477 310.715 177.016 c 310.578 176.375 310.359 175.754
 310.07 175.168 c 316.559 170.754 320.062 162.387 321.734 156.984 c 322.25
 155.324 322.086 153.527 321.277 151.992 c 320.469 150.453 319.082 149.301
 317.426 148.785 c 318.977 140.941 317.16 132.812 312.426 126.371 c 310.617
 123.832 307.191 123.062 304.469 124.578 c 299.402 118.02 291.145 114.73
 286.02 113.246 c 284.031 112.66 281.883 113.051 280.23 114.305 c 278.574
 115.555 277.598 117.508 277.594 119.582 c 277.594 120.227 l 272.133 118.57
 265.957 118.863 259.586 121.16 c 257.984 121.738 256.621 122.828 255.703
 124.262 c 229.258 128.398 199.617 137.18 171.879 149.141 c 102.59 179.016
 55.359 166.27 33.375 156.008 c 30.938 154.887 29.098 152.773 28.32 150.203
 c 27.512 147.609 27.848 144.797 29.25 142.473 c 29.391 142.234 29.539 141.992
 29.684 141.75 c 35.441 132.336 44.734 125.621 55.484 123.125 c 66.547 120.488
 78.207 122.402 87.844 128.441 c 96.539 133.93 106.016 138.062 115.949 140.699
 c 93.969 144.988 85.762 143.41 83.016 142.305 c 77.445 140.074 74.098 148.43
 79.668 150.66 c 82.465 151.785 86.527 152.527 92.395 152.527 c 110.992 
152.527 147.688 145.016 219.438 118.129 c 271.152 98.746 330.039 109.992
 352.59 132.656 c h
234.062 43.883 m 235.113 44.137 236.188 44.449 237.285 44.832 c 247.629
 48.426 247.965 54.887 247.754 57.09 c 245.797 59.914 244.438 62.055 243.75
 63.164 c 239.504 66.434 236.027 70.926 234.918 74.992 c 234.852 75.219 
l 233.949 77.941 233.586 80.812 233.781 83.676 c 231.641 83.812 229.52 84.156
 227.449 84.707 c 234.305 70.91 234.504 52.977 234.062 43.883 c h
282.164 76.238 m 270.086 72.516 259.816 78.496 254.512 87.074 c 251.734
 84.633 248.137 83.324 244.438 83.418 c 243.914 83.434 243.375 83.445 242.828
 83.449 c 242.609 81.562 242.824 79.652 243.457 77.859 c 243.52 77.652 243.57
 77.488 243.602 77.371 c 244.359 74.598 248.703 69.836 252.969 68.078 c 
254.484 67.453 255.574 67.406 255.977 67.641 c 263.246 71.824 270.227 70.574
 274.652 64.297 c 276.465 61.719 283.352 63.309 292.195 68.34 c 293.977 
69.414 295.07 71.332 295.09 73.41 c 295.281 78.273 298.801 83.172 305.844
 88.383 c 309.328 90.961 311.262 93.75 311.602 96.672 c 311.777 98.809 311.312
 100.949 310.27 102.82 c 307.586 102.242 304.852 101.73 302.062 101.289 
c 302.117 97.598 301.246 93.953 299.523 90.688 c 295.879 83.762 289.637 
78.566 282.164 76.238 c h
293.039 100.105 m 287.414 99.527 281.734 99.242 276.047 99.227 c 272.691
 94.398 267.273 92.215 262.742 90.941 c 265.965 86.32 271.73 82.441 279.512
 84.84 c 284.668 86.434 288.98 90.008 291.504 94.777 c 292.375 96.43 292.902
 98.242 293.043 100.105 c h
227.617 95.109 m 227.789 92.539 235.91 92.496 240.762 92.469 c 242.121 
92.461 243.449 92.453 244.703 92.414 c 246.781 92.41 248.715 93.48 249.812
 95.246 c 251.254 97.414 253.695 97.992 257.07 98.789 c 258.309 99.082 259.672
 99.41 261.039 99.82 c 245.734 101.047 230.672 104.371 216.273 109.695 c
 214.996 110.176 213.734 110.645 212.48 111.109 c 212.168 110.207 212.141
 109.23 212.406 108.312 c 212.566 107.875 212.707 107.695 213.406 107.676
 c 221.797 107.469 227.109 102.773 227.621 95.109 c h
218.203 82.891 m 216.969 82.418 215.77 82.016 214.594 81.656 c 216.848 
69.473 212.664 57.219 208.379 48.582 c 212.07 48.645 215.703 47.629 218.828
 45.664 c 220.707 44.48 222.809 43.691 225.004 43.348 c 225.469 51.676 225.555
 70.543 218.207 82.891 c h
218.84 92.961 m 218.742 93.473 218.672 93.992 218.637 94.508 c 218.527 
96.121 218.367 98.551 213.184 98.68 c 209.035 98.672 205.336 101.285 203.957
 105.199 c 202.945 108.125 202.965 111.309 204.012 114.223 c 202.695 114.703
 201.387 115.176 200.098 115.641 c 201.695 109.168 203.281 100.297 194.773
 95.609 c 191.422 93.762 191.078 92.062 191.387 90.703 c 194.574 89.184 
204.211 85.93 218.844 92.961 c h
205.777 79.852 m 204.461 79.719 203.195 79.652 201.992 79.645 c 196.133
 56.07 179.977 39.016 170.398 30.629 c 181.625 29.383 188.562 36.559 193.629
 41.805 c 194.172 42.363 l 195.621 44.332 208.809 62.875 205.781 79.852 
c h
192.965 80.684 m 192.699 80.75 192.438 80.816 192.184 80.887 c 190.676 
76.504 186.379 71.387 176.93 65.859 c 172.125 53.773 158.613 46.125 151.703
 42.887 c 153.434 39.031 156.363 35.832 160.051 33.766 c 166.527 38.805 
186.316 55.863 192.969 80.684 c h
155.52 55.258 m 159.129 57.516 162.379 60.309 165.148 63.543 c 163.656 
63.871 162.215 64.414 160.875 65.156 c 160.707 65.246 159.59 65.766 156.723
 65.258 c 155.371 63.641 152.75 60.586 149.098 56.684 c 149.051 55.031 149.121
 53.379 149.309 51.734 c 151.441 52.793 153.516 53.969 155.523 55.254 c 
h
165.23 73.031 m 167.016 71.973 169.227 71.914 171.066 72.879 c 179.953 
77.836 184.875 82.902 183.613 85.789 c 180.535 92.828 183.082 99.445 190.43
 103.496 c 192.852 104.832 192.977 107.16 191.035 114.789 c 190.129 116.68
 188.984 118.449 187.629 120.055 c 182.977 121.672 178.52 123.184 174.258
 124.594 c 174.152 123.102 173.82 121.633 173.27 120.242 c 177.012 115.043
 178.758 108.672 178.199 102.293 c 177.602 95.727 174.43 89.664 169.379 
85.43 c 160.395 78.051 146.676 78.375 137.539 83.273 c 136.402 80.215 134.617
 77.441 132.305 75.141 c 133.348 73.359 134.883 71.918 136.723 70.98 c 139.41
 69.727 142.82 69.934 146.855 71.582 c 154.961 74.91 160.973 75.383 165.234
 73.027 c h
167.195 112.934 m 164.883 111.477 162.215 110.676 159.48 110.613 c 154.297
 110.484 154.137 108.051 154.027 106.441 c 153.707 101.637 150.633 96.027
 139.207 93.578 c 139.23 93.348 139.258 93.113 139.273 92.887 c 144.73 88.066
 156.91 86.848 163.66 92.391 c 166.848 95.117 168.848 98.977 169.234 103.152
 c 169.531 106.539 168.824 109.941 167.199 112.926 c h
145.051 107.035 m 145.562 114.699 150.871 119.398 159.262 119.605 c 161.199
 119.648 163.008 120.598 164.148 122.168 c 165.215 123.582 165.559 125.414
 165.07 127.117 c 165.02 127.301 164.941 127.465 164.875 127.633 c 159.203
 129.434 153.902 131.047 148.977 132.473 c 148.484 132.594 148 132.699 147.508
 132.809 c 143.242 123.105 135.133 117.844 124.734 118.246 c 116.77 118.559
 108.969 122.402 105.07 127.41 c 101.465 125.812 97.961 124.008 94.57 121.996
 c 94.562 119.676 95.277 117.414 96.613 115.52 c 98.418 113.164 101.535 
111.773 105.879 111.383 c 114.609 110.598 120.164 108.242 122.855 104.191
 c 123.957 102.43 125.887 101.363 127.965 101.363 c 138.137 101.664 144.844
 103.891 145.051 107.035 c h
138.043 134.051 m 130.012 134.398 121.984 133.328 114.324 130.883 c 117.496
 128.676 121.227 127.41 125.086 127.238 c 129.266 127.078 134.512 128.277
 138.047 134.051 c h
89.477 110.035 m 87.828 112.207 86.68 114.711 86.102 117.371 c 85.289 117.012
 84.477 116.676 83.652 116.359 c 82.551 109.355 86.719 99.301 94.844 95.051
 c 98.922 92.918 106.133 92.965 111.621 95.152 c 113.34 95.789 114.906 96.77
 116.234 98.031 c 115.934 98.406 115.637 98.797 115.367 99.207 c 115.203
 99.457 113.508 101.656 105.078 102.418 c 98.121 103.043 92.875 105.605 
89.477 110.035 c h
130.273 92.453 m 129.613 92.414 128.938 92.387 128.238 92.363 c 126.719
 92.32 125.199 92.52 123.738 92.949 c 121.387 90.184 118.363 88.062 114.957
 86.797 c 107.027 83.629 97.039 83.746 90.668 87.078 c 80.98 92.145 74.543
 103.406 74.449 113.793 c 70.559 113.09 66.594 112.84 62.641 113.051 c 61.387
 110.809 60.844 108.238 61.086 105.68 c 61.492 102.656 63.426 99.848 66.828
 97.328 c 73.879 92.117 77.395 87.219 77.586 82.359 c 77.605 80.281 78.699
 78.359 80.477 77.285 c 89.32 72.254 96.207 70.664 98.023 73.242 c 102.449
 79.52 109.422 80.77 116.699 76.586 c 117.102 76.352 118.191 76.398 119.707
 77.023 c 123.969 78.781 128.316 83.547 129.074 86.316 c 129.121 86.492 
129.211 86.766 129.332 87.125 c 129.984 88.824 130.305 90.633 130.27 92.453
 c h
311.34 17.285 m 322.84 15.438 333.363 18.805 343.523 27.586 c 353.699 36.379
 360.773 51.875 353.648 66.664 c 350.477 73.246 343.883 79.582 334.121 80.332
 c 336.191 75.395 336.664 69.477 335.547 62.574 c 335.145 60.125 332.832
 58.465 330.383 58.863 c 327.934 59.266 326.273 61.578 326.672 64.027 c 
328.52 75.047 325.199 81.727 316.027 85.605 c 314.598 83.938 312.98 82.441
 311.203 81.148 c 304.398 76.113 304.098 73.355 304.086 73.055 c 303.957
 67.867 301.145 63.121 296.652 60.516 c 278.75 50.332 270.809 54.133 267.301
 59.113 c 266.371 60.434 264.965 62.426 260.477 59.84 c 259.602 59.34 258.652
 58.977 257.668 58.762 c 267.797 44.938 288.344 20.992 311.34 17.285 c h
155.625 14.031 m 166.801 10.688 179.52 13.922 193.434 23.637 c 206.121 
32.504 210.555 32.672 217.648 30.941 c 218.406 30.754 219.191 30.566 220.035
 30.395 c 231.891 28.016 249.457 24.496 261.922 39.152 c 259.262 42.102 
256.844 45.004 254.691 47.727 c 252.426 43.355 248.062 39.047 240.246 36.328
 c 230.191 32.832 221.367 33.414 214.023 38.059 c 209.762 40.645 204.273
 39.914 200.836 36.305 c 200.109 35.555 l 194.449 29.695 184.977 19.891 
169.285 21.695 c 159.727 22.797 152.305 26.617 147.223 33.051 c 143.848 
37.477 141.621 42.668 140.742 48.164 c 137.762 45.27 134.457 42.211 130.883
 39.117 c 130.531 38.812 130.18 38.516 129.832 38.219 c 132.922 32.152 141.359
 18.301 155.625 14.031 c h
38.148 27.586 m 47.418 19.574 57.789 16.211 69.852 17.316 c 97.66 19.855
 126.328 45.898 140.918 61.164 c 138.156 61.094 135.418 61.664 132.91 62.828
 c 129.742 64.352 127.047 66.711 125.121 69.652 c 124.461 69.305 123.801
 68.977 123.133 68.703 c 117.938 66.562 114.324 67.566 112.203 68.785 c 
107.711 71.375 106.309 69.379 105.379 68.062 c 101.871 63.078 93.93 59.277
 76.027 69.465 c 71.535 72.066 68.723 76.816 68.594 82.004 c 68.582 82.207
 68.438 83.555 66.195 85.984 c 53.109 81.621 52.566 74.625 54.852 64.227
 c 55.371 61.852 53.914 59.496 51.562 58.898 c 51.543 58.898 l 49.094 58.273
 46.609 59.801 46.059 62.27 c 44.711 68.453 43.871 75.852 47.23 82.348 c
 38.242 80.848 31.969 74.402 28.766 67.754 c 23.336 56.488 24.133 39.699
 38.148 27.586 c h
38.148 27.586 m f
Q Q
showpage
%%Trailer
end
%%EOF
