%!PS-Adobe-3.0 EPSF-3.0
%%Creator: cairo 1.16.0 (https://cairographics.org)
%%CreationDate: Tue Feb  2 14:48:20 2021
%%Pages: 1
%%DocumentData: Clean7Bit
%%LanguageLevel: 2
%%BoundingBox: 11 3 373 381
%%EndComments
%%BeginProlog
50 dict begin
/q { gsave } bind def
/Q { grestore } bind def
/cm { 6 array astore concat } bind def
/w { setlinewidth } bind def
/J { setlinecap } bind def
/j { setlinejoin } bind def
/M { setmiterlimit } bind def
/d { setdash } bind def
/m { moveto } bind def
/l { lineto } bind def
/c { curveto } bind def
/h { closepath } bind def
/re { exch dup neg 3 1 roll 5 3 roll moveto 0 rlineto
      0 exch rlineto 0 rlineto closepath } bind def
/S { stroke } bind def
/f { fill } bind def
/f* { eofill } bind def
/n { newpath } bind def
/W { clip } bind def
/W* { eoclip } bind def
/BT { } bind def
/ET { } bind def
/BDC { mark 3 1 roll /BDC pdfmark } bind def
/EMC { mark /EMC pdfmark } bind def
/cairo_store_point { /cairo_point_y exch def /cairo_point_x exch def } def
/Tj { show currentpoint cairo_store_point } bind def
/TJ {
  {
    dup
    type /stringtype eq
    { show } { -0.001 mul 0 cairo_font_matrix dtransform rmoveto } ifelse
  } forall
  currentpoint cairo_store_point
} bind def
/cairo_selectfont { cairo_font_matrix aload pop pop pop 0 0 6 array astore
    cairo_font exch selectfont cairo_point_x cairo_point_y moveto } bind def
/Tf { pop /cairo_font exch def /cairo_font_matrix where
      { pop cairo_selectfont } if } bind def
/Td { matrix translate cairo_font_matrix matrix concatmatrix dup
      /cairo_font_matrix exch def dup 4 get exch 5 get cairo_store_point
      /cairo_font where { pop cairo_selectfont } if } bind def
/Tm { 2 copy 8 2 roll 6 array astore /cairo_font_matrix exch def
      cairo_store_point /cairo_font where { pop cairo_selectfont } if } bind def
/g { setgray } bind def
/rg { setrgbcolor } bind def
/d1 { setcachedevice } bind def
/cairo_data_source {
  CairoDataIndex CairoData length lt
    { CairoData CairoDataIndex get /CairoDataIndex CairoDataIndex 1 add def }
    { () } ifelse
} def
/cairo_flush_ascii85_file { cairo_ascii85_file status { cairo_ascii85_file flushfile } if } def
/cairo_image { image cairo_flush_ascii85_file } def
/cairo_imagemask { imagemask cairo_flush_ascii85_file } def
%%EndProlog
%%BeginSetup
%%EndSetup
%%Page: 1 1
%%BeginPageSetup
%%PageBoundingBox: 11 3 373 381
%%EndPageSetup
q 11 3 362 378 rectclip
1 0 0 -1 0 384 cm q
0.905882 0.317647 0.388235 rg
325.402 224.676 m 321.75 233.234 311.879 242.684 303.113 248.094 c 274.824
 265.547 254.887 278.422 217.809 297.953 c 170.781 322.719 125.07 332.789
 87.668 337.352 c 87.156 336.75 l 113.477 314.586 141.816 285.367 165.434
 246.414 c 171.234 236.852 176.234 228.324 180.734 220.387 c 202.852 201.203
 215.176 186.711 233.121 166.559 c 241.98 156.613 255.324 149.828 262.312
 149.461 c 262.32 149.453 l 268.262 157.688 277.23 166.012 289.262 166.176
 c 289.965 166.184 290.23 167.098 289.641 167.484 c 284.609 170.707 273.48
 181.703 274.883 198.504 c 274.961 199.453 275.738 200.195 276.691 200.227
 c 281.414 200.363 295.516 199.809 307.566 189.629 c 308.273 189.031 309.34
 189.641 309.18 190.551 c 306.734 205.109 317.137 217.426 325.402 224.676
 c h
325.402 224.676 m f
0.298039 0.662745 0.529412 rg
365.641 109.68 m 367.527 111.969 368.094 115.074 367.125 117.879 c 361.906
 133.035 354.75 143.242 348.781 149.73 c 343.469 155.574 342.199 164.043
 345.562 171.188 c 351.148 183.344 352.164 201.219 334.141 223.875 c 333.109
 225.172 331.594 225.992 329.941 226.145 c 328.293 226.293 326.652 225.766
 325.402 224.676 c 317.137 217.426 306.734 205.109 309.18 190.551 c 309.34
 189.641 308.273 189.031 307.566 189.629 c 295.516 199.809 281.414 200.363
 276.691 200.227 c 275.738 200.195 274.961 199.453 274.883 198.504 c 273.48
 181.703 284.609 170.707 289.641 167.484 c 290.23 167.098 289.965 166.184
 289.262 166.176 c 277.23 166.012 268.262 157.688 262.32 149.453 c 260.902
 147.504 259.664 145.551 258.594 143.723 c 257.766 142.309 257.555 140.617
 258.008 139.043 c 258.465 137.469 259.547 136.152 261 135.398 c 276.188
 127.262 301.824 127.629 315.367 134.766 c 321.449 138.047 328.895 137.449
 334.371 133.238 c 339.871 128.934 346.238 122.113 351.406 111.457 c 352.828
 108.48 355.836 106.59 359.137 106.598 c 361.66 106.59 364.047 107.723 365.641
 109.68 c h
365.641 109.68 m f
0.921569 0.447059 0.533333 rg
159.969 97.508 m 157.305 102.871 153.414 118.035 163.254 131.707 c 163.805
 132.488 164.859 132.727 165.691 132.254 c 169.809 129.938 181.613 122.184
 186.711 107.242 c 187.012 106.367 188.238 106.34 188.574 107.203 c 193.957
 120.945 209.203 126.129 220.012 128.086 c 221.273 137.301 217.672 150.504
 212.941 159.66 c 201.727 181.328 193.109 198.578 180.734 220.387 c 176.234
 228.324 171.234 236.852 165.434 246.414 c 141.816 285.367 113.477 314.586
 87.156 336.75 c 69.039 352.02 51.879 363.938 37.875 373.387 c 32.441 377.051
 25.18 376.379 20.512 371.781 c 15.848 367.18 15.066 359.93 18.652 354.441
 c 47.566 310.109 71.203 262.555 89.086 212.738 c 101.969 176.828 105.234
 156.523 111.039 125.871 c 113.52 112.777 121.469 100.078 127.273 96.148
 c 136.598 100.141 148.566 102.645 158.969 96.578 c 159.578 96.223 160.277
 96.875 159.969 97.508 c h
159.969 97.508 m f
0.372549 0.803922 0.643137 rg
209.812 71.836 m 220.844 79.379 230.902 94.184 227.086 122.926 c 226.867
 124.562 225.988 126.043 224.652 127.016 c 223.316 127.992 221.641 128.379
 220.012 128.086 c 209.203 126.129 193.957 120.945 188.574 107.203 c 188.238
 106.34 187.012 106.367 186.711 107.242 c 181.613 122.184 169.809 129.938
 165.691 132.254 c 164.859 132.727 163.805 132.488 163.254 131.707 c 153.414
 118.035 157.305 102.871 159.969 97.508 c 160.277 96.875 159.578 96.223 
158.969 96.578 c 148.566 102.645 136.598 100.141 127.273 96.148 c 125.055
 95.203 122.984 94.172 121.117 93.148 c 119.688 92.367 118.641 91.031 118.223
 89.453 c 117.805 87.879 118.051 86.199 118.906 84.809 c 127.801 69.855 
150.316 56.82 165.613 56.168 c 172.406 55.801 178.336 51.441 180.711 45.066
 c 183.227 38.52 185.176 29.348 184.109 17.488 c 183.727 13.012 186.895 
9.012 191.34 8.355 c 195.781 7.699 199.969 10.617 200.895 15.016 c 204.203
 30.699 203.316 43.141 201.531 51.781 c 199.988 59.523 203.254 67.438 209.812
 71.836 c h
209.812 71.836 m f
0.74902 0.384314 0.462745 rg
158.969 96.578 m 148.566 102.645 136.598 100.141 127.273 96.148 c 121.469
 100.078 113.52 112.777 111.039 125.871 c 105.234 156.523 101.969 176.828
 89.086 212.738 c 71.203 262.555 47.566 310.109 18.652 354.441 c 15.75 358.867
 15.648 364.566 18.383 369.098 c 21.117 373.625 26.211 376.188 31.477 375.68
 c 31.684 373.453 32.43 371.312 33.652 369.441 c 62.566 325.109 86.203 277.555
 104.086 227.738 c 116.969 191.828 120.234 171.523 126.039 140.871 c 126.727
 137.324 127.754 133.848 129.102 130.496 c 133.414 119.852 144.367 113.457
 155.754 114.945 c 156.188 114.996 156.621 115.043 157.059 115.082 c 156.496
 109.07 157.496 103.016 159.969 97.508 c 160.277 96.875 159.578 96.223 158.969
 96.578 c h
158.969 96.578 m f
0.313726 0.627451 0.498039 rg
180.613 71.168 m 187.406 70.801 193.336 66.441 195.711 60.066 c 198.227
 53.52 200.176 44.348 199.109 32.488 c 198.836 29.555 200.121 26.688 202.5
 24.945 c 202.145 21.793 201.625 18.488 200.895 15.016 c 199.973 10.613 
195.785 7.688 191.336 8.344 c 186.887 9 183.719 13.008 184.109 17.488 c 
185.172 29.348 183.223 38.52 180.711 45.066 c 178.336 51.441 172.406 55.801
 165.613 56.168 c 150.312 56.82 127.797 69.855 118.902 84.809 c 118.051 
86.199 117.801 87.879 118.223 89.453 c 118.641 91.031 119.684 92.367 121.117
 93.148 c 122.984 94.172 125.055 95.203 127.273 96.148 c 129.648 97.176 
132.09 98.035 134.582 98.723 c 143.898 84.23 165.688 71.805 180.613 71.168
 c h
180.613 71.168 m f
0.156863 0.258824 0.407843 rg
357.578 102.195 m 353.148 102.719 349.293 105.473 347.355 109.496 c 343.27
 117.914 337.969 124.707 331.602 129.691 c 327.516 132.805 321.984 133.23
 317.465 130.785 c 302.055 122.656 274.68 122.961 258.879 131.43 c 256.324
 132.777 254.438 135.113 253.656 137.891 c 252.883 140.621 253.262 143.551
 254.707 145.996 c 254.805 146.164 254.902 146.324 255 146.488 c 247.082
 149.18 237.18 155.242 229.766 163.566 c 228.051 165.492 226.383 167.367
 224.758 169.199 c 215.512 179.617 207.441 188.699 198.082 198.086 c 202.523
 189.715 206.719 181.566 211.125 173 c 213 169.348 214.926 165.609 216.934
 161.727 c 221.098 153.68 224.789 141.973 224.762 132.008 c 225.664 131.676
 226.52 131.223 227.297 130.656 c 229.625 128.953 231.16 126.375 231.547
 123.516 c 235.801 91.48 223.457 75.707 212.348 68.113 c 207.289 64.738 
204.762 58.652 205.941 52.688 c 208.402 40.762 208.188 27.77 205.297 14.082
 c 204.348 9.648 201.168 6.023 196.898 4.5 c 192.73 3.027 188.102 3.773 
184.605 6.48 c 181.113 9.188 179.238 13.488 179.625 17.891 c 180.469 27.266
 179.422 35.867 176.508 43.457 c 174.781 48.16 170.426 51.387 165.422 51.672
 c 147.906 52.422 124.359 66.828 115.035 82.512 c 113.551 84.973 113.137
 87.934 113.898 90.707 c 114.637 93.438 116.465 95.746 118.953 97.094 c 
119.129 97.191 119.301 97.281 119.48 97.375 c 114.074 103.762 108.695 114.07
 106.617 125.031 c 106.137 127.574 105.672 130.047 105.219 132.457 c 100.184
 159.258 96.547 178.621 84.852 211.215 c 67.082 260.703 43.602 307.949 14.883
 351.992 c 10.117 359.27 11.145 368.898 17.344 375.008 c 23.543 381.113 
33.188 381.996 40.395 377.121 c 52.137 369.195 69.199 357.676 88.184 341.824
 c 88.215 341.824 l 137.238 335.84 180.312 322.797 219.902 301.941 c 252.242
 284.906 271.914 272.715 294.691 258.602 c 298.18 256.441 301.754 254.227
 305.473 251.93 c 313.176 247.18 322.355 239.055 327.457 230.496 c 328.094
 230.617 328.738 230.676 329.387 230.676 c 329.695 230.676 330.008 230.664
 330.316 230.637 c 333.203 230.375 335.859 228.945 337.668 226.68 c 357.75
 201.426 355.273 181.547 349.66 169.32 c 347.055 163.82 348.016 157.297 
352.094 152.785 c 360.332 143.828 366.824 132.582 371.387 119.352 c 372.848
 115.066 371.988 110.328 369.113 106.824 c 366.312 103.41 361.961 101.664
 357.578 102.195 c h
122.773 87.109 m 130.492 74.129 151.406 61.273 165.809 60.664 c 174.395
 60.23 181.902 54.734 184.914 46.68 c 188.32 37.797 189.559 27.84 188.586
 17.082 c 188.461 15.738 189.035 14.422 190.105 13.602 c 191.18 12.758 192.613
 12.523 193.902 12.984 c 195.219 13.457 196.199 14.574 196.492 15.941 c 
199.77 31.473 198.645 43.508 197.125 50.871 c 195.207 60.391 199.211 70.129
 207.27 75.547 c 220.387 84.512 225.555 100.254 222.621 122.332 c 222.504
 123.207 221.684 123.812 220.816 123.656 c 220.727 123.641 l 210.445 121.766
 197.285 117.109 192.766 105.566 c 191.93 103.418 189.84 102.023 187.535
 102.074 c 185.23 102.121 183.203 103.605 182.457 105.785 c 178.547 117.246
 170.098 124.078 165.566 127.059 c 157.293 113.391 163.926 99.652 164 99.508
 c 166.312 94.871 161.168 90.066 156.703 92.695 c 147.992 97.773 137.672
 95.711 129.145 92.062 c 129.055 92.023 128.961 91.98 128.871 91.949 c 126.895
 91.09 125.016 90.152 123.281 89.203 c 122.938 89.023 122.684 88.711 122.582
 88.34 c 122.473 87.918 122.543 87.477 122.773 87.109 c h
35.355 369.656 m 31.699 372.121 26.816 371.664 23.676 368.57 c 20.535 365.477
 20.012 360.598 22.422 356.906 c 51.523 312.277 75.316 264.402 93.32 214.258
 c 105.262 180.988 108.953 161.328 114.066 134.117 c 114.516 131.711 114.98
 129.242 115.461 126.711 c 117.562 115.621 123.656 105.621 128.051 101.34
 c 138.512 105.34 146.867 105.344 153.266 103.723 c 151.605 112.059 151.965
 123.727 159.598 134.34 c 161.492 136.98 165.07 137.773 167.898 136.18 c
 176.406 131.324 183.383 124.172 188.023 115.547 c 192.613 121.961 200.891
 128.453 215.762 131.812 c 215.836 139.941 212.605 150.508 208.938 157.594
 c 206.926 161.484 205 165.227 203.121 168.883 c 190.922 192.582 180.391
 213.059 161.582 244.078 c 120.145 312.434 62.879 351.082 35.355 369.656
 c h
300.75 244.266 m 297.027 246.562 293.445 248.781 289.949 250.945 c 267.316
 264.969 247.77 277.082 215.707 293.973 c 180.766 312.379 142.992 324.551
 100.609 331.031 c 123.684 310.203 148.402 283.18 169.281 248.742 c 174.926
 239.43 179.828 231.066 184.258 223.281 c 204.137 205.977 216.227 192.363
 231.488 175.172 c 233.109 173.344 234.773 171.469 236.484 169.547 c 243.984
 161.129 254.34 155.703 260.305 154.301 c 267.223 163.133 274.387 167.445
 280.703 169.352 c 274.992 175.641 269.305 185.832 270.395 198.875 c 270.66
 202.109 273.312 204.629 276.559 204.723 c 286.344 204.945 296 202.414 304.418
 197.418 c 305.055 205.285 308.809 215.121 319.84 225.684 c 315.73 232.691
 307.531 240.082 300.75 244.266 c h
362.875 116.414 m 357.699 131.418 350.555 141.156 345.469 146.684 c 338.93
 153.863 337.352 164.273 341.477 173.066 c 348.113 187.52 344.461 203.668
 330.621 221.07 c 330.348 221.414 329.949 221.629 329.516 221.664 c 329.102
 221.707 328.688 221.574 328.375 221.297 c 328.355 221.281 l 328.309 221.242
 l 320.453 214.328 311.562 203.539 313.621 191.301 c 314.016 189.027 312.945
 186.75 310.941 185.605 c 308.934 184.461 306.43 184.695 304.672 186.191
 c 295.426 193.996 284.672 195.496 279.262 195.711 c 279.188 179.719 291.938
 171.363 292.074 171.273 c 296.426 168.48 294.496 161.742 289.328 161.676
 c 279.246 161.539 271.457 154.434 266.02 146.906 c 265.965 146.832 265.91
 146.754 265.852 146.68 c 264.602 144.93 263.477 143.164 262.477 141.457
 c 262.27 141.121 262.211 140.711 262.32 140.332 c 262.445 139.91 262.738
 139.559 263.133 139.359 c 277.691 131.555 301.609 132.598 313.27 138.746
 c 320.922 142.844 330.27 142.07 337.148 136.777 c 344.605 130.941 350.766
 123.086 355.453 113.422 c 356.047 112.156 357.258 111.285 358.648 111.129
 c 359.988 110.957 361.324 111.492 362.176 112.543 c 363.059 113.625 363.324
 115.09 362.871 116.414 c h
362.875 116.414 m f
194.738 279.406 m 183.84 285.164 172.512 290.078 160.859 294.098 c 158.488
 294.891 157.219 297.461 158.031 299.824 c 158.84 302.188 161.418 303.438
 163.777 302.609 c 175.871 298.441 187.625 293.344 198.934 287.367 c 201.133
 286.211 201.977 283.488 200.82 281.289 c 199.66 279.09 196.938 278.246 
194.738 279.406 c h
194.738 279.406 m f
216.273 266.598 m 214.105 268.055 211.828 269.527 209.496 270.969 c 207.352
 272.266 206.68 275.062 207.996 277.191 c 209.316 279.32 212.121 279.965
 214.234 278.621 c 216.664 277.121 219.039 275.582 221.297 274.062 c 223.383
 272.684 223.941 269.871 222.547 267.797 c 221.152 265.727 218.336 265.184
 216.273 266.598 c h
216.273 266.598 m f
143.82 247.074 m 146.93 241.945 139.234 237.277 136.125 242.41 c 127.277
 257.117 116.832 270.801 104.98 283.215 c 100.82 287.539 107.309 293.781
 111.469 289.457 c 123.777 276.562 134.629 262.348 143.82 247.074 c h
143.82 247.074 m f
146.379 233.625 m 148.59 234.762 151.301 233.895 152.441 231.684 c 153.477
 229.676 154.48 227.648 155.43 225.66 c 158.02 220.246 149.898 216.367 147.309
 221.781 c 146.398 223.688 145.434 225.633 144.438 227.562 c 143.301 229.773
 144.168 232.488 146.379 233.625 c h
146.379 233.625 m f
Q Q
showpage
%%Trailer
end
%%EOF
