%!PS-Adobe-3.0 EPSF-3.0
%%Creator: cairo 1.16.0 (https://cairographics.org)
%%CreationDate: Tue Feb  2 14:48:24 2021
%%Pages: 1
%%DocumentData: Clean7Bit
%%LanguageLevel: 2
%%BoundingBox: 48 3 336 381
%%EndComments
%%BeginProlog
50 dict begin
/q { gsave } bind def
/Q { grestore } bind def
/cm { 6 array astore concat } bind def
/w { setlinewidth } bind def
/J { setlinecap } bind def
/j { setlinejoin } bind def
/M { setmiterlimit } bind def
/d { setdash } bind def
/m { moveto } bind def
/l { lineto } bind def
/c { curveto } bind def
/h { closepath } bind def
/re { exch dup neg 3 1 roll 5 3 roll moveto 0 rlineto
      0 exch rlineto 0 rlineto closepath } bind def
/S { stroke } bind def
/f { fill } bind def
/f* { eofill } bind def
/n { newpath } bind def
/W { clip } bind def
/W* { eoclip } bind def
/BT { } bind def
/ET { } bind def
/BDC { mark 3 1 roll /BDC pdfmark } bind def
/EMC { mark /EMC pdfmark } bind def
/cairo_store_point { /cairo_point_y exch def /cairo_point_x exch def } def
/Tj { show currentpoint cairo_store_point } bind def
/TJ {
  {
    dup
    type /stringtype eq
    { show } { -0.001 mul 0 cairo_font_matrix dtransform rmoveto } ifelse
  } forall
  currentpoint cairo_store_point
} bind def
/cairo_selectfont { cairo_font_matrix aload pop pop pop 0 0 6 array astore
    cairo_font exch selectfont cairo_point_x cairo_point_y moveto } bind def
/Tf { pop /cairo_font exch def /cairo_font_matrix where
      { pop cairo_selectfont } if } bind def
/Td { matrix translate cairo_font_matrix matrix concatmatrix dup
      /cairo_font_matrix exch def dup 4 get exch 5 get cairo_store_point
      /cairo_font where { pop cairo_selectfont } if } bind def
/Tm { 2 copy 8 2 roll 6 array astore /cairo_font_matrix exch def
      cairo_store_point /cairo_font where { pop cairo_selectfont } if } bind def
/g { setgray } bind def
/rg { setrgbcolor } bind def
/d1 { setcachedevice } bind def
/cairo_data_source {
  CairoDataIndex CairoData length lt
    { CairoData CairoDataIndex get /CairoDataIndex CairoDataIndex 1 add def }
    { () } ifelse
} def
/cairo_flush_ascii85_file { cairo_ascii85_file status { cairo_ascii85_file flushfile } if } def
/cairo_image { image cairo_flush_ascii85_file } def
/cairo_imagemask { imagemask cairo_flush_ascii85_file } def
%%EndProlog
%%BeginSetup
%%EndSetup
%%Page: 1 1
%%BeginPageSetup
%%PageBoundingBox: 48 3 336 381
%%EndPageSetup
q 48 3 288 378 rectclip
1 0 0 -1 0 384 cm q
0.498039 0.239216 0.196078 rg
151.566 342.367 m 152.781 350.723 150.316 359.191 144.812 365.59 c 139.309
 371.992 131.301 375.695 122.859 375.746 c 114.418 375.797 106.371 372.191
 100.789 365.859 c 95.207 359.527 92.641 351.09 93.75 342.719 c 102.031 
217.547 l 142.539 217.547 l h
151.566 342.367 m f
261.324 8.25 m 269.723 8.273 277.711 11.91 283.246 18.23 c 288.781 24.551
 291.332 32.949 290.25 41.281 c 281.969 166.453 l 241.461 166.453 l 232.434
 41.633 l 231.254 33.254 233.758 24.777 239.293 18.379 c 244.832 11.98 252.863
 8.289 261.324 8.25 c h
261.324 8.25 m f
0.372549 0.658824 0.929412 rg
88.469 21.262 m 88.469 47.828 l 67.605 47.828 l 73.262 37.035 80.355 27.977
 88.469 21.254 c h
88.469 21.262 m f
0.27451 0.537255 0.827451 rg
105.27 11.363 m 105.27 47.828 l 88.469 47.828 l 88.469 21.254 l 93.477 
17.039 99.156 13.695 105.27 11.363 c h
105.27 11.363 m f
0.372549 0.658824 0.929412 rg
122.07 8.25 m 122.07 47.828 l 105.27 47.828 l 105.27 11.363 l 110.641 9.336
 116.328 8.281 122.07 8.25 c h
122.07 8.25 m f
0.27451 0.537255 0.827451 rg
138.871 11.203 m 138.871 47.828 l 122.07 47.828 l 122.07 8.25 l 122.281
 8.25 l 127.941 8.258 133.555 9.258 138.871 11.203 c h
138.871 11.203 m f
0.372549 0.658824 0.929412 rg
155.664 20.902 m 155.664 47.828 l 138.871 47.828 l 138.871 11.203 l 144.973
 13.473 150.648 16.75 155.664 20.902 c h
155.664 20.902 m f
0.27451 0.537255 0.827451 rg
176.961 47.828 m 155.664 47.828 l 155.664 20.902 l 163.957 27.652 171.211
 36.848 176.961 47.828 c h
176.961 47.828 m f
0.372549 0.803922 0.643137 rg
191.387 110.078 m 191.387 110.789 191.379 111.504 191.363 112.215 c 172.641
 112.215 l 153.57 62.953 l 183.547 62.953 l 188.816 78.102 191.469 94.039
 191.387 110.078 c h
191.387 110.078 m f
91.637 62.953 m 72.008 112.215 l 53.203 112.215 l 53.191 111.504 53.184
 110.789 53.184 110.078 c 53.098 94.039 55.75 78.102 61.02 62.953 c h
91.637 62.953 m f
0.298039 0.662745 0.529412 rg
99.953 62.953 m 115.613 112.215 l 72.008 112.215 l 91.637 62.953 l h
99.953 62.953 m f
0.372549 0.803922 0.643137 rg
144.719 62.953 m 129.703 112.215 l 115.613 112.215 l 99.953 62.953 l h
144.719 62.953 m f
0.298039 0.662745 0.529412 rg
153.57 62.953 m 172.641 112.215 l 129.703 112.215 l 144.719 62.953 l h
153.57 62.953 m f
0.27451 0.537255 0.827451 rg
64.844 166.461 m 179.828 166.461 l 177.488 171.66 174.73 176.66 171.586
 181.41 c 72.984 181.41 l 69.84 176.672 67.09 171.688 64.762 166.5 c h
64.844 166.461 m f
0.952941 0.807843 0.490196 rg
72.984 181.41 m 171.586 181.41 l 165.523 190.508 158.316 197.934 150.301
 203.176 c 94.266 203.176 l 86.258 197.934 79.043 190.508 72.984 181.41 
c h
72.984 181.41 m f
0.737255 0.368627 0.317647 rg
150.301 203.176 m 142.539 217.547 l 102.031 217.547 l 94.266 203.176 l 
h
150.301 203.176 m f
281.969 166.453 m 289.734 180.824 l 233.699 180.824 l 241.461 166.453 l
 h
281.969 166.453 m f
0.952941 0.807843 0.490196 rg
289.734 180.824 m 297.742 186.066 304.957 193.492 311.016 202.59 c 212.414
 202.59 l 218.477 193.492 225.684 186.066 233.699 180.824 c h
289.734 180.824 m f
0.27451 0.537255 0.827451 rg
319.238 217.5 m 319.156 217.539 l 204.172 217.539 l 206.512 212.34 209.27
 207.34 212.414 202.59 c 311.016 202.59 l 314.16 207.328 316.91 212.312 
319.238 217.5 c h
319.238 217.5 m f
0.372549 0.803922 0.643137 rg
211.359 271.785 m 230.43 321.047 l 200.453 321.047 l 195.184 305.898 192.531
 289.961 192.613 273.922 c 192.613 273.211 192.621 272.496 192.637 271.785
 c h
211.359 271.785 m f
0.298039 0.662745 0.529412 rg
254.297 271.785 m 239.281 321.047 l 230.43 321.047 l 211.359 271.785 l 
h
254.297 271.785 m f
0.372549 0.803922 0.643137 rg
268.387 271.785 m 284.047 321.047 l 239.281 321.047 l 254.297 271.785 l
 h
268.387 271.785 m f
0.298039 0.662745 0.529412 rg
311.992 271.785 m 292.363 321.047 l 284.047 321.047 l 268.387 271.785 l
 h
311.992 271.785 m f
0.372549 0.803922 0.643137 rg
330.797 271.785 m 330.809 272.496 330.816 273.211 330.816 273.922 c 330.902
 289.961 328.25 305.898 322.98 321.047 c 292.363 321.047 l 311.992 271.785
 l h
330.797 271.785 m f
0.27451 0.537255 0.827451 rg
295.531 336.172 m 316.395 336.172 l 310.738 346.965 303.645 356.023 295.531
 362.746 c h
295.531 336.172 m f
0.372549 0.658824 0.929412 rg
295.531 362.738 m 295.531 362.746 l 290.523 366.961 284.844 370.305 278.73
 372.637 c 278.73 336.172 l 295.531 336.172 l h
295.531 362.738 m f
228.336 336.172 m 228.336 363.098 l 220.043 356.348 212.789 347.152 207.039
 336.172 c h
228.336 336.172 m f
0.27451 0.537255 0.827451 rg
245.129 336.172 m 245.129 372.797 l 239.027 370.527 233.352 367.25 228.336
 363.098 c 228.336 336.172 l h
245.129 336.172 m f
0.372549 0.658824 0.929412 rg
261.93 336.172 m 261.93 375.75 l 261.719 375.75 l 256.059 375.742 250.445
 374.742 245.129 372.797 c 245.129 336.172 l h
261.93 336.172 m f
0.27451 0.537255 0.827451 rg
278.73 336.172 m 278.73 372.637 l 273.359 374.664 267.672 375.719 261.93
 375.75 c 261.93 336.172 l h
278.73 336.172 m f
0.952941 0.807843 0.490196 rg
176.969 48 m 67.598 48 l 65.023 52.824 62.824 57.84 61.02 63 c 183.547 
63 l 181.746 57.84 179.547 52.824 176.969 48 c h
176.969 48 m f
53.203 112.5 m 53.273 117 53.602 122.25 54.172 127.5 c 190.395 127.5 l 
190.965 122.25 191.297 117 191.363 112.5 c h
53.203 112.5 m f
329.828 256.5 m 193.605 256.5 l 193.035 261.75 192.703 267 192.637 271.5
 c 330.797 271.5 l 330.727 267 330.398 261.75 329.828 256.5 c h
329.828 256.5 m f
207.031 336 m 316.402 336 l 318.977 331.176 321.176 326.16 322.98 321 c
 200.453 321 l 202.254 326.16 204.453 331.176 207.031 336 c h
207.031 336 m f
0.921569 0.447059 0.533333 rg
64.844 166.461 m 64.762 166.5 l 59.234 154.07 55.664 140.863 54.172 127.344
 c 190.395 127.344 l 188.902 140.848 185.34 154.043 179.828 166.461 c h
64.844 166.461 m f
319.238 217.5 m 324.766 229.93 328.336 243.137 329.828 256.656 c 193.605
 256.656 l 195.098 243.152 198.66 229.957 204.172 217.539 c 319.156 217.539
 l h
319.238 217.5 m f
0.870588 0.235294 0.266667 rg
163.117 146.648 m 163.102 142.738 158.371 140.797 155.613 143.57 c 152.855
 146.34 154.82 151.062 158.73 151.059 c 161.16 151.051 163.125 149.078 163.117
 146.648 c h
127.379 146.648 m 127.367 142.734 122.633 140.789 119.871 143.559 c 117.109
 146.332 119.074 151.059 122.984 151.059 c 125.418 151.055 127.387 149.078
 127.379 146.648 c h
91.637 146.648 m 91.617 142.738 86.887 140.797 84.129 143.57 c 81.375 146.34
 83.34 151.062 87.246 151.059 c 89.676 151.051 91.641 149.078 91.637 146.648
 c h
91.637 146.648 m f
301.148 237.352 m 301.125 233.449 296.398 231.512 293.645 234.281 c 290.891
 237.051 292.848 241.766 296.754 241.77 c 299.188 241.766 301.156 239.789
 301.148 237.352 c h
265.41 237.352 m 265.391 233.441 260.656 231.504 257.898 234.273 c 255.141
 237.047 257.105 241.77 261.016 241.77 c 263.449 241.766 265.418 239.785
 265.41 237.352 c h
229.664 237.352 m 229.641 233.449 224.914 231.512 222.16 234.281 c 219.406
 237.051 221.363 241.766 225.27 241.77 c 227.703 241.766 229.676 239.789
 229.664 237.352 c h
229.664 237.352 m f
0.388235 0.192157 0.164706 rg
116.25 342.699 m 124.531 217.5 l 102.031 217.5 l 93.75 342.699 l 92.668
 351.031 95.219 359.426 100.754 365.75 c 106.289 372.074 114.273 375.711
 122.676 375.738 c 126.543 375.742 130.371 374.973 133.934 373.473 c 121.801
 368.344 114.57 355.762 116.25 342.699 c h
116.25 342.699 m f
254.648 37.516 m 254.664 25.734 261.719 15.105 272.566 10.512 c 269.008
 9.016 265.184 8.246 261.324 8.25 c 245.191 8.293 232.141 21.387 232.148
 37.516 c 232.145 38.898 232.242 40.285 232.434 41.656 c 241.461 166.5 l
 263.961 166.5 l 254.934 41.656 l 254.742 40.285 254.645 38.898 254.648 
37.516 c h
254.648 37.516 m f
0.737255 0.368627 0.317647 rg
147.328 283.824 m 149.078 307.941 l 126.137 322.344 96.051 307.941 96.051
 307.941 c 97.719 282.797 l 98.281 283.109 124.637 298.078 147.328 283.824
 c h
147.328 283.824 m f
287.949 76.059 m 286.281 101.203 l 285.719 100.891 259.363 85.922 236.672
 100.176 c 234.922 76.059 l 257.863 61.656 287.949 76.059 287.949 76.059
 c h
287.949 76.059 m f
0.6 0.309804 0.278431 rg
119.758 289.66 m 112.047 288.766 104.574 286.438 97.719 282.797 c 96.051
 307.941 l 103.074 311.039 110.527 313.062 118.152 313.941 c h
119.758 289.66 m f
256.961 69.691 m 249.66 69.938 241.957 71.641 234.922 76.059 c 236.672 
100.176 l 243.285 96.066 250.934 93.938 258.719 94.035 c h
256.961 69.691 m f
0.156863 0.258824 0.407843 rg
293.16 177.703 m 286.547 165.453 l 294.734 41.703 l 295.949 32.078 292.953
 22.398 286.516 15.141 c 280.078 7.883 270.824 3.754 261.121 3.809 c 251.422
 3.867 242.215 8.102 235.863 15.438 c 229.512 22.77 226.629 32.484 227.953
 42.094 c 236.879 165.469 l 230.27 177.703 l 204.629 195.141 188.117 232.738
 188.117 273.93 c 188.117 302.02 195.578 328.488 209.133 348.461 c 223.051
 368.957 241.727 380.25 261.715 380.25 c 281.707 380.25 300.387 368.957 
314.301 348.449 c 327.852 328.48 335.316 302.012 335.316 273.918 c 335.316
 232.734 318.805 195.137 293.16 177.703 c h
242.762 21.215 m 247.41 15.859 254.148 12.77 261.242 12.75 c 268.336 12.73
 275.094 15.773 279.773 21.102 c 284.5 26.473 286.688 33.617 285.785 40.715
 c 285.773 40.801 285.766 40.891 285.758 40.98 c 283.867 69.609 l 279.613
 68.133 275.246 67 270.809 66.227 c 258.98 64.176 248.105 65.129 238.922
 68.957 c 236.926 41.305 l 236.918 41.203 236.906 41.105 236.895 41.008 
c 235.895 33.871 238.035 26.652 242.766 21.215 c h
244.145 170.953 m 279.281 170.953 l 282.184 176.324 l 241.246 176.324 l
 h
241.359 102.676 m 257.359 94.258 275.207 100.938 281.598 103.887 c 277.758
 161.953 l 245.648 161.953 l h
240.664 93.043 m 239.613 78.559 l 255.973 69.973 276.016 76.199 283.246
 78.973 c 282.23 94.328 l 273.484 90.777 256.945 86.18 240.664 93.043 c 
h
235.094 185.324 m 288.34 185.324 l 293.496 188.922 298.133 193.215 302.105
 198.09 c 221.324 198.09 l 225.301 193.215 229.934 188.922 235.094 185.324
 c h
197.137 276.289 m 208.273 276.289 l 223.863 316.543 l 203.648 316.543 l
 199.496 303.52 197.301 289.953 197.137 276.289 c h
277.895 316.543 m 245.359 316.543 l 257.625 276.289 l 265.094 276.289 l
 h
274.543 276.289 m 305.355 276.289 l 289.312 316.543 l 287.34 316.543 l 
h
235.949 316.543 m 233.512 316.543 l 217.926 276.289 l 248.219 276.289 l
 h
223.836 352.707 m 220.449 348.977 217.406 344.949 214.746 340.668 c 223.836
 340.668 l h
240.633 365.922 m 237.902 364.488 235.293 362.832 232.836 360.965 c 232.836
 340.668 l 240.633 340.668 l h
257.434 371.031 m 254.793 370.77 252.184 370.266 249.633 369.535 c 249.633
 340.668 l 257.434 340.668 l h
274.234 369.41 m 271.688 370.168 269.078 370.699 266.434 370.988 c 266.434
 340.668 l 274.234 340.668 l h
291.035 360.641 m 288.578 362.539 285.969 364.227 283.234 365.691 c 283.234
 340.668 l 291.035 340.668 l h
300.035 352.234 m 300.035 340.672 l 308.684 340.672 l 306.137 344.766 303.242
 348.637 300.027 352.234 c h
313.684 331.672 m 209.75 331.672 l 208.773 329.684 207.852 327.641 206.977
 325.543 c 316.457 325.543 l 315.582 327.641 314.656 329.684 313.684 331.672
 c h
319.785 316.543 m 299 316.543 l 315.043 276.289 l 326.293 276.289 l 326.129
 289.953 323.938 303.52 319.781 316.543 c h
326.16 267.289 m 197.273 267.289 l 197.367 265.23 197.504 263.188 197.688
 261.16 c 325.746 261.16 l 325.926 263.188 326.062 265.23 326.16 267.289
 c h
324.672 252.16 m 198.762 252.16 l 200.309 241.816 203.113 231.699 207.121
 222.035 c 316.312 222.035 l 320.32 231.699 323.125 241.816 324.668 252.16
 c h
312.043 213.035 m 211.391 213.035 l 212.484 210.988 213.629 209 214.832
 207.086 c 308.598 207.086 l 309.805 209 310.949 210.988 312.039 213.035
 c h
312.043 213.035 m f
296.754 246.27 m 300.363 246.281 303.621 244.113 305.008 240.781 c 306.395
 237.453 305.641 233.613 303.09 231.059 c 300.543 228.504 296.707 227.738
 293.371 229.117 c 290.035 230.496 287.863 233.746 287.863 237.355 c 287.863
 242.27 291.84 246.258 296.754 246.27 c h
296.754 246.27 m f
261.016 246.27 m 264.621 246.281 267.883 244.113 269.27 240.781 c 270.656
 237.453 269.898 233.613 267.352 231.059 c 264.801 228.504 260.965 227.738
 257.629 229.117 c 254.297 230.496 252.121 233.746 252.121 237.355 c 252.121
 242.27 256.098 246.258 261.016 246.27 c h
261.016 246.27 m f
225.273 246.27 m 228.883 246.281 232.141 244.113 233.527 240.785 c 234.914
 237.453 234.156 233.613 231.609 231.059 c 229.062 228.504 225.227 227.738
 221.891 229.117 c 218.555 230.496 216.379 233.746 216.383 237.355 c 216.383
 242.27 220.359 246.258 225.273 246.27 c h
225.273 246.27 m f
195.883 110.078 m 195.883 81.988 188.418 55.52 174.867 35.547 c 160.949
 15.043 142.273 3.75 122.285 3.75 c 102.293 3.75 83.613 15.043 69.699 35.551
 c 56.148 55.52 48.684 81.988 48.684 110.078 c 48.684 151.266 65.195 188.863
 90.84 206.301 c 97.453 218.547 l 89.266 342.297 l 88.051 351.926 91.047
 361.605 97.484 368.863 c 103.922 376.125 113.176 380.254 122.879 380.195
 c 132.582 380.141 141.785 375.902 148.141 368.57 c 154.492 361.234 157.371
 351.52 156.047 341.91 c 147.121 218.539 l 153.73 206.305 l 179.371 188.863
 195.883 151.266 195.883 110.078 c h
186.863 107.711 m 175.727 107.711 l 160.137 67.457 l 180.352 67.457 l 184.504
 80.48 186.699 94.047 186.863 107.711 c h
106.105 67.457 m 138.641 67.457 l 126.375 107.711 l 118.906 107.711 l h
109.457 107.711 m 78.645 107.711 l 94.688 67.457 l 96.66 67.457 l h
148.051 67.457 m 150.488 67.457 l 166.074 107.711 l 135.781 107.711 l h
160.164 31.293 m 163.551 35.023 166.594 39.051 169.254 43.332 c 160.164
 43.332 l h
143.367 18.074 m 146.102 19.508 148.707 21.168 151.168 23.035 c 151.168
 43.332 l 143.367 43.332 l h
126.566 12.965 m 129.207 13.23 131.816 13.73 134.367 14.461 c 134.367 43.332
 l 126.566 43.332 l h
109.766 14.586 m 112.312 13.828 114.926 13.297 117.566 13.008 c 117.566
 43.332 l 109.766 43.332 l h
92.965 23.355 m 95.422 21.461 98.031 19.77 100.766 18.305 c 100.766 43.332
 l 92.965 43.332 l h
83.965 31.762 m 83.965 43.328 l 75.316 43.328 l 77.863 39.234 80.762 35.363
 83.973 31.766 c h
70.316 52.328 m 174.25 52.328 l 175.223 54.312 176.148 56.355 177.023 58.453
 c 67.543 58.453 l 68.418 56.359 69.344 54.316 70.316 52.332 c h
64.219 67.457 m 85 67.457 l 68.957 107.711 l 57.707 107.711 l 57.871 94.047
 60.062 80.48 64.219 67.457 c h
57.844 116.711 m 186.727 116.711 l 186.633 118.77 186.496 120.812 186.312
 122.84 c 58.254 122.84 l 58.074 120.812 57.938 118.77 57.84 116.711 c h
59.332 131.84 m 185.238 131.84 l 183.691 142.184 180.887 152.301 176.879
 161.965 c 67.688 161.965 l 63.68 152.301 60.875 142.184 59.332 131.84 c
 h
75.402 176.914 m 74.199 175 73.055 173.016 71.961 170.965 c 172.609 170.965
 l 171.516 173.012 170.371 175 169.168 176.914 c h
141.238 362.785 m 136.586 368.145 129.852 371.23 122.758 371.25 c 115.664
 371.273 108.906 368.227 104.223 362.898 c 99.5 357.527 97.309 350.387 98.211
 343.289 c 98.223 343.199 98.234 343.109 98.238 343.02 c 100.133 314.395
 l 104.391 315.871 108.754 317 113.191 317.777 c 117.105 318.469 121.07 
318.82 125.043 318.836 c 131.906 318.91 138.715 317.625 145.078 315.047 
c 147.078 342.699 l 147.086 342.797 147.098 342.895 147.109 342.992 c 148.105
 350.129 145.965 357.348 141.234 362.785 c h
139.852 213.047 m 104.715 213.047 l 101.812 207.676 l 142.754 207.676 l
 h
142.641 281.324 m 126.641 289.738 108.793 283.062 102.402 280.109 c 106.242
 222.047 l 138.352 222.047 l h
125.258 294.508 m 131.461 294.551 137.609 293.344 143.336 290.961 c 144.387
 305.441 l 128.023 314.023 107.98 307.801 100.754 305.023 c 101.766 289.672
 l 109.223 292.754 117.191 294.395 125.258 294.508 c h
95.66 198.676 m 90.504 195.078 85.867 190.785 81.895 185.91 c 162.676 185.91
 l 158.699 190.785 154.066 195.078 148.906 198.676 c h
95.66 198.676 m f
87.246 137.73 m 83.637 137.719 80.379 139.887 78.992 143.219 c 77.605 146.547
 78.359 150.387 80.91 152.941 c 83.457 155.496 87.293 156.262 90.629 154.883
 c 93.965 153.504 96.137 150.254 96.137 146.645 c 96.137 141.73 92.16 137.742
 87.246 137.73 c h
87.246 137.73 m f
122.984 137.73 m 119.379 137.719 116.117 139.887 114.73 143.219 c 113.344
 146.547 114.102 150.387 116.648 152.941 c 119.199 155.496 123.035 156.262
 126.371 154.883 c 129.703 153.504 131.879 150.254 131.879 146.645 c 131.879
 141.73 127.902 137.742 122.984 137.73 c h
122.984 137.73 m f
158.727 137.73 m 155.117 137.719 151.859 139.887 150.473 143.215 c 149.086
 146.547 149.844 150.387 152.391 152.941 c 154.938 155.496 158.773 156.262
 162.109 154.883 c 165.445 153.504 167.621 150.254 167.617 146.645 c 167.617
 141.73 163.641 137.742 158.727 137.73 c h
158.727 137.73 m f
Q Q
showpage
%%Trailer
end
%%EOF
