%!PS-Adobe-3.0 EPSF-3.0
%%Creator: cairo 1.16.0 (https://cairographics.org)
%%CreationDate: Tue Feb  2 14:48:24 2021
%%Pages: 1
%%DocumentData: Clean7Bit
%%LanguageLevel: 2
%%BoundingBox: 49 3 335 381
%%EndComments
%%BeginProlog
50 dict begin
/q { gsave } bind def
/Q { grestore } bind def
/cm { 6 array astore concat } bind def
/w { setlinewidth } bind def
/J { setlinecap } bind def
/j { setlinejoin } bind def
/M { setmiterlimit } bind def
/d { setdash } bind def
/m { moveto } bind def
/l { lineto } bind def
/c { curveto } bind def
/h { closepath } bind def
/re { exch dup neg 3 1 roll 5 3 roll moveto 0 rlineto
      0 exch rlineto 0 rlineto closepath } bind def
/S { stroke } bind def
/f { fill } bind def
/f* { eofill } bind def
/n { newpath } bind def
/W { clip } bind def
/W* { eoclip } bind def
/BT { } bind def
/ET { } bind def
/BDC { mark 3 1 roll /BDC pdfmark } bind def
/EMC { mark /EMC pdfmark } bind def
/cairo_store_point { /cairo_point_y exch def /cairo_point_x exch def } def
/Tj { show currentpoint cairo_store_point } bind def
/TJ {
  {
    dup
    type /stringtype eq
    { show } { -0.001 mul 0 cairo_font_matrix dtransform rmoveto } ifelse
  } forall
  currentpoint cairo_store_point
} bind def
/cairo_selectfont { cairo_font_matrix aload pop pop pop 0 0 6 array astore
    cairo_font exch selectfont cairo_point_x cairo_point_y moveto } bind def
/Tf { pop /cairo_font exch def /cairo_font_matrix where
      { pop cairo_selectfont } if } bind def
/Td { matrix translate cairo_font_matrix matrix concatmatrix dup
      /cairo_font_matrix exch def dup 4 get exch 5 get cairo_store_point
      /cairo_font where { pop cairo_selectfont } if } bind def
/Tm { 2 copy 8 2 roll 6 array astore /cairo_font_matrix exch def
      cairo_store_point /cairo_font where { pop cairo_selectfont } if } bind def
/g { setgray } bind def
/rg { setrgbcolor } bind def
/d1 { setcachedevice } bind def
/cairo_data_source {
  CairoDataIndex CairoData length lt
    { CairoData CairoDataIndex get /CairoDataIndex CairoDataIndex 1 add def }
    { () } ifelse
} def
/cairo_flush_ascii85_file { cairo_ascii85_file status { cairo_ascii85_file flushfile } if } def
/cairo_image { image cairo_flush_ascii85_file } def
/cairo_imagemask { imagemask cairo_flush_ascii85_file } def
%%EndProlog
%%BeginSetup
%%EndSetup
%%Page: 1 1
%%BeginPageSetup
%%PageBoundingBox: 49 3 335 381
%%EndPageSetup
q 49 3 286 378 rectclip
1 0 0 -1 0 384 cm q
1 0.847059 0.717647 rg
279.93 231.879 m 103.777 231.879 l 104.047 287.953 l 104.051 298.547 105.965
 309.055 109.703 318.969 c 122.852 341.844 l 130.988 352.066 141.238 360.418
 152.895 366.324 c 165.055 372.5 178.496 375.73 192.137 375.75 c 219.699
 375.75 244.934 361.547 261.082 341.707 c 274.598 318.887 l 278.418 308.723
 280.324 297.941 280.223 287.086 c h
279.93 231.879 m f
0.858824 0.717647 0.611765 rg
175.395 366.324 m 163.738 360.418 153.488 352.066 145.352 341.844 c 132.203
 318.969 l 128.465 309.031 126.551 298.504 126.547 287.891 c 126.277 231.75
 l 103.777 231.75 l 104.047 287.891 l 104.051 298.496 105.965 309.012 109.703
 318.938 c 122.852 341.828 l 130.988 352.055 141.234 360.406 152.895 366.312
 c 165.055 372.496 178.496 375.727 192.137 375.75 c 195.84 375.746 199.543
 375.488 203.215 374.98 c 193.523 373.668 184.121 370.742 175.395 366.324
 c h
175.395 366.324 m f
0.882353 0.717647 0.639216 rg
329.812 179.871 m 329.812 194.332 l 329.816 198.371 329.168 202.387 327.891
 206.219 c 56.109 206.219 l 54.828 202.387 54.18 198.371 54.188 194.332 
c 54.188 179.871 l 54.184 177.535 56.082 175.641 58.418 175.641 c 325.582
 175.641 l 327.918 175.641 329.816 177.535 329.812 179.871 c h
329.812 179.871 m f
0.937255 0.772549 0.592157 rg
296.234 264.977 m 296.285 269.266 294.617 273.395 291.602 276.449 c 288.59
 279.504 284.48 281.227 280.191 281.234 c 280.02 248.715 l 284.328 248.719
 288.457 250.434 291.5 253.484 c 294.539 256.531 296.246 260.668 296.234
 264.977 c h
296.234 264.977 m f
103.859 248.715 m 104.016 281.297 l 95.039 281.297 87.406 273.953 87.406
 264.977 c 87.496 255.957 94.84 248.699 103.859 248.715 c h
103.859 248.715 m f
0.298039 0.662745 0.529412 rg
271.027 143.953 m 274.598 175.641 l 108.156 175.641 l 112.621 143.918 l
 113.301 144.016 l 270.48 144.016 l h
271.027 143.953 m f
0.686275 0.470588 0.419608 rg
269.684 132.051 m 271.027 143.953 l 270.48 144.016 l 113.301 144.016 l 
112.621 143.918 l 114.293 132.023 l 114.863 132.105 l 269.227 132.105 l 
h
269.684 132.051 m f
0.952941 0.807843 0.490196 rg
266.949 107.805 m 269.684 132.051 l 269.227 132.105 l 114.863 132.105 l
 114.293 132.023 l 118.078 105.121 l 118.41 105.164 l 118.41 105.164 129.023
 119.258 145.148 112.094 c 161.273 104.934 165.703 105.164 176.766 111.301
 c 186.371 115.367 197.234 115.262 206.762 111.008 c 219.523 105.328 227.902
 106.988 234.398 110.852 c 240.488 114.48 246.914 115.883 253.785 114.129
 c 258.453 112.898 262.836 110.758 266.676 107.836 c h
266.949 107.805 m f
0.921569 0.447059 0.533333 rg
264.719 88.027 m 266.949 107.805 l 266.676 107.836 l 262.836 110.758 258.453
 112.898 253.785 114.129 c 246.914 115.883 240.488 114.48 234.398 110.852
 c 227.902 106.988 219.523 105.328 206.762 111.008 c 197.234 115.262 186.371
 115.367 176.766 111.301 c 165.703 105.164 161.273 104.926 145.148 112.094
 c 129.023 119.266 118.41 105.164 118.41 105.164 c 118.078 105.121 l 120.488
 88.02 l 120.66 88.043 l 264.594 88.043 l h
264.719 88.027 m f
0.686275 0.470588 0.419608 rg
263.379 76.125 m 264.719 88.027 l 264.594 88.043 l 120.66 88.043 l 120.488
 88.02 l 122.16 76.125 l 122.227 76.133 l 263.34 76.133 l h
263.379 76.125 m f
0.298039 0.662745 0.529412 rg
262.836 71.348 m 263.379 76.125 l 263.34 76.133 l 122.227 76.133 l 122.16
 76.125 l 123.09 69.531 l 123.812 64.035 125.176 58.645 127.156 53.469 c
 131.387 54.898 139.102 55.98 145.148 53.297 c 161.273 46.125 165.703 46.363
 176.766 52.5 c 186.371 56.566 197.234 56.461 206.762 52.207 c 219.523 46.531
 227.902 48.188 234.398 52.051 c 240.488 55.68 246.914 57.082 253.785 55.328
 c 255 55.012 257.273 54.328 258.684 53.781 c 260.816 59.434 262.211 65.34
 262.836 71.348 c h
262.836 71.348 m f
0.882353 0.717647 0.639216 rg
258.684 53.781 m 257.273 54.328 255 55.012 253.785 55.328 c 246.914 57.082
 240.488 55.68 234.398 52.051 c 227.902 48.188 219.523 46.531 206.762 52.207
 c 197.234 56.461 186.371 56.566 176.766 52.5 c 165.703 46.363 161.273 46.125
 145.148 53.297 c 139.102 55.98 131.387 54.898 127.156 53.469 c 137.605 
26.191 163.82 8.211 193.027 8.281 c 222.234 8.352 248.363 26.457 258.684
 53.781 c h
258.684 53.781 m f
0.780392 0.603922 0.513726 rg
329.812 179.871 m 329.812 194.332 l 329.816 198.371 329.168 202.387 327.891
 206.219 c 311.258 206.219 l 319.246 175.641 l 325.582 175.641 l 327.918
 175.641 329.816 177.535 329.812 179.871 c h
329.812 179.871 m f
294.594 175.641 m 305.812 206.219 l 280.426 206.219 l 291.547 175.641 l
 h
294.594 175.641 m f
267.488 175.641 m 278.496 206.219 l 253.328 206.219 l 264.148 175.641 l
 h
267.488 175.641 m f
240.473 175.641 m 251.297 206.219 l 226.117 206.219 l 236.949 175.641 l
 h
240.473 175.641 m f
212.992 175.641 m 224.086 206.219 l 198.914 206.219 l 209.746 175.641 l
 h
212.992 175.641 m f
186.059 175.641 m 196.883 206.219 l 171.703 206.219 l 182.535 175.641 l
 h
186.059 175.641 m f
158.852 175.641 m 169.68 206.219 l 144.504 206.219 l 155.324 175.641 l 
h
158.852 175.641 m f
131.145 175.641 m 142.469 206.219 l 117.301 206.219 l 128.129 175.641 l
 h
131.145 175.641 m f
104.332 175.641 m 115.387 206.219 l 89.969 206.219 l 100.793 175.641 l 
h
104.332 175.641 m f
77.16 175.641 m 88.141 206.219 l 62.805 206.219 l 73.637 175.641 l h
77.16 175.641 m f
0.686275 0.470588 0.419608 rg
56.109 206.25 m 56.184 206.25 56.266 206.645 56.348 206.875 c 61.664 221.812
 75.816 231.777 91.672 231.75 c 292.328 231.75 l 308.453 231.844 322.809
 221.551 327.891 206.25 c h
56.109 206.25 m f
0.427451 0.454902 0.52549 rg
241.461 264.703 m 241.457 261.266 239.383 258.172 236.207 256.859 c 233.027
 255.547 229.375 256.277 226.945 258.711 c 224.516 261.145 223.793 264.801
 225.109 267.977 c 226.426 271.148 229.527 273.219 232.965 273.219 c 235.223
 273.215 237.383 272.316 238.977 270.723 c 240.57 269.125 241.465 266.961
 241.461 264.703 c h
241.461 264.703 m f
156.637 264.703 m 156.633 261.27 154.559 258.172 151.383 256.859 c 148.207
 255.547 144.551 256.277 142.121 258.707 c 139.691 261.141 138.969 264.793
 140.281 267.969 c 141.598 271.145 144.695 273.215 148.133 273.219 c 152.832
 273.215 156.641 269.402 156.637 264.703 c h
156.637 264.703 m f
0.937255 0.772549 0.592157 rg
193.98 324.051 m 200.211 324.426 207.734 327.426 215.422 330.93 c 215.422
 330.938 l 213.137 342.121 203.551 349.289 191.699 349.289 c 186.266 349.344
 180.961 347.613 176.602 344.363 c 172.371 341.152 169.371 336.586 168.113
 331.426 c 176.527 327.832 185.055 324.66 192.531 324.074 c 193.016 324.035
 193.496 324.027 193.98 324.051 c h
193.98 324.051 m f
0.427451 0.454902 0.52549 rg
122.852 341.844 m 109.184 338.234 97.523 328.484 92.43 323.707 c 91.5 322.836
 92.172 321.281 93.441 321.359 c 97.477 321.57 102.246 321.148 109.703 318.969
 c 115.523 317.266 122.969 314.488 132.988 310.078 c 150.539 302.355 177.105
 308.859 188.664 313.598 c 191.93 314.922 195.594 314.855 198.809 313.41
 c 209.52 308.617 232.777 303.234 250.41 310.078 c 261.645 314.438 269.145
 317.191 274.598 318.887 c 282.164 321.238 285.797 321.57 289.973 321.359
 c 291.238 321.289 291.902 322.84 290.977 323.707 c 285.961 328.418 274.539
 337.988 261.09 341.699 c 261.09 341.703 261.086 341.707 261.082 341.707
 c 254.953 343.535 248.449 343.715 242.227 342.234 c 234.406 340.246 224.789
 335.211 215.422 330.938 c 215.422 330.93 l 207.734 327.426 200.211 324.426
 193.98 324.051 c 193.496 324.027 193.016 324.035 192.531 324.074 c 185.055
 324.66 176.527 327.832 168.113 331.426 c 158.379 335.578 148.801 340.289
 141.172 342.234 c 135.133 343.676 128.824 343.543 122.852 341.844 c h
122.852 341.844 m f
0.156863 0.258824 0.407843 rg
148.137 277.719 m 153.402 277.727 158.152 274.559 160.172 269.695 c 162.188
 264.832 161.078 259.23 157.359 255.508 c 153.637 251.781 148.039 250.664
 143.172 252.68 c 138.309 254.691 135.133 259.438 135.133 264.703 c 135.137
 271.887 140.953 277.707 148.137 277.719 c h
148.137 260.691 m 151.715 260.676 153.523 265.004 150.992 267.539 c 148.465
 270.078 144.133 268.285 144.133 264.703 c 144.133 262.492 145.922 260.695
 148.137 260.691 c h
148.137 260.691 m f
232.961 277.719 m 238.227 277.727 242.977 274.559 244.996 269.695 c 247.016
 264.832 245.906 259.23 242.184 255.508 c 238.465 251.781 232.863 250.664
 228 252.68 c 223.133 254.691 219.961 259.438 219.961 264.703 c 219.965 
271.887 225.781 277.707 232.961 277.719 c h
232.961 260.691 m 236.543 260.676 238.348 265.004 235.82 267.539 c 233.293
 270.078 228.961 268.285 228.961 264.703 c 228.961 262.492 230.75 260.695
 232.961 260.691 c h
232.961 260.691 m f
267.312 70.875 m 263.391 33.109 231.816 4.258 193.852 3.758 c 155.883 3.254
 123.555 31.254 118.637 68.906 c 103.832 171 l 49.688 171 l 49.688 194.332
 l 49.676 205.477 54.09 216.172 61.965 224.055 c 69.84 231.941 80.527 236.375
 91.672 236.379 c 99.301 236.379 l 99.34 244.703 l 89.723 246.746 82.863
 255.258 82.91 265.09 c 82.961 274.918 89.902 283.363 99.539 285.312 c 99.551
 287.973 l 99.566 297.426 101.02 306.82 103.855 315.836 c 100.527 316.66
 97.098 317.004 93.676 316.859 c 91.215 316.73 88.938 318.148 87.973 320.414
 c 87.008 322.68 87.562 325.305 89.355 326.988 c 94.906 332.195 106.449 
341.719 120.266 345.797 c 138.008 367.402 164.727 380.25 192.137 380.25 
c 218.844 380.25 245.469 367.34 263.652 345.648 c 277.242 341.492 288.574
 332.133 294.055 326.988 c 295.848 325.305 296.398 322.68 295.434 320.418
 c 294.469 318.156 292.195 316.738 289.742 316.863 c 286.594 317.055 283.441
 316.719 280.406 315.871 c 283.344 306.551 284.805 296.828 284.723 287.059
 c 284.715 285.219 l 294.141 283 300.785 274.562 300.734 264.879 c 300.684
 255.195 293.949 246.828 284.5 244.711 c 284.453 236.379 l 292.328 236.379
 l 303.473 236.379 314.16 231.945 322.035 224.059 c 329.91 216.172 334.328
 205.48 334.312 194.336 c 334.312 171 l 278.949 171 l h
291.734 264.977 m 291.805 269.699 289.012 273.996 284.664 275.844 c 284.547
 254.133 l 288.902 255.977 291.734 260.246 291.734 264.977 c h
192.855 12.75 m 218.543 12.711 241.895 27.641 252.641 50.973 c 247.328 
52.324 242.113 51.41 236.695 48.184 c 227.5 42.711 217.113 42.68 204.934
 48.094 c 196.664 51.82 187.219 51.969 178.836 48.5 c 166.242 41.539 160.234
 41.664 143.32 49.18 c 140.461 50.449 136.789 50.648 133.465 50.262 c 144.426
 27.398 167.504 12.824 192.855 12.75 c h
127.551 70.117 m 128.059 66.293 128.898 62.52 130.066 58.844 c 135.184 
59.789 141.574 59.805 146.977 57.402 c 162.066 50.695 164.98 51.109 174.586
 56.438 c 174.645 56.469 174.707 56.5 174.77 56.531 c 185.574 61.203 197.848
 61.125 208.59 56.316 c 220.855 50.863 227.594 53.242 232.09 55.918 c 236.844
 58.887 242.32 60.496 247.926 60.578 c 250.277 60.574 252.625 60.273 254.902
 59.684 c 255.168 59.617 255.496 59.527 255.852 59.43 c 257.059 63.41 257.891
 67.492 258.336 71.629 c 127.34 71.629 l h
126.074 80.629 m 259.355 80.629 l 259.684 83.539 l 125.664 83.539 l h
124.398 92.539 m 260.699 92.539 l 262.164 105.539 l 259.246 107.438 256.043
 108.863 252.676 109.766 c 247.352 111.125 242.125 110.215 236.699 106.984
 c 227.504 101.508 217.117 101.48 204.938 106.891 c 196.668 110.621 187.223
 110.77 178.84 107.301 c 166.246 100.336 160.234 100.465 143.324 107.98 
c 132.91 112.609 125.352 106.078 122.867 103.441 c h
121.387 113.941 m 127.512 118.043 136.566 120.832 146.977 116.203 c 162.066
 109.496 164.984 109.906 174.586 115.234 c 174.648 115.27 174.711 115.301
 174.773 115.332 c 185.578 120.004 197.848 119.926 208.594 115.117 c 220.859
 109.664 227.594 112.039 232.094 114.719 c 236.848 117.688 242.32 119.297
 247.926 119.375 c 250.281 119.375 252.625 119.074 254.906 118.484 c 257.801
 117.723 260.602 116.648 263.262 115.281 c 264.652 127.605 l 119.461 127.605
 l h
118.195 136.605 m 265.664 136.605 l 265.996 139.516 l 117.785 139.516 l
 h
116.52 148.516 m 267.008 148.516 l 269.891 171 l 112.922 171 l h
272.102 201.723 m 259.691 201.723 l 265.844 184.352 l h
257.789 180.141 m 252.312 195.605 l 246.84 180.141 l h
244.934 201.723 m 232.484 201.723 l 238.707 184.145 l h
230.582 180.141 m 225.066 195.719 l 219.414 180.141 l h
217.672 201.723 m 205.285 201.723 l 211.398 184.445 l h
203.379 180.141 m 197.906 195.605 l 192.43 180.141 l h
190.523 201.723 m 178.074 201.723 l 184.297 184.145 l h
176.168 180.141 m 170.695 195.602 l 165.219 180.141 l h
163.316 201.723 m 150.867 201.723 l 157.094 184.145 l h
148.965 180.141 m 143.414 195.816 l 137.613 180.141 l h
136.004 201.723 m 123.672 201.723 l 129.699 184.695 l h
121.766 180.141 m 116.316 195.539 l 110.746 180.141 l h
102.594 184.055 m 108.98 201.723 l 96.336 201.723 l h
94.434 180.141 m 89.031 195.383 l 83.559 180.141 l h
75.418 184.098 m 81.746 201.723 l 69.172 201.723 l h
59.629 201.723 m 59.52 201.723 l 58.965 199.297 58.688 196.82 58.688 194.332
 c 58.688 180.141 l 67.266 180.141 l h
91.906 264.977 m 91.934 260.156 94.898 255.84 99.383 254.082 c 99.492 275.898
 l 94.992 274.117 92.004 269.812 91.906 264.977 c h
192.137 371.25 m 170.805 371.25 149.91 362.609 134.277 347.699 c 136.977
 347.621 139.66 347.25 142.281 346.59 c 148.387 345.043 155.371 341.949 
162.762 338.676 c 163.668 338.277 164.574 337.875 165.484 337.477 c 170.035
 347.414 180.004 353.797 191.703 353.797 c 203.828 353.797 213.863 347.305
 218.172 337.176 c 218.742 337.445 219.316 337.715 219.887 337.984 c 227.48
 341.566 234.652 344.953 241.121 346.594 c 243.812 347.273 246.57 347.648
 249.348 347.719 c 233.477 362.617 212.809 371.25 192.137 371.25 c h
173.785 333.938 m 180.559 331.195 187.137 329.012 192.883 328.559 c 193.156
 328.535 193.434 328.531 193.707 328.547 c 193.711 328.547 l 198.301 328.82
 203.992 330.844 209.984 333.438 c 207.121 340.434 200.289 344.793 191.703
 344.793 c 183.73 344.793 176.949 340.551 173.785 333.938 c h
282.07 325.406 m 273.301 332.27 258.023 341.598 243.336 337.867 c 237.711
 336.438 230.918 333.234 223.727 329.844 c 213.57 325.047 203.062 320.094
 194.246 319.566 c 193.559 319.527 192.867 319.535 192.18 319.59 c 181.797
 320.41 170.27 325.516 159.121 330.449 c 152.082 333.566 145.438 336.508
 140.07 337.871 c 125.41 341.594 110.172 332.312 101.395 325.457 c 108.637
 324.414 118.512 321.367 134.805 314.207 c 150.078 307.488 174.902 312.828
 186.961 317.77 c 191.367 319.555 196.312 319.465 200.648 317.523 c 210.801
 312.988 232.844 308.098 248.789 314.281 c 267.102 321.379 275.859 324.348
 282.07 325.406 c h
108.293 236.383 m 275.453 236.383 l 275.723 287.105 l 275.801 295.969 274.477
 304.785 271.801 313.234 c 266.973 311.586 260.652 309.227 252.043 305.887
 c 233.418 298.66 208.906 303.969 196.977 309.301 c 194.887 310.242 192.5
 310.289 190.375 309.438 c 181.777 306.062 172.789 303.801 163.621 302.699
 c 150.617 301.117 139.703 302.211 131.18 305.961 c 123.496 309.34 117.426
 311.711 112.516 313.359 c 109.902 305.137 108.562 296.562 108.551 287.934
 c h
292.324 227.383 m 91.672 227.383 l 79.828 227.359 68.902 221.004 63.027
 210.723 c 320.984 210.723 l 315.125 221.027 304.184 227.387 292.328 227.379
 c h
322.719 180.141 m 325.309 180.141 l 325.309 194.336 l 325.309 196.82 325.031
 199.301 324.477 201.723 c 317.082 201.723 l h
313.418 180.141 m 308.27 199.863 l 301.031 180.141 l h
293.078 184.594 m 299.363 201.723 l 286.848 201.723 l h
279.477 195.66 m 273.891 180.141 l 285.121 180.141 l h
279.477 195.66 m f
Q Q
showpage
%%Trailer
end
%%EOF
