%!PS-Adobe-3.0 EPSF-3.0
%%Creator: cairo 1.16.0 (https://cairographics.org)
%%CreationDate: Tue Feb  2 14:48:25 2021
%%Pages: 1
%%DocumentData: Clean7Bit
%%LanguageLevel: 2
%%BoundingBox: 3 49 381 335
%%EndComments
%%BeginProlog
50 dict begin
/q { gsave } bind def
/Q { grestore } bind def
/cm { 6 array astore concat } bind def
/w { setlinewidth } bind def
/J { setlinecap } bind def
/j { setlinejoin } bind def
/M { setmiterlimit } bind def
/d { setdash } bind def
/m { moveto } bind def
/l { lineto } bind def
/c { curveto } bind def
/h { closepath } bind def
/re { exch dup neg 3 1 roll 5 3 roll moveto 0 rlineto
      0 exch rlineto 0 rlineto closepath } bind def
/S { stroke } bind def
/f { fill } bind def
/f* { eofill } bind def
/n { newpath } bind def
/W { clip } bind def
/W* { eoclip } bind def
/BT { } bind def
/ET { } bind def
/BDC { mark 3 1 roll /BDC pdfmark } bind def
/EMC { mark /EMC pdfmark } bind def
/cairo_store_point { /cairo_point_y exch def /cairo_point_x exch def } def
/Tj { show currentpoint cairo_store_point } bind def
/TJ {
  {
    dup
    type /stringtype eq
    { show } { -0.001 mul 0 cairo_font_matrix dtransform rmoveto } ifelse
  } forall
  currentpoint cairo_store_point
} bind def
/cairo_selectfont { cairo_font_matrix aload pop pop pop 0 0 6 array astore
    cairo_font exch selectfont cairo_point_x cairo_point_y moveto } bind def
/Tf { pop /cairo_font exch def /cairo_font_matrix where
      { pop cairo_selectfont } if } bind def
/Td { matrix translate cairo_font_matrix matrix concatmatrix dup
      /cairo_font_matrix exch def dup 4 get exch 5 get cairo_store_point
      /cairo_font where { pop cairo_selectfont } if } bind def
/Tm { 2 copy 8 2 roll 6 array astore /cairo_font_matrix exch def
      cairo_store_point /cairo_font where { pop cairo_selectfont } if } bind def
/g { setgray } bind def
/rg { setrgbcolor } bind def
/d1 { setcachedevice } bind def
/cairo_data_source {
  CairoDataIndex CairoData length lt
    { CairoData CairoDataIndex get /CairoDataIndex CairoDataIndex 1 add def }
    { () } ifelse
} def
/cairo_flush_ascii85_file { cairo_ascii85_file status { cairo_ascii85_file flushfile } if } def
/cairo_image { image cairo_flush_ascii85_file } def
/cairo_imagemask { imagemask cairo_flush_ascii85_file } def
%%EndProlog
%%BeginSetup
%%EndSetup
%%Page: 1 1
%%BeginPageSetup
%%PageBoundingBox: 3 49 381 335
%%EndPageSetup
q 3 49 378 286 rectclip
1 0 0 -1 0 384 cm q
0.419608 0.396078 0.372549 rg
375.75 122.535 m 375.75 315.547 l 375.746 323.426 369.363 329.809 361.484
 329.812 c 22.516 329.812 l 14.637 329.809 8.254 323.426 8.25 315.547 c 
8.25 122.535 l 8.25 84.789 38.852 54.188 76.598 54.188 c 307.402 54.188 
l 345.148 54.188 375.75 84.789 375.75 122.535 c h
375.75 122.535 m f
0.52549 0.564706 0.615686 rg
192 264.504 m 200.598 264.523 208.336 269.715 211.613 277.664 c 214.891
 285.613 213.059 294.754 206.969 300.824 c 200.883 306.895 191.738 308.707
 183.801 305.41 c 175.859 302.113 170.684 294.363 170.684 285.766 c 170.699
 274.008 180.242 264.488 192 264.504 c h
192 264.504 m f
0.690196 0.709804 0.792157 rg
244.316 133.273 m 241.586 133.258 238.973 134.398 237.133 136.418 c 235.266
 138.473 234.254 141.164 234.301 143.941 c 234 257.887 l 234.043 263.75 
238.82 268.477 244.684 268.461 c 247.453 268.465 250.105 267.348 252.039
 265.363 c 253.988 263.375 255.055 260.684 255 257.898 c 255 143.902 l 254.961
 138.027 250.191 133.285 244.316 133.273 c h
244.316 133.273 m f
202.605 101.535 m 199.719 101.555 196.949 102.66 194.844 104.633 c 192.727
 106.551 191.504 109.266 191.469 112.121 c 190.5 228.938 l 190.547 234.805
 195.324 239.531 201.191 239.52 c 204.07 239.527 206.84 238.414 208.918 
236.422 c 210.973 234.465 212.172 231.773 212.25 228.938 c 212.836 113.309
 l 212.258 106.828 209.348 101.535 202.605 101.535 c h
202.605 101.535 m f
158.586 117.391 m 154.738 117.391 151.949 118.688 150.137 120.707 c 148.32
 122.848 147.363 125.59 147.457 128.398 c 147.75 242.43 l 147.742 245.238
 148.852 247.934 150.84 249.914 c 152.793 251.898 155.461 253.016 158.242
 253.012 c 161.043 253.012 163.727 251.895 165.699 249.906 c 167.672 247.922
 168.77 245.23 168.75 242.43 c 169.199 127.961 l 169.195 125.152 168.074
 122.461 166.082 120.48 c 164.094 118.496 161.398 117.387 158.586 117.391
 c h
158.586 117.391 m f
115.516 149.078 m 112.707 149.094 110.02 150.223 108.047 152.223 c 106.074
 154.219 104.977 156.922 105 159.727 c 105 274.172 l 105 276.98 106.125 
279.676 108.121 281.656 c 110.066 283.637 112.73 284.754 115.508 284.754
 c 118.305 284.75 120.988 283.633 122.957 281.645 c 124.926 279.66 126.023
 276.969 126 274.172 c 126 159.602 l 126.023 156.809 124.926 154.125 122.957
 152.148 c 120.984 150.172 118.305 149.066 115.516 149.078 c h
115.516 149.078 m f
0.8 0.827451 0.87451 rg
273.562 152.242 m 271.484 150.25 268.715 149.141 265.836 149.145 c 259.93
 149.148 255.113 153.879 255 159.785 c 255 274.172 l 255.098 280.059 259.91
 284.773 265.801 284.754 c 268.664 284.758 271.418 283.645 273.477 281.656
 c 275.512 279.691 276.691 277 276.75 274.172 c 276.75 159.727 l 276.723
 156.91 275.574 154.215 273.562 152.242 c h
273.562 152.242 m f
230.789 120.504 m 228.863 118.52 226.215 117.402 223.449 117.406 c 220.652
 117.41 217.977 118.527 216.016 120.516 c 214.055 122.504 212.969 125.195
 213 127.988 c 212.594 242.43 l 212.578 245.23 213.68 247.922 215.652 249.906
 c 217.625 251.895 220.309 253.012 223.109 253.012 c 226.965 253.012 229.637
 251.859 231.391 249.824 c 233.145 247.793 233.895 244.5 233.895 242.25 
c 234 242.25 l 233.895 127.988 l 233.898 125.18 232.781 122.484 230.789 
120.504 c h
230.789 120.504 m f
181.012 101.488 m 173.301 101.488 169.5 106.672 169.5 112.516 c 168.75 
228.855 l 168.82 231.734 170.074 234.453 172.215 236.379 c 174.293 238.371
 177.055 239.496 179.938 239.52 c 182.742 239.52 185.434 238.406 187.414
 236.422 c 189.395 234.434 190.508 231.742 190.5 228.938 c 191.469 111.938
 l 191.469 109.156 190.352 106.488 188.363 104.543 c 186.426 102.57 183.773
 101.469 181.012 101.488 c h
181.012 101.488 m f
144.195 136.785 m 142.234 134.773 139.535 133.652 136.727 133.672 c 130.844
 133.664 126.059 138.398 126 144.277 c 126 258.262 l 126.062 261.113 127.273
 263.82 129.359 265.762 c 131.434 267.754 134.195 268.871 137.07 268.883
 c 142.934 268.895 147.707 264.164 147.75 258.301 c 147.148 144.258 l 147.168
 141.48 146.109 138.801 144.195 136.785 c h
144.195 136.785 m f
0.498039 0.239216 0.196078 rg
281.941 180 m 102.059 180 l 95.496 180 90 185.676 90 192.238 c 90 193.613
 l 90.082 200.211 95.461 205.512 102.059 205.5 c 281.941 205.5 l 288.539
 205.512 293.918 200.211 294 193.613 c 294 192.238 l 294 185.676 288.504
 180 281.941 180 c h
281.941 180 m f
0.317647 0.301961 0.290196 rg
31.5 315.547 m 31.5 122.535 l 31.5 84.789 62.102 54 99.848 54 c 76.598 
54 l 38.852 54 8.25 84.789 8.25 122.535 c 8.25 315.547 l 8.238 323.461 14.602
 329.91 22.516 330 c 45.766 330 l 37.852 329.91 31.488 323.461 31.5 315.547
 c h
31.5 315.547 m f
0.564706 0.54902 0.521569 rg
58.629 96.512 m 58.629 102.355 53.879 107.094 48.023 107.094 c 42.164 107.094
 37.418 102.355 37.418 96.512 c 37.418 90.664 42.164 85.926 48.023 85.926
 c 53.879 85.926 58.629 90.664 58.629 96.512 c h
58.629 96.512 m f
344.992 96.512 m 344.992 102.355 340.246 107.094 334.387 107.094 c 328.531
 107.094 323.781 102.355 323.781 96.512 c 323.781 90.664 328.531 85.926 
334.387 85.926 c 340.246 85.926 344.992 90.664 344.992 96.512 c h
344.992 96.512 m f
334.387 284.316 m 338.664 284.328 342.512 286.91 344.141 290.863 c 345.77
 294.82 344.859 299.363 341.832 302.383 c 338.809 305.406 334.258 306.305
 330.309 304.668 c 326.359 303.031 323.785 299.176 323.781 294.898 c 323.785
 292.09 324.902 289.395 326.891 287.41 c 328.883 285.426 331.578 284.312
 334.387 284.316 c h
334.387 284.316 m f
48.023 284.316 m 52.297 284.328 56.148 286.91 57.777 290.863 c 59.406 294.82
 58.496 299.363 55.469 302.383 c 52.441 305.406 47.895 306.305 43.945 304.668
 c 39.996 303.031 37.418 299.176 37.418 294.898 c 37.418 292.09 38.539 289.395
 40.527 287.41 c 42.516 285.426 45.211 284.312 48.023 284.316 c h
48.023 284.316 m f
0.156863 0.258824 0.407843 rg
281.941 175.863 m 281.082 175.863 l 281.082 159.73 l 281.078 154.625 278.496
 149.871 274.215 147.09 c 269.934 144.309 264.539 143.879 259.875 145.949
 c 259.875 143.902 l 259.801 135.484 252.922 128.715 244.5 128.773 c 242.414
 128.773 240.352 129.219 238.453 130.09 c 238.395 127.914 l 238.367 122.82
 235.773 118.082 231.496 115.316 c 227.219 112.555 221.832 112.133 217.18
 114.203 c 217.18 113.301 l 217.18 113.168 217.172 113.035 217.16 112.906
 c 216.277 102.965 210.836 97.031 202.605 97.031 c 198.496 97.047 194.551
 98.652 191.598 101.52 c 188.766 98.645 184.898 97.027 180.863 97.031 c 
171.348 97.031 164.703 103.398 164.703 112.508 c 164.703 114.203 l 162.781
 113.344 160.699 112.902 158.594 112.902 c 149.254 112.902 142.977 119.109
 142.957 128.352 c 142.914 130.484 l 141.008 129.625 138.941 129.184 136.848
 129.188 c 128.52 129.191 121.762 135.938 121.742 144.27 c 121.742 145.941
 l 117.078 143.871 111.68 144.297 107.398 147.078 c 103.117 149.859 100.535
 154.617 100.531 159.723 c 100.531 175.934 l 92.121 176.73 85.691 183.789
 85.68 192.234 c 85.68 193.617 l 85.691 202.062 92.121 209.121 100.531 209.918
 c 100.531 274.172 l 100.59 282.473 107.336 289.172 115.637 289.172 c 123.938
 289.172 130.684 282.473 130.742 274.172 c 130.742 272.004 l 132.746 272.91
 134.922 273.383 137.117 273.383 c 145.449 273.375 152.203 266.629 152.219
 258.301 c 152.219 256.211 l 156.871 258.277 162.254 257.859 166.527 255.098
 c 170.805 252.332 173.398 247.602 173.43 242.512 c 175.504 243.496 177.77
 244.012 180.066 244.02 c 184.039 244.02 187.852 242.457 190.676 239.66 
c 195.234 244.18 202.156 245.309 207.914 242.465 c 207.914 242.523 l 207.984
 250.82 214.727 257.508 223.02 257.512 c 225.297 257.531 227.551 257.094
 229.656 256.227 c 229.656 257.883 l 229.656 262.992 232.242 267.75 236.523
 270.535 c 240.809 273.316 246.207 273.742 250.875 271.668 c 250.875 274.172
 l 250.934 282.473 257.68 289.172 265.98 289.172 c 274.281 289.172 281.027
 282.473 281.086 274.172 c 281.086 209.992 l 281.945 209.992 l 290.984 209.98
 298.312 202.656 298.32 193.617 c 298.32 192.234 l 298.312 183.195 290.984
 175.871 281.941 175.863 c h
259.875 159.73 m 259.91 156.383 262.637 153.691 265.98 153.691 c 269.328
 153.691 272.051 156.383 272.086 159.73 c 272.086 175.863 l 259.875 175.863
 l h
238.844 143.941 m 238.844 140.426 241.277 137.777 244.5 137.777 c 247.934
 137.754 250.762 140.469 250.875 143.898 c 250.875 175.863 l 238.449 175.863
 l h
217.184 127.988 m 217.184 124.617 219.914 121.883 223.289 121.883 c 226.66
 121.883 229.395 124.617 229.395 127.988 c 229.395 128.113 l 229.844 143.977
 l 229.449 175.863 l 217.184 175.863 l h
202.605 106.035 m 204.062 106.035 207.457 106.035 208.176 113.516 c 208.184
 127.992 l 208.184 175.867 l 196.465 175.867 l 195.969 112.121 l 195.969
 108.875 199.07 106.035 202.605 106.035 c h
173.699 112.516 m 173.699 110.996 174.215 106.035 180.863 106.035 c 182.484
 106.035 184.035 106.68 185.184 107.828 c 186.328 108.977 186.969 110.531
 186.969 112.152 c 187.465 175.863 l 174.18 175.863 l 173.699 127.988 l 
h
151.949 128.488 m 151.949 128.461 151.949 128.434 151.949 128.402 c 151.949
 125.438 153.102 121.906 158.586 121.906 c 160.211 121.906 161.766 122.555
 162.91 123.703 c 164.055 124.852 164.695 126.41 164.691 128.031 c 165.176
 175.859 l 151.918 175.859 l 151.645 144.379 l h
130.738 159.727 m 130.738 144.273 l 130.75 140.91 133.48 138.191 136.844
 138.195 c 140.094 138.195 142.641 140.895 142.641 144.383 c 142.91 175.863
 l 130.742 175.863 l h
109.527 159.727 m 109.562 156.383 112.285 153.688 115.633 153.688 c 118.977
 153.688 121.703 156.383 121.738 159.727 c 121.738 175.859 l 109.531 175.859
 l h
121.738 274.172 m 121.703 277.516 118.977 280.211 115.633 280.211 c 112.285
 280.211 109.562 277.516 109.527 274.172 c 109.527 209.992 l 121.738 209.992
 l h
143.219 258.301 m 143.207 261.664 140.477 264.383 137.113 264.383 c 133.68
 264.406 130.852 261.688 130.738 258.258 c 130.738 209.992 l 143.215 209.992
 l h
164.43 242.43 m 164.395 245.773 161.672 248.469 158.324 248.469 c 154.98
 248.469 152.258 245.773 152.219 242.43 c 152.219 209.992 l 164.43 209.992
 l h
186.176 228.938 m 186.164 232.301 183.434 235.023 180.066 235.02 c 176.594
 235.02 173.43 232.082 173.43 228.855 c 173.43 209.992 l 186.176 209.992
 l h
207.387 228.938 m 207.348 232.285 204.625 234.977 201.281 234.977 c 197.934
 234.977 195.211 232.285 195.176 228.938 c 195.176 209.992 l 207.387 209.992
 l h
229.66 241.938 m 229.395 241.938 l 229.395 243.562 229.395 248.512 223.023
 248.512 c 219.66 248.512 216.93 245.793 216.918 242.43 c 216.918 242.371
 216.918 242.312 216.918 242.254 c 216.395 228.848 l 216.395 209.992 l 229.668
 209.992 l h
250.875 257.883 m 250.84 261.23 248.113 263.922 244.77 263.922 c 241.422
 263.922 238.699 261.23 238.664 257.883 c 238.664 209.992 l 250.875 209.992
 l h
272.086 274.172 m 272.051 277.516 269.328 280.211 265.98 280.211 c 262.637
 280.211 259.91 277.516 259.875 274.172 c 259.875 209.992 l 272.086 209.992
 l h
289.32 193.617 m 289.316 197.688 286.02 200.984 281.945 200.992 c 102.059
 200.992 l 97.984 200.984 94.688 197.688 94.68 193.617 c 94.68 192.234 l
 94.688 188.164 97.984 184.867 102.059 184.863 c 281.941 184.863 l 286.016
 184.867 289.312 188.164 289.316 192.234 c h
289.32 193.617 m f
192 260.008 m 181.586 260.027 172.207 266.316 168.234 275.945 c 164.262
 285.574 166.48 296.645 173.852 304.004 c 181.223 311.359 192.301 313.555
 201.922 309.566 c 211.543 305.574 217.812 296.184 217.812 285.77 c 217.785
 271.531 206.234 260.008 192 260.008 c h
192 302.531 m 185.227 302.512 179.129 298.414 176.551 292.148 c 173.973
 285.883 175.418 278.68 180.215 273.898 c 185.016 269.113 192.219 267.691
 198.477 270.289 c 204.734 272.883 208.812 278.992 208.812 285.77 c 208.789
 295.035 201.266 302.535 192 302.531 c h
192 302.531 m f
307.406 49.688 m 76.594 49.688 l 36.383 49.734 3.797 82.32 3.75 122.531
 c 3.75 315.547 l 3.762 325.906 12.156 334.301 22.516 334.312 c 361.484 
334.312 l 371.844 334.301 380.238 325.906 380.25 315.547 c 380.25 122.531
 l 380.203 82.32 347.617 49.734 307.406 49.688 c h
371.25 315.547 m 371.246 320.938 366.875 325.309 361.484 325.312 c 22.516
 325.312 l 17.125 325.305 12.754 320.938 12.75 315.547 c 12.75 122.531 l
 12.789 87.289 41.352 58.727 76.594 58.688 c 307.406 58.688 l 342.648 58.727
 371.211 87.289 371.25 122.531 c h
371.25 315.547 m f
48.023 81.43 m 41.926 81.438 36.434 85.121 34.109 90.758 c 31.781 96.395
 33.078 102.875 37.395 107.184 c 41.707 111.492 48.191 112.777 53.824 110.441
 c 59.457 108.105 63.129 102.605 63.129 96.512 c 63.113 88.18 56.355 81.43
 48.023 81.43 c h
48.023 102.59 m 45.566 102.582 43.355 101.094 42.422 98.82 c 41.488 96.547
 42.016 93.934 43.758 92.199 c 45.5 90.469 48.113 89.953 50.383 90.895 c
 52.648 91.836 54.129 94.055 54.129 96.512 c 54.117 99.875 51.387 102.594
 48.023 102.59 c h
48.023 102.59 m f
334.387 81.43 m 328.289 81.438 322.797 85.121 320.473 90.758 c 318.145 
96.391 319.441 102.875 323.758 107.184 c 328.07 111.492 334.555 112.777 
340.188 110.441 c 345.82 108.105 349.492 102.609 349.492 96.512 c 349.477
 88.18 342.719 81.434 334.387 81.43 c h
334.387 102.59 m 331.93 102.582 329.719 101.094 328.785 98.82 c 327.852
 96.547 328.379 93.934 330.121 92.203 c 331.863 90.469 334.477 89.953 336.746
 90.895 c 339.012 91.836 340.492 94.051 340.492 96.512 c 340.48 99.875 337.75
 102.594 334.387 102.59 c h
334.387 102.59 m f
48.023 279.816 m 41.926 279.828 36.434 283.508 34.109 289.145 c 31.781 
294.777 33.078 301.262 37.391 305.57 c 41.707 309.875 48.191 311.164 53.824
 308.828 c 59.457 306.492 63.129 300.996 63.129 294.898 c 63.113 286.566
 56.355 279.816 48.023 279.816 c h
48.023 300.977 m 45.566 300.969 43.355 299.48 42.422 297.207 c 41.488 294.934
 42.016 292.32 43.758 290.586 c 45.5 288.855 48.113 288.34 50.383 289.281
 c 52.648 290.223 54.129 292.438 54.129 294.895 c 54.117 298.258 51.387 
300.977 48.023 300.977 c h
48.023 300.977 m f
334.387 279.816 m 328.289 279.824 322.797 283.508 320.473 289.141 c 318.145
 294.777 319.441 301.262 323.754 305.57 c 328.07 309.875 334.555 311.164
 340.188 308.828 c 345.82 306.492 349.492 300.996 349.492 294.898 c 349.477
 286.566 342.719 279.82 334.387 279.816 c h
334.387 300.977 m 331.93 300.969 329.719 299.48 328.785 297.207 c 327.852
 294.934 328.379 292.32 330.121 290.586 c 331.863 288.855 334.477 288.336
 336.746 289.281 c 339.012 290.223 340.492 292.438 340.492 294.895 c 340.48
 298.258 337.75 300.977 334.387 300.977 c h
334.387 300.977 m f
Q Q
showpage
%%Trailer
end
%%EOF
