%!PS-Adobe-3.0 EPSF-3.0
%%Creator: cairo 1.16.0 (https://cairographics.org)
%%CreationDate: Tue Feb  2 14:48:25 2021
%%Pages: 1
%%DocumentData: Clean7Bit
%%LanguageLevel: 2
%%BoundingBox: 46 3 338 381
%%EndComments
%%BeginProlog
50 dict begin
/q { gsave } bind def
/Q { grestore } bind def
/cm { 6 array astore concat } bind def
/w { setlinewidth } bind def
/J { setlinecap } bind def
/j { setlinejoin } bind def
/M { setmiterlimit } bind def
/d { setdash } bind def
/m { moveto } bind def
/l { lineto } bind def
/c { curveto } bind def
/h { closepath } bind def
/re { exch dup neg 3 1 roll 5 3 roll moveto 0 rlineto
      0 exch rlineto 0 rlineto closepath } bind def
/S { stroke } bind def
/f { fill } bind def
/f* { eofill } bind def
/n { newpath } bind def
/W { clip } bind def
/W* { eoclip } bind def
/BT { } bind def
/ET { } bind def
/BDC { mark 3 1 roll /BDC pdfmark } bind def
/EMC { mark /EMC pdfmark } bind def
/cairo_store_point { /cairo_point_y exch def /cairo_point_x exch def } def
/Tj { show currentpoint cairo_store_point } bind def
/TJ {
  {
    dup
    type /stringtype eq
    { show } { -0.001 mul 0 cairo_font_matrix dtransform rmoveto } ifelse
  } forall
  currentpoint cairo_store_point
} bind def
/cairo_selectfont { cairo_font_matrix aload pop pop pop 0 0 6 array astore
    cairo_font exch selectfont cairo_point_x cairo_point_y moveto } bind def
/Tf { pop /cairo_font exch def /cairo_font_matrix where
      { pop cairo_selectfont } if } bind def
/Td { matrix translate cairo_font_matrix matrix concatmatrix dup
      /cairo_font_matrix exch def dup 4 get exch 5 get cairo_store_point
      /cairo_font where { pop cairo_selectfont } if } bind def
/Tm { 2 copy 8 2 roll 6 array astore /cairo_font_matrix exch def
      cairo_store_point /cairo_font where { pop cairo_selectfont } if } bind def
/g { setgray } bind def
/rg { setrgbcolor } bind def
/d1 { setcachedevice } bind def
/cairo_data_source {
  CairoDataIndex CairoData length lt
    { CairoData CairoDataIndex get /CairoDataIndex CairoDataIndex 1 add def }
    { () } ifelse
} def
/cairo_flush_ascii85_file { cairo_ascii85_file status { cairo_ascii85_file flushfile } if } def
/cairo_image { image cairo_flush_ascii85_file } def
/cairo_imagemask { imagemask cairo_flush_ascii85_file } def
%%EndProlog
%%BeginSetup
%%EndSetup
%%Page: 1 1
%%BeginPageSetup
%%PageBoundingBox: 46 3 338 381
%%EndPageSetup
q 46 3 292 378 rectclip
1 0 0 -1 0 384 cm q
0.952941 0.807843 0.490196 rg
292.172 50.07 m 323.305 81.453 337.941 125.605 331.719 169.371 c 318.203
 265.785 l 309.359 328.844 255.531 375.75 192 375.75 c 128.469 375.75 74.641
 328.844 65.797 265.785 c 52.281 169.371 l 40.344 84.262 106.266 8.25 192
 8.25 c 229.652 8.172 265.75 23.246 292.172 50.07 c h
292.172 50.07 m f
0.756863 0.639216 0.403922 rg
88.297 265.785 m 74.781 169.371 l 63.367 88.016 123.105 14.98 203.277 8.695
 c 199.559 8.402 195.801 8.254 192 8.25 c 106.266 8.25 40.344 84.262 52.281
 169.371 c 65.797 265.785 l 74.641 328.844 128.469 375.75 192 375.75 c 195.789
 375.75 199.539 375.582 203.25 375.25 c 144.133 369.945 96.488 324.57 88.297
 265.785 c h
88.297 265.785 m f
0.921569 0.447059 0.533333 rg
170.746 257.543 m 171.426 262.68 174.23 267.297 178.477 270.27 c 120.434
 293.496 116.977 351.27 116.977 351.27 c 109.074 345.496 101.859 338.84 
95.477 331.426 c 95.484 331.418 l 95.484 331.418 85.531 304.867 112.156 
289.492 c 135.234 276.164 134.047 242.398 110.309 230.289 c 109.914 230.086
 109.508 229.883 109.094 229.68 c 57.66 204.172 83.227 180.684 83.227 180.684
 c 93.105 188.949 107.984 194.211 124.637 194.211 c 124.637 194.211 169.289
 223.539 172.273 253.934 c 171.156 254.777 170.574 256.152 170.746 257.543
 c h
170.746 257.543 m f
292.816 326.16 m 287.406 333.164 281.289 339.59 274.551 345.328 c 274.551
 345.324 l 274.551 345.324 271.641 303.758 214.059 270.27 c 214.059 270.262
 l 218.301 267.25 221.121 262.629 221.859 257.477 c 222.047 256.133 221.531
 254.789 220.492 253.922 c 216.516 250.59 l 216.516 250.59 241.68 209.844
 271.641 193.656 c 284.379 192.141 295.582 187.508 303.586 180.914 c 303.594
 180.922 l 303.594 180.922 329.348 204.172 277.914 229.68 c 277.508 229.883
 277.094 230.086 276.699 230.289 c 252.961 242.398 252.352 275.203 274.852
 289.492 c 298.133 304.281 292.816 326.16 292.816 326.16 c h
292.816 326.16 m f
0.27451 0.537255 0.827451 rg
262.492 194.199 m 265.551 194.199 268.605 194.016 271.641 193.656 c 241.68
 209.844 216.516 250.59 216.516 250.59 c 211.527 246.414 208.648 240.242
 208.648 233.738 c 208.648 156.699 l 208.648 177.406 232.754 194.199 262.492
 194.199 c h
262.492 194.199 m f
178.477 156.711 m 182.91 231.449 l 183.422 240.113 179.562 248.457 172.629
 253.672 c 172.273 253.934 l 169.289 223.539 124.637 194.211 124.637 194.211
 c 154.371 194.211 178.477 177.422 178.477 156.711 c h
178.477 156.711 m f
173.949 94.98 m 139.449 91.793 124.637 119.211 124.637 119.211 c 104.047
 119.211 86.152 127.262 77.102 139.086 c 77.102 139.086 77.102 109.695 118.164
 89.34 c 168.09 64.582 145.027 41.289 143.641 39.945 c 150.203 36.375 154.348
 29.559 154.5 22.086 c 154.523 19.355 154.293 16.625 153.801 13.934 c 155.219
 22.039 161 28.691 168.824 31.23 c 168.816 31.246 l 168.816 31.246 168.57
 37.613 168.855 47.445 c 169.215 59.754 170.398 77.496 173.949 94.98 c h
173.949 94.98 m f
217.117 31.898 m 227.266 32.82 236.062 25.711 238.844 16.207 c 238.906 
16.23 238.965 16.246 239.023 16.266 c 235.98 24.234 237.789 33.242 243.676
 39.414 c 243.676 39.414 210.809 68.789 264.344 89.488 c 293.551 100.777
 297.938 128.477 297.938 128.477 c 288.473 122.699 276.074 119.199 262.492
 119.199 c 243.324 89.34 212.871 94.762 212.871 94.762 c 215.453 76.875 
214.695 59.496 213.48 47.379 c 212.453 37.246 211.109 30.789 211.109 30.789
 c 213.07 31.355 215.082 31.727 217.117 31.898 c h
217.117 31.898 m f
0.686275 0.470588 0.419608 rg
316.336 156.699 m 316.336 165.938 311.535 174.398 303.586 180.914 c 295.582
 187.508 284.379 192.141 271.641 193.656 c 268.605 194.016 265.551 194.199
 262.492 194.199 c 232.754 194.199 208.648 177.406 208.648 156.699 c 208.648
 135.988 232.754 119.199 262.492 119.199 c 276.074 119.199 288.473 122.699
 297.938 128.477 c 309.219 135.344 316.336 145.441 316.336 156.699 c h
316.336 156.699 m f
178.477 156.711 m 178.477 177.422 154.371 194.211 124.637 194.211 c 107.984
 194.211 93.105 188.949 83.227 180.684 c 75.457 174.188 70.793 165.832 70.793
 156.711 c 70.871 150.297 73.094 144.094 77.102 139.086 c 86.152 127.262
 104.047 119.211 124.637 119.211 c 154.371 119.211 178.477 136.004 178.477
 156.711 c h
178.477 156.711 m f
0.737255 0.368627 0.317647 rg
81.301 61.988 m 81.301 61.988 81.652 62.211 82.215 62.648 c 84.449 64.379
 89.992 69.512 90.09 77.707 c 90.234 89.887 81.434 100.254 69.301 100.906
 c 66.137 101.102 62.961 100.707 59.941 99.742 c 65.082 86.137 72.289 73.402
 81.301 61.988 c h
81.301 61.988 m f
0.498039 0.239216 0.196078 rg
82.215 62.641 m 82.215 62.648 l 81.652 62.211 81.301 61.988 81.301 61.988
 c 90.324 50.551 101.051 40.566 113.109 32.387 c 116.238 35.676 118.027 
40.016 118.125 44.559 c 118.668 53.293 113.949 61.508 106.133 65.441 c 98.32
 69.379 88.91 68.277 82.215 62.641 c h
82.215 62.641 m f
0.737255 0.368627 0.317647 rg
143.641 39.945 m 139.879 42.07 135.586 43.07 131.273 42.824 c 123.965 42.402
 117.348 38.367 113.625 32.062 c 113.609 32.039 l 125.914 23.773 139.457
 17.512 153.727 13.492 c 153.75 13.641 153.773 13.785 153.801 13.934 c 154.293
 16.625 154.523 19.355 154.5 22.086 c 154.348 29.559 150.203 36.375 143.641
 39.945 c h
143.641 39.945 m f
0.498039 0.239216 0.196078 rg
306.465 70.172 m 306.969 69.816 307.449 69.434 307.922 69.039 c 316.285
 81.082 322.723 94.355 327.008 108.383 c 326.969 108.398 l 319.668 111.344
 311.352 110.164 305.16 105.305 c 298.965 100.445 295.84 92.648 296.961 
84.855 c 297.793 78.945 301.129 73.684 306.121 70.41 c 306.238 70.336 306.352
 70.254 306.465 70.172 c h
306.465 70.172 m f
0.737255 0.368627 0.317647 rg
277.402 37.074 m 292.172 50.07 l 297.957 55.926 303.227 62.273 307.922 
69.039 c 307.449 69.434 306.969 69.816 306.465 70.172 c 306.352 70.254 306.238
 70.336 306.121 70.41 c 297.156 76.398 285.18 75.062 277.754 67.246 c 270.328
 59.426 269.613 47.395 276.059 38.754 c 276.07 38.742 276.082 38.73 276.09
 38.715 c 276.426 38.332 276.75 37.941 277.059 37.539 c 277.176 37.379 277.289
 37.23 277.402 37.074 c h
277.402 37.074 m f
0.498039 0.239216 0.196078 rg
277.402 37.074 m 277.289 37.23 277.176 37.379 277.059 37.539 c 276.719 
37.922 276.398 38.309 276.09 38.715 c 276.082 38.73 276.07 38.742 276.059
 38.754 c 269 46.715 257.258 48.484 248.16 42.965 c 239.066 37.441 235.219
 26.203 239.023 16.266 c 252.824 21.156 265.773 28.18 277.402 37.074 c h
277.402 37.074 m f
0.737255 0.368627 0.317647 rg
238.844 16.207 m 236.062 25.711 227.266 32.82 217.117 31.898 c 215.082 
31.727 213.07 31.355 211.109 30.789 c 201.426 27.914 197.961 20.477 197.594
 11.414 c 197.594 11.387 l 197.621 10.367 197.539 9.348 197.355 8.348 c 
211.504 8.855 225.492 11.508 238.844 16.207 c h
238.844 16.207 m f
0.498039 0.239216 0.196078 rg
197.355 8.348 m 197.539 9.348 197.621 10.367 197.594 11.387 c 197.594 11.414
 l 197.316 22.395 185.25 32.863 174.156 32.219 c 172.344 32.121 170.555 
31.785 168.824 31.23 c 161 28.691 155.219 22.039 153.801 13.934 c 153.773
 13.785 153.75 13.641 153.727 13.492 c 166.184 10 179.062 8.234 192 8.25
 c 193.793 8.25 195.586 8.281 197.355 8.348 c h
197.355 8.348 m f
0.298039 0.662745 0.529412 rg
220.492 253.922 m 216.516 250.59 l 211.527 246.414 208.648 240.242 208.648
 233.738 c 208.648 156.699 l 208.648 135.988 232.754 119.199 262.492 119.199
 c 243.324 89.34 212.871 94.762 212.871 94.762 c 173.949 94.98 l 139.449
 91.793 124.637 119.211 124.637 119.211 c 154.371 119.211 178.477 136.004
 178.477 156.711 c 182.91 231.449 l 183.422 240.113 179.562 248.457 172.629
 253.672 c 172.273 253.934 l 171.156 254.777 170.574 256.152 170.746 257.543
 c 171.426 262.68 174.23 267.297 178.477 270.27 c 182.812 273.449 188.844
 275.414 196.305 275.414 c 203.766 275.414 209.746 273.449 214.059 270.262
 c 218.301 267.25 221.121 262.629 221.859 257.477 c 222.047 256.133 221.531
 254.789 220.492 253.922 c h
220.492 253.922 m f
0.686275 0.470588 0.419608 rg
192.211 301.719 m 210.645 301.719 225.594 306.871 225.594 313.23 c 225.594
 319.59 210.645 324.734 192.211 324.734 c 173.773 324.734 158.836 319.582
 158.836 313.23 c 158.836 306.879 173.781 301.719 192.211 301.719 c h
192.211 301.719 m f
0.921569 0.447059 0.533333 rg
190.23 343.738 m 207.477 343.797 223.023 354.156 229.719 370.051 c 204.086
 377.98 176.609 377.629 151.191 369.047 c 151.191 369.039 l 157.695 353.656
 172.508 343.738 190.23 343.738 c h
190.23 343.738 m f
0.498039 0.239216 0.196078 rg
296.812 154.066 m 298.309 155.48 298.312 157.863 296.82 159.285 c 288.414
 166.637 261.855 185.664 231.074 164.852 c 229.809 163.977 228.793 162.789
 228.129 161.398 c 227.41 159.938 227.043 158.332 227.047 156.703 c 226.973
 153.492 228.477 150.449 231.074 148.559 c 261.848 127.746 288.406 146.723
 296.812 154.066 c h
296.812 154.066 m f
156.051 148.547 m 158.652 150.434 160.156 153.477 160.078 156.691 c 160.086
 158.32 159.715 159.93 159 161.391 c 158.336 162.777 157.32 163.965 156.051
 164.836 c 125.273 185.656 98.715 166.621 90.309 159.27 c 88.816 157.848
 88.82 155.469 90.316 154.051 c 98.723 146.707 125.281 127.734 156.051 148.547
 c h
156.051 148.547 m f
0.780392 0.603922 0.513726 rg
211.109 30.789 m 211.109 30.789 212.453 37.246 213.48 47.379 c 187.094 
67.125 168.855 47.445 168.855 47.445 c 168.57 37.613 168.816 31.246 168.816
 31.246 c 168.824 31.23 l 170.555 31.785 172.344 32.121 174.156 32.219 c
 185.25 32.863 197.316 22.395 197.594 11.414 c 197.961 20.477 201.426 27.914
 211.109 30.789 c h
211.109 30.789 m f
0.882353 0.717647 0.639216 rg
213.48 47.379 m 214.695 59.496 215.453 76.875 212.871 94.762 c 212.387 
98.137 211.785 101.535 211.035 104.91 c 210.879 104.871 l 195.164 119.633
 177.398 107.664 176.902 107.324 c 175.77 103.273 174.797 99.137 173.949
 94.98 c 170.398 77.496 169.215 59.754 168.855 47.445 c 168.855 47.445 187.094
 67.125 213.48 47.379 c h
213.48 47.379 m f
0.780392 0.603922 0.513726 rg
210.879 104.871 m 211.035 104.91 l 209.152 113.883 206.102 122.566 201.953
 130.738 c 200.816 132.887 198.859 134.48 196.523 135.156 c 194.191 135.832
 191.684 135.531 189.578 134.324 c 188.215 133.551 187.09 132.422 186.324
 131.055 c 182.254 123.547 179.09 115.582 176.902 107.324 c 177.398 107.664
 195.164 119.633 210.879 104.871 c h
210.879 104.871 m f
0.756863 0.380392 0.458824 rg
98.84 301.695 m 89.66 315.879 95.484 331.418 95.484 331.418 c 95.477 331.426
 l 101.859 338.84 109.074 345.496 116.977 351.27 c 117.523 345.461 118.672
 339.723 120.398 334.148 c 111.594 324.5 104.32 313.551 98.84 301.695 c 
h
98.84 301.695 m f
0.156863 0.258824 0.407843 rg
158.578 144.816 m 124.84 122 95.535 143.523 87.355 150.664 c 85.66 152.199
 84.691 154.379 84.691 156.664 c 84.688 158.949 85.652 161.129 87.348 162.664
 c 92.84 167.469 107.855 178.773 127.348 178.773 c 136.883 178.773 147.492
 176.066 158.574 168.574 c 162.352 165.797 164.582 161.387 164.582 156.699
 c 164.582 152.012 162.352 147.602 158.574 144.824 c h
153.535 161.109 m 144.133 167.469 135.188 169.801 127.125 169.801 c 112.246
 169.801 100.371 161.871 94.184 156.668 c 103.723 148.664 126.797 134.188
 153.535 152.273 c 154.836 153.375 155.586 154.992 155.586 156.695 c 155.586
 158.395 154.836 160.012 153.535 161.113 c h
153.535 161.109 m f
302.438 156.676 m 302.453 154.383 301.484 152.195 299.77 150.676 c 291.598
 143.535 262.285 122.012 228.551 144.824 c 224.773 147.602 222.543 152.012
 222.543 156.699 c 222.543 161.387 224.773 165.797 228.551 168.574 c 239.637
 176.074 250.242 178.773 259.777 178.773 c 279.266 178.773 294.289 167.469
 299.781 162.668 c 301.488 161.145 302.457 158.961 302.438 156.676 c h
233.594 161.121 m 232.293 160.023 231.543 158.406 231.543 156.703 c 231.543
 155 232.293 153.383 233.594 152.281 c 243.008 145.918 251.961 143.582 260.035
 143.582 c 274.898 143.582 286.766 151.488 292.945 156.676 c 283.406 164.699
 260.336 179.207 233.594 161.125 c h
233.594 161.121 m f
192 3.75 m 149.797 3.809 109.691 22.148 82.043 54.031 c 54.391 85.914 41.91
 128.211 47.824 169.996 c 61.344 266.41 l 70.395 331.629 126.156 380.188
 192 380.188 c 257.844 380.188 313.605 331.629 322.656 266.41 c 336.176 
169.996 l 342.09 128.211 329.609 85.914 301.957 54.031 c 274.309 22.148 
234.203 3.809 192 3.75 c h
276.316 49.715 m 276.609 47.559 277.281 45.477 278.309 43.559 c 284.309
 48.457 289.879 53.859 294.965 59.699 c 297.27 62.352 299.465 65.082 301.543
 67.887 c 295.703 70.797 288.734 70.23 283.441 66.418 c 278.148 62.605 275.406
 56.172 276.316 49.715 c h
242.078 23.648 m 242.09 23.203 242.129 22.762 242.172 22.32 c 252.246 26.309
 261.809 31.48 270.656 37.73 c 265.355 42.094 257.984 42.949 251.824 39.914
 c 245.664 36.879 241.852 30.516 242.078 23.648 c h
237.723 39.164 m 233.793 43.785 227.574 53.105 229.578 64.094 c 231.758
 76.07 242.91 86.023 262.719 93.684 c 275.094 98.301 285.086 107.711 290.438
 119.785 c 282.281 116.656 273.652 114.949 264.918 114.738 c 249.508 92.465
 228.309 89.727 218.062 89.859 c 220.539 67.371 218.219 46.57 216.652 36.371
 c 216.707 36.379 l 217.422 36.441 218.133 36.477 218.84 36.477 c 224.352
 36.445 229.691 34.559 234 31.121 c 234.781 33.992 236.039 36.711 237.723
 39.164 c h
165.281 186.922 m 169.016 184.355 172.363 181.266 175.219 177.75 c 178.414
 231.715 l 178.691 236.328 177.461 240.906 174.914 244.758 c 168.645 225.066
 149.176 207.289 137.082 197.75 c 147.648 196.117 157.387 192.418 165.281
 186.922 c h
124.637 189.711 m 97.43 189.711 75.293 174.906 75.293 156.711 c 75.293 
138.516 97.43 123.711 124.637 123.711 c 151.844 123.711 173.98 138.516 173.98
 156.711 c 173.98 174.906 151.844 189.711 124.637 189.711 c h
175.328 257.27 m 183.484 251.16 188.02 241.359 187.402 231.188 c 182.977
 156.445 l 182.879 145.016 176.613 134.391 165.289 126.504 c 156.43 120.336
 145.254 116.414 133.184 115.156 c 142.473 104.484 156.117 98.633 170.25
 99.262 c 173.25 112.82 177.301 124.211 182.402 133.266 c 184.844 137.52
 189.406 140.105 194.309 140.012 c 199.207 139.918 203.668 137.16 205.941
 132.816 c 211.48 122.16 214.855 110.473 216.812 98.914 c 230.996 98.379
 244.645 104.363 253.863 115.152 c 241.824 116.422 230.684 120.336 221.844
 126.492 c 210.43 134.441 204.145 145.168 204.145 156.699 c 204.145 233.738
 l 204.133 241.578 207.605 249.016 213.625 254.043 c 217.355 257.16 l 216.035
 265.527 207.812 270.918 196.301 270.918 c 184.867 270.918 176.461 265.469
 175.25 257.324 c h
180.773 104.41 m 176.445 88.141 174.559 70.426 173.77 56.523 c 175.738 
57.574 177.801 58.441 179.93 59.109 c 183.227 60.141 186.66 60.664 190.113
 60.66 c 195.738 60.66 202.336 59.277 209.598 55.254 c 210.473 68.426 210.43
 85.531 206.98 102.316 c 196.27 111.582 184.648 106.555 180.773 104.41 c
 h
203.734 114.715 m 202.195 119.516 200.266 124.184 197.957 128.668 c 196.332
 131.707 192.012 131.809 190.246 128.848 c 187.875 124.566 185.863 120.098
 184.227 115.488 c 187.098 116.281 190.059 116.691 193.039 116.703 c 196.695
 116.711 200.324 116.035 203.734 114.715 c h
215.957 243.238 m 214.125 240.41 213.148 237.109 213.148 233.738 c 213.148
 179.211 l 215.73 182.117 218.652 184.699 221.852 186.902 c 231.27 193.465
 243.309 197.473 256.258 198.453 c 247.453 205.301 238.453 214.277 229.371
 225.332 c 223.434 232.551 218.816 239.023 215.953 243.238 c h
213.148 156.699 m 213.148 138.504 235.285 123.699 262.492 123.699 c 289.699
 123.699 311.836 138.5 311.836 156.699 c 311.836 174.895 289.699 189.699
 262.492 189.699 c 235.285 189.699 213.148 174.895 213.148 156.699 c h
232.785 19.004 m 229.566 24.578 223.672 27.977 217.523 27.418 c 207.922
 26.547 203.145 22.117 202.23 13.141 c 212.605 13.922 222.859 15.891 232.785
 19.004 c h
195.621 26.844 m 196.035 26.371 196.422 25.895 196.801 25.41 c 199.195 
29.383 202.836 32.457 207.156 34.156 c 207.551 36.461 208.152 40.305 208.707
 45.254 c 190.395 57.625 177.23 48.789 173.32 45.465 c 173.238 41.957 173.219
 38.969 173.23 36.664 c 173.453 36.684 173.672 36.703 173.898 36.719 c 174.301
 36.742 174.707 36.754 175.113 36.754 c 182.41 36.75 190.164 33.027 195.621
 26.844 c h
192 12.75 m 192.32 12.75 192.641 12.762 192.961 12.762 c 192.395 15.805
 190.977 18.621 188.875 20.887 c 184.957 25.324 179.285 28.012 174.418 27.727
 c 167.676 27.281 161.789 23.008 159.273 16.734 c 169.98 14.09 180.969 12.75
 192 12.75 c h
150.988 40.094 m 154.031 37.273 156.332 33.742 157.684 29.82 c 159.641 
31.605 161.852 33.094 164.242 34.23 c 164.105 45.582 164.555 56.934 165.586
 68.238 c 166.301 76.047 167.262 83.375 168.465 90.219 c 140.992 90.164 
126.477 108.188 122.102 114.758 c 108.395 115.172 95.512 118.969 85.395 
125.57 c 89.82 116.223 99.402 103.66 120.16 93.371 c 141.074 83 152.598 
71.32 154.406 58.645 c 155.234 52.391 153.715 46.047 150.137 40.852 c 150.422
 40.605 150.711 40.355 150.988 40.094 c h
149.938 19.41 m 149.988 20.215 150.008 21.055 150 22.043 c 149.938 26.418
 148.074 30.57 144.844 33.52 c 141.246 36.867 136.438 38.605 131.531 38.328
 c 127.246 38.078 123.199 36.258 120.172 33.215 c 129.5 27.434 139.496 22.797
 149.938 19.41 c h
89.035 59.699 m 95.891 51.82 103.625 44.754 112.086 38.637 c 113.066 40.547
 113.598 42.652 113.633 44.797 c 114.152 54.457 106.758 62.711 97.102 63.258
 c 93.879 63.418 90.68 62.664 87.871 61.078 c 88.258 60.621 88.641 60.16
 89.035 59.699 c h
81.949 68.57 m 84.219 71.102 85.508 74.359 85.59 77.758 c 85.707 87.711
 78.445 95.902 69.062 96.406 c 68.102 96.457 67.137 96.445 66.18 96.379 
c 70.332 86.527 75.625 77.195 81.949 68.574 c h
89.352 315.824 m 79.316 300.559 72.793 283.254 70.254 265.16 c 56.734 168.75
 l 53.73 147.336 55.832 125.516 62.863 105.07 c 64.508 105.32 66.172 105.445
 67.836 105.445 c 68.406 105.445 68.977 105.43 69.543 105.402 c 83.762 104.637
 94.762 92.449 94.59 77.66 c 94.57 75.809 94.32 73.965 93.844 72.176 c 94.629
 72.25 95.418 72.285 96.211 72.289 c 96.664 72.289 97.125 72.277 97.582 
72.25 c 111.766 71.457 122.816 59.641 122.652 45.434 c 125.316 46.512 128.141
 47.148 131.008 47.316 c 131.523 47.348 132.039 47.363 132.551 47.363 c 
135.93 47.359 139.277 46.723 142.422 45.488 c 144.949 48.941 146.043 53.238
 145.48 57.48 c 144.078 66.871 133.938 76.492 116.16 85.305 c 78.105 104.176
 73.293 130.66 72.688 137.477 c 68.586 143.055 66.348 149.785 66.293 156.711
 c 66.293 165.629 70.07 174.062 77.051 181.105 c 73.367 186.262 71.781 192.629
 72.613 198.91 c 74.414 211.547 86.016 223.254 107.094 233.707 c 107.492
 233.902 107.883 234.102 108.27 234.297 c 117.938 239.145 124.117 248.965
 124.297 259.781 c 124.684 270.398 119.137 280.344 109.906 285.602 c 94.5
 294.496 90.227 306.922 89.355 315.781 c 89.355 315.797 89.355 315.812 89.352
 315.824 c h
111.348 341.023 m 107.121 337.344 103.152 333.375 99.469 329.152 c 98.23
 325.125 93.496 305.469 114.406 293.395 c 126.512 286.508 133.789 273.469
 133.293 259.551 c 133.055 245.43 124.984 232.609 112.355 226.281 c 111.938
 226.07 111.52 225.859 111.094 225.648 c 93.16 216.754 82.941 207.109 81.543
 197.754 c 81.02 193.965 81.883 190.113 83.98 186.91 c 83.996 186.922 l 
94.57 194.289 108.457 198.438 123.219 198.688 c 130.691 203.91 137.746 209.703
 144.32 216.016 c 157.809 229.055 165.797 241.633 167.555 252.539 c 166.496
 254.188 166.047 256.152 166.277 258.094 c 166.777 261.977 168.273 265.66
 170.621 268.789 c 149.125 278.785 131.863 296.066 121.883 317.57 c 118.094
 325.656 115.316 334.176 113.609 342.941 c 112.852 342.312 112.098 341.676
 111.348 341.023 c h
192 371.25 m 180.355 371.246 168.773 369.586 157.598 366.32 c 164.246 355.055
 176.336 348.234 190.227 348.234 c 203.82 348.242 216.391 355.457 223.254
 367.191 c 213.055 369.883 202.547 371.246 192 371.25 c h
232.062 364.52 m 223.895 348.977 207.785 339.242 190.227 339.234 c 172.383
 339.234 156.918 348.402 148.902 363.426 c 139.281 359.816 130.156 355.012
 121.73 349.125 c 123.156 338.453 131.723 295.082 177.965 275.355 c 182.652
 278.156 188.75 279.914 196.305 279.914 c 202.527 280.031 208.668 278.527
 214.133 275.551 c 241.145 291.801 254.875 309.695 261.668 322 c 267.133
 331.898 269.082 339.82 269.742 343.473 c 258.523 352.656 245.766 359.781
 232.062 364.52 c h
288.602 324.227 m 285.16 328.605 281.43 332.746 277.434 336.621 c 273.691
 322.793 261.395 294.367 221.406 269.445 c 224.062 266.188 225.762 262.254
 226.316 258.086 c 226.727 255.211 225.613 252.328 223.383 250.469 c 222.461
 249.699 l 228.965 239.977 249.621 211.027 273.07 198.008 c 284.223 196.555
 294.531 192.812 302.836 187.105 c 304.941 190.234 305.852 194.016 305.402
 197.758 c 304.117 207.074 293.922 216.719 275.914 225.645 c 275.488 225.855
 275.066 226.07 274.648 226.281 c 262.473 232.363 254.555 244.57 253.969
 258.168 c 253.285 272.363 260.355 285.809 272.438 293.293 c 290.305 304.641
 289.199 320.312 288.602 324.227 c h
327.266 168.75 m 313.746 265.16 l 311.41 281.812 305.695 297.809 296.953
 312.176 c 295.156 303.965 290.105 293.852 277.266 285.695 c 267.922 279.93
 262.445 269.551 262.957 258.59 c 263.414 248.227 269.457 238.926 278.738
 234.301 c 279.125 234.102 279.52 233.906 279.914 233.711 c 301.008 223.25
 312.582 211.566 314.316 198.984 c 315.113 192.746 313.5 186.441 309.812
 181.352 c 316.965 174.254 320.832 165.727 320.832 156.695 c 320.832 145.164
 314.547 134.438 303.133 126.488 c 302.746 126.219 302.344 125.961 301.949
 125.703 c 297.324 107.137 283.871 92.027 265.965 85.285 c 249.539 78.938
 240.02 71.066 238.438 62.523 c 237.156 55.605 241.168 49.203 244.035 45.656
 c 248.328 48.789 253.473 50.547 258.785 50.699 c 259.047 50.707 259.309
 50.711 259.57 50.711 c 262.18 50.711 264.777 50.324 267.273 49.562 c 265.887
 63.699 275.859 76.43 289.918 78.457 c 291.172 78.637 292.438 78.727 293.703
 78.727 c 293.777 78.727 293.852 78.723 293.934 78.723 c 293.25 80.496 292.773
 82.34 292.508 84.223 c 291.285 92.73 294.266 101.301 300.5 107.219 c 306.734
 113.133 315.449 115.656 323.879 113.992 c 328.684 131.828 329.836 150.457
 327.266 168.75 c h
306.832 75.543 m 312.812 84.852 317.645 94.848 321.219 105.312 c 315.758
 106.102 310.246 104.266 306.348 100.363 c 302.449 96.461 300.621 90.945
 301.414 85.484 c 301.949 81.621 303.875 78.086 306.832 75.543 c h
306.832 75.543 m f
192.215 297.219 m 173.969 297.219 154.34 302.23 154.34 313.227 c 154.34
 324.223 173.973 329.234 192.215 329.234 c 210.453 329.234 230.09 324.223
 230.09 313.227 c 230.09 302.23 210.457 297.219 192.215 297.219 c h
192.215 320.234 m 174.047 320.234 164.254 315.25 163.359 313.227 c 164.254
 311.203 174.043 306.219 192.215 306.219 c 210.383 306.219 220.172 311.203
 221.066 313.227 c 220.172 315.25 210.383 320.234 192.215 320.234 c h
192.215 320.234 m f
Q Q
showpage
%%Trailer
end
%%EOF
