%!PS-Adobe-3.0 EPSF-3.0
%%Creator: cairo 1.16.0 (https://cairographics.org)
%%CreationDate: Tue Feb  2 14:48:26 2021
%%Pages: 1
%%DocumentData: Clean7Bit
%%LanguageLevel: 2
%%BoundingBox: 26 3 358 381
%%EndComments
%%BeginProlog
50 dict begin
/q { gsave } bind def
/Q { grestore } bind def
/cm { 6 array astore concat } bind def
/w { setlinewidth } bind def
/J { setlinecap } bind def
/j { setlinejoin } bind def
/M { setmiterlimit } bind def
/d { setdash } bind def
/m { moveto } bind def
/l { lineto } bind def
/c { curveto } bind def
/h { closepath } bind def
/re { exch dup neg 3 1 roll 5 3 roll moveto 0 rlineto
      0 exch rlineto 0 rlineto closepath } bind def
/S { stroke } bind def
/f { fill } bind def
/f* { eofill } bind def
/n { newpath } bind def
/W { clip } bind def
/W* { eoclip } bind def
/BT { } bind def
/ET { } bind def
/BDC { mark 3 1 roll /BDC pdfmark } bind def
/EMC { mark /EMC pdfmark } bind def
/cairo_store_point { /cairo_point_y exch def /cairo_point_x exch def } def
/Tj { show currentpoint cairo_store_point } bind def
/TJ {
  {
    dup
    type /stringtype eq
    { show } { -0.001 mul 0 cairo_font_matrix dtransform rmoveto } ifelse
  } forall
  currentpoint cairo_store_point
} bind def
/cairo_selectfont { cairo_font_matrix aload pop pop pop 0 0 6 array astore
    cairo_font exch selectfont cairo_point_x cairo_point_y moveto } bind def
/Tf { pop /cairo_font exch def /cairo_font_matrix where
      { pop cairo_selectfont } if } bind def
/Td { matrix translate cairo_font_matrix matrix concatmatrix dup
      /cairo_font_matrix exch def dup 4 get exch 5 get cairo_store_point
      /cairo_font where { pop cairo_selectfont } if } bind def
/Tm { 2 copy 8 2 roll 6 array astore /cairo_font_matrix exch def
      cairo_store_point /cairo_font where { pop cairo_selectfont } if } bind def
/g { setgray } bind def
/rg { setrgbcolor } bind def
/d1 { setcachedevice } bind def
/cairo_data_source {
  CairoDataIndex CairoData length lt
    { CairoData CairoDataIndex get /CairoDataIndex CairoDataIndex 1 add def }
    { () } ifelse
} def
/cairo_flush_ascii85_file { cairo_ascii85_file status { cairo_ascii85_file flushfile } if } def
/cairo_image { image cairo_flush_ascii85_file } def
/cairo_imagemask { imagemask cairo_flush_ascii85_file } def
%%EndProlog
%%BeginSetup
%%EndSetup
%%Page: 1 1
%%BeginPageSetup
%%PageBoundingBox: 26 3 358 381
%%EndPageSetup
q 26 3 332 378 rectclip
1 0 0 -1 0 384 cm q
0.419608 0.396078 0.372549 rg
337.801 52.547 m 31.281 51.93 l 31.238 76.336 l 310.898 76.891 l 314.574
 76.902 318.098 78.375 320.691 80.984 c 323.285 83.594 324.734 87.125 324.719
 90.801 c 324.621 140.355 l 324.621 144.031 323.16 147.559 320.555 150.16
 c 317.953 152.758 314.426 154.219 310.746 154.215 c 31.078 153.652 l 31.035
 178.059 l 337.551 178.664 l 341.586 178.668 345.457 177.07 348.312 174.219
 c 351.168 171.371 352.773 167.504 352.777 163.469 c 352.965 67.801 l 352.988
 59.398 346.199 52.57 337.801 52.547 c h
337.801 52.547 m f
0.286275 0.27451 0.266667 rg
31.281 51.93 m 31.238 76.336 l 53.746 76.379 l 53.781 51.977 l h
31.281 51.93 m f
31.035 178.059 m 53.535 178.059 l 53.578 153.699 l 31.078 153.652 l h
31.035 178.059 m f
0.498039 0.239216 0.196078 rg
93.309 178.176 m 92.949 361.41 l 92.945 365.211 91.434 368.855 88.746 371.543
 c 86.059 374.23 82.414 375.738 78.609 375.738 c 74.809 375.738 71.164 374.227
 68.477 371.539 c 65.789 368.852 64.281 365.203 64.281 361.402 c 64.281 
361.359 l 64.641 178.125 l h
93.309 178.176 m f
93.621 22.613 m 93.621 22.641 l 93.562 52.059 l 64.898 51.996 l 64.949 
22.59 l 64.953 18.789 66.465 15.141 69.156 12.457 c 71.848 9.77 75.496 8.262
 79.297 8.266 c 83.102 8.27 86.746 9.781 89.43 12.473 c 92.117 15.164 93.625
 18.809 93.621 22.613 c h
93.621 22.613 m f
0.737255 0.368627 0.317647 rg
93.512 76.453 m 93.359 153.781 l 117.27 153.824 l 117.422 76.508 l h
93.512 76.453 m f
40.125 153.676 m 40.281 76.359 l 64.852 76.406 l 64.695 153.727 l h
40.125 153.676 m f
0.498039 0.239216 0.196078 rg
93.512 76.453 m 93.359 153.781 l 64.695 153.719 l 64.844 76.402 l h
93.512 76.453 m f
0.780392 0.603922 0.513726 rg
117.332 129.855 m 117.387 102.43 l 324.719 102.844 l 324.664 130.27 l h
117.332 129.855 m f
0.156863 0.258824 0.407843 rg
31.027 182.559 m 60.137 182.617 l 59.777 361.352 l 59.75 371.758 68.164
 380.219 78.574 380.25 c 78.613 380.25 l 89.008 380.242 97.43 371.82 97.445
 361.426 c 97.801 182.691 l 337.543 183.172 l 337.582 183.172 l 348.445 
183.148 357.25 174.348 357.273 163.484 c 357.465 67.812 l 357.484 56.934
 348.695 48.09 337.816 48.047 c 98.07 47.566 l 98.121 22.656 l 98.137 17.656
 96.164 12.855 92.641 9.309 c 89.113 5.762 84.324 3.762 79.324 3.75 c 79.285
 3.75 l 68.891 3.758 60.465 12.18 60.453 22.574 c 60.402 47.484 l 31.297
 47.43 l 31.285 47.43 l 28.805 47.43 26.793 49.438 26.785 51.918 c 26.738
 76.32 l 26.734 78.809 28.742 80.824 31.23 80.832 c 35.77 80.84 l 35.633
 149.16 l 31.094 149.152 l 31.082 149.152 l 28.602 149.152 26.59 151.16 
26.582 153.645 c 26.535 178.051 l 26.531 180.535 28.543 182.551 31.027 182.559
 c h
88.445 361.402 m 88.441 366.836 84.043 371.238 78.613 371.25 c 78.59 371.25
 l 75.98 371.242 73.477 370.195 71.637 368.34 c 69.797 366.484 68.77 363.977
 68.777 361.363 c 69.137 182.633 l 88.801 182.672 l h
69.453 22.598 m 69.457 17.164 73.855 12.762 79.285 12.75 c 79.305 12.75
 l 81.918 12.758 84.418 13.805 86.262 15.66 c 88.102 17.516 89.129 20.023
 89.117 22.637 c 89.07 47.551 l 69.402 47.512 l h
35.574 158.164 m 310.738 158.711 l 310.773 158.711 l 320.902 158.703 329.113
 150.496 329.125 140.367 c 329.223 90.809 l 329.238 80.672 321.047 72.434
 310.91 72.391 c 35.746 71.844 l 35.773 56.441 l 337.793 57.039 l 343.707
 57.07 348.48 61.879 348.465 67.789 c 348.273 163.461 l 348.266 169.367 
343.484 174.148 337.582 174.168 c 337.562 174.168 l 35.543 173.566 l h
44.633 149.184 m 44.77 80.859 l 60.336 80.891 l 60.199 149.211 l h
69.199 149.23 m 69.336 80.91 l 89.004 80.949 l 88.867 149.273 l h
97.867 149.289 m 98.004 80.961 l 112.914 80.992 l 112.777 149.316 l h
320.191 107.324 m 320.152 125.75 l 121.824 125.355 l 121.863 106.93 l h
121.879 97.93 m 121.914 81.016 l 310.891 81.391 l 316.062 81.414 320.238
 85.617 320.223 90.789 c 320.207 98.324 l h
320.137 134.758 m 320.125 140.352 l 320.121 145.52 315.941 149.707 310.773
 149.715 c 310.754 149.715 l 121.777 149.34 l 121.809 134.363 l h
320.137 134.758 m f
341.941 143.902 m 345.406 140.426 341.574 134.703 337.039 136.586 c 332.504
 138.469 333.848 145.223 338.762 145.223 c 339.953 145.219 341.094 144.746
 341.941 143.902 c h
341.941 143.902 m f
338.762 130.523 m 343.691 130.531 345.051 123.746 340.496 121.852 c 335.938
 119.961 332.09 125.715 335.578 129.203 c 336.422 130.047 337.566 130.52
 338.762 130.523 c h
338.762 130.523 m f
338.762 115.824 m 343.691 115.828 345.051 109.043 340.496 107.152 c 335.938
 105.262 332.09 111.016 335.578 114.504 c 336.422 115.348 337.566 115.82
 338.762 115.824 c h
338.762 115.824 m f
338.762 101.121 m 343.691 101.129 345.051 94.344 340.496 92.453 c 335.938
 90.562 332.09 96.312 335.578 99.801 c 336.422 100.645 337.566 101.121 338.762
 101.121 c h
338.762 101.121 m f
Q Q
showpage
%%Trailer
end
%%EOF
