%!PS-Adobe-3.0 EPSF-3.0
%%Creator: cairo 1.16.0 (https://cairographics.org)
%%CreationDate: Tue Feb  2 14:48:26 2021
%%Pages: 1
%%DocumentData: Clean7Bit
%%LanguageLevel: 2
%%BoundingBox: 3 3 381 381
%%EndComments
%%BeginProlog
50 dict begin
/q { gsave } bind def
/Q { grestore } bind def
/cm { 6 array astore concat } bind def
/w { setlinewidth } bind def
/J { setlinecap } bind def
/j { setlinejoin } bind def
/M { setmiterlimit } bind def
/d { setdash } bind def
/m { moveto } bind def
/l { lineto } bind def
/c { curveto } bind def
/h { closepath } bind def
/re { exch dup neg 3 1 roll 5 3 roll moveto 0 rlineto
      0 exch rlineto 0 rlineto closepath } bind def
/S { stroke } bind def
/f { fill } bind def
/f* { eofill } bind def
/n { newpath } bind def
/W { clip } bind def
/W* { eoclip } bind def
/BT { } bind def
/ET { } bind def
/BDC { mark 3 1 roll /BDC pdfmark } bind def
/EMC { mark /EMC pdfmark } bind def
/cairo_store_point { /cairo_point_y exch def /cairo_point_x exch def } def
/Tj { show currentpoint cairo_store_point } bind def
/TJ {
  {
    dup
    type /stringtype eq
    { show } { -0.001 mul 0 cairo_font_matrix dtransform rmoveto } ifelse
  } forall
  currentpoint cairo_store_point
} bind def
/cairo_selectfont { cairo_font_matrix aload pop pop pop 0 0 6 array astore
    cairo_font exch selectfont cairo_point_x cairo_point_y moveto } bind def
/Tf { pop /cairo_font exch def /cairo_font_matrix where
      { pop cairo_selectfont } if } bind def
/Td { matrix translate cairo_font_matrix matrix concatmatrix dup
      /cairo_font_matrix exch def dup 4 get exch 5 get cairo_store_point
      /cairo_font where { pop cairo_selectfont } if } bind def
/Tm { 2 copy 8 2 roll 6 array astore /cairo_font_matrix exch def
      cairo_store_point /cairo_font where { pop cairo_selectfont } if } bind def
/g { setgray } bind def
/rg { setrgbcolor } bind def
/d1 { setcachedevice } bind def
/cairo_data_source {
  CairoDataIndex CairoData length lt
    { CairoData CairoDataIndex get /CairoDataIndex CairoDataIndex 1 add def }
    { () } ifelse
} def
/cairo_flush_ascii85_file { cairo_ascii85_file status { cairo_ascii85_file flushfile } if } def
/cairo_image { image cairo_flush_ascii85_file } def
/cairo_imagemask { imagemask cairo_flush_ascii85_file } def
%%EndProlog
%%BeginSetup
%%EndSetup
%%Page: 1 1
%%BeginPageSetup
%%PageBoundingBox: 3 3 381 381
%%EndPageSetup
q 3 3 378 378 rectclip
1 0 0 -1 0 384 cm q
0.921569 0.447059 0.533333 rg
253.547 192 m 253.547 225.992 225.992 253.547 192 253.547 c 158.008 253.547
 130.453 225.992 130.453 192 c 130.453 158.008 158.008 130.453 192 130.453
 c 208.324 130.453 223.977 136.938 235.52 148.48 c 247.062 160.023 253.547
 175.676 253.547 192 c h
253.547 192 m f
0.372549 0.803922 0.643137 rg
274.004 191.969 m 274.004 192 l 274.008 198.051 273.344 204.082 272.023
 209.984 c 271.129 213.992 269.934 217.926 268.441 221.754 c 268.434 221.754
 l 249.367 214.328 l 252.137 207.211 253.555 199.637 253.547 192 c 253.547
 191.969 l h
274.004 191.969 m f
0.298039 0.662745 0.529412 rg
274.004 191.969 m 253.547 191.969 l 253.551 184.086 252.039 176.277 249.09
 168.969 c 268.066 161.316 l 268.074 161.316 l 272 171.059 274.012 181.465
 274.004 191.969 c h
274.004 191.969 m f
0.372549 0.803922 0.643137 rg
235.508 148.469 m 249.977 134.004 l 257.781 141.801 263.938 151.09 268.074
 161.316 c 268.066 161.316 l 249.09 168.969 l 245.988 161.293 241.363 154.32
 235.5 148.477 c h
235.508 148.469 m f
0.298039 0.662745 0.529412 rg
249.977 134.004 m 235.508 148.469 l 235.5 148.477 l 229.504 142.465 222.324
 137.766 214.418 134.672 c 214.418 134.664 l 221.871 115.613 l 221.871 115.605
 l 232.406 119.738 241.973 126 249.977 134.004 c h
249.977 134.004 m f
0.372549 0.803922 0.643137 rg
221.871 115.605 m 221.871 115.613 l 214.418 134.664 l 207.273 131.871 199.668
 130.445 192 130.453 c 192 109.996 l 198.105 109.992 204.195 110.668 210.148
 112.012 c 214.141 112.914 218.062 114.113 221.871 115.605 c h
221.871 115.605 m f
0.298039 0.662745 0.529412 rg
192 109.996 m 192 130.453 l 183.758 130.441 175.598 132.094 168.008 135.309
 c 160.027 116.461 l 164.551 114.543 169.234 113.043 174.031 111.977 c 179.93
 110.656 185.957 109.992 192 109.996 c h
192 109.996 m f
0.372549 0.803922 0.643137 rg
160.027 116.461 m 168.008 135.309 l 160.715 138.398 154.094 142.871 148.5
 148.477 c 148.492 148.469 l 134.031 134.012 l 134.023 134.004 l 138.359
 129.668 143.168 125.832 148.359 122.566 c 152.074 120.215 155.977 118.172
 160.027 116.461 c h
160.027 116.461 m f
0.298039 0.662745 0.529412 rg
134.031 134.012 m 148.492 148.469 l 148.5 148.477 l 142.465 154.492 137.75
 161.691 134.648 169.629 c 115.59 162.203 l 115.574 162.195 l 119.711 151.625
 125.992 142.023 134.023 134.004 c h
134.031 134.012 m f
0.372549 0.803922 0.643137 rg
115.59 162.203 m 134.648 169.629 l 131.871 176.75 130.449 184.328 130.453
 191.969 c 109.996 191.969 l 109.984 181.785 111.879 171.688 115.574 162.195
 c h
115.59 162.203 m f
0.298039 0.662745 0.529412 rg
134.895 214.98 m 115.914 222.629 l 114.234 218.469 112.902 214.18 111.938
 209.797 c 110.641 203.953 109.988 197.984 109.996 192 c 109.996 191.969
 l 130.453 191.969 l 130.453 192 l 130.445 199.875 131.953 207.676 134.895
 214.98 c h
134.895 214.98 m f
0.372549 0.803922 0.643137 rg
148.477 235.5 m 148.469 235.508 l 134.004 249.977 l 129.676 245.648 125.844
 240.852 122.578 235.672 c 119.969 231.535 117.734 227.172 115.914 222.629
 c 134.895 214.98 l 137.988 222.668 142.609 229.648 148.477 235.5 c h
148.477 235.5 m f
0.298039 0.662745 0.529412 rg
148.477 235.5 m 154.469 241.52 161.648 246.227 169.559 249.324 c 162.105
 268.379 l 162.105 268.387 l 157.18 266.457 152.449 264.055 147.988 261.211
 c 142.934 257.984 138.242 254.219 134.004 249.977 c 148.469 235.508 l h
148.477 235.5 m f
0.372549 0.803922 0.643137 rg
192 253.547 m 192 274.004 l 181.773 274.012 171.633 272.105 162.105 268.387
 c 162.105 268.379 l 169.559 249.324 l 176.711 252.125 184.32 253.555 192
 253.547 c h
192 253.547 m f
0.298039 0.662745 0.529412 rg
223.996 267.523 m 219.449 269.457 214.734 270.969 209.91 272.039 c 204.031
 273.352 198.023 274.012 192 274.004 c 192 253.547 l 200.25 253.555 208.418
 251.902 216.016 248.684 c h
223.996 267.523 m f
0.372549 0.803922 0.643137 rg
249.996 249.977 m 245.711 254.262 240.965 258.066 235.844 261.316 c 232.074
 263.707 228.109 265.785 223.996 267.523 c 216.016 248.684 l 223.309 245.59
 229.93 241.113 235.523 235.5 c 235.531 235.508 l h
249.996 249.977 m f
0.298039 0.662745 0.529412 rg
261.324 235.836 m 258.078 240.953 254.281 245.691 249.996 249.977 c 235.531
 235.508 l 235.523 235.5 l 241.559 229.48 246.273 222.27 249.367 214.328
 c 268.434 221.754 l 268.441 221.754 l 266.523 226.664 264.141 231.383 261.324
 235.836 c h
261.324 235.836 m f
0.929412 0.717647 0.25098 rg
355.344 191.969 m 355.344 192 l 355.344 193.629 355.32 195.254 355.266 
196.867 c 355.176 196.867 l 272.023 209.984 l 273.344 204.082 274.008 198.051
 274.004 192 c 274.004 191.969 l 274.008 185.898 273.34 179.844 272.004 
173.918 c 355.176 191.004 l 355.336 191.004 l 355.344 191.324 355.344 191.648
 355.344 191.969 c h
355.344 191.969 m f
306.773 75.871 m 306.816 75.824 l 307.043 76.043 307.266 76.266 307.484
 76.484 c 308.648 77.648 309.797 78.824 310.914 80.023 c 261.328 148.184
 l 254.812 137.895 246.094 129.176 235.801 122.664 c h
306.773 75.871 m f
197.012 28.734 m 210.148 112.012 l 198.262 109.336 185.926 109.324 174.031
 111.977 c 174.031 111.969 l 191.137 28.688 l 191.137 28.664 l 191.422 28.656
 191.715 28.656 192 28.656 c 193.68 28.656 195.344 28.68 197.012 28.734 
c h
197.012 28.734 m f
80.168 72.953 m 148.359 122.566 l 138.051 129.055 129.309 137.754 122.766
 148.027 c 76.004 77.094 l 75.961 77.047 l 76.141 76.859 76.328 76.672 76.516
 76.484 c 77.715 75.285 78.934 74.109 80.168 72.953 c h
80.168 72.953 m f
28.824 192.727 m 28.664 192.727 l 28.656 192.488 28.656 192.238 28.656 
192 c 28.656 191.969 l 28.656 190.262 28.684 188.559 28.738 186.863 c 28.824
 186.863 l 112.035 173.738 l 110.676 179.719 109.992 185.836 109.996 191.969
 c 109.996 192 l 109.988 197.984 110.641 203.953 111.938 209.797 c 111.93
 209.797 l h
28.824 192.727 m f
77.227 307.859 m 77.047 308.039 l 76.859 307.859 76.672 307.672 76.484 
307.484 c 75.285 306.285 74.109 305.066 72.953 303.832 c 73.078 303.711 
l 122.578 235.672 l 129.066 245.953 137.742 254.676 147.988 261.211 c h
77.227 307.859 m f
192 355.344 m 190.32 355.344 188.656 355.32 186.988 355.266 c 186.996 355.043
 l 173.895 272.004 l 173.895 271.996 l 185.75 274.66 198.047 274.676 209.91
 272.039 c 192.863 355.043 l 192.863 355.336 l 192.578 355.344 192.285 355.344
 192 355.344 c h
192 355.344 m f
307.996 306.637 m 308.176 306.816 l 307.957 307.043 307.734 307.266 307.516
 307.484 c 306.352 308.648 305.172 309.793 303.977 310.922 c 303.848 310.785
 l 235.844 261.316 l 246.109 254.801 254.809 246.102 261.324 235.836 c h
307.996 306.637 m f
0.372549 0.803922 0.643137 rg
363.188 258.676 m 363.27 258.703 l 354.016 282.406 339.941 303.93 321.945
 321.914 c 321.906 321.887 l 307.516 307.484 l 307.734 307.266 307.957 307.043
 308.176 306.816 c 323.863 290.965 336.137 272.07 344.242 251.297 c h
363.188 258.676 m f
0.298039 0.662745 0.529412 rg
375.719 191.969 m 375.75 191.969 l 375.75 192 l 375.777 214.816 371.543
 237.441 363.27 258.703 c 363.188 258.676 l 344.242 251.297 l 351.012 233.918
 354.742 215.508 355.266 196.867 c 355.32 195.254 355.344 193.629 355.344
 192 c 355.344 191.969 l h
375.719 191.969 m f
0.372549 0.803922 0.643137 rg
375.75 191.969 m 355.344 191.969 l 355.344 191.648 355.344 191.324 355.336
 191.004 c 355.242 170.406 351.234 150.016 343.531 130.914 c 362.406 123.309
 l 362.469 123.285 l 371.266 145.113 375.773 168.434 375.75 191.969 c h
375.75 191.969 m f
0.298039 0.662745 0.529412 rg
321.914 62.055 m 339.414 79.531 353.207 100.355 362.469 123.285 c 362.406
 123.309 l 343.531 130.914 l 335.922 112.066 324.859 94.809 310.914 80.023
 c 309.797 78.824 308.648 77.648 307.484 76.484 c h
321.914 62.055 m f
0.372549 0.803922 0.643137 rg
321.914 62.055 m 307.484 76.484 l 307.266 76.266 307.043 76.043 306.816
 75.824 c 291.023 60.195 272.207 47.953 251.52 39.848 c 258.938 20.879 l
 258.961 20.828 l 282.562 30.086 303.996 44.121 321.914 62.055 c h
321.914 62.055 m f
0.298039 0.662745 0.529412 rg
197.012 28.734 m 195.344 28.68 193.68 28.656 192 28.656 c 192 8.25 l 214.91
 8.219 237.621 12.488 258.961 20.828 c 258.938 20.879 l 251.52 39.848 l 
234.125 33.035 215.684 29.277 197.012 28.734 c h
197.012 28.734 m f
0.372549 0.803922 0.643137 rg
192 8.25 m 192 28.656 l 191.715 28.656 191.422 28.656 191.137 28.664 c 
169.543 28.746 148.184 33.125 128.301 41.551 c 120.367 22.793 l 120.344 
22.746 l 143.012 13.148 167.383 8.215 192 8.25 c h
192 8.25 m f
0.298039 0.662745 0.529412 rg
80.168 72.953 m 78.93 74.109 77.711 75.285 76.516 76.484 c 62.086 62.055
 l 78.797 45.332 98.578 31.984 120.344 22.746 c 120.367 22.793 l 128.301
 41.551 l 110.527 49.086 94.227 59.719 80.168 72.953 c h
80.168 72.953 m f
0.372549 0.803922 0.643137 rg
76.516 76.484 m 76.328 76.672 76.141 76.859 75.961 77.047 c 60.223 92.914
 47.906 111.844 39.773 132.66 c 20.812 125.273 l 20.754 125.25 l 30.012 
101.551 44.086 80.035 62.086 62.055 c h
76.516 76.484 m f
0.298039 0.662745 0.529412 rg
20.812 125.273 m 39.773 132.66 l 33.027 149.965 29.297 168.297 28.738 186.863
 c 28.691 188.559 28.664 190.262 28.656 191.969 c 8.25 191.969 l 8.227 169.145
 12.469 146.52 20.754 125.25 c h
20.812 125.273 m f
0.372549 0.803922 0.643137 rg
8.281 191.969 m 28.656 191.969 l 28.656 192 l 28.656 192.238 28.656 192.488
 28.664 192.727 c 28.73 213.398 32.727 233.867 40.449 253.043 c 21.594 260.641
 l 21.516 260.672 l 12.727 238.844 8.223 215.531 8.25 192 c 8.25 191.969
 l h
8.281 191.969 m f
0.298039 0.662745 0.529412 rg
76.484 307.484 m 62.094 321.887 l 62.055 321.914 l 44.562 304.434 30.773
 283.605 21.516 260.672 c 21.594 260.641 l 40.449 253.043 l 48.039 271.844
 59.059 289.066 72.953 303.832 c 74.109 305.07 75.285 306.289 76.484 307.484
 c h
76.484 307.484 m f
0.372549 0.803922 0.643137 rg
125.023 363.164 m 101.414 353.906 79.977 339.859 62.055 321.914 c 62.094
 321.887 l 76.484 307.484 l 76.672 307.672 76.859 307.859 77.047 308.039
 c 92.863 323.73 111.723 336.016 132.465 344.145 c 132.465 344.152 l 125.062
 363.066 l h
125.023 363.164 m f
0.298039 0.662745 0.529412 rg
192 375.699 m 192 375.75 l 169.086 375.777 146.367 371.508 125.023 363.164
 c 125.062 363.066 l 132.465 344.152 l 149.867 350.961 168.312 354.719 186.988
 355.266 c 188.656 355.32 190.32 355.344 192 355.344 c h
192 375.699 m f
0.372549 0.803922 0.643137 rg
263.633 361.156 m 263.672 361.246 l 240.996 370.848 216.621 375.781 192
 375.75 c 192 355.344 l 192.285 355.344 192.578 355.344 192.863 355.336 
c 214.461 355.254 235.824 350.875 255.711 342.449 c h
263.633 361.156 m f
0.298039 0.662745 0.529412 rg
321.945 321.914 m 305.23 338.652 285.445 352.004 263.672 361.246 c 263.633
 361.156 l 255.711 342.449 l 273.539 334.879 289.883 324.203 303.977 310.922
 c 305.176 309.797 306.355 308.648 307.516 307.484 c 321.906 321.887 l h
321.945 321.914 m f
0.427451 0.454902 0.52549 rg
166.273 166.613 m 169.008 166.613 171.469 168.262 172.512 170.785 c 173.555
 173.309 172.977 176.215 171.043 178.145 c 169.113 180.074 166.207 180.652
 163.684 179.605 c 161.16 178.559 159.516 176.094 159.516 173.363 c 159.52
 169.633 162.547 166.613 166.273 166.613 c h
166.273 166.613 m f
217.727 166.613 m 220.457 166.613 222.918 168.262 223.961 170.785 c 225.008
 173.309 224.426 176.215 222.496 178.145 c 220.562 180.074 217.656 180.652
 215.133 179.605 c 212.609 178.559 210.965 176.094 210.969 173.363 c 210.973
 169.633 213.996 166.613 217.727 166.613 c h
217.727 166.613 m f
0.756863 0.403922 0.482353 rg
152.953 192 m 152.961 162.352 174.102 136.922 203.25 131.5 c 185.262 128.141
 166.711 132.965 152.633 144.656 c 138.559 156.348 130.414 173.699 130.414
 192 c 130.414 210.301 138.559 227.652 152.633 239.344 c 166.711 251.035
 185.262 255.859 203.25 252.5 c 174.102 247.078 152.961 221.648 152.953 
192 c h
152.953 192 m f
0.156863 0.258824 0.407843 rg
166.273 184.621 m 170.828 184.621 174.93 181.879 176.672 177.672 c 178.414
 173.465 177.453 168.625 174.234 165.406 c 171.016 162.188 166.172 161.223
 161.969 162.965 c 157.762 164.707 155.02 168.812 155.02 173.363 c 155.027
 179.578 160.062 184.613 166.273 184.621 c h
166.273 171.109 m 168.285 171.109 169.289 173.539 167.871 174.961 c 166.449
 176.379 164.02 175.375 164.02 173.363 c 164.02 172.121 165.031 171.109 
166.273 171.109 c h
166.273 171.109 m f
217.727 184.621 m 222.277 184.621 226.383 181.879 228.125 177.672 c 229.867
 173.465 228.902 168.625 225.684 165.406 c 222.465 162.188 217.625 161.223
 213.418 162.965 c 209.211 164.707 206.469 168.812 206.469 173.363 c 206.477
 179.578 211.512 184.613 217.727 184.621 c h
217.727 171.109 m 219.734 171.109 220.742 173.539 219.32 174.961 c 217.898
 176.379 215.469 175.375 215.469 173.363 c 215.473 172.121 216.48 171.109
 217.727 171.109 c h
217.727 171.109 m f
227.762 213.898 m 229.172 211.84 228.633 209.027 226.566 207.629 c 224.5
 206.23 221.688 206.785 220.305 208.863 c 213.957 218.27 203.352 223.91 
192 223.91 c 180.648 223.91 170.043 218.27 163.695 208.863 c 162.312 206.785
 159.5 206.23 157.434 207.629 c 155.367 209.027 154.828 211.84 156.238 213.898
 c 164.258 225.785 177.66 232.91 192 232.91 c 206.34 232.91 219.742 225.785
 227.762 213.898 c h
227.762 213.898 m f
192 3.75 m 115.859 3.75 47.219 49.617 18.078 119.961 c -11.059 190.305 
5.047 271.273 58.887 325.113 c 132.402 398.629 251.598 398.629 325.113 325.113
 c 398.629 251.598 398.629 132.402 325.113 58.887 c 289.887 23.469 241.953
 3.613 192 3.75 c h
261.504 26.676 m 281.508 35.105 299.809 47.105 315.516 62.094 c 307.441
 70.168 l 292.852 56.293 275.883 45.164 257.34 37.312 c h
148.617 117.188 m 87.352 72.613 l 114.613 48.617 149.305 34.734 185.594
 33.301 c 170.195 108.281 l 162.633 110.254 155.371 113.25 148.617 117.188
 c h
187.5 114.629 m 187.5 126.109 l 181.691 126.5 175.965 127.66 170.461 129.562
 c 165.984 118.992 l 172.914 116.516 180.156 115.047 187.5 114.629 c h
134.121 243.484 m 129.195 237.957 125.086 231.754 121.914 225.066 c 132.562
 220.773 l 135.129 226.047 138.383 230.957 142.238 235.375 c h
148.598 241.738 m 153.18 245.746 158.297 249.102 163.797 251.715 c 159.613
 262.406 l 152.652 259.188 146.207 254.957 140.488 249.855 c h
126.109 196.473 m 126.473 201.898 127.508 207.258 129.191 212.43 c 118.543
 216.723 l 116.336 210.176 115.023 203.367 114.633 196.473 c h
114.633 187.473 m 115.012 180.879 116.238 174.359 118.281 168.078 c 128.977
 172.242 l 127.426 177.188 126.465 182.301 126.113 187.473 c h
132.258 163.863 m 121.562 159.695 l 124.785 152.703 129.027 146.23 134.152
 140.484 c 142.266 148.598 l 138.238 153.199 134.871 158.336 132.258 163.863
 c h
140.516 134.121 m 145.703 129.504 151.484 125.598 157.707 122.512 c 162.18
 133.082 l 157.305 135.559 152.75 138.633 148.629 142.23 c h
140.594 122.477 m 133.883 127.449 127.922 133.363 122.891 140.035 c 84.332
 81.547 l h
117.465 148.152 m 113.473 154.906 110.426 162.172 108.402 169.754 c 33.512
 181.566 l 35.879 145.301 50.656 110.953 75.363 84.297 c h
106.344 204.055 m 37.859 189.992 l 106.449 179.176 l 105.215 187.422 105.18
 195.801 106.34 204.059 c h
108.238 213.633 m 110.211 221.27 113.23 228.598 117.203 235.41 c 72.633
 296.672 l 48.59 269.363 34.695 234.602 33.293 198.242 c h
122.496 243.438 m 127.461 250.125 133.355 256.07 140.004 261.086 c 81.684
 299.535 l h
148.117 266.516 m 154.93 270.547 162.266 273.617 169.918 275.645 c 181.727
 350.5 l 145.387 348.164 110.969 333.367 84.27 308.609 c h
167.992 265.691 m 172.172 255 l 177.148 256.57 182.293 257.539 187.5 257.891
 c 187.5 269.371 l 180.863 268.992 174.309 267.754 167.988 265.691 c h
134.953 192 m 134.953 168.926 148.852 148.125 170.168 139.297 c 191.484
 130.469 216.023 135.348 232.336 151.664 c 248.652 167.977 253.531 192.516
 244.703 213.832 c 235.875 235.148 215.074 249.047 192 249.047 c 160.508
 249.012 134.988 223.492 134.953 192 c h
241.766 235.375 m 245.789 230.766 249.152 225.621 251.766 220.09 c 262.465
 224.258 l 259.242 231.254 255.004 237.734 249.879 243.484 c h
243.516 249.848 m 238.328 254.473 232.543 258.383 226.316 261.473 c 221.84
 250.902 l 226.723 248.418 231.277 245.34 235.402 241.734 c h
249.852 140.48 m 254.777 146.004 258.891 152.203 262.062 158.887 c 251.414
 163.176 l 248.848 157.91 245.594 153.004 241.738 148.594 c h
235.375 142.23 m 230.797 138.23 225.684 134.883 220.191 132.277 c 224.371
 121.586 l 231.328 124.797 237.77 129.023 243.488 134.121 c h
255.047 211.703 m 256.594 206.758 257.551 201.641 257.895 196.469 c 269.375
 196.469 l 269 203.066 267.781 209.586 265.742 215.871 c h
257.891 187.469 m 257.523 182.043 256.484 176.688 254.793 171.52 c 265.445
 167.227 l 267.652 173.77 268.973 180.578 269.367 187.469 c h
261.41 140.426 m 256.418 133.727 250.492 127.781 243.812 122.766 c 302.32
 84.195 l h
235.672 117.352 m 228.934 113.391 221.688 110.367 214.133 108.367 c 202.32
 33.5 l 238.566 35.84 272.898 50.574 299.566 75.23 c h
215.992 118.301 m 211.812 128.988 l 206.84 127.422 201.699 126.457 196.5
 126.109 c 196.5 114.629 l 203.129 115.008 209.68 116.242 215.992 118.301
 c h
196.5 257.891 m 202.316 257.5 208.051 256.336 213.559 254.43 c 218.035 
265 l 211.102 267.48 203.852 268.949 196.5 269.371 c h
235.586 266.691 m 296.816 311.238 l 269.516 335.336 234.734 349.273 198.348
 350.699 c 213.75 275.734 l 221.41 273.738 228.758 270.699 235.586 266.691
 c h
243.598 261.391 m 250.273 256.41 256.203 250.5 261.207 243.84 c 299.668
 302.18 l h
266.621 235.703 m 270.621 228.906 273.668 221.59 275.672 213.965 c 350.504
 202.16 l 348.195 238.473 333.445 272.883 308.738 299.59 c h
277.617 179.668 m 346.137 193.738 l 277.586 204.551 l 278.793 196.301 278.805
 187.918 277.617 179.668 c h
275.684 170.082 m 273.695 162.492 270.672 155.211 266.707 148.441 c 311.258
 87.207 l 335.309 114.461 349.234 149.168 350.699 185.484 c h
196.5 12.805 m 215.824 13.258 234.945 16.836 253.125 23.398 c 248.965 34.031
 l 232.113 27.98 214.398 24.672 196.5 24.227 c h
193.875 37.727 m 204.711 106.434 l 196.449 105.207 188.051 105.184 179.777
 106.363 c h
187.5 12.805 m 187.5 24.227 l 168.047 24.711 148.828 28.582 130.703 35.668
 c 126.254 25.152 l 145.785 17.477 166.52 13.297 187.5 12.805 c h
117.965 28.66 m 122.418 39.18 l 105.52 46.895 90.023 57.367 76.559 70.168
 c 68.484 62.094 l 82.992 48.258 99.715 36.957 117.965 28.66 c h
62.121 68.457 m 70.195 76.531 l 56.262 91.172 45.094 108.215 37.234 126.84
 c 26.594 122.691 l 35.031 102.598 47.07 84.219 62.121 68.457 c h
23.324 131.078 m 33.961 135.227 l 27.961 152.012 24.672 169.648 24.227 
187.473 c 12.805 187.473 l 13.258 168.23 16.812 149.188 23.324 131.078 c
 h
12.805 196.473 m 24.219 196.473 l 24.68 214.945 28.195 233.211 34.617 250.539
 c 24.023 254.805 l 17.062 236.121 13.27 216.406 12.805 196.473 c h
27.387 263.152 m 37.977 258.887 l 45.785 276.828 56.684 293.262 70.168 
307.441 c 62.094 315.516 l 47.527 300.246 35.773 282.52 27.387 263.152 c
 h
122.477 357.312 m 102.465 348.883 84.16 336.875 68.453 321.879 c 76.527
 313.805 l 91.117 327.688 108.09 338.824 126.637 346.68 c h
187.5 371.195 m 168.172 370.742 149.043 367.164 130.859 360.594 c 135.02
 349.961 l 151.875 356.016 169.594 359.328 187.5 359.773 c h
190.125 346.004 m 179.332 277.574 l 187.562 278.789 195.926 278.816 204.164
 277.645 c h
196.5 371.195 m 196.5 359.773 l 215.961 359.289 235.188 355.414 253.316
 348.324 c 257.77 358.84 l 238.23 366.52 217.488 370.703 196.5 371.195 c
 h
266.055 355.328 m 261.602 344.812 l 278.504 337.094 294.004 326.613 307.469
 313.805 c 315.539 321.879 l 301.035 335.723 284.309 347.031 266.055 355.328
 c h
321.906 315.516 m 313.832 307.441 l 327.766 292.793 338.93 275.742 346.785
 257.117 c 357.426 261.262 l 348.992 281.359 336.953 299.746 321.906 315.516
 c h
360.691 252.875 m 350.055 248.727 l 356.055 231.938 359.336 214.297 359.781
 196.473 c 371.195 196.473 l 370.75 215.715 367.203 234.762 360.691 252.875
 c h
371.191 187.473 m 359.773 187.473 l 359.309 169.004 355.789 150.738 349.363
 133.414 c 359.953 129.148 l 366.926 147.828 370.723 167.539 371.195 187.473
 c h
346.004 125.066 m 338.188 107.133 327.289 90.707 313.805 76.531 c 321.879
 68.461 l 336.445 83.723 348.199 101.441 356.594 120.801 c h
346.004 125.066 m f
Q Q
showpage
%%Trailer
end
%%EOF
