%!PS-Adobe-3.0 EPSF-3.0
%%Creator: cairo 1.16.0 (https://cairographics.org)
%%CreationDate: Tue Feb  2 14:48:27 2021
%%Pages: 1
%%DocumentData: Clean7Bit
%%LanguageLevel: 2
%%BoundingBox: 36 3 348 381
%%EndComments
%%BeginProlog
50 dict begin
/q { gsave } bind def
/Q { grestore } bind def
/cm { 6 array astore concat } bind def
/w { setlinewidth } bind def
/J { setlinecap } bind def
/j { setlinejoin } bind def
/M { setmiterlimit } bind def
/d { setdash } bind def
/m { moveto } bind def
/l { lineto } bind def
/c { curveto } bind def
/h { closepath } bind def
/re { exch dup neg 3 1 roll 5 3 roll moveto 0 rlineto
      0 exch rlineto 0 rlineto closepath } bind def
/S { stroke } bind def
/f { fill } bind def
/f* { eofill } bind def
/n { newpath } bind def
/W { clip } bind def
/W* { eoclip } bind def
/BT { } bind def
/ET { } bind def
/BDC { mark 3 1 roll /BDC pdfmark } bind def
/EMC { mark /EMC pdfmark } bind def
/cairo_store_point { /cairo_point_y exch def /cairo_point_x exch def } def
/Tj { show currentpoint cairo_store_point } bind def
/TJ {
  {
    dup
    type /stringtype eq
    { show } { -0.001 mul 0 cairo_font_matrix dtransform rmoveto } ifelse
  } forall
  currentpoint cairo_store_point
} bind def
/cairo_selectfont { cairo_font_matrix aload pop pop pop 0 0 6 array astore
    cairo_font exch selectfont cairo_point_x cairo_point_y moveto } bind def
/Tf { pop /cairo_font exch def /cairo_font_matrix where
      { pop cairo_selectfont } if } bind def
/Td { matrix translate cairo_font_matrix matrix concatmatrix dup
      /cairo_font_matrix exch def dup 4 get exch 5 get cairo_store_point
      /cairo_font where { pop cairo_selectfont } if } bind def
/Tm { 2 copy 8 2 roll 6 array astore /cairo_font_matrix exch def
      cairo_store_point /cairo_font where { pop cairo_selectfont } if } bind def
/g { setgray } bind def
/rg { setrgbcolor } bind def
/d1 { setcachedevice } bind def
/cairo_data_source {
  CairoDataIndex CairoData length lt
    { CairoData CairoDataIndex get /CairoDataIndex CairoDataIndex 1 add def }
    { () } ifelse
} def
/cairo_flush_ascii85_file { cairo_ascii85_file status { cairo_ascii85_file flushfile } if } def
/cairo_image { image cairo_flush_ascii85_file } def
/cairo_imagemask { imagemask cairo_flush_ascii85_file } def
%%EndProlog
%%BeginSetup
%%EndSetup
%%Page: 1 1
%%BeginPageSetup
%%PageBoundingBox: 36 3 348 381
%%EndPageSetup
q 36 3 312 378 rectclip
1 0 0 -1 0 384 cm q
0.921569 0.447059 0.533333 rg
341.992 342.172 m 342.719 343.488 342.871 345.043 342.414 346.473 c 341.957
 347.902 340.93 349.082 339.578 349.734 c 335.691 351.629 331.207 353.281
 326.859 353.699 c 319.762 354.375 301.379 352.328 293.551 357.285 c 285.719
 362.242 271.402 369.711 263.918 369.539 c 258 369.406 239.664 365.176 222.383
 371.738 c 210.051 376.426 184.266 377.664 174.137 371.871 c 164.004 366.082
 150.441 366.781 142.148 366.781 c 133.852 366.781 98.664 371.121 87.609
 357.488 c 80.844 349.141 58.312 349.02 47.578 350.191 c 45.465 350.418 
43.402 349.434 42.246 347.652 c 41.086 345.867 41.031 343.586 42.098 341.746
 c 43.777 338.828 45.391 335.91 46.941 332.992 c 46.949 332.992 l 57.684
 331.824 77.055 333.121 92.078 342.668 c 113.746 356.438 138.324 351.961
 146.617 351.961 c 154.914 351.961 168.465 351.27 178.605 357.051 c 188.746
 362.836 209.422 361.223 221.754 356.543 c 239.039 349.98 251.168 354.945
 257.078 355.078 c 264.562 355.254 282.211 348.594 290.039 343.637 c 297.871
 338.676 326.512 342.383 338.152 335.012 c 339.398 337.402 340.676 339.789
 341.992 342.172 c h
341.992 342.172 m f
0.533333 0.807843 0.847059 rg
318.27 290.078 m 324.023 305.426 330.664 320.43 338.152 335.012 c 326.512
 342.383 297.871 338.676 290.039 343.637 c 282.211 348.594 264.562 355.254
 257.078 355.078 c 251.168 354.945 239.039 349.98 221.754 356.543 c 209.422
 361.223 188.738 362.844 178.605 357.051 c 168.473 351.262 154.914 351.961
 146.617 351.961 c 138.324 351.961 113.746 356.438 92.078 342.668 c 77.055
 333.121 57.684 331.824 46.949 332.992 c 54.488 318.691 61.102 303.922 66.742
 288.773 c 66.742 288.773 82.621 286.02 92.078 298.199 c 102.84 312.074 
123.512 307.5 131.805 307.5 c 140.102 307.5 153.652 306.809 163.785 312.594
 c 173.918 318.375 196.004 317.137 208.336 312.457 c 225.613 305.895 243.953
 310.125 249.871 310.262 c 257.355 310.434 268.738 304.363 276.57 299.406
 c 284.398 294.449 294.234 296.191 301.32 295.516 c 312.809 294.422 318.262
 290.078 318.262 290.078 c h
318.27 290.078 m f
0.921569 0.447059 0.533333 rg
318.27 290.078 m 318.262 290.078 l 318.262 290.078 312.809 294.422 301.32
 295.516 c 294.234 296.191 284.398 294.449 276.57 299.406 c 268.738 304.363
 257.355 310.434 249.871 310.262 c 243.953 310.125 225.613 305.895 208.336
 312.457 c 196.004 317.137 173.926 318.383 163.785 312.594 c 153.645 306.801
 140.094 307.5 131.805 307.5 c 123.516 307.5 102.84 312.074 92.078 298.199
 c 82.621 286.02 66.742 288.773 66.742 288.773 c 68.609 283.828 70.359 278.953
 72.008 274.184 c 72.008 274.184 87.516 271.762 96.969 283.941 c 107.73 
297.816 123.512 292.68 131.805 292.68 c 140.102 292.68 153.652 291.988 163.785
 297.773 c 173.918 303.555 196.004 302.316 208.336 297.637 c 225.613 291.074
 243.953 295.305 249.871 295.441 c 257.355 295.613 268.738 289.547 276.57
 284.586 c 284.398 279.629 294.336 282.121 301.32 280.688 c 310.148 278.887
 313.266 276.516 313.266 276.516 c 313.273 276.516 l 314.859 280.973 316.523
 285.492 318.27 290.078 c h
318.27 290.078 m f
0.533333 0.807843 0.847059 rg
303.18 246.953 m 306.277 256.238 309.586 266.184 313.273 276.516 c 313.266
 276.516 l 313.266 276.516 310.148 278.887 301.32 280.688 c 294.336 282.121
 284.398 279.629 276.57 284.586 c 268.738 289.547 257.355 295.613 249.871
 295.441 c 243.953 295.305 225.613 291.074 208.336 297.637 c 196.004 302.316
 173.926 303.562 163.785 297.773 c 153.645 291.984 140.094 292.68 131.805
 292.68 c 123.516 292.68 107.73 297.816 96.969 283.941 c 87.516 271.762 
72.008 274.184 72.008 274.184 c 75.66 263.633 78.848 253.559 81.801 244.223
 c 81.809 244.223 l 82.051 244.125 92.594 240.262 102.391 253.738 c 112.305
 267.383 130.582 263.039 138.023 263.039 c 145.461 263.039 157.621 262.352
 166.703 268.133 c 175.785 273.914 195.594 272.676 206.656 267.996 c 222.156
 261.434 238.605 265.664 243.906 265.801 c 250.621 265.973 260.828 259.906
 267.855 254.949 c 274.883 249.988 283.688 251.73 290.047 251.047 c 300.352
 249.953 303.18 246.953 303.18 246.953 c h
303.18 246.953 m f
0.921569 0.447059 0.533333 rg
303.18 246.953 m 303.18 246.953 300.352 249.953 290.047 251.047 c 283.688
 251.73 274.875 249.984 267.855 254.949 c 260.836 259.914 250.621 265.973
 243.906 265.801 c 238.605 265.664 222.156 261.434 206.656 267.996 c 195.594
 272.676 175.793 273.922 166.703 268.133 c 157.613 262.344 145.453 263.039
 138.023 263.039 c 130.59 263.039 112.305 267.383 102.391 253.738 c 92.594
 240.262 82.051 244.125 81.809 244.223 c 83.477 238.965 85.074 233.941 86.641
 229.199 c 86.641 229.199 102.105 230.559 109.312 240.984 c 118.906 254.852
 130.582 248.219 138.023 248.219 c 145.461 248.219 157.621 247.531 166.703
 253.312 c 175.785 259.094 195.594 257.859 206.656 253.176 c 222.156 246.613
 238.605 250.844 243.906 250.98 c 250.621 251.152 260.828 245.086 267.855
 240.129 c 274.883 235.172 283.762 237.422 290.047 236.227 c 297.047 234.906
 298.621 233.43 298.621 233.43 c 300.105 237.742 301.621 242.266 303.18 
246.953 c h
303.18 246.953 m f
0.533333 0.807843 0.847059 rg
259.305 17.789 m 259.305 51.473 l 253.328 53.461 246.953 53.707 240.238
 55.172 c 240.238 17.789 l 240.238 15.262 241.246 12.836 243.031 11.051 
c 244.82 9.262 247.246 8.258 249.773 8.258 c 252.301 8.258 254.727 9.262
 256.512 11.051 c 258.301 12.836 259.305 15.262 259.305 17.789 c h
259.305 17.789 m f
143.762 17.789 m 143.762 57.074 l 137.039 55.926 130.605 56.004 124.5 54.352
 c 124.695 17.789 l 124.695 15.262 125.699 12.836 127.488 11.051 c 129.273
 9.262 131.699 8.258 134.227 8.258 c 136.754 8.258 139.18 9.262 140.969 
11.051 c 142.754 12.836 143.762 15.262 143.762 17.789 c h
143.762 17.789 m f
276.797 189.336 m 257.871 172.32 238.605 152.453 263.504 132.336 c 274.395
 123.539 276.914 115.074 276.156 104.527 c 271.812 102.176 l 260.828 96.234
 248.391 93.52 235.93 94.344 c 106.469 102.938 l 105.512 113.086 107.863
 122.754 119.73 132.336 c 144.621 152.453 125.355 172.32 106.434 189.336
 c 98.496 196.477 92.766 210.699 86.641 229.199 c 86.641 229.199 102.105
 230.559 109.312 240.984 c 118.906 254.852 130.582 248.219 138.023 248.219
 c 145.461 248.219 157.621 247.531 166.703 253.312 c 175.785 259.094 195.594
 257.859 206.656 253.176 c 222.156 246.613 238.605 250.844 243.906 250.98
 c 250.621 251.152 260.828 245.086 267.855 240.129 c 274.883 235.172 283.762
 237.422 290.047 236.227 c 297.047 234.906 298.621 233.43 298.621 233.43
 c 291.512 212.762 285.074 196.785 276.797 189.336 c h
276.797 189.336 m f
0.431373 0.666667 0.686275 rg
76.949 334.5 m 82.961 323.125 88.371 311.438 93.16 299.496 c 92.789 299.082
 92.43 298.652 92.078 298.199 c 82.621 286.02 66.742 288.773 66.742 288.773
 c 61.102 303.922 54.488 318.691 46.949 332.992 c 56.816 332.086 66.766 
333.008 76.297 335.723 c 76.547 335.25 76.773 334.828 76.941 334.5 c h
76.949 334.5 m f
102.391 253.879 m 92.594 240.402 82.051 244.504 81.809 244.504 c 81.801
 244.504 l 78.848 253.504 75.66 263.773 72.008 274.328 c 72.008 274.328 
87.516 271.836 96.969 284.016 c 97.457 284.648 97.961 285.191 98.469 285.746
 c 107.617 258.934 l 105.605 257.555 103.836 255.844 102.391 253.879 c h
102.391 253.879 m f
136.434 190.836 m 155.355 173.82 174.621 153.953 149.73 133.836 c 137.863
 124.254 135.512 114.586 136.469 104.438 c 142.27 100.562 l 106.469 102.938
 l 105.512 113.086 107.863 122.754 119.73 132.336 c 144.621 152.453 125.355
 172.32 106.434 189.336 c 98.496 196.477 92.766 210.699 86.641 229.199 c
 86.641 229.199 102.105 230.559 109.312 240.984 c 110.188 242.262 111.176
 243.457 112.266 244.562 c 113.766 239.809 115.215 235.145 116.641 230.84
 c 122.766 212.336 128.496 197.977 136.434 190.836 c h
136.434 190.836 m f
0.8 0.4 0.486275 rg
76.297 335.727 m 66.762 333.031 56.816 332.109 46.949 333 c 46.941 333 
l 45.391 336 43.777 338.832 42.098 341.75 c 41.027 343.586 41.086 345.871
 42.246 347.656 c 43.402 349.438 45.465 350.418 47.578 350.191 c 54.453 
349.492 61.379 349.488 68.25 350.18 c 68.281 350.121 68.309 350.062 68.344
 350 c 69.844 347.402 74.25 339.539 76.297 335.727 c h
76.297 335.727 m f
98.469 285.707 m 97.961 285.152 97.457 284.574 96.969 283.941 c 87.52 271.762
 72.012 274.184 72.012 274.184 c 70.359 278.953 68.613 283.828 66.746 288.773
 c 66.746 288.773 82.621 286.02 92.082 298.199 c 92.43 298.648 92.793 299.082
 93.164 299.496 c 94.402 296.426 95.594 293.379 96.746 290.348 c 97.332 
288.785 97.906 287.242 98.469 285.707 c h
98.469 285.707 m f
111.809 246 m 111.961 245.52 112.109 245.043 112.262 244.562 c 111.172 
243.457 110.184 242.262 109.309 240.984 c 102.102 230.559 86.637 229.199
 86.637 229.199 c 85.07 233.941 83.473 238.965 81.805 244.223 c 82.047 244.125
 92.59 240.262 102.387 253.738 c 103.832 255.746 105.598 257.5 107.613 258.93
 c 109.07 254.426 110.461 250.078 111.797 246 c h
111.809 246 m f
0.952941 0.807843 0.490196 rg
294.547 48.684 m 297.098 54.688 295.043 61.664 289.641 65.324 c 267.422
 80.469 229.801 90.422 187.125 90.422 c 146.871 90.422 111.113 81.562 88.539
 67.844 c 82.262 64.066 79.996 56.066 83.363 49.559 c 86.73 43.051 94.57
 40.281 101.281 43.223 c 123.516 53.109 153.781 59.184 187.125 59.184 c 
222.074 59.184 253.637 52.508 276.129 41.766 c 279.477 40.16 283.336 39.988
 286.812 41.293 c 290.289 42.602 293.086 45.27 294.547 48.684 c h
294.547 48.684 m f
0.298039 0.662745 0.529412 rg
293.805 72.426 m 298.254 80.004 294.629 90.074 286.172 92.422 c 285.953
 92.484 285.742 92.551 285.523 92.625 c 282.375 93.781 279.254 100.539 276.156
 104.52 c 276.156 104.527 l 275.07 105.93 273.988 106.988 272.91 107.332
 c 266.297 109.453 259.824 100.926 253.484 102.523 c 245.273 104.594 237.293
 116.617 229.566 117.898 c 218.453 119.738 207.855 110.43 197.797 110.895
 c 186.309 111.422 175.523 121.523 165.496 120.676 c 157.801 120.023 150.547
 108.668 143.762 107.445 c 133.828 105.668 124.891 113.754 117 111.293 c
 113.25 110.113 109.734 106.598 106.469 102.938 c 102.809 98.844 99.457 
94.574 96.426 93.238 c 95.414 92.797 94.441 92.414 93.496 92.094 c 89.777
 90.844 86.785 88.035 85.305 84.402 c 83.824 80.77 84 76.672 85.785 73.176
 c 88.539 67.844 l 111.113 81.562 146.871 90.422 187.125 90.422 c 229.801
 90.422 267.422 80.469 289.641 65.324 c h
293.805 72.426 m f
0.156863 0.258824 0.407843 rg
308.043 247.301 m 298.473 218.629 290.91 195.984 279.801 185.992 c 268.219
 175.57 255.883 163.512 256.176 152.273 c 256.328 146.613 259.645 141.238
 266.328 135.84 c 276.836 127.348 281.199 118.309 280.727 105.898 c 281.488
 104.809 282.234 103.637 282.988 102.449 c 284.176 100.574 286.156 97.453
 287.141 96.832 c 287.219 96.805 287.293 96.781 287.371 96.758 c 292.609
 95.305 296.859 91.477 298.859 86.422 c 301 81.109 300.566 75.102 297.684
 70.148 c 295.387 66.227 l 300.156 60.984 301.445 53.441 298.68 46.914 c
 296.75 42.383 293.055 38.84 288.445 37.102 c 283.84 35.363 278.723 35.582
 274.281 37.711 c 270.984 39.285 267.75 40.754 264 42.121 c 264 17.789 l
 264 9.918 257.621 3.539 249.75 3.539 c 241.879 3.539 235.5 9.918 235.5 
17.789 c 235.5 50.055 l 219.566 53.199 203.363 54.75 187.125 54.684 c 174.195
 54.719 161.277 53.742 148.5 51.762 c 148.5 17.789 l 148.508 9.988 142.188
 3.66 134.391 3.652 c 126.59 3.645 120.258 9.965 120.254 17.766 c 120.066
 45.371 l 114.297 43.625 108.641 41.535 103.125 39.109 c 94.996 35.527 85.465
 38.27 80.484 45.629 c 75.5 52.984 76.492 62.852 82.84 69.07 c 81.785 71.117
 l 79.41 75.719 79.148 81.125 81.074 85.934 c 83.039 90.828 87.035 94.629
 92.023 96.344 c 92.871 96.637 93.742 96.98 94.613 97.363 c 96.215 98.066
 98.887 101.121 101.242 103.82 c 101.852 104.516 l 101.211 117.051 106.02
 127.051 116.898 135.84 c 123.574 141.238 126.898 146.613 127.047 152.273
 c 127.348 163.512 115.008 175.57 103.422 185.992 c 92.402 195.902 85.684
 217.09 77.172 243.918 c 68.41 271.574 57.492 306 38.195 339.5 c 36.281 
342.809 36.391 346.91 38.477 350.109 c 40.559 353.312 44.266 355.07 48.066
 354.66 c 61.969 353.152 79.707 354.887 84.109 360.32 c 94.961 373.703 122.344
 372.262 137.051 371.488 c 139.188 371.375 141.031 371.277 142.152 371.277
 c 142.922 371.277 143.738 371.273 144.594 371.266 c 152.676 371.207 163.754
 371.129 171.906 375.785 c 177.512 378.984 186.352 380.285 195.484 380.285
 c 206.16 380.285 217.234 378.512 223.984 375.949 c 236.777 371.09 250.348
 372.637 258.457 373.559 c 260.676 373.812 262.43 374.012 263.82 374.043
 c 274.789 374.285 293.828 362.441 295.965 361.09 c 300.516 358.207 311.543
 358.289 318.84 358.344 c 322.203 358.367 325.105 358.391 327.293 358.18
 c 332.27 357.57 337.102 356.082 341.559 353.785 c 344.02 352.578 345.887
 350.422 346.719 347.809 c 347.551 345.211 347.27 342.383 345.941 340.004
 c 328.387 308.242 317.105 274.453 308.043 247.301 c h
244.5 17.789 m 244.777 11.074 254.723 11.074 255 17.789 c 255 45.219 l 
251.25 46.234 248.25 47.176 244.5 48.035 c h
129.191 17.789 m 129.332 11.059 139.359 11.059 139.5 17.789 c 139.5 50.172
 l 135.75 49.48 132.477 48.715 129.141 47.875 c h
86.812 52.926 m 87.637 50.426 89.48 48.391 91.891 47.324 c 94.297 46.258
 97.043 46.262 99.449 47.332 c 123.176 57.879 154.312 63.684 187.125 63.684
 c 221.652 63.684 253.945 57.344 278.059 45.828 c 280.316 44.738 282.918
 44.625 285.262 45.516 c 287.578 46.383 289.441 48.164 290.402 50.445 c 
292.102 54.477 290.719 59.148 287.102 61.605 c 285.027 63.016 282.75 64.375
 280.5 65.68 c 280.5 58.574 l 280.5 52.574 271.5 52.574 271.5 58.574 c 271.5
 70.191 l 267.102 72.156 262.594 73.871 258 75.324 c 258 66.512 l 258 60.512
 249 60.512 249 66.512 c 249 78.055 l 245.25 79.215 240.57 80.25 236.074
 81.164 c 235.445 71.559 l 235.266 69.094 233.121 67.242 230.656 67.426 
c 228.191 67.605 226.34 69.75 226.52 72.215 c 227.301 82.789 l 222.93 83.492
 218.469 84.082 213.91 84.551 c 213.633 74.48 l 213.598 71.969 211.516 69.973
 209.008 70.043 c 206.496 70.113 204.531 72.223 204.637 74.73 c 205.121 
85.32 l 200.738 85.621 195.746 85.805 191.996 85.883 c 191.996 75.488 l 
191.996 69.488 182.996 69.488 182.996 75.488 c 182.996 85.879 l 178.496 
85.805 173.891 85.613 169.5 85.309 c 169.703 74.734 l 169.781 68.777 160.891
 68.527 160.637 74.48 c 160.352 84.523 l 155.809 84.047 151.332 83.453 146.953
 82.742 c 147.719 72.215 l 148.152 66.227 139.176 65.574 138.738 71.559 
c 138.184 81.113 l 133.695 80.199 129 79.164 125.25 78.004 c 125.25 66.512
 l 125.25 60.512 116.25 60.512 116.25 66.512 c 116.25 75.281 l 111.66 73.832
 107.152 72.129 102.75 70.172 c 102.75 58.574 l 102.75 52.574 93.75 52.574
 93.75 58.574 c 93.75 65.668 l 93 65.117 91.809 64.566 90.875 63.996 c 87.078
 61.727 85.383 57.113 86.812 52.926 c h
98.234 89.121 m 97.141 88.641 96.043 88.211 94.969 87.84 c 92.449 86.977
 90.426 85.062 89.426 82.59 c 88.457 80.207 88.586 77.52 89.781 75.246 c
 90.375 74.094 l 114.609 87.367 149.504 94.922 187.129 94.922 c 226.828 
94.922 264.078 86.273 288.129 71.641 c 289.926 74.707 l 291.402 77.242 291.625
 80.32 290.527 83.043 c 289.582 85.508 287.523 87.379 284.98 88.082 c 284.648
 88.176 284.316 88.281 283.984 88.402 c 280.422 89.703 277.984 93.555 275.395
 97.629 c 274.254 99.43 272.359 102.418 271.402 103.086 c 269.77 103.504
 267.379 102.27 264.848 100.965 c 261.398 99.188 257.109 96.973 252.391 
98.164 c 247.332 99.438 242.91 103.238 238.633 106.91 c 235.141 109.91 231.527
 113.016 228.836 113.461 c 224.027 114.254 218.941 112.285 213.562 110.195
 c 208.441 108.203 203.145 106.152 197.594 106.398 c 191.164 106.695 185.371
 109.371 179.766 111.961 c 174.684 114.309 169.875 116.527 165.879 116.191
 c 163.223 115.969 159.66 112.934 156.512 110.258 c 152.785 107.086 148.938
 103.809 144.562 103.02 c 138.465 101.93 133.004 103.75 128.191 105.359 
c 124.281 106.668 120.902 107.797 118.348 107 c 115.094 105.98 111.34 101.688
 108.027 97.898 c 104.754 94.16 101.672 90.633 98.234 89.121 c h
109.445 192.684 m 123.121 180.383 136.445 167.105 136.047 152.035 c 135.824
 143.699 131.285 135.895 122.555 128.84 c 116.051 123.582 112.969 118.477
 111.645 113.688 c 112.895 114.492 114.246 115.129 115.66 115.586 c 120.992
 117.25 126.098 115.543 131.035 113.891 c 135.199 112.5 139.129 111.188 
142.965 111.875 c 144.945 112.23 147.988 114.82 150.672 117.105 c 154.848
 120.66 159.582 124.691 165.117 125.156 c 165.648 125.203 166.176 125.223
 166.703 125.223 c 172.504 125.223 178.102 122.637 183.535 120.125 c 188.352
 117.902 193.332 115.602 198 115.387 c 201.637 115.219 205.848 116.852 210.301
 118.578 c 216.277 120.902 223.051 123.527 230.297 122.336 c 235.473 121.477
 240.062 117.539 244.492 113.73 c 247.977 110.738 251.582 107.645 254.586
 106.887 c 256.004 106.527 258.398 107.766 260.715 108.961 c 263.766 110.535
 267.426 112.418 271.5 112.145 c 270.652 117.855 267.777 123.094 260.672
 128.836 c 251.941 135.891 247.402 143.695 247.184 152.035 c 246.785 167.109
 260.105 180.379 273.781 192.68 c 280.75 198.945 286.742 213.184 292.98 
230.938 c 292.023 231.211 290.785 231.508 289.211 231.809 c 287.227 232.086
 285.223 232.207 283.219 232.164 c 277.84 232.219 271.148 232.285 265.258
 236.445 c 256.207 242.836 248.27 246.566 244.02 246.477 c 243.18 246.457
 241.719 246.273 240.027 246.059 c 232.473 245.098 218.406 243.312 204.898
 249.031 c 194.957 253.238 176.785 254.395 169.125 249.516 c 159.75 243.543
 147.953 243.637 140.148 243.703 c 139.402 243.707 138.695 243.715 138.023
 243.715 c 135.871 243.785 133.727 244.043 131.617 244.488 c 124.738 245.715
 118.797 246.773 113.016 238.418 c 107.574 230.551 98.434 227.141 92.566
 225.703 c 97.852 210.301 102.949 198.523 109.445 192.684 c h
89.711 234.285 m 94.109 235.27 101.598 237.734 105.613 243.539 c 114.684
 256.656 125.824 254.668 133.195 253.348 c 134.785 253.012 136.398 252.801
 138.023 252.715 c 138.715 252.715 139.449 252.711 140.219 252.703 c 147.367
 252.648 157.156 252.57 164.293 257.109 c 169.324 260.316 176.809 261.703
 184.613 261.703 c 193.086 261.703 201.938 260.062 208.414 257.32 c 219.684
 252.547 231.711 254.074 238.898 254.988 c 240.91 255.242 242.504 255.445
 243.793 255.477 c 251.836 255.68 262.746 249.242 270.453 243.801 c 274.051
 241.258 278.551 241.215 283.312 241.164 c 285.848 241.215 288.383 241.043
 290.891 240.652 c 292.586 240.34 294.266 239.938 295.918 239.453 c 296.52
 241.227 297.125 243.023 297.734 244.844 c 295.098 245.754 292.355 246.332
 289.578 246.57 c 288.113 246.727 286.367 246.734 284.52 246.742 c 278.75
 246.77 271.574 246.805 265.258 251.262 c 256.211 257.652 248.273 261.406
 244.023 261.293 c 243.184 261.273 241.723 261.086 240.031 260.871 c 232.473
 259.914 218.41 258.129 204.902 263.848 c 192.746 268.992 175.391 268.32
 169.129 264.332 c 159.754 258.359 147.953 258.457 140.148 258.52 c 139.406
 258.523 138.699 258.531 138.027 258.531 c 136.602 258.531 134.984 258.656
 133.109 258.805 c 124.539 259.48 112.805 260.402 106.031 251.09 c 99.805
 242.52 93.117 239.852 88.102 239.273 c 88.641 237.582 89.18 235.918 89.711
 234.285 c h
85.285 248.141 m 88.012 248.035 93.359 248.973 98.754 256.391 c 108.484
 269.781 124.961 268.484 133.812 267.785 c 135.496 267.652 136.953 267.539
 138.023 267.539 c 138.719 267.539 139.449 267.535 140.219 267.527 c 147.367
 267.469 157.156 267.391 164.293 271.934 c 169.328 275.137 176.812 276.527
 184.613 276.527 c 193.09 276.527 201.938 274.887 208.414 272.145 c 219.688
 267.371 231.715 268.898 238.902 269.809 c 240.914 270.066 242.504 270.27
 243.797 270.301 c 251.863 270.52 262.75 264.066 270.453 258.625 c 274.453
 255.801 279.594 255.773 284.566 255.75 c 286.555 255.777 288.547 255.699
 290.531 255.527 c 293.957 255.215 297.336 254.5 300.594 253.391 c 302.809
 260.023 305.168 267.008 307.707 274.246 c 305.34 275.121 302.906 275.801
 300.426 276.281 c 298.035 276.645 295.617 276.797 293.203 276.73 c 287.488
 276.785 280.375 276.848 274.168 280.781 c 263.949 287.254 254.879 291.066
 249.977 290.938 c 248.992 290.918 247.34 290.727 245.43 290.512 c 237.094
 289.562 221.578 287.797 206.742 293.43 c 192.941 298.668 173.184 297.949
 166.023 293.863 c 155.766 288.008 142.773 288.102 134.184 288.164 c 133.355
 288.172 132.559 288.176 131.809 288.176 c 129.996 288.176 127.984 288.379
 125.859 288.594 c 117.348 289.453 107.707 290.43 100.531 281.184 c 93.797
 272.508 84.594 270.133 78.324 269.617 c 80.832 262.137 83.125 254.945 85.281
 248.141 c h
75.273 278.477 m 79.457 278.453 87.766 279.422 93.414 286.703 c 103.645
 299.887 117.555 298.477 126.758 297.551 c 128.652 297.355 130.445 297.176
 131.805 297.176 c 132.574 297.176 133.391 297.168 134.242 297.16 c 142.328
 297.105 153.402 297.023 161.559 301.68 c 167.047 304.812 175.215 306.176
 183.742 306.172 c 193.055 306.172 202.797 304.551 209.93 301.84 c 222.723
 296.984 236.297 298.527 244.406 299.453 c 246.625 299.703 248.375 299.902
 249.766 299.938 c 258.543 300.141 270.484 293.766 278.98 288.387 c 283.023
 285.828 288.234 285.777 293.277 285.734 c 296.273 285.809 299.27 285.594
 302.223 285.098 c 305.117 284.531 307.965 283.738 310.734 282.727 c 311.379
 284.496 312.039 286.277 312.711 288.07 c 308.961 289.703 304.969 290.703
 300.895 291.031 c 299.215 291.191 297.242 291.199 295.156 291.207 c 288.852
 291.234 281.008 291.27 274.164 295.602 c 263.945 302.078 254.906 305.887
 249.973 305.762 c 248.988 305.738 247.336 305.551 245.422 305.332 c 237.086
 304.383 221.574 302.617 206.734 308.25 c 192.934 313.488 173.176 312.773
 166.02 308.688 c 155.762 302.828 142.777 302.922 134.18 302.984 c 133.348
 302.992 132.555 302.996 131.805 302.996 c 130.219 302.996 128.379 303.137
 126.246 303.297 c 117.02 303.992 103.07 305.039 95.629 295.445 c 88.93 
286.812 79.66 284.531 73.266 284.094 c 73.953 282.207 74.621 280.332 75.273
 278.477 c h
69.941 293.004 m 74.129 292.879 82.816 293.613 88.52 300.961 c 98.926 314.375
 116.449 313.059 126.918 312.27 c 128.867 312.125 130.555 311.996 131.805
 311.996 c 132.574 311.996 133.391 311.992 134.242 311.984 c 142.328 311.93
 153.402 311.848 161.555 316.5 c 167.047 319.637 175.215 320.996 183.742
 320.996 c 193.055 320.996 202.797 319.371 209.93 316.664 c 222.723 311.805
 236.293 313.352 244.406 314.273 c 246.621 314.527 248.375 314.727 249.766
 314.758 c 258.508 314.949 270.484 308.586 278.98 303.207 c 283.637 300.262
 289.512 300.234 295.195 300.207 c 297.492 300.199 299.66 300.191 301.75
 299.992 c 306.633 299.586 311.422 298.41 315.934 296.5 c 320.617 308.449
 325.91 320.727 332.031 332.902 c 326.117 334.895 317.426 335.43 309.57 
335.91 c 300.219 336.484 292.137 336.98 287.633 339.832 c 279.078 345.25
 262.988 350.586 257.371 350.586 c 257.305 350.586 257.242 350.586 257.18
 350.586 c 255.68 350.473 254.188 350.27 252.707 349.977 c 245.922 348.812
 234.562 346.867 220.16 352.336 c 208.609 356.723 189.332 358.004 180.836
 353.148 c 170.578 347.293 157.586 347.387 148.996 347.449 c 148.164 347.457
 147.367 347.461 146.617 347.461 c 145.156 347.461 143.328 347.582 141.219
 347.719 c 130.824 348.398 111.48 349.664 94.492 338.867 c 82.051 330.965
 66.602 328.199 54.523 328.129 c 60.492 316.254 65.543 304.441 69.941 293.004
 c h
338.129 345.09 m 338.047 345.355 337.859 345.574 337.609 345.691 c 334.117
 347.512 330.336 348.707 326.434 349.215 c 324.707 349.383 322.016 349.359
 318.902 349.34 c 309.559 349.266 297.934 349.18 291.145 353.48 c 282.242
 359.121 269.844 365.043 264.199 365.043 c 264.141 365.043 264.082 365.043
 264.023 365.043 c 263.039 365.02 261.387 364.832 259.473 364.613 c 251.141
 363.664 235.625 361.898 220.785 367.531 c 209.438 371.84 184.941 372.863
 176.367 367.969 c 166.109 362.109 153.121 362.207 144.527 362.27 c 143.695
 362.273 142.902 362.281 142.152 362.281 c 140.797 362.281 138.938 362.379
 136.582 362.504 c 125.355 363.098 99.066 364.48 91.105 354.656 c 81 342.191
 48.473 345.562 47.094 345.715 c 46.668 345.777 46.246 345.578 46.023 345.207
 c 45.77 344.844 45.758 344.367 45.992 343.992 c 47.281 341.754 48.535 339.512
 49.75 337.273 c 59.328 336.68 76.398 338.035 89.66 346.465 c 109.133 358.832
 130.387 357.445 141.801 356.695 c 143.758 356.57 145.445 356.457 146.617
 356.457 c 147.387 356.457 148.203 356.453 149.059 356.445 c 157.141 356.391
 168.215 356.309 176.371 360.965 c 181.668 363.988 189.195 365.281 197.109
 365.281 c 206.051 365.293 214.93 363.762 223.352 360.75 c 235.461 356.152
 244.551 357.707 251.188 358.844 c 253.098 359.227 255.031 359.473 256.973
 359.582 c 265.926 359.77 284.68 352.355 292.449 347.438 c 295 345.82 303.035
 345.328 310.125 344.895 c 319.023 344.348 328.891 343.738 336.219 340.938
 c 336.828 342.078 337.43 343.219 338.055 344.352 c 338.184 344.578 338.211
 344.848 338.129 345.09 c h
338.129 345.09 m f
Q Q
showpage
%%Trailer
end
%%EOF
