%!PS-Adobe-3.0 EPSF-3.0
%%Creator: cairo 1.16.0 (https://cairographics.org)
%%CreationDate: Tue Feb  2 14:48:28 2021
%%Pages: 1
%%DocumentData: Clean7Bit
%%LanguageLevel: 2
%%BoundingBox: 20 3 364 381
%%EndComments
%%BeginProlog
50 dict begin
/q { gsave } bind def
/Q { grestore } bind def
/cm { 6 array astore concat } bind def
/w { setlinewidth } bind def
/J { setlinecap } bind def
/j { setlinejoin } bind def
/M { setmiterlimit } bind def
/d { setdash } bind def
/m { moveto } bind def
/l { lineto } bind def
/c { curveto } bind def
/h { closepath } bind def
/re { exch dup neg 3 1 roll 5 3 roll moveto 0 rlineto
      0 exch rlineto 0 rlineto closepath } bind def
/S { stroke } bind def
/f { fill } bind def
/f* { eofill } bind def
/n { newpath } bind def
/W { clip } bind def
/W* { eoclip } bind def
/BT { } bind def
/ET { } bind def
/BDC { mark 3 1 roll /BDC pdfmark } bind def
/EMC { mark /EMC pdfmark } bind def
/cairo_store_point { /cairo_point_y exch def /cairo_point_x exch def } def
/Tj { show currentpoint cairo_store_point } bind def
/TJ {
  {
    dup
    type /stringtype eq
    { show } { -0.001 mul 0 cairo_font_matrix dtransform rmoveto } ifelse
  } forall
  currentpoint cairo_store_point
} bind def
/cairo_selectfont { cairo_font_matrix aload pop pop pop 0 0 6 array astore
    cairo_font exch selectfont cairo_point_x cairo_point_y moveto } bind def
/Tf { pop /cairo_font exch def /cairo_font_matrix where
      { pop cairo_selectfont } if } bind def
/Td { matrix translate cairo_font_matrix matrix concatmatrix dup
      /cairo_font_matrix exch def dup 4 get exch 5 get cairo_store_point
      /cairo_font where { pop cairo_selectfont } if } bind def
/Tm { 2 copy 8 2 roll 6 array astore /cairo_font_matrix exch def
      cairo_store_point /cairo_font where { pop cairo_selectfont } if } bind def
/g { setgray } bind def
/rg { setrgbcolor } bind def
/d1 { setcachedevice } bind def
/cairo_data_source {
  CairoDataIndex CairoData length lt
    { CairoData CairoDataIndex get /CairoDataIndex CairoDataIndex 1 add def }
    { () } ifelse
} def
/cairo_flush_ascii85_file { cairo_ascii85_file status { cairo_ascii85_file flushfile } if } def
/cairo_image { image cairo_flush_ascii85_file } def
/cairo_imagemask { imagemask cairo_flush_ascii85_file } def
%%EndProlog
%%BeginSetup
%%EndSetup
%%Page: 1 1
%%BeginPageSetup
%%PageBoundingBox: 20 3 364 381
%%EndPageSetup
q 20 3 344 378 rectclip
1 0 0 -1 0 384 cm q
0.427451 0.454902 0.52549 rg
74.461 268.461 m 309.547 268.461 l 296.918 260.602 278.766 242.625 293.836
 209.648 c 307.363 180.031 300.18 151.02 292.449 132.797 c 285.555 116.543
 279.871 99.66 277.629 82.148 c 271.875 37.094 223.027 8.16 193.672 8.258
 c 157.641 7.922 126.547 23.895 112.559 52.695 c 109.27 59.27 107.125 66.355
 106.215 73.648 c 102.203 94.375 l 99.055 118.199 l 95.883 121.344 l 95.883
 121.344 67.898 160.867 90.18 209.648 c 105.246 242.625 87.09 260.602 74.461
 268.461 c h
74.461 268.461 m f
0.298039 0.662745 0.529412 rg
290.113 265.5 m 93.887 265.5 l 55.957 265.5 25.5 296.574 25.5 334.469 c
 25.5 375.75 l 358.5 375.75 l 358.5 334.469 l 358.5 296.574 328.043 265.5
 290.113 265.5 c h
290.113 265.5 m f
0.266667 0.529412 0.419608 rg
116.387 265.5 m 93.887 265.5 l 55.957 265.5 25.5 296.574 25.5 334.469 c
 25.5 375.75 l 48 375.75 l 48 334.469 l 48 296.574 78.457 265.5 116.387 
265.5 c h
116.387 265.5 m f
0.952941 0.807843 0.490196 rg
337.453 284.762 m 341.398 288.504 344.879 292.707 347.828 297.277 c 327.586
 315.383 282.211 324.922 281.398 325.094 c 283 322.395 284.273 319.512 285.188
 316.508 c 285.562 315.285 284.645 314.047 283.363 314.047 c 279.691 314.047
 l 280.598 312.066 281.176 309.945 281.398 307.777 c 300.707 301.723 319.461
 294.02 337.453 284.762 c h
337.453 284.762 m f
0.27451 0.537255 0.827451 rg
258.031 308.895 m 260.488 311.355 260.863 315.207 258.934 318.098 c 257
 320.984 253.297 322.109 250.086 320.777 c 246.875 319.449 245.047 316.035
 245.727 312.625 c 246.402 309.215 249.395 306.758 252.871 306.758 c 254.805
 306.754 256.664 307.523 258.031 308.895 c h
258.031 308.895 m f
0.768627 0.376471 0.462745 rg
252.871 290.738 m 252.871 306.758 l 250.938 306.754 249.082 307.523 247.719
 308.895 c 247.711 308.895 l 236.895 298.086 l 232.598 293.789 l 231.043
 292.242 231.625 289.605 233.684 288.855 c 238.328 287.176 246.09 285.699
 252.871 290.738 c h
252.871 290.738 m f
0.921569 0.447059 0.533333 rg
247.711 308.895 m 247.719 308.895 l 246.348 310.258 245.578 312.113 245.578
 314.047 c 225.238 314.047 l 222.688 314.055 221.105 311.273 222.414 309.082
 c 225.219 304.371 230.234 298.027 236.895 298.086 c h
247.711 308.895 m f
0.768627 0.376471 0.462745 rg
227.527 319.199 m 228.195 317.348 229.148 315.605 230.355 314.047 c 245.578
 314.047 l 245.578 315.98 246.348 317.836 247.719 319.199 c 247.711 319.199
 l 235.086 331.824 l 231.938 334.965 l 230.715 336.203 228.629 335.816 227.934
 334.223 c 225.836 329.461 225.691 324.066 227.527 319.199 c h
227.527 319.199 m f
0.921569 0.447059 0.533333 rg
252.871 341.203 m 252.871 344.406 l 252.875 346.008 251.445 347.234 249.863
 346.988 c 240.766 345.523 235.086 331.824 235.086 331.824 c 247.711 319.199
 l 247.719 319.199 l 249.082 320.57 250.938 321.34 252.871 321.336 c h
252.871 341.203 m f
0.768627 0.376471 0.462745 rg
274.176 335.348 m 275.387 336.535 275.406 338.477 274.223 339.691 c 265.102
 348.898 252.871 341.203 252.871 341.203 c 252.871 321.336 l 254.805 321.34
 256.664 320.57 258.031 319.199 c 271.613 332.781 l h
274.176 335.348 m f
0.921569 0.447059 0.533333 rg
283.363 314.047 m 284.645 314.047 285.562 315.285 285.188 316.508 c 284.273
 319.512 283 322.395 281.398 325.094 c 281.391 325.094 l 279.156 328.746
 275.969 332.062 271.613 332.773 c 271.613 332.781 l 258.031 319.199 l 259.402
 317.836 260.172 315.98 260.168 314.047 c h
283.363 314.047 m f
0.768627 0.376471 0.462745 rg
281.398 307.777 m 281.176 309.945 280.598 312.066 279.691 314.047 c 260.168
 314.047 l 260.172 312.113 259.402 310.258 258.031 308.895 c 272.309 294.621
 l 274.98 291.953 l 275.633 291.305 276.707 291.387 277.254 292.125 c 280.566
 296.629 282.047 302.223 281.398 307.777 c h
281.398 307.777 m f
0.921569 0.447059 0.533333 rg
272.309 294.621 m 258.031 308.895 l 256.664 307.523 254.805 306.758 252.871
 306.758 c 252.871 283.547 l 252.871 282.27 254.09 281.348 255.316 281.699
 c 259.844 283.012 269.363 286.656 272.309 294.621 c h
272.309 294.621 m f
0.27451 0.537255 0.827451 rg
121.949 95.273 m 124.406 97.73 124.785 101.582 122.852 104.473 c 120.922
 107.363 117.215 108.484 114.004 107.156 c 110.793 105.824 108.969 102.414
 109.645 99.004 c 110.324 95.594 113.312 93.137 116.789 93.137 c 118.727
 93.129 120.586 93.898 121.949 95.273 c h
121.949 95.273 m f
0.921569 0.447059 0.533333 rg
141.172 78.504 m 145.848 84.848 146.777 93.211 143.602 100.426 c 124.086
 100.426 l 124.09 98.492 123.32 96.637 121.949 95.273 c 121.949 95.266 l
 136.23 80.992 l 138.898 78.328 l 139.547 77.672 140.629 77.754 141.172 
78.504 c h
141.172 78.504 m f
0.768627 0.376471 0.462745 rg
136.23 80.992 m 121.949 95.266 l 121.949 95.273 l 120.582 93.902 118.727
 93.133 116.789 93.137 c 116.789 69.914 l 116.789 68.641 118.008 67.719 
119.234 68.07 c 123.766 69.391 133.281 73.027 136.23 80.992 c h
136.23 80.992 m f
0.921569 0.447059 0.533333 rg
116.789 77.113 m 116.789 93.137 l 114.855 93.133 113 93.902 111.637 95.273
 c 111.629 95.266 l 100.816 84.457 l 96.516 80.16 l 94.961 78.613 95.543
 75.977 97.605 75.227 c 100.359 74.199 103.273 73.668 106.215 73.648 c 110.023
 73.629 113.734 74.844 116.789 77.113 c h
116.789 77.113 m f
0.768627 0.376471 0.462745 rg
111.629 95.266 m 111.637 95.273 l 110.266 96.637 109.496 98.492 109.5 100.426
 c 89.152 100.426 l 86.602 100.426 85.023 97.645 86.332 95.453 c 89.137 
90.742 94.156 84.398 100.816 84.457 c h
111.629 95.266 m f
0.921569 0.447059 0.533333 rg
111.637 105.578 m 111.629 105.578 l 99 118.199 l 95.859 121.344 l 94.633
 122.57 92.555 122.188 91.852 120.602 c 88.961 113.93 89.887 106.223 94.273
 100.426 c 109.5 100.426 l 109.5 102.359 110.27 104.211 111.637 105.578 
c h
111.637 105.578 m f
0.768627 0.376471 0.462745 rg
116.789 127.582 m 116.789 130.785 l 116.793 132.387 115.363 133.609 113.781
 133.363 c 104.684 131.895 99 118.199 99 118.199 c 111.629 105.578 l 111.637
 105.578 l 113 106.949 114.855 107.719 116.789 107.715 c h
116.789 127.582 m f
0.921569 0.447059 0.533333 rg
138.098 121.719 m 139.305 122.91 139.324 124.852 138.141 126.066 c 132.449
 131.82 125.543 130.98 121.156 129.539 c 119.633 129.051 118.168 128.395
 116.789 127.582 c 116.789 107.715 l 118.727 107.715 120.582 106.945 121.949
 105.578 c 135.531 119.152 l h
138.098 121.719 m f
0.768627 0.376471 0.462745 rg
147.285 100.426 m 148.562 100.418 149.48 101.656 149.109 102.879 c 148.375
 105.262 147.426 107.574 146.273 109.785 c 144.023 114.047 140.559 118.328
 135.531 119.152 c 121.949 105.578 l 123.32 104.211 124.09 102.359 124.086
 100.426 c h
147.285 100.426 m f
0.937255 0.772549 0.592157 rg
227.828 237.113 m 158.648 237.262 l 158.625 237.301 l 158.625 264.699 l
 158.625 265.074 158.633 265.449 158.648 265.824 c 159.258 284.504 174.574
 299.34 193.27 299.344 c 211.961 299.352 227.289 284.527 227.91 265.844 
c 227.926 265.461 227.934 265.078 227.934 264.699 c 227.934 237.301 l h
227.828 237.113 m f
0.952941 0.807843 0.490196 rg
227.527 319.199 m 225.691 324.066 225.836 329.461 227.934 334.223 c 126.66
 351.039 34.539 299.934 34.539 299.934 c 37.805 294.336 41.848 289.23 46.547
 284.766 c 47.609 285.391 124.453 330.434 227.527 319.199 c h
227.527 319.199 m f
1 0.847059 0.717647 rg
267.922 145.051 m 272.473 146.387 275.953 150.059 277.051 154.672 c 278.223
 159.441 277.367 164.484 274.688 168.605 c 272.012 172.723 267.75 175.551
 262.914 176.414 c 262.914 176.527 l 262.914 215.086 231.656 246.34 193.098
 246.34 c 154.543 246.34 123.285 215.086 123.285 176.527 c 123.285 176.422
 l 118.441 175.562 114.172 172.738 111.488 168.617 c 108.801 164.496 107.941
 159.449 109.109 154.672 c 110.473 149.043 115.305 144.93 121.078 144.488
 c 121.078 129.781 l 121.156 129.539 l 125.543 130.98 132.449 131.82 138.141
 126.066 c 139.324 124.852 139.305 122.91 138.098 121.719 c 135.531 119.152
 l 140.559 118.328 144.023 114.047 146.273 109.785 c 156.031 108.938 165.684
 98.445 169.004 89.512 c 181.484 108.293 208.598 131.324 266.73 132.652 
c 267.426 132.652 267.992 133.215 267.996 133.914 c 267.996 133.926 l h
267.922 145.051 m f
0.74902 0.631373 0.4 rg
62.074 292.582 m 52.301 288.141 46.824 284.934 46.547 284.766 c 41.852 
289.23 37.809 294.336 34.543 299.934 c 34.543 299.934 41.223 303.637 52.945
 308.719 c 55.25 302.953 58.32 297.527 62.074 292.582 c h
62.074 292.582 m f
0.156863 0.258824 0.407843 rg
311.484 264.527 m 306.16 261.141 299.211 255.379 295.426 246.754 c 291.004
 236.684 291.844 224.828 297.926 211.516 c 311.984 180.742 304.961 150.766
 296.594 131.043 c 288.609 112.219 284 96.5 282.094 81.578 c 279.359 60.188
 266.988 39.992 247.258 24.715 c 230.551 11.773 210.094 3.754 193.875 3.754
 c 193.711 3.754 l 193.324 3.75 192.938 3.75 192.547 3.75 c 154.184 3.75
 122.82 21.258 108.512 50.727 c 105.582 56.645 103.488 62.938 102.289 69.426
 c 100.168 69.734 98.086 70.262 96.074 70.992 c 93.883 71.785 92.184 73.551
 91.484 75.773 c 90.781 77.996 91.156 80.418 92.492 82.324 c 88.844 84.496
 85.457 88.129 82.465 93.152 c 81.227 95.227 81.023 97.762 81.914 100.004
 c 82.805 102.25 84.691 103.957 87.016 104.617 c 84.984 110.406 85.23 116.75
 87.711 122.359 c 88.004 123.035 88.398 123.656 88.887 124.207 c 85.172 
131.125 82.289 138.457 80.301 146.055 c 74.52 167.879 76.562 191.039 86.07
 211.516 c 92.156 224.828 93 236.684 88.574 246.75 c 84.785 255.375 77.844
 261.141 72.516 264.523 c 41.77 273.945 20.762 302.312 20.715 334.469 c 
20.715 375.75 l 20.715 378.234 22.727 380.25 25.215 380.25 c 358.785 380.25
 l 361.27 380.25 363.285 378.234 363.285 375.75 c 363.285 334.473 l 363.238
 302.316 342.23 273.949 311.484 264.527 c h
116.609 54.66 m 129.375 28.367 157.715 12.75 192.609 12.75 c 192.965 12.75
 193.328 12.75 193.688 12.754 c 193.828 12.754 l 208.195 12.754 226.543 
20.055 241.746 31.828 c 259.578 45.637 270.738 63.707 273.172 82.715 c 275.184
 98.48 279.996 114.949 288.312 134.555 c 295.973 152.617 302.441 179.98 
289.742 207.777 c 278.07 233.328 285.098 250.742 294.277 261.465 c 292.902
 261.391 291.516 261.344 290.117 261.344 c 232.441 261.344 l 232.441 239.551
 l 253.176 226.605 266.227 204.297 267.344 179.879 c 278.062 176.008 284.141
 164.676 281.43 153.602 c 280.242 148.637 276.965 144.426 272.445 142.051
 c 272.5 133.945 l 272.508 130.777 269.965 128.195 266.801 128.156 c 227.902
 127.258 197.648 115.969 179.324 95.508 c 165.59 80.176 163.18 64.844 163.137
 64.574 c 162.266 58.688 153.445 59.926 154.227 65.828 c 154.301 66.391 
155.875 77.012 163.926 89.945 c 161.543 94.766 158.023 98.938 153.676 102.102
 c 153.598 99.516 151.957 97.234 149.531 96.336 c 150.855 89.164 149.156
 81.766 144.836 75.895 c 143.133 73.512 139.965 72.711 137.336 73.992 c 
132.625 68.086 125.152 65.105 120.484 63.75 c 118.551 63.18 116.461 63.562
 114.855 64.781 c 113.242 65.996 112.297 67.898 112.289 69.914 c 112.289
 69.992 l 111.992 69.906 111.688 69.824 111.379 69.75 c 112.48 64.52 114.238
 59.449 116.609 54.66 c h
193.105 241.844 m 157.047 241.801 127.828 212.582 127.789 176.527 c 127.789
 176.422 l 127.789 174.234 126.219 172.367 124.066 171.988 c 120.449 171.348
 117.258 169.238 115.254 166.16 c 113.246 163.082 112.602 159.312 113.477
 155.746 c 114.406 151.996 117.637 149.262 121.488 148.965 c 123.805 148.754
 125.578 146.809 125.578 144.484 c 125.578 135 l 126.156 135.047 126.746
 135.074 127.34 135.074 c 132.609 135.137 137.672 133.027 141.336 129.238
 c 143.52 127.02 144.121 123.691 142.855 120.852 c 145.387 118.977 147.516
 116.613 149.113 113.898 c 157.277 112.156 164.906 105.504 169.684 98.059
 c 170.488 99.055 171.324 100.059 172.211 101.062 c 196.586 128.668 234.676
 135.98 263.477 137.062 c 263.453 140.316 l 259.082 142.074 260.008 148.516
 264.699 148.973 c 265.246 149.023 265.793 149.125 266.324 149.27 c 266.516
 149.344 266.711 149.402 266.91 149.449 c 269.809 150.387 272 152.781 272.68
 155.75 c 273.547 159.312 272.91 163.074 270.91 166.148 c 268.914 169.223
 265.734 171.332 262.125 171.984 c 259.977 172.363 258.41 174.23 258.41 
176.414 c 258.41 176.527 l 258.371 212.578 229.156 241.797 193.105 241.844
 c h
223.434 244.363 m 223.434 264.695 l 223.434 272.691 220.258 280.363 214.602
 286.016 c 208.949 291.672 201.277 294.852 193.281 294.852 c 185.281 294.852
 177.613 291.672 171.957 286.016 c 166.301 280.363 163.125 272.691 163.125
 264.695 c 163.125 244.52 l 182.344 253 204.258 252.941 223.434 244.359 
c h
116.789 103.211 m 114.309 103.207 113.066 100.203 114.824 98.449 c 116.582
 96.695 119.582 97.938 119.582 100.422 c 119.582 101.965 118.332 103.211
 116.789 103.211 c h
140.438 95.922 m 127.688 95.922 l 127.68 95.902 l 139.336 84.254 l 141.039
 87.898 141.426 92.023 140.438 95.926 c h
143.586 104.922 m 142.246 108.156 139.973 112.34 136.77 114.027 c 127.684
 104.941 l 127.691 104.922 l h
121.316 89.539 m 121.293 89.531 l 121.293 73.531 l 124.465 74.793 128.43
 76.906 130.723 80.137 c h
121.316 111.309 m 133.883 123.863 l 131.441 125.809 128.559 126.473 125.105
 125.895 c 123.801 125.664 122.523 125.297 121.297 124.789 c 121.297 111.316
 l h
112.293 79.602 m 112.293 89.531 l 112.285 89.531 112.277 89.535 112.27 
89.539 c 101.469 78.746 l 104.73 77.926 108.656 77.73 112.289 79.602 c h
112.27 111.309 m 112.293 111.316 l 112.293 128.141 l 109.012 126.363 106.152
 122.184 104.461 119.109 c h
95.023 115.812 m 94.234 112.102 94.82 108.23 96.68 104.922 c 105.895 104.922
 l 105.902 104.941 l h
99.164 89.172 m 105.902 95.902 l 105.895 95.922 l 91.367 95.922 l 93.23
 93.191 96 90.004 99.164 89.176 c h
96.816 250.371 m 102.312 237.852 101.453 223.52 94.262 207.777 c 85.516
 188.633 83.719 168.754 88.918 148.691 c 90.941 140.789 94.047 133.199 98.145
 126.141 c 101.164 130.875 106.184 136.699 113.062 137.809 c 114.242 137.996
 115.449 137.887 116.574 137.48 c 116.574 140.836 l 110.664 142.727 106.168
 147.57 104.73 153.605 c 102.023 164.691 108.117 176.035 118.859 179.895
 c 119.992 204.457 133.191 226.871 154.125 239.773 c 154.125 261.344 l 93.887
 261.344 l 92.508 261.344 91.137 261.383 89.777 261.461 c 92.656 258.133
 95.027 254.395 96.816 250.371 c h
93.891 270.344 m 154.539 270.344 l 157.336 289.586 173.836 303.855 193.281
 303.855 c 212.723 303.855 229.223 289.586 232.023 270.344 c 290.113 270.344
 l 304.332 270.332 318.152 275.066 329.375 283.801 c 315.27 290.703 300.715
 296.656 285.812 301.617 c 285.195 297.242 283.516 293.09 280.918 289.52
 c 279.219 287.137 276.047 286.336 273.418 287.617 c 268.703 281.711 261.23
 278.73 256.566 277.379 c 254.633 276.805 252.543 277.188 250.934 278.406
 c 249.324 279.625 248.375 281.523 248.371 283.543 c 248.371 283.617 l 243.418
 282.242 237.875 282.555 232.156 284.617 c 229.965 285.406 228.266 287.176
 227.562 289.398 c 226.863 291.621 227.238 294.043 228.578 295.949 c 224.93
 298.117 221.539 301.754 218.547 306.777 c 216.922 309.508 217.117 312.949
 219.043 315.477 c 169.719 319.496 127.23 310.527 99.727 302.008 c 84.16
 297.262 69.02 291.207 54.469 283.918 c 65.723 275.109 79.598 270.332 93.887
 270.344 c h
257.398 303.164 m 257.375 303.156 l 257.375 287.156 l 260.543 288.422 264.512
 290.531 266.805 293.766 c h
275.422 297.879 m 277.121 301.527 277.512 305.648 276.52 309.551 c 263.77
 309.551 l 263.762 309.531 l h
257.398 324.934 m 269.965 337.488 l 267.52 339.438 264.637 340.098 261.184
 339.52 c 259.879 339.293 258.602 338.922 257.375 338.418 c 257.375 324.941
 l h
263.766 318.57 m 263.77 318.551 l 279.672 318.551 l 278.328 321.781 276.059
 325.965 272.855 327.652 c h
255.668 314.051 m 255.672 316.539 252.664 317.793 250.898 316.031 c 249.137
 314.273 250.383 311.262 252.875 311.262 c 254.414 311.262 255.66 312.508
 255.664 314.051 c h
232.766 318.551 m 241.977 318.551 l 241.984 318.57 l 231.109 329.438 l 
230.316 325.73 230.902 321.855 232.762 318.551 c h
227.453 309.551 m 229.312 306.816 232.078 303.629 235.254 302.801 c 241.988
 309.531 l 241.98 309.551 l h
248.352 324.934 m 248.375 324.941 l 248.375 341.766 l 245.094 339.988 242.234
 335.809 240.543 332.734 c h
248.352 303.164 m 237.551 292.371 l 240.812 291.555 244.738 291.359 248.375
 293.227 c 248.375 303.156 l h
47.363 290.371 m 54.105 294 71.441 302.652 96.777 310.523 c 128.461 320.352
 161.434 325.395 194.605 325.48 c 203.406 325.48 212.5 325.105 221.816 324.281
 c 221.648 326.379 221.758 328.492 222.148 330.562 c 172.621 337.684 125.773
 328.391 94.773 319.141 c 76.293 313.684 58.305 306.68 40.996 298.211 c 
42.91 295.438 45.039 292.816 47.363 290.371 c h
354.285 334.473 m 354.285 371.25 l 292.5 371.25 l 292.5 349.949 l 292.5
 343.949 283.5 343.949 283.5 349.949 c 283.5 371.25 l 100.371 371.25 l 100.371
 349.949 l 100.371 343.949 91.371 343.949 91.371 349.949 c 91.371 371.25
 l 29.715 371.25 l 29.715 334.473 l 29.707 324.586 32 314.836 36.41 305.992
 c 54.273 314.809 72.859 322.07 91.965 327.695 c 115.98 334.879 149.254 
342.086 186.066 342.086 c 199.547 342.105 213.008 341.082 226.332 339.027
 c 228.594 340.539 231.531 340.586 233.84 339.152 c 236.812 343.98 241.969
 350.277 249.145 351.434 c 252.168 351.922 255.164 350.41 256.562 347.684
 c 258.789 348.344 261.102 348.688 263.422 348.699 c 268.695 348.762 273.758
 346.652 277.422 342.863 c 279.602 340.645 280.203 337.316 278.938 334.473
 c 280.969 332.992 282.734 331.176 284.156 329.102 c 292.543 327.211 326.629
 318.871 346.598 304.066 c 351.656 313.402 354.297 323.852 354.285 334.473
 c h
289.25 318.57 m 289.332 318.32 289.41 318.074 289.484 317.832 c 290.316
 315.168 289.312 312.273 287.012 310.695 c 304.008 305.133 320.566 298.309
 336.547 290.277 c 338.406 292.223 340.145 294.285 341.75 296.449 c 327.082
 307.609 302.359 315.141 289.25 318.574 c h
289.25 318.57 m f
Q Q
showpage
%%Trailer
end
%%EOF
