%!PS-Adobe-3.0 EPSF-3.0
%%Creator: cairo 1.16.0 (https://cairographics.org)
%%CreationDate: Tue Feb  2 14:48:28 2021
%%Pages: 1
%%DocumentData: Clean7Bit
%%LanguageLevel: 2
%%BoundingBox: 19 78 365 306
%%EndComments
%%BeginProlog
50 dict begin
/q { gsave } bind def
/Q { grestore } bind def
/cm { 6 array astore concat } bind def
/w { setlinewidth } bind def
/J { setlinecap } bind def
/j { setlinejoin } bind def
/M { setmiterlimit } bind def
/d { setdash } bind def
/m { moveto } bind def
/l { lineto } bind def
/c { curveto } bind def
/h { closepath } bind def
/re { exch dup neg 3 1 roll 5 3 roll moveto 0 rlineto
      0 exch rlineto 0 rlineto closepath } bind def
/S { stroke } bind def
/f { fill } bind def
/f* { eofill } bind def
/n { newpath } bind def
/W { clip } bind def
/W* { eoclip } bind def
/BT { } bind def
/ET { } bind def
/BDC { mark 3 1 roll /BDC pdfmark } bind def
/EMC { mark /EMC pdfmark } bind def
/cairo_store_point { /cairo_point_y exch def /cairo_point_x exch def } def
/Tj { show currentpoint cairo_store_point } bind def
/TJ {
  {
    dup
    type /stringtype eq
    { show } { -0.001 mul 0 cairo_font_matrix dtransform rmoveto } ifelse
  } forall
  currentpoint cairo_store_point
} bind def
/cairo_selectfont { cairo_font_matrix aload pop pop pop 0 0 6 array astore
    cairo_font exch selectfont cairo_point_x cairo_point_y moveto } bind def
/Tf { pop /cairo_font exch def /cairo_font_matrix where
      { pop cairo_selectfont } if } bind def
/Td { matrix translate cairo_font_matrix matrix concatmatrix dup
      /cairo_font_matrix exch def dup 4 get exch 5 get cairo_store_point
      /cairo_font where { pop cairo_selectfont } if } bind def
/Tm { 2 copy 8 2 roll 6 array astore /cairo_font_matrix exch def
      cairo_store_point /cairo_font where { pop cairo_selectfont } if } bind def
/g { setgray } bind def
/rg { setrgbcolor } bind def
/d1 { setcachedevice } bind def
/cairo_data_source {
  CairoDataIndex CairoData length lt
    { CairoData CairoDataIndex get /CairoDataIndex CairoDataIndex 1 add def }
    { () } ifelse
} def
/cairo_flush_ascii85_file { cairo_ascii85_file status { cairo_ascii85_file flushfile } if } def
/cairo_image { image cairo_flush_ascii85_file } def
/cairo_imagemask { imagemask cairo_flush_ascii85_file } def
%%EndProlog
%%BeginSetup
%%EndSetup
%%Page: 1 1
%%BeginPageSetup
%%PageBoundingBox: 19 78 365 306
%%EndPageSetup
q 19 78 346 228 rectclip
1 0 0 -1 0 384 cm q
0.921569 0.447059 0.533333 rg
333.504 83.25 m 266.094 83.25 l 266.094 300.75 l 333.504 300.75 l 345.93
 300.75 356.004 290.676 356.004 278.25 c 356.004 105.75 l 356.004 93.324
 345.93 83.25 333.504 83.25 c h
333.504 83.25 m f
0.780392 0.803922 0.866667 rg
116.699 83.25 149.395 217.5 re f
0.298039 0.662745 0.529412 rg
42.996 83.25 m 30.57 83.25 20.496 93.324 20.496 105.75 c 20.496 278.25 
l 20.496 290.676 30.57 300.75 42.996 300.75 c 116.699 300.75 l 116.699 83.25
 l h
42.996 83.25 m f
0.952941 0.807843 0.490196 rg
179.863 174.203 m 190.434 172.027 200.113 181.508 198.406 189.098 c 197.438
 193.41 197.766 198.422 198.047 201.578 c 198.188 203.18 196.695 204.434
 195.141 204.023 c 189.652 202.598 179.406 198.703 181.973 189.879 c 183.809
 183.547 181.5 180.18 178.926 178.418 c 177.262 177.207 177.844 174.594 
179.863 174.203 c h
179.863 174.203 m f
0.243137 0.498039 0.396078 rg
42.75 278.25 m 42.75 105.75 l 42.867 93.277 53.023 83.23 65.496 83.25 c
 42.996 83.25 l 30.523 83.23 20.367 93.277 20.25 105.75 c 20.25 278.25 l
 20.367 290.723 30.523 300.77 42.996 300.75 c 65.496 300.75 l 53.023 300.77
 42.867 290.723 42.75 278.25 c h
42.75 278.25 m f
0.156863 0.258824 0.407843 rg
46.746 305.25 m 337.254 305.25 l 352.156 305.234 364.234 293.156 364.254
 278.25 c 364.254 105.75 l 364.234 90.844 352.156 78.766 337.254 78.75 c
 46.746 78.75 l 31.844 78.766 19.766 90.844 19.746 105.75 c 19.746 278.25
 l 19.766 293.156 31.844 305.234 46.746 305.25 c h
274.352 87.75 m 337.254 87.75 l 347.188 87.762 355.242 95.812 355.254 105.75
 c 355.254 278.25 l 355.242 288.188 347.188 296.238 337.254 296.25 c 274.352
 296.25 l h
124.949 87.75 m 265.352 87.75 l 265.352 296.25 l 124.949 296.25 l h
28.746 105.75 m 28.758 95.812 36.812 87.762 46.746 87.75 c 115.949 87.75
 l 115.949 296.25 l 46.746 296.25 l 36.812 296.238 28.758 288.188 28.746
 278.25 c h
28.746 105.75 m f
180.129 182.125 m 180.918 182.664 182.762 183.93 181.398 188.625 c 180.34
 191.984 180.719 195.637 182.445 198.707 c 185.582 204.227 192.504 207.016
 197.758 208.383 c 199.902 208.945 202.188 208.426 203.883 206.992 c 205.578
 205.559 206.473 203.395 206.277 201.184 c 206.105 199.238 205.648 194.078
 206.547 190.086 c 207.621 185.312 205.809 179.961 201.699 175.773 c 196.773
 170.719 189.641 168.477 182.711 169.801 c 179.992 170.359 177.875 172.488
 177.332 175.203 c 176.793 177.863 177.895 180.59 180.129 182.125 c h
195.281 182.074 m 197.211 184.043 198.164 186.352 197.77 188.109 c 197.066
 191.613 196.836 195.199 197.086 198.766 c 193.684 197.531 191.219 195.926
 190.27 194.258 c 189.738 193.301 189.656 192.156 190.047 191.133 c 191.707
 185.418 190.711 181.383 189.008 178.625 c 191.387 179.148 193.562 180.348
 195.277 182.074 c h
195.281 182.074 m f
225.738 195.395 m 223.434 194.469 220.816 195.586 219.891 197.891 c 215.957
 207.66 206.574 214.141 196.047 214.355 c 185.52 214.574 175.875 208.488
 171.543 198.891 c 170.539 196.598 167.855 195.566 165.57 196.598 c 163.289
 197.629 162.285 200.32 163.34 202.594 c 169.156 215.477 182.102 223.648
 196.234 223.355 c 210.367 223.062 222.961 214.363 228.238 201.246 c 229.168
 198.941 228.047 196.32 225.738 195.395 c h
225.738 195.395 m f
Q Q
showpage
%%Trailer
end
%%EOF
