%!PS-Adobe-3.0 EPSF-3.0
%%Creator: cairo 1.16.0 (https://cairographics.org)
%%CreationDate: Tue Feb  2 14:48:29 2021
%%Pages: 1
%%DocumentData: Clean7Bit
%%LanguageLevel: 2
%%BoundingBox: 3 42 381 342
%%EndComments
%%BeginProlog
50 dict begin
/q { gsave } bind def
/Q { grestore } bind def
/cm { 6 array astore concat } bind def
/w { setlinewidth } bind def
/J { setlinecap } bind def
/j { setlinejoin } bind def
/M { setmiterlimit } bind def
/d { setdash } bind def
/m { moveto } bind def
/l { lineto } bind def
/c { curveto } bind def
/h { closepath } bind def
/re { exch dup neg 3 1 roll 5 3 roll moveto 0 rlineto
      0 exch rlineto 0 rlineto closepath } bind def
/S { stroke } bind def
/f { fill } bind def
/f* { eofill } bind def
/n { newpath } bind def
/W { clip } bind def
/W* { eoclip } bind def
/BT { } bind def
/ET { } bind def
/BDC { mark 3 1 roll /BDC pdfmark } bind def
/EMC { mark /EMC pdfmark } bind def
/cairo_store_point { /cairo_point_y exch def /cairo_point_x exch def } def
/Tj { show currentpoint cairo_store_point } bind def
/TJ {
  {
    dup
    type /stringtype eq
    { show } { -0.001 mul 0 cairo_font_matrix dtransform rmoveto } ifelse
  } forall
  currentpoint cairo_store_point
} bind def
/cairo_selectfont { cairo_font_matrix aload pop pop pop 0 0 6 array astore
    cairo_font exch selectfont cairo_point_x cairo_point_y moveto } bind def
/Tf { pop /cairo_font exch def /cairo_font_matrix where
      { pop cairo_selectfont } if } bind def
/Td { matrix translate cairo_font_matrix matrix concatmatrix dup
      /cairo_font_matrix exch def dup 4 get exch 5 get cairo_store_point
      /cairo_font where { pop cairo_selectfont } if } bind def
/Tm { 2 copy 8 2 roll 6 array astore /cairo_font_matrix exch def
      cairo_store_point /cairo_font where { pop cairo_selectfont } if } bind def
/g { setgray } bind def
/rg { setrgbcolor } bind def
/d1 { setcachedevice } bind def
/cairo_data_source {
  CairoDataIndex CairoData length lt
    { CairoData CairoDataIndex get /CairoDataIndex CairoDataIndex 1 add def }
    { () } ifelse
} def
/cairo_flush_ascii85_file { cairo_ascii85_file status { cairo_ascii85_file flushfile } if } def
/cairo_image { image cairo_flush_ascii85_file } def
/cairo_imagemask { imagemask cairo_flush_ascii85_file } def
%%EndProlog
%%BeginSetup
%%EndSetup
%%Page: 1 1
%%BeginPageSetup
%%PageBoundingBox: 3 42 381 342
%%EndPageSetup
q 3 42 378 300 rectclip
1 0 0 -1 0 384 cm q
0.921569 0.447059 0.533333 rg
375.75 205.719 m 375.75 250.531 l 375.75 256.496 373.395 262.219 369.195
 266.453 c 340.492 295.441 l 336.766 299.199 335.062 304.516 335.91 309.742
 c 336.219 311.625 l 337.031 316.625 335.512 321.719 332.094 325.453 c 326.316
 331.762 l 320.871 337.711 311.941 338.895 305.137 334.566 c 296.391 329.016
 l 292.297 326.414 287.266 325.734 282.621 327.148 c 262.59 333.262 l 257.477
 334.824 251.965 334.387 247.164 332.039 c 160.141 289.613 l 151.402 285.355
 146.715 275.668 148.801 266.176 c 149.508 262.969 149.457 259.645 148.641
 256.461 c 144.344 239.625 l 142.934 234.086 139.328 229.359 134.363 226.531
 c 115.215 215.625 l 111.492 213.504 108.504 210.301 106.648 206.438 c 67.934
 125.836 l 65.988 121.793 61.508 119.633 57.133 120.625 c 52.758 121.621
 49.652 125.504 49.641 129.988 c 49.641 131.453 49.98 132.895 50.625 134.203
 c 92.949 220.559 l 96.336 227.48 93.5 235.836 86.602 239.266 c 79.699 242.695
 71.328 239.906 67.859 233.023 c 22.305 143.273 l 12.328 123.824 7.527 102.137
 8.363 80.297 c 9 65.102 11.34 55.23 22.215 49.41 c 33.891 43.156 58.539
 49.328 73.934 57.047 c 86.887 63.547 104.953 71.648 112.441 70.449 c 122.551
 68.836 132.074 65.887 147.18 82.754 c 154.879 91.402 165.895 96.363 177.473
 96.391 c 188.352 96.387 198.77 100.762 206.387 108.531 c 232.281 134.969
 l 240.262 143.113 244.422 154.258 243.727 165.637 c 241.824 196.801 l 241.297
 205.41 244.695 213.797 251.062 219.613 c 268.262 235.328 l 275.906 242.305
 286.719 244.621 296.551 241.387 c 306.238 238.199 l 316.145 234.949 323.492
 226.566 325.418 216.324 c 327.344 206.07 l 328.441 200.25 333.098 195.762
 338.953 194.887 c 359.543 191.797 l 363.602 191.184 367.727 192.367 370.84
 195.039 c 373.953 197.715 375.746 201.613 375.75 205.719 c h
375.75 205.719 m f
0.768627 0.376471 0.462745 rg
38.055 158.273 m 28.078 138.824 23.277 117.137 24.113 95.297 c 24.75 80.102
 27.09 70.23 37.965 64.41 c 49.641 58.156 74.289 64.328 89.684 72.047 c 
102.637 78.547 120.703 86.648 128.191 85.449 c 138.301 83.836 147.824 80.887
 162.93 97.754 c 170.629 106.402 181.645 111.363 193.223 111.391 c 201.418
 111.387 209.422 113.871 216.172 118.523 c 206.387 108.531 l 198.77 100.762
 188.352 96.387 177.473 96.391 c 165.895 96.363 154.879 91.402 147.18 82.754
 c 132.074 65.887 122.551 68.836 112.441 70.449 c 104.953 71.648 86.887 
63.547 73.934 57.047 c 58.539 49.328 33.891 43.156 22.215 49.41 c 11.34 
55.23 9 65.102 8.363 80.297 c 7.527 102.137 12.328 123.824 22.305 143.273
 c 67.859 233.023 l 70.168 237.574 74.773 240.508 79.875 240.676 c h
38.055 158.273 m f
0.156863 0.258824 0.407843 rg
373.797 191.652 m 369.688 188.113 364.238 186.543 358.875 187.352 c 338.289
 190.438 l 330.539 191.602 324.375 197.539 322.922 205.238 c 321 215.496
 l 319.371 224.125 313.176 231.188 304.832 233.926 c 295.141 237.109 l 286.852
 239.832 277.738 237.879 271.293 232 c 254.102 216.293 l 248.723 211.402
 245.855 204.332 246.312 197.074 c 248.219 165.91 l 248.98 153.262 244.363
 140.879 235.5 131.82 c 209.602 105.383 l 201.125 96.773 189.559 91.914 
177.477 91.887 c 167.18 91.852 157.383 87.441 150.535 79.754 c 134.754 62.129
 123.539 64.02 113.645 65.691 c 113.008 65.797 112.371 65.902 111.734 66.008
 c 109.973 66.285 102.184 66.18 75.957 53.027 c 66.941 48.582 57.359 45.398
 47.48 43.559 c 39.34 42.086 27.98 41.219 20.094 45.441 c 6.156 52.906 4.434
 66.656 3.863 80.102 c 3.012 102.715 7.98 125.164 18.293 145.309 c 63.848
 235.062 l 68.449 244.117 79.492 247.77 88.586 243.25 c 97.684 238.727 101.434
 227.715 96.988 218.582 c 54.668 132.227 l 53.398 129.629 54.539 126.5 57.184
 125.332 c 59.711 124.195 62.684 125.285 63.879 127.789 c 102.594 208.395
 l 104.84 213.082 108.469 216.973 112.988 219.539 c 132.137 230.445 l 136.035
 232.676 138.867 236.387 139.988 240.738 c 144.281 257.582 l 144.914 260.082
 144.957 262.695 144.406 265.211 c 141.852 276.738 147.547 288.512 158.176
 293.656 c 245.199 336.086 l 251.02 338.934 257.707 339.465 263.906 337.566
 c 283.941 331.453 l 287.328 330.422 290.996 330.918 293.988 332.816 c 302.727
 338.367 l 311.375 343.875 322.73 342.367 329.645 334.797 c 335.414 328.492
 l 339.777 323.75 341.715 317.262 340.664 310.902 c 340.355 309.02 l 339.746
 305.215 340.984 301.348 343.695 298.605 c 372.398 269.617 l 377.441 264.547
 380.266 257.684 380.25 250.531 c 380.25 205.719 l 380.25 200.312 377.895
 195.176 373.797 191.652 c h
371.25 250.531 m 371.262 255.309 369.371 259.898 366 263.285 c 337.297 
292.273 l 332.566 297.066 330.402 303.82 331.473 310.469 c 331.777 312.352
 l 332.379 315.992 331.266 319.707 328.77 322.422 c 323 328.727 l 319.027
 333.07 312.512 333.934 307.547 330.773 c 298.809 325.223 l 293.602 321.914
 287.211 321.047 281.312 322.852 c 261.277 328.961 l 257.254 330.191 252.918
 329.852 249.141 328.004 c 162.117 285.566 l 155.234 282.234 151.543 274.609
 153.195 267.145 c 154.047 263.254 153.98 259.215 153 255.355 c 148.703 
238.512 l 146.977 231.797 142.605 226.066 136.586 222.621 c 117.441 211.715
 l 114.512 210.051 112.16 207.531 110.707 204.492 c 71.992 123.891 l 70.379
 120.488 67.477 117.875 63.93 116.625 c 60.379 115.375 56.48 115.594 53.094
 117.23 c 49.707 118.871 47.113 121.793 45.895 125.352 c 44.672 128.91 44.922
 132.809 46.586 136.18 c 88.906 222.543 l 91.16 227.234 89.223 232.863 84.559
 235.176 c 79.898 237.488 74.242 235.621 71.871 230.988 c 26.316 141.238
 l 16.703 122.473 12.066 101.551 12.855 80.484 c 13.543 64.25 16.332 57.664
 24.344 53.375 c 33.664 48.379 56.469 53.324 71.918 61.07 c 102.781 76.551
 110.582 75.301 113.148 74.895 c 113.812 74.785 114.477 74.676 115.141 74.562
 c 124.195 73.035 131.352 71.824 143.824 85.754 c 152.383 95.348 164.617
 100.852 177.473 100.887 c 187.137 100.906 196.387 104.793 203.168 111.68
 c 229.066 138.121 l 236.152 145.355 239.844 155.254 239.234 165.359 c 237.328
 196.527 l 236.699 206.496 240.637 216.215 248.031 222.938 c 265.227 238.648
 l 274.07 246.719 286.578 249.398 297.953 245.664 c 307.641 242.477 l 319.105
 238.711 327.609 229.012 329.844 217.156 c 331.77 206.895 l 332.516 202.961
 335.668 199.926 339.629 199.336 c 360.215 196.246 l 362.977 195.828 365.785
 196.633 367.902 198.453 c 370.023 200.273 371.246 202.926 371.25 205.719
 c h
371.25 250.531 m f
Q Q
showpage
%%Trailer
end
%%EOF
