%!PS-Adobe-3.0 EPSF-3.0
%%Creator: cairo 1.16.0 (https://cairographics.org)
%%CreationDate: Tue Feb  2 14:48:29 2021
%%Pages: 1
%%DocumentData: Clean7Bit
%%LanguageLevel: 2
%%BoundingBox: 3 12 381 372
%%EndComments
%%BeginProlog
50 dict begin
/q { gsave } bind def
/Q { grestore } bind def
/cm { 6 array astore concat } bind def
/w { setlinewidth } bind def
/J { setlinecap } bind def
/j { setlinejoin } bind def
/M { setmiterlimit } bind def
/d { setdash } bind def
/m { moveto } bind def
/l { lineto } bind def
/c { curveto } bind def
/h { closepath } bind def
/re { exch dup neg 3 1 roll 5 3 roll moveto 0 rlineto
      0 exch rlineto 0 rlineto closepath } bind def
/S { stroke } bind def
/f { fill } bind def
/f* { eofill } bind def
/n { newpath } bind def
/W { clip } bind def
/W* { eoclip } bind def
/BT { } bind def
/ET { } bind def
/BDC { mark 3 1 roll /BDC pdfmark } bind def
/EMC { mark /EMC pdfmark } bind def
/cairo_store_point { /cairo_point_y exch def /cairo_point_x exch def } def
/Tj { show currentpoint cairo_store_point } bind def
/TJ {
  {
    dup
    type /stringtype eq
    { show } { -0.001 mul 0 cairo_font_matrix dtransform rmoveto } ifelse
  } forall
  currentpoint cairo_store_point
} bind def
/cairo_selectfont { cairo_font_matrix aload pop pop pop 0 0 6 array astore
    cairo_font exch selectfont cairo_point_x cairo_point_y moveto } bind def
/Tf { pop /cairo_font exch def /cairo_font_matrix where
      { pop cairo_selectfont } if } bind def
/Td { matrix translate cairo_font_matrix matrix concatmatrix dup
      /cairo_font_matrix exch def dup 4 get exch 5 get cairo_store_point
      /cairo_font where { pop cairo_selectfont } if } bind def
/Tm { 2 copy 8 2 roll 6 array astore /cairo_font_matrix exch def
      cairo_store_point /cairo_font where { pop cairo_selectfont } if } bind def
/g { setgray } bind def
/rg { setrgbcolor } bind def
/d1 { setcachedevice } bind def
/cairo_data_source {
  CairoDataIndex CairoData length lt
    { CairoData CairoDataIndex get /CairoDataIndex CairoDataIndex 1 add def }
    { () } ifelse
} def
/cairo_flush_ascii85_file { cairo_ascii85_file status { cairo_ascii85_file flushfile } if } def
/cairo_image { image cairo_flush_ascii85_file } def
/cairo_imagemask { imagemask cairo_flush_ascii85_file } def
%%EndProlog
%%BeginSetup
%%EndSetup
%%Page: 1 1
%%BeginPageSetup
%%PageBoundingBox: 3 12 381 372
%%EndPageSetup
q 3 12 378 360 rectclip
1 0 0 -1 0 384 cm q
0.52549 0.564706 0.615686 rg
259.98 343.352 m 259.98 366.562 l 124.027 366.562 l 124.027 343.352 l 168.805
 353.25 215.203 353.25 259.98 343.352 c h
259.98 343.352 m f
0.423529 0.454902 0.486275 rg
123.75 343.352 m 123.75 366.75 l 147 366.75 l 147 347.633 l 139.5 346.496
 131.25 345.062 123.75 343.352 c h
123.75 343.352 m f
0.917647 0.627451 0.52549 rg
354.09 196.891 m 356.852 196.168 359.789 196.695 362.129 198.328 c 364.473
 199.961 365.98 202.539 366.254 205.379 c 368.754 231.488 l 368.715 231.645
 l 366.535 231.199 364.309 231 362.086 231.051 c 331.574 231.051 l 331.574
 205.949 l h
354.09 196.891 m f
0.929412 0.74902 0.541176 rg
331.574 205.949 m 331.574 231.051 l 298.41 231.051 l 298.41 230.699 l 259.973
 214.352 l 261.336 210.93 263.852 207.09 267.504 205.051 c 309.914 181.379
 l 325.738 172.551 l 328.348 171.09 331.566 172.969 331.574 175.957 c h
331.574 205.949 m f
0.788235 0.380392 0.466667 rg
9.309 256.973 m 374.699 256.973 l 367.359 296.348 321.977 329.219 259.98
 343.352 c 215.203 353.25 168.805 353.25 124.027 343.352 c 62.031 329.219
 16.648 296.348 9.309 256.973 c h
9.309 256.973 m f
0.929412 0.74902 0.541176 rg
51.188 180.516 m 81.945 194.781 l 61.559 231.051 l 21.922 231.051 l 19.617
 230.984 17.312 231.227 15.066 231.766 c 20.023 179.918 l 20.297 177.133
 21.773 174.605 24.066 173.008 c 26.363 171.406 29.242 170.891 31.949 171.602
 c h
51.188 180.516 m f
0.917647 0.627451 0.52549 rg
71.766 156.684 m 94.051 173.242 l 81.945 194.781 l 51.188 180.516 l 57.57
 159.891 l 58.875 157.418 61.199 155.637 63.93 155.02 c 66.66 154.402 69.523
 155.008 71.766 156.684 c h
71.766 156.684 m f
0.827451 0.670588 0.517647 rg
81.945 194.781 m 94.051 173.242 l 97.441 167.211 l 100.457 161.875 106.094
 158.551 112.227 158.504 c 118.359 158.457 124.047 161.688 127.148 166.98
 c 137.113 184.066 l 137.113 184.074 l 148.359 203.348 l 164.52 231.051 
l 61.559 231.051 l h
81.945 194.781 m f
298.41 230.699 m 298.41 231.051 l 208.672 231.051 l 207.195 219.855 l 205.477
 206.773 218.684 196.793 230.863 201.977 c 237.676 204.871 l 259.973 214.352
 l h
298.41 230.699 m f
0.917647 0.627451 0.52549 rg
236.348 176.609 m 237.676 204.871 l 230.863 201.977 l 218.684 196.793 205.477
 206.773 207.195 219.855 c 208.672 231.051 l 164.52 231.051 l 148.359 203.348
 l 148.477 203.281 l 208.719 163.922 l 209.887 163.156 l 216.461 158.836
 225.133 159.555 230.902 164.902 c 234.203 167.926 236.164 172.137 236.348
 176.609 c h
236.348 176.609 m f
0.929412 0.74902 0.541176 rg
208.719 163.922 m 148.477 203.281 l 148.359 203.348 l 137.113 184.074 l
 137.113 136.492 l 137.129 132.984 138.996 129.742 142.027 127.973 c 145.059
 126.203 148.797 126.168 151.859 127.883 c 201.188 155.414 l 204.605 157.293
 207.27 160.297 208.719 163.922 c h
208.719 163.922 m f
0.827451 0.670588 0.517647 rg
246.066 148.801 m 230.902 164.902 l 225.133 159.555 216.461 158.836 209.887
 163.156 c 208.719 163.922 l 207.27 160.297 204.605 157.293 201.188 155.414
 c 207.879 133.359 l 209.188 130.883 211.508 129.105 214.238 128.488 c 216.969
 127.871 219.828 128.477 222.074 130.148 c h
246.066 148.801 m f
0.952941 0.807843 0.490196 rg
295.836 133.492 m 309.914 181.379 l 267.504 205.051 l 263.852 207.09 261.336
 210.93 259.973 214.352 c 237.676 204.871 l 236.348 176.609 l 236.164 172.137
 234.203 167.926 230.902 164.902 c 246.066 148.801 l 266.934 126.645 l 271.133
 122.176 277.398 120.289 283.367 121.703 c 289.336 123.117 294.09 127.613
 295.836 133.492 c h
295.836 133.492 m f
0.827451 0.670588 0.517647 rg
273.336 89.953 m 274.496 92.055 274.441 94.613 273.195 96.66 c 271.945 
98.703 269.695 99.926 267.301 99.855 c 188.309 97.719 l 185.551 97.645 183.043
 96.102 181.734 93.672 c 180.426 91.246 180.512 88.305 181.965 85.957 c 
222.203 21.082 l 223.645 18.754 226.215 17.367 228.953 17.438 c 231.688 
17.508 234.184 19.023 235.508 21.422 c h
273.336 89.953 m f
0.929412 0.74902 0.541176 rg
151.941 56.762 m 154.301 57.184 156.254 58.84 157.055 61.098 c 157.855 
63.355 157.383 65.871 155.82 67.688 c 104.301 127.566 l 102.504 129.66 99.723
 130.629 97.012 130.113 c 94.301 129.594 92.074 127.668 91.172 125.062 c
 66.211 52.934 l 65.316 50.348 65.863 47.48 67.645 45.402 c 69.426 43.324
 72.18 42.344 74.871 42.832 c h
133.281 70.207 m 133.332 70.188 133.359 70.133 133.344 70.078 c 133.328
 70.027 133.266 69.996 133.215 70.02 c 133.098 70.07 133.16 70.246 133.281
 70.207 c h
118.727 87.898 m 118.777 87.883 118.805 87.824 118.793 87.773 c 118.773
 87.719 118.719 87.691 118.664 87.711 c 118.613 87.727 118.586 87.781 118.605
 87.832 c 118.621 87.883 118.672 87.914 118.727 87.898 c h
102.855 109.371 m 102.906 109.352 102.93 109.297 102.914 109.246 c 102.875
 109.121 102.688 109.18 102.727 109.305 c 102.746 109.359 102.801 109.387
 102.855 109.371 c h
93.098 85.004 m 93.148 84.984 93.176 84.93 93.156 84.879 c 93.141 84.824
 93.082 84.797 93.031 84.816 c 92.98 84.836 92.953 84.887 92.969 84.938 
c 92.988 84.992 93.043 85.02 93.098 85.004 c h
83.34 56.961 m 83.391 56.941 83.414 56.887 83.398 56.836 c 83.379 56.785
 83.324 56.758 83.273 56.773 c 83.219 56.793 83.191 56.852 83.211 56.902
 c 83.23 56.953 83.289 56.98 83.34 56.961 c h
83.34 56.961 m f
0.921569 0.447059 0.533333 rg
375.27 238.074 m 374.574 234.262 372.18 232.422 368.715 231.617 c 366.535
 231.164 364.312 230.957 362.086 231 c 21.922 231 l 19.613 230.941 17.309
 231.191 15.066 231.738 c 11.754 232.668 9.457 234.723 8.633 238.973 c 8.266
 241.238 8.141 243.535 8.258 245.824 c 8.258 249.656 8.609 253.48 9.309 
257.25 c 374.699 257.25 l 375.398 253.484 375.75 249.66 375.75 245.832 c
 375.82 243.234 375.66 240.641 375.27 238.074 c h
375.27 238.074 m f
0.619608 0.309804 0.384314 rg
147.277 343.488 m 85.281 329.359 39.898 296.25 32.559 257.25 c 9.309 257.25
 l 16.648 296.25 62.031 329.359 124.027 343.488 c 146.344 348.461 169.145
 350.93 192.008 350.844 c 195.914 350.844 199.789 350.801 203.633 350.664
 c 184.664 350.043 165.797 347.641 147.277 343.488 c h
147.277 343.488 m f
0.698039 0.364706 0.443137 rg
31.883 238.973 m 32.707 234.723 35.004 232.668 38.316 231.738 c 40.559 
231.191 42.863 230.941 45.172 231 c 21.922 231 l 19.613 230.941 17.309 231.191
 15.066 231.738 c 11.754 232.668 9.457 234.723 8.633 238.973 c 8.266 241.238
 8.141 243.535 8.258 245.824 c 8.258 249.656 8.609 253.48 9.309 257.25 c
 32.559 257.25 l 31.859 253.48 31.508 249.656 31.508 245.824 c 31.391 243.535
 31.516 241.238 31.883 238.973 c h
31.883 238.973 m f
0.156863 0.258824 0.407843 rg
351.68 210.898 m 347.582 210.898 345.527 215.855 348.426 218.754 c 351.328
 221.652 356.281 219.602 356.281 215.5 c 356.277 212.961 354.223 210.902
 351.68 210.898 c h
351.68 210.898 m f
314.992 199.559 m 319.086 199.559 321.141 194.605 318.242 191.711 c 315.344
 188.812 310.391 190.863 310.391 194.961 c 310.395 197.5 312.453 199.559
 314.992 199.559 c h
314.992 199.559 m f
314.992 221.809 m 319.086 221.809 321.141 216.855 318.242 213.961 c 315.344
 211.062 310.391 213.113 310.391 217.211 c 310.395 219.75 312.453 221.809
 314.992 221.809 c h
314.992 221.809 m f
111.926 180.734 m 116.023 180.734 118.074 175.777 115.176 172.883 c 112.281
 169.984 107.328 172.035 107.328 176.133 c 107.328 178.672 109.387 180.73
 111.926 180.734 c h
111.926 180.734 m f
97.324 206.406 m 101.422 206.406 103.473 201.453 100.578 198.555 c 97.68
 195.656 92.727 197.711 92.727 201.809 c 92.727 204.348 94.785 206.402 97.324
 206.406 c h
97.324 206.406 m f
129.406 197.527 m 129.406 200.066 127.348 202.129 124.809 202.129 c 122.27
 202.129 120.211 200.066 120.211 197.527 c 120.211 194.988 122.27 192.93
 124.809 192.93 c 127.348 192.93 129.406 194.988 129.406 197.527 c h
129.406 197.527 m f
112.785 214.324 m 108.688 214.324 106.637 219.277 109.535 222.176 c 112.43
 225.07 117.383 223.02 117.383 218.922 c 117.383 216.383 115.324 214.328
 112.785 214.324 c h
112.785 214.324 m f
170.699 214.965 m 174.797 214.961 176.848 210.008 173.949 207.113 c 171.055
 204.215 166.098 206.27 166.102 210.367 c 166.102 212.902 168.16 214.961
 170.699 214.965 c h
170.699 214.965 m f
217.941 185.867 m 222.039 185.867 224.09 180.914 221.191 178.016 c 218.297
 175.117 213.344 177.172 213.344 181.27 c 213.344 183.809 215.402 185.863
 217.941 185.867 c h
217.941 185.867 m f
195.609 198.703 m 199.707 198.703 201.758 193.75 198.863 190.852 c 195.965
 187.957 191.012 190.008 191.012 194.105 c 191.012 196.645 193.07 198.703
 195.609 198.703 c h
195.609 198.703 m f
193.891 224.379 m 197.988 224.379 200.043 219.422 197.145 216.527 c 194.246
 213.629 189.293 215.68 189.293 219.777 c 189.297 222.316 191.352 224.375
 193.891 224.379 c h
193.891 224.379 m f
222.789 218.066 m 222.789 222.164 227.742 224.215 230.641 221.32 c 233.539
 218.422 231.484 213.469 227.391 213.469 c 224.852 213.473 222.793 215.527
 222.789 218.066 c h
222.789 218.066 m f
254.016 161.051 m 258.113 161.051 260.164 156.098 257.266 153.199 c 254.371
 150.301 249.414 152.352 249.414 156.449 c 249.418 158.988 251.477 161.047
 254.016 161.051 c h
254.016 161.051 m f
252.301 199.559 m 256.398 199.559 258.449 194.605 255.551 191.707 c 252.652
 188.812 247.699 190.863 247.699 194.961 c 247.703 197.5 249.762 199.559
 252.301 199.559 c h
252.301 199.559 m f
291.805 173.031 m 295.902 173.031 297.953 168.078 295.059 165.18 c 292.16
 162.281 287.207 164.336 287.207 168.434 c 287.211 170.973 289.266 173.027
 291.805 173.031 c h
291.805 173.031 m f
278.062 145.645 m 282.16 145.645 284.211 140.691 281.316 137.793 c 278.418
 134.898 273.465 136.949 273.465 141.047 c 273.469 143.586 275.523 145.645
 278.062 145.645 c h
278.062 145.645 m f
267.758 180.734 m 271.855 180.734 273.906 175.777 271.008 172.883 c 268.113
 169.984 263.156 172.035 263.156 176.133 c 263.16 178.672 265.219 180.73
 267.758 180.734 c h
267.758 180.734 m f
294.383 213.254 m 298.48 213.25 300.531 208.297 297.633 205.402 c 294.734
 202.504 289.781 204.555 289.781 208.652 c 289.785 211.191 291.844 213.25
 294.383 213.254 c h
294.383 213.254 m f
224.258 146.184 m 224.258 148.723 222.199 150.781 219.66 150.781 c 217.117
 150.781 215.059 148.723 215.059 146.184 c 215.059 143.641 217.117 141.582
 219.66 141.582 c 222.199 141.582 224.258 143.641 224.258 146.184 c h
224.258 146.184 m f
150.949 149.926 m 155.047 149.926 157.098 144.969 154.199 142.074 c 151.301
 139.176 146.348 141.23 146.348 145.328 c 146.352 147.867 148.41 149.922
 150.949 149.926 c h
150.949 149.926 m f
163.832 165.328 m 167.93 165.328 169.98 160.375 167.082 157.477 c 164.184
 154.582 159.23 156.633 159.23 160.73 c 159.234 163.27 161.293 165.324 163.832
 165.328 c h
163.832 165.328 m f
156.406 179.559 m 156.406 175.457 151.453 173.406 148.555 176.305 c 145.656
 179.203 147.707 184.156 151.809 184.156 c 154.344 184.152 156.402 182.094
 156.406 179.559 c h
156.406 179.559 m f
186.16 169.605 m 190.258 169.605 192.312 164.652 189.414 161.758 c 186.516
 158.859 181.562 160.91 181.562 165.008 c 181.566 167.547 183.625 169.605
 186.16 169.605 c h
186.16 169.605 m f
68.492 166.398 m 64.398 166.402 62.344 171.355 65.242 174.25 c 68.141 177.148
 73.094 175.098 73.094 171 c 73.09 168.461 71.035 166.402 68.492 166.398
 c h
68.492 166.398 m f
34.137 192.715 m 38.234 192.715 40.289 187.758 37.391 184.863 c 34.492 
181.965 29.539 184.016 29.539 188.113 c 29.543 190.652 31.602 192.711 34.137
 192.715 c h
34.137 192.715 m f
34.137 218.387 m 38.234 218.387 40.289 213.434 37.391 210.535 c 34.492 
207.641 29.539 209.691 29.539 213.789 c 29.543 216.328 31.602 218.383 34.137
 218.387 c h
34.137 218.387 m f
51.316 203.84 m 55.414 203.84 57.465 198.887 54.566 195.988 c 51.672 193.09
 46.715 195.141 46.715 199.238 c 46.719 201.777 48.777 203.836 51.316 203.84
 c h
51.316 203.84 m f
49.293 218.926 m 49.293 223.023 54.246 225.074 57.145 222.176 c 60.043 
219.281 57.988 214.324 53.895 214.324 c 51.355 214.328 49.297 216.387 49.293
 218.926 c h
49.293 218.926 m f
86.922 126.535 m 88.328 130.68 91.863 133.738 96.168 134.535 c 96.941 134.684
 97.73 134.758 98.516 134.758 c 102.059 134.758 105.426 133.203 107.719 
130.5 c 159.234 70.621 l 161.848 67.582 162.637 63.371 161.297 59.594 c 
159.953 55.812 156.691 53.043 152.742 52.332 c 75.672 38.406 l 71.402 37.633
 67.047 39.18 64.227 42.473 c 61.406 45.766 60.543 50.309 61.961 54.406 
c h
71.059 48.332 m 71.656 47.625 72.531 47.215 73.457 47.207 c 73.664 47.207
 73.871 47.227 74.07 47.266 c 151.141 61.188 l 152.805 61.48 153.512 63.473
 152.41 64.75 c 100.895 124.633 l 99.277 126.512 96.238 125.93 95.426 123.59
 c 70.465 51.461 l 70.082 50.387 70.309 49.191 71.059 48.332 c h
71.059 48.332 m f
131.238 74.25 m 135.77 76.449 140.031 70.82 136.688 67.055 c 133.34 63.293
 127.25 66.871 128.906 71.625 c 129.301 72.777 130.141 73.719 131.238 74.25
 c h
131.238 74.25 m f
103.66 67.383 m 108.184 69.578 112.445 63.957 109.105 60.191 c 105.77 56.43
 99.676 59.988 101.32 64.746 c 101.715 65.902 102.559 66.852 103.66 67.383
 c h
103.66 67.383 m f
116.688 91.941 m 121.215 94.141 125.48 88.516 122.141 84.75 c 118.801 80.984
 112.707 84.547 114.348 89.305 c 114.746 90.457 115.586 91.41 116.688 91.941
 c h
116.688 91.941 m f
93.074 89.508 m 93.578 89.508 94.074 89.426 94.547 89.262 c 94.574 89.25
 l 99.906 87.398 97.863 79.426 92.297 80.367 c 86.734 81.312 87.43 89.516
 93.074 89.504 c h
93.074 89.508 m f
81.293 61.004 m 82.391 61.543 83.656 61.617 84.805 61.215 c 89.562 59.57
 88.598 52.578 83.574 52.277 c 78.551 51.98 76.766 58.809 81.293 61.004 
c h
81.293 61.004 m f
100.812 113.414 m 105.34 115.613 109.602 109.98 106.258 106.219 c 102.91
 102.457 96.82 106.035 98.477 110.789 c 98.875 111.938 99.715 112.883 100.812
 113.414 c h
100.812 113.414 m f
188.188 102.215 m 267.18 104.355 l 267.289 104.355 267.391 104.359 267.496
 104.359 c 271.453 104.355 275.109 102.262 277.117 98.855 c 279.125 95.453
 279.184 91.238 277.273 87.777 c 239.445 19.246 l 237.348 15.449 233.398
 13.051 229.062 12.941 c 224.73 12.832 220.66 15.027 218.375 18.711 c 178.141
 83.586 l 175.84 87.301 175.699 91.965 177.773 95.812 c 179.848 99.656 183.82
 102.102 188.191 102.215 c h
185.789 88.324 m 226.023 23.453 l 226.602 22.5 227.641 21.926 228.754 21.938
 c 228.828 21.938 l 229.973 21.953 231.016 22.59 231.559 23.594 c 269.398
 92.129 l 269.785 92.809 269.77 93.645 269.352 94.309 c 268.945 94.98 268.211
 95.379 267.426 95.359 c 188.434 93.219 l 185.961 93.156 184.492 90.434 
185.793 88.328 c h
185.789 88.324 m f
248.746 87.797 m 248.766 87.809 l 249.484 88.25 250.312 88.484 251.156 
88.484 c 256.484 88.496 257.551 80.941 252.426 79.477 c 247.301 78.012 244.215
 84.984 248.746 87.793 c h
248.746 87.797 m f
236.668 62.078 m 236.691 62.094 l 237.41 62.539 238.242 62.773 239.09 62.773
 c 244.43 62.789 245.504 55.227 240.371 53.75 c 235.242 52.277 232.137 59.258
 236.672 62.078 c h
236.668 62.078 m f
225.816 87.676 m 226.543 88.133 227.387 88.379 228.25 88.379 c 228.602 
88.379 228.949 88.34 229.293 88.258 c 230.484 87.988 231.52 87.246 232.164
 86.207 c 234.324 82.73 231.211 78.375 227.223 79.297 c 223.234 80.219 222.348
 85.5 225.816 87.676 c h
225.816 87.676 m f
211.898 65.984 m 211.922 65.996 l 217.172 69.355 222.219 61.484 216.973
 58.113 c 211.73 54.742 206.664 62.598 211.898 65.984 c h
211.898 65.984 m f
227.527 40.734 m 228.246 41.176 229.074 41.41 229.918 41.41 c 235.258 41.414
 236.309 33.848 231.172 32.395 c 226.035 30.945 222.973 37.949 227.527 40.734
 c h
227.527 40.734 m f
199.145 88.926 m 200.184 89.57 201.441 89.773 202.633 89.496 c 203.816 
89.219 204.84 88.48 205.477 87.449 c 206.832 85.293 206.176 82.445 204.012
 81.098 c 201.848 79.754 199.004 80.422 197.668 82.59 c 196.324 84.746 196.984
 87.586 199.145 88.926 c h
199.145 88.926 m f
158.688 104.773 m 155.438 107.125 l 153.41 108.574 152.945 111.398 154.406
 113.422 c 155.871 115.441 158.695 115.891 160.711 114.418 c 163.957 112.07
 l 165.973 110.613 166.426 107.801 164.969 105.785 c 163.512 103.773 160.699
 103.32 158.688 104.773 c h
158.688 104.773 m f
30.418 75.219 m 33.598 77.66 l 35.57 79.191 38.41 78.828 39.934 76.848 
c 41.453 74.867 41.07 72.027 39.078 70.52 c 35.898 68.078 l 31.16 64.598
 25.832 71.547 30.422 75.219 c h
30.418 75.219 m f
274.215 56.559 m 276.402 57.738 279.133 56.918 280.309 54.73 c 282.211 
51.203 l 285.055 45.918 277.129 41.652 274.285 46.938 c 272.387 50.465 l
 271.207 52.652 272.027 55.383 274.215 56.559 c h
274.215 56.559 m f
136.246 39.75 m 140.344 39.75 142.395 34.797 139.5 31.898 c 136.602 29 
131.648 31.055 131.648 35.152 c 131.652 37.691 133.707 39.746 136.246 39.75
 c h
136.246 39.75 m f
234.547 115.945 m 234.547 120.043 239.504 122.098 242.402 119.199 c 245.297
 116.301 243.246 111.348 239.148 111.348 c 236.609 111.348 234.551 113.406
 234.547 115.945 c h
234.547 115.945 m f
372.977 228.344 m 370.742 204.953 l 370.34 200.801 368.141 197.035 364.719
 194.645 c 361.301 192.254 357.004 191.484 352.965 192.535 c 352.703 192.602
 352.449 192.695 352.203 192.809 c 336.078 200.289 l 336.078 175.957 l 336.074
 172.973 334.488 170.215 331.914 168.707 c 329.34 167.199 326.16 167.164
 323.555 168.621 c 312.648 174.707 l 300.148 132.227 l 297.949 124.801 291.949
 119.117 284.414 117.328 c 276.879 115.539 268.961 117.914 263.656 123.559
 c 245.594 142.734 l 224.836 126.602 l 224.762 126.543 l 221.461 124.086
 217.254 123.195 213.238 124.102 c 209.227 125.012 205.812 127.629 203.895
 131.27 c 203.762 131.52 203.652 131.785 203.57 132.055 c 198.5 148.762 
l 154.051 123.957 l 149.594 121.461 144.152 121.512 139.742 124.09 c 135.336
 126.668 132.625 131.387 132.613 136.492 c 132.613 167.426 l 131.031 164.711
 l 127.121 158.027 119.934 153.941 112.188 154.004 c 104.445 154.066 97.324
 158.266 93.52 165.012 c 92.633 166.586 l 74.453 153.074 l 71.156 150.617
 66.945 149.723 62.934 150.633 c 58.922 151.539 55.508 154.16 53.59 157.801
 c 53.461 158.043 53.355 158.297 53.273 158.562 c 48.406 174.273 l 33.84
 167.523 l 33.594 167.41 33.336 167.316 33.074 167.25 c 29.094 166.215 24.859
 166.973 21.484 169.328 c 18.109 171.684 15.938 175.398 15.539 179.492 c
 10.848 228.629 l 7.82 230.23 5.199 233.078 4.215 238.141 c 3.758 245.699
 l 3.758 260.871 8.914 275.531 19.082 289.281 c 28.707 302.297 42.422 313.949
 59.844 323.91 c 77.273 333.879 97.516 341.637 119.527 346.945 c 119.527
 366.562 l 119.527 369.047 121.543 371.062 124.027 371.062 c 259.98 371.062
 l 262.469 371.062 264.48 369.047 264.48 366.562 c 264.48 346.941 l 286.492
 341.633 306.734 333.875 324.168 323.906 c 341.598 313.938 355.301 302.293
 364.93 289.273 c 375.094 275.527 380.25 260.863 380.25 245.695 c 380.328
 242.871 380.141 240.051 379.691 237.262 c 379.137 233.332 376.598 229.965
 372.977 228.344 c h
336.074 209.586 m 336.312 210.098 l 355.562 201.172 l 358.598 200.586 361.477
 202.738 361.781 205.812 c 363.762 226.57 l 363.148 226.559 362.582 226.559
 362.09 226.559 c 336.074 226.559 l h
327.074 176.957 m 327.074 226.555 l 300.16 226.555 l 266.297 212.152 l 
267.195 210.867 268.352 209.785 269.695 208.977 c h
277.168 226.555 m 212.617 226.555 l 211.66 219.27 l 211.047 214.812 212.902
 210.371 216.504 207.676 c 220.109 204.906 224.934 204.305 229.105 206.113
 c h
270.219 129.723 m 273.312 126.43 277.93 125.043 282.324 126.082 c 286.723
 127.125 290.227 130.434 291.516 134.766 c 304.582 179.203 l 265.309 201.121
 l 262.227 202.918 259.66 205.48 257.855 208.562 c 242.031 201.832 l 240.84
 176.395 l 240.66 172.312 239.316 168.363 236.965 165.02 c h
212.043 135.141 m 213.609 132.637 216.973 131.988 219.355 133.734 c 239.398
 149.316 l 230.355 158.918 l 229.957 158.68 229.543 158.449 229.121 158.234
 c 223.297 155.211 216.402 155.031 210.43 157.75 c 209.305 156.172 207.969
 154.762 206.461 153.551 c h
212.348 166.922 m 216.125 164.445 220.938 164.18 224.965 166.223 c 228.992
 168.266 231.617 172.309 231.848 176.816 c 232.84 197.922 l 232.625 197.832
 l 225.504 194.785 217.297 195.793 211.121 200.465 c 204.941 205.137 201.742
 212.762 202.734 220.441 c 203.539 226.555 l 167.102 226.555 l 154.406 204.785
 l h
141.617 136.492 m 141.602 134.586 142.617 132.82 144.27 131.875 c 145.926
 130.879 147.988 130.855 149.668 131.812 c 198.996 159.344 l 200.426 160.137
 201.688 161.199 202.711 162.469 c 149.867 197 l 141.617 182.855 l h
101.367 169.418 m 103.59 165.484 107.746 163.039 112.266 163 c 116.785 
162.965 120.977 165.348 123.262 169.246 c 150.281 215.57 l 146.395 211.918
 140.434 216.664 143.121 221.273 c 145.809 225.879 152.875 223.027 151.609
 217.844 c 156.688 226.555 l 69.25 226.555 l 73.875 218.332 l 73.848 218.527
 73.832 218.723 73.832 218.922 c 73.82 223.832 80.469 225.355 82.594 220.934
 c 84.723 216.512 79.387 212.266 75.559 215.34 c h
61.73 161.676 m 63.301 159.152 66.695 158.512 69.082 160.289 c 88.188 174.492
 l 80.062 188.945 l 56.648 178.09 l h
24.5 180.344 m 24.633 178.879 25.41 177.547 26.621 176.711 c 27.742 175.918
 29.137 175.617 30.48 175.879 c 75.641 196.816 l 58.926 226.555 l 21.922
 226.555 l 21.387 226.555 20.766 226.555 20.082 226.574 c h
255.48 362.062 m 128.527 362.062 l 128.527 348.957 l 170.426 357.383 213.582
 357.383 255.48 348.957 c h
319.699 316.094 m 285.664 335.559 240.312 346.273 192.004 346.273 c 143.695
 346.273 98.348 335.559 64.312 316.094 c 37.781 300.922 20.777 281.934 14.984
 261.473 c 369.023 261.473 l 363.234 281.934 346.227 300.922 319.699 316.094
 c h
370.836 252.473 m 13.176 252.473 l 12.902 250.223 12.766 247.961 12.762
 245.695 c 13.051 239.852 l 13.566 237.188 14.273 235.559 21.922 235.559
 c 362.09 235.559 l 370.227 235.559 370.555 237.328 370.84 238.891 c 371.18
 241.145 371.316 243.422 371.25 245.695 c 371.246 247.961 371.109 250.223
 370.836 252.473 c h
370.836 252.473 m f
95.109 312.191 m 114.559 321.984 135.949 327.305 157.715 327.766 c 157.832
 327.766 l 163.832 327.844 163.945 318.844 157.945 318.766 c 137.508 318.336
 117.426 313.344 99.164 304.152 c 96.945 303.016 94.219 303.902 93.094 306.129
 c 91.969 308.359 92.875 311.078 95.109 312.188 c h
95.109 312.191 m f
73.574 298.949 m 75.535 300.387 77.543 301.793 79.547 303.125 c 81.617 
304.516 84.422 303.961 85.805 301.883 c 87.188 299.805 86.613 297 84.531
 295.633 c 82.645 294.375 80.75 293.051 78.902 291.695 c 74.082 288.25 68.844
 295.383 73.578 298.949 c h
73.574 298.949 m f
Q Q
showpage
%%Trailer
end
%%EOF
