%!PS-Adobe-3.0 EPSF-3.0
%%Creator: cairo 1.16.0 (https://cairographics.org)
%%CreationDate: Tue Feb  2 14:48:31 2021
%%Pages: 1
%%DocumentData: Clean7Bit
%%LanguageLevel: 2
%%BoundingBox: 20 3 364 381
%%EndComments
%%BeginProlog
50 dict begin
/q { gsave } bind def
/Q { grestore } bind def
/cm { 6 array astore concat } bind def
/w { setlinewidth } bind def
/J { setlinecap } bind def
/j { setlinejoin } bind def
/M { setmiterlimit } bind def
/d { setdash } bind def
/m { moveto } bind def
/l { lineto } bind def
/c { curveto } bind def
/h { closepath } bind def
/re { exch dup neg 3 1 roll 5 3 roll moveto 0 rlineto
      0 exch rlineto 0 rlineto closepath } bind def
/S { stroke } bind def
/f { fill } bind def
/f* { eofill } bind def
/n { newpath } bind def
/W { clip } bind def
/W* { eoclip } bind def
/BT { } bind def
/ET { } bind def
/BDC { mark 3 1 roll /BDC pdfmark } bind def
/EMC { mark /EMC pdfmark } bind def
/cairo_store_point { /cairo_point_y exch def /cairo_point_x exch def } def
/Tj { show currentpoint cairo_store_point } bind def
/TJ {
  {
    dup
    type /stringtype eq
    { show } { -0.001 mul 0 cairo_font_matrix dtransform rmoveto } ifelse
  } forall
  currentpoint cairo_store_point
} bind def
/cairo_selectfont { cairo_font_matrix aload pop pop pop 0 0 6 array astore
    cairo_font exch selectfont cairo_point_x cairo_point_y moveto } bind def
/Tf { pop /cairo_font exch def /cairo_font_matrix where
      { pop cairo_selectfont } if } bind def
/Td { matrix translate cairo_font_matrix matrix concatmatrix dup
      /cairo_font_matrix exch def dup 4 get exch 5 get cairo_store_point
      /cairo_font where { pop cairo_selectfont } if } bind def
/Tm { 2 copy 8 2 roll 6 array astore /cairo_font_matrix exch def
      cairo_store_point /cairo_font where { pop cairo_selectfont } if } bind def
/g { setgray } bind def
/rg { setrgbcolor } bind def
/d1 { setcachedevice } bind def
/cairo_data_source {
  CairoDataIndex CairoData length lt
    { CairoData CairoDataIndex get /CairoDataIndex CairoDataIndex 1 add def }
    { () } ifelse
} def
/cairo_flush_ascii85_file { cairo_ascii85_file status { cairo_ascii85_file flushfile } if } def
/cairo_image { image cairo_flush_ascii85_file } def
/cairo_imagemask { imagemask cairo_flush_ascii85_file } def
%%EndProlog
%%BeginSetup
%%EndSetup
%%Page: 1 1
%%BeginPageSetup
%%PageBoundingBox: 20 3 364 381
%%EndPageSetup
q 20 3 344 378 rectclip
1 0 0 -1 0 384 cm q
0.27451 0.537255 0.827451 rg
40.836 292.059 m 51.488 289.059 l 51.488 289.059 38.625 304.641 42.398 
315.57 c 45.254 323.836 35.016 328.133 30.93 329.895 c 29.961 330.305 28.91
 329.531 29.012 328.484 c 29.363 324.555 28.809 319.727 26.617 313.883 c
 18.84 293.16 40.004 286.395 40.559 286.223 c 38.656 288.426 l 37.172 290.051
 38.711 292.605 40.836 292.059 c h
40.836 292.059 m f
0.921569 0.447059 0.533333 rg
64.734 258.328 m 73.148 262.996 78.309 271.922 78.148 281.543 c 51.488 
289.059 l 40.836 292.059 l 38.711 292.605 37.172 290.051 38.656 288.426 
c 40.559 286.223 l 40.562 286.219 40.57 286.215 40.574 286.215 c h
64.734 258.328 m f
0.756863 0.372549 0.454902 rg
80.086 240.613 m 80.086 240.613 103.859 248.871 100.297 275.297 c 78.148
 281.543 l 78.309 271.922 73.148 262.996 64.734 258.328 c h
80.086 240.613 m f
0.921569 0.447059 0.533333 rg
129.914 257.895 m 132.434 260.316 135.09 262.586 137.871 264.699 c 137.863
 264.703 l 100.297 275.297 l 103.859 248.871 80.086 240.613 80.086 240.613
 c 104.258 212.723 l 106.707 223.379 111.07 233.5 117.129 242.602 c 117.137
 242.602 l 120.82 248.152 125.105 253.281 129.914 257.895 c h
129.914 257.895 m f
0.27451 0.537255 0.827451 rg
38.672 95.332 m 47.73 106.043 l 47.355 106.184 36.504 110.379 40.207 121.117
 c 43.066 129.383 35.016 133.996 30.93 135.75 c 29.961 136.164 28.906 135.387
 29.012 134.34 c 29.363 130.41 28.809 125.578 26.617 119.738 c 18.863 99.082
 38.199 92.559 38.836 92.355 c 38.012 93.152 37.938 94.449 38.672 95.332
 c h
38.672 95.332 m f
0.921569 0.447059 0.533333 rg
47.73 106.043 m 38.672 95.332 l 37.938 94.449 38.012 93.152 38.836 92.355
 c 38.84 92.352 38.844 92.348 38.852 92.348 c 39.418 91.762 40.273 91.559
 41.047 91.824 c 78.246 102.797 l 78.246 102.797 79.754 119.086 64.965 126.426
 c h
47.73 106.043 m f
0.756863 0.372549 0.454902 rg
100.898 109.477 m 100.898 109.477 105.613 136.094 80.535 144.832 c 64.965
 126.426 l 79.754 119.086 78.246 102.797 78.246 102.797 c h
100.898 109.477 m f
0.921569 0.447059 0.533333 rg
100.898 109.477 m 137.137 120.164 l 134.617 122.125 132.203 124.215 129.898
 126.426 c 129.891 126.426 l 116.891 138.922 107.891 154.992 104.031 172.605
 c 104.023 172.605 l 80.535 144.832 l 105.613 136.094 100.898 109.477 100.898
 109.477 c h
100.898 109.477 m f
195.871 9.898 m 206.488 47.266 l 192.586 56.168 180.031 47.266 180.031 
47.266 c 191.656 9.758 l 192.344 7.676 195.324 7.773 195.871 9.898 c h
195.871 9.898 m f
0.756863 0.372549 0.454902 rg
206.488 47.266 m 212.812 69.512 l 192.383 86.527 173.129 69.504 173.129
 69.504 c 180.031 47.266 l 180.031 47.266 192.586 56.168 206.488 47.266 
c h
206.488 47.266 m f
0.921569 0.447059 0.533333 rg
216.879 104.535 m 208.941 102.312 200.738 101.191 192.496 101.199 c 192.051
 101.199 191.617 101.199 191.176 101.211 c 182.453 101.324 173.797 102.707
 165.473 105.316 c 164.176 105.719 162.891 106.156 161.625 106.621 c 173.129
 69.504 l 173.129 69.504 192.383 86.527 212.812 69.512 c 223.363 106.621
 l 221.234 105.848 219.074 105.152 216.879 104.535 c h
216.879 104.535 m f
0.27451 0.537255 0.827451 rg
345.645 92.07 m 348.254 93.09 364.637 100.379 357.367 119.738 c 355.176
 125.578 354.629 130.41 354.977 134.34 c 355.086 135.387 354.031 136.164
 353.062 135.75 c 348.969 133.996 340.926 129.383 343.777 121.117 c 347.559
 110.191 337.086 106.254 337.086 106.254 c 346.336 95.574 l 347.34 94.469
 346.992 92.711 345.645 92.07 c h
345.645 92.07 m f
0.921569 0.447059 0.533333 rg
345.301 91.941 m 345.312 91.949 345.324 91.953 345.336 91.957 c 345.355
 91.961 345.375 91.965 345.391 91.973 c 345.426 91.988 345.48 92.012 345.539
 92.031 c 345.574 92.043 345.609 92.055 345.645 92.07 c 346.992 92.711 347.34
 94.469 346.336 95.574 c 337.086 106.254 l 320.242 125.684 l 303.422 117.578
 308.43 102.059 308.43 102.059 c 344.16 91.941 l 344.535 91.84 344.926 91.84
 345.301 91.941 c h
345.301 91.941 m f
0.756863 0.372549 0.454902 rg
320.242 125.684 m 304.973 143.316 l 279.773 134.941 285.855 108.449 285.855
 108.449 c 308.43 102.059 l 308.43 102.059 303.422 117.578 320.242 125.684
 c h
320.242 125.684 m f
0.921569 0.447059 0.533333 rg
304.973 143.316 m 280.68 171.352 l 278.223 160.785 273.883 150.746 267.871
 141.711 c 264.184 136.168 259.898 131.043 255.098 126.426 c 255.09 126.426
 l 252.512 123.949 249.789 121.625 246.938 119.469 c 246.945 119.461 l 285.855
 108.449 l 285.855 108.449 279.773 134.941 304.973 143.316 c h
304.973 143.316 m f
267.855 242.602 m 274.137 233.176 278.586 222.652 280.98 211.582 c 280.988
 211.582 l 304.809 239.691 l 304.809 239.691 281.234 248.477 285.172 274.836
 c 248.145 263.918 l 248.145 263.91 l 250.555 262.023 252.871 260.016 255.074
 257.895 c 259.883 253.281 264.168 248.152 267.855 242.602 c h
267.855 242.602 m f
0.756863 0.372549 0.454902 rg
304.809 239.691 m 320.234 257.895 l 320.234 257.895 308.566 265.297 308.961
 281.859 c 285.172 274.836 l 281.234 248.477 304.809 239.691 304.809 239.691
 c h
304.809 239.691 m f
0.921569 0.447059 0.533333 rg
346.32 288.668 m 347.711 290.367 346.039 292.836 343.941 292.176 c 332.242
 288.727 l 332.234 288.719 l 308.961 281.859 l 308.566 265.297 320.234 257.895
 320.234 257.895 c 344.129 286.078 l 344.137 286.086 l h
346.32 288.668 m f
0.27451 0.537255 0.827451 rg
344.137 286.086 m 344.676 286.262 365.145 293.16 357.367 313.883 c 355.176
 319.727 354.629 324.555 354.977 328.484 c 355.082 329.531 354.027 330.305
 353.062 329.895 c 348.969 328.133 338.738 323.836 341.586 315.57 c 345.316
 304.793 332.586 289.156 332.242 288.727 c 343.941 292.176 l 346.039 292.836
 347.711 290.367 346.32 288.668 c h
344.137 286.086 m f
0.921569 0.447059 0.533333 rg
205.191 336.164 m 193.344 374.242 l 192.648 376.324 189.672 376.223 189.121
 374.102 c 178.688 337.395 l 178.688 337.395 191.289 327.254 205.191 336.164
 c h
205.191 336.164 m f
0.756863 0.372549 0.454902 rg
212.062 314.094 m 205.191 336.164 l 191.289 327.254 178.688 337.395 178.688
 337.395 c 172.238 314.707 l 172.238 314.707 191.633 297.059 212.062 314.094
 c h
212.062 314.094 m f
0.921569 0.447059 0.533333 rg
223.395 277.68 m 212.062 314.094 l 191.633 297.059 172.238 314.707 172.238
 314.707 c 161.723 277.727 l 162.961 278.176 164.211 278.598 165.473 278.992
 c 173.797 281.602 182.453 282.98 191.176 283.094 c 191.617 283.109 192.051
 283.109 192.496 283.109 c 200.738 283.117 208.941 281.992 216.879 279.773
 c 219.09 279.156 221.258 278.453 223.395 277.68 c h
223.395 277.68 m f
0.372549 0.803922 0.643137 rg
165.473 257.895 m 165.473 278.992 l 164.211 278.594 162.961 278.172 161.723
 277.727 c 149.859 273.395 139.027 266.641 129.914 257.895 c h
165.473 257.895 m f
0.298039 0.662745 0.529412 rg
191.176 257.895 m 191.176 283.094 l 182.453 282.98 173.797 281.602 165.473
 278.992 c 165.473 257.895 l h
191.176 257.895 m f
0.372549 0.803922 0.643137 rg
216.879 257.895 m 216.879 279.773 l 208.941 281.992 200.738 283.117 192.496
 283.109 c 192.051 283.109 191.617 283.109 191.176 283.094 c 191.176 257.895
 l h
216.879 257.895 m f
0.298039 0.662745 0.529412 rg
248.145 263.91 m 240.672 269.773 232.32 274.422 223.395 277.68 c 221.258
 278.453 219.09 279.156 216.879 279.773 c 216.879 257.895 l 255.074 257.895
 l 252.871 260.016 250.555 262.023 248.145 263.91 c h
248.145 263.91 m f
0.952941 0.807843 0.490196 rg
117.137 242.602 m 267.855 242.602 l 264.168 248.152 259.883 253.281 255.074
 257.895 c 129.914 257.895 l 125.105 253.281 120.82 248.152 117.137 242.602
 c h
117.137 242.602 m f
0.298039 0.662745 0.529412 rg
103.172 207.18 m 281.82 207.18 l 281.578 208.664 281.301 210.129 280.98
 211.582 c 278.586 222.652 274.137 233.176 267.855 242.602 c 117.129 242.602
 l 111.07 233.5 106.707 223.379 104.258 212.723 c 103.836 210.891 103.469
 209.047 103.172 207.18 c h
103.172 207.18 m f
0.952941 0.807843 0.490196 rg
276.262 192.148 m 283.059 192.148 l 283.062 197.188 282.648 202.211 281.82
 207.18 c 103.172 207.18 l 102.344 202.211 101.93 197.188 101.934 192.148
 c h
276.262 192.148 m f
0.909804 0.643137 0.403922 rg
238.891 141.711 m 252.824 160.523 l 216.668 160.523 l 230.602 141.711 l
 h
238.891 141.711 m f
0.952941 0.807843 0.490196 rg
252.832 160.523 m 264.645 176.477 l 204.848 176.477 l 216.66 160.523 l 
h
252.832 160.523 m f
0.909804 0.643137 0.403922 rg
264.645 176.477 m 276.262 192.148 l 193.312 192.148 l 193.273 192.098 l
 204.848 176.477 l h
264.645 176.477 m f
193.273 192.098 m 193.23 192.148 l 110.281 192.148 l 121.891 176.477 l 
181.695 176.477 l h
193.273 192.098 m f
0.952941 0.807843 0.490196 rg
169.875 160.523 m 181.695 176.477 l 121.891 176.477 l 133.711 160.523 l
 h
169.875 160.523 m f
0.909804 0.643137 0.403922 rg
155.941 141.711 m 169.875 160.523 l 133.711 160.523 l 147.645 141.711 l
 h
155.941 141.711 m f
0.372549 0.803922 0.643137 rg
165.473 105.316 m 165.473 126.426 l 129.898 126.426 l 132.203 124.215 134.617
 122.125 137.137 120.164 c 144.547 114.402 152.809 109.836 161.625 106.621
 c 162.891 106.156 164.176 105.719 165.473 105.316 c h
165.473 105.316 m f
0.298039 0.662745 0.529412 rg
191.176 101.234 m 191.176 126.426 l 165.473 126.426 l 165.473 105.316 l
 173.797 102.707 182.453 101.324 191.176 101.211 c h
191.176 101.234 m f
0.372549 0.803922 0.643137 rg
216.879 104.535 m 216.879 126.426 l 191.176 126.426 l 191.176 101.211 l
 191.617 101.199 192.051 101.199 192.496 101.199 c 200.738 101.191 208.941
 102.312 216.879 104.535 c h
216.879 104.535 m f
0.298039 0.662745 0.529412 rg
255.09 126.426 m 216.879 126.426 l 216.879 104.535 l 219.078 105.148 221.238
 105.844 223.363 106.621 c 235.199 110.945 246.004 117.691 255.09 126.426
 c h
255.09 126.426 m f
0.952941 0.807843 0.490196 rg
267.871 141.711 m 117.129 141.711 l 120.812 136.164 125.09 131.039 129.891
 126.426 c 255.098 126.426 l 259.898 131.043 264.184 136.168 267.871 141.711
 c h
267.871 141.711 m f
0.298039 0.662745 0.529412 rg
283.059 192.148 m 276.262 192.148 l 264.645 176.477 l 252.832 160.523 l
 252.824 160.523 l 238.891 141.711 l 267.871 141.711 l 273.883 150.746 278.223
 160.785 280.68 171.352 c 282.262 178.172 283.062 185.148 283.059 192.148
 c h
283.059 192.148 m f
117.129 141.711 m 147.645 141.711 l 133.711 160.523 l 121.891 176.477 l
 110.281 192.148 l 101.934 192.148 l 101.91 174.207 107.195 156.656 117.129
 141.711 c h
117.129 141.711 m f
230.602 141.711 m 216.668 160.523 l 216.66 160.523 l 204.848 176.477 l 
193.273 192.098 l 181.695 176.477 l 169.875 160.523 l 155.941 141.711 l 
h
230.602 141.711 m f
0.372549 0.803922 0.643137 rg
258.996 224.73 m 258.988 221.047 254.531 219.211 251.93 221.82 c 249.332
 224.43 251.184 228.879 254.863 228.879 c 257.148 228.871 259 227.016 258.996
 224.73 c h
228.555 224.73 m 228.543 221.051 224.09 219.223 221.496 221.828 c 218.898
 224.434 220.746 228.879 224.422 228.879 c 226.707 228.871 228.555 227.016
 228.555 224.73 c h
198.113 224.73 m 198.098 221.051 193.648 219.223 191.051 221.828 c 188.457
 224.434 190.301 228.879 193.98 228.879 c 196.266 228.871 198.113 227.016
 198.113 224.73 c h
167.672 224.73 m 167.656 221.051 163.207 219.223 160.609 221.828 c 158.016
 224.434 159.859 228.879 163.539 228.879 c 165.824 228.875 167.676 227.016
 167.672 224.73 c h
137.234 224.73 m 137.227 221.047 132.773 219.215 130.172 221.82 c 127.57
 224.426 129.414 228.875 133.094 228.879 c 135.383 228.875 137.234 227.02
 137.234 224.73 c h
137.234 224.73 m f
0.156863 0.258824 0.407843 rg
361.578 100.766 m 357.68 92.52 349.641 88.82 347.355 87.91 c 345.988 87.324
 344.465 87.211 343.023 87.586 c 342.93 87.613 l 247.785 114.547 l 241.383
 109.93 234.43 106.133 227.086 103.238 c 200.211 8.707 l 199.441 5.852 196.891
 3.84 193.938 3.754 c 190.98 3.668 188.32 5.527 187.387 8.332 c 187.375 
8.363 187.363 8.395 187.355 8.426 c 157.969 103.215 l 150.25 106.25 142.957
 110.289 136.285 115.223 c 42.355 87.52 l 40.418 86.91 38.309 87.223 36.629
 88.367 c 34.031 89.379 26.301 92.953 22.469 100.844 c 19.57 106.816 19.547
 113.703 22.402 121.32 c 24.145 125.957 24.859 130.207 24.531 133.941 c 
24.332 136.008 25.242 138.027 26.922 139.246 c 28.602 140.469 30.801 140.711
 32.703 139.887 c 42.926 135.492 47.32 127.926 44.461 119.645 c 43.086 115.672
 44.816 113.184 46.66 111.746 c 99.191 173.855 l 96.781 186.285 96.848 199.066
 99.391 211.469 c 37.941 282.379 l 34.742 283.625 26.594 287.473 22.625 
295.527 c 19.727 301.414 19.652 308.121 22.402 315.461 c 24.145 320.102 
24.859 324.348 24.531 328.086 c 24.332 330.152 25.242 332.168 26.922 333.391
 c 28.602 334.609 30.801 334.855 32.703 334.027 c 32.824 333.977 l 35.176
 332.969 39.102 331.281 42.301 328.5 c 46.926 324.477 48.469 319.363 46.648
 314.102 c 44.457 307.75 50.797 297.418 54.121 292.988 c 137.016 269.617
 l 143.5 274.316 150.551 278.172 158.004 281.102 c 184.777 375.289 l 185.531
 378.145 188.074 380.164 191.023 380.25 c 191.258 380.25 l 194.145 380.258
 196.707 378.406 197.605 375.664 c 197.633 375.578 l 227.043 281.078 l 234.871
 277.996 242.254 273.891 249 268.863 c 329.582 292.629 l 332.977 297.129
 339.535 307.723 337.336 314.094 c 335.516 319.359 337.062 324.473 341.684
 328.496 c 344.887 331.277 348.809 332.965 351.16 333.973 c 351.277 334.023
 l 353.184 334.844 355.379 334.594 357.055 333.375 c 358.73 332.156 359.645
 330.145 359.453 328.082 c 359.125 324.348 359.84 320.098 361.578 315.457
 c 364.367 308.027 364.32 301.242 361.445 295.289 c 357.625 287.391 349.895
 283.555 346.809 282.285 c 285.824 210.332 l 288.23 197.859 288.137 185.035
 285.555 172.602 c 338.02 112.051 l 339.551 113.457 340.844 115.836 339.527
 119.648 c 336.668 127.93 341.062 135.496 351.285 139.891 c 353.191 140.707
 355.383 140.461 357.062 139.242 c 358.738 138.023 359.648 136.012 359.461
 133.945 c 359.129 130.211 359.844 125.961 361.586 121.32 c 364.438 113.719
 364.434 106.801 361.578 100.766 c h
35.953 122.586 m 36.574 124.379 36.461 126.785 33.469 129.156 c 33.082 
125.391 32.195 121.691 30.832 118.156 c 28.887 112.973 28.785 108.488 30.535
 104.836 c 31.754 102.441 33.578 100.406 35.824 98.93 c 40.879 104.906 l
 36.496 108.531 33.199 114.605 35.953 122.586 c h
38.145 317.035 m 38.543 318.184 39.297 320.371 33.5 323.648 c 33.137 319.762
 32.238 315.941 30.832 312.301 c 28.992 307.402 28.941 303.113 30.676 299.555
 c 31.746 297.465 33.27 295.637 35.141 294.215 c 36.398 295.746 38.277 296.633
 40.258 296.633 c 40.605 296.629 40.949 296.602 41.293 296.543 c 38.234 
302.559 35.797 310.234 38.145 317.035 c h
342.637 296.48 m 343.285 296.68 343.961 296.781 344.637 296.781 c 346.566
 296.781 348.402 295.938 349.66 294.477 c 351.191 295.793 352.441 297.398
 353.344 299.203 c 355.109 302.855 355.047 307.262 353.156 312.297 c 351.75
 315.938 350.852 319.758 350.488 323.645 c 344.691 320.367 345.449 318.18
 345.844 317.031 c 348.18 310.266 345.715 302.559 342.613 296.469 c h
221.379 110.707 m 228.957 113.43 236.113 117.207 242.637 121.922 c 221.379
 121.922 l h
193.645 18.523 m 201.18 45.031 l 196.164 47.258 190.445 47.266 185.422 
45.059 c h
182.75 53.672 m 186.168 55.023 189.805 55.73 193.477 55.75 c 196.969 55.746
 200.43 55.074 203.668 53.766 c 207.652 67.777 l 194.93 76.66 183.18 70.961
 178.375 67.797 c h
175.609 76.715 m 181.012 79.82 187.125 81.488 193.355 81.551 c 199.301 
81.531 205.129 79.902 210.223 76.832 c 216.766 99.855 l 200.938 95.668 184.293
 95.648 168.453 99.797 c h
212.379 108.027 m 212.379 121.926 l 195.676 121.926 l 195.676 105.762 l
 201.305 105.965 206.898 106.723 212.379 108.027 c h
186.676 105.898 m 186.676 121.93 l 169.969 121.93 l 169.969 108.707 l 175.43
 107.219 181.027 106.277 186.676 105.898 c h
160.973 111.703 m 160.973 121.93 l 142.355 121.93 l 148.113 117.762 154.367
 114.328 160.969 111.703 c h
253.199 130.926 m 255.199 132.926 257.102 135.023 258.898 137.211 c 126.09
 137.211 l 127.891 135.023 129.793 132.93 131.793 130.926 c h
107.07 202.676 m 106.828 200.688 106.652 198.68 106.547 196.652 c 278.445
 196.652 l 278.34 198.68 278.164 200.688 277.922 202.676 c h
276.344 211.676 m 274.184 221.035 270.469 229.969 265.359 238.105 c 119.629
 238.105 l 114.52 229.969 110.809 221.035 108.645 211.676 c h
167.605 165.027 m 172.754 171.977 l 130.828 171.977 l 135.977 165.027 l
 h
142.641 156.027 m 149.91 146.215 l 153.676 146.215 l 160.945 156.027 l 
h
250.559 165.027 m 255.711 171.977 l 213.781 171.977 l 218.93 165.027 l 
h
225.598 156.027 m 232.867 146.215 l 236.621 146.215 l 243.891 156.027 l
 h
262.379 180.977 m 267.328 187.652 l 202.164 187.652 l 207.113 180.977 l
 h
193.27 184.539 m 164.875 146.215 l 221.668 146.215 l h
184.375 187.652 m 119.211 187.652 l 124.16 180.977 l 179.43 180.977 l h
108.008 187.652 m 106.547 187.652 l 107.293 172.949 111.793 158.684 119.621
 146.215 c 138.711 146.215 l h
247.828 146.211 m 265.371 146.211 l 273.176 158.645 277.672 172.867 278.438
 187.527 c h
65.934 120.594 m 47.07 98.293 l 73.695 106.145 l 73.355 109.844 71.859 
116.238 65.934 120.594 c h
71.762 127.484 m 79.164 121.848 81.652 114.121 82.441 108.723 c 96.73 112.938
 l 97.035 118.852 96.121 132.879 81.871 139.438 c h
87.859 146.523 m 101.578 139.098 105.59 125.625 105.816 115.621 c 127.941
 122.148 l 115.887 133.352 106.922 147.473 101.918 163.152 c h
47.023 285.637 m 65.551 264.258 l 69.891 267.699 72.723 272.695 73.445 
278.188 c h
96.098 271.805 m 82.18 275.727 l 80.934 268.539 77.117 262.047 71.441 257.461
 c 81.293 246.09 l 86.426 248.789 96.906 256.254 96.098 271.801 c h
105.141 269.254 m 104.801 253.73 95.438 243.945 87.34 239.113 c 102.191
 221.977 l 107.324 237.574 116.383 251.586 128.492 262.672 c h
160.969 272.602 m 154.371 269.98 148.125 266.551 142.375 262.391 c 160.969
 262.391 l h
191.352 365.488 m 183.926 339.383 l 187.129 337.691 193.109 335.57 199.785
 338.379 c h
202.469 329.766 m 195.625 327.234 188.055 327.527 181.426 330.582 c 177.395
 316.398 l 182.129 313.125 194.016 306.93 206.824 315.773 c h
209.598 306.852 m 196.324 299.012 183.188 302.414 174.812 307.316 c 168.32
 284.477 l 184.125 288.641 200.742 288.652 216.555 284.508 c h
169.969 275.598 m 169.969 262.391 l 186.676 262.391 l 186.676 278.406 l
 181.027 278.027 175.43 277.086 169.969 275.598 c h
195.672 278.543 m 195.672 262.391 l 212.379 262.391 l 212.379 276.273 l
 206.898 277.578 201.305 278.34 195.676 278.543 c h
221.379 273.594 m 221.379 262.391 l 242.617 262.391 l 236.098 267.102 228.949
 270.875 221.379 273.594 c h
131.805 253.391 m 129.805 251.391 127.906 249.297 126.105 247.105 c 258.891
 247.105 l 257.09 249.293 255.191 251.391 253.191 253.391 c h
337.906 285.703 m 313.566 278.523 l 313.98 273.219 316.152 268.203 319.742
 264.273 c h
313.906 257.387 m 308.941 262.418 305.746 268.934 304.805 275.941 c 289.328
 271.375 l 288.254 255.852 298.492 248.113 303.617 245.246 c h
297.684 238.246 m 289.688 243.199 280.426 253.164 280.246 268.695 c 257.297
 261.926 l 269.258 250.73 278.145 236.656 283.105 221.043 c h
282.734 162.109 m 277.562 146.527 268.469 132.535 256.332 121.48 c 280.633
 114.602 l 280.445 124.559 283.961 137.797 297.535 145.023 c h
303.648 137.973 m 289.445 131.672 289.258 117.758 289.859 111.992 c 303.207
 108.211 l 303.465 115.656 307.219 122.543 313.332 126.793 c h
319.258 119.953 m 312.316 115.285 311.902 109.004 312.285 105.641 c 337.957
 98.375 l h
353.16 118.156 m 351.797 121.691 350.91 125.391 350.523 129.156 c 347.527
 126.785 347.418 124.379 348.035 122.586 c 350.734 114.777 347.871 108.855
 343.895 105.27 c 349.094 99.27 l 350.949 100.715 352.445 102.562 353.477
 104.676 c 355.219 108.418 355.109 112.949 353.156 118.156 c h
353.16 118.156 m f
133.098 233.379 m 136.598 233.387 139.758 231.285 141.102 228.051 c 142.449
 224.816 141.711 221.094 139.238 218.613 c 136.766 216.137 133.043 215.395
 129.809 216.73 c 126.57 218.07 124.461 221.227 124.461 224.727 c 124.461
 229.5 128.324 233.371 133.098 233.379 c h
133.098 224.379 m 133.402 224.395 133.539 224.77 133.32 224.98 c 133.098
 225.191 132.73 225.031 132.73 224.727 c 132.738 224.531 132.898 224.375
 133.098 224.379 c h
133.098 224.379 m f
163.539 233.379 m 167.039 233.387 170.199 231.285 171.547 228.051 c 172.891
 224.816 172.152 221.094 169.68 218.613 c 167.207 216.137 163.484 215.395
 160.25 216.73 c 157.012 218.07 154.902 221.227 154.902 224.727 c 154.906
 229.5 158.766 233.367 163.539 233.379 c h
163.539 224.379 m 163.844 224.395 163.984 224.77 163.762 224.98 c 163.539
 225.191 163.172 225.031 163.172 224.727 c 163.18 224.531 163.34 224.375
 163.539 224.379 c h
163.539 224.379 m f
193.98 233.379 m 197.48 233.387 200.641 231.285 201.988 228.051 c 203.332
 224.816 202.598 221.094 200.121 218.613 c 197.648 216.137 193.926 215.395
 190.691 216.73 c 187.457 218.07 185.344 221.227 185.344 224.727 c 185.344
 229.5 189.207 233.371 193.98 233.379 c h
193.98 224.379 m 194.285 224.395 194.422 224.77 194.203 224.98 c 193.98
 225.191 193.613 225.031 193.613 224.727 c 193.621 224.531 193.785 224.375
 193.98 224.379 c h
193.98 224.379 m f
224.422 233.379 m 227.922 233.387 231.082 231.285 232.43 228.051 c 233.773
 224.816 233.039 221.094 230.566 218.613 c 228.09 216.137 224.367 215.395
 221.133 216.73 c 217.898 218.07 215.785 221.227 215.785 224.727 c 215.789
 229.5 219.648 233.371 224.422 233.379 c h
224.422 224.379 m 224.727 224.395 224.863 224.77 224.645 224.98 c 224.422
 225.191 224.055 225.031 224.055 224.727 c 224.062 224.531 224.227 224.375
 224.422 224.379 c h
224.422 224.379 m f
254.863 233.379 m 258.363 233.387 261.523 231.285 262.871 228.051 c 264.215
 224.82 263.48 221.094 261.008 218.617 c 258.535 216.137 254.809 215.395
 251.574 216.73 c 248.34 218.07 246.23 221.227 246.23 224.727 c 246.23 229.5
 250.09 233.367 254.863 233.379 c h
254.863 224.379 m 255.168 224.395 255.309 224.77 255.086 224.98 c 254.863
 225.191 254.496 225.031 254.496 224.727 c 254.504 224.531 254.668 224.375
 254.863 224.379 c h
254.863 224.379 m f
Q Q
showpage
%%Trailer
end
%%EOF
