%!PS-Adobe-3.0 EPSF-3.0
%%Creator: cairo 1.16.0 (https://cairographics.org)
%%CreationDate: Tue Feb  2 14:48:32 2021
%%Pages: 1
%%DocumentData: Clean7Bit
%%LanguageLevel: 2
%%BoundingBox: 17 15 367 369
%%EndComments
%%BeginProlog
50 dict begin
/q { gsave } bind def
/Q { grestore } bind def
/cm { 6 array astore concat } bind def
/w { setlinewidth } bind def
/J { setlinecap } bind def
/j { setlinejoin } bind def
/M { setmiterlimit } bind def
/d { setdash } bind def
/m { moveto } bind def
/l { lineto } bind def
/c { curveto } bind def
/h { closepath } bind def
/re { exch dup neg 3 1 roll 5 3 roll moveto 0 rlineto
      0 exch rlineto 0 rlineto closepath } bind def
/S { stroke } bind def
/f { fill } bind def
/f* { eofill } bind def
/n { newpath } bind def
/W { clip } bind def
/W* { eoclip } bind def
/BT { } bind def
/ET { } bind def
/BDC { mark 3 1 roll /BDC pdfmark } bind def
/EMC { mark /EMC pdfmark } bind def
/cairo_store_point { /cairo_point_y exch def /cairo_point_x exch def } def
/Tj { show currentpoint cairo_store_point } bind def
/TJ {
  {
    dup
    type /stringtype eq
    { show } { -0.001 mul 0 cairo_font_matrix dtransform rmoveto } ifelse
  } forall
  currentpoint cairo_store_point
} bind def
/cairo_selectfont { cairo_font_matrix aload pop pop pop 0 0 6 array astore
    cairo_font exch selectfont cairo_point_x cairo_point_y moveto } bind def
/Tf { pop /cairo_font exch def /cairo_font_matrix where
      { pop cairo_selectfont } if } bind def
/Td { matrix translate cairo_font_matrix matrix concatmatrix dup
      /cairo_font_matrix exch def dup 4 get exch 5 get cairo_store_point
      /cairo_font where { pop cairo_selectfont } if } bind def
/Tm { 2 copy 8 2 roll 6 array astore /cairo_font_matrix exch def
      cairo_store_point /cairo_font where { pop cairo_selectfont } if } bind def
/g { setgray } bind def
/rg { setrgbcolor } bind def
/d1 { setcachedevice } bind def
/cairo_data_source {
  CairoDataIndex CairoData length lt
    { CairoData CairoDataIndex get /CairoDataIndex CairoDataIndex 1 add def }
    { () } ifelse
} def
/cairo_flush_ascii85_file { cairo_ascii85_file status { cairo_ascii85_file flushfile } if } def
/cairo_image { image cairo_flush_ascii85_file } def
/cairo_imagemask { imagemask cairo_flush_ascii85_file } def
%%EndProlog
%%BeginSetup
%%EndSetup
%%Page: 1 1
%%BeginPageSetup
%%PageBoundingBox: 17 15 367 369
%%EndPageSetup
q 17 15 350 354 rectclip
1 0 0 -1 0 384 cm q
0.952941 0.807843 0.490196 rg
327.383 19.5 m 56.406 19.5 l 65.504 19.496 74.23 23.109 80.664 29.543 c
 87.094 35.977 90.707 44.699 90.703 53.797 c 90.703 351.613 l 361.883 351.613
 l 361.883 54 l 361.883 44.852 358.25 36.074 351.777 29.602 c 345.309 23.133
 336.531 19.5 327.383 19.5 c h
327.383 19.5 m f
0.74902 0.631373 0.4 rg
103.184 29.543 m 96.75 23.102 88.012 19.488 78.906 19.5 c 56.406 19.5 l
 75.359 19.492 90.734 34.844 90.75 53.797 c 90.75 351.75 l 113.25 351.75
 l 113.25 53.797 l 113.254 44.695 109.629 35.969 103.184 29.543 c h
103.184 29.543 m f
0.827451 0.698039 0.443137 rg
80.664 29.543 m 70.852 19.734 56.102 16.805 43.289 22.113 c 30.473 27.422
 22.117 39.926 22.117 53.797 c 22.117 326.062 l 90.703 326.062 l 90.703 
53.797 l 90.715 44.699 87.102 35.969 80.664 29.543 c h
80.664 29.543 m f
0.776471 0.388235 0.470588 rg
21.75 153 69 18.75 re f
21.75 214.5 69 18.75 re f
0.921569 0.447059 0.533333 rg
90.75 282 271.5 19.5 re f
90.75 220.5 271.5 18.75 re f
90.75 156 271.5 19.5 re f
90.75 94.5 271.5 18.75 re f
0.372549 0.803922 0.643137 rg
47.211 171.383 m 24.246 214.266 l 22.117 214.266 l 22.117 171.383 l h
47.211 171.383 m f
0.298039 0.662745 0.529412 rg
56.258 171.383 m 47.211 171.383 l 24.246 214.266 l 79.215 214.266 l h
56.258 171.383 m f
0.372549 0.803922 0.643137 rg
56.258 171.75 m 79.215 214.5 l 90.75 214.5 l 90.75 171.75 l h
56.258 171.75 m f
0.294118 0.607843 0.478431 rg
327.824 113.168 m 318.773 113.168 l 295.816 156.051 l 350.781 156.051 l
 h
327.824 113.168 m f
253.469 113.168 m 230.512 156.051 l 285.48 156.051 l 262.516 113.168 l 
h
253.469 113.168 m f
188.168 113.168 m 165.203 156.051 l 220.172 156.051 l 197.211 113.168 l
 h
188.168 113.168 m f
122.859 113.168 m 99.898 156.051 l 154.867 156.051 l 131.902 113.168 l 
h
122.859 113.168 m f
0.372549 0.803922 0.643137 rg
327.824 113.168 m 350.781 156.051 l 361.883 156.051 l 361.883 113.168 l
 h
327.824 113.168 m f
285.48 156.051 m 295.816 156.051 l 318.773 113.168 l 262.516 113.168 l 
h
285.48 156.051 m f
220.172 156.051 m 230.512 156.051 l 253.469 113.168 l 197.211 113.168 l
 h
220.172 156.051 m f
154.867 156.051 m 165.203 156.051 l 188.168 113.168 l 131.902 113.168 l
 h
154.867 156.051 m f
90.703 113.168 m 90.703 156.051 l 99.898 156.051 l 122.859 113.168 l h
90.703 113.168 m f
0.298039 0.662745 0.529412 rg
327.824 239.297 m 318.773 239.297 l 295.816 282.188 l 350.781 282.188 l
 h
327.824 239.297 m f
253.469 239.297 m 230.512 282.188 l 285.48 282.188 l 262.516 239.297 l 
h
253.469 239.297 m f
0.294118 0.607843 0.478431 rg
188.168 239.297 m 165.203 282.188 l 220.172 282.188 l 197.211 239.297 l
 h
188.168 239.297 m f
122.859 239.297 m 99.898 282.188 l 154.867 282.188 l 131.902 239.297 l 
h
122.859 239.297 m f
0.372549 0.803922 0.643137 rg
327.824 239.297 m 350.781 282.188 l 361.883 282.188 l 361.883 239.297 l
 h
327.824 239.297 m f
285.48 282.188 m 295.816 282.188 l 318.773 239.297 l 262.516 239.297 l 
h
285.48 282.188 m f
220.172 282.188 m 230.512 282.188 l 253.469 239.297 l 197.211 239.297 l
 h
220.172 282.188 m f
154.867 282.188 m 165.203 282.188 l 188.168 239.297 l 131.902 239.297 l
 h
154.867 282.188 m f
90.703 282.188 m 99.898 282.188 l 122.859 239.297 l 90.703 239.297 l h
90.703 282.188 m f
0.768627 0.411765 0.490196 rg
90.75 282 22.5 19.5 re f
90.75 220.5 22.5 18.75 re f
90.75 156 22.5 19.5 re f
90.75 94.5 22.5 18.75 re f
0.337255 0.647059 0.521569 rg
90.75 113.25 m 90.75 156 l 99.898 156 l 113.25 131.199 l 113.25 113.25 
l h
90.75 113.25 m f
90.75 239.25 m 90.75 282 l 99.898 282 l 113.25 257.328 l 113.25 239.25 
l h
90.75 239.25 m f
0.156863 0.258824 0.407843 rg
327.387 15 m 56.41 15 l 34.992 15.023 17.637 32.379 17.613 53.797 c 17.613
 326.062 l 17.613 328.547 19.629 330.562 22.113 330.562 c 34.945 330.562
 l 34.945 340.039 l 34.945 346.039 43.945 346.039 43.945 340.039 c 43.945
 330.562 l 73.738 330.562 l 73.738 340.039 l 73.738 346.039 82.738 346.039
 82.738 340.039 c 82.738 330.562 l 86.207 330.562 l 86.207 351.613 l 86.207
 354.102 88.223 356.113 90.707 356.113 c 96.766 356.113 l 96.766 364.5 l
 96.766 370.5 105.766 370.5 105.766 364.5 c 105.766 356.113 l 138.309 356.113
 l 138.309 364.5 l 138.309 370.5 147.309 370.5 147.309 364.5 c 147.309 356.113
 l 179.855 356.113 l 179.855 364.5 l 179.855 370.5 188.855 370.5 188.855
 364.5 c 188.855 356.113 l 221.398 356.113 l 221.398 364.5 l 221.398 370.5
 230.398 370.5 230.398 364.5 c 230.398 356.113 l 262.945 356.113 l 262.945
 364.5 l 262.945 370.5 271.945 370.5 271.945 364.5 c 271.945 356.113 l 304.488
 356.113 l 304.488 364.5 l 304.488 370.5 313.488 370.5 313.488 364.5 c 313.488
 356.113 l 346.031 356.113 l 346.031 364.5 l 346.031 370.5 355.031 370.5
 355.031 364.5 c 355.031 356.113 l 361.891 356.113 l 364.375 356.113 366.391
 354.102 366.391 351.613 c 366.391 54 l 366.363 32.469 348.918 15.023 327.387
 15 c h
26.613 175.879 m 39.695 175.879 l 26.613 200.316 l h
51.148 194.594 m 48.664 194.594 46.648 196.609 46.648 199.094 c 46.648 
209.77 l 31.762 209.77 l 49.902 175.879 l 53.559 175.879 l 71.699 209.77
 l 55.648 209.77 l 55.648 199.094 l 55.648 196.609 53.637 194.594 51.148
 194.594 c h
86.203 321.562 m 26.613 321.562 l 26.613 237.906 l 86.207 237.906 l h
86.203 228.906 m 26.613 228.906 l 26.613 218.77 l 86.207 218.77 l h
86.203 209.77 m 81.91 209.77 l 63.766 175.879 l 86.203 175.879 l h
86.203 166.879 m 26.613 166.879 l 26.613 157.375 l 86.207 157.375 l h
86.203 148.375 m 26.613 148.375 l 26.613 53.797 l 26.613 37.34 39.953 24
 56.41 24 c 72.867 24 86.207 37.34 86.207 53.797 c h
357.387 347.113 m 95.207 347.113 l 95.207 305.824 l 357.387 305.824 l h
357.387 296.824 m 95.207 296.824 l 95.207 286.688 l 357.387 286.688 l h
159.949 256.832 m 162.434 256.832 164.449 254.816 164.449 252.332 c 164.449
 243.797 l 180.648 243.797 l 162.508 277.688 l 157.559 277.688 l 139.414
 243.797 l 155.445 243.797 l 155.445 252.332 l 155.445 254.816 157.461 256.832
 159.949 256.832 c h
224.93 256.832 m 227.418 256.832 229.43 254.816 229.43 252.332 c 229.43
 243.797 l 245.957 243.797 l 227.812 277.688 l 222.863 277.688 l 204.723
 243.797 l 220.43 243.797 l 220.43 252.332 l 220.43 254.816 222.445 256.832
 224.93 256.832 c h
290.883 256.832 m 293.367 256.832 295.383 254.816 295.383 252.332 c 295.383
 243.797 l 311.262 243.797 l 293.121 277.688 l 288.172 277.688 l 270.027
 243.797 l 286.383 243.797 l 286.383 252.332 l 286.383 254.816 288.398 256.832
 290.883 256.832 c h
322.719 262.512 m 320.234 262.512 318.219 264.527 318.219 267.012 c 318.219
 277.688 l 303.328 277.688 l 321.473 243.797 l 325.125 243.797 l 343.266
 277.688 l 327.215 277.688 l 327.215 267.012 l 327.215 264.527 325.203 262.512
 322.719 262.512 c h
277.965 277.688 m 262.238 277.688 l 262.238 267.012 l 262.238 261.012 253.238
 261.012 253.238 267.012 c 253.238 277.688 l 238.023 277.688 l 256.168 243.797
 l 259.82 243.797 l h
212.656 277.688 m 196.285 277.688 l 196.285 267.012 l 196.285 261.012 187.285
 261.012 187.285 267.012 c 187.285 277.688 l 172.719 277.688 l 190.859 243.797
 l 194.516 243.797 l h
147.352 277.688 m 131.301 277.688 l 131.301 267.012 l 131.301 261.012 122.301
 261.012 122.301 267.012 c 122.301 277.688 l 107.414 277.688 l 125.555 243.797
 l 129.211 243.797 l h
97.203 277.688 m 95.207 277.688 l 95.207 243.797 l 115.344 243.797 l h
357.387 277.688 m 353.477 277.688 l 335.332 243.797 l 357.383 243.797 l
 h
357.387 234.797 m 95.207 234.797 l 95.207 225.293 l 357.387 225.293 l h
357.387 216.293 m 95.207 216.293 l 95.207 179.691 l 357.387 179.691 l h
357.387 170.691 m 95.207 170.691 l 95.207 160.555 l 357.387 160.555 l h
159.949 130.699 m 162.434 130.699 164.449 128.684 164.449 126.199 c 164.449
 117.664 l 180.648 117.664 l 162.512 151.555 l 157.559 151.555 l 139.418
 117.664 l 155.449 117.664 l 155.449 126.199 l 155.449 128.684 157.465 130.699
 159.949 130.699 c h
224.93 130.699 m 227.418 130.699 229.43 128.684 229.43 126.199 c 229.43
 117.664 l 245.957 117.664 l 227.816 151.555 l 222.863 151.555 l 204.723
 117.664 l 220.43 117.664 l 220.43 126.199 l 220.43 128.684 222.445 130.699
 224.93 130.699 c h
290.883 130.699 m 293.367 130.699 295.383 128.684 295.383 126.199 c 295.383
 117.664 l 311.262 117.664 l 293.121 151.555 l 288.172 151.555 l 270.027
 117.664 l 286.383 117.664 l 286.383 126.199 l 286.383 128.688 288.398 130.699
 290.883 130.699 c h
322.719 136.379 m 320.234 136.379 318.219 138.395 318.219 140.879 c 318.219
 151.555 l 303.328 151.555 l 321.473 117.664 l 325.125 117.664 l 343.266
 151.555 l 327.215 151.555 l 327.215 140.879 l 327.215 138.395 325.203 136.383
 322.719 136.379 c h
277.965 151.555 m 262.238 151.555 l 262.238 140.879 l 262.238 134.879 253.238
 134.879 253.238 140.879 c 253.238 151.555 l 238.023 151.555 l 256.168 117.664
 l 259.82 117.664 l h
212.656 151.555 m 196.285 151.555 l 196.285 140.879 l 196.285 134.879 187.285
 134.879 187.285 140.879 c 187.285 151.555 l 172.719 151.555 l 190.859 117.664
 l 194.516 117.664 l h
147.352 151.555 m 131.301 151.555 l 131.301 140.879 l 131.301 134.879 122.301
 134.879 122.301 140.879 c 122.301 151.555 l 107.414 151.555 l 125.555 117.664
 l 129.211 117.664 l h
97.203 151.555 m 95.207 151.555 l 95.207 117.664 l 115.348 117.664 l h
357.387 151.555 m 353.477 151.555 l 335.332 117.664 l 357.383 117.664 l
 h
357.387 108.664 m 95.207 108.664 l 95.207 99.16 l 357.387 99.16 l h
357.387 90.16 m 95.207 90.16 l 95.207 53.797 l 95.211 42.281 90.086 31.359
 81.227 24 c 327.387 24 l 343.945 24.02 357.367 37.438 357.387 54 c h
357.387 90.16 m f
Q Q
showpage
%%Trailer
end
%%EOF
