%!PS-Adobe-3.0 EPSF-3.0
%%Creator: cairo 1.16.0 (https://cairographics.org)
%%CreationDate: Tue Feb  2 14:48:34 2021
%%Pages: 1
%%DocumentData: Clean7Bit
%%LanguageLevel: 2
%%BoundingBox: 3 2 381 381
%%EndComments
%%BeginProlog
50 dict begin
/q { gsave } bind def
/Q { grestore } bind def
/cm { 6 array astore concat } bind def
/w { setlinewidth } bind def
/J { setlinecap } bind def
/j { setlinejoin } bind def
/M { setmiterlimit } bind def
/d { setdash } bind def
/m { moveto } bind def
/l { lineto } bind def
/c { curveto } bind def
/h { closepath } bind def
/re { exch dup neg 3 1 roll 5 3 roll moveto 0 rlineto
      0 exch rlineto 0 rlineto closepath } bind def
/S { stroke } bind def
/f { fill } bind def
/f* { eofill } bind def
/n { newpath } bind def
/W { clip } bind def
/W* { eoclip } bind def
/BT { } bind def
/ET { } bind def
/BDC { mark 3 1 roll /BDC pdfmark } bind def
/EMC { mark /EMC pdfmark } bind def
/cairo_store_point { /cairo_point_y exch def /cairo_point_x exch def } def
/Tj { show currentpoint cairo_store_point } bind def
/TJ {
  {
    dup
    type /stringtype eq
    { show } { -0.001 mul 0 cairo_font_matrix dtransform rmoveto } ifelse
  } forall
  currentpoint cairo_store_point
} bind def
/cairo_selectfont { cairo_font_matrix aload pop pop pop 0 0 6 array astore
    cairo_font exch selectfont cairo_point_x cairo_point_y moveto } bind def
/Tf { pop /cairo_font exch def /cairo_font_matrix where
      { pop cairo_selectfont } if } bind def
/Td { matrix translate cairo_font_matrix matrix concatmatrix dup
      /cairo_font_matrix exch def dup 4 get exch 5 get cairo_store_point
      /cairo_font where { pop cairo_selectfont } if } bind def
/Tm { 2 copy 8 2 roll 6 array astore /cairo_font_matrix exch def
      cairo_store_point /cairo_font where { pop cairo_selectfont } if } bind def
/g { setgray } bind def
/rg { setrgbcolor } bind def
/d1 { setcachedevice } bind def
/cairo_data_source {
  CairoDataIndex CairoData length lt
    { CairoData CairoDataIndex get /CairoDataIndex CairoDataIndex 1 add def }
    { () } ifelse
} def
/cairo_flush_ascii85_file { cairo_ascii85_file status { cairo_ascii85_file flushfile } if } def
/cairo_image { image cairo_flush_ascii85_file } def
/cairo_imagemask { imagemask cairo_flush_ascii85_file } def
%%EndProlog
%%BeginSetup
%%EndSetup
%%Page: 1 1
%%BeginPageSetup
%%PageBoundingBox: 3 2 381 381
%%EndPageSetup
q 3 2 378 379 rectclip
1 0 0 -1 0 384 cm q
0.921569 0.447059 0.533333 rg
286.762 192 m 286.762 244.336 244.336 286.762 192 286.762 c 139.664 286.762
 97.238 244.336 97.238 192 c 97.238 139.664 139.664 97.238 192 97.238 c 
217.133 97.238 241.234 107.223 259.008 124.992 c 276.777 142.766 286.762
 166.867 286.762 192 c h
286.762 192 m f
0.729412 0.364706 0.443137 rg
119.738 192 m 119.742 144.016 155.605 103.605 203.25 97.906 c 199.516 97.461
 195.762 97.238 192 97.238 c 139.664 97.238 97.238 139.664 97.238 192 c 
97.238 244.336 139.664 286.762 192 286.762 c 195.762 286.762 199.516 286.539
 203.25 286.094 c 155.605 280.395 119.742 239.984 119.738 192 c h
119.738 192 m f
0.156863 0.258824 0.407843 rg
374.18 187.418 m 368.406 188.25 322.551 187.766 291.652 187.219 c 291.168
 177.594 289.273 168.094 286.035 159.02 c 326.277 143.367 326.559 142.703
 327.52 140.445 c 329.379 136.066 324.059 132.172 320.449 135.27 c 319.152
 135.98 312.852 138.918 282.621 150.688 c 278.211 141.188 272.328 132.438
 265.188 124.77 c 270.535 119.605 282.059 108.449 293.48 97.242 c 326.176
 65.152 326.176 64.309 326.176 61.812 c 326.18 56.973 319.594 55.539 317.582
 59.938 c 314.07 64.633 281.012 96.996 258.773 118.453 c 251.648 112.051
 243.637 106.715 234.988 102.602 c 252.574 62.637 252.309 61.973 251.387
 59.684 c 249.605 55.27 243.082 56.277 242.723 61.023 c 242.309 62.449 239.91
 69.039 226.691 99.105 c 216.91 95.512 206.617 93.492 196.203 93.117 c 196.328
 85.875 196.598 69.531 196.75 53.234 c 197.18 7.43 196.586 6.832 194.816
 5.066 c 191.398 1.645 185.727 5.285 187.418 9.82 c 188.258 15.648 187.758
 62.289 187.203 93.188 c 177.574 93.691 168.074 95.609 159.004 98.871 c 
151.895 80.977 143.5 58.98 143.41 58.742 c 142.523 56.422 139.922 55.258
 137.602 56.141 c 135.277 57.027 134.113 59.629 135 61.949 c 135.09 62.188
 143.539 84.324 150.684 102.305 c 141.457 106.613 132.949 112.309 125.449
 119.195 c 117.199 111.848 85.414 79.297 65.566 58.688 c 61.406 54.367 54.922
 60.609 59.086 64.93 c 59.234 65.09 74.367 80.797 89.586 96.305 c 106.523
 113.555 114.75 121.703 119.117 125.555 c 112.598 132.715 107.156 140.785
 102.965 149.512 c 85.258 141.875 63.66 132.207 63.426 132.102 c 61.148 
131.023 58.426 132.031 57.395 134.332 c 56.363 136.637 57.43 139.336 59.754
 140.316 c 59.984 140.422 81.672 150.129 99.453 157.797 c 95.898 167.352
 93.852 177.398 93.379 187.586 c 82.188 188.211 36.871 187.676 8.34 187.133
 c 5.852 187.086 3.801 189.062 3.754 191.551 c 3.707 194.035 5.684 196.086
 8.168 196.133 c 8.387 196.137 30.195 196.547 51.922 196.75 c 61.367 196.84
 68.887 196.883 74.891 196.883 c 84.156 196.883 89.812 196.777 93.359 196.559
 c 93.766 206.242 95.594 215.816 98.789 224.969 c 80.91 232.07 58.984 240.438
 58.75 240.527 c 56.395 241.391 55.199 244.008 56.09 246.352 c 56.984 248.695
 59.617 249.859 61.949 248.938 c 62.188 248.848 84.188 240.453 102.133 233.32
 c 106.387 242.645 112.051 251.254 118.926 258.848 c 111.078 267.547 79.055
 298.816 58.688 318.43 c 56.898 320.156 56.844 323.004 58.566 324.793 c 
60.293 326.586 63.141 326.641 64.93 324.914 c 65.09 324.766 80.797 309.633
 96.305 294.41 c 113.117 277.91 121.281 269.676 125.25 265.227 c 132.398
 271.832 140.477 277.355 149.227 281.617 c 141.641 299.199 132.203 320.281
 132.102 320.508 c 131.031 322.785 132.039 325.496 134.336 326.527 c 136.633
 327.555 139.328 326.496 140.312 324.184 c 140.414 323.957 149.879 302.82
 157.492 285.176 c 167.125 288.82 177.27 290.938 187.559 291.441 c 188.223
 301.918 187.68 347.996 187.133 376.875 c 187.09 379.359 189.062 381.414
 191.547 381.461 c 191.637 381.461 l 194.09 381.461 196.09 379.496 196.137
 377.043 c 196.137 376.828 196.547 355.02 196.75 333.289 c 196.98 308.758
 196.918 297.195 196.535 291.477 c 206.219 291.094 215.797 289.289 224.953
 286.117 c 240.574 326.273 241.234 326.555 243.496 327.516 c 247.871 329.375
 251.766 324.059 248.668 320.445 c 247.961 319.152 245.035 312.875 233.316
 282.789 c 242.91 278.441 251.754 272.598 259.516 265.48 c 264.797 270.945
 275.754 282.262 286.762 293.48 c 318.848 326.172 319.688 326.172 322.188
 326.172 c 327.023 326.176 328.461 319.59 324.062 317.578 c 319.391 314.082
 287.332 281.344 265.875 259.109 c 272.371 251.984 277.801 243.957 281.992
 235.273 c 313.523 249.145 320.203 251.719 322.781 251.719 c 323.289 251.715
 323.793 251.602 324.254 251.383 c 328.668 249.605 327.66 243.082 322.914
 242.723 c 321.5 242.309 315.004 239.945 285.523 226.992 c 289.211 217.129
 291.297 206.738 291.699 196.215 c 299.297 196.348 315.051 196.602 330.766
 196.75 c 340.211 196.836 347.727 196.883 353.734 196.883 c 376.863 196.883
 377.531 196.219 378.934 194.816 c 382.355 191.398 378.715 185.727 374.184
 187.414 c h
192.52 282.566 m 156.012 282.566 123.098 260.578 109.129 226.848 c 95.156
 193.121 102.879 154.297 128.695 128.48 c 154.508 102.668 193.332 94.945
 227.062 108.914 c 260.789 122.887 282.781 155.797 282.781 192.305 c 282.727
 242.133 242.348 282.512 192.52 282.566 c h
192.52 282.566 m f
Q Q
showpage
%%Trailer
end
%%EOF
