%!PS-Adobe-3.0 EPSF-3.0
%%Creator: cairo 1.16.0 (https://cairographics.org)
%%CreationDate: Tue Feb  2 14:48:36 2021
%%Pages: 1
%%DocumentData: Clean7Bit
%%LanguageLevel: 2
%%BoundingBox: 3 38 381 346
%%EndComments
%%BeginProlog
50 dict begin
/q { gsave } bind def
/Q { grestore } bind def
/cm { 6 array astore concat } bind def
/w { setlinewidth } bind def
/J { setlinecap } bind def
/j { setlinejoin } bind def
/M { setmiterlimit } bind def
/d { setdash } bind def
/m { moveto } bind def
/l { lineto } bind def
/c { curveto } bind def
/h { closepath } bind def
/re { exch dup neg 3 1 roll 5 3 roll moveto 0 rlineto
      0 exch rlineto 0 rlineto closepath } bind def
/S { stroke } bind def
/f { fill } bind def
/f* { eofill } bind def
/n { newpath } bind def
/W { clip } bind def
/W* { eoclip } bind def
/BT { } bind def
/ET { } bind def
/BDC { mark 3 1 roll /BDC pdfmark } bind def
/EMC { mark /EMC pdfmark } bind def
/cairo_store_point { /cairo_point_y exch def /cairo_point_x exch def } def
/Tj { show currentpoint cairo_store_point } bind def
/TJ {
  {
    dup
    type /stringtype eq
    { show } { -0.001 mul 0 cairo_font_matrix dtransform rmoveto } ifelse
  } forall
  currentpoint cairo_store_point
} bind def
/cairo_selectfont { cairo_font_matrix aload pop pop pop 0 0 6 array astore
    cairo_font exch selectfont cairo_point_x cairo_point_y moveto } bind def
/Tf { pop /cairo_font exch def /cairo_font_matrix where
      { pop cairo_selectfont } if } bind def
/Td { matrix translate cairo_font_matrix matrix concatmatrix dup
      /cairo_font_matrix exch def dup 4 get exch 5 get cairo_store_point
      /cairo_font where { pop cairo_selectfont } if } bind def
/Tm { 2 copy 8 2 roll 6 array astore /cairo_font_matrix exch def
      cairo_store_point /cairo_font where { pop cairo_selectfont } if } bind def
/g { setgray } bind def
/rg { setrgbcolor } bind def
/d1 { setcachedevice } bind def
/cairo_data_source {
  CairoDataIndex CairoData length lt
    { CairoData CairoDataIndex get /CairoDataIndex CairoDataIndex 1 add def }
    { () } ifelse
} def
/cairo_flush_ascii85_file { cairo_ascii85_file status { cairo_ascii85_file flushfile } if } def
/cairo_image { image cairo_flush_ascii85_file } def
/cairo_imagemask { imagemask cairo_flush_ascii85_file } def
%%EndProlog
%%BeginSetup
%%EndSetup
%%Page: 1 1
%%BeginPageSetup
%%PageBoundingBox: 3 38 381 346
%%EndPageSetup
q 3 38 378 308 rectclip
1 0 0 -1 0 384 cm q
0.729412 0.478431 0.388235 rg
105.914 266.766 m 142.254 304 196.652 317.227 246.031 300.84 c 190.566 
354.645 101.871 355.043 47.926 299.738 c 22.023 273.211 7.75 237.461 8.266
 200.387 c 8.777 163.312 24.035 127.973 50.664 102.172 c 71.52 81.93 93.699
 70.191 120.336 65.477 c 116.172 68.496 112.238 71.82 108.562 75.422 c 82.773
 100.41 67.996 134.637 67.5 170.543 c 67.004 206.449 80.828 241.074 105.914
 266.766 c h
105.914 266.766 m f
0.847059 0.54902 0.419608 rg
314.934 249.203 m 309.18 258.504 306 261.449 297.789 269.414 c 272.078 
294.594 237.41 308.512 201.43 308.098 c 165.449 307.688 131.109 292.98 105.98
 267.219 c 80.855 241.461 67.008 206.766 67.492 170.785 c 67.977 134.805
 82.754 100.492 108.562 75.422 c 112.238 71.82 116.172 68.496 120.336 65.477
 c 125.969 61.441 132.027 58.047 138.406 55.352 c 96.898 107.582 100.727
 182.531 147.336 230.266 c 192.285 276.344 262.785 282.855 314.934 249.203
 c h
314.934 249.203 m f
326.625 45.074 m 331.578 45.137 336.406 46.617 340.547 49.336 c 331.559
 93.113 293.211 123.773 246.652 123.773 c 199.996 123.82 160.016 90.414 
151.777 44.488 c 154.84 43.324 158.098 42.75 161.379 42.797 c h
326.625 45.074 m f
0.929412 0.65098 0.415686 rg
346.477 54.699 m 369.98 83.996 379.965 121.887 373.953 158.965 c 367.941
 196.043 346.492 228.832 314.934 249.203 c 262.785 282.855 192.285 276.344
 147.336 230.266 c 100.727 182.531 96.898 107.582 138.406 55.352 c 139.336
 54.172 140.297 53.016 141.27 51.871 c 144.094 48.562 147.711 46.023 151.777
 44.488 c 160.016 90.414 199.996 123.82 246.652 123.773 c 293.211 123.773
 331.559 93.113 340.547 49.336 c 342.793 50.801 344.793 52.609 346.477 54.699
 c h
346.477 54.699 m f
0.576471 0.380392 0.317647 rg
70.426 299.738 m 44.523 273.211 30.25 237.461 30.766 200.387 c 31.277 163.312
 46.535 127.973 73.164 102.172 c 83.676 91.973 94.527 83.93 106.113 77.855
 c 106.918 77.039 107.734 76.227 108.562 75.422 c 112.238 71.82 116.172 
68.496 120.336 65.477 c 93.699 70.191 71.52 81.93 50.664 102.172 c 24.035
 127.973 8.777 163.312 8.266 200.387 c 7.75 237.461 22.023 273.211 47.926
 299.738 c 77.809 330.371 118.352 343.906 158 340.75 c 124.793 338.18 93.66
 323.602 70.426 299.738 c h
70.426 299.738 m f
0.156863 0.258824 0.407843 rg
126.574 225.766 m 124.09 225.766 122.074 227.781 122.074 230.266 c 122.074
 235.258 114.582 235.258 114.582 230.266 c 114.582 224.266 105.582 224.266
 105.582 230.266 c 105.582 237.305 111.289 243.012 118.328 243.012 c 125.367
 243.012 131.074 237.305 131.074 230.266 c 131.074 227.781 129.059 225.766
 126.574 225.766 c h
126.574 225.766 m f
65.109 258.938 m 62.227 260.695 60.16 263.531 59.371 266.816 c 58.582 270.098
 59.133 273.562 60.898 276.441 c 62.188 278.59 64.98 279.273 67.117 277.965
 c 69.25 276.652 69.902 273.852 68.566 271.73 c 67.492 269.977 68.047 267.684
 69.805 266.617 c 71.57 265.539 73.871 266.09 74.961 267.848 c 76.246 269.996
 79.043 270.684 81.176 269.371 c 83.312 268.059 83.965 265.258 82.629 263.137
 c 78.938 257.156 71.109 255.281 65.109 258.938 c h
65.109 258.938 m f
50.426 172.078 m 47.945 171.879 45.777 173.727 45.578 176.203 c 45.289 
179.52 41.145 180.848 38.988 178.312 c 38.344 177.566 38.027 176.59 38.109
 175.605 c 38.309 173.129 36.465 170.961 33.988 170.758 c 31.512 170.559
 29.34 172.402 29.141 174.879 c 28.867 178.246 29.949 181.582 32.141 184.152
 c 34.328 186.727 37.453 188.32 40.82 188.586 c 41.164 188.617 41.508 188.629
 41.852 188.629 c 48.484 188.621 54 183.535 54.547 176.926 c 54.746 174.449
 52.902 172.281 50.426 172.078 c h
50.426 172.078 m f
89.902 148.688 m 84.984 148.695 83.648 155.461 88.195 157.336 c 92.738 
159.211 96.562 153.473 93.082 150 c 92.234 149.164 91.094 148.691 89.902
 148.688 c h
89.902 148.688 m f
195.637 287.52 m 190.719 287.527 189.383 294.293 193.93 296.168 c 198.473
 298.043 202.297 292.305 198.816 288.832 c 197.973 287.992 196.828 287.523
 195.637 287.52 c h
195.637 287.52 m f
45.848 236.559 m 40.949 236.578 39.629 243.316 44.16 245.184 c 48.688 247.047
 52.5 241.332 49.035 237.871 c 48.188 237.031 47.043 236.559 45.848 236.559
 c h
45.848 236.559 m f
133.957 324.426 m 129.059 324.445 127.742 331.188 132.27 333.051 c 136.801
 334.918 140.609 329.203 137.145 325.738 c 136.297 324.902 135.152 324.43
 133.957 324.426 c h
133.957 324.426 m f
326.688 40.574 m 161.441 38.297 l 152.383 38.156 143.73 42.062 137.844 
48.953 c 137.078 49.852 136.324 50.762 135.586 51.68 c 129.605 54.285 123.902
 57.484 118.559 61.227 c 91.492 66.211 68.895 78.211 47.527 98.938 c 20.043
 125.57 4.293 162.051 3.762 200.32 c 3.23 238.59 17.961 275.492 44.699 302.875
 c 71.551 330.402 107.664 345.609 146.398 345.703 c 146.766 345.703 l 184.703
 345.742 221.172 331.051 248.48 304.719 c 268.129 298.062 286.047 287.105
 300.922 272.645 c 301.793 271.797 l 309.203 264.617 312.711 261.203 318.242
 252.398 c 350.609 231.23 372.52 197.371 378.566 159.172 c 384.613 120.977
 374.23 82 349.98 51.875 c 344.293 44.82 335.75 40.676 326.688 40.574 c 
h
161.012 47.297 m 161.113 47.297 161.215 47.297 161.316 47.297 c 326.562
 49.574 l 329.625 49.617 332.645 50.309 335.418 51.605 c 325.684 91.613 
289.652 119.277 246.652 119.277 c 203.668 119.402 166.383 89.621 156.996
 47.676 c 158.32 47.426 159.668 47.297 161.016 47.297 c h
51.145 296.598 m 26.078 270.926 12.266 236.328 12.762 200.449 c 13.258 
164.574 28.023 130.371 53.793 105.402 c 69.16 90.496 85.168 80.414 103.184
 74.426 c 63.645 114.621 52.137 174.641 74 226.609 c 95.859 278.582 146.812
 312.324 203.191 312.176 c 211.625 312.172 220.043 311.414 228.34 309.914
 c 174.363 349.566 98.406 345.043 51.145 296.594 c h
295.527 265.34 m 294.652 266.188 l 242.801 316.492 159.578 315.348 109.133
 263.633 c 84.879 238.797 71.516 205.324 71.996 170.609 c 72.477 135.898
 86.762 102.809 111.695 78.652 c 115.508 74.918 119.613 71.5 123.98 68.434
 c 99.133 110.906 98.938 163.438 123.473 206.09 c 148.008 248.746 193.512
 274.988 242.723 274.867 c 261.457 274.875 280 271.074 297.219 263.695 c
 296.68 264.219 296.125 264.758 295.527 265.336 c h
371.031 145.234 m 369.18 177.223 355.371 207.348 332.34 229.625 c 281.531
 278.918 199.98 277.793 150.555 227.121 c 104.371 179.82 101.828 105.125
 144.691 54.793 c 145.84 53.453 147.148 52.258 148.59 51.242 c 159.5 96.527
 200.07 128.398 246.652 128.277 c 292.434 128.277 331.043 99.621 343.113
 57.699 c 362.969 82.398 372.922 113.602 371.031 145.234 c h
371.031 145.234 m f
181.152 158.398 m 178.668 158.398 176.652 160.414 176.652 162.898 c 176.652
 167.895 169.16 167.895 169.16 162.898 c 169.16 156.898 160.16 156.898 160.16
 162.898 c 160.16 169.938 165.867 175.645 172.906 175.645 c 179.945 175.645
 185.652 169.938 185.652 162.898 c 185.652 160.414 183.637 158.398 181.152
 158.398 c h
181.152 158.398 m f
286.008 209.816 m 278.98 209.82 273.277 215.512 273.266 222.539 c 273.266
 228.539 282.266 228.539 282.266 222.539 c 282.266 217.547 289.754 217.547
 289.754 222.539 c 289.754 228.539 298.754 228.539 298.754 222.539 c 298.738
 215.512 293.039 209.82 286.008 209.816 c h
286.008 209.816 m f
321.891 150.949 m 327.891 150.949 327.891 141.949 321.891 141.949 c 314.867
 141.949 309.168 147.648 309.168 154.672 c 309.168 161.699 314.867 167.395
 321.891 167.395 c 327.891 167.395 327.891 158.395 321.891 158.395 c 319.836
 158.395 318.168 156.73 318.168 154.672 c 318.168 152.617 319.836 150.949
 321.891 150.949 c h
321.891 150.949 m f
206.242 79.395 m 211.176 79.402 212.535 72.617 207.977 70.727 c 203.422
 68.836 199.574 74.586 203.062 78.074 c 203.906 78.914 205.051 79.391 206.242
 79.395 c h
206.242 79.395 m f
268.336 76.621 m 273.27 76.629 274.625 69.844 270.07 67.949 c 265.512 66.059
 261.668 71.812 265.156 75.301 c 266 76.145 267.141 76.617 268.336 76.621
 c h
268.336 76.621 m f
254.406 110.469 m 259.32 110.461 260.66 103.703 256.121 101.82 c 251.582
 99.941 247.75 105.668 251.219 109.148 c 252.066 109.988 253.215 110.461
 254.406 110.469 c h
254.406 110.469 m f
339.27 101.676 m 335.801 105.156 339.637 110.879 344.172 108.996 c 348.707
 107.113 347.363 100.359 342.449 100.359 c 341.258 100.359 340.113 100.836
 339.27 101.676 c h
339.27 101.676 m f
210.336 217.914 m 205.422 217.918 204.082 224.684 208.629 226.562 c 213.176
 228.438 217 222.699 213.516 219.227 c 212.668 218.391 211.527 217.918 210.336
 217.914 c h
210.336 217.914 m f
251.094 147.734 m 246.18 147.742 244.84 154.5 249.379 156.383 c 253.918
 158.262 257.75 152.535 254.281 149.055 c 253.434 148.215 252.285 147.738
 251.094 147.734 c h
251.094 147.734 m f
142.77 104.754 m 137.852 104.758 136.516 111.523 141.062 113.402 c 145.605
 115.277 149.43 109.539 145.949 106.066 c 145.105 105.227 143.961 104.754
 142.77 104.754 c h
142.77 104.754 m f
Q Q
showpage
%%Trailer
end
%%EOF
