%!PS-Adobe-3.0 EPSF-3.0
%%Creator: cairo 1.16.0 (https://cairographics.org)
%%CreationDate: Tue Feb  2 14:48:37 2021
%%Pages: 1
%%DocumentData: Clean7Bit
%%LanguageLevel: 2
%%BoundingBox: 3 43 381 341
%%EndComments
%%BeginProlog
50 dict begin
/q { gsave } bind def
/Q { grestore } bind def
/cm { 6 array astore concat } bind def
/w { setlinewidth } bind def
/J { setlinecap } bind def
/j { setlinejoin } bind def
/M { setmiterlimit } bind def
/d { setdash } bind def
/m { moveto } bind def
/l { lineto } bind def
/c { curveto } bind def
/h { closepath } bind def
/re { exch dup neg 3 1 roll 5 3 roll moveto 0 rlineto
      0 exch rlineto 0 rlineto closepath } bind def
/S { stroke } bind def
/f { fill } bind def
/f* { eofill } bind def
/n { newpath } bind def
/W { clip } bind def
/W* { eoclip } bind def
/BT { } bind def
/ET { } bind def
/BDC { mark 3 1 roll /BDC pdfmark } bind def
/EMC { mark /EMC pdfmark } bind def
/cairo_store_point { /cairo_point_y exch def /cairo_point_x exch def } def
/Tj { show currentpoint cairo_store_point } bind def
/TJ {
  {
    dup
    type /stringtype eq
    { show } { -0.001 mul 0 cairo_font_matrix dtransform rmoveto } ifelse
  } forall
  currentpoint cairo_store_point
} bind def
/cairo_selectfont { cairo_font_matrix aload pop pop pop 0 0 6 array astore
    cairo_font exch selectfont cairo_point_x cairo_point_y moveto } bind def
/Tf { pop /cairo_font exch def /cairo_font_matrix where
      { pop cairo_selectfont } if } bind def
/Td { matrix translate cairo_font_matrix matrix concatmatrix dup
      /cairo_font_matrix exch def dup 4 get exch 5 get cairo_store_point
      /cairo_font where { pop cairo_selectfont } if } bind def
/Tm { 2 copy 8 2 roll 6 array astore /cairo_font_matrix exch def
      cairo_store_point /cairo_font where { pop cairo_selectfont } if } bind def
/g { setgray } bind def
/rg { setrgbcolor } bind def
/d1 { setcachedevice } bind def
/cairo_data_source {
  CairoDataIndex CairoData length lt
    { CairoData CairoDataIndex get /CairoDataIndex CairoDataIndex 1 add def }
    { () } ifelse
} def
/cairo_flush_ascii85_file { cairo_ascii85_file status { cairo_ascii85_file flushfile } if } def
/cairo_image { image cairo_flush_ascii85_file } def
/cairo_imagemask { imagemask cairo_flush_ascii85_file } def
%%EndProlog
%%BeginSetup
%%EndSetup
%%Page: 1 1
%%BeginPageSetup
%%PageBoundingBox: 3 43 381 341
%%EndPageSetup
q 3 43 378 298 rectclip
1 0 0 -1 0 384 cm q
0.290196 0.317647 0.376471 rg
284.902 283.906 m 284.891 294.227 288.926 304.137 296.145 311.512 c 287.469
 320.176 l 277.809 310.527 272.387 297.43 272.398 283.777 c 272.398 283.531
 l 284.91 283.531 l 284.902 283.656 284.902 283.777 284.902 283.906 c h
284.902 283.906 m f
0.427451 0.454902 0.52549 rg
324.188 323.504 m 324.188 335.355 l 324.074 335.355 l 310.336 335.375 297.16
 329.91 287.469 320.176 c 296.145 311.512 l 303.512 319.098 313.613 323.418
 324.188 323.504 c h
324.188 323.504 m f
0.290196 0.317647 0.376471 rg
360.797 320.062 m 351.121 329.84 337.941 335.348 324.188 335.355 c 324.188
 323.504 l 324.324 323.512 324.457 323.512 324.594 323.512 c 335.109 323.531
 345.203 319.359 352.641 311.926 c h
360.797 320.062 m f
0.427451 0.454902 0.52549 rg
375.75 283.777 m 375.766 297.375 370.387 310.426 360.797 320.062 c 352.641
 311.926 l 360.105 304.512 364.297 294.426 364.281 283.906 c 364.281 283.777
 364.281 283.656 364.273 283.531 c 375.75 283.531 l h
375.75 283.777 m f
324.188 244.148 m 324.188 232.207 l 337.816 232.215 350.887 237.621 360.539
 247.246 c 352.262 255.512 l 344.855 248.301 334.926 244.273 324.594 244.289
 c 324.457 244.289 324.324 244.289 324.188 244.297 c h
324.188 244.148 m f
0.290196 0.317647 0.376471 rg
296.289 255.684 m 287.723 247.133 l 297.395 237.551 310.461 232.188 324.074
 232.207 c 324.188 232.207 l 324.188 244.297 l 313.797 244.387 303.855 248.555
 296.512 255.906 c h
296.289 255.684 m f
0.427451 0.454902 0.52549 rg
296.289 255.684 m 296.512 255.906 l 289.16 263.23 284.992 273.156 284.91
 283.531 c 272.398 283.531 l 272.414 280.637 272.668 277.75 273.164 274.898
 c 275.004 264.352 280.094 254.645 287.723 247.133 c h
296.289 255.684 m f
0.290196 0.317647 0.376471 rg
111.156 233.543 m 122.078 222.645 l 134.582 235.039 141.645 251.898 141.703
 269.504 c 126.141 269.504 l 125.941 256.07 120.461 243.25 110.879 233.828
 c h
111.156 233.543 m f
0.427451 0.454902 0.52549 rg
122.078 222.645 m 111.156 233.543 l 110.879 233.828 l 101.355 224.398 88.52
 219.074 75.121 218.992 c 75.129 218.648 l 75.129 203.227 l 92.73 203.242
 109.609 210.223 122.078 222.645 c h
122.078 222.645 m f
0.290196 0.317647 0.376471 rg
75.129 203.227 m 75.129 218.648 l 75.121 218.992 l 74.977 218.984 74.844
 218.984 74.699 218.984 c 61.367 218.965 48.547 224.137 38.961 233.406 c
 28.035 222.504 l 28.5 222.039 28.965 221.586 29.445 221.145 c 41.797 209.609
 58.074 203.203 74.977 203.227 c h
75.129 203.227 m f
0.427451 0.454902 0.52549 rg
38.961 233.406 m 29.117 242.859 23.465 255.859 23.258 269.504 c 8.258 269.504
 l 8.32 251.828 15.441 234.906 28.035 222.504 c h
38.961 233.406 m f
0.290196 0.317647 0.376471 rg
38.121 306.434 m 27.703 316.828 l 15.23 304.371 8.23 287.457 8.25 269.828
 c 8.25 269.723 8.25 269.609 8.258 269.504 c 23.258 269.504 l 23.25 269.781
 23.25 270.059 23.25 270.336 c 23.234 283.863 28.582 296.844 38.121 306.434
 c h
38.121 306.434 m f
0.427451 0.454902 0.52549 rg
75.129 321.676 m 75.129 336.426 l 74.977 336.426 l 57.238 336.453 40.223
 329.398 27.703 316.828 c 38.121 306.434 l 47.781 316.211 60.957 321.703
 74.699 321.684 c 74.844 321.684 74.984 321.684 75.129 321.676 c h
75.129 321.676 m f
0.290196 0.317647 0.376471 rg
122.398 316.688 m 109.906 329.309 92.887 336.414 75.129 336.426 c 75.129
 321.676 l 88.93 321.586 102.117 315.938 111.703 306.008 c h
122.398 316.688 m f
0.427451 0.454902 0.52549 rg
141.703 269.504 m 141.711 269.609 141.711 269.723 141.711 269.828 c 141.723
 287.387 134.777 304.234 122.398 316.688 c 111.703 306.008 l 120.98 296.453
 126.164 283.656 126.148 270.336 c 126.148 270.059 126.148 269.781 126.141
 269.504 c h
141.703 269.504 m f
0.690196 0.709804 0.792157 rg
38.961 233.406 m 48.547 224.137 61.367 218.965 74.699 218.984 c 74.844 
218.984 74.977 218.984 75.121 218.992 c 103.02 219.188 125.664 241.609 126.141
 269.504 c 126.148 269.781 126.148 270.059 126.148 270.336 c 126.121 298.555
 103.344 321.473 75.129 321.676 c 74.984 321.684 74.844 321.684 74.699 321.684
 c 46.316 321.699 23.289 298.719 23.25 270.336 c 23.25 270.059 23.25 269.781
 23.258 269.504 c 23.465 255.859 29.117 242.859 38.961 233.406 c h
38.961 233.406 m f
364.281 283.906 m 364.258 305.801 346.488 323.535 324.594 323.512 c 324.457
 323.512 324.324 323.512 324.188 323.504 c 302.453 323.301 284.934 305.641
 284.902 283.906 c 284.902 283.777 284.902 283.656 284.91 283.531 c 285.129
 261.934 302.594 244.488 324.188 244.297 c 324.324 244.289 324.457 244.289
 324.594 244.289 c 346.344 244.277 364.047 261.781 364.273 283.531 c 364.281
 283.656 364.281 283.777 364.281 283.906 c h
364.281 283.906 m f
0.290196 0.317647 0.376471 rg
368.406 257.266 m 373.18 265.195 375.719 274.273 375.75 283.531 c 364.273
 283.531 l 364.191 272.957 359.863 262.859 352.262 255.512 c 360.539 247.246
 l 363.566 250.25 366.207 253.613 368.406 257.266 c h
368.406 257.266 m f
0.419608 0.396078 0.372549 rg
275.348 300.984 m 159.496 300.984 l 163 292.672 165.215 283.875 166.066
 274.898 c 273.164 274.898 l 272.668 277.75 272.414 280.637 272.398 283.531
 c 272.398 283.777 l 272.391 289.641 273.387 295.457 275.348 300.984 c h
275.348 300.984 m f
0.776471 0.388235 0.470588 rg
141.711 269.828 m 141.711 269.723 141.711 269.609 141.703 269.504 c 141.496
 232.871 111.762 203.27 75.129 203.227 c 74.977 203.227 l 58.074 203.203
 41.797 209.609 29.445 221.145 c 27.223 222.809 24.52 223.711 21.742 223.719
 c 19.047 223.734 16.43 222.824 14.324 221.145 c 11.602 218.953 9.945 215.703
 9.77 212.215 c 9.594 208.723 10.914 205.32 13.402 202.867 c 30.223 186.113
 53.004 176.715 76.746 176.738 c 87.645 176.73 98.449 178.742 108.613 182.664
 c 120.449 187.23 131.191 194.234 140.145 203.219 c 140.145 203.227 l 140.152
 203.227 l 157.25 220.227 166.742 243.418 166.469 267.523 c 166.441 270.008
 166.305 272.465 166.066 274.898 c 165.215 283.875 163 292.672 159.496 300.984
 c 134.113 300.984 l 134.004 300.922 l 139.082 291.348 141.73 280.668 141.711
 269.828 c h
141.711 269.828 m f
0.427451 0.454902 0.52549 rg
206.414 47.574 m 35.34 47.574 l 31.582 47.574 27.98 49.078 25.34 51.754
 c 22.699 54.426 21.238 58.047 21.285 61.805 c 21.383 69.562 27.969 75.68
 35.73 75.68 c 234.492 75.68 l 234.508 75.68 234.516 75.668 234.516 75.656
 c 234.504 60.145 221.926 47.574 206.414 47.574 c h
206.414 47.574 m f
0.921569 0.447059 0.533333 rg
44.812 75.684 m 44.812 182.586 l 55.012 178.707 65.836 176.723 76.746 176.738
 c 87.645 176.73 98.449 178.742 108.613 182.664 c 108.613 75.684 l h
44.812 75.684 m f
0.427451 0.454902 0.52549 rg
138.922 144.531 m 140.145 203.219 l 131.191 194.234 120.449 187.23 108.613
 182.664 c 108.613 114.906 l 125.094 114.895 138.562 128.059 138.922 144.531
 c h
138.922 144.531 m f
0.776471 0.388235 0.470588 rg
234.516 155.961 m 234.516 187.703 l 234.508 196.285 227.543 203.234 218.961
 203.227 c 199.5 203.227 l 199.5 163.621 l 199.492 161.203 200.348 158.863
 201.906 157.02 c 201.914 157.02 l 204.113 154.398 207.477 153.047 210.879
 153.422 c 234.465 155.805 l h
234.516 155.961 m f
0.921569 0.447059 0.533333 rg
326.672 209.145 m 320.723 209.152 315.016 206.793 310.805 202.594 c 306.598
 198.391 304.227 192.691 304.223 186.742 c 304.223 162.84 l 234.465 155.805
 l 234.516 155.961 l 234.516 187.703 l 234.508 196.285 227.543 203.234 218.961
 203.227 c 140.152 203.227 l 157.25 220.227 166.742 243.418 166.469 267.523
 c 166.441 270.008 166.305 272.465 166.066 274.898 c 273.164 274.898 l 277.523
 250.195 298.992 232.195 324.074 232.207 c 324.188 232.207 l 342.293 232.254
 359.062 241.758 368.406 257.266 c 368.406 209.145 l h
326.672 209.145 m f
0.952941 0.807843 0.490196 rg
368.406 204.816 m 368.406 209.145 l 326.672 209.145 l 320.723 209.152 315.016
 206.793 310.805 202.594 c 306.598 198.391 304.227 192.691 304.223 186.742
 c 304.223 162.84 l 333.016 165.75 l 353.098 167.75 368.395 184.637 368.406
 204.816 c h
368.406 204.816 m f
0.298039 0.662745 0.529412 rg
296.07 120.871 m 296.07 161.871 l 296.055 162.023 l 270.93 159.48 l 270.93
 120.871 l h
296.07 120.871 m f
0.372549 0.803922 0.643137 rg
293.129 106.172 m 273.871 106.172 l 272.246 106.172 270.934 107.488 270.93
 109.109 c 270.93 120.871 l 296.07 120.871 l 296.07 109.109 l 296.066 107.488
 294.754 106.172 293.129 106.172 c h
293.129 106.172 m f
0.337255 0.356863 0.407843 rg
97.484 270.336 m 97.484 282.895 87.285 293.078 74.699 293.078 c 62.117 
293.078 51.914 282.895 51.914 270.336 c 51.914 257.777 62.117 247.598 74.699
 247.598 c 87.285 247.598 97.484 257.777 97.484 270.336 c h
97.484 270.336 m f
340.027 283.906 m 340.027 292.414 333.117 299.309 324.594 299.309 c 316.066
 299.309 309.156 292.414 309.156 283.906 c 309.156 275.398 316.066 268.5
 324.594 268.5 c 333.117 268.5 340.027 275.398 340.027 283.906 c h
340.027 283.906 m f
0.529412 0.545098 0.6 rg
45.75 270.336 m 45.75 270.059 45.75 269.781 45.758 269.504 c 46.172 245.77
 62.785 225.402 85.957 220.23 c 82.398 219.438 78.77 219.02 75.125 218.992
 c 74.98 218.984 74.848 218.984 74.703 218.984 c 46.645 218.969 23.754 241.449
 23.262 269.504 c 23.254 269.781 23.254 270.059 23.254 270.336 c 23.293 
298.719 46.32 321.699 74.703 321.68 c 74.848 321.68 74.988 321.68 75.133
 321.672 c 78.777 321.645 82.406 321.23 85.965 320.438 c 62.488 315.203 
45.781 294.391 45.75 270.336 c h
45.75 270.336 m f
307.402 283.906 m 307.402 283.777 307.402 283.656 307.41 283.531 c 307.582
 266.098 319.129 250.828 335.855 245.914 c 332.199 244.836 328.406 244.289
 324.594 244.289 c 324.457 244.289 324.324 244.289 324.188 244.297 c 302.594
 244.488 285.129 261.934 284.91 283.531 c 284.902 283.656 284.902 283.777
 284.902 283.906 c 284.934 305.641 302.453 323.301 324.188 323.504 c 324.324
 323.512 324.457 323.512 324.594 323.512 c 328.402 323.512 332.195 322.965
 335.852 321.887 c 319.004 316.926 307.426 301.469 307.402 283.906 c h
307.402 283.906 m f
0.619608 0.329412 0.403922 rg
35.902 202.867 m 49.953 188.867 68.258 179.926 87.938 177.449 c 60.504 
173.973 32.996 183.352 13.402 202.867 c 10.914 205.32 9.594 208.723 9.77
 212.215 c 9.945 215.703 11.602 218.953 14.324 221.145 c 16.43 222.824 19.047
 223.734 21.742 223.719 c 24.52 223.711 27.223 222.809 29.445 221.145 c 
30.828 219.855 32.27 218.633 33.754 217.465 c 31.145 212.664 32.02 206.715
 35.902 202.867 c h
35.902 202.867 m f
0.337255 0.356863 0.407843 rg
43.785 61.66 m 43.781 57.879 45.258 54.25 47.902 51.547 c 50.516 48.855
 54.09 47.309 57.84 47.25 c 35.34 47.25 l 27.469 47.25 21.09 53.629 21.09
 61.5 c 21.09 69.371 27.469 75.75 35.34 75.75 c 57.84 75.75 l 50.07 75.734
 43.781 69.43 43.785 61.66 c h
43.785 61.66 m f
0.737255 0.368627 0.447059 rg
67.5 75.945 m 67.5 75.75 l 45 75.75 l 45 182.586 l 52.211 179.746 59.785
 177.945 67.5 177.234 c h
67.5 75.945 m f
0.156863 0.258824 0.407843 rg
324.59 264 m 316.543 264.012 309.293 268.871 306.223 276.309 c 303.152 
283.746 304.863 292.305 310.559 297.992 c 316.254 303.676 324.812 305.375
 332.246 302.293 c 339.68 299.207 344.527 291.953 344.527 283.902 c 344.504
 272.906 335.586 264.004 324.59 264 c h
324.59 294.809 m 320.184 294.797 316.215 292.133 314.539 288.059 c 312.859
 283.98 313.801 279.297 316.922 276.184 c 320.043 273.07 324.73 272.145 
328.801 273.832 c 332.871 275.523 335.527 279.496 335.527 283.902 c 335.512
 289.93 330.617 294.809 324.59 294.809 c h
324.59 294.809 m f
74.703 243.094 m 63.691 243.113 53.77 249.762 49.566 259.941 c 45.363 270.121
 47.707 281.832 55.5 289.613 c 63.297 297.395 75.008 299.719 85.184 295.496
 c 95.355 291.277 101.988 281.348 101.988 270.336 c 101.957 255.285 89.754
 243.098 74.703 243.094 c h
74.703 288.574 m 67.332 288.559 60.691 284.102 57.883 277.285 c 55.074 
270.469 56.645 262.629 61.863 257.422 c 67.086 252.215 74.926 250.66 81.738
 253.488 c 88.547 256.312 92.988 262.961 92.988 270.336 c 92.965 280.418
 84.785 288.578 74.703 288.574 c h
74.703 288.574 m f
372.906 256.117 m 372.906 204.82 l 372.895 182.328 355.848 163.504 333.469
 161.27 c 300.566 157.949 l 300.566 109.109 l 300.562 105.004 297.234 101.676
 293.129 101.672 c 288 101.672 l 288 79.59 l 288 73.59 279 73.59 279 79.59
 c 279 101.672 l 273.871 101.672 l 269.762 101.676 266.434 105.004 266.43
 109.109 c 266.43 154.504 l 237.852 151.621 l 214.934 80.18 l 234.516 80.18
 l 237.004 80.18 239.016 78.164 239.016 75.68 c 238.996 57.68 224.41 43.094
 206.41 43.074 c 35.34 43.074 l 30.398 43.043 25.648 44.98 22.145 48.465
 c 18.641 51.949 16.668 56.684 16.668 61.625 c 16.668 66.566 18.641 71.305
 22.145 74.785 c 25.648 78.27 30.398 80.211 35.34 80.18 c 40.312 80.18 l
 40.312 179.504 l 29.074 184.215 18.855 191.07 10.23 199.68 c 6.832 203.035
 5.031 207.684 5.273 212.453 c 5.516 217.223 7.785 221.664 11.504 224.656
 c 13.305 226.102 15.395 227.145 17.629 227.715 c 8.602 239.898 3.734 254.664
 3.75 269.828 c 3.75 309.031 35.703 340.926 74.98 340.926 c 100.363 340.922
 123.824 327.422 136.59 305.48 c 272.281 305.48 l 282.656 330.105 308.938
 344.016 335.133 338.75 c 361.328 333.484 380.195 310.5 380.25 283.781 c
 380.258 274.074 377.727 264.539 372.906 256.117 c h
371.012 279.027 m 368.504 279.027 l 367.551 270.418 364.066 262.281 358.492
 255.648 c 360.383 253.762 l 366.367 260.934 370.066 269.734 371.012 279.027
 c h
308.723 167.82 m 332.566 170.223 l 350.281 171.984 363.805 186.84 363.898
 204.645 c 326.672 204.645 l 316.773 204.645 308.746 196.633 308.723 186.738
 c h
275.43 110.668 m 291.566 110.668 l 291.566 116.367 l 275.43 116.367 l h
275.43 125.367 m 291.566 125.367 l 291.566 157.039 l 275.43 155.41 l h
228.086 150.633 m 211.359 148.945 l 207.879 148.582 204.379 149.457 201.484
 151.426 c 186.891 142.262 l 192.195 133.469 l 195.242 128.34 187.594 123.73
 184.484 128.82 c 169.121 154.316 l 167.836 156.445 168.523 159.211 170.652
 160.492 c 172.781 161.773 175.547 161.09 176.828 158.961 c 182.246 149.973
 l 195.918 158.562 l 195.316 160.18 195.008 161.895 195 163.621 c 195 198.727
 l 144.555 198.727 l 143.422 144.441 l 143.055 127.246 130.168 112.902 113.109
 110.699 c 113.109 80.176 l 205.484 80.176 l h
230.016 159.875 m 230.016 187.699 l 230 193.793 225.055 198.727 218.961
 198.723 c 204 198.723 l 204 163.621 l 203.992 161.988 204.688 160.43 205.91
 159.348 c 207.137 158.238 208.781 157.711 210.426 157.902 c h
135.43 192.949 m 128.648 187.477 121.137 182.977 113.109 179.574 c 113.109
 119.812 l 125.191 122.004 134.082 132.359 134.422 144.629 c h
35.34 71.18 m 32.789 71.203 30.34 70.203 28.527 68.41 c 26.719 66.617 25.699
 64.176 25.699 61.625 c 25.699 59.078 26.719 56.633 28.527 54.84 c 30.34
 53.047 32.789 52.051 35.34 52.074 c 206.414 52.074 l 217.711 52.086 227.422
 60.09 229.59 71.18 c h
104.113 80.18 m 104.113 176.309 l 95.246 173.598 86.027 172.227 76.754 
172.234 c 67.461 172.223 58.215 173.582 49.316 176.266 c 49.316 80.18 l 
h
28.16 228.984 m 32.691 233.508 l 24.922 242.301 20.137 253.324 19.016 265.004
 c 12.957 265.004 l 13.992 251.668 19.328 239.027 28.16 228.984 c h
27.863 310.32 m 19.059 300.164 13.809 287.414 12.91 274.004 c 18.891 274.004
 l 19.664 285.875 24.234 297.188 31.922 306.27 c h
70.629 331.758 m 57.176 330.828 44.395 325.539 34.219 316.691 c 38.258 
312.656 l 47.332 320.473 58.684 325.16 70.629 326.02 c h
74.703 317.184 m 55.766 317.145 38.711 305.703 31.492 288.195 c 24.273 
270.684 28.305 250.551 41.711 237.172 c 55.117 223.793 75.262 219.805 92.758
 227.062 c 110.25 234.316 121.652 251.395 121.652 270.336 c 121.598 296.227
 100.594 317.184 74.703 317.184 c h
34.566 222.664 m 44.688 213.992 57.332 208.816 70.629 207.895 c 70.629 
214.645 l 59.082 215.473 48.082 219.875 39.148 227.242 c h
79.629 214.703 m 79.629 207.914 l 92.887 208.898 105.48 214.117 115.551
 222.797 c 110.711 227.633 l 101.93 220.223 91.074 215.707 79.629 214.703
 c h
117.105 233.961 m 121.938 229.141 l 130.691 239.16 135.977 251.738 137.004
 265.004 c 130.391 265.004 l 129.293 253.527 124.648 242.68 117.105 233.961
 c h
79.629 331.734 m 79.629 325.957 l 91.473 324.918 102.676 320.121 111.602
 312.266 c 115.898 316.555 l 105.773 325.414 93.043 330.742 79.629 331.734
 c h
122.238 310.164 m 117.883 305.812 l 125.34 296.805 129.762 285.672 130.52
 274 c 137.055 274 l 136.164 287.34 130.965 300.031 122.238 310.164 c h
161.973 267.461 m 161.852 277.383 159.98 287.207 156.445 296.48 c 141.012
 296.48 l 144.453 288.016 146.219 278.965 146.211 269.828 c 146.211 230.621
 114.258 198.727 74.98 198.727 c 57.109 198.711 39.887 205.434 26.75 217.551
 c 26.742 217.543 l 23.926 219.723 20 219.762 17.141 217.633 c 15.422 216.266
 14.371 214.227 14.266 212.031 c 14.137 209.797 14.98 207.617 16.578 206.051
 c 32.633 190.035 54.422 181.098 77.102 181.23 c 99.777 181.367 121.461 
190.559 137.324 206.766 c 153.387 222.844 162.273 244.734 161.973 267.461
 c h
166.016 296.48 m 167.902 290.93 169.258 285.211 170.066 279.402 c 268.09
 279.402 l 267.977 280.848 267.898 282.305 267.898 283.781 c 267.902 288.055
 268.398 292.316 269.371 296.48 c h
269.527 270.402 m 170.887 270.402 l 170.926 269.465 170.961 268.527 170.969
 267.582 c 171.285 245.816 163.941 224.629 150.227 207.727 c 218.961 207.727
 l 230.023 207.723 238.996 198.766 239.02 187.703 c 239.02 160.785 l 299.727
 166.91 l 299.727 186.738 l 299.754 201.602 311.809 213.637 326.672 213.645
 c 363.91 213.645 l 363.91 244.285 l 349.602 229.887 328.641 224.328 309.082
 229.742 c 289.52 235.152 274.398 250.699 269.531 270.402 c h
354 247.418 m 352.039 249.371 l 345.336 244.035 337.219 240.773 328.688
 239.988 c 328.688 236.934 l 337.98 237.836 346.789 241.488 354 247.418 
c h
319.688 236.918 m 319.688 240.066 l 311.25 241 303.266 244.355 296.691 
249.723 c 294.277 247.316 l 301.523 241.398 310.371 237.777 319.688 236.914
 c h
290.324 256.086 m 284.961 262.641 281.609 270.609 280.676 279.027 c 277.141
 279.027 l 278.09 269.68 281.828 260.832 287.871 253.641 c h
287.641 313.648 m 281.621 306.371 277.949 297.438 277.102 288.031 c 280.602
 288.031 l 281.398 296.535 284.664 304.625 289.996 311.301 c h
319.688 330.645 m 310.25 329.773 301.297 326.066 294 320.016 c 296.281 
317.738 l 302.93 323.305 311.074 326.781 319.691 327.738 c h
289.402 283.906 m 289.371 269.664 297.922 256.809 311.07 251.34 c 324.219
 245.867 339.367 248.859 349.445 258.918 c 359.527 268.977 362.551 284.117
 357.109 297.277 c 351.668 310.438 338.832 319.02 324.59 319.02 c 305.184
 319.02 289.441 303.309 289.402 283.902 c h
328.688 330.629 m 328.688 327.816 l 337.402 327.016 345.68 323.633 352.465
 318.102 c 354.273 319.91 l 347.016 325.973 338.102 329.707 328.688 330.625
 c h
360.609 313.523 m 358.832 311.75 l 364.375 304.992 367.77 296.734 368.582
 288.031 c 371.051 288.031 l 370.207 297.383 366.57 306.266 360.609 313.52
 c h
360.609 313.523 m f
254.797 229.773 m 193.984 229.773 l 187.984 229.773 187.984 238.773 193.984
 238.773 c 254.797 238.773 l 260.797 238.773 260.797 229.773 254.797 229.773
 c h
254.797 229.773 m f
254.797 245.496 m 193.984 245.496 l 187.984 245.496 187.984 254.496 193.984
 254.496 c 254.797 254.496 l 260.797 254.496 260.797 245.496 254.797 245.496
 c h
254.797 245.496 m f
Q Q
showpage
%%Trailer
end
%%EOF
