%!PS-Adobe-3.0 EPSF-3.0
%%Creator: cairo 1.16.0 (https://cairographics.org)
%%CreationDate: Tue Feb  2 14:48:40 2021
%%Pages: 1
%%DocumentData: Clean7Bit
%%LanguageLevel: 2
%%BoundingBox: 48 3 336 381
%%EndComments
%%BeginProlog
50 dict begin
/q { gsave } bind def
/Q { grestore } bind def
/cm { 6 array astore concat } bind def
/w { setlinewidth } bind def
/J { setlinecap } bind def
/j { setlinejoin } bind def
/M { setmiterlimit } bind def
/d { setdash } bind def
/m { moveto } bind def
/l { lineto } bind def
/c { curveto } bind def
/h { closepath } bind def
/re { exch dup neg 3 1 roll 5 3 roll moveto 0 rlineto
      0 exch rlineto 0 rlineto closepath } bind def
/S { stroke } bind def
/f { fill } bind def
/f* { eofill } bind def
/n { newpath } bind def
/W { clip } bind def
/W* { eoclip } bind def
/BT { } bind def
/ET { } bind def
/BDC { mark 3 1 roll /BDC pdfmark } bind def
/EMC { mark /EMC pdfmark } bind def
/cairo_store_point { /cairo_point_y exch def /cairo_point_x exch def } def
/Tj { show currentpoint cairo_store_point } bind def
/TJ {
  {
    dup
    type /stringtype eq
    { show } { -0.001 mul 0 cairo_font_matrix dtransform rmoveto } ifelse
  } forall
  currentpoint cairo_store_point
} bind def
/cairo_selectfont { cairo_font_matrix aload pop pop pop 0 0 6 array astore
    cairo_font exch selectfont cairo_point_x cairo_point_y moveto } bind def
/Tf { pop /cairo_font exch def /cairo_font_matrix where
      { pop cairo_selectfont } if } bind def
/Td { matrix translate cairo_font_matrix matrix concatmatrix dup
      /cairo_font_matrix exch def dup 4 get exch 5 get cairo_store_point
      /cairo_font where { pop cairo_selectfont } if } bind def
/Tm { 2 copy 8 2 roll 6 array astore /cairo_font_matrix exch def
      cairo_store_point /cairo_font where { pop cairo_selectfont } if } bind def
/g { setgray } bind def
/rg { setrgbcolor } bind def
/d1 { setcachedevice } bind def
/cairo_data_source {
  CairoDataIndex CairoData length lt
    { CairoData CairoDataIndex get /CairoDataIndex CairoDataIndex 1 add def }
    { () } ifelse
} def
/cairo_flush_ascii85_file { cairo_ascii85_file status { cairo_ascii85_file flushfile } if } def
/cairo_image { image cairo_flush_ascii85_file } def
/cairo_imagemask { imagemask cairo_flush_ascii85_file } def
%%EndProlog
%%BeginSetup
%%EndSetup
%%Page: 1 1
%%BeginPageSetup
%%PageBoundingBox: 48 3 336 381
%%EndPageSetup
q 48 3 288 378 rectclip
1 0 0 -1 0 384 cm q
0.968627 0.85098 0.611765 rg
329.641 165.816 m 332.168 178.68 331.539 194.746 328.094 212.355 c 224.398
 239.699 56.918 216.398 56.918 216.398 c 53.094 199.094 51.879 183.113 53.566
 169.934 c 53.566 169.934 226.547 187.988 329.633 165.816 c h
329.641 165.816 m f
0.807843 0.682353 0.435294 rg
85.883 173.406 m 81.383 173.055 76.801 174.328 72.383 177.359 c 64.57 182.816
 60.93 192.523 63.23 201.77 c 65.531 211.02 73.297 217.887 82.754 219.047
 c 82.719 219.406 l 66.586 217.746 56.918 216.398 56.918 216.398 c 53.094
 199.094 51.879 183.113 53.566 169.934 c 53.566 169.934 65.895 171.227 85.934
 172.688 c h
85.883 173.406 m f
0.94902 0.796078 0.486275 rg
82.754 219.047 m 88.207 219.715 93.715 218.363 98.242 215.25 c 102.129 
212.586 112.793 201.344 119.805 190.289 c 116.352 197.672 117.055 206.328
 121.656 213.051 c 125.754 219.051 131.789 221.828 138.367 222.148 c 138.27
 223.852 l 116.191 222.594 96.945 220.875 82.719 219.406 c h
82.754 219.047 m f
0.807843 0.682353 0.435294 rg
149.691 180.059 m 143.652 176.441 135.859 177.957 131.613 183.57 c 127.367
 189.184 128.027 197.094 133.152 201.922 c 138.273 206.75 146.211 206.945
 151.562 202.375 c 156.914 197.801 157.965 189.934 153.996 184.117 c 152.875
 182.469 151.406 181.082 149.691 180.059 c h
140.258 177.238 m 140.316 175.746 l 157.246 176.414 175.664 176.859 194.641
 176.863 c 194.633 178.777 l 190.305 178.848 186.102 180.25 182.594 182.789
 c 179.254 185.074 176.59 188.215 174.887 191.887 c 174.66 192.359 174.457
 192.832 174.27 193.32 c 174.262 193.348 174.254 193.371 174.238 193.395
 c 171.531 199.336 163.02 214.898 153.344 219.129 c 148.648 221.266 143.523
 222.301 138.367 222.148 c 131.789 221.828 125.754 219.051 121.656 213.051
 c 117.055 206.328 116.352 197.672 119.805 190.289 c 119.797 190.281 119.805
 190.281 119.812 190.273 c 121.516 186.629 124.168 183.508 127.492 181.238
 c 131.195 178.543 135.68 177.137 140.258 177.238 c h
140.258 177.238 m f
0.94902 0.796078 0.486275 rg
138.367 222.148 m 143.523 222.301 148.648 221.266 153.344 219.129 c 163.02
 214.898 171.531 199.336 174.238 193.395 c 171.551 200.449 172.496 208.371
 176.762 214.598 c 181.164 221.047 187.934 224.039 195.098 224.039 c 195.098
 225.645 l 175.109 225.57 155.797 224.859 138.27 223.852 c h
138.367 222.148 m f
230.055 209.836 m 234.301 219.148 243.66 223.574 253.344 222.742 c 253.426
 223.793 l 234 225.203 214.238 225.719 195.098 225.645 c 195.098 224.039
 l 199.754 223.992 204.332 222.844 208.453 220.68 c 218.812 215.355 227.145
 198.414 228.75 194.316 c 227.367 199.484 227.832 204.973 230.055 209.836
 c h
230.055 209.836 m f
0.807843 0.682353 0.435294 rg
262.453 181.461 m 256.477 177.121 248.125 178.367 243.672 184.266 c 239.223
 190.16 240.312 198.535 246.121 203.094 c 251.934 207.656 260.324 206.727
 264.996 201.004 c 269.664 195.277 268.891 186.871 263.258 182.094 c 262.996
 181.867 262.734 181.656 262.453 181.461 c h
249.316 175.5 m 267.047 174.539 284.488 173.031 300.922 170.773 c 301.133
 172.32 l 299.922 172.516 298.727 172.797 297.555 173.168 c 289.504 175.691
 283.512 182.465 281.992 190.762 c 281.879 191.324 281.797 191.902 281.738
 192.48 c 279.336 206.602 269.086 218.16 260.25 221.25 c 258.02 222.031 
255.699 222.531 253.344 222.742 c 243.66 223.574 234.301 219.148 230.055
 209.836 c 227.832 204.973 227.367 199.484 228.75 194.316 c 231.34 184.848
 239.629 178.047 249.422 177.352 c h
249.316 175.5 m f
0.94902 0.796078 0.486275 rg
260.25 221.25 m 269.086 218.16 279.336 206.602 281.738 192.48 c 281.391
 195.633 281.699 198.824 282.645 201.855 c 285.832 212.145 294.988 218.184
 305.023 217.453 c 287.953 220.504 270.727 222.617 253.426 223.793 c 253.344
 222.742 l 255.699 222.531 258.02 222.031 260.25 221.25 c h
260.25 221.25 m f
0.372549 0.803922 0.643137 rg
322.043 183.742 m 324.078 190.352 320.875 197.445 314.57 200.289 c 308.262
 203.129 300.828 200.832 297.223 194.93 c 293.621 189.023 294.977 181.359
 300.387 177.051 c 305.797 172.742 313.57 173.133 318.516 177.969 c 318.637
 178.086 l 320.219 179.668 321.387 181.609 322.043 183.742 c h
322.043 183.742 m f
266.852 186.863 m 269.707 193.145 267.453 200.57 261.586 204.207 c 255.723
 207.844 248.066 206.559 243.711 201.207 c 239.355 195.855 239.648 188.098
 244.402 183.094 c 249.152 178.09 256.883 177.391 262.453 181.461 c 262.734
 181.656 262.996 181.867 263.258 182.094 c 264.789 183.398 266.016 185.027
 266.852 186.863 c h
266.852 186.863 m f
209.109 185.672 m 212.996 191.383 212.027 199.098 206.844 203.668 c 201.66
 208.238 193.887 208.238 188.703 203.668 c 183.52 199.094 182.551 191.383
 186.441 185.668 c 190.328 179.957 197.863 178.031 204.016 181.176 c 204.285
 181.312 204.547 181.453 204.801 181.613 c 206.516 182.633 207.984 184.02
 209.109 185.672 c h
209.109 185.672 m f
153.996 184.117 m 157.93 189.898 156.879 197.711 151.559 202.246 c 146.242
 206.785 138.359 206.59 133.273 201.793 c 128.188 197 127.523 189.145 131.738
 183.566 c 135.953 177.988 143.691 176.477 149.691 180.059 c 151.402 181.086
 152.871 182.469 153.996 184.117 c h
153.996 184.117 m f
0.27451 0.537255 0.827451 rg
133.289 355.207 m 250.656 356.242 l 250.293 357.727 250.109 359.25 250.109
 360.781 c 250.109 375.75 l 133.891 374.926 l 133.891 359.961 l 133.895 
358.359 133.688 356.762 133.281 355.207 c h
133.289 355.207 m f
0.372549 0.658824 0.929412 rg
323.91 229.809 m 312.621 269.746 288.703 314.477 255.699 347.301 c 253.227
 349.762 251.484 352.855 250.656 356.242 c 133.289 355.207 l 133.281 355.207
 l 132.441 351.902 130.719 348.891 128.301 346.484 c 96.887 315.234 73.695
 273.203 61.809 234.789 c 61.809 234.789 220.215 259.086 323.91 229.809 
c h
323.91 229.809 m f
0.921569 0.447059 0.533333 rg
328.094 212.355 m 326.984 218.031 325.59 223.867 323.91 229.809 c 220.215
 259.086 61.809 234.789 61.809 234.789 c 59.871 228.539 58.238 222.391 56.918
 216.398 c 56.918 216.398 66.586 217.746 82.719 219.406 c 96.945 220.875
 116.191 222.594 138.27 223.852 c 155.797 224.859 175.109 225.57 195.098
 225.645 c 214.238 225.719 234 225.203 253.426 223.793 c 270.727 222.617
 287.953 220.504 305.023 217.453 c 306.844 217.32 308.641 216.977 310.379
 216.434 c 310.402 216.426 310.434 216.422 310.453 216.414 c 316.5 215.203
 322.395 213.855 328.094 212.355 c h
328.094 212.355 m f
329.641 165.816 m 329.633 165.816 l 320.551 167.766 310.926 169.41 300.922
 170.773 c 284.488 173.031 267.047 174.539 249.316 175.5 c 231.121 176.477
 212.633 176.871 194.641 176.863 c 175.664 176.859 157.246 176.414 140.316
 175.746 c 119.289 174.914 100.559 173.754 85.934 172.688 c 65.895 171.227
 53.566 169.934 53.566 169.934 c 54.523 162.488 56.406 155.941 59.281 150.547
 c 59.281 150.547 232.77 174.059 322.027 147.059 c 325.664 152.039 328.176
 158.391 329.641 165.816 c h
329.641 165.816 m f
0.372549 0.658824 0.929412 rg
308.289 136.785 m 313.832 138.688 318.637 142.281 322.027 147.059 c 232.77
 174.059 59.281 150.547 59.281 150.547 c 63.031 143.504 68.469 138.441 75.711
 135.961 c 81.602 133.941 87.352 131.535 93.074 129.09 c 127.156 114.578
 l 127.156 114.578 184.875 144.008 256.844 115.402 c 290.926 129.914 l 296.648
 132.352 302.398 134.762 308.289 136.785 c h
308.289 136.785 m f
0.921569 0.447059 0.533333 rg
162.891 99.465 m 168.836 102.172 175.133 104.023 181.598 104.961 c 188.266
 105.91 195.043 105.836 201.691 104.746 c 208.219 103.656 214.582 101.723
 220.613 98.992 c 228.824 95.25 236.523 90.48 243.531 84.797 c 256.844 115.402
 l 184.875 144.008 127.156 114.578 127.156 114.578 c 140.469 83.969 l 146.906
 90.492 154.516 95.746 162.891 99.465 c h
162.891 99.465 m f
0.372549 0.803922 0.643137 rg
155.625 31.199 m 162.891 99.465 l 154.516 95.746 146.906 90.492 140.469
 83.969 c 136.77 31.199 l h
155.625 31.199 m f
0.298039 0.662745 0.529412 rg
179.543 31.199 m 181.598 104.961 l 175.133 104.023 168.836 102.172 162.891
 99.465 c 155.625 31.199 l h
179.543 31.199 m f
0.372549 0.803922 0.643137 rg
202.672 31.199 m 201.691 104.738 l 201.691 104.746 l 195.043 105.836 188.266
 105.91 181.598 104.961 c 179.543 31.199 l h
202.672 31.199 m f
0.298039 0.662745 0.529412 rg
225.195 31.199 m 220.613 98.992 l 214.582 101.723 208.219 103.656 201.691
 104.746 c 201.691 104.738 l 202.672 31.199 l h
225.195 31.199 m f
0.372549 0.803922 0.643137 rg
247.297 31.199 m 243.531 84.797 l 236.523 90.48 228.824 95.25 220.613 98.992
 c 225.195 31.199 l h
247.297 31.199 m f
98.895 180.238 m 102.797 185.957 101.828 193.688 96.633 198.262 c 91.441
 202.84 83.652 202.832 78.469 198.242 c 73.285 193.656 72.332 185.926 76.246
 180.215 c 80.16 174.508 87.715 172.605 93.863 175.785 c 94.109 175.914 
94.352 176.047 94.59 176.184 c 96.301 177.207 97.77 178.594 98.895 180.238
 c h
98.895 180.238 m f
0.372549 0.658824 0.929412 rg
252.383 8.25 m 132.562 8.25 l 126.141 8.25 120.938 13.453 120.938 19.875
 c 120.938 26.297 126.141 31.5 132.562 31.5 c 252.383 31.5 l 258.805 31.5
 264.008 26.297 264.008 19.875 c 264.008 13.453 258.805 8.25 252.383 8.25
 c h
252.383 8.25 m f
0.247059 0.478431 0.686275 rg
156.012 355.555 m 133.289 355.5 l 133.281 355.5 l 133.688 357 134.25 358.344
 134.25 359.961 c 134.25 375 l 156.75 375 l 156.75 359.961 l 156.699 358.469
 156.449 356.984 156.012 355.555 c h
156.012 355.555 m f
0.776471 0.388235 0.470588 rg
80.051 219.129 m 65.527 217.602 56.918 216.398 56.918 216.398 c 58.238 
222.391 59.871 228.539 61.809 234.789 c 61.809 234.789 70.547 236.129 85.266
 237.801 c 84.941 236.793 84.617 235.789 84.309 234.789 c 82.664 229.484
 81.246 224.262 80.051 219.129 c h
80.051 219.129 m f
0.27451 0.537255 0.827451 rg
155.961 355.207 m 155.055 351.891 153.27 348.879 150.801 346.484 c 120.203
 316.047 97.414 275.387 85.266 237.801 c 70.547 236.129 61.809 234.789 61.809
 234.789 c 73.695 273.203 96.887 315.379 128.301 346.633 c 130.816 349.02
 132.551 352.109 133.281 355.5 c 133.289 355.5 l 156.016 355.555 l 155.996
 355.488 155.98 355.273 155.961 355.207 c h
155.961 355.207 m f
0.776471 0.388235 0.470588 rg
59.281 150.547 m 56.406 155.941 54.523 162.488 53.566 169.934 c 53.566 
169.934 61.449 170.762 74.848 171.836 c 76.961 163.859 79.383 155.676 80.566
 153.051 c 67.219 151.621 59.281 150.547 59.281 150.547 c h
59.281 150.547 m f
157.422 96.723 m 151.164 93.348 145.449 89.047 140.469 83.973 c 127.156
 114.582 l 130.914 116.375 134.781 117.93 138.738 119.23 c 149.656 114.582
 l h
157.422 96.723 m f
0.27451 0.537255 0.827451 rg
98.211 135.961 m 104.102 133.941 109.852 131.535 115.574 129.09 c 138.734
 119.227 l 134.781 117.926 130.91 116.375 127.156 114.578 c 93.074 129.09
 l 87.352 131.535 81.602 133.941 75.711 135.961 c 68.469 138.441 63.031 
143.504 59.281 150.547 c 59.281 150.547 67.219 151.621 80.566 153.051 c 
80.953 152.191 81.352 151.352 81.781 150.547 c 85.531 143.504 90.969 138.441
 98.211 135.961 c h
98.211 135.961 m f
143.586 19.875 m 143.574 13.508 148.695 8.32 155.062 8.25 c 132.562 8.25
 l 126.141 8.25 120.938 13.453 120.938 19.875 c 120.938 26.297 126.141 31.5
 132.562 31.5 c 155.062 31.5 l 148.695 31.43 143.574 26.242 143.586 19.875
 c h
143.586 19.875 m f
0.156863 0.258824 0.407843 rg
309.742 132.523 m 304.035 130.57 298.418 128.215 292.688 125.773 c 260.254
 111.965 l 248.105 84.012 l 251.496 35.703 l 252.383 35.703 l 261.207 35.703
 268.359 28.551 268.359 19.727 c 268.359 10.906 261.207 3.754 252.383 3.754
 c 132.562 3.754 l 123.738 3.754 116.586 10.906 116.586 19.727 c 116.586
 28.551 123.738 35.703 132.562 35.703 c 132.574 35.703 l 135.898 83.188 
l 123.746 111.141 l 91.312 124.949 l 85.582 127.391 79.965 129.742 74.258
 131.699 c 62.27 135.809 54.027 146.25 50.426 161.887 c 45.184 184.66 49.867
 217.785 63.281 252.77 c 77.418 289.645 99.383 324.059 125.129 349.668 c
 127.852 352.398 129.383 356.098 129.391 359.957 c 129.391 374.926 l 129.391
 377.398 131.383 379.406 133.855 379.426 c 250.078 380.25 l 250.109 380.25
 l 252.598 380.25 254.609 378.234 254.609 375.75 c 254.609 360.781 l 254.617
 356.926 256.148 353.227 258.871 350.492 c 284.617 324.883 306.582 290.469
 320.719 253.594 c 334.133 218.609 338.816 185.484 333.574 162.711 c 329.973
 147.074 321.73 136.633 309.742 132.523 c h
132.562 26.699 m 128.707 26.699 125.586 23.578 125.586 19.727 c 125.586
 15.871 128.707 12.75 132.562 12.75 c 252.383 12.75 l 256.234 12.75 259.355
 15.871 259.355 19.727 c 259.355 23.578 256.234 26.699 252.383 26.699 c 
h
242.469 35.699 m 239.188 82.473 l 234.898 85.809 230.367 88.816 225.633
 91.473 c 229.402 35.699 l h
220.383 35.699 m 216.309 95.965 l 213.043 97.305 209.688 98.406 206.262
 99.258 c 207.113 35.699 l h
198.113 35.699 m 197.242 100.84 l 193.5 101.223 189.734 101.258 185.988
 100.945 c 184.172 35.699 l h
176.945 99.508 m 175.117 99.082 173.289 98.578 171.469 97.98 c 169.953 
97.484 168.496 96.941 167.086 96.367 c 160.629 35.699 l 175.168 35.699 l
 h
157.527 91.59 m 152.949 88.879 148.695 85.664 144.84 81.996 c 141.602 35.699
 l 151.582 35.699 l h
142.051 91.613 m 149.789 98.133 158.68 103.152 168.266 106.402 c 175.516
 108.848 183.117 110.102 190.77 110.113 c 210.938 110.113 228.523 101.359
 241.691 91.836 c 250.836 112.875 l 223.77 122.879 194.594 125.793 166.086
 121.336 c 154.77 119.594 143.688 116.559 133.059 112.289 c h
77.176 140.211 m 83.168 138.156 88.949 135.738 94.844 133.227 c 127.066
 119.504 l 131.848 121.66 145.113 127.059 164.297 130.152 c 173.504 131.629
 182.812 132.371 192.133 132.367 c 214.238 132.348 236.145 128.238 256.754
 120.246 c 289.16 134.047 l 295.051 136.555 300.836 138.977 306.828 141.031
 c 309.289 141.871 311.586 143.125 313.629 144.73 c 235.223 165.152 99.785
 150.883 67.121 146.98 c 69.812 143.879 73.285 141.543 77.176 140.219 c 
h
59.195 163.91 m 59.848 161.008 60.758 158.168 61.918 155.426 c 73.016 156.816
 111.312 161.328 156.98 163.426 c 173.473 164.18 189.09 164.559 203.832 
164.559 c 252.391 164.559 291.363 160.457 320.098 152.309 c 321.895 155.461
 323.273 158.836 324.199 162.344 c 294.125 168.336 240.898 174.41 153.148
 171.695 c 108.383 170.305 71.469 167.109 58.77 165.918 c 58.902 165.238
 59.047 164.57 59.195 163.91 c h
311.672 196.672 m 309.332 197.398 306.797 197.164 304.633 196.02 c 302.465
 194.879 300.84 192.918 300.121 190.578 c 299.242 187.77 299.754 184.711
 301.496 182.336 c 303.234 179.965 306.004 178.562 308.945 178.559 c 310.434
 178.559 311.902 178.922 313.219 179.621 c 313.973 180.016 314.668 180.516
 315.285 181.102 c 315.371 181.191 315.461 181.277 315.551 181.367 c 317.789
 183.676 318.676 186.98 317.883 190.102 c 317.094 193.219 314.742 195.707
 311.672 196.672 c h
237.777 200.168 m 240.012 205.059 244.293 208.715 249.477 210.156 c 254.66
 211.598 260.215 210.68 264.656 207.645 c 269.094 204.609 271.969 199.766
 272.508 194.414 c 273.047 189.062 271.195 183.746 267.449 179.887 c 267.508
 179.82 l 267.145 179.484 266.773 179.172 266.398 178.859 c 272.453 178.398
 278.164 177.891 283.531 177.336 c 280.441 181.031 278.375 185.473 277.531
 190.215 c 277.527 190.215 l 277.52 190.277 277.508 190.34 277.5 190.398
 c 277.43 190.805 277.371 191.211 277.32 191.621 c 275.246 204.051 266.262
 214.379 258.766 217.004 c 248.523 220.586 238.172 216.789 234.152 207.973
 c 231.238 201.594 232.172 194.117 236.566 188.652 c 235.707 192.52 236.133
 196.562 237.777 200.168 c h
250.527 184.152 m 253.562 182.758 257.117 183.125 259.805 185.105 c 259.906
 185.18 260.004 185.254 260.105 185.336 c 263.344 187.91 264.473 192.324
 262.871 196.137 c 261.27 199.953 257.328 202.238 253.223 201.73 c 249.117
 201.227 245.848 198.051 245.223 193.961 c 244.594 189.875 246.762 185.867
 250.527 184.152 c h
277.465 213.102 m 278.594 211.613 279.629 210.059 280.574 208.445 c 282.109
 211.25 284.137 213.754 286.566 215.836 c 282.34 216.414 278.066 216.941
 273.746 217.41 c 275.078 216.055 276.32 214.617 277.469 213.102 c h
170.695 190.254 m 170.691 190.254 l 170.68 190.277 170.668 190.309 170.656
 190.328 c 170.535 190.605 170.422 190.883 170.309 191.164 c 167.938 196.551
 159.715 211.434 151.547 215.008 c 142.941 218.766 131.551 219.562 125.371
 210.512 c 121.414 204.723 121.059 197.199 124.461 191.066 c 124.035 200.152
 130.371 208.16 139.309 209.84 c 140.43 210.051 141.566 210.156 142.703 
210.16 c 146.367 210.156 149.945 209.043 152.961 206.961 c 161.258 201.25
 163.383 189.906 157.715 181.582 c 157.531 181.312 157.328 181.07 157.133
 180.812 c 164.074 181.008 170.801 181.148 177.309 181.238 c 174.496 183.746
 172.246 186.82 170.695 190.254 c h
176.082 220.82 m 170.652 220.691 165.309 220.527 160.059 220.324 c 163.719
 217.422 166.941 214 169.617 210.164 c 170.426 212.641 171.578 214.988 173.047
 217.141 c 173.945 218.457 174.961 219.688 176.082 220.82 c h
115.926 187.996 m 109.152 198.645 98.996 209.281 95.695 211.547 c 91.73
 214.277 86.84 215.305 82.109 214.398 c 77.285 213.5 73.02 210.707 70.266
 206.641 c 66.309 200.852 65.957 193.324 69.355 187.191 c 68.934 196.277
 75.266 204.289 84.207 205.969 c 85.324 206.18 86.461 206.285 87.598 206.285
 c 91.266 206.285 94.844 205.168 97.859 203.086 c 105.91 197.543 108.184
 186.648 103.023 178.348 c 109.117 178.727 115.629 179.098 122.477 179.445
 c 119.742 181.828 117.512 184.734 115.926 187.996 c h
119.891 218.098 m 114.113 217.68 108.617 217.246 103.465 216.805 c 107.141
 213.414 110.59 209.785 113.785 205.938 c 114.535 209.391 115.949 212.668
 117.941 215.586 c 118.539 216.465 119.188 217.305 119.891 218.102 c h
82.352 180.367 m 83.875 179.312 85.684 178.75 87.539 178.746 c 88.969 178.746
 90.383 179.082 91.664 179.723 c 91.77 179.777 91.875 179.832 91.98 179.887
 c 95.621 181.871 97.496 186.027 96.574 190.066 c 95.652 194.105 92.156 
197.035 88.02 197.242 c 83.883 197.449 80.113 194.879 78.793 190.953 c 77.477
 187.027 78.93 182.703 82.352 180.367 c h
137.457 184.242 m 138.984 183.188 140.793 182.625 142.648 182.625 c 144.078
 182.625 145.488 182.957 146.766 183.594 c 146.879 183.652 146.988 183.707
 147.098 183.766 c 148.375 184.465 149.465 185.453 150.285 186.656 c 153.164
 190.883 152.086 196.641 147.875 199.539 c 145.855 200.926 143.371 201.449
 140.961 200.996 c 138.555 200.543 136.43 199.152 135.051 197.125 c 132.172
 192.902 133.246 187.145 137.457 184.242 c h
179.566 192.617 m 179.301 198.48 181.867 204.113 186.469 207.754 c 191.07
 211.395 197.145 212.598 202.785 210.988 c 208.43 209.379 212.953 205.152
 214.941 199.633 c 216.93 194.109 216.141 187.973 212.82 183.133 c 212.359
 182.469 211.855 181.836 211.312 181.238 c 218.371 181.137 225.133 180.973
 231.598 180.75 c 228.258 184.066 225.828 188.188 224.543 192.715 c 222.605
 197.645 214.762 212.375 206.391 216.68 c 194.75 222.664 184.984 218.672
 180.477 212.062 c 176.52 206.273 176.168 198.75 179.57 192.617 c h
192.562 185.793 m 194.09 184.738 195.898 184.176 197.75 184.176 c 199.184
 184.172 200.594 184.508 201.875 185.145 c 201.984 185.203 202.094 185.258
 202.199 185.316 c 205.836 187.297 207.711 191.457 206.789 195.492 c 205.863
 199.531 202.367 202.461 198.23 202.668 c 194.094 202.871 190.328 200.301
 189.008 196.375 c 187.691 192.449 189.145 188.125 192.566 185.793 c h
225.277 210.051 m 225.488 210.605 225.715 211.156 225.961 211.703 c 227.469
 215.023 229.648 217.992 232.359 220.43 c 226.891 220.652 221.43 220.816
 215.973 220.922 c 219.539 217.727 222.672 214.07 225.281 210.051 c h
57.602 174.848 m 59.961 175.07 63.195 175.367 67.211 175.711 c 61.527 180.758
 58.211 187.945 58.051 195.543 c 57.293 188.672 57.145 181.746 57.602 174.848
 c h
59.129 203.867 m 59.941 206.66 61.191 209.309 62.832 211.711 c 63.062 212.051
 63.305 212.383 63.551 212.711 c 62.438 212.574 61.473 212.453 60.652 212.352
 c 60.07 209.473 59.562 206.645 59.129 203.867 c h
245.609 360.781 m 245.609 371.219 l 138.387 370.461 l 138.387 359.961 l
 138.387 359.891 138.383 359.824 138.383 359.754 c 245.613 360.695 l 245.613
 360.723 245.609 360.75 245.609 360.781 c h
252.523 344.113 m 250.348 346.285 248.617 348.867 247.438 351.711 c 136.492
 350.734 l 135.316 347.953 133.609 345.426 131.473 343.289 c 101.871 313.844
 80.285 275.625 68.273 240.234 c 82.062 242.074 114.465 245.965 153.766 
247.773 c 166.172 248.344 179.941 248.73 194.477 248.73 c 233.812 248.73
 278.734 245.898 317.316 236.219 c 305.672 272.934 283.484 313.316 252.523
 344.113 c h
320.273 226.129 m 267.676 240.434 201.16 240.938 154.281 238.785 c 110.336
 236.773 75.117 232.129 65.254 230.738 c 64.355 227.688 63.531 224.672 62.781
 221.688 c 76.66 223.395 111.426 227.285 153.422 229.129 c 166.996 229.723
 182.09 230.133 197.973 230.133 c 232.695 230.133 271.148 228.176 305.473
 221.934 c 307.547 221.773 309.594 221.383 311.578 220.77 c 315.176 220.051
 318.715 219.277 322.195 218.457 c 321.613 220.984 320.973 223.543 320.273
 226.129 c h
326.008 195.754 m 324.02 206.195 313.875 210.59 309.297 212.059 c 307.703
 212.375 306.102 212.684 304.484 212.98 c 301.367 213.184 298.25 212.527
 295.48 211.086 c 291.336 208.848 288.262 205.043 286.941 200.523 c 286.188
 198.102 285.938 195.555 286.211 193.035 c 286.285 192.602 286.344 192.156
 286.402 191.711 c 287.09 187.879 288.973 184.363 291.781 181.664 c 290.18
 186.23 290.461 191.25 292.562 195.609 c 294.664 199.969 298.418 203.316
 302.988 204.906 c 307.559 206.496 312.578 206.203 316.934 204.09 c 321.289
 201.977 324.625 198.219 326.203 193.641 c 326.145 194.34 326.078 195.043
 326.008 195.75 c h
326.344 182.41 m 325.723 180.426 324.77 178.562 323.523 176.898 c 323.59
 176.844 l 323.066 176.223 322.527 175.637 321.977 175.074 c 321.801 174.898
 321.625 174.723 321.441 174.551 c 320.684 173.812 319.883 173.117 319.047
 172.473 c 321.469 172.039 323.758 171.605 325.941 171.172 c 326.457 175.289
 326.695 179.438 326.66 183.59 c 326.57 183.195 326.465 182.801 326.344 
182.406 c h
326.344 182.41 m f
Q Q
showpage
%%Trailer
end
%%EOF
