%!PS-Adobe-3.0 EPSF-3.0
%%Creator: cairo 1.16.0 (https://cairographics.org)
%%CreationDate: Mon Dec 14 10:17:14 2020
%%Pages: 1
%%DocumentData: Clean7Bit
%%LanguageLevel: 2
%%BoundingBox: 44 7 340 377
%%EndComments
%%BeginProlog
50 dict begin
/q { gsave } bind def
/Q { grestore } bind def
/cm { 6 array astore concat } bind def
/w { setlinewidth } bind def
/J { setlinecap } bind def
/j { setlinejoin } bind def
/M { setmiterlimit } bind def
/d { setdash } bind def
/m { moveto } bind def
/l { lineto } bind def
/c { curveto } bind def
/h { closepath } bind def
/re { exch dup neg 3 1 roll 5 3 roll moveto 0 rlineto
      0 exch rlineto 0 rlineto closepath } bind def
/S { stroke } bind def
/f { fill } bind def
/f* { eofill } bind def
/n { newpath } bind def
/W { clip } bind def
/W* { eoclip } bind def
/BT { } bind def
/ET { } bind def
/BDC { mark 3 1 roll /BDC pdfmark } bind def
/EMC { mark /EMC pdfmark } bind def
/cairo_store_point { /cairo_point_y exch def /cairo_point_x exch def } def
/Tj { show currentpoint cairo_store_point } bind def
/TJ {
  {
    dup
    type /stringtype eq
    { show } { -0.001 mul 0 cairo_font_matrix dtransform rmoveto } ifelse
  } forall
  currentpoint cairo_store_point
} bind def
/cairo_selectfont { cairo_font_matrix aload pop pop pop 0 0 6 array astore
    cairo_font exch selectfont cairo_point_x cairo_point_y moveto } bind def
/Tf { pop /cairo_font exch def /cairo_font_matrix where
      { pop cairo_selectfont } if } bind def
/Td { matrix translate cairo_font_matrix matrix concatmatrix dup
      /cairo_font_matrix exch def dup 4 get exch 5 get cairo_store_point
      /cairo_font where { pop cairo_selectfont } if } bind def
/Tm { 2 copy 8 2 roll 6 array astore /cairo_font_matrix exch def
      cairo_store_point /cairo_font where { pop cairo_selectfont } if } bind def
/g { setgray } bind def
/rg { setrgbcolor } bind def
/d1 { setcachedevice } bind def
/cairo_data_source {
  CairoDataIndex CairoData length lt
    { CairoData CairoDataIndex get /CairoDataIndex CairoDataIndex 1 add def }
    { () } ifelse
} def
/cairo_flush_ascii85_file { cairo_ascii85_file status { cairo_ascii85_file flushfile } if } def
/cairo_image { image cairo_flush_ascii85_file } def
/cairo_imagemask { imagemask cairo_flush_ascii85_file } def
%%EndProlog
%%BeginSetup
%%EndSetup
%%Page: 1 1
%%BeginPageSetup
%%PageBoundingBox: 44 7 340 377
%%EndPageSetup
q 44 7 296 370 rectclip
1 0 0 -1 0 384 cm q
0.933333 0.686275 0.258824 rg
323.004 210.254 m 334.574 244.906 326.129 265.176 309.426 276.742 c 274.508
 300.906 203.484 287.062 203.484 287.062 c 204.625 286.391 205.707 285.621
 206.715 284.762 c 258.801 280.027 302.625 250.906 323.004 210.254 c h
323.004 210.254 m f
0.85098 0.733333 0.294118 rg
287.406 310.312 m 254.961 324.594 200.129 288.676 200.129 288.676 c 201.293
 288.234 202.414 287.695 203.484 287.062 c 203.484 287.062 274.508 300.906
 309.426 276.742 c 306.367 295.449 298.102 305.609 287.406 310.312 c h
287.406 310.312 m f
0.933333 0.686275 0.258824 rg
200.129 288.676 m 200.129 288.676 254.961 324.594 287.406 310.312 c 277.785
 327.137 266.648 333.496 255.504 333.789 c 239.512 334.223 223.5 322.172
 211.883 310.605 c 205.504 304.25 199.668 297.375 194.438 290.047 c 196.387
 289.848 198.301 289.387 200.129 288.676 c h
200.129 288.676 m f
0.647059 0.623529 0.909804 rg
196.875 316.926 m 195.598 317.117 194.305 317.215 193.012 317.219 c 191.062
 317.211 189.113 316.996 187.207 316.582 c 182.93 315.676 178.859 313.973
 175.207 311.566 c 175.176 311.535 l 181.348 304.879 186.973 297.738 192
 290.184 c 192.812 290.184 193.629 290.137 194.438 290.047 c 199.668 297.375
 205.504 304.25 211.883 310.605 c 207.461 313.887 202.312 316.055 196.875
 316.926 c h
196.875 316.926 m f
0.411765 0.580392 0.996078 rg
211.883 310.605 m 223.5 322.172 239.512 334.223 255.504 333.789 c 255.504
 333.809 l 247.562 348.148 235.219 359.551 220.297 366.328 c 198.562 349.484
 196.906 317.594 196.875 316.926 c 202.312 316.055 207.461 313.887 211.883
 310.605 c h
211.883 310.605 m f
0.298039 0.662745 0.529412 rg
196.875 316.926 m 196.906 317.594 198.562 349.484 220.297 366.328 c 212.289
 370 203.598 371.93 194.789 372 c 184.555 372 174.453 369.637 165.277 365.102
 c 187.191 348.09 187.207 316.664 187.207 316.582 c 189.113 316.996 191.062
 317.211 193.012 317.219 c 194.305 317.215 195.598 317.117 196.875 316.926
 c h
196.875 316.926 m f
0.411765 0.580392 0.996078 rg
175.207 311.566 m 178.859 313.973 182.93 315.676 187.207 316.582 c 187.207
 316.664 187.191 348.09 165.277 365.102 c 152.652 358.883 142.266 348.906
 135.547 336.539 c 150.254 334.914 164.625 322.914 175.176 311.535 c h
175.207 311.566 m f
0.933333 0.686275 0.258824 rg
185.723 289.297 m 187.762 289.887 189.875 290.184 192 290.184 c 186.973
 297.738 181.348 304.879 175.176 311.535 c 164.625 322.914 150.254 334.914
 135.547 336.539 c 123.547 337.867 111.324 332.297 100.762 313.836 c 132.922
 326.012 185.723 289.297 185.723 289.297 c h
185.723 289.297 m f
0.85098 0.733333 0.294118 rg
182.219 287.969 m 183.348 288.512 184.52 288.957 185.723 289.297 c 185.723
 289.297 132.922 326.012 100.762 313.836 c 89.672 309.637 81.039 299.617
 77.871 280.273 c 113.438 302.219 182.219 287.969 182.219 287.969 c h
182.219 287.969 m f
0.933333 0.686275 0.258824 rg
177.652 285.066 m 179.051 286.215 180.586 287.191 182.219 287.969 c 182.219
 287.969 113.438 302.219 77.871 280.273 c 59.961 269.219 50.484 248.984 
62.453 213.129 c 83.469 252.488 126.621 280.551 177.652 285.066 c h
177.652 285.066 m f
0.729412 0.619608 0.270588 rg
102.504 289.527 m 93.504 287.629 85.02 284.684 77.871 280.273 c 81.039 
299.617 89.672 309.637 100.762 313.836 c 108.789 316.875 118.102 316.867
 127.559 315.145 c 126.102 314.801 124.664 314.363 123.262 313.836 c 114.098
 310.367 106.617 302.918 102.504 289.527 c h
102.504 289.527 m f
0.866667 0.623529 0.270588 rg
79.766 237.742 m 73.023 230.266 67.211 222 62.453 213.129 c 50.484 248.984
 59.961 269.219 77.871 280.273 c 96.473 291.75 124.148 293.324 146.324 292.223
 c 129.863 291.301 113.02 288.074 100.371 280.273 c 87.059 272.055 78.41
 258.758 79.766 237.742 c h
79.766 237.742 m f
0.85098 0.733333 0.294118 rg
293.625 68.578 m 305.375 87.504 311.586 109.344 311.551 131.617 c 311.551
 191.762 266.617 243.797 208.852 252.234 c 175.875 251.461 l 117.945 243.156
 72.449 191.879 72.449 131.617 c 72.414 109.539 78.516 87.883 90.074 69.066
 c 64.262 92.145 48.75 123.578 48.75 158.73 c 48.754 177.715 53.461 196.406
 62.453 213.129 c 83.469 252.488 126.621 280.551 177.652 285.066 c 206.715
 284.762 l 258.801 280.027 302.625 250.906 323.004 210.254 c 331.062 194.273
 335.254 176.625 335.25 158.73 c 335.25 123.496 319.547 91.672 293.625 68.578
 c h
293.625 68.578 m f
0.921569 0.447059 0.533333 rg
214.723 267.461 m 214.723 280.012 204.547 290.184 192 290.184 c 179.453
 290.184 169.277 280.012 169.277 267.461 c 169.277 254.914 179.453 244.738
 192 244.738 c 204.547 244.738 214.723 254.914 214.723 267.461 c h
214.723 267.461 m f
0.729412 0.619608 0.270588 rg
84.953 213.129 m 75.961 196.406 71.254 177.715 71.25 158.73 c 71.25 152.477
 71.75 146.23 72.75 140.055 c 72.551 137.266 72.449 134.453 72.449 131.621
 c 72.414 109.539 78.516 87.887 90.074 69.07 c 64.262 92.145 48.75 123.578
 48.75 158.73 c 48.754 177.715 53.461 196.406 62.453 213.129 c 83.469 252.488
 126.621 280.551 177.652 285.066 c 198.062 284.852 l 147.949 279.762 105.68
 251.949 84.953 213.129 c h
84.953 213.129 m f
0.352941 0.533333 0.886275 rg
149.016 332.367 m 144.805 334.531 140.246 335.941 135.547 336.539 c 142.266
 348.906 152.652 358.883 165.277 365.102 c 168.207 362.816 170.863 360.203
 173.191 357.309 c 163.109 351.23 154.777 342.633 149.016 332.367 c h
149.016 332.367 m f
0.866667 0.623529 0.270588 rg
124.34 315.664 m 116 316.828 107.875 316.531 100.762 313.836 c 111.324 
332.297 123.547 337.867 135.547 336.539 c 138.406 336.203 141.219 335.535
 143.922 334.543 c 137.105 331.668 130.461 325.754 124.34 315.664 c h
124.34 315.664 m f
0.156863 0.258824 0.407843 rg
64.168 274.695 m 67.008 277.863 70.246 280.648 73.801 282.988 c 77.086 
300.441 85.094 312.027 97.648 317.426 c 106.867 332.891 118.215 340.895 
131.395 341.215 c 131.668 341.223 131.934 341.227 132.203 341.227 c 132.477
 341.227 132.758 341.215 133.035 341.207 c 145.934 363.062 169.414 376.48
 194.793 376.5 c 207.777 376.5 220.961 372.359 232.922 364.523 c 243.254
 357.758 251.914 348.73 258.238 338.125 c 270.895 336.836 281.773 328.656
 290.609 313.77 c 302.652 307.887 310.352 296.309 313.523 279.32 c 316.344
 277.242 318.934 274.871 321.254 272.25 c 334.043 257.684 336.25 236.941
 327.836 210.586 c 335.672 194.422 339.746 176.691 339.75 158.73 c 339.75
 123.355 324.555 90.277 296.957 65.535 c 274.23 29.332 234.453 7.402 191.707
 7.504 c 148.965 7.602 109.289 29.723 86.734 66.031 c 59.336 90.684 44.25
 123.582 44.25 158.73 c 44.27 177.793 48.848 196.578 57.602 213.516 c 49.227
 239.781 51.43 260.359 64.168 274.695 c h
70.887 268.711 m 61.688 258.352 59.352 243.469 63.895 224.398 c 69.348 
232.801 75.73 240.562 82.926 247.531 c 103.199 267.227 129.535 280.82 158.461
 286.785 c 131.949 289.375 89.508 289.676 70.887 268.711 c h
101.34 309.223 m 93.402 305.859 87.758 298.961 84.477 288.688 c 99.641 
295.113 118.078 297.066 134.898 297.066 c 145.938 297.023 156.969 296.281
 167.914 294.836 c 163.504 297.254 158.375 299.867 152.852 302.297 c 137.668
 308.977 116.402 315.602 101.34 309.227 c h
132.207 332.227 m 132.008 332.227 131.809 332.227 131.613 332.219 c 124.016
 332.035 117.047 328.129 110.809 320.598 c 112.352 320.73 113.91 320.797
 115.484 320.797 c 140.035 320.797 168.094 305.586 181.074 297.645 c 177.57
 302.156 173.832 306.48 169.875 310.598 c 160.289 320.512 146.035 332.227
 132.207 332.227 c h
192 285.68 m 184.629 285.684 177.98 281.25 175.156 274.441 c 172.332 267.633
 173.891 259.793 179.098 254.582 c 184.309 249.367 192.145 247.805 198.957
 250.625 c 205.766 253.445 210.207 260.09 210.207 267.461 c 210.199 277.516
 202.055 285.664 192 285.68 c h
204.734 309.727 m 201.102 311.59 197.094 312.613 193.012 312.715 c 189.332
 312.625 185.703 311.812 182.336 310.324 c 186.242 305.805 189.922 301.098
 193.355 296.211 c 196.914 300.91 200.711 305.422 204.734 309.727 c h
164.652 359.762 m 155.832 354.91 148.301 348.016 142.691 339.656 c 155.117
 336.035 166.766 326.684 175.977 317.25 c 178.07 318.352 180.262 319.266
 182.516 319.98 c 181.84 327.77 178.746 347.25 164.652 359.762 c h
194.793 367.5 m 187.531 367.5 180.324 366.234 173.492 363.758 c 187.098
 349.73 190.543 330.68 191.414 321.664 c 191.887 321.691 192.355 321.707
 192.816 321.711 c 193.961 330.582 197.984 350.363 211.797 364.719 c 206.309
 366.523 200.57 367.461 194.793 367.5 c h
220.918 361 m 206.855 348.551 202.844 328.691 201.754 320.469 c 205.117
 319.535 208.34 318.156 211.34 316.371 c 221.43 325.902 234.312 335.203 
247.867 337.672 c 240.984 347.586 231.719 355.609 220.918 361 c h
255.766 329.285 m 236.535 330.086 216.461 309.957 205.828 297.355 c 219.027
 304.84 245.871 318.156 269.789 318.156 c 272.137 318.156 274.48 318.016
 276.809 317.734 c 270.535 325.078 263.492 328.965 255.766 329.285 c h
285.602 306.195 m 270.312 312.926 248.793 306.941 233.434 300.734 c 227.895
 298.5 222.742 296.07 218.289 293.801 c 228.09 294.945 237.949 295.535 247.816
 295.562 c 265.941 295.562 286.332 293.359 302.621 285.758 c 299.266 295.82
 293.574 302.684 285.602 306.195 c h
330.75 158.73 m 330.75 192.434 315.359 223.094 290.148 245.273 c 288.219
 246.895 287.996 249.781 289.652 251.68 c 291.309 253.578 294.203 253.742
 296.066 252.051 c 306.043 243.32 314.664 233.156 321.648 221.891 c 326.098
 240.895 323.711 255.809 314.5 266.301 c 296.336 287.004 255.691 287.781
 229.176 285.738 c 243.551 282.484 257.398 277.227 270.312 270.117 c 272.949
 268.68 273.469 265.113 271.348 262.984 c 271.344 262.977 l 269.934 261.562
 267.754 261.254 266.004 262.219 c 250.656 270.648 233.949 276.32 216.641
 278.984 c 220.141 271.516 220.055 262.859 216.41 255.457 c 242.844 249.977
 267.09 235.52 285.285 214.242 c 305.051 191.242 315.957 161.945 316.051
 131.621 c 316.059 118.816 314.082 106.09 310.184 93.895 c 323.555 112.871
 330.738 135.516 330.75 158.73 c h
53.25 158.73 m 53.266 135.625 60.41 113.09 73.715 94.199 c 69.883 106.305
 67.941 118.926 67.949 131.621 c 67.949 134.883 68.078 138.133 68.34 141.371
 c 68.535 143.699 70.484 145.492 72.824 145.488 c 75.441 145.496 77.508 
143.273 77.312 140.664 c 77.07 137.66 76.949 134.645 76.945 131.617 c 76.949
 68.145 128.559 16.5 192 16.5 c 255.441 16.5 307.051 68.145 307.051 131.621
 c 306.957 159.801 296.816 187.023 278.445 208.391 c 260.59 229.27 236.5
 243.074 210.398 247.434 c 200.328 238.137 184.898 237.812 174.449 246.684
 c 148.133 242.41 123.836 228.754 105.832 208.07 c 95.969 196.754 88.355
 183.66 83.398 169.492 c 82.57 167.152 80 165.922 77.656 166.75 c 75.312
 167.578 74.086 170.152 74.914 172.492 c 80.246 187.73 88.438 201.812 99.047
 213.984 c 116.961 234.723 141.188 249.008 168.008 254.648 c 163.91 262.309
 163.723 271.465 167.5 279.289 c 137.406 274.551 109.91 261.203 89.199 241.082
 c 66.016 218.562 53.25 189.316 53.25 158.73 c h
53.25 158.73 m f
Q Q
showpage
%%Trailer
end
%%EOF
