%!PS-Adobe-3.0 EPSF-3.0
%%Creator: cairo 1.16.0 (https://cairographics.org)
%%CreationDate: Mon Dec 14 10:17:15 2020
%%Pages: 1
%%DocumentData: Clean7Bit
%%LanguageLevel: 2
%%BoundingBox: 26 7 358 377
%%EndComments
%%BeginProlog
50 dict begin
/q { gsave } bind def
/Q { grestore } bind def
/cm { 6 array astore concat } bind def
/w { setlinewidth } bind def
/J { setlinecap } bind def
/j { setlinejoin } bind def
/M { setmiterlimit } bind def
/d { setdash } bind def
/m { moveto } bind def
/l { lineto } bind def
/c { curveto } bind def
/h { closepath } bind def
/re { exch dup neg 3 1 roll 5 3 roll moveto 0 rlineto
      0 exch rlineto 0 rlineto closepath } bind def
/S { stroke } bind def
/f { fill } bind def
/f* { eofill } bind def
/n { newpath } bind def
/W { clip } bind def
/W* { eoclip } bind def
/BT { } bind def
/ET { } bind def
/BDC { mark 3 1 roll /BDC pdfmark } bind def
/EMC { mark /EMC pdfmark } bind def
/cairo_store_point { /cairo_point_y exch def /cairo_point_x exch def } def
/Tj { show currentpoint cairo_store_point } bind def
/TJ {
  {
    dup
    type /stringtype eq
    { show } { -0.001 mul 0 cairo_font_matrix dtransform rmoveto } ifelse
  } forall
  currentpoint cairo_store_point
} bind def
/cairo_selectfont { cairo_font_matrix aload pop pop pop 0 0 6 array astore
    cairo_font exch selectfont cairo_point_x cairo_point_y moveto } bind def
/Tf { pop /cairo_font exch def /cairo_font_matrix where
      { pop cairo_selectfont } if } bind def
/Td { matrix translate cairo_font_matrix matrix concatmatrix dup
      /cairo_font_matrix exch def dup 4 get exch 5 get cairo_store_point
      /cairo_font where { pop cairo_selectfont } if } bind def
/Tm { 2 copy 8 2 roll 6 array astore /cairo_font_matrix exch def
      cairo_store_point /cairo_font where { pop cairo_selectfont } if } bind def
/g { setgray } bind def
/rg { setrgbcolor } bind def
/d1 { setcachedevice } bind def
/cairo_data_source {
  CairoDataIndex CairoData length lt
    { CairoData CairoDataIndex get /CairoDataIndex CairoDataIndex 1 add def }
    { () } ifelse
} def
/cairo_flush_ascii85_file { cairo_ascii85_file status { cairo_ascii85_file flushfile } if } def
/cairo_image { image cairo_flush_ascii85_file } def
/cairo_imagemask { imagemask cairo_flush_ascii85_file } def
%%EndProlog
%%BeginSetup
%%EndSetup
%%Page: 1 1
%%BeginPageSetup
%%PageBoundingBox: 26 7 358 377
%%EndPageSetup
q 26 7 332 370 rectclip
1 0 0 -1 0 384 cm q
0.415686 0.521569 0.607843 rg
308.641 190.605 m 294.578 164.789 l 301.711 154.762 l 300.031 61.941 l 
83.512 61.941 l 83.512 108.301 l 94.418 120.48 l 83.512 129.797 l 83.512
 182.828 l 94.418 192.141 l 83.512 205.043 l 83.512 219.375 l 94.418 228.691
 l 83.512 242.281 l 83.512 322.059 l 301.551 322.059 l 302.691 221.102 l
 299.648 207.703 l h
308.641 190.605 m f
0.337255 0.423529 0.486275 rg
116.918 228.691 m 106.012 219.375 l 106.012 205.043 l 116.918 192.141 l
 106.012 182.828 l 106.012 129.797 l 116.918 120.48 l 106.012 108.301 l 
106.012 61.941 l 83.512 61.941 l 83.512 108.301 l 94.418 120.48 l 83.512
 129.797 l 83.512 182.828 l 94.418 192.141 l 83.512 205.043 l 83.512 219.375
 l 94.418 228.691 l 83.512 242.281 l 83.512 322.059 l 106.012 322.059 l 
106.012 242.281 l h
116.918 228.691 m f
0.933333 0.686275 0.258824 rg
319.449 128.297 m 322.883 128.336 325.957 130.434 327.242 133.617 c 328.531
 136.801 327.777 140.445 325.336 142.863 c 322.895 145.277 319.238 145.988
 316.07 144.664 c 312.902 143.34 310.836 140.242 310.836 136.809 c 310.863
 132.078 314.719 128.27 319.449 128.297 c h
319.449 128.297 m f
52.719 23.863 m 49.117 23.863 l 44.25 23.855 39.574 25.766 36.105 29.184
 c 32.656 32.562 30.715 37.188 30.711 42.016 c 30.781 52.109 39.023 60.234
 49.117 60.164 c 52.727 60.164 l h
52.719 23.863 m f
347.895 29.184 m 344.426 25.766 339.75 23.855 334.883 23.863 c 331.281 
23.863 l 331.273 60.164 l 334.883 60.164 l 344.977 60.234 353.219 52.109
 353.289 42.016 c 353.285 37.188 351.344 32.562 347.895 29.184 c h
347.895 29.184 m f
0.780392 0.603922 0.513726 rg
73.844 18.285 m 73.844 63.441 l 310.156 63.434 l 310.156 18.285 l h
73.844 18.285 m f
0.85098 0.733333 0.294118 rg
75.344 18.285 m 73.848 14.492 70.184 12 66.105 12 c 62.648 12 l 57.164 
12 52.719 16.445 52.719 21.93 c 52.727 60.164 l 52.922 65.5 57.309 69.727
 62.648 69.727 c 66.105 69.727 l 70.18 69.727 73.844 67.234 75.336 63.441
 c 75.344 63.441 l 75.801 62.281 76.035 61.047 76.035 59.797 c 76.035 21.93
 l 76.035 20.684 75.801 19.445 75.344 18.285 c h
75.344 18.285 m f
321.352 12 m 317.895 12 l 315.262 11.996 312.734 13.043 310.871 14.906 
c 309.008 16.77 307.961 19.297 307.965 21.93 c 307.965 59.797 l 307.965 
62.43 309.012 64.957 310.875 66.82 c 312.734 68.68 315.262 69.727 317.895
 69.727 c 321.352 69.727 l 326.691 69.727 331.078 65.5 331.273 60.164 c 
331.281 21.93 l 331.281 16.445 326.836 12 321.352 12 c h
321.352 12 m f
0.780392 0.603922 0.513726 rg
72.344 320.566 239.312 45.148 re f
0.933333 0.686275 0.258824 rg
334.883 323.836 m 331.273 323.836 l 331.281 360.137 l 334.883 360.137 l
 339.75 360.145 344.426 358.234 347.895 354.816 c 351.344 351.438 353.285
 346.812 353.289 341.984 c 353.219 331.891 344.977 323.766 334.883 323.836
 c h
334.883 323.836 m f
52.719 323.836 m 49.117 323.836 l 39.023 323.766 30.781 331.891 30.711 
341.984 c 30.715 346.812 32.656 351.438 36.105 354.816 c 39.574 358.234 
44.25 360.145 49.117 360.137 c 52.719 360.137 l 52.727 323.836 l h
52.719 323.836 m f
0.85098 0.733333 0.294118 rg
75.344 320.566 m 73.848 316.77 70.184 314.273 66.105 314.273 c 62.648 314.273
 l 57.309 314.273 52.922 318.5 52.727 323.836 c 52.719 362.07 l 52.719 367.555
 57.164 372 62.648 372 c 66.105 372 l 68.738 372.004 71.266 370.957 73.129
 369.094 c 74.992 367.23 76.039 364.703 76.035 362.07 c 76.035 324.203 l
 76.035 322.957 75.801 321.723 75.344 320.566 c h
75.344 320.566 m f
331.273 323.836 m 331.078 318.5 326.691 314.273 321.352 314.273 c 317.895
 314.273 l 315.262 314.273 312.734 315.32 310.875 317.18 c 309.012 319.043
 307.965 321.57 307.965 324.203 c 307.965 362.07 l 307.961 364.703 309.008
 367.23 310.871 369.094 c 312.734 370.957 315.262 372.004 317.895 372 c 
321.352 372 l 326.836 372 331.281 367.555 331.281 362.07 c h
331.273 323.836 m f
0.298039 0.662745 0.529412 rg
253.68 256.824 m 260.203 256.969 266.008 261.008 268.402 267.078 c 270.797
 273.148 269.324 280.066 264.656 284.629 c 259.992 289.191 253.043 290.512
 247.031 287.98 c 241.016 285.445 237.105 279.555 237.105 273.031 c 237.207
 263.977 244.629 256.723 253.68 256.824 c h
253.68 256.824 m f
0.27451 0.537255 0.827451 rg
168.426 202.508 m 120.074 202.508 l 144.246 178.859 l h
168.426 202.508 m f
0.921569 0.447059 0.533333 rg
176.355 114.961 m 183.023 118.223 193.727 120.645 203.773 110.641 c 184.883
 89.723 169.711 110.641 169.711 110.641 c 171.734 112.352 173.969 113.801
 176.355 114.953 c h
176.355 114.961 m f
0.156863 0.258824 0.407843 rg
334.922 64.664 m 347.367 64.758 357.555 54.781 357.727 42.336 c 357.898
 29.887 347.992 19.637 335.543 19.387 c 334.309 12.516 328.336 7.512 321.355
 7.5 c 317.891 7.5 l 313.133 7.504 308.684 9.852 306 13.781 c 78 13.781 
l 75.316 9.852 70.867 7.504 66.109 7.5 c 62.645 7.5 l 55.664 7.512 49.691
 12.516 48.457 19.387 c 36.008 19.637 26.102 29.887 26.273 42.336 c 26.445
 54.781 36.633 64.758 49.078 64.664 c 51.137 70.391 56.559 74.215 62.645
 74.223 c 66.109 74.223 l 70.867 74.223 75.316 71.871 78 67.945 c 79.012
 67.945 l 79.012 108.301 l 79.012 109.406 79.418 110.477 80.156 111.301 
c 87.988 120.051 l 80.586 126.379 l 79.586 127.234 79.012 128.48 79.012 
129.797 c 79.012 182.828 l 79.012 184.145 79.586 185.395 80.586 186.25 c
 88.086 192.656 l 80.074 202.137 l 79.387 202.949 79.012 203.98 79.012 205.043
 c 79.012 219.375 l 79.012 220.691 79.586 221.941 80.586 222.797 c 88.172
 229.277 l 79.996 239.465 l 79.355 240.266 79.008 241.258 79.008 242.281
 c 79.008 316.055 l 78 316.055 l 75.312 312.129 70.863 309.777 66.105 309.773
 c 62.645 309.773 l 56.559 309.785 51.137 313.609 49.078 319.336 c 36.633
 319.242 26.445 329.219 26.273 341.664 c 26.102 354.113 36.008 364.363 48.457
 364.613 c 49.691 371.484 55.664 376.488 62.645 376.5 c 66.109 376.5 l 70.867
 376.496 75.316 374.148 78 370.219 c 306 370.219 l 308.684 374.148 313.133
 376.496 317.891 376.5 c 321.355 376.5 l 328.336 376.488 334.309 371.484
 335.543 364.613 c 347.992 364.363 357.898 354.113 357.727 341.664 c 357.555
 329.219 347.367 319.242 334.922 319.336 c 332.863 313.609 327.441 309.785
 321.355 309.777 c 317.891 309.777 l 313.199 309.777 308.805 312.066 306.109
 315.906 c 307.191 221.148 l 307.195 220.797 307.16 220.445 307.082 220.102
 c 304.402 208.324 l 312.625 192.703 l 313.324 191.371 313.316 189.773 312.594
 188.453 c 299.875 165.105 l 305.375 157.371 l 305.934 156.586 306.223 155.641
 306.207 154.68 c 304.617 67.941 l 306 67.941 l 308.105 71.016 311.312 73.156
 314.953 73.922 c 314.953 124.598 l 308.977 126.781 305.43 132.938 306.539
 139.203 c 307.648 145.469 313.094 150.035 319.453 150.035 c 325.816 150.035
 331.262 145.469 332.371 139.203 c 333.477 132.938 329.93 126.781 323.953
 124.598 c 323.953 73.977 l 329.004 73.043 333.18 69.496 334.922 64.664 
c h
335.781 28.414 m 343.059 28.742 348.785 34.734 348.785 42.02 c 348.785 
49.301 343.059 55.293 335.781 55.621 c h
48.219 55.621 m 40.941 55.293 35.215 49.301 35.215 42.02 c 35.215 34.734
 40.941 28.742 48.219 28.414 c h
71.535 59.797 m 71.531 62.793 69.102 65.223 66.109 65.223 c 62.645 65.223
 l 59.648 65.223 57.223 62.793 57.219 59.797 c 57.219 21.922 l 57.223 18.93
 59.648 16.504 62.645 16.5 c 66.109 16.5 l 69.102 16.504 71.531 18.93 71.535
 21.926 c h
48.219 355.586 m 40.941 355.258 35.215 349.266 35.215 341.98 c 35.215 334.699
 40.941 328.707 48.219 328.379 c h
71.535 362.074 m 71.531 365.07 69.102 367.496 66.109 367.5 c 62.645 367.5
 l 59.648 367.496 57.223 365.07 57.219 362.074 c 57.219 324.199 l 57.223
 321.203 59.648 318.777 62.645 318.773 c 66.109 318.773 l 69.102 318.777
 71.531 321.203 71.535 324.199 c h
335.781 328.379 m 343.059 328.707 348.785 334.699 348.785 341.98 c 348.785
 349.266 343.059 355.258 335.781 355.586 c h
312.465 324.203 m 312.469 321.207 314.898 318.777 317.891 318.777 c 321.355
 318.777 l 324.352 318.777 326.777 321.207 326.781 324.203 c 326.781 362.078
 l 326.777 365.07 324.352 367.496 321.355 367.5 c 317.891 367.5 l 314.898
 367.496 312.469 365.07 312.465 362.074 c h
303.465 361.219 m 299.078 361.219 l 299.078 360.133 l 299.078 354.133 290.078
 354.133 290.078 360.133 c 290.078 361.219 l 80.535 361.219 l 80.535 339.176
 l 157.391 339.176 l 163.391 339.176 163.391 330.176 157.391 330.176 c 80.535
 330.176 l 80.535 325.055 l 303.465 325.055 l h
303.465 44.824 m 226.609 44.824 l 220.609 44.824 220.609 53.824 226.609
 53.824 c 303.465 53.824 l 303.465 58.945 l 133.883 58.945 l 127.883 58.945
 127.883 67.945 133.883 67.945 c 295.613 67.945 l 297.18 153.363 l 290.91
 162.188 l 289.914 163.59 289.801 165.438 290.625 166.945 c 303.539 190.645
 l 295.664 205.609 l 295.164 206.559 295.02 207.656 295.258 208.703 c 298.188
 221.582 l 297.105 316.059 l 88.012 316.059 l 88.012 243.863 l 97.926 231.508
 l 99.445 229.609 99.188 226.848 97.34 225.27 c 88.012 217.301 l 88.012 
206.691 l 97.852 195.047 l 99.449 193.156 99.219 190.332 97.34 188.723 c
 88.012 180.754 l 88.012 131.871 l 97.34 123.902 l 99.258 122.262 99.453
 119.363 97.77 117.48 c 88.012 106.582 l 88.012 67.945 l 103.883 67.945 
l 109.883 67.945 109.883 58.945 103.883 58.945 c 80.535 58.945 l 80.535 
22.781 l 84.922 22.781 l 84.922 23.867 l 84.922 29.867 93.922 29.867 93.922
 23.867 c 93.922 22.781 l 303.465 22.781 l h
319.453 140.816 m 315.902 140.727 314.211 136.41 316.754 133.93 c 319.297
 131.453 323.566 133.254 323.566 136.805 c 323.535 139.047 321.695 140.84
 319.453 140.816 c h
321.355 65.223 m 317.891 65.223 l 314.898 65.223 312.469 62.793 312.465
 59.797 c 312.465 21.922 l 312.473 18.93 314.898 16.504 317.891 16.5 c 321.355
 16.5 l 324.352 16.504 326.777 18.93 326.781 21.926 c 326.781 59.801 l 326.777
 62.797 324.352 65.223 321.355 65.223 c h
321.355 65.223 m f
200.316 53.824 m 212.602 53.824 l 218.602 53.824 218.602 44.824 212.602
 44.824 c 200.316 44.824 l 194.316 44.824 194.316 53.824 200.316 53.824 
c h
200.316 53.824 m f
171.398 339.176 m 183.684 339.176 l 189.684 339.176 189.684 330.176 183.684
 330.176 c 171.398 330.176 l 165.398 330.176 165.398 339.176 171.398 339.176
 c h
171.398 339.176 m f
209.68 115.258 m 209.77 115.258 l 215.77 115.312 215.855 106.312 209.855
 106.258 c 205.754 106.18 l 199.336 99.625 192.516 96.488 185.422 96.875
 c 173.809 97.5 166.371 107.574 166.062 108.004 c 164.715 109.867 164.984
 112.449 166.695 113.988 c 168.285 115.398 170.016 116.652 171.852 117.723
 c 171.852 135.016 l 171.852 141.016 180.852 141.016 180.852 135.016 c 180.852
 121.91 l 181.074 124.941 182.188 127.836 184.051 130.234 c 186.297 132.871
 189.574 134.402 193.039 134.441 c 193.926 134.48 195.121 134.492 196.461
 134.492 c 201.801 134.492 209.504 134.258 209.906 134.242 c 212.426 134.211
 214.426 132.121 214.348 129.602 c 214.27 127.086 212.141 125.125 209.625
 125.25 c 209.504 125.25 197.523 125.625 193.41 125.449 c 191.918 125.391
 191.324 124.902 190.969 124.484 c 190.469 123.816 190.133 123.039 189.992
 122.215 c 195.086 121.758 200.414 119.719 205.512 115.18 c h
185.98 113.215 m 185.941 113.215 l 184.695 113.078 183.461 112.828 182.262
 112.465 c 180.277 111.859 178.371 111.023 176.582 109.977 c 178.824 108.094
 182.086 106.066 185.906 105.863 c 189.543 105.668 193.309 107.184 197.082
 110.379 c 193.848 112.641 189.898 113.648 185.977 113.215 c h
185.98 113.215 m f
166.617 100.246 m 166.715 100.148 176.508 90.836 188.324 91.215 c 194.574
 91.402 200.391 94.375 205.613 100.047 c 206.465 100.973 207.664 101.5 208.922
 101.5 c 215.441 101.5 l 221.441 101.5 221.441 92.5 215.441 92.5 c 210.84
 92.5 l 204.25 85.922 196.773 82.465 188.598 82.219 c 173.027 81.742 160.891
 93.266 160.379 93.758 c 156.109 97.918 162.293 104.352 166.617 100.246 
c h
166.617 100.246 m f
118.078 283.637 m 170.426 283.637 l 176.426 283.637 176.426 274.637 170.426
 274.637 c 148.754 274.637 l 148.754 260.93 l 148.754 254.93 139.754 254.93
 139.754 260.93 c 139.754 274.637 l 122.578 274.637 l 122.578 260.93 l 122.578
 254.93 113.578 254.93 113.578 260.93 c 113.578 279.137 l 113.578 281.621
 115.59 283.637 118.078 283.637 c h
118.078 283.637 m f
253.68 252.324 m 242.059 252.324 232.609 261.613 232.609 273.031 c 232.609
 284.453 242.059 293.742 253.68 293.742 c 265.297 293.742 274.75 284.453
 274.75 273.031 c 274.75 261.613 265.297 252.324 253.68 252.324 c h
253.68 284.742 m 248.973 284.602 244.812 281.656 243.109 277.27 c 241.41
 272.883 242.496 267.902 245.875 264.625 c 249.254 261.348 254.266 260.41
 258.598 262.242 c 262.934 264.078 265.75 268.328 265.75 273.031 c 265.641
 279.598 260.242 284.836 253.68 284.742 c h
253.68 284.742 m f
229.75 198.391 m 231.387 200.328 234.301 200.531 236.188 198.84 c 243.625
 192.195 l 249.418 198.523 l 251.055 200.309 253.809 200.48 255.652 198.914
 c 263.754 192.031 l 270.168 198.625 l 271.965 200.473 274.945 200.434 276.699
 198.539 c 285.578 188.93 l 287.266 187.105 287.152 184.258 285.328 182.57
 c 283.504 180.887 280.656 180.996 278.969 182.82 c 273.309 188.945 l 267.27
 182.738 l 265.617 181.039 262.934 180.914 261.129 182.449 c 253.125 189.25
 l 247.258 182.84 l 245.594 181.023 242.777 180.883 240.941 182.523 c 233.641
 189.051 l 228.523 182.98 l 224.656 178.395 217.773 184.195 221.645 188.785
 c h
229.75 198.391 m f
120.074 207.012 m 168.426 207.012 l 172.461 207.012 174.461 202.113 171.574
 199.293 c 147.398 175.641 l 145.648 173.934 142.852 173.934 141.105 175.641
 c 116.926 199.293 l 114.039 202.113 116.039 207.012 120.074 207.012 c h
144.25 185.156 m 157.391 198.012 l 131.109 198.012 l h
144.25 185.156 m f
197.762 173.188 m 195.277 173.188 193.262 175.203 193.262 177.688 c 193.262
 294.883 l 193.262 300.883 202.262 300.883 202.262 294.883 c 202.262 177.688
 l 202.262 175.203 200.246 173.188 197.762 173.188 c h
197.762 173.188 m f
Q Q
showpage
%%Trailer
end
%%EOF
