%!PS-Adobe-3.0 EPSF-3.0
%%Creator: cairo 1.16.0 (https://cairographics.org)
%%CreationDate: Mon Dec 14 10:17:16 2020
%%Pages: 1
%%DocumentData: Clean7Bit
%%LanguageLevel: 2
%%BoundingBox: 61 7 323 377
%%EndComments
%%BeginProlog
50 dict begin
/q { gsave } bind def
/Q { grestore } bind def
/cm { 6 array astore concat } bind def
/w { setlinewidth } bind def
/J { setlinecap } bind def
/j { setlinejoin } bind def
/M { setmiterlimit } bind def
/d { setdash } bind def
/m { moveto } bind def
/l { lineto } bind def
/c { curveto } bind def
/h { closepath } bind def
/re { exch dup neg 3 1 roll 5 3 roll moveto 0 rlineto
      0 exch rlineto 0 rlineto closepath } bind def
/S { stroke } bind def
/f { fill } bind def
/f* { eofill } bind def
/n { newpath } bind def
/W { clip } bind def
/W* { eoclip } bind def
/BT { } bind def
/ET { } bind def
/BDC { mark 3 1 roll /BDC pdfmark } bind def
/EMC { mark /EMC pdfmark } bind def
/cairo_store_point { /cairo_point_y exch def /cairo_point_x exch def } def
/Tj { show currentpoint cairo_store_point } bind def
/TJ {
  {
    dup
    type /stringtype eq
    { show } { -0.001 mul 0 cairo_font_matrix dtransform rmoveto } ifelse
  } forall
  currentpoint cairo_store_point
} bind def
/cairo_selectfont { cairo_font_matrix aload pop pop pop 0 0 6 array astore
    cairo_font exch selectfont cairo_point_x cairo_point_y moveto } bind def
/Tf { pop /cairo_font exch def /cairo_font_matrix where
      { pop cairo_selectfont } if } bind def
/Td { matrix translate cairo_font_matrix matrix concatmatrix dup
      /cairo_font_matrix exch def dup 4 get exch 5 get cairo_store_point
      /cairo_font where { pop cairo_selectfont } if } bind def
/Tm { 2 copy 8 2 roll 6 array astore /cairo_font_matrix exch def
      cairo_store_point /cairo_font where { pop cairo_selectfont } if } bind def
/g { setgray } bind def
/rg { setrgbcolor } bind def
/d1 { setcachedevice } bind def
/cairo_data_source {
  CairoDataIndex CairoData length lt
    { CairoData CairoDataIndex get /CairoDataIndex CairoDataIndex 1 add def }
    { () } ifelse
} def
/cairo_flush_ascii85_file { cairo_ascii85_file status { cairo_ascii85_file flushfile } if } def
/cairo_image { image cairo_flush_ascii85_file } def
/cairo_imagemask { imagemask cairo_flush_ascii85_file } def
%%EndProlog
%%BeginSetup
%%EndSetup
%%Page: 1 1
%%BeginPageSetup
%%PageBoundingBox: 61 7 323 377
%%EndPageSetup
q 61 7 262 370 rectclip
1 0 0 -1 0 384 cm q
0.580392 0.564706 0.6 rg
308.684 123.734 m 230.371 131.762 l 226.758 132.133 224.434 128.027 226.613
 125.121 c 250.629 93.246 254.551 54.855 236.961 32.023 c 234.637 29.004
 230.836 25.777 226.238 22.68 c 203.617 7.434 173.566 8.445 152.797 26.152
 c 150.684 27.91 148.754 29.875 147.039 32.023 c 129.449 54.855 133.371 
93.246 157.387 125.121 c 159.566 128.027 157.242 132.133 153.629 131.762
 c 75.316 123.734 l 72.934 123.488 70.562 124.262 68.785 125.863 c 67.008
 127.469 65.996 129.75 66 132.141 c 66 160.648 l 65.996 162.984 66.961 165.219
 68.664 166.816 c 70.367 168.414 72.656 169.238 74.984 169.086 c 165.562
 163.207 l 168.074 163.047 170.148 165.137 169.973 167.648 c 156.66 362.961
 l 156.496 365.297 157.309 367.598 158.902 369.312 c 160.5 371.023 162.734
 372 165.074 372 c 218.926 372 l 221.266 372 223.5 371.023 225.098 369.312
 c 226.691 367.598 227.504 365.297 227.34 362.961 c 214.027 167.648 l 213.852
 165.137 215.926 163.047 218.438 163.207 c 309.016 169.086 l 311.344 169.238
 313.633 168.414 315.336 166.816 c 317.039 165.219 318.004 162.984 318 160.648
 c 318 132.141 l 318.004 129.75 316.992 127.469 315.215 125.863 c 313.438
 124.262 311.066 123.488 308.684 123.734 c h
199.297 120.922 m 197.613 123.281 194.898 124.68 192 124.68 c 189.102 124.68
 186.387 123.281 184.703 120.922 c 170.488 100.836 142.441 37.449 191.309
 37.363 c 192.691 37.363 l 241.559 37.449 213.512 100.836 199.297 120.922
 c h
199.297 120.922 m f
0.498039 0.486275 0.517647 rg
88.5 160.648 m 88.5 132.141 l 88.496 129.508 89.727 127.023 91.824 125.426
 c 75.316 123.734 l 72.934 123.488 70.562 124.262 68.785 125.863 c 67.008
 127.469 65.996 129.75 66 132.141 c 66 160.648 l 65.996 162.984 66.961 165.219
 68.664 166.816 c 70.367 168.414 72.656 169.238 74.984 169.086 c 92.676 
167.938 l 90.09 166.422 88.5 163.648 88.5 160.648 c h
88.5 160.648 m f
179.16 362.961 m 192.473 167.648 l 192.648 165.137 190.574 163.047 188.062
 163.207 c 168.801 164.457 l 169.629 165.305 170.055 166.465 169.973 167.648
 c 156.66 362.961 l 156.496 365.297 157.309 367.598 158.902 369.312 c 160.5
 371.023 162.734 372 165.074 372 c 187.574 372 l 185.234 372 183 371.023
 181.402 369.312 c 179.809 367.598 178.996 365.297 179.16 362.961 c h
179.16 362.961 m f
179.887 125.121 m 155.871 93.246 151.949 54.855 169.539 32.023 c 171.254
 29.875 173.184 27.91 175.297 26.152 c 183.148 19.461 192.613 14.945 202.754
 13.055 c 184.98 9.637 166.609 14.453 152.797 26.152 c 150.684 27.91 148.754
 29.875 147.039 32.023 c 129.449 54.855 133.371 93.246 157.387 125.121 c
 158.441 126.504 158.512 128.402 157.559 129.855 c 176.129 131.762 l 179.742
 132.133 182.066 128.027 179.887 125.121 c h
179.887 125.121 m f
0.156863 0.258824 0.407843 rg
192 129.184 m 196.355 129.184 200.445 127.074 202.969 123.52 c 213.422 
108.746 232.559 69.035 221.316 47.266 c 216.395 37.734 206.766 32.891 192.691
 32.863 c 191.301 32.863 l 177.234 32.887 167.605 37.73 162.684 47.266 c
 151.441 69.035 170.578 108.75 181.031 123.523 c 183.555 127.078 187.645
 129.184 192 129.184 c h
170.68 51.395 m 173.98 45 180.73 41.883 191.305 41.867 c 192.684 41.867
 l 203.266 41.887 210.016 45 213.316 51.395 c 222.055 68.312 205.824 103.902
 195.617 118.32 c 193.84 120.805 190.152 120.805 188.375 118.32 c 178.172
 103.902 161.945 68.312 170.68 51.395 c h
170.68 51.395 m f
75.273 173.578 m 165.457 167.727 l 163.578 195.312 l 163.395 197.801 165.27
 199.965 167.758 200.137 c 170.25 200.305 172.402 198.418 172.559 195.926
 c 174.465 167.957 l 174.629 165.566 173.793 163.211 172.156 161.457 c 170.52
 159.703 168.23 158.707 165.828 158.703 c 165.645 158.703 165.457 158.711
 165.27 158.723 c 74.691 164.602 l 73.496 164.684 72.332 164.215 71.531 
163.324 c 70.848 162.555 70.48 161.559 70.5 160.527 c 70.5 132.266 l 70.484
 131.211 70.871 130.191 71.586 129.418 c 72.426 128.52 73.637 128.074 74.855
 128.211 c 104.637 131.262 l 104.637 132.578 l 104.637 138.578 113.637 138.578
 113.637 132.578 c 113.637 132.184 l 153.164 136.234 l 156.59 136.594 159.906
 134.887 161.598 131.883 c 163.324 128.895 163.082 125.16 160.98 122.422
 c 149.895 107.699 142.828 90.75 141.086 74.699 c 139.395 59.113 142.773
 44.938 150.602 34.773 c 152.125 32.875 153.84 31.133 155.715 29.578 c 174.617
 13.461 202.582 12.16 223.723 26.414 c 228.121 29.379 231.469 32.27 233.398
 34.773 c 241.227 44.934 244.605 59.113 242.914 74.699 c 241.172 90.75 234.105
 107.699 223.016 122.414 c 220.918 125.156 220.672 128.891 222.398 131.879
 c 224.094 134.879 227.402 136.59 230.828 136.234 c 309.156 128.211 l 310.219
 128.09 311.285 128.422 312.098 129.117 c 313.012 129.93 313.523 131.102
 313.5 132.32 c 313.5 160.516 l 313.516 161.539 313.152 162.535 312.48 163.305
 c 311.68 164.203 310.508 164.68 309.309 164.598 c 291.387 163.434 l 291.387
 162.449 l 291.387 156.449 282.387 156.449 282.387 162.449 c 282.387 162.852
 l 218.73 158.723 l 216.238 158.559 213.801 159.484 212.039 161.254 c 210.277
 163.023 209.363 165.465 209.535 167.957 c 220.594 330.148 l 213.711 330.148
 l 207.711 330.148 207.711 339.148 213.711 339.148 c 221.211 339.148 l 222.855
 363.27 l 222.945 364.477 222.473 365.656 221.578 366.469 c 220.809 367.148
 219.816 367.516 218.789 367.496 c 165.215 367.496 l 164.188 367.516 163.195
 367.148 162.426 366.469 c 161.531 365.656 161.059 364.477 161.148 363.27
 c 168.418 256.648 l 174.062 256.648 l 180.062 256.648 180.062 247.648 174.062
 247.648 c 169.031 247.648 l 170.512 225.918 l 170.918 219.934 161.941 219.32
 161.531 225.309 c 152.168 362.66 l 151.922 366.238 153.168 369.758 155.617
 372.383 c 158.062 375.004 161.488 376.496 165.074 376.5 c 218.926 376.5
 l 222.512 376.496 225.938 375.004 228.383 372.383 c 230.832 369.758 232.078
 366.238 231.832 362.66 c 218.543 167.727 l 308.727 173.574 l 312.297 173.805
 315.805 172.543 318.414 170.094 c 321.023 167.648 322.5 164.227 322.5 160.648
 c 322.5 132.145 l 322.504 128.477 320.953 124.98 318.23 122.523 c 315.512
 120.066 311.875 118.879 308.227 119.254 c 230.676 127.207 l 255.367 94.004
 259.438 53.832 240.527 29.281 c 237.98 25.977 234.02 22.5 228.754 18.949
 c 204.277 2.449 171.844 4.004 149.879 22.73 c 147.523 24.688 145.379 26.887
 143.473 29.281 c 124.562 53.832 128.633 94.004 153.324 127.207 c 109.602
 122.727 l 109.594 122.727 l 75.781 119.258 l 72.137 118.879 68.496 120.066
 65.773 122.523 c 63.051 124.98 61.496 128.477 61.5 132.145 c 61.5 160.648
 l 61.496 164.23 62.977 167.648 65.586 170.098 c 68.195 172.551 71.703 173.809
 75.273 173.582 c h
75.273 173.578 m f
Q Q
showpage
%%Trailer
end
%%EOF
