%!PS-Adobe-3.0 EPSF-3.0
%%Creator: cairo 1.16.0 (https://cairographics.org)
%%CreationDate: Mon Dec 14 10:17:17 2020
%%Pages: 1
%%DocumentData: Clean7Bit
%%LanguageLevel: 2
%%BoundingBox: 35 8 349 376
%%EndComments
%%BeginProlog
50 dict begin
/q { gsave } bind def
/Q { grestore } bind def
/cm { 6 array astore concat } bind def
/w { setlinewidth } bind def
/J { setlinecap } bind def
/j { setlinejoin } bind def
/M { setmiterlimit } bind def
/d { setdash } bind def
/m { moveto } bind def
/l { lineto } bind def
/c { curveto } bind def
/h { closepath } bind def
/re { exch dup neg 3 1 roll 5 3 roll moveto 0 rlineto
      0 exch rlineto 0 rlineto closepath } bind def
/S { stroke } bind def
/f { fill } bind def
/f* { eofill } bind def
/n { newpath } bind def
/W { clip } bind def
/W* { eoclip } bind def
/BT { } bind def
/ET { } bind def
/BDC { mark 3 1 roll /BDC pdfmark } bind def
/EMC { mark /EMC pdfmark } bind def
/cairo_store_point { /cairo_point_y exch def /cairo_point_x exch def } def
/Tj { show currentpoint cairo_store_point } bind def
/TJ {
  {
    dup
    type /stringtype eq
    { show } { -0.001 mul 0 cairo_font_matrix dtransform rmoveto } ifelse
  } forall
  currentpoint cairo_store_point
} bind def
/cairo_selectfont { cairo_font_matrix aload pop pop pop 0 0 6 array astore
    cairo_font exch selectfont cairo_point_x cairo_point_y moveto } bind def
/Tf { pop /cairo_font exch def /cairo_font_matrix where
      { pop cairo_selectfont } if } bind def
/Td { matrix translate cairo_font_matrix matrix concatmatrix dup
      /cairo_font_matrix exch def dup 4 get exch 5 get cairo_store_point
      /cairo_font where { pop cairo_selectfont } if } bind def
/Tm { 2 copy 8 2 roll 6 array astore /cairo_font_matrix exch def
      cairo_store_point /cairo_font where { pop cairo_selectfont } if } bind def
/g { setgray } bind def
/rg { setrgbcolor } bind def
/d1 { setcachedevice } bind def
/cairo_data_source {
  CairoDataIndex CairoData length lt
    { CairoData CairoDataIndex get /CairoDataIndex CairoDataIndex 1 add def }
    { () } ifelse
} def
/cairo_flush_ascii85_file { cairo_ascii85_file status { cairo_ascii85_file flushfile } if } def
/cairo_image { image cairo_flush_ascii85_file } def
/cairo_imagemask { imagemask cairo_flush_ascii85_file } def
%%EndProlog
%%BeginSetup
%%EndSetup
%%Page: 1 1
%%BeginPageSetup
%%PageBoundingBox: 35 8 349 376
%%EndPageSetup
q 35 8 314 368 rectclip
1 0 0 -1 0 384 cm q
0.866667 0.6 0.384314 rg
310.441 246.781 m 307.035 245.223 303.012 246.719 301.453 250.125 c 299.898
 253.531 301.395 257.551 304.801 259.109 c 310.895 262.305 316.258 266.738
 320.543 272.121 c 311.211 276.75 300.84 285.906 300.84 300.848 c 300.84
 371.25 l 314.391 371.25 l 314.391 300.848 l 314.391 291.336 322.117 286.254
 327.426 283.875 c 329.961 290.312 331.059 297.227 330.652 304.133 c 330.473
 307.871 333.355 311.051 337.094 311.234 c 337.207 311.242 337.32 311.242
 337.434 311.242 c 341.047 311.242 344.023 308.402 344.199 304.793 c 346.207
 263.625 311.895 247.449 310.441 246.781 c h
310.441 246.781 m f
0.317647 0.403922 0.431373 rg
273.121 209.445 m 256.68 209.102 246.734 215.641 240.789 222.84 c 235.23
 229.68 232.23 238.238 232.297 247.051 c 232.297 323.918 l 273.586 323.918
 l h
273.121 209.445 m f
1 0.847059 0.717647 rg
261.441 161.574 m 259.68 161.602 257.926 161.578 256.164 161.512 c 251.863
 161.137 247.699 159.824 243.961 157.664 c 240.211 155.508 236.941 152.609
 234.352 149.145 c 223.312 134.461 l 217.785 126.992 209.191 122.406 199.914
 121.973 c 142.191 121.793 l 142.191 121.816 l 142.762 170.348 l 142.789
 176.594 144.262 182.746 147.066 188.324 c 158.211 210.023 182.617 209.414
 182.617 209.414 c 182.617 279.848 l 232.297 279.848 l 232.297 247.051 l
 232.23 238.238 235.23 229.68 240.789 222.84 c 246.734 215.641 256.68 209.102
 273.121 209.445 c 283.68 209.672 291.594 209.684 297.504 209.625 c 315.09
 209.445 323.863 200.113 330.727 160.305 c h
261.441 161.574 m f
0.317647 0.403922 0.431373 rg
147.066 188.324 m 144.262 182.746 142.789 176.594 142.762 170.348 c 142.191
 121.816 l 142.191 121.793 l 131.594 121.77 l 73.156 121.582 40.477 165.406
 40.477 224.324 c 39.969 323.609 l 182.617 323.609 l 182.617 209.414 l 182.617
 209.414 158.211 210.023 147.066 188.324 c h
147.066 188.324 m f
0.227451 0.329412 0.552941 rg
172.559 48.246 m 172.559 121.891 l 184.035 121.922 194.445 121.949 198.316
 121.965 c 198.316 12.75 l 198.316 12.75 172.559 30.309 172.559 48.246 c
 h
172.559 48.246 m f
0.321569 0.454902 0.733333 rg
131.594 121.77 m 172.559 121.891 l 172.559 12.75 l 172.559 12.75 120.352
 67.754 131.594 121.77 c h
131.594 121.77 m f
0.290196 0.317647 0.376471 rg
215.316 279.848 16.98 54.066 re f
0.427451 0.454902 0.52549 rg
197.992 279.848 17.324 54.066 re f
0.290196 0.317647 0.376471 rg
182.617 279.848 15.375 54.066 re f
0.85098 0.733333 0.294118 rg
273.691 346.746 m 273.789 371.25 l 232.297 371.25 l 232.297 346.746 l h
273.691 346.746 m f
0.933333 0.686275 0.258824 rg
273.586 322.418 m 232.297 322.418 l 232.297 346.746 l 273.691 346.746 l
 h
273.586 322.418 m f
0.247059 0.321569 0.337255 rg
142.199 122.375 m 142.191 121.816 l 142.191 121.793 l 131.598 121.77 l 
73.156 121.582 40.477 165.406 40.477 224.324 c 39.969 323.609 l 62.469 323.609
 l 62.977 224.324 l 62.977 169.531 91.242 127.805 142.199 122.375 c h
142.199 122.375 m f
0.27451 0.4 0.619608 rg
172.559 12.75 m 172.559 12.75 120.352 67.754 131.594 121.77 c 154.094 121.77
 l 148.121 93.074 160.059 64.094 172.559 43.238 c h
172.559 12.75 m f
0.933333 0.686275 0.258824 rg
39.969 322.859 m 39.855 345.668 l 182.617 345.668 l 182.617 322.859 l h
39.969 322.859 m f
0.847059 0.596078 0.239216 rg
39.969 322.859 m 39.855 345.668 l 62.355 345.668 l 62.469 322.859 l h
39.969 322.859 m f
0.85098 0.733333 0.294118 rg
182.617 345.668 m 182.617 371.25 l 39.719 371.25 l 39.855 345.668 l h
182.617 345.668 m f
0.74902 0.635294 0.262745 rg
39.922 345.668 m 39.855 345.668 l 39.719 371.25 l 62.219 371.25 l 62.355
 345.668 l h
39.922 345.668 m f
0.156863 0.258824 0.407843 rg
37.984 375.406 m 38.566 375.645 39.195 375.762 39.824 375.75 c 182.617 
375.75 l 185.102 375.75 187.117 373.734 187.117 371.25 c 187.117 338.414
 l 227.797 338.414 l 227.797 371.25 l 227.797 373.734 229.812 375.75 232.297
 375.75 c 273.789 375.75 l 276.281 375.75 278.301 373.723 278.289 371.23
 c 277.637 214.031 l 284.863 214.152 291.414 214.18 297.547 214.121 c 308.613
 214.008 316.09 210.406 321.793 202.441 c 327.129 194.992 331.094 183.277
 334.508 164.73 c 341.852 164.598 l 347.852 164.488 347.688 155.488 341.688
 155.598 c 261.359 157.07 l 259.73 157.098 258.078 157.082 256.445 157.012
 c 249.059 156.266 242.336 152.422 237.945 146.438 c 226.906 131.754 l 221.141
 123.961 212.43 118.879 202.809 117.699 c 202.809 12.75 l 202.809 9.133 
198.762 6.996 195.773 9.031 c 190.906 12.48 186.367 16.363 182.203 20.637
 c 180.391 22.5 178.672 24.453 177.059 26.492 c 177.059 12.75 l 177.059 
8.684 172.094 6.703 169.297 9.652 c 159.578 20.395 151.074 32.172 143.945
 44.781 c 129.348 70.473 123.301 95.438 126.277 117.371 c 102.109 118.391
 81.219 127.062 65.652 142.578 c 46.516 161.656 35.977 190.688 35.977 224.305
 c 35.219 371.23 l 35.211 373.055 36.301 374.703 37.984 375.406 c h
193.492 329.414 m 187.117 329.414 l 187.117 284.348 l 193.492 284.348 l
 h
210.82 329.414 m 202.492 329.414 l 202.492 284.348 l 210.82 284.348 l h
227.797 329.414 m 219.82 329.414 l 219.82 284.348 l 227.797 284.348 l h
236.797 366.75 m 236.797 351.246 l 269.207 351.246 l 269.27 366.75 l h
239.992 286.105 m 236.797 286.105 l 236.797 264.977 l 239.992 264.977 l
 245.992 264.977 245.992 255.977 239.992 255.977 c 236.797 255.977 l 236.797
 247.051 l 236.73 239.285 239.367 231.742 244.25 225.707 c 250.117 218.613
 258.309 214.699 268.637 214.035 c 269.07 317.922 l 236.797 317.922 l 236.797
 295.105 l 239.992 295.105 l 245.992 295.105 245.992 286.105 239.992 286.105
 c h
269.105 326.926 m 269.168 342.25 l 236.797 342.25 l 236.797 326.926 l h
177.062 48.246 m 177.062 38.922 186.281 28.629 193.812 22.012 c 193.812
 117.449 l 190.422 117.438 185.176 117.422 177.062 117.398 c h
168.062 25.09 m 168.062 117.375 l 135.352 117.281 l 129.621 79.977 154.77
 42.086 168.062 25.09 c h
44.648 287.574 m 47.293 287.574 l 53.293 287.574 53.293 278.574 47.293 
278.574 c 44.699 278.574 l 44.809 257.445 l 47.297 257.445 l 53.297 257.445
 53.297 248.445 47.297 248.445 c 44.852 248.445 l 44.973 224.328 l 44.973
 193.098 54.574 166.328 72.008 148.953 c 86.973 134.035 107.559 126.18 131.578
 126.27 c 137.742 126.289 l 138.262 170.398 l 138.301 177.344 139.945 184.184
 143.062 190.387 c 152.402 208.566 169.805 212.719 178.113 213.652 c 178.113
 231.227 l 178.113 237.227 187.113 237.227 187.113 231.227 c 186.949 208.172
 l 186.379 206.203 184.555 204.863 182.504 204.91 c 182.285 204.91 160.809
 205.23 151.066 186.27 c 148.586 181.309 147.285 175.84 147.262 170.293 
c 147.195 164.801 l 203.461 164.801 l 212.043 176.297 l 213.52 178.312 216.359
 178.734 218.359 177.242 c 220.363 175.746 220.766 172.906 219.254 170.914
 c 209.324 157.609 l 208.477 156.473 207.141 155.801 205.719 155.801 c 147.094
 155.801 l 146.746 126.312 l 169.781 126.379 198.336 126.461 199.801 126.477
 c 207.711 126.852 215.031 130.781 219.715 137.168 c 230.754 151.852 l 236.707
 159.91 245.809 165.055 255.781 165.992 c 255.844 166 255.91 166.004 255.973
 166.004 c 257.812 166.078 259.684 166.105 261.527 166.07 c 325.316 164.902
 l 318.203 201.941 309.215 205.004 297.457 205.121 c 290.137 205.199 282.207
 205.137 273.215 204.945 c 254.148 204.531 243.172 212.891 237.316 219.969
 c 231.098 227.617 227.73 237.191 227.797 247.051 c 227.797 275.348 l 187.117
 275.348 l 187.117 261.227 l 187.117 255.227 178.117 255.227 178.117 261.227
 c 178.117 318.359 l 150.074 318.359 l 150.074 235.875 l 150.074 229.875
 141.074 229.875 141.074 235.875 c 141.074 318.359 l 113.453 318.359 l 113.453
 252.945 l 113.453 246.945 104.453 246.945 104.453 252.945 c 104.453 318.363
 l 76.832 318.363 l 76.832 224.262 l 76.832 218.262 67.832 218.262 67.832
 224.262 c 67.832 318.363 l 44.492 318.363 l h
44.445 327.363 m 178.117 327.363 l 178.117 341.168 l 44.371 341.168 l h
44.324 350.168 m 178.117 350.168 l 178.117 366.75 l 44.242 366.75 l h
44.324 350.168 m f
329.07 312.043 m 332.137 315.422 336.938 316.621 341.23 315.082 c 345.523
 313.543 348.469 309.57 348.691 305.016 c 350.848 260.836 313.883 243.41
 312.309 242.691 c 306.648 240.09 299.949 242.57 297.352 248.23 c 294.75
 253.891 297.23 260.586 302.891 263.188 c 306.789 265.242 310.355 267.875
 313.469 270.992 c 302.508 278.152 296.34 288.785 296.34 300.852 c 296.34
 371.25 l 296.34 373.734 298.355 375.75 300.84 375.75 c 314.398 375.75 l
 316.883 375.75 318.898 373.734 318.898 371.25 c 318.898 300.852 l 318.898
 296.125 321.613 292.781 324.859 290.469 c 325.969 294.859 326.41 299.395
 326.164 303.914 c 326.008 306.906 327.055 309.832 329.07 312.043 c h
325.59 279.766 m 315.465 284.293 309.895 291.781 309.895 300.852 c 309.895
 366.75 l 305.336 366.75 l 305.336 300.852 l 305.336 286.789 316.117 279.344
 322.543 276.156 c 325.117 274.883 325.852 271.555 324.055 269.312 c 319.328
 263.379 313.402 258.512 306.668 255.02 c 303.906 253.754 305.801 249.609
 308.566 250.875 c 309.914 251.492 341.566 266.414 339.703 304.574 c 339.648
 305.789 338.648 306.742 337.434 306.742 c 337.316 306.742 l 336.059 306.68
 335.09 305.613 335.148 304.355 c 335.582 296.805 334.371 289.246 331.605
 282.207 c 330.66 279.832 327.926 278.723 325.59 279.77 c h
325.59 279.766 m f
Q Q
showpage
%%Trailer
end
%%EOF
