%!PS-Adobe-3.0 EPSF-3.0
%%Creator: cairo 1.16.0 (https://cairographics.org)
%%CreationDate: Mon Dec 14 10:17:17 2020
%%Pages: 1
%%DocumentData: Clean7Bit
%%LanguageLevel: 2
%%BoundingBox: 7 61 377 323
%%EndComments
%%BeginProlog
50 dict begin
/q { gsave } bind def
/Q { grestore } bind def
/cm { 6 array astore concat } bind def
/w { setlinewidth } bind def
/J { setlinecap } bind def
/j { setlinejoin } bind def
/M { setmiterlimit } bind def
/d { setdash } bind def
/m { moveto } bind def
/l { lineto } bind def
/c { curveto } bind def
/h { closepath } bind def
/re { exch dup neg 3 1 roll 5 3 roll moveto 0 rlineto
      0 exch rlineto 0 rlineto closepath } bind def
/S { stroke } bind def
/f { fill } bind def
/f* { eofill } bind def
/n { newpath } bind def
/W { clip } bind def
/W* { eoclip } bind def
/BT { } bind def
/ET { } bind def
/BDC { mark 3 1 roll /BDC pdfmark } bind def
/EMC { mark /EMC pdfmark } bind def
/cairo_store_point { /cairo_point_y exch def /cairo_point_x exch def } def
/Tj { show currentpoint cairo_store_point } bind def
/TJ {
  {
    dup
    type /stringtype eq
    { show } { -0.001 mul 0 cairo_font_matrix dtransform rmoveto } ifelse
  } forall
  currentpoint cairo_store_point
} bind def
/cairo_selectfont { cairo_font_matrix aload pop pop pop 0 0 6 array astore
    cairo_font exch selectfont cairo_point_x cairo_point_y moveto } bind def
/Tf { pop /cairo_font exch def /cairo_font_matrix where
      { pop cairo_selectfont } if } bind def
/Td { matrix translate cairo_font_matrix matrix concatmatrix dup
      /cairo_font_matrix exch def dup 4 get exch 5 get cairo_store_point
      /cairo_font where { pop cairo_selectfont } if } bind def
/Tm { 2 copy 8 2 roll 6 array astore /cairo_font_matrix exch def
      cairo_store_point /cairo_font where { pop cairo_selectfont } if } bind def
/g { setgray } bind def
/rg { setrgbcolor } bind def
/d1 { setcachedevice } bind def
/cairo_data_source {
  CairoDataIndex CairoData length lt
    { CairoData CairoDataIndex get /CairoDataIndex CairoDataIndex 1 add def }
    { () } ifelse
} def
/cairo_flush_ascii85_file { cairo_ascii85_file status { cairo_ascii85_file flushfile } if } def
/cairo_image { image cairo_flush_ascii85_file } def
/cairo_imagemask { imagemask cairo_flush_ascii85_file } def
%%EndProlog
%%BeginSetup
%%EndSetup
%%Page: 1 1
%%BeginPageSetup
%%PageBoundingBox: 7 61 377 323
%%EndPageSetup
q 7 61 370 262 rectclip
1 0 0 -1 0 384 cm q
0.85098 0.733333 0.294118 rg
247.5 123.199 m 247.5 155.07 222.652 180.902 192 180.902 c 161.348 180.902
 136.5 155.07 136.5 123.199 c 136.5 91.332 161.348 65.5 192 65.5 c 222.652
 65.5 247.5 91.332 247.5 123.199 c h
247.5 123.199 m f
0.933333 0.686275 0.258824 rg
192 86.812 m 172.629 86.801 156.516 101.703 155.016 121.02 c 153.516 140.332
 167.137 157.543 186.277 160.523 c 197.723 160.523 l 216.863 157.543 230.484
 140.332 228.984 121.02 c 227.484 101.703 211.371 86.801 192 86.812 c h
192 86.812 m f
0.866667 0.607843 0.235294 rg
171.406 123.887 m 171.41 106.586 183.383 91.586 200.25 87.742 c 190.441
 85.5 180.145 87.336 171.719 92.832 c 163.293 98.328 157.461 107.016 155.562
 116.895 c 153.668 126.777 155.867 137.004 161.66 145.23 c 167.449 153.457
 176.336 158.977 186.277 160.523 c 197.723 160.523 l 198.574 160.391 199.418
 160.223 200.25 160.031 c 183.379 156.188 171.41 141.188 171.406 123.887
 c h
171.406 123.887 m f
0.286275 0.415686 0.647059 rg
198.879 116.094 m 199.297 124.824 l 184.703 124.824 l 184.785 116.281 l
 184.805 113.652 186.941 111.531 189.57 111.531 c 194.094 111.531 l 196.648
 111.539 198.75 113.543 198.879 116.094 c h
198.879 116.094 m f
0.321569 0.454902 0.733333 rg
184.703 124.824 m 199.934 124.824 l 199.934 124.824 206.145 130.223 202.844
 139.637 c 197.723 160.523 l 193.93 161.113 190.07 161.113 186.277 160.523
 c 181.156 139.637 l 177.855 130.223 184.066 124.824 184.066 124.824 c h
184.703 124.824 m f
0.156863 0.258824 0.407843 rg
192 165.461 m 207.457 165.457 221.633 156.879 228.809 143.188 c 235.984
 129.5 234.973 112.961 226.184 100.246 c 217.395 87.531 202.277 80.742 186.938
 82.621 c 171.594 84.496 158.562 94.73 153.098 109.188 c 152.215 111.512
 153.387 114.109 155.715 114.988 c 158.039 115.867 160.637 114.695 161.516
 112.371 c 165.406 102.051 174.258 94.398 185.031 92.035 c 195.809 89.672
 207.047 92.926 214.898 100.672 c 222.75 108.422 226.148 119.617 223.93 
130.422 c 221.707 141.23 214.172 150.176 203.902 154.203 c 207.164 140.906
 l 210.539 131.008 205.688 124.402 203.68 122.215 c 203.371 115.871 l 203.133
 110.922 199.047 107.027 194.09 107.035 c 189.574 107.035 l 184.484 107.051
 180.348 111.145 180.281 116.234 c 180.227 122.324 l 178.16 124.617 173.516
 131.168 176.836 140.91 c 180.098 154.195 l 172.703 151.277 166.617 145.773
 162.98 138.703 c 162.211 137.215 160.676 136.285 159 136.293 c 155.652 
136.289 153.469 139.812 154.969 142.809 c 162.09 156.703 176.387 165.449
 192 165.461 c h
189.281 116.32 m 189.285 116.16 189.414 116.035 189.574 116.035 c 194.09
 116.035 l 194.246 116.035 194.375 116.156 194.383 116.309 c 194.578 120.32
 l 189.242 120.32 l h
186.121 129.32 m 197.871 129.32 l 198.883 130.848 200.113 133.828 198.598
 138.141 c 198.551 138.281 198.508 138.422 198.473 138.562 c 194.102 156.387
 l 193.406 156.434 192.707 156.461 192 156.461 c 191.293 156.461 190.598
 156.434 189.898 156.387 c 185.527 138.562 l 185.492 138.422 185.449 138.281
 185.402 138.141 c 183.883 133.812 185.125 130.824 186.121 129.32 c h
186.121 129.32 m f
12 205.82 m 13.25 205.824 14.445 205.305 15.293 204.387 c 24.773 194.203
 l 26.25 192.617 28.469 191.945 30.574 192.449 c 36.477 193.859 l 36.301
 194.176 l 35.047 196.422 32.496 197.613 29.969 197.137 c 29.957 197.137
 l 24.09 195.879 22.203 204.68 28.07 205.938 c 28.152 205.953 l 29.117 206.145
 30.098 206.238 31.078 206.242 c 36.492 206.238 41.488 203.316 44.141 198.598
 c 46.645 194.152 l 47.27 193.969 47.883 193.742 48.477 193.477 c 138.723
 152.453 l 139.652 154.301 140.664 156.098 141.758 157.84 c 49.336 228.488
 l 48.352 229.242 47.16 229.672 45.922 229.719 c 37.219 230.07 l 31.812 
230.289 26.945 233.395 24.465 238.203 c 18.109 250.578 l 16.977 252.789 
17.848 255.504 20.059 256.637 c 22.27 257.773 24.984 256.902 26.117 254.691
 c 32.473 242.316 l 33.465 240.387 35.414 239.145 37.582 239.055 c 43.645
 238.809 l 43.559 239.16 l 42.945 241.691 40.766 243.539 38.164 243.734 
c 38.156 243.734 l 32.438 244.238 32.809 252.715 38.551 252.719 c 38.672
 252.719 38.793 252.711 38.914 252.703 c 45.379 252.191 50.785 247.582 52.305
 241.277 c 53.461 236.527 l 53.922 236.254 54.371 235.953 54.801 235.629
 c 147.098 165.078 l 148.52 166.75 150.027 168.34 151.617 169.852 c 100.902
 233.449 l 99.973 234.613 98.648 235.395 97.18 235.637 c 89.293 236.938 
l 83.953 237.824 79.504 241.512 77.637 246.594 c 72.859 259.656 l 71.98 
262 73.18 264.605 75.527 265.465 c 77.875 266.324 80.473 265.105 81.312 
262.75 c 86.09 249.688 l 86.836 247.652 88.621 246.176 90.758 245.82 c 96.75
 244.832 l 96.707 245.188 l 96.418 247.77 94.496 249.867 91.953 250.391 
c 91.949 250.391 l 93.77 259.203 l 100.121 257.902 104.918 252.66 105.648
 246.215 c 106.27 240.828 l 106.875 240.285 107.434 239.695 107.941 239.062
 c 158.602 175.531 l 160.32 176.727 162.098 177.828 163.934 178.836 c 137.152
 233.945 l 136.449 235.379 135.211 236.477 133.703 237 c 126.449 239.508
 l 121.336 241.277 117.566 245.66 116.582 250.98 c 114.07 264.66 l 113.566
 267.129 115.188 269.535 117.664 269.988 c 120.145 270.445 122.516 268.773
 122.922 266.285 c 125.434 252.609 l 125.828 250.477 127.336 248.719 129.387
 248.012 c 135.121 246.027 l 135.141 246.387 l 135.285 248.98 133.746 251.375
 131.324 252.316 c 131.277 252.336 131.234 252.355 131.188 252.371 c 131.184
 252.371 l 125.734 254.703 129.113 262.883 134.617 260.691 c 140.652 258.332
 144.488 252.363 144.125 245.895 c 143.816 240.219 l 144.359 239.48 144.84
 238.695 145.242 237.871 c 172.125 182.566 l 173.188 182.953 174.262 183.309
 175.352 183.633 c 160.477 260.605 l 160.152 262.281 159.133 263.742 157.668
 264.621 c 151.379 268.398 l 146.738 271.191 143.957 276.262 144.098 281.672
 c 144.465 295.574 l 144.531 298.012 146.527 299.953 148.965 299.953 c 149.09
 299.953 l 151.574 299.887 153.535 297.82 153.469 295.336 c 153.098 281.438
 l 153.043 279.27 154.156 277.238 156.012 276.117 c 161.215 272.996 l 161.309
 273.344 l 161.98 275.828 160.992 278.469 158.852 279.898 c 154.039 282.961
 158.184 290.273 163.281 287.719 c 163.438 287.641 163.59 287.555 163.738
 287.457 c 169.168 283.906 171.695 277.266 170 271.004 c 168.441 265.211
 l 168.832 264.277 169.125 263.309 169.32 262.312 c 184.152 185.539 l 185.141
 185.676 186.133 185.785 187.133 185.867 c 186.797 281.25 l 186.797 282.141
 186.875 283.027 187.031 283.902 c 184.223 288.766 l 180.969 294.379 181.699
 301.449 186.027 306.281 c 187.688 308.137 190.531 308.293 192.383 306.637
 c 194.238 304.98 194.395 302.137 192.738 300.281 c 191.004 298.348 190.711
 295.516 192.016 293.266 c 192.195 292.953 l 196.414 297.309 l 197.922 298.871
 198.473 301.121 197.859 303.199 c 193.914 316.531 l 193.184 318.926 194.543
 321.453 196.941 322.164 c 199.34 322.871 201.855 321.492 202.543 319.086
 c 206.488 305.754 l 208.023 300.562 206.645 294.945 202.883 291.051 c 197.492
 285.484 l 196.398 284.359 195.789 282.848 195.797 281.277 c 196.129 185.922
 l 198.375 185.762 200.605 185.473 202.816 185.055 c 216.617 261.805 l 216.797
 262.801 217.078 263.777 217.457 264.715 c 215.824 270.484 l 214.047 276.727
 216.488 283.398 221.871 287.02 c 222 287.109 222.137 287.188 222.273 287.262
 c 227.324 289.961 231.652 282.691 226.871 279.535 c 224.738 278.082 223.773
 275.422 224.48 272.938 c 224.578 272.59 l 229.738 275.781 l 231.586 276.922
 232.672 278.969 232.59 281.137 c 232.039 295.027 l 231.941 297.512 233.875
 299.605 236.355 299.703 c 236.539 299.703 l 238.953 299.699 240.938 297.793
 241.031 295.379 c 241.582 281.488 l 241.789 276.078 239.074 270.973 234.473
 268.125 c 228.23 264.266 l 226.781 263.367 225.777 261.895 225.473 260.215
 c 211.535 182.688 l 212.566 182.316 213.582 181.922 214.59 181.496 c 241.004
 237.691 l 241.395 238.52 241.863 239.309 242.398 240.055 c 242.016 245.727
 l 241.57 252.184 245.32 258.195 251.312 260.637 c 256.797 262.945 260.316
 254.77 254.871 252.371 c 254.828 252.352 254.781 252.332 254.734 252.312
 c 252.328 251.34 250.816 248.926 250.996 246.332 c 251.02 245.977 l 256.73
 248.031 l 258.77 248.766 260.258 250.543 260.621 252.68 c 262.957 266.391
 l 263.324 268.551 265.195 270.133 267.387 270.133 c 267.641 270.133 267.898
 270.113 268.148 270.07 c 270.598 269.652 272.246 267.328 271.828 264.879
 c 269.492 251.168 l 268.582 245.832 264.871 241.402 259.777 239.562 c 252.559
 236.965 l 251.055 236.426 249.828 235.309 249.152 233.863 c 222.594 177.367
 l 224.293 176.316 225.938 175.188 227.523 173.973 c 279.977 241.531 l 281.258
 254.109 l 281.453 256.043 282.871 257.629 284.77 258.047 c 292.207 259.684
 l 294.633 260.219 297.035 258.684 297.566 256.254 c 298.102 253.828 296.566
 251.426 294.141 250.891 c 289.883 249.957 l 289.402 245.27 l 298.832 246.953
 l 304.609 263.387 l 306.598 269.047 315.09 266.066 313.098 260.402 c 306.457
 241.492 l 305.918 239.961 304.598 238.84 303 238.555 c 286.816 235.664 
l 234.27 167.984 l 235.742 166.469 237.137 164.875 238.445 163.215 c 317.148
 224.238 l 317.668 224.633 318.211 224.996 318.777 225.32 c 320.188 230.219
 l 321.973 236.453 327.566 240.832 334.051 241.07 c 334.23 241.07 l 340.23
 241.168 340.375 232.168 334.375 232.07 c 331.785 231.965 329.551 230.211
 328.84 227.719 c 328.738 227.371 l 334.809 227.359 l 334.82 227.359 l 336.984
 227.363 338.98 228.523 340.051 230.406 c 346.922 242.5 l 348.137 244.691
 350.902 245.465 353.078 244.23 c 355.254 242.996 356.004 240.219 354.746
 238.059 c 347.875 225.961 l 345.207 221.266 340.223 218.363 334.82 218.359
 c 334.789 218.359 l 326.367 218.375 l 326.355 218.375 l 325.02 218.375 
323.723 217.93 322.668 217.113 c 243.504 155.75 l 244.129 154.668 244.715
 153.566 245.277 152.445 c 335.523 193.469 l 336.117 193.734 336.73 193.961
 337.355 194.145 c 339.859 198.59 l 342.516 203.312 347.52 206.234 352.941
 206.223 c 353.941 206.223 354.938 206.125 355.918 205.93 c 355.93 205.93
 l 361.805 204.715 359.98 195.902 354.105 197.117 c 351.555 197.625 348.973
 196.438 347.699 194.172 c 347.523 193.855 l 353.426 192.445 l 355.531 191.941
 357.75 192.613 359.227 194.195 c 368.707 204.383 l 372.793 208.777 379.383
 202.645 375.293 198.254 c 365.816 188.066 l 362.125 184.109 356.594 182.438
 351.332 183.691 c 343.137 185.652 l 341.836 185.957 340.469 185.828 339.25
 185.277 c 248.723 144.121 l 249.426 142.008 250.02 139.855 250.496 137.68
 c 291.34 147.148 l 292.172 147.336 293.016 147.449 293.863 147.492 c 297.863
 151.312 l 302.551 155.797 309.594 156.758 315.312 153.695 c 315.324 153.688
 l 320.531 150.824 316.324 142.996 311.062 145.762 c 308.773 146.988 305.953
 146.602 304.078 144.801 c 303.816 144.551 l 309.051 141.484 l 310.922 140.395
 313.238 140.391 315.109 141.477 c 327.145 148.469 l 329.297 149.73 332.059
 149 333.312 146.848 c 334.562 144.691 333.824 141.93 331.668 140.688 c 
319.633 133.695 l 314.949 130.98 309.172 130.992 304.5 133.727 c 297.703
 137.703 l 296.391 138.477 294.836 138.719 293.352 138.383 c 251.801 128.75
 l 251.922 127.145 252.004 125.523 252.004 123.891 c 252.004 89.59 225.086
 61.688 192.004 61.688 c 158.918 61.688 132.004 89.59 132.004 123.891 c 
132.004 125.59 132.086 127.273 132.215 128.941 c 88.352 138.906 l 79.5 133.727
 l 74.828 130.996 69.051 130.988 64.371 133.699 c 52.336 140.691 l 47.148
 143.707 51.672 151.488 56.859 148.477 c 68.895 141.484 l 70.766 140.395
 73.082 140.398 74.953 141.492 c 80.188 144.559 l 79.926 144.809 l 78.043
 146.605 75.219 146.992 72.926 145.758 c 72.918 145.754 l 67.613 142.945
 63.402 150.902 68.707 153.707 c 74.422 156.766 81.457 155.801 86.141 151.316
 c 89.82 147.801 l 133.547 137.867 l 134.016 139.984 134.594 142.07 135.277
 144.125 c 44.75 185.281 l 43.531 185.832 42.164 185.965 40.863 185.656 
c 32.668 183.695 l 27.406 182.441 21.875 184.113 18.184 188.07 c 8.707 198.258
 l 6.027 201.133 8.07 205.82 12 205.82 c h
192 70.688 m 220.125 70.688 243 94.551 243 123.887 c 243 153.223 220.125
 177.09 192 177.09 c 163.875 177.09 141 153.223 141 123.887 c 141 94.555
 163.879 70.688 192 70.688 c h
192 70.688 m f
Q Q
showpage
%%Trailer
end
%%EOF
