%!PS-Adobe-3.0 EPSF-3.0
%%Creator: cairo 1.16.0 (https://cairographics.org)
%%CreationDate: Mon Dec 14 10:17:20 2020
%%Pages: 1
%%DocumentData: Clean7Bit
%%LanguageLevel: 2
%%BoundingBox: 26 7 358 377
%%EndComments
%%BeginProlog
50 dict begin
/q { gsave } bind def
/Q { grestore } bind def
/cm { 6 array astore concat } bind def
/w { setlinewidth } bind def
/J { setlinecap } bind def
/j { setlinejoin } bind def
/M { setmiterlimit } bind def
/d { setdash } bind def
/m { moveto } bind def
/l { lineto } bind def
/c { curveto } bind def
/h { closepath } bind def
/re { exch dup neg 3 1 roll 5 3 roll moveto 0 rlineto
      0 exch rlineto 0 rlineto closepath } bind def
/S { stroke } bind def
/f { fill } bind def
/f* { eofill } bind def
/n { newpath } bind def
/W { clip } bind def
/W* { eoclip } bind def
/BT { } bind def
/ET { } bind def
/BDC { mark 3 1 roll /BDC pdfmark } bind def
/EMC { mark /EMC pdfmark } bind def
/cairo_store_point { /cairo_point_y exch def /cairo_point_x exch def } def
/Tj { show currentpoint cairo_store_point } bind def
/TJ {
  {
    dup
    type /stringtype eq
    { show } { -0.001 mul 0 cairo_font_matrix dtransform rmoveto } ifelse
  } forall
  currentpoint cairo_store_point
} bind def
/cairo_selectfont { cairo_font_matrix aload pop pop pop 0 0 6 array astore
    cairo_font exch selectfont cairo_point_x cairo_point_y moveto } bind def
/Tf { pop /cairo_font exch def /cairo_font_matrix where
      { pop cairo_selectfont } if } bind def
/Td { matrix translate cairo_font_matrix matrix concatmatrix dup
      /cairo_font_matrix exch def dup 4 get exch 5 get cairo_store_point
      /cairo_font where { pop cairo_selectfont } if } bind def
/Tm { 2 copy 8 2 roll 6 array astore /cairo_font_matrix exch def
      cairo_store_point /cairo_font where { pop cairo_selectfont } if } bind def
/g { setgray } bind def
/rg { setrgbcolor } bind def
/d1 { setcachedevice } bind def
/cairo_data_source {
  CairoDataIndex CairoData length lt
    { CairoData CairoDataIndex get /CairoDataIndex CairoDataIndex 1 add def }
    { () } ifelse
} def
/cairo_flush_ascii85_file { cairo_ascii85_file status { cairo_ascii85_file flushfile } if } def
/cairo_image { image cairo_flush_ascii85_file } def
/cairo_imagemask { imagemask cairo_flush_ascii85_file } def
%%EndProlog
%%BeginSetup
%%EndSetup
%%Page: 1 1
%%BeginPageSetup
%%PageBoundingBox: 26 7 358 377
%%EndPageSetup
q 26 7 332 370 rectclip
1 0 0 -1 0 384 cm q
0.427451 0.427451 0.576471 rg
30.75 352.68 322.5 19.32 re f
0.560784 0.560784 0.717647 rg
324.555 326.805 m 59.445 326.805 l 43.598 326.805 30.75 337.371 30.75 350.398
 c 30.75 352.68 l 353.25 352.68 l 353.25 350.398 l 353.25 337.371 340.402
 326.805 324.555 326.805 c h
324.555 326.805 m f
0.580392 0.564706 0.6 rg
304.973 12 m 79.027 12 l 69.902 12.004 62.508 19.406 62.512 28.531 c 62.512
 310.461 l 62.512 319.582 70.809 327.398 79.922 327.422 c 79.965 327.422
 l 305.129 327.426 l 305.184 327.426 l 314.289 327.398 321.488 319.582 321.488
 310.461 c 321.488 28.531 l 321.492 19.406 314.098 12.004 304.973 12 c h
304.973 12 m f
0.490196 0.52549 0.588235 rg
289.672 39.578 m 94.328 39.578 l 91.941 39.578 89.652 40.527 87.965 42.215
 c 86.277 43.902 85.328 46.191 85.328 48.578 c 85.328 290.422 l 85.328 295.395
 89.355 299.422 94.328 299.422 c 282.141 299.422 l 286.527 299.422 290.73
 297.684 293.832 294.582 c 296.934 291.48 298.672 287.277 298.672 282.891
 c 298.672 48.578 l 298.672 46.191 297.723 43.902 296.035 42.215 c 294.348
 40.527 292.059 39.578 289.672 39.578 c h
289.672 39.578 m f
0.85098 0.733333 0.294118 rg
222.137 116.176 m 200.961 137.676 178.418 132.48 164.363 125.445 c 159.324
 122.957 154.621 119.844 150.367 116.176 c 150.367 116.176 182.324 71.203
 222.137 116.176 c h
222.137 116.176 m f
0.372549 0.658824 0.929412 rg
208.387 306.871 m 208.387 329.152 l 208.387 333.293 205.031 336.652 200.887
 336.652 c 183.113 336.652 l 178.969 336.652 175.613 333.293 175.613 329.152
 c 175.613 306.871 l 175.613 297.82 182.949 290.484 192 290.484 c 201.051
 290.484 208.387 297.82 208.387 306.871 c h
208.387 306.871 m f
0.27451 0.537255 0.827451 rg
159.227 290.484 m 159.219 290.484 l 154.871 290.48 150.699 292.203 147.625
 295.277 c 144.551 298.352 142.828 302.523 142.828 306.871 c 142.828 329.152
 l 142.828 333.293 146.188 336.652 150.328 336.652 c 168.113 336.652 l 172.254
 336.652 175.613 333.293 175.613 329.152 c 175.613 306.871 l 175.609 297.82
 168.273 290.484 159.227 290.484 c h
159.227 290.484 m f
239.496 299.648 m 236.742 294.035 231.035 290.48 224.781 290.484 c 224.773
 290.484 l 215.727 290.484 208.391 297.82 208.387 306.871 c 208.387 329.152
 l 208.387 333.293 211.746 336.652 215.887 336.652 c 233.672 336.652 l 237.812
 336.652 241.172 333.293 241.172 329.152 c 241.172 306.871 l 241.176 304.367
 240.602 301.895 239.496 299.648 c h
239.496 299.648 m f
0.368627 0.368627 0.498039 rg
30.75 352.68 22.5 19.32 re f
0.498039 0.498039 0.639216 rg
81.945 326.805 m 59.445 326.805 l 43.598 326.805 30.75 337.371 30.75 350.398
 c 30.75 352.68 l 53.25 352.68 l 53.25 350.398 l 53.25 337.371 66.098 326.805
 81.945 326.805 c h
81.945 326.805 m f
0.419608 0.45098 0.498039 rg
94.328 299.422 m 116.828 299.422 l 111.855 299.422 107.828 295.395 107.828
 290.422 c 107.828 48.578 l 107.828 43.605 111.855 39.578 116.828 39.578
 c 94.328 39.578 l 89.355 39.578 85.328 43.605 85.328 48.578 c 85.328 290.422
 l 85.328 295.395 89.355 299.422 94.328 299.422 c h
94.328 299.422 m f
0.156863 0.258824 0.407843 rg
137.285 91.352 m 138.465 91.352 139.598 90.887 140.438 90.062 c 140.656
 89.844 162.824 68.449 189.703 69.238 c 204.25 69.68 217.684 76.621 229.637
 89.863 c 230.492 90.809 231.703 91.348 232.977 91.348 c 246.711 91.348 
l 252.711 91.348 252.711 82.348 246.711 82.348 c 234.953 82.348 l 221.625
 68.184 206.5 60.75 189.977 60.246 c 159.289 59.336 135.148 82.648 134.133
 83.645 c 131.258 86.469 133.258 91.355 137.285 91.355 c h
137.285 91.352 m f
175.492 230.355 m 170.906 235.426 l 165.996 230.27 l 164.34 228.527 161.602
 228.398 159.785 229.977 c 153.152 235.738 l 148.348 230.371 l 146.676 228.508
 143.805 228.363 141.957 230.051 c 135.957 235.527 l 131.816 230.508 l 130.246
 228.559 127.383 228.27 125.449 229.863 c 123.52 231.457 123.258 234.32 
124.875 236.238 c 132.027 244.906 l 133.668 246.895 136.633 247.102 138.535
 245.367 c 144.668 239.762 l 149.402 245.047 l 151.043 246.879 153.852 247.055
 155.707 245.441 c 162.438 239.59 l 167.727 245.145 l 168.574 246.039 169.754
 246.543 170.984 246.543 c 171.043 246.543 l 172.293 246.527 173.484 245.988
 174.324 245.062 c 182.164 236.391 l 183.867 234.551 183.738 231.676 181.879
 229.996 c 180.02 228.316 177.148 228.477 175.488 230.355 c h
175.492 230.355 m f
239.266 239.59 m 244.551 245.145 l 245.398 246.039 246.578 246.543 247.809
 246.543 c 247.867 246.543 l 249.121 246.527 250.309 245.992 251.148 245.062
 c 258.988 236.391 l 260.691 234.551 260.562 231.676 258.703 229.996 c 256.844
 228.316 253.973 228.477 252.312 230.355 c 247.727 235.426 l 242.816 230.27
 l 241.16 228.527 238.422 228.395 236.605 229.973 c 229.973 235.738 l 225.168
 230.367 l 223.496 228.504 220.625 228.359 218.777 230.047 c 212.777 235.527
 l 208.637 230.508 l 207.066 228.543 204.195 228.246 202.258 229.844 c 200.316
 231.445 200.066 234.32 201.695 236.234 c 208.848 244.906 l 210.488 246.891
 213.453 247.102 215.355 245.363 c 221.488 239.758 l 226.223 245.043 l 227.863
 246.875 230.668 247.047 232.523 245.438 c h
239.266 239.59 m f
231.945 199.887 m 231.945 202.371 233.957 204.387 236.445 204.387 c 264.699
 204.387 l 270.699 204.387 270.699 195.387 264.699 195.387 c 236.445 195.387
 l 233.957 195.387 231.945 197.402 231.945 199.887 c h
231.945 199.887 m f
119.301 204.387 m 215.324 204.387 l 221.324 204.387 221.324 195.387 215.324
 195.387 c 119.301 195.387 l 113.301 195.387 113.301 204.387 119.301 204.387
 c h
119.301 204.387 m f
264.699 269.781 m 236.445 269.781 l 230.445 269.781 230.445 278.781 236.445
 278.781 c 264.699 278.781 l 270.699 278.781 270.699 269.781 264.699 269.781
 c h
264.699 269.781 m f
119.301 278.781 m 215.324 278.781 l 221.324 278.781 221.324 269.781 215.324
 269.781 c 119.301 269.781 l 113.301 269.781 113.301 278.781 119.301 278.781
 c h
119.301 278.781 m f
30.75 376.5 m 353.25 376.5 l 355.734 376.5 357.75 374.484 357.75 372 c 
357.75 351.148 l 357.75 335.66 342.859 323.059 324.582 323.059 c 322.02 
323.039 l 324.609 319.359 326 314.969 325.988 310.469 c 325.988 28.531 l
 325.98 16.926 316.574 7.516 304.969 7.5 c 79.031 7.5 l 67.426 7.516 58.02
 16.926 58.012 28.531 c 58.012 310.465 l 58.059 315.031 59.613 319.449 62.438
 323.035 c 59.445 323.059 l 41.141 323.059 26.25 335.66 26.25 351.148 c 
26.25 372 l 26.25 374.484 28.266 376.5 30.75 376.5 c h
67.012 28.531 m 67.016 21.895 72.391 16.512 79.031 16.5 c 304.969 16.5 
l 311.609 16.512 316.984 21.895 316.988 28.531 c 316.988 310.465 l 316.988
 317.215 311.559 322.926 305.133 322.926 c 245.668 322.527 l 245.668 306.871
 l 245.668 305.883 245.598 304.898 245.457 303.926 c 282.145 303.926 l 287.723
 303.926 293.07 301.707 297.016 297.766 c 300.961 293.82 303.176 288.469
 303.176 282.891 c 303.176 48.574 l 303.176 41.117 297.133 35.074 289.676
 35.074 c 94.324 35.074 l 86.867 35.074 80.824 41.117 80.824 48.574 c 80.824
 92.242 l 80.824 98.242 89.824 98.242 89.824 92.242 c 89.824 48.574 l 89.824
 46.09 91.84 44.074 94.324 44.074 c 289.676 44.074 l 292.16 44.074 294.176
 46.09 294.176 48.574 c 294.176 282.891 l 294.176 286.082 292.906 289.145
 290.652 291.398 c 288.395 293.656 285.336 294.926 282.145 294.926 c 241.898
 294.926 l 238.121 289.5 232 286.188 225.391 285.992 c 218.785 285.801 212.477
 288.75 208.391 293.941 c 204.438 288.918 198.395 285.984 192 285.984 c 
185.605 285.984 179.562 288.918 175.609 293.941 c 171.523 288.75 165.215
 285.801 158.609 285.992 c 152 286.188 145.875 289.5 142.102 294.926 c 94.324
 294.926 l 91.84 294.926 89.824 292.91 89.824 290.426 c 89.824 122.242 l
 89.824 116.242 80.824 116.242 80.824 122.242 c 80.824 290.426 l 80.824 
297.879 86.871 303.926 94.324 303.926 c 138.543 303.926 l 138.402 304.898
 138.332 305.883 138.332 306.871 c 138.332 322.527 l 79.965 322.918 l 73.188
 322.918 67.012 316.984 67.012 310.469 c h
236.668 306.871 m 236.668 329.145 l 236.668 330.801 235.324 332.145 233.668
 332.145 c 215.895 332.145 l 214.238 332.145 212.895 330.801 212.895 329.145
 c 212.895 306.871 l 213.02 300.395 218.305 295.211 224.781 295.211 c 231.258
 295.211 236.543 300.395 236.668 306.871 c h
203.895 306.871 m 203.895 329.145 l 203.895 330.801 202.551 332.145 200.895
 332.145 c 183.109 332.145 l 181.453 332.145 180.109 330.801 180.109 329.145
 c 180.109 306.871 l 180.109 300.305 185.434 294.98 192 294.98 c 198.566
 294.98 203.891 300.305 203.891 306.871 c h
171.113 306.871 m 171.113 329.145 l 171.113 330.801 169.77 332.145 168.113
 332.145 c 150.34 332.145 l 148.684 332.145 147.34 330.801 147.34 329.145
 c 147.34 306.871 l 147.465 300.395 152.75 295.211 159.227 295.211 c 165.703
 295.211 170.988 300.395 171.113 306.871 c h
59.477 332.059 m 138.566 331.527 l 139.707 337.121 144.621 341.141 150.328
 341.148 c 168.105 341.148 l 170.832 341.152 173.48 340.215 175.605 338.504
 c 177.727 340.215 180.375 341.148 183.105 341.148 c 200.883 341.148 l 203.613
 341.148 206.262 340.215 208.383 338.504 c 210.508 340.215 213.156 341.152
 215.883 341.148 c 233.66 341.148 l 239.367 341.141 244.281 337.121 245.422
 331.527 c 324.547 332.059 l 336.938 332.059 347.176 339.445 348.574 348.934
 c 35.418 348.934 l 36.816 339.445 47.059 332.059 59.477 332.059 c h
35.25 357.93 m 348.75 357.93 l 348.75 367.5 l 35.25 367.5 l h
35.25 357.93 m f
164.363 173.062 m 166.848 173.062 168.863 171.047 168.863 168.562 c 168.863
 132.324 l 169.918 132.723 170.996 133.102 172.105 133.453 c 174.188 134.109
 176.305 134.648 178.445 135.066 c 178.434 140.254 179.297 148.941 184.496
 155.117 c 188.199 159.52 193.32 161.891 199.719 162.164 c 201.543 162.238
 203.988 162.273 206.75 162.273 c 217.867 162.273 234.055 161.766 234.902
 161.738 c 237.387 161.656 239.336 159.582 239.258 157.098 c 239.18 154.613
 237.102 152.664 234.617 152.742 c 234.363 152.75 208.941 153.551 200.105
 153.172 c 196.285 153.008 193.441 151.758 191.402 149.348 c 188.402 145.801
 187.559 140.176 187.453 136.039 c 187.762 136.043 188.062 136.059 188.375
 136.059 c 199.305 136.059 211.812 132.383 223.945 120.715 c 234.676 120.926
 l 234.766 120.926 l 240.766 120.984 240.852 111.984 234.852 111.926 c 224.172
 111.719 l 211.285 97.719 197.707 91.004 183.789 91.746 c 161.617 92.93 
147.301 112.73 146.703 113.57 c 145.391 115.418 145.656 117.953 147.328 
119.488 c 151.172 122.836 155.379 125.746 159.867 128.168 c 159.867 168.562
 l 159.867 171.047 161.879 173.059 164.363 173.062 c h
156.723 115.547 m 161.273 110.543 171.277 101.422 184.266 100.73 c 194.777
 100.168 205.387 105.293 215.805 115.973 c 191.316 137.5 165.711 122.254
 156.723 115.547 c h
156.723 115.547 m f
Q Q
showpage
%%Trailer
end
%%EOF
