%!PS-Adobe-3.0 EPSF-3.0
%%Creator: cairo 1.16.0 (https://cairographics.org)
%%CreationDate: Mon Dec 14 10:17:22 2020
%%Pages: 1
%%DocumentData: Clean7Bit
%%LanguageLevel: 2
%%BoundingBox: 36 7 348 377
%%EndComments
%%BeginProlog
50 dict begin
/q { gsave } bind def
/Q { grestore } bind def
/cm { 6 array astore concat } bind def
/w { setlinewidth } bind def
/J { setlinecap } bind def
/j { setlinejoin } bind def
/M { setmiterlimit } bind def
/d { setdash } bind def
/m { moveto } bind def
/l { lineto } bind def
/c { curveto } bind def
/h { closepath } bind def
/re { exch dup neg 3 1 roll 5 3 roll moveto 0 rlineto
      0 exch rlineto 0 rlineto closepath } bind def
/S { stroke } bind def
/f { fill } bind def
/f* { eofill } bind def
/n { newpath } bind def
/W { clip } bind def
/W* { eoclip } bind def
/BT { } bind def
/ET { } bind def
/BDC { mark 3 1 roll /BDC pdfmark } bind def
/EMC { mark /EMC pdfmark } bind def
/cairo_store_point { /cairo_point_y exch def /cairo_point_x exch def } def
/Tj { show currentpoint cairo_store_point } bind def
/TJ {
  {
    dup
    type /stringtype eq
    { show } { -0.001 mul 0 cairo_font_matrix dtransform rmoveto } ifelse
  } forall
  currentpoint cairo_store_point
} bind def
/cairo_selectfont { cairo_font_matrix aload pop pop pop 0 0 6 array astore
    cairo_font exch selectfont cairo_point_x cairo_point_y moveto } bind def
/Tf { pop /cairo_font exch def /cairo_font_matrix where
      { pop cairo_selectfont } if } bind def
/Td { matrix translate cairo_font_matrix matrix concatmatrix dup
      /cairo_font_matrix exch def dup 4 get exch 5 get cairo_store_point
      /cairo_font where { pop cairo_selectfont } if } bind def
/Tm { 2 copy 8 2 roll 6 array astore /cairo_font_matrix exch def
      cairo_store_point /cairo_font where { pop cairo_selectfont } if } bind def
/g { setgray } bind def
/rg { setrgbcolor } bind def
/d1 { setcachedevice } bind def
/cairo_data_source {
  CairoDataIndex CairoData length lt
    { CairoData CairoDataIndex get /CairoDataIndex CairoDataIndex 1 add def }
    { () } ifelse
} def
/cairo_flush_ascii85_file { cairo_ascii85_file status { cairo_ascii85_file flushfile } if } def
/cairo_image { image cairo_flush_ascii85_file } def
/cairo_imagemask { imagemask cairo_flush_ascii85_file } def
%%EndProlog
%%BeginSetup
%%EndSetup
%%Page: 1 1
%%BeginPageSetup
%%PageBoundingBox: 36 7 348 377
%%EndPageSetup
q 36 7 312 370 rectclip
1 0 0 -1 0 384 cm q
0.290196 0.317647 0.376471 rg
159.586 297.367 m 54.211 297.691 l 52.766 297.695 51.375 297.125 50.352
 296.105 c 49.328 295.086 48.75 293.699 48.75 292.254 c 48.613 292.172 l
 38.695 308.336 38.285 328.602 47.539 345.16 c 56.793 361.715 74.273 371.98
 93.238 372 c 209.559 371.836 l h
159.586 297.367 m f
0.223529 0.247059 0.286275 rg
159.586 267.188 m 159.586 297.367 l 54.211 297.691 l 52.766 297.695 51.375
 297.125 50.352 296.105 c 49.328 295.086 48.75 293.699 48.75 292.254 c 48.613
 292.172 l 50.766 288.676 53.312 285.445 56.211 282.539 c 66.016 272.695
 79.344 267.168 93.238 267.188 c h
159.586 267.188 m f
310.281 293.484 m 310.238 293.844 l 308.527 293.605 306.805 293.488 305.078
 293.488 c 236.348 293.488 l 228.062 293.488 221.348 286.773 221.348 278.488
 c 221.348 267.188 l 284.004 267.188 l 298.52 267.191 310.285 278.965 310.281
 293.484 c h
310.281 293.484 m f
0.290196 0.317647 0.376471 rg
281.844 77.391 m 266.438 38.355 221.332 27.148 220.484 26.949 c 161.504
 27.586 l 161.504 27.586 114.996 37.906 99.988 77.391 c 96.359 86.934 94.574
 98.168 95.73 111.383 c 96.609 121.516 99.219 132.809 104.055 145.379 c 
112.801 168.113 128.828 195.031 155.086 226.836 c 227.348 229.051 l 254.348
 196.344 270.516 168.691 279.059 145.379 c 283.656 132.832 286.051 121.539
 286.734 111.383 c 287.617 98.211 285.629 86.961 281.844 77.391 c h
281.844 77.391 m f
0.356863 0.388235 0.447059 rg
63.375 319.598 m 63.367 312.02 65.008 304.527 68.184 297.648 c 54.211 297.691
 l 52.766 297.695 51.375 297.125 50.352 296.105 c 49.328 295.086 48.75 293.699
 48.75 292.254 c 48.652 292.191 l 48.613 292.172 l 38.695 308.336 38.285
 328.602 47.539 345.16 c 56.793 361.715 74.273 371.98 93.238 372 c 114.547
 371.969 l 86.09 371.316 63.367 348.059 63.375 319.598 c h
63.375 319.598 m f
0.270588 0.298039 0.337255 rg
54.211 297.691 m 68.184 297.648 l 69.055 295.766 70.031 293.938 71.113 
292.172 c 71.152 292.195 l 71.113 292.172 l 73.266 288.68 75.812 285.445
 78.711 282.543 c 88.516 272.699 101.844 267.172 115.738 267.191 c 93.238
 267.191 l 79.344 267.172 66.016 272.699 56.211 282.543 c 53.312 285.445
 50.766 288.68 48.613 292.172 c 48.75 292.254 l 48.75 293.699 49.328 295.086
 50.352 296.105 c 51.375 297.125 52.766 297.695 54.211 297.691 c h
54.211 297.691 m f
0.235294 0.262745 0.298039 rg
118.23 111.383 m 117.074 98.168 118.859 86.934 122.488 77.391 c 137.496
 37.906 184.004 27.586 184.004 27.586 c 161.504 27.586 l 161.504 27.586 
114.996 37.906 99.988 77.391 c 96.359 86.934 94.574 98.168 95.73 111.383
 c 96.609 121.516 99.219 132.809 104.055 145.379 c 112.801 168.113 128.828
 195.031 155.086 226.836 c 177.586 226.836 l 151.328 195.031 135.301 168.113
 126.555 145.379 c 121.719 132.809 119.109 121.516 118.23 111.383 c h
118.23 111.383 m f
0.427451 0.454902 0.52549 rg
310.238 293.844 m 308.527 293.605 306.805 293.488 305.078 293.488 c 242.348
 293.488 l 234.062 293.488 227.348 286.773 227.348 278.488 c 227.348 48.156
 l 227.359 40.539 224.957 33.113 220.484 26.949 c 220.48 26.941 220.477 
26.941 220.469 26.941 c 211.281 14.254 194.961 8.938 180.062 13.77 c 165.16
 18.605 155.074 32.492 155.086 48.156 c 155.086 313.059 l 155.078 343.883
 178.824 369.504 209.559 371.836 c 211.02 371.949 212.488 372 213.984 372
 c 303.906 372 l 314.344 371.984 324.344 367.812 331.703 360.414 c 339.059
 353.012 343.168 342.984 343.125 332.551 c 343.125 331.566 l 343.133 312.539
 329.09 296.43 310.238 293.844 c h
310.238 293.844 m f
0.85098 0.733333 0.294118 rg
155.086 179.109 72.262 29.285 re f
0.933333 0.686275 0.258824 rg
155.086 148.441 72.262 30.668 re f
0.85098 0.733333 0.294118 rg
220.484 26.949 m 220.48 26.941 220.477 26.941 220.469 26.941 c 212.371 
15.77 198.617 10.188 185.023 12.551 c 171.43 14.918 160.371 24.812 156.516
 38.062 c 225.613 37.066 l 224.449 33.445 222.719 30.027 220.484 26.949 
c h
220.484 26.949 m f
227.348 87.105 m 227.348 148.441 l 155.086 148.441 l 155.086 87.105 l 183.352
 119.289 l 185.059 121.23 187.523 122.348 190.109 122.348 c 195.871 122.348
 l 198.668 122.348 201.309 121.043 203.012 118.824 c h
227.348 87.105 m f
0.921569 0.447059 0.533333 rg
202.914 37.066 m 202.941 37.395 202.957 37.727 202.957 38.062 c 202.957
 44.469 197.625 60.254 191.219 60.254 c 184.816 60.254 179.762 44.469 179.762
 38.062 c 179.762 31.855 184.656 26.75 190.859 26.48 c 197.062 26.215 202.375
 30.879 202.914 37.066 c h
202.914 37.066 m f
0.156863 0.258824 0.407843 rg
206.133 232.922 m 180.375 232.922 l 174.375 232.922 174.375 241.922 180.375
 241.922 c 206.133 241.922 l 212.133 241.922 212.133 232.922 206.133 232.922
 c h
206.133 232.922 m f
314.586 290.074 m 312.836 274.5 299.68 262.715 284.004 262.688 c 231.848
 262.688 l 231.848 230.66 l 281.84 169.699 300.539 118.848 287.406 79.508
 c 286.969 78.195 286.5 76.914 286.004 75.664 c 286 75.656 285.996 75.645
 285.992 75.633 c 271.227 38.297 231.574 25.355 223.078 22.977 c 215.305
 13.094 203.387 7.379 190.812 7.5 c 178.242 7.625 166.438 13.574 158.859
 23.605 c 150.043 25.926 110.117 38.328 95.852 75.625 c 95.844 75.645 95.836
 75.664 95.828 75.684 c 95.539 76.434 95.262 77.195 94.996 77.969 c 81.699
 116.641 100.406 167.266 150.586 228.449 c 150.586 262.688 l 93.238 262.688
 l 61.809 262.691 36.336 288.168 36.336 319.598 c 36.34 351.027 61.816 376.5
 93.246 376.5 c 209.562 376.336 l 211.027 376.434 212.5 376.504 213.984 
376.504 c 303.91 376.504 l 328.105 376.41 347.664 356.75 347.625 332.551
 c 347.625 331.566 l 347.602 311.734 333.91 294.539 314.586 290.074 c h
284.004 271.688 m 294.301 271.707 303.184 278.922 305.312 288.996 c 305.234
 288.996 305.156 288.988 305.078 288.988 c 242.344 288.988 l 236.551 288.984
 231.852 284.285 231.844 278.488 c 231.844 271.691 l h
274.84 72.891 m 253.801 72.891 l 247.801 72.891 247.801 81.891 253.801 
81.891 c 278.699 81.891 l 278.762 82.07 278.828 82.242 278.887 82.422 c 
281.445 90.316 282.633 98.59 282.395 106.887 c 257.684 106.887 l 251.684
 106.887 251.684 115.887 257.684 115.887 c 281.789 115.887 l 280.816 123.672
 279.074 131.34 276.586 138.781 c 276.363 139.48 276.121 140.18 275.879 
140.883 c 250.891 140.883 l 244.891 140.883 244.891 149.883 250.891 149.883
 c 272.477 149.883 l 264.113 170.176 250.5 192.422 231.848 216.27 c 231.848
 48.16 l 231.848 43.605 231.078 39.086 229.574 34.789 c 242.242 39.91 263.562
 51.309 274.84 72.891 c h
191.219 16.5 m 202.609 16.512 213.121 22.648 218.727 32.566 c 206.465 32.566
 l 204.094 26.023 197.781 21.746 190.824 21.977 c 183.867 22.203 177.848
 26.879 175.91 33.566 c 163.16 33.566 l 168.598 23.09 179.414 16.512 191.219
 16.5 c h
198.453 38.066 m 198.453 44.105 193.719 54.754 191.223 55.73 c 188.758 
54.723 184.258 44.238 184.258 38.066 c 184.258 36.184 185.004 34.379 186.336
 33.047 c 187.668 31.715 189.473 30.965 191.355 30.965 c 195.277 30.965 
198.453 34.145 198.453 38.066 c h
159.586 70.09 m 166.023 70.09 l 170.449 70.09 174.367 72.676 175.332 76.242
 c 175.371 76.379 l 175.988 78.816 178.48 80.273 180.91 79.617 c 183.336
 78.961 184.754 76.441 184.055 74.023 c 184.02 73.887 l 181.977 66.352 174.578
 61.09 166.023 61.09 c 159.586 61.09 l 159.586 48.16 l 159.59 46.281 159.758
 44.41 160.09 42.566 c 175.703 42.566 l 176.375 46.273 177.465 49.895 178.957
 53.355 c 183.055 62.777 187.883 64.758 191.219 64.758 c 200.402 64.758 
205.812 50.027 207.133 41.566 c 222.148 41.566 l 222.613 43.734 222.844 
45.945 222.844 48.16 c 222.844 61.09 l 216.328 61.09 l 207.781 61.09 200.379
 66.352 198.336 73.887 c 198.301 74.023 l 197.621 76.434 199.039 78.934 
201.453 79.59 c 203.867 80.242 206.355 78.801 206.984 76.379 c 207.023 76.242
 l 207.988 72.676 211.902 70.09 216.328 70.09 c 222.848 70.09 l 222.848 
85.574 l 199.441 116.086 l 198.586 117.191 197.27 117.844 195.871 117.848
 c 190.113 117.848 l 188.816 117.848 187.586 117.289 186.73 116.316 c 159.586
 85.406 l h
159.586 99.047 m 179.969 122.258 l 182.531 125.172 186.227 126.848 190.113
 126.848 c 195.871 126.848 l 200.066 126.836 204.02 124.883 206.582 121.562
 c 222.848 100.363 l 222.848 143.938 l 159.586 143.938 l h
159.586 183.605 m 164.758 183.605 l 170.758 183.605 170.758 174.605 164.758
 174.605 c 159.586 174.605 l 159.586 152.938 l 222.848 152.938 l 222.848
 174.605 l 194.758 174.605 l 188.758 174.605 188.758 183.605 194.758 183.605
 c 222.848 183.605 l 222.848 203.898 l 159.586 203.898 l h
110.754 149.879 m 126.996 149.879 l 132.996 149.879 132.996 140.879 126.996
 140.879 c 107.18 140.879 l 106.656 139.438 106.156 138.004 105.691 136.586
 c 103.438 129.844 101.797 122.918 100.789 115.883 c 120.203 115.883 l 126.203
 115.883 126.203 106.883 120.203 106.883 c 99.953 106.883 l 99.535 98.426
 100.629 89.961 103.188 81.891 c 124.082 81.891 l 130.082 81.891 130.082
 72.891 124.082 72.891 c 106.906 72.891 l 118.062 51.027 140.023 39.914 
152.746 35.09 c 151.312 39.297 150.582 43.711 150.582 48.16 c 150.582 214.062
 l 132.535 191.008 119.195 169.508 110.754 149.879 c h
93.238 367.5 m 74.504 367.477 57.5 356.531 49.715 339.488 c 51.07 339.531
 l 51.203 339.531 l 57.203 339.617 57.332 330.617 51.332 330.531 c 46.617
 330.391 l 44.32 320.523 45.223 310.176 49.191 300.852 c 49.328 300.934 
49.461 301.02 49.602 301.094 c 51.016 301.836 52.594 302.211 54.191 302.188
 c 54.227 302.188 l 70.008 302.137 l 72.492 302.129 74.5 300.105 74.492 
297.621 c 74.484 295.137 72.465 293.129 69.98 293.137 c 54.195 293.188 l
 53.945 293.188 53.707 293.09 53.527 292.914 c 53.516 292.898 l 62.395 279.648
 77.293 271.691 93.242 271.684 c 150.59 271.684 l 150.59 292.879 l 99.98
 293.039 l 97.5 293.047 95.492 295.059 95.492 297.539 c 95.492 300.031 97.516
 302.047 100.008 302.039 c 150.59 301.879 l 150.59 313.051 l 150.543 329.887
 157.227 346.039 169.156 357.914 c 172.773 361.539 176.816 364.715 181.191
 367.375 c h
335.07 331.871 m 338.625 331.973 l 338.625 332.551 l 338.668 351.781 323.137
 367.414 303.906 367.5 c 213.98 367.5 l 199.547 367.492 185.707 361.754 
175.504 351.543 c 165.305 341.332 159.578 327.484 159.586 313.051 c 159.586
 212.898 l 222.844 212.898 l 222.844 278.484 l 222.855 289.25 231.578 297.973
 242.344 297.984 c 305.078 297.984 l 320.285 298.012 333.582 308.242 337.5
 322.938 c 335.336 322.875 l 329.336 322.699 329.074 331.699 335.074 331.875
 c h
335.07 331.871 m f
Q Q
showpage
%%Trailer
end
%%EOF
