%!PS-Adobe-3.0 EPSF-3.0
%%Creator: cairo 1.16.0 (https://cairographics.org)
%%CreationDate: Mon Dec 14 10:17:24 2020
%%Pages: 1
%%DocumentData: Clean7Bit
%%LanguageLevel: 2
%%BoundingBox: 7 51 377 333
%%EndComments
%%BeginProlog
50 dict begin
/q { gsave } bind def
/Q { grestore } bind def
/cm { 6 array astore concat } bind def
/w { setlinewidth } bind def
/J { setlinecap } bind def
/j { setlinejoin } bind def
/M { setmiterlimit } bind def
/d { setdash } bind def
/m { moveto } bind def
/l { lineto } bind def
/c { curveto } bind def
/h { closepath } bind def
/re { exch dup neg 3 1 roll 5 3 roll moveto 0 rlineto
      0 exch rlineto 0 rlineto closepath } bind def
/S { stroke } bind def
/f { fill } bind def
/f* { eofill } bind def
/n { newpath } bind def
/W { clip } bind def
/W* { eoclip } bind def
/BT { } bind def
/ET { } bind def
/BDC { mark 3 1 roll /BDC pdfmark } bind def
/EMC { mark /EMC pdfmark } bind def
/cairo_store_point { /cairo_point_y exch def /cairo_point_x exch def } def
/Tj { show currentpoint cairo_store_point } bind def
/TJ {
  {
    dup
    type /stringtype eq
    { show } { -0.001 mul 0 cairo_font_matrix dtransform rmoveto } ifelse
  } forall
  currentpoint cairo_store_point
} bind def
/cairo_selectfont { cairo_font_matrix aload pop pop pop 0 0 6 array astore
    cairo_font exch selectfont cairo_point_x cairo_point_y moveto } bind def
/Tf { pop /cairo_font exch def /cairo_font_matrix where
      { pop cairo_selectfont } if } bind def
/Td { matrix translate cairo_font_matrix matrix concatmatrix dup
      /cairo_font_matrix exch def dup 4 get exch 5 get cairo_store_point
      /cairo_font where { pop cairo_selectfont } if } bind def
/Tm { 2 copy 8 2 roll 6 array astore /cairo_font_matrix exch def
      cairo_store_point /cairo_font where { pop cairo_selectfont } if } bind def
/g { setgray } bind def
/rg { setrgbcolor } bind def
/d1 { setcachedevice } bind def
/cairo_data_source {
  CairoDataIndex CairoData length lt
    { CairoData CairoDataIndex get /CairoDataIndex CairoDataIndex 1 add def }
    { () } ifelse
} def
/cairo_flush_ascii85_file { cairo_ascii85_file status { cairo_ascii85_file flushfile } if } def
/cairo_image { image cairo_flush_ascii85_file } def
/cairo_imagemask { imagemask cairo_flush_ascii85_file } def
%%EndProlog
%%BeginSetup
%%EndSetup
%%Page: 1 1
%%BeginPageSetup
%%PageBoundingBox: 7 51 377 333
%%EndPageSetup
q 7 51 370 282 rectclip
1 0 0 -1 0 384 cm q
0.666667 0.501961 0.427451 rg
148.809 175.02 m 146.781 198.969 l 161.406 205.281 l 165.473 194.949 171.301
 189.219 171.301 189.219 c 160.566 184.207 153.457 179.391 148.809 175.02
 c h
148.809 175.02 m f
300.555 187.004 m 300.547 187.004 l 299.543 190.18 298.859 193.449 298.516
 196.762 c 269.488 196.762 l 268.723 193.434 268.66 189.977 269.309 186.621
 c 272.168 171.773 l 280.988 164.852 287.504 155.152 288.441 142.891 c 299.918
 184.98 l 300.105 185.664 300.316 186.336 300.555 187.004 c h
300.555 187.004 m f
0.780392 0.603922 0.513726 rg
366.496 286.891 m 361.688 276.383 358.836 256.344 359.07 240.426 c 359.184
 230.789 356.465 221.328 351.254 213.219 c 337.559 191.715 l 335.777 188.949
 334.176 186.066 332.766 183.09 c 330.809 179.02 329.426 174.695 328.656
 170.242 c 328.379 168.59 328.191 166.922 328.094 165.246 c 327.18 149.691
 325.305 124.547 322.469 117.996 c 321.977 116.938 321.375 115.938 320.672
 115.004 c 317.488 110.617 311.34 104.676 305.086 99.121 c 301.02 95.504
 296.918 92.055 293.551 89.289 c 289.051 85.582 285.863 83.109 285.863 83.109
 c 253.176 61.973 l 250.418 60.188 l 241.426 54.375 229.703 55.051 221.438
 61.859 c 221.438 61.867 l 221.363 61.922 221.297 61.98 221.219 62.039 c
 199.559 80.316 l 192.984 85.812 185.316 89.852 177.066 92.168 c 174.68 
92.84 172.371 93.75 170.168 94.891 c 163.027 98.602 160.297 103.262 160.297
 103.262 c 159.602 104.398 158.898 105.5 158.191 106.559 c 142.035 130.875
 124.379 134.871 112.207 130.125 c 107.125 128.164 102.836 124.578 100.004
 119.926 c 98.16 116.914 97.125 113.477 97.004 109.949 c 96.613 93.758 89.609
 84.562 86.82 81.531 c 86.133 80.777 85.895 79.719 86.191 78.742 c 91.785
 64.492 l 92.406 62.91 91.438 61.152 89.766 60.832 c 89.715 60.824 l 89.07
 60.699 88.402 60.809 87.832 61.141 c 77.211 67.238 l 75.77 68.066 74.199
 68.66 72.57 69 c 60.434 71.551 l 56.758 72.559 52.941 72.984 49.133 72.809
 c 29.086 71.887 l 26.598 71.773 24.293 73.184 23.266 75.449 c 22.305 77.281
 21.176 79.016 19.891 80.633 c 18.336 82.68 16.484 84.914 14.723 86.852 
c 12.391 89.414 5.91 109.223 27.848 102.496 c 31.59 100.281 36.152 99.945
 40.176 101.586 c 42.414 102.496 l 43.871 103.074 45.258 103.824 46.539 
104.73 c 52.281 108.594 62.941 118.484 71.227 141.93 c 72.684 146.047 77.617
 152.574 84.781 159.156 c 99.961 173.109 125.16 187.297 148.449 179.219 
c 148.453 179.219 l 171.301 189.219 l 172.828 189.938 174.426 190.656 176.109
 191.379 c 180.426 207.262 l 183.645 219.074 l 188.641 237.422 l 189.188
 239.453 190.148 241.352 191.461 243 c 195.441 248.012 l 197.113 250.109
 198.211 252.605 198.621 255.254 c 202.238 278.355 l 202.371 279.172 202.215
 280.012 201.797 280.727 c 200.281 283.328 196.703 290.047 197.469 294.254
 c 197.695 295.625 197.094 297 195.938 297.766 c 193.363 299.504 189.336
 302.707 186.832 307.059 c 185.352 309.738 187.309 313.023 190.371 312.996
 c 213.504 312.996 l 214.742 313 215.914 312.434 216.684 311.461 c 219.969
 307.336 227.836 295.508 221.535 283.531 c 217.973 276.766 214.59 263.723
 211.957 251.52 c 211.172 247.867 210.098 244.027 208.926 240.316 c 206.387
 232.242 204.672 223.934 203.812 215.512 c 203.406 211.453 203.203 207.387
 203.199 203.309 c 203.203 197.938 203.574 192.566 204.316 187.246 c 204.809
 187.102 222.219 182.012 225.773 183.09 c 238.184 186.855 258.098 182.828
 272.168 171.773 c 280.988 164.852 287.504 155.152 288.441 142.891 c 299.918
 184.98 l 300.105 185.664 300.316 186.336 300.555 187.004 c 301.902 190.793
 304.043 194.25 306.832 197.145 c 330.797 221.984 l 335.137 226.496 338.293
 232.012 339.977 238.043 c 348.254 267.773 l 348.719 269.445 348.324 271.238
 347.203 272.566 c 342.473 278.184 341.859 283.379 342.246 286.898 c 342.523
 289.266 341.152 291.516 338.926 292.359 c 333.969 294.148 331.32 299.023
 329.926 303.188 c 328.844 306.523 331.34 309.938 334.844 309.922 c 355.191
 309.922 l 357.281 309.922 359.164 308.668 359.969 306.742 c 366.547 290.961
 l 367.102 289.656 367.082 288.18 366.496 286.891 c h
366.496 286.891 m f
300.773 229.582 m 299.109 222.82 298.172 215.898 297.969 208.934 c 297.84
 204.871 298.023 200.801 298.516 196.762 c 269.488 196.762 l 269.742 197.855
 270.066 198.93 270.465 199.98 c 273.855 208.934 l 277.906 219.645 l 279.582
 224.07 279.949 228.887 278.953 233.512 c 270.164 274.516 l 270.164 274.516
 258.766 277.215 263.656 289.641 c 263.656 289.641 253.695 295.191 251.137
 305.496 c 250.473 308.277 252.586 310.945 255.441 310.934 c 274.949 310.934
 l 276.508 310.934 277.949 310.117 278.754 308.781 c 286.102 296.461 l 287.68
 293.789 288.379 290.691 288.105 287.602 c 287.094 275.805 289.934 249 299.297
 236.887 c 300.871 234.801 301.414 232.117 300.773 229.582 c h
300.773 229.582 m f
143.934 212.258 m 142.879 215.277 141.562 218.199 140.004 220.988 c 135.754
 228.438 133.633 236.91 133.859 245.484 c 133.949 248.652 133.434 251.812
 132.344 254.789 c 123.555 279.137 l 123.125 280.352 122.262 281.359 121.125
 281.969 c 118.727 283.238 114.613 286.117 114.629 291.008 c 114.68 292.965
 113.66 294.793 111.969 295.777 c 108.188 297.879 102.172 303.352 100.078
 310.215 c 99.758 311.246 100.523 312.293 101.602 312.301 c 127.926 312.301
 l 128.664 312.301 129.309 311.793 129.48 311.078 c 133.898 293.062 l 134.266
 291.75 134.453 290.391 134.453 289.027 c 134.453 284.176 l 134.453 281.137
 135.375 278.172 137.094 275.672 c 143.152 266.82 157.547 243.891 157.547
 225.742 c 157.547 223.523 157.676 221.305 157.934 219.098 c 158.488 214.363
 159.656 209.719 161.406 205.281 c 146.781 198.969 l 146.395 203.5 145.438
 207.965 143.934 212.258 c h
143.934 212.258 m f
0.337255 0.337255 0.54902 rg
293.551 89.289 m 283.215 101.113 257.926 109.469 228.352 109.469 c 204.137
 109.469 182.781 103.418 170.168 94.891 c 163.027 98.602 160.297 103.262
 160.297 103.262 c 159.602 104.398 158.898 105.5 158.191 106.559 c 175.656
 114.871 196.98 123.051 225.27 123.051 c 262.719 123.051 289.469 112.453
 305.086 99.121 c 301.02 95.504 296.918 92.055 293.551 89.289 c h
293.551 89.289 m f
0.85098 0.733333 0.294118 rg
328.656 170.242 m 299.918 184.98 l 300.105 185.664 300.316 186.336 300.555
 187.004 c 301.902 190.793 304.043 194.25 306.832 197.145 c 332.766 183.09
 l 330.809 179.02 329.426 174.695 328.656 170.242 c h
328.656 170.242 m f
269.488 196.762 m 298.516 196.762 l 298.023 200.801 297.84 204.871 297.969
 208.934 c 273.855 208.934 l 270.465 199.98 l 270.066 198.93 269.742 197.855
 269.488 196.762 c h
269.488 196.762 m f
146.781 198.969 m 161.406 205.281 l 159.656 209.719 158.488 214.363 157.934
 219.098 c 157.926 219.098 l 143.941 212.258 l 143.934 212.258 l 145.438
 207.965 146.395 203.5 146.781 198.969 c h
146.781 198.969 m f
203.812 215.512 m 183.645 219.074 l 180.426 207.262 l 203.199 203.309 l
 203.199 207.383 203.402 211.449 203.812 215.512 c h
203.812 215.512 m f
0.647059 0.623529 0.909804 rg
285.863 83.109 m 253.176 61.973 l 221.438 61.867 l 221.363 61.922 221.297
 61.98 221.219 62.039 c 199.559 80.316 l 192.984 85.812 185.316 89.852 177.066
 92.168 c 174.68 92.84 172.371 93.75 170.168 94.891 c 182.781 103.418 204.137
 109.469 228.352 109.469 c 257.926 109.469 283.215 101.113 293.551 89.289
 c 289.051 85.582 285.863 83.109 285.863 83.109 c h
285.863 83.109 m f
0.372549 0.803922 0.643137 rg
250.418 60.188 m 253.176 61.973 l 253.16 64.082 252.445 66.129 251.137 
67.785 c 248.887 70.516 245.773 72.398 242.309 73.125 c 239.527 73.785 236.641
 73.887 233.82 73.426 c 226.734 72.254 221.445 67.574 221.438 61.867 c 221.438
 61.859 l 229.703 55.051 241.426 54.375 250.418 60.188 c h
250.418 60.188 m f
0.85098 0.733333 0.294118 rg
100.004 119.926 m 102.836 124.578 107.125 128.164 112.207 130.125 c 108.609
 151.762 84.781 159.156 84.781 159.156 c 77.617 152.574 72.684 146.047 71.227
 141.93 c 71.227 141.93 88.199 142.094 100.004 119.926 c h
100.004 119.926 m f
0.647059 0.486275 0.415686 rg
35.723 84.602 m 37.484 82.664 39.336 80.43 40.891 78.383 c 42.176 76.766
 43.305 75.031 44.266 73.199 c 44.363 72.992 44.473 72.793 44.594 72.602
 c 29.086 71.887 l 26.598 71.773 24.293 73.184 23.266 75.449 c 22.305 77.281
 21.176 79.016 19.891 80.633 c 18.336 82.68 16.484 84.914 14.723 86.852 
c 12.391 89.414 5.91 109.223 27.848 102.496 c 30.441 100.961 33.465 100.312
 36.461 100.648 c 30.191 97.305 34.039 86.453 35.723 84.602 c h
35.723 84.602 m f
99.719 150.781 m 95.266 154.422 90.211 157.258 84.781 159.156 c 99.707 
172.875 124.32 186.809 147.277 179.59 c 131.582 176.91 116.031 166.328 105.781
 156.906 c 103.527 154.836 101.492 152.77 99.719 150.781 c h
99.719 150.781 m f
89.812 133.371 m 81.965 114.414 72.738 105.977 67.539 102.48 c 66.258 101.574
 64.871 100.824 63.414 100.246 c 61.176 99.336 l 57.152 97.695 52.59 98.031
 48.848 100.246 c 46.066 101.199 43.137 101.656 40.195 101.594 c 42.414 
102.496 l 43.871 103.074 45.258 103.824 46.539 104.73 c 52.281 108.594 62.941
 118.484 71.227 141.93 c 71.621 142.98 72.105 143.996 72.68 144.957 c 72.105
 143.996 71.621 142.98 71.227 141.93 c 71.227 141.93 80.312 142.008 89.812
 133.371 c h
89.812 133.371 m f
0.85098 0.733333 0.294118 rg
92.227 139.68 m 91.441 137.457 90.637 135.355 89.812 133.371 c 80.312 142.008
 71.227 141.93 71.227 141.93 c 71.621 142.98 72.105 143.996 72.68 144.957
 c 74.957 148.91 79.184 154.012 84.781 159.156 c 90.211 157.258 95.266 154.422
 99.719 150.781 c 95.859 146.453 93.227 142.5 92.227 139.68 c h
92.227 139.68 m f
0.737255 0.623529 0.266667 rg
92.227 139.68 m 91.441 137.457 90.637 135.355 89.812 133.371 c 80.312 142.008
 71.227 141.93 71.227 141.93 c 71.621 142.98 72.105 143.996 72.68 144.957
 c 74.957 148.91 79.184 154.012 84.781 159.156 c 90.211 157.258 95.266 154.422
 99.719 150.781 c 95.859 146.453 93.227 142.5 92.227 139.68 c h
92.227 139.68 m f
0.262745 0.262745 0.427451 rg
179.191 104.309 m 179.895 103.254 180.598 102.152 181.297 101.012 c 181.297
 101.012 181.336 100.949 181.395 100.855 c 177.469 99.234 173.707 97.238
 170.168 94.891 c 163.027 98.602 160.297 103.262 160.297 103.262 c 159.602
 104.398 158.898 105.5 158.191 106.559 c 162.754 108.73 167.582 110.891 
172.723 112.902 c 175.055 110.172 177.211 107.305 179.191 104.309 c h
179.191 104.309 m f
0.560784 0.552941 0.788235 rg
191.168 92.641 m 193.371 91.5 195.68 90.59 198.066 89.918 c 206.316 87.602
 213.984 83.562 220.559 78.066 c 228.234 71.594 l 224.133 69.465 221.441
 65.93 221.438 61.867 c 221.363 61.922 221.297 61.98 221.219 62.039 c 199.559
 80.316 l 192.984 85.812 185.316 89.852 177.066 92.168 c 174.68 92.84 172.371
 93.75 170.168 94.891 c 173.707 97.238 177.469 99.234 181.395 100.855 c 
181.918 100.051 184.766 95.969 191.168 92.641 c h
191.168 92.641 m f
0.337255 0.717647 0.564706 rg
228.234 71.594 m 242.219 59.789 l 242.297 59.73 242.363 59.672 242.438 
59.617 c 242.438 59.609 l 243.316 58.891 244.246 58.23 245.219 57.641 c 
240.5 55.977 235.387 55.801 230.566 57.141 c 230.379 57.191 230.188 57.23
 230 57.285 c 227.508 58.031 225.156 59.168 223.023 60.656 c 222.484 61.035
 221.953 61.434 221.438 61.859 c 221.438 61.867 l 221.441 65.93 224.133 
69.465 228.234 71.594 c h
228.234 71.594 m f
0.647059 0.486275 0.415686 rg
172.727 112.902 m 167.582 110.891 162.75 108.73 158.191 106.559 c 150.617
 117.961 142.715 124.891 135.203 128.551 c 145.574 131.633 159.34 128.5 
172.727 112.902 c h
172.727 112.902 m f
0.156863 0.258824 0.407843 rg
62.895 78.094 m 57.895 78.094 l 51.895 78.094 51.895 87.094 57.895 87.094
 c 62.895 87.094 l 68.895 87.094 68.895 78.094 62.895 78.094 c h
62.895 78.094 m f
172.395 194.871 m 184.293 238.605 l 185.004 241.227 186.246 243.676 187.941
 245.801 c 191.922 250.809 l 193.105 252.301 193.883 254.07 194.18 255.953
 c 197.746 278.738 l 195.172 283.219 192.379 289.383 192.938 294.363 c 189.789
 296.555 185.664 300.062 182.934 304.809 c 181.422 307.406 181.43 310.621
 182.957 313.211 c 184.488 315.855 187.312 317.488 190.371 317.492 c 213.504
 317.492 l 216.117 317.5 218.59 316.305 220.207 314.258 c 223.395 310.246
 233.195 296.031 225.516 281.434 c 222.738 276.16 219.574 265.488 216.355
 250.566 c 215.605 247.102 214.555 243.199 213.223 238.965 c 208.301 223.402
 206.66 206.988 208.41 190.762 c 215.203 188.887 222.605 187.254 224.621
 187.441 c 236.273 190.914 252.344 188.359 265.758 181.254 c 264.891 185.77
 l 263.871 191.062 264.34 196.535 266.25 201.574 c 273.695 221.234 l 275.066
 224.852 275.367 228.789 274.551 232.57 c 266.273 271.184 l 259.867 273.977
 256.5 281.062 258.375 287.793 c 254.699 290.59 248.816 296.176 246.773 
304.414 c 246.109 307.059 246.711 309.859 248.398 312 c 250.09 314.172 252.691
 315.441 255.445 315.434 c 274.949 315.434 l 278.09 315.426 281 313.773 
282.613 311.082 c 289.965 298.758 l 292.031 295.285 292.949 291.246 292.582
 287.219 c 291.664 276.441 294.379 250.602 302.859 239.633 c 305.277 236.473
 306.121 232.379 305.148 228.52 c 302.754 218.996 301.953 209.148 302.777
 199.367 c 303.047 199.664 303.309 199.973 303.59 200.266 c 327.551 225.109
 l 331.379 229.082 334.156 233.938 335.641 239.25 c 343.922 268.98 l 343.988
 269.223 343.93 269.48 343.766 269.668 c 337.949 276.57 337.301 283.117 
337.777 287.391 c 337.824 287.695 337.668 287.996 337.387 288.125 c 332.059
 290.059 328.004 294.773 325.66 301.758 c 324.688 304.68 325.18 307.891 
326.977 310.391 c 328.801 312.918 331.73 314.418 334.848 314.422 c 355.191
 314.422 l 359.094 314.434 362.621 312.086 364.117 308.477 c 370.703 292.699
 l 371.734 290.234 371.691 287.449 370.586 285.016 c 366.348 275.75 363.328
 256.613 363.57 240.496 c 363.703 229.977 360.742 219.648 355.051 210.797
 c 341.352 189.297 l 335.762 180.523 333.059 173.023 332.586 164.984 c 331.637
 148.836 330.527 136.469 329.277 127.973 c 333.574 132.406 338.469 138.848
 339.176 145.695 c 339.414 147.988 341.344 149.734 343.648 149.734 c 343.805
 149.734 343.957 149.727 344.113 149.711 c 346.586 149.457 348.383 147.246
 348.129 144.773 c 346.359 127.594 327.535 114.18 323.73 111.633 c 315.199
 100.496 293.461 83.32 288.625 79.559 c 288.523 79.48 288.414 79.406 288.305
 79.336 c 252.863 56.414 l 242.133 49.414 228.074 50.305 218.316 58.605 
c 196.66 76.875 l 190.574 81.969 183.477 85.707 175.832 87.836 c 162.438
 91.672 157.043 99.949 156.461 100.906 c 139.062 129.277 122.367 128.355
 115.996 126.637 c 107.781 124.426 101.688 117.363 101.504 109.836 c 101.105
 93.371 94.371 83.395 90.82 79.258 c 95.977 66.133 l 97.078 63.266 96.258
 60.012 93.926 58.012 c 91.594 56.016 88.254 55.699 85.59 57.227 c 74.973
 63.332 l 73.938 63.926 72.816 64.355 71.648 64.598 c 59.508 67.148 l 59.418
 67.168 59.328 67.191 59.242 67.215 c 56.02 68.098 52.676 68.469 49.336 
68.316 c 29.293 67.395 l 24.965 67.18 20.949 69.637 19.168 73.586 c 18.418
 75.223 15.117 79.734 11.395 83.824 c 8.945 86.512 5.211 96.637 9.383 103.215
 c 13.613 109.891 22.473 108.848 29.164 106.797 c 29.504 106.691 29.828 
106.547 30.137 106.363 c 30.137 106.367 l 32.668 104.875 35.754 104.648 
38.48 105.75 c 40.715 106.66 l 40.805 106.695 40.895 106.73 40.984 106.762
 c 41.137 106.809 56.078 112.559 66.984 143.426 c 71.625 156.559 102.551
 186.043 134.34 186.043 c 137.391 186.043 140.434 185.758 143.43 185.191
 c 142.297 198.586 l 141.695 205.688 139.574 212.578 136.07 218.785 c 131.434
 226.957 129.113 236.238 129.359 245.629 c 129.43 248.23 129.008 250.82 
128.105 253.262 c 119.324 277.605 l 119.273 277.766 119.168 277.902 119.023
 277.988 c 113.355 280.98 110.113 285.734 110.129 291.027 c 110.156 291.34
 110.027 291.645 109.781 291.844 c 104.672 294.688 98.109 301.238 95.777
 308.902 c 95.207 310.754 95.551 312.762 96.699 314.32 c 97.852 315.875 
99.672 316.797 101.605 316.797 c 127.934 316.797 l 130.742 316.801 133.191
 314.883 133.855 312.152 c 138.254 294.203 l 138.719 292.516 138.953 290.773
 138.953 289.023 c 138.953 284.176 l 138.953 282.047 139.602 279.965 140.809
 278.211 c 159.977 250.219 162.047 232.195 162.047 225.742 c 162.039 214.602
 165.676 203.758 172.395 194.871 c h
164.219 190.754 m 162.262 193.477 160.543 196.363 159.082 199.379 c 151.535
 196.125 l 152.578 183.816 l 156.297 186.387 160.188 188.703 164.215 190.754
 c h
150.426 205.445 m 155.762 207.75 l 155.301 209.238 154.883 210.793 154.516
 212.422 c 149.371 209.906 l 149.773 208.434 150.137 206.949 150.422 205.445
 c h
198.836 208.633 m 198.879 209.684 198.941 210.738 199.012 211.789 c 186.91
 213.926 l 186.074 210.852 l h
217.555 285.625 m 222.484 295 216.332 304.621 213.297 308.496 c 191.23 
308.496 l 193.18 305.727 195.629 303.352 198.457 301.492 c 201.094 299.73
 202.445 296.578 201.895 293.449 c 201.633 292 202.703 288.109 205.684 282.988
 c 206.621 281.379 206.973 279.496 206.688 277.66 c 203.07 254.559 l 202.535
 251.137 201.121 247.914 198.965 245.203 c 194.984 240.199 l 194.051 239.027
 193.371 237.684 192.98 236.238 c 189.277 222.645 l 199.941 220.762 l 200.926
 227.844 202.496 234.836 204.637 241.66 c 205.883 245.633 206.867 249.266
 207.555 252.461 c 210.992 268.398 214.355 279.555 217.551 285.625 c h
295.574 186.164 m 295.648 186.449 295.75 186.727 295.836 187.012 c 295.504
 188.16 295.059 189.934 294.641 192.262 c 273.402 192.262 l 273.32 190.656
 273.43 189.047 273.727 187.469 c 276.273 174.234 l 281.219 170.148 285.305
 165.121 288.289 159.441 c h
327.012 181.086 m 307.922 191.438 l 306.965 190.105 306.145 188.684 305.48
 187.184 c 325.586 176.879 l 325.996 178.277 326.473 179.68 327.012 181.086
 c h
276.961 204.434 m 275.758 201.262 l 293.578 201.262 l 293.52 202.273 293.477
 203.336 293.449 204.434 c h
295.738 234.133 m 285.227 247.734 282.625 276.375 283.617 287.988 c 283.816
 290.137 283.336 292.293 282.238 294.152 c 274.91 306.434 l 255.539 306.457
 l 257.629 298.324 265.773 293.613 265.844 293.578 c 267.809 292.48 268.664
 290.098 267.84 288 c 266.797 285.348 266.652 283.242 267.41 281.746 c 268.48
 279.641 271.207 278.895 271.203 278.895 c 272.891 278.492 274.199 277.156
 274.566 275.461 c 283.355 234.457 l 284.535 228.984 284.102 223.285 282.117
 218.047 c 280.367 213.434 l 293.684 213.434 l 294.113 219.234 295.023 224.992
 296.402 230.641 c 296.715 231.844 296.473 233.129 295.738 234.133 c h
347.461 215.633 m 352.203 223.004 354.676 231.602 354.574 240.367 c 354.348
 255.422 356.965 276.883 362.402 288.766 c 362.465 288.914 362.465 289.086
 362.398 289.234 c 355.812 305.016 l 355.707 305.266 355.461 305.43 355.191
 305.426 c 334.848 305.426 l 334.621 305.43 334.41 305.32 334.281 305.137
 c 334.164 304.992 334.133 304.797 334.195 304.621 c 335.199 301.629 337.098
 297.809 340.457 296.59 c 344.656 295.055 347.25 290.836 346.723 286.395
 c 346.312 282.727 347.633 279.047 350.648 275.469 c 352.727 273.008 353.457
 269.676 352.594 266.57 c 344.312 236.836 l 342.426 230.086 338.891 223.91
 334.031 218.863 c 314.176 198.281 l 330.852 189.238 l 331.738 190.844 332.699
 192.465 333.758 194.129 c h
247.973 63.969 m 248.156 64.086 l 246.695 67.016 242.316 69.211 237.305
 69.211 c 232.199 69.211 227.758 66.895 226.383 63.836 c 232.984 59.645 
241.426 59.695 247.973 63.969 c h
202.465 83.758 m 217.238 71.289 l 215.379 76.18 221.953 79.773 225.066 
75.562 c 225.352 75.176 l 226.402 75.777 227.504 76.289 228.641 76.707 c
 228.609 76.887 l 228.156 79.332 229.77 81.68 232.215 82.129 c 234.656 82.582
 237.004 80.969 237.457 78.523 c 237.516 78.203 l 238.117 78.199 238.711
 78.176 239.301 78.133 c 239.676 79.195 l 241.664 84.859 250.156 81.875 
248.168 76.215 c 248.039 75.844 l 248.863 75.445 249.66 74.992 250.426 74.484
 c 250.652 74.797 l 253.633 78.938 260.113 75.707 258.602 70.832 c 283.262
 86.781 l 284.375 87.648 285.559 88.582 286.785 89.566 c 275.414 98.906 
252.859 104.973 228.363 104.973 c 210.797 104.973 193.5 101.516 180.863 
95.695 c 188.766 93.148 196.102 89.094 202.465 83.758 c h
170.051 100.148 m 184.34 108.836 205.852 113.973 228.355 113.973 c 256.055
 113.973 281.027 106.766 293.836 95.352 c 295.234 96.523 296.648 97.723 
298.051 98.934 c 286.379 107.418 263.734 118.555 225.273 118.555 c 200.148
 118.555 180.688 111.855 164.816 104.68 c 166.309 102.902 168.074 101.371
 170.051 100.148 c h
61.883 113.805 m 62.848 113.895 63.793 113.957 64.699 113.957 c 69.34 113.957
 73.234 112.785 76.359 110.438 c 85.316 103.719 83.656 90.434 83.578 89.871
 c 83.27 87.391 80.996 85.637 78.52 85.969 c 76.039 86.301 74.309 88.586
 74.66 91.062 c 74.672 91.148 75.59 99.762 70.957 103.242 c 67.004 106.207
 59.055 105.305 48.559 100.703 c 47.141 99.742 45.625 98.938 44.035 98.297
 c 41.871 97.418 l 36.75 95.352 30.973 95.68 26.117 98.312 c 20.539 99.957
 17.742 99.445 17.043 98.48 c 15.715 96.648 17.102 91.316 18.125 89.797 
c 21.57 86 25.906 80.504 27.359 77.309 c 27.629 76.719 28.23 76.352 28.879
 76.387 c 48.926 77.305 l 53.156 77.5 57.395 77.035 61.484 75.93 c 73.5 
73.406 l 75.594 72.969 77.602 72.203 79.453 71.137 c 85.77 67.508 l 82.004
 77.102 l 81.957 77.215 81.918 77.332 81.883 77.449 c 81.133 79.949 81.75
 82.656 83.508 84.582 c 86.098 87.398 92.152 95.512 92.508 110.066 c 92.609
 113.457 93.422 116.789 94.895 119.848 c 87.562 132.336 78.73 135.953 74.207
 137 c 70.34 126.934 66.023 119.406 61.883 113.805 c h
78.199 145.211 m 84.172 143.406 92.953 138.91 100.531 127.758 c 102.461
 129.672 104.641 131.312 107.016 132.633 c 103.25 145.266 91.047 151.707
 85.836 153.934 c 83.047 151.25 80.492 148.332 78.199 145.211 c h
101.109 166.051 m 98.379 164.309 95.746 162.43 93.211 160.418 c 100.508
 156.648 111.332 149.027 115.473 135.754 c 124.105 137.48 141.902 137.027
 159.723 112.246 c 160.746 112.719 161.785 113.188 162.84 113.652 c 161.926
 115.367 l 159.098 120.66 167.039 124.898 169.867 119.605 c 171.184 117.137
 l 172.93 117.816 174.715 118.48 176.539 119.125 c 175.262 123.008 l 174.484
 125.367 175.77 127.91 178.133 128.688 c 180.492 129.465 183.035 128.18 
183.812 125.82 c 185.109 121.879 l 187.391 122.539 189.738 123.152 192.141
 123.727 c 191.094 127.398 l 190.379 129.801 191.762 132.32 194.168 133.008
 c 196.57 133.699 199.078 132.293 199.742 129.879 c 200.992 125.52 l 203.008
 125.863 205.062 126.168 207.16 126.434 c 206.785 130.973 l 206.578 133.449
 208.418 135.625 210.895 135.828 c 211.023 135.84 211.148 135.844 211.27
 135.844 c 213.609 135.844 215.555 134.051 215.75 131.719 c 216.121 127.266
 l 218.121 127.391 220.156 127.477 222.227 127.52 c 222.195 132.895 l 222.18
 135.379 224.184 137.406 226.668 137.422 c 226.695 137.422 l 229.172 137.422
 231.18 135.422 231.195 132.945 c 231.227 127.457 l 233.562 127.387 235.852
 127.285 238.07 127.137 c 238.43 132.613 l 238.586 134.977 240.547 136.816
 242.918 136.816 c 243.016 136.816 243.117 136.816 243.219 136.809 c 245.699
 136.645 247.574 134.504 247.414 132.023 c 247.039 126.312 l 248.797 126.102
 250.52 125.875 252.199 125.625 c 253.031 131.016 l 253.367 133.211 255.254
 134.828 257.473 134.832 c 257.703 134.832 257.934 134.816 258.164 134.781
 c 260.621 134.402 262.305 132.102 261.926 129.648 c 261.059 124.023 l 263.016
 123.605 264.914 123.164 266.75 122.695 c 268.668 128.492 l 269.434 130.871
 271.988 132.172 274.363 131.387 c 276.734 130.605 278.016 128.035 277.211
 125.672 c 275.395 120.168 l 277.895 119.336 280.266 118.473 282.508 117.566
 c 284.621 121.973 l 285.695 124.211 288.387 125.156 290.625 124.082 c 292.867
 123.008 293.812 120.32 292.738 118.078 c 290.711 113.855 l 292.488 112.957
 294.156 112.059 295.715 111.152 c 297.582 113.918 l 300.949 118.84 308.348
 113.848 305.043 108.883 c 303.273 106.266 l 303.855 105.848 304.398 105.438
 304.934 105.031 c 310.07 109.727 314.48 114.152 316.828 117.328 c 316.961
 117.547 317.113 117.754 317.281 117.949 c 317.695 118.527 318.051 119.145
 318.352 119.789 c 320.215 124.094 322.18 141.184 323.613 165.512 c 323.656
 166.242 323.719 166.969 323.789 167.691 c 302.809 178.449 l 289.387 129.238
 l 287.809 123.449 279.125 125.82 280.703 131.609 c 283.887 143.289 l 282.574
 156.688 273.883 165.293 266.742 170.176 c 254.629 178.465 237.945 182.082
 227.078 178.781 c 224.039 177.859 216.93 179.215 209.875 181.039 c 211.113
 172.777 208.969 164.371 203.93 157.715 c 196.199 147.559 l 194.699 145.57
 191.867 145.184 189.883 146.691 c 187.902 148.203 187.523 151.035 189.039
 153.012 c 196.77 163.164 l 200.488 168.074 201.977 174.316 200.879 180.375
 c 200.738 181.156 200.602 181.93 200.469 182.695 c 199.516 188.254 198.957
 193.871 198.789 199.508 c 183.699 202.133 l 180.449 190.199 l 180.09 188.875
 179.145 187.789 177.887 187.246 c 153.102 176.586 146.961 167.27 145.508
 162.668 c 144.324 158.91 145.672 156.66 145.734 156.566 c 145.711 156.605
 145.688 156.637 145.66 156.672 c 138.309 151.484 l 137.918 152.035 134.578
 157.086 136.746 164.766 c 137.828 168.594 140.059 172.34 143.438 175.996
 c 126.641 180.004 109.918 171.66 101.109 166.051 c h
133.379 273.121 m 131.145 276.371 129.949 280.223 129.953 284.168 c 129.953
 289.023 l 129.953 289.977 129.82 290.93 129.562 291.852 c 129.551 291.898
 129.539 291.945 129.527 291.992 c 125.656 307.801 l 106.07 307.801 l 108.09
 304.5 110.859 301.727 114.156 299.711 c 117.277 297.926 119.18 294.59 119.129
 291 c 119.121 288.492 121.691 286.762 123.227 285.949 c 125.355 284.82 
126.98 282.934 127.789 280.664 c 136.574 256.32 l 137.863 252.805 138.469
 249.07 138.355 245.328 c 138.168 237.578 140.094 229.926 143.926 223.188
 c 144.801 221.629 145.582 220.039 146.305 218.426 c 153.176 221.781 l 153.094
 223.074 153.043 224.391 153.043 225.742 c 153.043 230.121 151.625 246.48
 133.379 273.125 c h
133.379 273.121 m f
372 323.25 m 162.875 323.25 l 156.875 323.25 156.875 332.25 162.875 332.25
 c 372 332.25 l 378 332.25 378 323.25 372 323.25 c h
372 323.25 m f
134.715 323.25 m 111.355 323.25 l 105.355 323.25 105.355 332.25 111.355
 332.25 c 134.715 332.25 l 140.715 332.25 140.715 323.25 134.715 323.25 
c h
134.715 323.25 m f
94.738 323.25 m 27.848 323.25 l 21.848 323.25 21.848 332.25 27.848 332.25
 c 94.738 332.25 l 100.738 332.25 100.738 323.25 94.738 323.25 c h
94.738 323.25 m f
Q Q
showpage
%%Trailer
end
%%EOF
