%!PS-Adobe-3.0 EPSF-3.0
%%Creator: cairo 1.16.0 (https://cairographics.org)
%%CreationDate: Mon Dec 14 10:17:26 2020
%%Pages: 1
%%DocumentData: Clean7Bit
%%LanguageLevel: 2
%%BoundingBox: 47 8 337 376
%%EndComments
%%BeginProlog
50 dict begin
/q { gsave } bind def
/Q { grestore } bind def
/cm { 6 array astore concat } bind def
/w { setlinewidth } bind def
/J { setlinecap } bind def
/j { setlinejoin } bind def
/M { setmiterlimit } bind def
/d { setdash } bind def
/m { moveto } bind def
/l { lineto } bind def
/c { curveto } bind def
/h { closepath } bind def
/re { exch dup neg 3 1 roll 5 3 roll moveto 0 rlineto
      0 exch rlineto 0 rlineto closepath } bind def
/S { stroke } bind def
/f { fill } bind def
/f* { eofill } bind def
/n { newpath } bind def
/W { clip } bind def
/W* { eoclip } bind def
/BT { } bind def
/ET { } bind def
/BDC { mark 3 1 roll /BDC pdfmark } bind def
/EMC { mark /EMC pdfmark } bind def
/cairo_store_point { /cairo_point_y exch def /cairo_point_x exch def } def
/Tj { show currentpoint cairo_store_point } bind def
/TJ {
  {
    dup
    type /stringtype eq
    { show } { -0.001 mul 0 cairo_font_matrix dtransform rmoveto } ifelse
  } forall
  currentpoint cairo_store_point
} bind def
/cairo_selectfont { cairo_font_matrix aload pop pop pop 0 0 6 array astore
    cairo_font exch selectfont cairo_point_x cairo_point_y moveto } bind def
/Tf { pop /cairo_font exch def /cairo_font_matrix where
      { pop cairo_selectfont } if } bind def
/Td { matrix translate cairo_font_matrix matrix concatmatrix dup
      /cairo_font_matrix exch def dup 4 get exch 5 get cairo_store_point
      /cairo_font where { pop cairo_selectfont } if } bind def
/Tm { 2 copy 8 2 roll 6 array astore /cairo_font_matrix exch def
      cairo_store_point /cairo_font where { pop cairo_selectfont } if } bind def
/g { setgray } bind def
/rg { setrgbcolor } bind def
/d1 { setcachedevice } bind def
/cairo_data_source {
  CairoDataIndex CairoData length lt
    { CairoData CairoDataIndex get /CairoDataIndex CairoDataIndex 1 add def }
    { () } ifelse
} def
/cairo_flush_ascii85_file { cairo_ascii85_file status { cairo_ascii85_file flushfile } if } def
/cairo_image { image cairo_flush_ascii85_file } def
/cairo_imagemask { imagemask cairo_flush_ascii85_file } def
%%EndProlog
%%BeginSetup
%%EndSetup
%%Page: 1 1
%%BeginPageSetup
%%PageBoundingBox: 47 8 337 376
%%EndPageSetup
q 47 8 290 368 rectclip
1 0 0 -1 0 384 cm q
0.34902 0.505882 0.819608 rg
114.27 94.762 m 86.152 211.336 l 138.262 204.203 l 140.586 94.762 l h
114.27 94.762 m f
266.609 94.762 m 241.859 94.762 l 245.738 204.203 l 289.988 207.887 l h
266.609 94.762 m f
0.301961 0.447059 0.678431 rg
243.473 133.973 m 139.59 135.496 l 138.262 204.203 l 245.738 204.203 l 
h
243.473 133.973 m f
0.580392 0.564706 0.6 rg
239.398 30.047 m 225.871 18.922 208.914 12.812 191.398 12.75 c 155.832 
12.781 125.246 37.945 118.363 72.84 c 265.637 72.84 l 262.07 55.984 252.805
 40.871 239.398 30.047 c h
239.398 30.047 m f
0.937255 0.772549 0.592157 rg
331.559 263.887 m 329.875 230.438 302.254 204.188 268.762 204.203 c 227.355
 204.203 l 227.355 203.992 l 227.316 175.68 l 156.668 176.754 l 156.668 
204.203 l 115.238 204.203 l 98.539 204.203 82.523 210.848 70.727 222.668
 c 58.93 234.488 52.316 250.516 52.352 267.219 c 52.352 371.25 l 331.648
 371.25 l h
331.559 263.887 m f
0.827451 0.67451 0.521569 rg
156.668 176.754 22.5 27.449 re f
108.652 211.336 m 117.625 206.637 127.609 204.191 137.738 204.203 c 115.238
 204.203 l 98.539 204.203 82.523 210.848 70.727 222.668 c 58.93 234.488 
52.316 250.516 52.352 267.219 c 52.352 371.25 l 74.852 371.25 l 74.852 267.219
 l 74.832 243.75 87.859 222.215 108.652 211.336 c h
108.652 211.336 m f
0.517647 0.505882 0.537255 rg
202.617 13.621 m 163.188 7.535 125.992 33.68 118.363 72.84 c 140.863 72.84
 l 146.949 42.078 171.629 18.414 202.617 13.621 c h
202.617 13.621 m f
1 0.847059 0.717647 rg
241.859 94.012 m 140.586 94.012 l 139.59 142.246 l 139.996 155.379 145.402
 167.863 154.703 177.141 c 155.34 177.781 156 178.402 156.668 179.004 c 
157.992 180.199 159.379 181.324 160.824 182.371 c 223.164 181.453 l 223.172
 181.461 l 224.613 180.359 225.996 179.18 227.316 177.93 c 237.613 168.293
 243.457 154.824 243.473 140.723 c h
241.859 94.012 m f
0.937255 0.784314 0.670588 rg
177.203 177.141 m 167.902 167.863 162.496 155.379 162.09 142.246 c 163.086
 94.012 l 140.586 94.012 l 139.59 142.246 l 139.996 155.379 145.402 167.863
 154.703 177.141 c 155.34 177.781 156 178.402 156.668 179.004 c 157.992 
180.199 159.379 181.324 160.824 182.371 c 182.898 182.047 l 181.613 181.094
 180.363 180.082 179.168 179.004 c 178.5 178.402 177.84 177.781 177.203 
177.141 c h
177.203 177.141 m f
0.290196 0.317647 0.376471 rg
223.164 181.453 m 223.172 181.461 l 214.012 188.488 202.793 192.293 191.25
 192.285 c 180.309 192.305 169.648 188.832 160.824 182.371 c 160.816 167.867
 172.562 156.105 187.066 156.09 c 196.934 156.09 l 211.082 156.105 222.676
 167.316 223.164 181.453 c h
223.164 181.453 m f
0.372549 0.505882 0.529412 rg
289.988 207.887 m 313.852 216.488 330.234 238.555 331.559 263.887 c 225.562
 256.043 149.371 204.203 149.371 204.203 c 268.762 204.203 l 275.996 204.195
 283.18 205.441 289.988 207.887 c h
289.988 207.887 m f
0.317647 0.403922 0.431373 rg
331.559 263.887 m 225.562 256.043 149.371 204.203 149.371 204.203 c 115.238
 204.203 l 105.109 204.191 95.125 206.637 86.152 211.336 c 86.152 211.336
 98.461 224.969 120.848 242.242 c 154.957 268.559 212.453 303.301 285.434
 311.078 c 300.781 312.727 316.242 313.102 331.648 312.203 c h
331.559 263.887 m f
0.235294 0.317647 0.337255 rg
120.848 242.242 m 120.848 242.242 167.805 351.727 216.891 371.25 c 285.391
 371.25 l 285.391 371.086 l 285.434 311.078 l 212.453 303.301 154.957 268.559
 120.848 242.242 c h
120.848 242.242 m f
0.290196 0.317647 0.376471 rg
277.172 72.84 m 274.477 72.84 l 251.859 95.512 l 277.172 95.512 l 280.113
 95.512 282.938 94.344 285.016 92.262 c 287.098 90.18 288.266 87.355 288.262
 84.414 c 288.262 83.941 l 288.262 77.812 283.297 72.844 277.172 72.84 c
 h
277.172 72.84 m f
0.427451 0.454902 0.52549 rg
236.422 72.84 m 213.797 95.512 l 251.859 95.512 l 274.477 72.84 l h
236.422 72.84 m f
0.290196 0.317647 0.376471 rg
236.422 72.84 m 213.797 95.512 l 180.309 95.512 l 202.926 72.84 l h
236.422 72.84 m f
0.427451 0.454902 0.52549 rg
202.926 72.84 m 180.309 95.512 l 144.531 95.512 l 167.16 72.84 l h
202.926 72.84 m f
0.290196 0.317647 0.376471 rg
132.141 72.84 m 109.523 95.512 l 144.531 95.512 l 167.16 72.84 l h
132.141 72.84 m f
0.427451 0.454902 0.52549 rg
106.828 72.84 m 100.703 72.844 95.738 77.812 95.738 83.941 c 95.738 84.414
 l 95.734 87.355 96.902 90.18 98.984 92.262 c 101.062 94.344 103.887 95.512
 106.828 95.512 c 109.523 95.512 l 132.141 72.84 l h
106.828 72.84 m f
0.156863 0.258824 0.407843 rg
52.352 375.75 m 331.648 375.75 l 334.137 375.75 336.148 373.734 336.148
 371.25 c 336.148 267.219 l 336.133 239.684 319.422 214.906 293.898 204.574
 c 289.926 185.461 l 289.914 185.41 l 272.141 100.016 l 277.164 100.016 
l 285.777 100.004 292.758 93.027 292.766 84.414 c 292.766 83.941 l 292.758
 75.328 285.777 68.352 277.164 68.34 c 269.207 68.34 l 264.898 51.898 255.457
 37.262 242.25 26.562 c 227.906 14.797 209.949 8.332 191.398 8.25 c 155.09
 8.32 123.488 33.098 114.758 68.344 c 106.832 68.344 l 98.223 68.352 91.242
 75.332 91.234 83.945 c 91.234 84.418 l 91.242 93.031 98.223 100.008 106.832
 100.02 c 108.543 100.02 l 82.246 208.367 l 61 220.34 47.859 242.832 47.852
 267.219 c 47.852 371.25 l 47.852 373.734 49.863 375.75 52.352 375.75 c 
h
327.148 328.23 m 321.227 328.23 l 315.227 328.23 315.227 337.23 321.227
 337.23 c 327.148 337.23 l 327.148 366.75 l 289.891 366.75 l 289.891 316.027
 l 298.391 316.785 306.895 317.168 315.398 317.176 c 319.316 317.176 323.234
 317.094 327.148 316.93 c h
327.148 286.609 m 287.793 291.035 240.477 275.434 239.984 275.273 c 234.297
 273.367 231.441 281.906 237.129 283.809 c 238.938 284.41 275.316 296.418
 311.98 296.418 c 317.047 296.43 322.109 296.18 327.152 295.664 c 327.152
 307.91 l 295.266 309.211 263.391 305.113 232.871 295.793 c 217.875 291.238
 203.234 285.578 189.07 278.867 c 186.82 277.742 184.082 278.688 183 280.961
 c 181.918 283.234 182.914 285.953 185.207 286.992 c 199.723 293.871 214.723
 299.676 230.09 304.355 c 246.684 309.395 263.68 312.984 280.895 315.078
 c 280.895 366.75 l 217.809 366.75 l 182.277 351.91 147.148 286.73 132.324
 256.258 c 138.242 260.391 144.648 264.609 151.531 268.812 c 152.621 269.48
 153.715 270.141 154.812 270.793 c 157.809 272.602 161.637 270.441 161.637
 266.941 c 161.637 266.934 l 161.633 265.344 160.797 263.875 159.43 263.062
 c 158.441 262.477 157.461 261.887 156.48 261.289 c 124.547 241.82 102.648
 221.547 93.836 212.789 c 100.648 210.086 107.91 208.699 115.238 208.699
 c 148.02 208.699 l 152.676 211.738 170.723 223.055 198.938 235.234 c 227.988
 247.773 273.539 263.477 327.148 268.047 c h
226.16 172.762 m 222.055 160.102 210.246 151.547 196.938 151.59 c 187.066
 151.59 l 173.453 151.613 161.469 160.574 157.598 173.625 c 149.262 165.16
 144.438 153.852 144.098 141.977 c 144.996 100.016 l 237.516 100.016 l 238.969
 140.77 l 238.949 152.68 234.367 164.129 226.156 172.762 c h
239.992 169.352 m 241.074 199.699 l 231.852 199.699 l 231.852 179.812 l
 234.965 176.656 237.695 173.148 239.988 169.355 c h
191.25 196.781 m 202.492 196.801 213.492 193.484 222.852 187.25 c 222.852
 199.699 l 161.168 199.699 l 161.168 188.012 l 170.152 193.746 180.59 196.789
 191.25 196.781 c h
165.441 180.066 m 166.625 169.012 175.941 160.617 187.062 160.59 c 196.93
 160.59 l 207.797 160.559 217.004 168.574 218.469 179.34 c 210.461 184.852
 200.969 187.793 191.25 187.781 c 182.078 187.789 173.105 185.105 165.445
 180.066 c h
152.168 180.902 m 152.168 199.699 l 142.863 199.699 l 143.492 170.148 l
 145.934 174.074 148.848 177.684 152.168 180.898 c h
191.156 91.016 m 204.797 77.344 l 225.57 77.344 l 211.93 91.016 l h
178.441 91.016 m 155.383 91.016 l 169.023 77.344 l 192.082 77.344 l h
142.664 91.016 m 120.367 91.016 l 134.012 77.344 l 156.309 77.344 l h
326.555 258.965 m 274.836 254.359 230.867 239.195 202.727 227.07 c 190.004
 221.609 177.578 215.477 165.508 208.699 c 268.766 208.699 l 297.844 208.766
 322.457 230.176 326.555 258.965 c h
279.977 181.844 m 275.898 181.844 l 269.898 181.844 269.898 190.844 275.898
 190.844 c 281.852 190.844 l 284.059 201.453 l 279.047 200.285 273.914 199.699
 268.766 199.699 c 250.078 199.699 l 248.242 148.273 l 251.551 148.273 l
 257.551 148.273 257.551 139.273 251.551 139.273 c 247.922 139.273 l 246.52
 100.02 l 248.297 100.02 l 248.789 105.141 l 249.012 107.449 250.949 109.207
 253.266 109.211 c 253.41 109.211 253.555 109.203 253.699 109.191 c 256.176
 108.953 257.988 106.754 257.75 104.281 c 257.34 100.02 l 262.949 100.02
 l h
276.344 77.344 m 277.172 77.344 l 280.812 77.348 283.766 80.301 283.77 
83.945 c 283.77 84.418 l 283.766 88.062 280.812 91.016 277.172 91.02 c 262.703
 91.02 l h
249.988 91.016 m 224.645 91.016 l 238.289 77.344 l 263.629 77.344 l h
191.398 17.25 m 222.746 17.25 251.223 38.863 259.875 68.344 c 124.07 68.344
 l 132.566 38.176 160.059 17.312 191.398 17.25 c h
107.656 91.016 m 106.832 91.016 l 103.188 91.012 100.234 88.059 100.23 
84.414 c 100.23 83.941 l 100.234 80.297 103.188 77.344 106.832 77.34 c 121.297
 77.34 l h
96.301 188.602 m 101.219 188.602 l 107.219 188.602 107.219 179.602 101.219
 179.602 c 98.484 179.602 l 117.801 100.016 l 123.082 100.016 l 123.082 
104.707 l 123.082 110.707 132.082 110.707 132.082 104.707 c 132.082 100.016
 l 135.988 100.016 l 133.859 199.699 l 115.234 199.699 l 107.543 199.691
 99.906 201.012 92.66 203.602 c h
56.852 343.207 m 61.641 343.207 l 67.641 343.207 67.641 334.207 61.641 
334.207 c 56.852 334.207 l 56.852 267.219 l 56.855 246.641 67.656 227.574
 85.309 216.996 c 95.281 227.09 105.934 236.492 117.195 245.125 c 125.895
 264.551 135.711 283.449 146.594 301.738 c 165.137 332.664 183.008 354.43
 199.914 366.75 c 102.652 366.75 l 102.652 310.754 l 102.652 304.754 93.652
 304.754 93.652 310.754 c 93.652 366.75 l 56.852 366.75 l h
56.852 343.207 m f
193.387 259.812 m 192.176 261.98 192.949 264.723 195.121 265.934 c 195.684
 266.25 208.969 273.66 216.27 275.844 c 222.02 277.566 224.605 268.941 218.855
 267.219 c 213.578 265.641 203.105 260.082 199.512 258.074 c 197.344 256.863
 194.598 257.641 193.387 259.812 c h
193.387 259.812 m f
259.398 221.281 m 259.355 223.77 261.336 225.816 263.82 225.859 c 264.074
 225.859 289.27 226.492 301.305 244.25 c 302.688 246.332 305.504 246.883
 307.574 245.48 c 309.641 244.078 310.172 241.262 308.754 239.203 c 294.129
 217.613 265.199 216.879 263.977 216.859 c 261.484 216.801 259.426 218.789
 259.398 221.281 c h
259.398 221.281 m f
200.453 331.535 m 213.746 345.832 228.32 354.273 242.602 355.945 c 242.777
 355.965 242.953 355.977 243.129 355.977 c 248.789 355.977 249.27 347.66
 243.645 347.004 c 214.098 343.547 192.809 306.609 192.512 306.09 c 191.289
 303.926 188.543 303.16 186.379 304.383 c 184.215 305.605 183.449 308.348
 184.672 310.512 c 189.168 318.062 194.457 325.109 200.453 331.535 c h
200.453 331.535 m f
235.641 42.965 m 225.832 34.398 214.055 28.391 201.363 25.477 c 198.941
 24.922 196.527 26.441 195.977 28.863 c 195.422 31.285 196.941 33.699 199.363
 34.25 c 210.605 36.832 221.031 42.152 229.719 49.742 c 231.59 51.387 234.438
 51.199 236.078 49.324 c 237.719 47.445 237.52 44.598 235.641 42.965 c h
235.641 42.965 m f
Q Q
showpage
%%Trailer
end
%%EOF
