%!PS-Adobe-3.0 EPSF-3.0
%%Creator: cairo 1.16.0 (https://cairographics.org)
%%CreationDate: Mon Dec 14 10:17:28 2020
%%Pages: 1
%%DocumentData: Clean7Bit
%%LanguageLevel: 2
%%BoundingBox: 24 8 360 376
%%EndComments
%%BeginProlog
50 dict begin
/q { gsave } bind def
/Q { grestore } bind def
/cm { 6 array astore concat } bind def
/w { setlinewidth } bind def
/J { setlinecap } bind def
/j { setlinejoin } bind def
/M { setmiterlimit } bind def
/d { setdash } bind def
/m { moveto } bind def
/l { lineto } bind def
/c { curveto } bind def
/h { closepath } bind def
/re { exch dup neg 3 1 roll 5 3 roll moveto 0 rlineto
      0 exch rlineto 0 rlineto closepath } bind def
/S { stroke } bind def
/f { fill } bind def
/f* { eofill } bind def
/n { newpath } bind def
/W { clip } bind def
/W* { eoclip } bind def
/BT { } bind def
/ET { } bind def
/BDC { mark 3 1 roll /BDC pdfmark } bind def
/EMC { mark /EMC pdfmark } bind def
/cairo_store_point { /cairo_point_y exch def /cairo_point_x exch def } def
/Tj { show currentpoint cairo_store_point } bind def
/TJ {
  {
    dup
    type /stringtype eq
    { show } { -0.001 mul 0 cairo_font_matrix dtransform rmoveto } ifelse
  } forall
  currentpoint cairo_store_point
} bind def
/cairo_selectfont { cairo_font_matrix aload pop pop pop 0 0 6 array astore
    cairo_font exch selectfont cairo_point_x cairo_point_y moveto } bind def
/Tf { pop /cairo_font exch def /cairo_font_matrix where
      { pop cairo_selectfont } if } bind def
/Td { matrix translate cairo_font_matrix matrix concatmatrix dup
      /cairo_font_matrix exch def dup 4 get exch 5 get cairo_store_point
      /cairo_font where { pop cairo_selectfont } if } bind def
/Tm { 2 copy 8 2 roll 6 array astore /cairo_font_matrix exch def
      cairo_store_point /cairo_font where { pop cairo_selectfont } if } bind def
/g { setgray } bind def
/rg { setrgbcolor } bind def
/d1 { setcachedevice } bind def
/cairo_data_source {
  CairoDataIndex CairoData length lt
    { CairoData CairoDataIndex get /CairoDataIndex CairoDataIndex 1 add def }
    { () } ifelse
} def
/cairo_flush_ascii85_file { cairo_ascii85_file status { cairo_ascii85_file flushfile } if } def
/cairo_image { image cairo_flush_ascii85_file } def
/cairo_imagemask { imagemask cairo_flush_ascii85_file } def
%%EndProlog
%%BeginSetup
%%EndSetup
%%Page: 1 1
%%BeginPageSetup
%%PageBoundingBox: 24 8 360 376
%%EndPageSetup
q 24 8 336 368 rectclip
1 0 0 -1 0 384 cm q
0.831373 0.882353 0.956863 rg
172.176 135.129 m 163.992 134.145 155.723 134.051 147.516 134.852 c 100.906
 139.371 67.852 171.426 54.621 183.039 c 53.988 183.574 53.27 184.008 52.5
 184.32 c 52.5 184.32 81.121 221.543 126.238 236.363 c 130.066 237.621 134.012
 238.719 138.066 239.617 c 154.402 243.281 171.348 243.254 187.672 239.543
 c 213.09 233.797 240.879 218.641 269.918 188.609 c 234.074 153.496 201.113
 138.586 172.176 135.129 c h
172.176 135.129 m f
0.85098 0.733333 0.294118 rg
83.023 213.336 m 83.023 293.797 l 83.023 310.934 76.812 327.492 65.543 
340.402 c 60.758 345.891 l 58.109 349.012 56.82 353.062 57.176 357.137 c
 57.535 361.215 59.512 364.977 62.664 367.586 c 65.816 370.195 69.883 371.43
 73.953 371.02 c 78.023 370.609 81.762 368.586 84.328 365.398 c 96.766 349.598
 l 106.262 337.516 111.578 322.676 111.914 307.312 c 113.559 231.457 l 102.734
 226.578 92.492 220.5 83.023 213.336 c h
83.023 213.336 m f
0.321569 0.454902 0.733333 rg
172.176 135.129 m 163.992 134.145 155.723 134.051 147.516 134.852 c 119.379
 141.262 100.996 166.441 100.996 191.234 c 100.996 207.816 111.703 226.441
 126.238 236.363 c 130.066 237.621 134.012 238.719 138.066 239.617 c 154.402
 243.281 171.348 243.254 187.672 239.543 c 206.789 230.004 214.426 207.742
 214.426 188.242 c 214.426 164.227 198.961 142.199 172.176 135.129 c h
172.176 135.129 m f
0.921569 0.447059 0.533333 rg
355.125 110.504 m 354.789 100.645 346.73 92.805 336.863 92.746 c 330.711
 92.625 l 325.277 92.184 319.871 91.449 314.512 90.434 c 297.75 128.086 
l 297.75 128.094 l 301.918 128.621 306.113 128.93 310.312 129.008 c 336.406
 129.496 l 341.445 129.59 346.305 127.613 349.844 124.02 c 353.383 120.43
 355.293 115.543 355.125 110.504 c h
355.125 110.504 m f
0.72549 0.831373 0.607843 rg
314.512 90.434 m 297.75 128.086 l 285.977 126.582 274.508 123.273 263.746
 118.273 c 256.117 114.734 l 256.266 114.406 l 273.148 76.492 l 273.211 
76.379 l 286.25 82.984 300.152 87.715 314.512 90.434 c h
314.512 90.434 m f
0.921569 0.447059 0.533333 rg
270.703 75.082 m 234.719 56.023 l 234.496 56.453 l 216.645 96.539 l 256.117
 114.734 l 256.266 114.406 l 273.148 76.492 l 273.211 76.379 l 272.371 75.953
 271.539 75.523 270.703 75.082 c h
270.703 75.082 m f
0.72549 0.831373 0.607843 rg
222.023 49.297 m 213.102 45.207 203.723 42.203 194.086 40.359 c 173.781
 85.949 l 188.523 87.281 202.98 90.852 216.645 96.539 c 234.496 56.453 l
 234.719 56.023 l h
222.023 49.297 m f
0.921569 0.447059 0.533333 rg
162.246 37.297 m 161.723 37.289 161.203 37.289 160.68 37.289 c 156.285 
37.289 151.91 37.488 147.555 37.891 c 147.562 37.98 l 124.426 89.953 l 136.777
 86.777 149.492 85.238 162.246 85.371 c 166.102 85.418 169.949 85.609 173.781
 85.949 c 194.086 40.359 l 183.59 38.363 172.93 37.34 162.246 37.297 c h
162.246 37.297 m f
0.72549 0.831373 0.607843 rg
147.555 37.891 m 147.562 37.98 l 124.426 89.953 l 111.898 93.172 99.852
 98.043 88.613 104.445 c 64.199 118.352 l 92.746 54.246 l 92.684 54.137 
l 109.719 45.141 128.371 39.621 147.555 37.891 c h
147.555 37.891 m f
0.921569 0.447059 0.533333 rg
92.684 54.137 m 91.312 54.863 89.949 55.605 88.598 56.379 c 32.625 84.074
 l 32.625 136.336 l 64.199 118.352 l 92.746 54.246 l h
92.684 54.137 m f
0.933333 0.686275 0.258824 rg
157.746 168.195 m 166.75 168.188 174.867 173.605 178.316 181.918 c 181.766
 190.23 179.867 199.805 173.504 206.172 c 167.141 212.539 157.57 214.445
 149.254 211 c 140.938 207.555 135.516 199.441 135.516 190.441 c 135.516
 178.16 145.465 168.199 157.746 168.195 c h
157.746 168.195 m f
0.729412 0.619608 0.258824 rg
79.664 365.289 m 75.211 359.508 75.457 351.387 80.258 345.891 c 85.043 
340.402 l 96.312 327.492 102.523 310.934 102.523 293.797 c 102.523 225.953
 l 95.738 222.207 89.223 217.992 83.023 213.336 c 83.023 293.797 l 83.023
 310.934 76.812 327.492 65.543 340.402 c 60.758 345.891 l 55.5 351.895 55.738
 360.93 61.305 366.648 c 66.871 372.363 75.898 372.844 82.039 367.746 c 
81.16 367.016 80.363 366.191 79.664 365.289 c h
79.664 365.289 m f
0.27451 0.396078 0.607843 rg
160.566 239.617 m 160.445 239.59 l 150.527 237.379 141.707 231.742 135.531
 223.672 c 128.168 214.031 123.496 202.188 123.496 191.234 c 123.496 166.48
 141.816 141.348 169.879 134.883 c 162.445 134.141 154.953 134.129 147.516
 134.852 c 119.379 141.262 100.996 166.441 100.996 191.234 c 100.996 207.816
 111.703 226.441 126.238 236.363 c 130.066 237.621 134.012 238.719 138.066
 239.617 c 149.852 242.25 161.98 242.977 173.992 241.77 c 169.48 241.316
 164.996 240.598 160.566 239.617 c h
160.566 239.617 m f
0.807843 0.380392 0.470588 rg
32.625 84.074 m 32.625 136.336 l 55.125 123.52 l 55.125 72.941 l h
32.625 84.074 m f
0.156863 0.258824 0.407843 rg
29.176 190.77 m 30.977 190.645 33.258 190.633 35.668 190.621 c 41.008 190.594
 46.457 190.562 50.934 189.516 c 59.172 199.102 68.379 207.805 78.414 215.488
 c 78.523 215.574 l 78.523 293.797 l 78.523 309.848 72.707 325.355 62.148
 337.445 c 57.363 342.93 l 52.266 348.77 51.043 357.043 54.238 364.105 c
 57.43 371.168 64.449 375.719 72.199 375.75 c 72.297 375.75 l 78.375 375.77
 84.125 372.977 87.867 368.184 c 100.301 352.375 l 110.375 339.516 116.023
 323.742 116.41 307.41 c 117.91 238.102 l 123.461 240.277 129.148 242.078
 134.941 243.484 c 138.504 250.684 151.742 275.855 173.219 298.891 c 198.719
 326.234 226.457 340.211 254.656 340.211 c 263.695 340.188 272.68 338.789
 281.297 336.059 c 303.492 329.133 313.984 314.18 318.871 302.855 c 322.008
 295.645 323.805 287.922 324.164 280.066 c 324.516 278.117 324.699 276.145
 324.719 274.164 c 324.719 258.637 313.605 246.008 299.941 246.008 c 286.281
 246.008 275.176 258.637 275.176 274.164 c 275.176 289.688 286.289 302.32
 299.949 302.32 c 303.457 302.363 306.934 301.652 310.145 300.238 c 305.43
 310.527 296.301 321.949 278.621 327.469 c 259.934 333.301 241.25 332.359
 223.086 324.672 c 208.324 318.426 193.812 307.738 179.949 292.906 c 163.598
 275.41 152 256.172 146.254 245.656 c 149.504 246.121 152.816 246.465 156.191
 246.656 c 158.391 246.781 160.59 246.844 162.789 246.844 c 199.613 246.844
 235.695 229.348 270.176 194.766 c 280.277 203.195 311.609 227.191 340.957
 227.188 c 345.328 227.215 349.676 226.629 353.887 225.457 c 359.637 223.801
 357.18 215.176 351.422 216.801 c 334.551 221.605 314.312 212.961 300.305
 204.863 c 290.617 199.215 281.477 192.672 273.004 185.32 c 226.879 140.172
 179.809 122.418 133.094 132.562 c 95.324 140.766 67.758 165.328 54.508 
177.133 c 53.477 178.051 52.527 178.898 51.66 179.656 c 49.504 181.547 40.82
 181.594 35.629 181.621 c 33.07 181.633 30.652 181.645 28.562 181.789 c 
26.066 181.941 24.172 184.098 24.344 186.594 c 24.516 189.086 26.691 190.961
 29.184 190.77 c h
299.945 293.32 m 291.246 293.32 284.172 284.727 284.172 274.164 c 284.172
 263.602 291.25 255.008 299.945 255.008 c 308.645 255.008 315.723 263.602
 315.723 274.164 c 315.723 274.945 315.543 293.32 299.945 293.32 c h
107.414 307.215 m 107.074 321.598 102.098 335.488 93.227 346.816 c 80.793
 362.625 l 78.75 365.238 75.613 366.762 72.293 366.75 c 72.242 366.75 l 
68.012 366.734 64.184 364.254 62.441 360.402 c 60.695 356.551 61.363 352.035
 64.141 348.852 c 68.93 343.363 l 80.918 329.633 87.523 312.023 87.523 293.797
 c 87.523 293.105 l 89.914 293.105 l 95.914 293.105 95.914 284.105 89.914
 284.105 c 87.523 284.105 l 87.523 262.188 l 89.914 262.188 l 95.914 262.188
 95.914 253.188 89.914 253.188 c 87.523 253.188 l 87.523 222.051 l 94.359
 226.664 101.535 230.754 108.992 234.273 c h
263.512 188.699 m 245.031 207.184 226.203 220.465 207.039 228.551 c 215.559
 216.574 218.93 201.285 218.93 188.246 c 219.027 173.125 213.195 158.57 
202.688 147.699 c 222.977 155.816 243.254 169.484 263.512 188.699 c h
60.488 183.855 m 70.73 174.73 89.914 157.645 115.605 147.355 c 108.387 
154.395 102.922 163.027 99.645 172.562 c 98.777 174.949 100.051 177.578 
102.461 178.379 c 104.867 179.176 107.461 177.824 108.188 175.391 c 114.555
 157.359 129.621 143.781 148.215 139.32 c 155.93 138.59 163.703 138.68 171.402
 139.586 c 194.82 145.93 209.93 164.988 209.93 188.246 c 209.93 205.094 
203.664 226.176 186.16 235.254 c 176.52 237.406 166.629 238.223 156.766 
237.68 c 147.051 237.109 137.453 235.277 128.207 232.238 c 118.383 225.301
 110.59 214.035 107.262 202.707 c 106.699 200.801 104.945 199.496 102.957
 199.496 c 102.938 199.496 l 99.938 199.496 97.777 202.379 98.617 205.258
 c 100.547 211.695 103.457 217.789 107.25 223.336 c 82.844 210.484 65.656
 192.641 59.059 185.133 c 59.516 184.719 59.988 184.297 60.484 183.852 c
 h
60.488 183.855 m f
157.75 217.191 m 168.57 217.195 178.324 210.68 182.469 200.688 c 186.613
 190.695 184.328 179.188 176.68 171.535 c 169.031 163.883 157.527 161.594
 147.531 165.734 c 137.535 169.871 131.016 179.625 131.016 190.445 c 131.031
 205.203 142.988 217.168 157.75 217.191 c h
157.75 172.699 m 164.93 172.691 171.402 177.016 174.156 183.645 c 176.906
 190.273 175.391 197.91 170.316 202.988 c 165.242 208.066 157.609 209.586
 150.977 206.84 c 144.344 204.094 140.016 197.621 140.016 190.445 c 140.023
 180.652 147.957 172.711 157.75 172.699 c h
157.75 172.699 m f
32.625 140.832 m 33.406 140.832 34.172 140.629 34.852 140.242 c 90.836 
108.359 l 90.91 108.316 90.984 108.273 91.059 108.23 c 96.305 105.312 91.926
 97.445 86.684 100.367 c 86.383 100.535 l 73.891 107.652 l 96.285 57.359
 l 110.078 50.293 124.938 45.543 140.273 43.297 c 121.18 86.176 l 119.984
 86.5 118.793 86.836 117.609 87.191 c 115.695 87.762 114.387 89.516 114.383
 91.512 c 114.383 91.523 l 114.379 94.531 117.273 96.691 120.156 95.836 
c 153.227 85.883 188.801 88.426 220.121 102.98 c 261.848 122.355 l 277.016
 129.422 293.5 133.219 310.23 133.508 c 336.32 133.992 l 342.707 134.113
 348.855 131.559 353.273 126.945 c 357.691 122.332 359.984 116.082 359.59
 109.703 c 358.852 97.629 348.594 88.32 336.488 88.242 c 331.078 88.137 
l 310.699 86.492 290.871 80.699 272.812 71.109 c 224.125 45.32 l 224.055
 45.285 223.984 45.246 223.914 45.215 c 206.469 37.117 186.312 33.055 162.301
 32.797 c 135.738 32.516 109.578 39.281 86.488 52.406 c 37.125 76.828 l 
37.125 44.242 l 39.703 44.242 l 45.703 44.242 45.703 35.242 39.703 35.242
 c 37.125 35.242 l 37.125 12.938 l 37.164 10.461 35.242 8.391 32.766 8.25
 c 30.227 8.172 28.125 10.207 28.125 12.75 c 28.125 136.215 l 28.105 137.359
 28.512 138.465 29.262 139.328 c 30.117 140.285 31.34 140.832 32.625 140.832
 c h
330.348 97.105 m 336.516 97.242 l 343.961 97.227 350.137 103 350.617 110.43
 c 350.809 114.27 349.395 118.02 346.719 120.781 c 344.039 123.543 340.336
 125.066 336.488 124.996 c 310.398 124.508 l 308.387 124.473 306.387 124.383
 304.395 124.238 c 317.199 95.477 l 321.543 96.195 325.926 96.738 330.352
 97.109 c h
275.414 82.461 m 285.879 87.391 296.848 91.164 308.133 93.707 c 295.02 
123.156 l 284.855 121.551 274.965 118.531 265.637 114.191 c 262.031 112.516
 l h
267.367 78.41 m 253.867 108.73 l 223.906 94.82 l 223.473 94.621 223.035
 94.434 222.598 94.234 c 236.844 62.242 l h
220.02 53.332 m 228.867 58.02 l 214.289 90.762 l 203.367 86.57 191.992 
83.684 180.395 82.16 c 196.711 45.52 l 204.734 47.285 212.547 49.906 220.02
 53.332 c h
162.203 41.797 m 170.715 41.855 179.211 42.523 187.629 43.801 c 170.969
 81.215 l 168.09 81.023 165.203 80.906 162.301 80.871 c 152.191 80.766 142.098
 81.684 132.176 83.613 c 150.625 42.172 l 154.473 41.898 158.332 41.758 
162.203 41.797 c h
37.125 109.934 m 40.477 109.934 l 46.477 109.934 46.477 100.934 40.477 
100.934 c 37.125 100.934 l 37.125 86.871 l 83.512 63.922 l 60.688 115.172
 l 37.125 128.59 l h
37.125 109.934 m f
Q Q
showpage
%%Trailer
end
%%EOF
