%!PS-Adobe-3.0 EPSF-3.0
%%Creator: cairo 1.16.0 (https://cairographics.org)
%%CreationDate: Mon Dec 14 10:17:30 2020
%%Pages: 1
%%DocumentData: Clean7Bit
%%LanguageLevel: 2
%%BoundingBox: 7 10 377 374
%%EndComments
%%BeginProlog
50 dict begin
/q { gsave } bind def
/Q { grestore } bind def
/cm { 6 array astore concat } bind def
/w { setlinewidth } bind def
/J { setlinecap } bind def
/j { setlinejoin } bind def
/M { setmiterlimit } bind def
/d { setdash } bind def
/m { moveto } bind def
/l { lineto } bind def
/c { curveto } bind def
/h { closepath } bind def
/re { exch dup neg 3 1 roll 5 3 roll moveto 0 rlineto
      0 exch rlineto 0 rlineto closepath } bind def
/S { stroke } bind def
/f { fill } bind def
/f* { eofill } bind def
/n { newpath } bind def
/W { clip } bind def
/W* { eoclip } bind def
/BT { } bind def
/ET { } bind def
/BDC { mark 3 1 roll /BDC pdfmark } bind def
/EMC { mark /EMC pdfmark } bind def
/cairo_store_point { /cairo_point_y exch def /cairo_point_x exch def } def
/Tj { show currentpoint cairo_store_point } bind def
/TJ {
  {
    dup
    type /stringtype eq
    { show } { -0.001 mul 0 cairo_font_matrix dtransform rmoveto } ifelse
  } forall
  currentpoint cairo_store_point
} bind def
/cairo_selectfont { cairo_font_matrix aload pop pop pop 0 0 6 array astore
    cairo_font exch selectfont cairo_point_x cairo_point_y moveto } bind def
/Tf { pop /cairo_font exch def /cairo_font_matrix where
      { pop cairo_selectfont } if } bind def
/Td { matrix translate cairo_font_matrix matrix concatmatrix dup
      /cairo_font_matrix exch def dup 4 get exch 5 get cairo_store_point
      /cairo_font where { pop cairo_selectfont } if } bind def
/Tm { 2 copy 8 2 roll 6 array astore /cairo_font_matrix exch def
      cairo_store_point /cairo_font where { pop cairo_selectfont } if } bind def
/g { setgray } bind def
/rg { setrgbcolor } bind def
/d1 { setcachedevice } bind def
/cairo_data_source {
  CairoDataIndex CairoData length lt
    { CairoData CairoDataIndex get /CairoDataIndex CairoDataIndex 1 add def }
    { () } ifelse
} def
/cairo_flush_ascii85_file { cairo_ascii85_file status { cairo_ascii85_file flushfile } if } def
/cairo_image { image cairo_flush_ascii85_file } def
/cairo_imagemask { imagemask cairo_flush_ascii85_file } def
%%EndProlog
%%BeginSetup
%%EndSetup
%%Page: 1 1
%%BeginPageSetup
%%PageBoundingBox: 7 10 377 374
%%EndPageSetup
q 7 10 370 364 rectclip
1 0 0 -1 0 384 cm q
0.776471 0.745098 0.733333 rg
117.922 14.625 m 106.988 14.598 96.484 18.906 88.719 26.602 c 85.758 29.531
 83.262 32.895 81.316 36.578 c 81.309 36.578 l 78.223 42.414 76.613 48.918
 76.621 55.523 c 76.621 58.262 77.719 60.887 79.664 62.812 c 98.152 82.621
 l 99.293 83.844 99.207 85.762 97.965 86.879 c 82.23 101.07 l 81.602 101.637
 81.242 102.441 81.238 103.289 c 81.238 130.148 l 81.242 130.945 81.562 
131.711 82.133 132.27 c 92.684 142.719 l 93.871 143.883 93.871 145.797 92.684
 146.961 c 78.93 160.59 l 78.363 161.148 78.043 161.914 78.047 162.711 c
 78.047 300.684 l 237.93 344.199 l 238.371 353.648 242.617 366.863 262.363
 369.031 c 262.371 369.367 l 286.508 369.211 303.996 350.953 303.996 328.477
 c 302.773 253.828 l 302.766 253.047 302.445 252.301 301.891 251.754 c 291.316
 241.281 l 290.129 240.117 290.129 238.203 291.316 237.039 c 305.07 223.41
 l 305.637 222.852 305.957 222.086 305.953 221.289 c 305.953 50.461 l 305.992
 35.008 315.141 21.035 329.289 14.82 c 329.297 14.723 l h
117.922 14.625 m f
0.298039 0.662745 0.529412 rg
269.301 98.863 m 221.184 98.863 l 245.242 75.039 l h
269.301 98.863 m f
0.333333 0.447059 0.556863 rg
329.297 14.723 m 329.289 14.82 l 315.141 21.035 305.992 35.008 305.953 
50.461 c 305.953 88.566 l 368.625 88.566 l 370.48 88.574 371.992 87.07 372
 85.215 c 372 59.797 l 372 35.812 353.129 16.199 329.297 14.723 c h
329.297 14.723 m f
0.678431 0.643137 0.631373 rg
101.43 160.59 m 115.184 146.961 l 116.371 145.797 116.371 143.883 115.184
 142.719 c 104.633 132.27 l 104.062 131.711 103.742 130.945 103.738 130.148
 c 103.738 103.289 l 103.742 102.441 104.102 101.637 104.73 101.07 c 120.465
 86.879 l 121.707 85.762 121.793 83.844 120.652 82.621 c 102.164 62.812 
l 100.219 60.887 99.121 58.262 99.121 55.523 c 99.113 48.918 100.723 42.414
 103.809 36.578 c 103.816 36.578 l 105.762 32.895 108.258 29.531 111.219
 26.602 c 118.887 19.008 129.223 14.711 140.016 14.637 c 117.922 14.625 
l 106.988 14.598 96.484 18.906 88.719 26.602 c 85.758 29.531 83.262 32.895
 81.316 36.578 c 81.309 36.578 l 78.223 42.414 76.613 48.918 76.621 55.523
 c 76.621 58.262 77.719 60.887 79.664 62.812 c 98.152 82.621 l 99.293 83.844
 99.207 85.762 97.965 86.879 c 82.23 101.07 l 81.602 101.637 81.242 102.441
 81.238 103.289 c 81.238 130.148 l 81.242 130.945 81.562 131.711 82.133 
132.27 c 92.684 142.719 l 93.871 143.883 93.871 145.797 92.684 146.961 c
 78.93 160.59 l 78.363 161.148 78.043 161.914 78.047 162.711 c 78.047 300.684
 l 100.547 306.805 l 100.547 162.711 l 100.543 161.914 100.863 161.148 101.43
 160.59 c h
101.43 160.59 m f
0.415686 0.521569 0.607843 rg
262.363 369.031 m 242.617 366.863 238.371 353.648 237.93 344.199 c 237.422
 295.434 l 15.375 295.434 l 13.52 295.426 12.008 296.93 12 298.785 c 12 
324.203 l 12 349.156 32.422 369.375 56.109 369.375 c 262.043 369.375 l 262.156
 369.375 262.266 369.375 262.371 369.367 c h
262.363 369.031 m f
0.341176 0.443137 0.509804 rg
34.5 324.203 m 34.5 298.785 l 34.508 296.93 36.02 295.426 37.875 295.434
 c 15.375 295.434 l 13.52 295.426 12.008 296.93 12 298.785 c 12 324.203 
l 12 349.156 32.422 369.375 56.109 369.375 c 78.609 369.375 l 54.922 369.375
 34.5 349.156 34.5 324.203 c h
34.5 324.203 m f
0.921569 0.447059 0.533333 rg
139.785 70.621 m 146.375 70.684 152.281 74.703 154.758 80.812 c 157.234
 86.918 155.801 93.918 151.117 98.555 c 146.434 103.191 139.422 104.562 
133.34 102.027 c 127.258 99.488 123.293 93.547 123.293 86.953 c 123.336 
77.891 130.719 70.578 139.785 70.621 c h
139.785 70.621 m f
0.156863 0.258824 0.407843 rg
326.391 10.125 m 117.922 10.125 l 101.082 10.109 85.586 19.316 77.551 34.113
 c 77.383 34.371 77.242 34.641 77.129 34.926 c 73.836 41.293 72.117 48.359
 72.121 55.527 c 72.113 59.434 73.668 63.184 76.434 65.941 c 93.812 84.566
 l 79.219 97.727 l 77.645 99.145 76.746 101.164 76.746 103.285 c 76.746 
130.141 l 76.75 132.141 77.551 134.055 78.965 135.461 c 88.438 144.836 l
 75.77 157.383 l 74.352 158.793 73.551 160.707 73.547 162.703 c 73.547 290.934
 l 15.375 290.934 l 11.035 290.934 7.516 294.445 7.5 298.781 c 7.5 324.207
 l 7.488 337.359 12.691 349.984 21.969 359.309 c 30.922 368.566 43.23 373.82
 56.109 373.875 c 262.043 373.875 l 274.867 373.875 286.684 369.156 295.309
 360.59 c 303.852 352.066 308.602 340.465 308.5 328.402 c 307.273 253.754
 l 307.246 251.797 306.449 249.93 305.055 248.555 c 295.566 239.156 l 308.234
 226.613 l 309.648 225.203 310.449 223.285 310.453 221.285 c 310.453 93.066
 l 368.625 93.066 l 372.965 93.066 376.484 89.555 376.5 85.219 c 376.5 59.793
 l 376.5 32.406 354.02 10.125 326.391 10.125 c h
301.457 50.461 m 301.457 220.656 l 288.32 233.668 l 286.898 235.031 286.047
 236.879 285.934 238.844 c 285.84 240.949 286.645 243 288.148 244.477 c 
298.289 254.52 l 299.5 328.477 l 299.5 348.973 283.789 364.492 262.824 364.871
 c 262.859 364.562 l 249.902 363.137 243.027 356.238 242.43 344.066 c 241.922
 295.391 l 241.895 292.922 239.887 290.938 237.422 290.938 c 132.332 290.938
 l 126.332 290.938 126.332 299.938 132.332 299.938 c 232.965 299.938 l 233.43
 344.246 l 233.43 344.301 233.43 344.355 233.434 344.41 c 233.707 350.238
 235.355 358.566 241.695 364.879 c 214.613 364.879 l 214.613 359.906 l 214.613
 353.906 205.613 353.906 205.613 359.906 c 205.613 364.875 l 56.109 364.875
 l 42.664 364.875 30.531 357.57 23.336 346.699 c 24.363 346.699 l 30.363
 346.699 30.363 337.699 24.363 337.699 c 18.84 337.699 l 17.293 333.367 
16.504 328.805 16.5 324.207 c 16.5 299.934 l 44.008 299.934 l 44.008 304
 l 44.008 310 53.008 310 53.008 304 c 53.008 299.934 l 102.332 299.934 l
 108.332 299.934 108.332 290.934 102.332 290.934 c 82.543 290.934 l 82.543
 163.344 l 95.852 150.164 l 97.27 148.758 98.07 146.84 98.07 144.844 c 98.07
 142.844 97.27 140.93 95.852 139.523 c 85.738 129.512 l 85.738 103.965 l
 100.977 90.219 l 102.469 88.875 103.359 86.988 103.445 84.98 c 103.531 
82.977 102.809 81.02 101.438 79.551 c 82.957 59.742 l 82.918 59.699 82.875
 59.656 82.832 59.617 c 81.734 58.539 81.117 57.062 81.121 55.527 c 81.117
 50.551 82.148 45.633 84.148 41.078 c 98.551 41.078 l 104.551 41.078 104.551
 32.078 98.551 32.078 c 89.801 32.078 l 96.82 23.848 107.102 19.109 117.922
 19.125 c 275.531 19.125 l 275.531 24.191 l 275.531 30.191 284.531 30.191
 284.531 24.191 c 284.531 19.125 l 314.898 19.125 l 306.332 27.297 301.473
 38.617 301.457 50.461 c h
367.5 84.066 m 350.598 84.066 l 350.598 77.117 l 350.598 71.117 341.598
 71.117 341.598 77.117 c 341.598 84.066 l 310.457 84.066 l 310.457 50.461
 l 310.5 37.117 318.223 24.996 330.297 19.312 c 351.137 21.266 367.5 38.672
 367.5 59.793 c h
367.5 84.066 m f
138.422 335.793 m 150.242 335.793 l 156.242 335.793 156.242 326.793 150.242
 326.793 c 138.422 326.793 l 132.422 326.793 132.422 335.793 138.422 335.793
 c h
138.422 335.793 m f
192.516 68.371 m 190.027 68.371 188.016 70.383 188.016 72.871 c 188.016
 254.645 l 188.016 260.645 197.016 260.645 197.016 254.645 c 197.016 72.871
 l 197.016 70.383 195 68.371 192.516 68.371 c h
192.516 68.371 m f
113.738 177.727 m 165.832 177.727 l 171.832 177.727 171.832 168.727 165.832
 168.727 c 144.285 168.727 l 144.285 160.934 l 144.285 154.934 135.285 154.934
 135.285 160.934 c 135.285 168.727 l 118.238 168.727 l 118.238 160.934 l
 118.238 154.934 109.238 154.934 109.238 160.934 c 109.238 173.227 l 109.238
 175.711 111.254 177.727 113.738 177.727 c h
113.738 177.727 m f
139.785 107.785 m 148.195 107.719 155.742 102.602 158.918 94.816 c 162.09
 87.027 160.27 78.094 154.301 72.168 c 148.328 66.242 139.383 64.492 131.617
 67.723 c 123.852 70.957 118.797 78.543 118.797 86.953 c 118.852 98.496 
128.242 107.812 139.785 107.785 c h
139.785 75.121 m 144.555 75.188 148.82 78.109 150.602 82.535 c 152.383 
86.961 151.332 92.023 147.938 95.375 c 144.539 98.727 139.465 99.711 135.062
 97.867 c 130.66 96.027 127.797 91.723 127.797 86.953 c 127.848 80.379 133.211
 75.086 139.785 75.121 c h
139.785 75.121 m f
164.914 239.332 m 159.316 245.461 l 153.344 239.25 l 151.688 237.527 148.973
 237.398 147.16 238.957 c 139.242 245.773 l 133.434 239.352 l 131.766 237.508
 128.922 237.363 127.078 239.031 c 119.855 245.566 l 114.789 239.492 l 113.207
 237.555 110.348 237.281 108.426 238.883 c 106.504 240.484 106.258 243.344
 107.875 245.254 c 115.941 254.926 l 117.578 256.891 120.52 257.098 122.418
 255.383 c 129.777 248.723 l 135.512 255.062 l 137.148 256.875 139.934 257.047
 141.785 255.457 c 149.805 248.555 l 156.156 255.164 l 157.004 256.047 158.176
 256.547 159.398 256.547 c 159.457 256.547 l 160.703 256.531 161.883 256
 162.723 255.078 c 171.559 245.398 l 173.27 243.57 173.156 240.695 171.305
 239.004 c 169.457 237.316 166.582 237.461 164.914 239.332 c h
164.914 239.332 m f
271.371 241.059 m 268.887 241.059 266.871 243.07 266.871 245.559 c 266.871
 248.852 l 249.66 248.852 l 249.66 241.059 l 249.66 235.059 240.66 235.059
 240.66 241.059 c 240.66 248.852 l 223.613 248.852 l 223.613 241.059 l 223.613
 235.059 214.613 235.059 214.613 241.059 c 214.613 253.352 l 214.613 255.836
 216.629 257.852 219.113 257.852 c 271.207 257.852 l 273.691 257.852 275.707
 255.836 275.707 253.352 c 275.871 253.352 l 275.871 245.559 l 275.871 243.07
 273.855 241.059 271.371 241.059 c h
271.371 241.059 m f
221.184 103.367 m 269.301 103.367 l 273.32 103.367 275.324 98.496 272.465
 95.668 c 248.41 71.844 l 246.656 70.105 243.832 70.105 242.078 71.844 c
 218.02 95.668 l 215.164 98.496 217.164 103.367 221.184 103.367 c h
245.242 81.375 m 258.359 94.367 l 232.125 94.367 l h
245.242 81.375 m f
231.379 140.605 m 229.758 141.328 228.715 142.938 228.715 144.715 c 228.715
 189.441 l 228.715 195.441 237.715 195.441 237.715 189.441 c 237.715 154.801
 l 254.266 169.648 l 256.117 171.309 258.961 171.156 260.621 169.305 c 262.281
 167.457 262.129 164.609 260.277 162.949 c 236.219 141.367 l 234.898 140.18
 233 139.883 231.379 140.605 c h
231.379 140.605 m f
Q Q
showpage
%%Trailer
end
%%EOF
