%!PS-Adobe-3.0 EPSF-3.0
%%Creator: cairo 1.16.0 (https://cairographics.org)
%%CreationDate: Mon Dec 14 10:17:30 2020
%%Pages: 1
%%DocumentData: Clean7Bit
%%LanguageLevel: 2
%%BoundingBox: 41 8 343 376
%%EndComments
%%BeginProlog
50 dict begin
/q { gsave } bind def
/Q { grestore } bind def
/cm { 6 array astore concat } bind def
/w { setlinewidth } bind def
/J { setlinecap } bind def
/j { setlinejoin } bind def
/M { setmiterlimit } bind def
/d { setdash } bind def
/m { moveto } bind def
/l { lineto } bind def
/c { curveto } bind def
/h { closepath } bind def
/re { exch dup neg 3 1 roll 5 3 roll moveto 0 rlineto
      0 exch rlineto 0 rlineto closepath } bind def
/S { stroke } bind def
/f { fill } bind def
/f* { eofill } bind def
/n { newpath } bind def
/W { clip } bind def
/W* { eoclip } bind def
/BT { } bind def
/ET { } bind def
/BDC { mark 3 1 roll /BDC pdfmark } bind def
/EMC { mark /EMC pdfmark } bind def
/cairo_store_point { /cairo_point_y exch def /cairo_point_x exch def } def
/Tj { show currentpoint cairo_store_point } bind def
/TJ {
  {
    dup
    type /stringtype eq
    { show } { -0.001 mul 0 cairo_font_matrix dtransform rmoveto } ifelse
  } forall
  currentpoint cairo_store_point
} bind def
/cairo_selectfont { cairo_font_matrix aload pop pop pop 0 0 6 array astore
    cairo_font exch selectfont cairo_point_x cairo_point_y moveto } bind def
/Tf { pop /cairo_font exch def /cairo_font_matrix where
      { pop cairo_selectfont } if } bind def
/Td { matrix translate cairo_font_matrix matrix concatmatrix dup
      /cairo_font_matrix exch def dup 4 get exch 5 get cairo_store_point
      /cairo_font where { pop cairo_selectfont } if } bind def
/Tm { 2 copy 8 2 roll 6 array astore /cairo_font_matrix exch def
      cairo_store_point /cairo_font where { pop cairo_selectfont } if } bind def
/g { setgray } bind def
/rg { setrgbcolor } bind def
/d1 { setcachedevice } bind def
/cairo_data_source {
  CairoDataIndex CairoData length lt
    { CairoData CairoDataIndex get /CairoDataIndex CairoDataIndex 1 add def }
    { () } ifelse
} def
/cairo_flush_ascii85_file { cairo_ascii85_file status { cairo_ascii85_file flushfile } if } def
/cairo_image { image cairo_flush_ascii85_file } def
/cairo_imagemask { imagemask cairo_flush_ascii85_file } def
%%EndProlog
%%BeginSetup
%%EndSetup
%%Page: 1 1
%%BeginPageSetup
%%PageBoundingBox: 41 8 343 376
%%EndPageSetup
q 41 8 302 368 rectclip
1 0 0 -1 0 384 cm q
0.501961 0.482353 0.529412 rg
175.359 251.871 m 175.359 278.871 l 209.762 279.441 l 209.762 251.871 l
 h
175.359 251.871 m f
0.403922 0.384314 0.427451 rg
175.359 251.871 20.25 27 re f
0.921569 0.447059 0.533333 rg
316.762 155.859 21.488 22.5 re f
0.882353 0.392157 0.309804 rg
338.25 178.359 m 338.25 229.926 l 338.25 235.859 333.441 240.672 327.508
 240.672 c 321.574 240.672 316.762 235.859 316.762 229.926 c 316.762 178.359
 l h
338.25 178.359 m f
0.415686 0.521569 0.607843 rg
163.703 216.684 m 163.703 246.414 l 163.703 248.258 164.438 250.027 165.742
 251.332 c 167.047 252.641 168.816 253.371 170.664 253.371 c 213.336 253.371
 l 217.18 253.371 220.297 250.258 220.297 246.414 c 220.297 216.684 l h
163.703 216.684 m f
0.27451 0.537255 0.827451 rg
251.309 149.078 m 251.191 148.926 251.062 148.785 250.934 148.641 c 249.289
 146.867 246.992 145.836 244.57 145.789 c 242.152 145.742 239.816 146.684
 238.102 148.395 c 206.43 180.066 l 206.309 180.301 l 218.918 192.652 l 
219.137 192.531 l 250.688 160.98 l 253.914 157.758 254.184 152.617 251.309
 149.078 c h
251.309 149.078 m f
177.57 180.066 m 145.898 148.395 l 142.422 144.918 136.789 144.918 133.312
 148.395 c 129.836 151.871 129.836 157.504 133.312 160.98 c 164.863 192.531
 l 165.082 192.652 l 177.691 180.301 l h
177.57 180.066 m f
0.470588 0.709804 0.662745 rg
161.781 12.75 m 161.781 18.562 l 161.781 22.809 165.223 26.25 169.469 26.25
 c 214.531 26.25 l 218.777 26.25 222.219 22.809 222.219 18.562 c 222.219
 12.75 l h
161.781 12.75 m f
0.533333 0.807843 0.847059 rg
171.734 26.25 m 171.734 30.637 l 171.734 41.828 180.809 50.902 192 50.902
 c 203.191 50.902 212.266 41.828 212.266 30.637 c 212.266 26.25 l h
171.734 26.25 m f
0.780392 0.603922 0.513726 rg
192 50.934 m 188.898 50.934 185.84 50.223 183.059 48.855 c 182.879 181.898
 l 200.879 181.824 l 201.059 48.789 l 198.25 50.203 195.145 50.938 192 50.934
 c h
192 50.934 m f
0.921569 0.447059 0.533333 rg
45.75 155.859 21.488 22.5 re f
0.882353 0.392157 0.309804 rg
67.238 178.359 m 67.238 229.926 l 67.238 235.859 62.426 240.672 56.492 
240.672 c 50.559 240.672 45.75 235.859 45.75 229.926 c 45.75 178.359 l h
67.238 178.359 m f
0.533333 0.807843 0.847059 rg
222.801 207.57 m 222.801 224.582 209.012 238.371 192 238.371 c 174.988 
238.371 161.199 224.582 161.199 207.57 c 161.199 190.559 174.988 176.766
 192 176.766 c 209.012 176.766 222.801 190.559 222.801 207.57 c h
222.801 207.57 m f
0.415686 0.521569 0.607843 rg
237.855 73.582 m 146.145 73.582 l 142.957 73.586 141 77.078 142.664 79.801
 c 153.898 98.168 l 154.645 99.379 155.961 100.113 157.379 100.117 c 229.688
 100.117 l 231.297 100.113 232.758 99.168 233.414 97.695 c 241.582 79.336
 l 242.789 76.633 240.812 73.586 237.855 73.582 c h
237.855 73.582 m f
0.666667 0.505882 0.435294 rg
201.039 126.129 m 200.953 153.602 l 182.953 153.602 l 183.039 126.129 l
 h
201.039 126.129 m f
0.47451 0.721569 0.737255 rg
181.449 207.57 m 181.449 194.461 189.746 182.789 202.125 178.48 c 192.707
 175.199 182.285 176.688 174.156 182.465 c 166.027 188.242 161.199 197.598
 161.199 207.57 c 161.199 217.543 166.027 226.898 174.156 232.676 c 182.285
 238.453 192.707 239.938 202.125 236.66 c 189.746 232.352 181.449 220.68
 181.449 207.57 c h
181.449 207.57 m f
0.352941 0.45098 0.517647 rg
174.148 98.168 m 162.914 79.801 l 161.25 77.078 163.207 73.586 166.395 
73.582 c 146.145 73.582 l 142.957 73.586 141 77.078 142.664 79.801 c 153.898
 98.168 l 154.645 99.379 155.961 100.113 157.379 100.117 c 177.629 100.117
 l 176.211 100.113 174.895 99.379 174.148 98.168 c h
174.148 98.168 m f
0.603922 0.592157 0.619608 rg
236.766 307.41 m 229.812 285.195 207.668 271.395 184.664 274.934 c 161.656
 278.469 144.684 298.285 144.719 321.562 c 144.719 353.25 l 238.926 353.25
 l 238.926 321.562 l 238.934 316.762 238.203 311.988 236.766 307.41 c h
236.766 307.41 m f
0.478431 0.466667 0.498039 rg
191.82 274.402 m 179.316 274.402 167.328 279.371 158.492 288.219 c 149.66
 297.066 144.703 309.059 144.719 321.562 c 144.719 353.25 l 164.969 353.25
 l 164.969 321.562 l 164.961 301.883 177.172 284.266 195.609 277.371 c 197.672
 276.602 199.785 275.98 201.938 275.508 c 198.617 274.773 195.223 274.406
 191.82 274.402 c h
191.82 274.402 m f
0.415686 0.521569 0.607843 rg
242.242 353.25 m 140.609 353.25 l 135.641 353.25 131.609 357.281 131.609
 362.25 c 131.609 371.25 l 251.242 371.25 l 251.242 362.25 l 251.242 357.281
 247.215 353.25 242.242 353.25 c h
242.242 353.25 m f
0.341176 0.435294 0.498039 rg
160.859 353.25 m 140.609 353.25 l 135.641 353.25 131.609 357.281 131.609
 362.25 c 131.609 371.25 l 151.859 371.25 l 151.859 362.25 l 151.859 357.281
 155.891 353.25 160.859 353.25 c h
160.859 353.25 m f
0.156863 0.258824 0.407843 rg
51.387 244.27 m 51.387 336.098 l 51.371 342.02 53.719 347.703 57.914 351.887
 c 62.105 356.066 67.793 358.402 73.715 358.367 c 79.637 358.336 85.301 
355.938 89.449 351.711 c 93.594 347.48 95.879 341.773 95.797 335.852 c 95.262
 288.402 94.578 204.031 96.012 172.117 c 96.762 155.352 102.594 146.992 
113.832 146.555 c 118.48 146.414 123.066 147.648 127.023 150.098 c 125.223
 154.992 126.438 160.484 130.129 164.164 c 159.605 193.637 l 155.926 202.188
 155.781 211.852 159.199 220.508 c 159.199 246.414 l 159.211 252.738 164.336
 257.863 170.66 257.871 c 170.855 257.871 l 170.855 274.371 l 152.234 282.684
 140.234 301.164 140.219 321.559 c 140.219 348.766 l 132.918 348.973 127.109
 354.949 127.109 362.25 c 127.109 371.25 l 127.109 373.734 129.125 375.75
 131.609 375.75 c 251.242 375.75 l 253.73 375.75 255.742 373.734 255.742
 371.25 c 255.742 362.25 l 255.742 355.254 250.395 349.422 243.426 348.809
 c 243.426 321.562 l 243.43 316.359 242.648 311.184 241.102 306.215 c 241.051
 306.027 240.988 305.84 240.914 305.66 c 236.555 292.262 226.934 281.211
 214.262 275.047 c 214.262 257.824 l 220.207 257.34 224.789 252.379 224.801
 246.414 c 224.801 220.508 l 228.219 211.852 228.074 202.188 224.395 193.637
 c 253.867 164.164 l 257.613 160.43 258.805 154.84 256.906 149.906 c 260.738
 147.57 265.168 146.406 269.656 146.559 c 280.895 146.992 286.723 155.352
 287.477 172.117 c 288.91 204.02 288.227 288.398 287.691 335.855 c 287.621
 341.766 289.914 347.461 294.059 351.68 c 298.203 355.895 303.859 358.285
 309.773 358.316 c 315.688 358.348 321.367 356.023 325.559 351.852 c 329.75
 347.68 332.105 342.008 332.102 336.094 c 332.008 244.488 l 338.391 242.508
 342.742 236.605 342.75 229.926 c 342.75 155.859 l 342.75 153.375 340.734
 151.359 338.25 151.359 c 332.008 151.359 l 332.008 123.309 l 332.008 117.309
 323.008 117.309 323.008 123.309 c 323.008 151.359 l 316.762 151.359 l 314.277
 151.359 312.262 153.375 312.262 155.859 c 312.262 229.926 l 312.273 236.609
 316.625 242.512 323.012 244.492 c 323.102 336.098 l 323.113 339.621 321.719
 343.004 319.227 345.492 c 316.73 347.984 313.348 349.371 309.824 349.352
 c 306.301 349.332 302.93 347.906 300.465 345.391 c 297.996 342.875 296.641
 339.477 296.691 335.953 c 297.227 288.402 297.91 203.836 296.465 171.715
 c 295.172 142.84 279.328 137.922 270.004 137.562 c 263.238 137.336 256.57
 139.246 250.953 143.023 c 245.727 140.059 239.16 140.953 234.918 145.211
 c 205.383 174.742 l 205.605 104.617 l 229.68 104.617 l 233.07 104.621 236.145
 102.625 237.523 99.523 c 245.695 81.164 l 246.879 78.508 246.637 75.434
 245.055 73 c 243.473 70.562 240.762 69.09 237.855 69.086 c 205.465 69.086
 l 205.547 51.387 l 212.547 46.809 216.766 39.012 216.77 30.645 c 216.77
 30.539 l 222.531 29.461 226.707 24.434 226.715 18.57 c 226.715 12.75 l 
226.715 10.266 224.703 8.25 222.215 8.25 c 161.785 8.25 l 159.297 8.25 157.285
 10.266 157.285 12.75 c 157.285 18.566 l 157.293 24.426 161.469 29.453 167.23
 30.535 c 167.23 30.641 l 167.234 39.043 171.492 46.871 178.543 51.438 c
 178.465 69.082 l 146.145 69.082 l 143.039 69.082 140.176 70.762 138.656
 73.473 c 137.141 76.184 137.203 79.504 138.828 82.152 c 150.062 100.512
 l 151.629 103.055 154.395 104.605 157.379 104.617 c 178.605 104.617 l 178.387
 174.52 l 149.078 145.211 l 144.773 140.891 138.082 140.039 132.832 143.145
 c 127.125 139.309 120.359 137.355 113.484 137.562 c 104.156 137.922 88.316
 142.84 87.02 171.715 c 85.578 203.848 86.262 288.406 86.793 335.953 c 86.832
 339.469 85.469 342.852 83.004 345.355 c 80.539 347.863 77.176 349.281 73.664
 349.301 c 70.148 349.32 66.773 347.938 64.281 345.461 c 61.789 342.98 60.387
 339.613 60.383 336.098 c 60.383 244.645 l 67.066 242.875 71.723 236.836
 71.734 229.926 c 71.734 155.859 l 71.734 153.375 69.719 151.359 67.234 
151.359 c 60.992 151.359 l 60.992 123.309 l 60.992 117.309 51.992 117.309
 51.992 123.309 c 51.992 151.359 l 45.75 151.359 l 43.266 151.359 41.25 
153.375 41.25 155.859 c 41.25 229.926 l 41.262 236.367 45.316 242.109 51.387
 244.27 c h
321.262 160.359 m 333.75 160.359 l 333.75 173.859 l 321.262 173.859 l h
321.262 229.926 m 321.262 182.859 l 333.75 182.859 l 333.75 229.926 l 333.77
 231.594 333.117 233.199 331.945 234.383 c 330.773 235.57 329.176 236.238
 327.508 236.238 c 325.84 236.238 324.242 235.57 323.066 234.383 c 321.895
 233.199 321.246 231.594 321.262 229.926 c h
230.133 302.914 m 227.008 302.914 l 221.008 302.914 221.008 311.914 227.008
 311.914 c 233.316 311.914 l 234.051 315.078 234.426 318.312 234.426 321.562
 c 234.426 348.75 l 205.902 348.75 l 205.902 319.078 l 205.902 313.078 196.902
 313.078 196.902 319.078 c 196.902 348.75 l 189.652 348.75 l 189.652 331.324
 l 189.652 325.324 180.652 325.324 180.652 331.324 c 180.652 348.809 l 175.203
 349.688 175.82 357.715 181.34 357.75 c 242.242 357.75 l 244.727 357.75 
246.742 359.766 246.742 362.25 c 246.742 366.75 l 136.109 366.75 l 136.109
 362.25 l 136.109 359.766 138.125 357.75 140.609 357.75 c 151.34 357.75 
l 157.34 357.75 157.34 348.75 151.34 348.75 c 149.219 348.75 l 149.219 337.766
 l 154.223 337.766 l 160.223 337.766 160.223 328.766 154.223 328.766 c 149.219
 328.766 l 149.219 321.562 l 149.184 301.699 162.887 284.449 182.242 279.988
 c 201.598 275.527 221.465 285.039 230.133 302.914 c h
179.855 271.32 m 179.855 257.871 l 205.262 257.871 l 205.262 271.691 l 
196.957 269.438 188.223 269.312 179.855 271.32 c h
215.801 246.414 m 215.797 247.77 214.699 248.871 213.34 248.871 c 170.66
 248.871 l 169.301 248.871 168.203 247.77 168.199 246.414 c 168.199 233.594
 l 181.656 245.965 202.344 245.965 215.801 233.594 c h
241.285 151.574 m 243.129 149.73 246.164 149.891 247.809 151.914 c 249.234
 153.664 249.102 156.207 247.504 157.797 c 219.633 185.672 l 217.801 183.363
 215.691 181.293 213.352 179.504 c h
169.469 21.75 m 167.711 21.746 166.285 20.324 166.285 18.566 c 166.285 
17.25 l 217.715 17.25 l 217.715 18.566 l 217.715 20.324 216.289 21.746 214.531
 21.75 c h
176.238 30.75 m 207.762 30.75 l 207.762 39.457 200.707 46.512 192 46.512
 c 183.293 46.512 176.238 39.457 176.238 30.75 c h
196.527 55.012 m 196.465 69.082 l 187.465 69.082 l 187.527 55.02 l 190.504
 55.574 193.555 55.57 196.527 55.012 c h
167.84 95.617 m 167.84 93.051 l 167.84 87.051 158.84 87.051 158.84 93.051
 c 158.84 95.617 l 157.617 95.617 l 146.891 78.082 l 237.215 78.082 l 236.188
 80.387 l 230.898 80.387 l 224.898 80.387 224.898 89.387 230.898 89.387 
c 232.184 89.387 l 229.41 95.617 l h
187.469 149.098 m 187.527 130.629 l 196.527 130.629 l 196.469 149.098 l
 h
196.441 158.098 m 196.395 172.555 l 193.406 172.168 190.379 172.176 187.395
 172.582 c 187.441 158.098 l h
187.555 121.629 m 187.609 104.617 l 196.609 104.617 l 196.555 121.629 l
 h
192 181.27 m 202.641 181.254 212.242 187.652 216.324 197.48 c 220.406 207.309
 218.168 218.625 210.648 226.156 c 203.129 233.688 191.812 235.941 181.98
 231.875 c 172.148 227.805 165.734 218.211 165.734 207.57 c 165.742 193.062
 177.492 181.297 192 181.27 c h
136.188 151.914 m 137.832 149.891 140.867 149.734 142.715 151.574 c 170.637
 179.504 l 168.301 181.289 166.191 183.363 164.363 185.672 c 136.492 157.801
 l 134.895 156.207 134.762 153.664 136.188 151.914 c h
50.25 160.359 m 62.738 160.359 l 62.738 173.859 l 50.25 173.859 l h
50.25 182.859 m 62.738 182.859 l 62.738 229.926 l 62.754 231.594 62.105
 233.199 60.934 234.383 c 59.758 235.57 58.16 236.238 56.492 236.238 c 54.824
 236.238 53.227 235.57 52.055 234.383 c 50.883 233.199 50.23 231.594 50.25
 229.926 c h
50.25 182.859 m f
174.367 212.066 m 176.852 212.066 178.867 210.051 178.867 207.566 c 178.871
 200.508 184.582 194.785 191.641 194.77 c 197.641 194.77 197.641 185.77 
191.641 185.77 c 179.617 185.789 169.875 195.539 169.867 207.566 c 169.867
 210.051 171.883 212.066 174.367 212.066 c h
174.367 212.066 m f
Q Q
showpage
%%Trailer
end
%%EOF
