%!PS-Adobe-3.0 EPSF-3.0
%%Creator: cairo 1.16.0 (https://cairographics.org)
%%CreationDate: Mon Dec 14 10:17:30 2020
%%Pages: 1
%%DocumentData: Clean7Bit
%%LanguageLevel: 2
%%BoundingBox: 28 8 356 376
%%EndComments
%%BeginProlog
50 dict begin
/q { gsave } bind def
/Q { grestore } bind def
/cm { 6 array astore concat } bind def
/w { setlinewidth } bind def
/J { setlinecap } bind def
/j { setlinejoin } bind def
/M { setmiterlimit } bind def
/d { setdash } bind def
/m { moveto } bind def
/l { lineto } bind def
/c { curveto } bind def
/h { closepath } bind def
/re { exch dup neg 3 1 roll 5 3 roll moveto 0 rlineto
      0 exch rlineto 0 rlineto closepath } bind def
/S { stroke } bind def
/f { fill } bind def
/f* { eofill } bind def
/n { newpath } bind def
/W { clip } bind def
/W* { eoclip } bind def
/BT { } bind def
/ET { } bind def
/BDC { mark 3 1 roll /BDC pdfmark } bind def
/EMC { mark /EMC pdfmark } bind def
/cairo_store_point { /cairo_point_y exch def /cairo_point_x exch def } def
/Tj { show currentpoint cairo_store_point } bind def
/TJ {
  {
    dup
    type /stringtype eq
    { show } { -0.001 mul 0 cairo_font_matrix dtransform rmoveto } ifelse
  } forall
  currentpoint cairo_store_point
} bind def
/cairo_selectfont { cairo_font_matrix aload pop pop pop 0 0 6 array astore
    cairo_font exch selectfont cairo_point_x cairo_point_y moveto } bind def
/Tf { pop /cairo_font exch def /cairo_font_matrix where
      { pop cairo_selectfont } if } bind def
/Td { matrix translate cairo_font_matrix matrix concatmatrix dup
      /cairo_font_matrix exch def dup 4 get exch 5 get cairo_store_point
      /cairo_font where { pop cairo_selectfont } if } bind def
/Tm { 2 copy 8 2 roll 6 array astore /cairo_font_matrix exch def
      cairo_store_point /cairo_font where { pop cairo_selectfont } if } bind def
/g { setgray } bind def
/rg { setrgbcolor } bind def
/d1 { setcachedevice } bind def
/cairo_data_source {
  CairoDataIndex CairoData length lt
    { CairoData CairoDataIndex get /CairoDataIndex CairoDataIndex 1 add def }
    { () } ifelse
} def
/cairo_flush_ascii85_file { cairo_ascii85_file status { cairo_ascii85_file flushfile } if } def
/cairo_image { image cairo_flush_ascii85_file } def
/cairo_imagemask { imagemask cairo_flush_ascii85_file } def
%%EndProlog
%%BeginSetup
%%EndSetup
%%Page: 1 1
%%BeginPageSetup
%%PageBoundingBox: 28 8 356 376
%%EndPageSetup
q 28 8 328 368 rectclip
1 0 0 -1 0 384 cm q
1 0.847059 0.717647 rg
183.262 55.297 m 180.246 55.23 l 180.238 55.23 l 169.223 55.129 158.227
 56.219 147.441 58.484 c 146.191 58.738 144.926 59.016 143.648 59.309 c 
138.289 60.582 133.195 62.793 128.609 65.844 c 107.949 79.352 96.188 107.414
 96.188 121.852 c 100.148 183.773 l 126.219 284.371 l 261.227 284.102 l 
261.227 134.98 l 261.227 91.641 226.594 56.242 183.262 55.297 c h
169.559 239.539 m 169.152 239.305 168.93 239.191 168.93 239.191 c 169.145
 239.016 169.348 238.84 169.559 238.664 c h
169.559 239.539 m f
0.898039 0.74902 0.639216 rg
183.262 55.297 m 180.246 55.23 l 180.238 55.23 l 169.223 55.129 158.227
 56.219 147.441 58.484 c 146.191 58.738 144.926 59.016 143.648 59.309 c 
138.289 60.582 133.195 62.793 128.609 65.844 c 107.949 79.352 96.188 107.414
 96.188 121.852 c 100.148 183.773 l 126.219 284.371 l 148.707 284.324 l 
124.547 191.102 l 123.285 186.227 122.484 181.242 122.164 176.219 c 119.449
 133.789 l 118.164 113.684 124.344 93.668 137.328 78.262 c 141.297 73.477
 145.938 69.293 151.109 65.844 c 155.695 62.793 160.789 60.582 166.148 59.309
 c 167.422 59.016 168.688 58.742 169.941 58.484 c 176.426 57.141 182.984
 56.203 189.582 55.684 c 187.5 55.477 185.391 55.344 183.262 55.297 c h
183.262 55.297 m f
0.501961 0.517647 0.584314 rg
61.207 284.102 m 53.777 284.098 46.652 287.051 41.402 292.305 c 36.152 
297.559 33.203 304.684 33.211 312.113 c 33.211 343.516 l 70.828 343.516 
l 70.816 371.25 l 267 371.25 l 267 284.102 l h
61.207 284.102 m f
0.933333 0.686275 0.258824 rg
217.484 319.941 m 217.621 321.113 217.734 322.305 217.828 323.512 c 169.371
 374.551 125.684 324.609 124.98 323.797 c 125.102 319.941 l 125.812 297.234
 l 125.812 297.234 166.816 348.699 212.828 297.234 c 215.098 304.637 216.656
 312.242 217.484 319.941 c h
217.484 319.941 m f
0.298039 0.662745 0.529412 rg
218.004 345.211 m 218.473 337.984 218.418 330.73 217.828 323.512 c 169.371
 374.551 125.684 324.609 124.98 323.797 c 124.359 343.516 l 70.973 343.516
 l 70.816 344.918 l 70.816 371.25 l 267.547 371.25 l 267.547 345.578 l h
218.004 345.211 m f
0.937255 0.772549 0.592157 rg
33.211 343.516 m 33.211 371.25 l 70.816 371.25 l 70.973 343.516 l h
33.211 343.516 m f
0.298039 0.662745 0.529412 rg
313.102 12.75 m 313.102 12.75 317.227 51.758 256.965 78.734 c 254.926 77.414
 252.801 76.113 250.59 74.836 c 250.59 74.836 273.074 52.836 267.547 12.75
 c h
313.102 12.75 m f
147.441 58.484 m 146.191 58.738 144.926 59.016 143.648 59.309 c 138.289
 60.582 133.195 62.793 128.609 65.844 c 92.664 40.844 95.641 12.75 95.641
 12.75 c 141.195 12.75 l 138.457 32.578 142.582 47.977 147.441 58.484 c 
h
147.441 58.484 m f
0.85098 0.733333 0.294118 rg
217.539 120.816 m 224.559 150.219 204.203 185.828 166.816 210.441 c 166.816
 210.441 192.148 171.375 191.047 151.809 c 191.055 151.809 l 191.969 86.145
 l 192.367 86.332 192.773 86.535 193.172 86.746 c 211.711 96.441 216.391
 116.039 217.539 120.816 c h
217.539 120.816 m f
139.352 118.289 m 139.066 126.137 l 138.516 141.016 153.922 150.891 167.211
 144.676 c 167.211 107.902 l h
139.352 118.289 m f
0.933333 0.686275 0.258824 rg
149.977 86.574 m 167.211 107.902 l 167.211 144.676 l 167.496 144.547 167.781
 144.406 168.066 144.254 c 174.797 140.723 181.453 139.359 186.645 142.754
 c 189.504 144.629 190.828 147.809 191.047 151.809 c 191.055 151.809 l 191.969
 86.145 l 172.559 76.746 152.859 85.273 149.977 86.574 c h
149.977 86.574 m f
0.831373 0.882353 0.956863 rg
167.82 104.523 m 167.82 114.262 159.926 122.152 150.191 122.152 c 140.457
 122.152 132.562 114.262 132.562 104.523 c 132.562 94.789 140.457 86.895
 150.191 86.895 c 159.926 86.895 167.82 94.789 167.82 104.523 c h
167.82 104.523 m f
0.427451 0.454902 0.52549 rg
84.016 121.852 m 70.027 121.852 56.789 128.73 49.246 140.512 c 45.957 145.508
 44.043 151.281 43.703 157.254 c 43.656 158.168 44.383 158.941 45.301 158.949
 c 113.242 159.211 l 113.242 121.852 l h
84.016 121.852 m f
0.290196 0.317647 0.376471 rg
50.016 158.961 m 50.016 158.969 l 59.781 179.121 75.121 182.902 88.996 
183.609 c 113.242 183.773 l 113.242 159.211 l h
50.016 158.961 m f
0.85098 0.733333 0.294118 rg
305.672 319.941 m 305.672 345.871 l 348.137 346.184 l 348.879 342.031 349.941
 332.781 350.477 319.941 c h
305.672 319.941 m f
217.484 319.941 m 217.621 321.113 217.734 322.305 217.828 323.512 c 218.418
 330.73 218.473 337.984 218.004 345.211 c 267.547 345.578 l 267.547 319.941
 l h
217.484 319.941 m f
0.623529 0.615686 0.839216 rg
290.438 107.836 m 280.77 96.543 269.492 86.738 256.965 78.734 c 254.926
 77.414 252.801 76.113 250.59 74.836 c 229.242 62.301 205 55.547 180.246
 55.23 c 182.34 55.973 327.422 108 168.93 239.191 c 168.93 239.191 193.516
 252.098 207.988 284.371 c 209.867 288.555 211.484 292.848 212.828 297.234
 c 215.098 304.637 216.656 312.242 217.484 319.941 c 350.477 319.941 l 352.426
 272.504 347.012 176.152 290.438 107.836 c h
290.438 107.836 m f
0.937255 0.772549 0.592157 rg
305.672 345.871 m 305.672 371.25 l 267.547 371.25 l 267.547 345.578 l h
305.672 345.871 m f
0.501961 0.517647 0.584314 rg
277.664 284.102 m 267.547 284.102 l 267.547 345.578 l 305.672 345.871 l
 305.672 312.113 l 305.672 304.684 302.723 297.559 297.469 292.305 c 292.219
 287.055 285.094 284.102 277.664 284.102 c h
277.664 284.102 m f
0.356863 0.384314 0.447059 rg
84.016 121.852 m 70.027 121.852 56.789 128.73 49.246 140.512 c 45.957 145.508
 44.043 151.281 43.703 157.254 c 43.656 158.168 44.383 158.941 45.301 158.949
 c 67.801 158.949 l 66.883 158.941 66.156 158.168 66.203 157.254 c 66.543
 151.281 68.457 145.508 71.746 140.512 c 79.289 128.73 92.527 121.852 106.516
 121.852 c h
84.016 121.852 m f
0.227451 0.25098 0.298039 rg
111.496 183.609 m 97.641 182.902 82.324 179.129 72.559 159.051 c 50.016
 158.961 l 50.016 158.969 l 59.781 179.121 75.121 182.902 88.996 183.609
 c 113.242 183.773 l 113.242 183.621 l h
111.496 183.609 m f
0.431373 0.447059 0.498039 rg
57.238 302.961 m 61.137 291.676 71.766 284.102 83.707 284.102 c 61.207 
284.102 l 53.777 284.098 46.652 287.051 41.402 292.305 c 36.152 297.559 
33.203 304.684 33.211 312.113 c 33.211 343.516 l 55.711 343.516 l 55.711
 312.113 l 55.707 309 56.223 305.906 57.238 302.961 c h
57.238 302.961 m f
1 0.847059 0.717647 rg
192.059 238.664 m 191.848 238.84 191.645 239.016 191.43 239.188 c 191.43
 239.188 191.652 239.305 192.059 239.539 c h
192.059 238.664 m f
0.839216 0.686275 0.529412 rg
33.211 343.516 22.5 27.734 re f
0.564706 0.564706 0.74902 rg
100.148 183.023 m 88.996 182.859 l 73.629 319.941 l 125.102 319.941 l 126.219
 284.371 l h
100.148 183.023 m f
0.85098 0.733333 0.294118 rg
73.629 319.941 m 70.973 343.516 l 124.359 343.516 l 125.102 319.941 l h
73.629 319.941 m f
0.470588 0.470588 0.627451 rg
100.148 183.023 m 88.996 182.859 l 73.629 319.941 l 96.129 319.941 l 108.039
 213.695 l h
100.148 183.023 m f
0.156863 0.258824 0.407843 rg
267.547 243.898 m 270.031 243.898 272.047 241.887 272.047 239.398 c 272.047
 230.691 l 272.047 224.691 263.047 224.691 263.047 230.691 c 263.047 239.398
 l 263.047 241.887 265.062 243.898 267.547 243.898 c h
267.547 243.898 m f
320.727 259.098 m 323.211 259.098 325.227 257.082 325.227 254.598 c 325.227
 245.891 l 325.227 239.891 316.227 239.891 316.227 245.891 c 316.227 254.598
 l 316.227 257.082 318.238 259.098 320.727 259.098 c h
320.727 259.098 m f
291.723 173.684 m 294.211 173.684 296.223 171.668 296.223 169.184 c 296.223
 160.68 l 296.223 154.68 287.223 154.68 287.223 160.68 c 287.223 169.184
 l 287.223 171.668 289.238 173.684 291.723 173.684 c h
291.723 173.684 m f
134.773 120.281 m 134.566 125.969 l 134.195 134.586 138.492 142.734 145.816
 147.293 c 153.164 151.977 162.469 152.336 170.156 148.238 c 176.293 145.023
 181.012 144.445 184.184 146.523 c 185.898 147.648 190.598 153.293 179.004
 178.809 c 174.93 187.578 170.352 196.109 165.301 204.359 c 163.961 206.551
 164.34 209.383 166.211 211.145 c 168.082 212.91 170.93 213.121 173.043 
211.652 c 190.246 199.641 203.918 185.188 212.738 169.645 c 222.445 152.543
 225.617 135.293 221.91 119.77 c 216.699 97.977 204.539 87.613 195.254 82.758
 c 175.605 72.484 155.785 79.184 148.973 82.102 c 140.098 82.496 132.324
 88.164 129.227 96.488 c 126.133 104.812 128.316 114.184 134.773 120.281
 c h
162.711 141.535 m 158.598 142.641 154.207 141.969 150.609 139.68 c 146.02
 136.816 143.324 131.707 143.559 126.301 c 143.594 125.406 l 150.105 127.375
 157.16 126.227 162.711 122.297 c h
195.559 151.309 m 196.355 94.078 l 202.832 98.977 209.703 107.41 213.156
 121.863 c 218.48 144.164 206.277 171.059 182.078 192.977 c 183.789 189.699
 185.523 186.199 187.156 182.609 c 193.23 169.262 196.023 158.883 195.559
 151.309 c h
187.426 89.07 m 186.75 137.703 l 182.441 135.789 177.402 135.82 171.715
 137.773 c 171.715 108.328 l 173.234 100.348 170.25 92.176 163.941 87.059
 c 170.539 85.91 178.965 85.73 187.426 89.07 c h
149.973 91.078 m 155.289 91.074 160.078 94.273 162.113 99.18 c 164.148 
104.09 163.027 109.742 159.27 113.5 c 155.516 117.258 149.863 118.383 144.953
 116.348 c 140.043 114.316 136.844 109.527 136.844 104.211 c 136.852 96.961
 142.723 91.086 149.973 91.078 c h
149.973 91.078 m f
33.207 375.75 m 305.668 375.75 l 308.156 375.75 310.168 373.734 310.168
 371.25 c 310.168 350.398 l 348.105 350.684 l 348.141 350.684 l 350.32 350.684
 352.188 349.121 352.57 346.973 c 354.316 337.164 357.961 298.598 352.008
 251.676 c 348.633 225.082 342.738 200.094 334.492 177.414 c 324.453 149.805
 310.867 125.512 294.102 105.211 c 293.992 105.059 293.871 104.914 293.742
 104.777 c 285.551 95.223 276.219 86.711 265.961 79.426 c 293.293 65.598
 305.891 49.281 311.664 37.621 c 318.668 23.492 317.625 12.727 317.578 12.277
 c 317.336 9.988 315.406 8.25 313.102 8.25 c 267.547 8.25 l 264.816 8.25
 262.719 10.66 263.09 13.363 c 267.254 43.574 254.871 62.605 249.629 69.125
 c 249.328 68.961 249.035 68.797 248.734 68.633 c 218.062 52.059 184.93 
46.941 150.141 53.371 c 145.191 41.148 143.672 27.707 145.648 13.363 c 146.023
 10.66 143.922 8.25 141.191 8.25 c 95.637 8.25 l 93.336 8.25 91.406 9.988
 91.164 12.277 c 91.035 13.473 88.59 40.578 120.98 65.809 c 103.762 79.77
 93.777 102.652 91.984 117.348 c 84.016 117.348 l 68.191 117.348 53.773 
125.102 45.457 138.082 c 41.742 143.734 39.59 150.27 39.211 157.023 c 39.125
 158.691 39.727 160.324 40.871 161.539 c 42.02 162.754 43.613 163.445 45.285
 163.453 c 47.262 163.457 l 56.879 181.219 71.148 186.266 84.012 187.699
 c 80.836 215.867 l 80.836 215.875 l 73.648 279.602 l 61.207 279.602 l 47.395
 279.617 35.098 288.355 30.531 301.391 c 30.492 301.492 30.457 301.594 30.426
 301.699 c 29.285 305.051 28.707 308.57 28.707 312.109 c 28.707 371.25 l
 28.707 373.734 30.723 375.75 33.207 375.75 c h
263.047 341.047 m 222.727 340.742 l 222.914 335.309 222.805 329.867 222.398
 324.445 c 263.047 324.445 l h
301.168 366.75 m 272.047 366.75 l 272.047 350.113 l 301.168 350.332 l h
301.168 341.332 m 272.047 341.113 l 272.047 288.602 l 277.672 288.602 l
 290.648 288.617 301.16 299.137 301.172 312.109 c h
344.266 341.656 m 310.168 341.398 l 310.168 324.445 l 345.758 324.445 l
 345.355 331.785 344.785 337.656 344.266 341.656 c h
272.578 17.25 m 308.504 17.25 l 307.84 23.176 306.078 28.926 303.309 34.207
 c 295.461 49.605 279.699 63.148 257.637 73.477 c 263.859 65.234 275.055
 46.078 272.578 17.25 c h
244.453 76.551 m 260.137 85.016 274.199 96.188 285.992 109.551 c 287.227
 146.266 l 287.309 148.691 289.297 150.617 291.723 150.617 c 291.875 150.617
 l 294.359 150.535 296.309 148.453 296.227 145.969 c 295.406 121.668 l 326.277
 164.598 338.402 215.949 343.082 252.812 c 345.703 273.578 346.723 294.52
 346.137 315.445 c 327.219 315.445 l 326.449 269.477 l 326.41 267.02 324.406
 265.051 321.949 265.051 c 321.875 265.051 l 319.391 265.09 317.41 267.141
 317.449 269.625 c 318.219 315.445 l 310.168 315.445 l 310.168 312.113 l
 310.152 294.168 295.613 279.625 277.668 279.602 c 272.043 279.602 l 272.043
 253.926 l 272.043 247.926 263.043 247.926 263.043 253.926 c 263.043 315.445
 l 242.852 315.445 l 242.039 210.406 l 242.023 207.934 240.012 205.941 237.539
 205.941 c 237.504 205.941 l 235.02 205.961 233.02 207.988 233.039 210.477
 c 233.852 315.445 l 221.422 315.445 l 217.828 290.164 207.871 272.055 198.879
 260.332 c 192.566 252.031 185.035 244.73 176.539 238.684 c 229.328 193.793
 252.828 152.914 246.402 117.125 c 242.969 97.996 230.633 80.469 210.734
 66.441 c 208.484 64.852 206.254 63.391 204.098 62.059 c 218.219 64.777 
231.832 69.664 244.453 76.551 c h
168.449 324.586 m 168.914 324.602 169.375 324.605 169.836 324.605 c 184.055
 324.605 197.734 318.367 210.602 306.027 c 211.812 311.234 212.672 316.52
 213.184 321.84 c 199.703 335.516 185.488 342.281 170.852 341.941 c 149.93
 341.457 133.836 326.492 129.535 322.074 c 129.984 307.883 l 137.926 314.891
 151.516 324.105 168.449 324.586 c h
130.363 295.621 m 130.578 288.871 l 205.082 288.871 l 206.066 291.227 206.965
 293.625 207.781 296.07 c 195.281 309.383 182.172 315.957 168.762 315.59
 c 149.281 315.07 134.316 300.008 130.363 295.621 c h
100.191 17.25 m 136.168 17.25 l 134.984 30.152 136.715 43.152 141.227 55.297
 c 136.867 56.453 132.684 58.176 128.781 60.43 c 105.266 43.125 100.906 
25.102 100.191 17.25 c h
48.52 154.465 m 49.211 150.352 50.75 146.426 53.031 142.938 c 59.84 132.469
 71.527 126.211 84.016 126.348 c 108.742 126.348 l 108.742 154.691 l h
57.812 163.5 m 108.742 163.695 l 108.742 179.273 l 98.277 179.273 l 84.309
 179.27 68.68 179.273 57.812 163.5 c h
89.328 220.832 m 92.273 220.832 l 98.273 220.832 98.273 211.832 92.273 
211.832 c 90.344 211.832 l 93 188.234 l 94.254 188.258 95.477 188.266 96.66
 188.27 c 107.805 231.273 l 109.328 237.055 117.992 234.809 116.516 229.016
 c 105.957 188.27 l 113.242 188.27 l 115.727 188.27 117.742 186.258 117.742
 183.77 c 117.742 121.848 l 117.742 119.363 115.727 117.348 113.242 117.348
 c 101.043 117.348 l 103.617 99.648 120.051 69.379 144.66 63.699 c 156.027
 61.027 167.668 59.688 179.348 59.695 c 185.164 61.902 230.652 80.328 237.547
 118.715 c 240.23 133.664 236.762 150.098 227.238 167.562 c 215.68 188.758
 195.098 211.691 166.062 235.727 c 163.598 237.773 164 241.672 166.832 243.172
 c 166.961 243.242 179.879 250.203 192.008 266.164 c 195.297 270.492 198.242
 275.078 200.809 279.871 c 181.18 279.871 l 181.18 274.562 l 181.18 268.562
 172.18 268.562 172.18 274.562 c 172.18 279.871 l 129.699 279.871 l 124.297
 259.02 l 123.781 257.035 121.992 255.645 119.938 255.645 c 116.996 255.645
 114.844 258.426 115.582 261.273 c 121.699 284.875 l 120.738 315.441 l 103.863
 315.441 l 103.863 297.234 l 103.863 291.234 94.863 291.234 94.863 297.234
 c 94.863 315.445 l 78.66 315.445 l h
77.652 324.445 m 120.449 324.445 l 119.992 339.02 l 76.008 339.02 l h
75.312 348.02 m 124.355 348.02 l 126.785 348.02 128.777 346.09 128.855 
343.66 c 129.16 333.984 l 137.52 340.961 152.219 350.484 170.559 350.934
 c 171.012 350.945 171.461 350.953 171.914 350.953 c 186.512 350.953 200.562
 345.125 213.816 333.598 c 213.859 337.305 213.758 341.078 213.52 344.922
 c 213.355 347.5 215.391 349.688 217.977 349.707 c 263.051 350.047 l 263.051
 366.75 l 75.312 366.75 l h
37.707 312.113 m 37.707 310.551 37.863 308.992 38.172 307.461 c 43.492 
307.461 l 49.492 307.461 49.492 298.461 43.492 298.461 c 42.09 298.461 l
 46.492 292.277 53.613 288.602 61.207 288.602 c 72.633 288.602 l 66.949 
339.016 l 54.859 339.016 l 54.859 335.043 l 54.859 329.043 45.859 329.043
 45.859 335.043 c 45.859 339.016 l 37.707 339.016 l h
37.707 348.02 m 66.312 348.02 l 66.312 366.75 l 37.707 366.75 l h
37.707 348.02 m f
Q Q
showpage
%%Trailer
end
%%EOF
