%!PS-Adobe-3.0 EPSF-3.0
%%Creator: cairo 1.16.0 (https://cairographics.org)
%%CreationDate: Mon Dec 14 10:17:31 2020
%%Pages: 1
%%DocumentData: Clean7Bit
%%LanguageLevel: 2
%%BoundingBox: 40 7 344 377
%%EndComments
%%BeginProlog
50 dict begin
/q { gsave } bind def
/Q { grestore } bind def
/cm { 6 array astore concat } bind def
/w { setlinewidth } bind def
/J { setlinecap } bind def
/j { setlinejoin } bind def
/M { setmiterlimit } bind def
/d { setdash } bind def
/m { moveto } bind def
/l { lineto } bind def
/c { curveto } bind def
/h { closepath } bind def
/re { exch dup neg 3 1 roll 5 3 roll moveto 0 rlineto
      0 exch rlineto 0 rlineto closepath } bind def
/S { stroke } bind def
/f { fill } bind def
/f* { eofill } bind def
/n { newpath } bind def
/W { clip } bind def
/W* { eoclip } bind def
/BT { } bind def
/ET { } bind def
/BDC { mark 3 1 roll /BDC pdfmark } bind def
/EMC { mark /EMC pdfmark } bind def
/cairo_store_point { /cairo_point_y exch def /cairo_point_x exch def } def
/Tj { show currentpoint cairo_store_point } bind def
/TJ {
  {
    dup
    type /stringtype eq
    { show } { -0.001 mul 0 cairo_font_matrix dtransform rmoveto } ifelse
  } forall
  currentpoint cairo_store_point
} bind def
/cairo_selectfont { cairo_font_matrix aload pop pop pop 0 0 6 array astore
    cairo_font exch selectfont cairo_point_x cairo_point_y moveto } bind def
/Tf { pop /cairo_font exch def /cairo_font_matrix where
      { pop cairo_selectfont } if } bind def
/Td { matrix translate cairo_font_matrix matrix concatmatrix dup
      /cairo_font_matrix exch def dup 4 get exch 5 get cairo_store_point
      /cairo_font where { pop cairo_selectfont } if } bind def
/Tm { 2 copy 8 2 roll 6 array astore /cairo_font_matrix exch def
      cairo_store_point /cairo_font where { pop cairo_selectfont } if } bind def
/g { setgray } bind def
/rg { setrgbcolor } bind def
/d1 { setcachedevice } bind def
/cairo_data_source {
  CairoDataIndex CairoData length lt
    { CairoData CairoDataIndex get /CairoDataIndex CairoDataIndex 1 add def }
    { () } ifelse
} def
/cairo_flush_ascii85_file { cairo_ascii85_file status { cairo_ascii85_file flushfile } if } def
/cairo_image { image cairo_flush_ascii85_file } def
/cairo_imagemask { imagemask cairo_flush_ascii85_file } def
%%EndProlog
%%BeginSetup
%%EndSetup
%%Page: 1 1
%%BeginPageSetup
%%PageBoundingBox: 40 7 344 377
%%EndPageSetup
q 40 7 304 370 rectclip
1 0 0 -1 0 384 cm q
0.501961 0.482353 0.529412 rg
244.363 147.711 m 135.871 147.711 l 135.871 362.594 l 135.871 367.566 139.898
 371.594 144.871 371.594 c 235.441 371.594 l 240.41 371.59 244.438 367.562
 244.441 362.594 c 244.441 150.711 l 244.418 150.711 244.387 150.711 244.363
 147.711 c h
244.363 147.711 m f
0.4 0.388235 0.419608 rg
227.332 75.945 m 156.414 75.945 l 156.414 55.133 172.289 39.328 191.879
 39.328 c 201.312 39.297 210.359 43.086 216.953 49.828 c 223.711 56.832 
227.441 66.215 227.332 75.945 c h
227.332 75.945 m f
0.501961 0.482353 0.529412 rg
252.879 75.945 m 227.332 75.945 l 227.441 66.215 223.711 56.832 216.953
 49.828 c 210.359 43.086 201.312 39.297 191.879 39.328 c 172.289 39.328 
156.414 55.133 156.414 75.945 c 131.16 75.945 l 131.16 39.328 158.25 12.406
 191.664 12.406 c 208.363 12.406 223.672 19.934 234.801 31.641 c 245.934
 43.352 252.879 59.234 252.879 75.945 c h
252.879 75.945 m f
0.419608 0.403922 0.447059 rg
156.871 362.594 m 156.871 147.711 l 135.871 147.711 l 135.871 362.594 l
 135.871 367.566 139.898 371.594 144.871 371.594 c 165.871 371.594 l 160.898
 371.594 156.871 367.566 156.871 362.594 c h
156.871 362.594 m f
201.945 13.371 m 198.555 12.73 195.113 12.406 191.664 12.406 c 158.25 12.406
 131.16 39.328 131.16 75.945 c 152.16 75.945 l 152.16 43.34 173.648 18.438
 201.945 13.371 c h
201.945 13.371 m f
0.490196 0.52549 0.588235 rg
338.387 151.941 m 338.387 109.965 312.328 75.945 270.359 75.945 c 120.984
 75.945 l 100.828 75.945 81.5 83.953 67.25 98.207 c 53 112.461 44.996 131.789
 45 151.941 c 45.637 239.184 l 45.77 256.77 59.984 271 77.57 271.148 c 95.156
 271.297 109.609 257.312 110.039 239.73 c 111.594 173.219 l 111.902 160.699
 122.141 150.711 134.664 150.711 c 244.441 150.711 l 257.059 150.754 267.309
 160.922 267.441 173.543 c 268.066 235.164 l 268.27 254.73 284.285 270.438
 303.855 270.258 c 323.422 270.082 339.152 254.086 339 234.516 c h
338.387 151.941 m f
0.388235 0.415686 0.458824 rg
264.238 104.918 m 118.875 104.918 l 90.539 104.918 67.566 127.891 67.566
 156.227 c 67.566 232.859 l 67.578 239.617 73.016 245.117 79.773 245.203
 c 86.531 245.289 92.105 239.93 92.289 233.176 c 94.074 157.434 l 94.512
 138.836 109.711 123.992 128.309 123.988 c 252.887 123.988 l 271.465 123.992
 286.652 138.812 287.113 157.387 c 288.984 232.266 l 289.172 239.531 295.16
 245.293 302.426 245.203 c 309.688 245.113 315.531 239.203 315.539 231.938
 c 315.539 156.227 l 315.543 142.617 310.137 129.566 300.516 119.945 c 290.895
 110.324 277.848 104.918 264.238 104.918 c h
264.238 104.918 m f
0.470588 0.709804 0.662745 rg
135.871 75.945 108.57 74.766 re f
0.27451 0.537255 0.827451 rg
218.805 75.945 25.637 74.766 re f
165.734 75.945 26.535 74.766 re f
0.603922 0.592157 0.619608 rg
135.871 171.945 108.57 168.098 re f
0.486275 0.47451 0.498039 rg
135.871 171.945 21 168.098 re f
0.85098 0.733333 0.294118 rg
209.258 205.453 m 174.742 239.977 l 174.742 205.453 l h
209.258 205.453 m f
0.156863 0.258824 0.407843 rg
173.02 244.133 m 174.699 244.832 176.637 244.445 177.922 243.16 c 212.441
 208.637 l 215.277 205.801 213.27 200.953 209.258 200.953 c 174.742 200.953
 l 172.254 200.953 170.242 202.969 170.242 205.453 c 170.242 239.977 l 170.242
 241.797 171.336 243.438 173.02 244.133 c h
179.242 209.953 m 198.398 209.953 l 179.242 229.113 l h
179.242 209.953 m f
174.742 313.41 m 209.258 313.41 l 211.746 313.41 213.758 311.395 213.758
 308.91 c 213.758 255.836 l 213.758 249.836 204.758 249.836 204.758 255.836
 c 204.758 277.34 l 174.66 277.875 l 168.66 277.926 168.738 286.926 174.738
 286.875 c 174.816 286.875 l 204.758 286.34 l 204.758 304.41 l 174.742 304.41
 l 168.742 304.41 168.742 313.41 174.742 313.41 c h
174.742 313.41 m f
323.531 95.277 m 310.199 79.684 291.812 71.445 270.363 71.445 c 257.195
 71.445 l 255.941 55.367 249.184 40.215 238.059 28.543 c 225.41 15.234 208.934
 7.906 191.66 7.906 c 174.316 7.82 157.691 14.832 145.648 27.316 c 134.395
 38.941 127.801 54.477 126.809 71.445 c 120.988 71.445 l 76.543 71.5 40.531
 107.527 40.5 151.973 c 41.141 239.215 l 41.293 259.254 57.492 275.469 77.535
 275.637 c 97.578 275.809 114.051 259.867 114.539 239.832 c 116.09 173.332
 l 116.254 164.5 122.664 157.02 131.367 155.504 c 131.367 362.594 l 131.375
 370.043 137.414 376.082 144.867 376.094 c 235.438 376.094 l 242.891 376.082
 248.93 370.043 248.938 362.594 c 248.938 155.785 l 257.086 157.887 262.824
 165.18 262.941 173.594 c 263.57 235.211 l 263.871 257.086 281.652 274.684
 303.535 274.758 c 314.188 274.758 324.398 270.504 331.902 262.941 c 339.406
 255.379 343.582 245.133 343.5 234.48 c 342.891 151.941 l 342.887 129.996
 336.016 109.875 323.531 95.277 c h
131.367 100.414 m 118.875 100.414 l 104.074 100.414 89.879 106.293 79.41
 116.762 c 68.945 127.227 63.066 141.422 63.066 156.227 c 63.066 192.316
 l 63.066 198.316 72.066 198.316 72.066 192.316 c 72.066 156.227 l 72.066
 143.809 76.996 131.902 85.777 123.125 c 94.555 114.344 106.465 109.414 
118.879 109.414 c 131.367 109.414 l 131.367 119.488 l 128.934 119.488 l 
118.562 119.414 108.578 123.41 101.129 130.621 c 93.938 137.672 89.793 147.254
 89.578 157.32 c 87.789 233.059 l 87.703 237.285 84.273 240.68 80.043 240.723
 c 75.602 240.652 72.043 237.02 72.066 232.574 c 72.066 222.312 l 72.066
 216.312 63.066 216.312 63.066 222.312 c 63.066 232.449 l 63.066 241.879
 70.781 249.867 80.207 249.719 c 89.266 249.617 96.605 242.336 96.781 233.277
 c 98.566 157.539 l 99.039 141.426 112.188 128.586 128.305 128.492 c 131.363
 128.492 l 131.363 146.41 l 117.723 147.973 107.344 159.391 107.09 173.117
 c 105.539 239.617 l 105.168 254.742 92.734 266.773 77.605 266.645 c 62.477
 266.516 50.25 254.273 50.137 239.145 c 49.5 151.941 l 49.543 112.477 81.52
 80.492 120.984 80.445 c 131.367 80.445 l h
239.938 362.594 m 239.938 365.078 237.922 367.09 235.438 367.094 c 144.867
 367.094 l 142.383 367.09 140.371 365.074 140.367 362.594 c 140.367 344.539
 l 239.938 344.539 l h
239.938 335.539 m 140.367 335.539 l 140.367 176.445 l 239.938 176.445 l
 h
239.938 167.445 m 140.367 167.445 l 140.367 155.211 l 239.938 155.211 l
 h
161.211 71.445 m 163.262 55.645 175.992 43.832 191.879 43.832 c 207.766
 43.832 220.484 55.645 222.535 71.445 c h
214.312 80.445 m 214.312 146.211 l 196.77 146.211 l 196.77 80.445 l h
187.773 80.445 m 187.773 146.211 l 170.234 146.211 l 170.234 80.445 l h
161.238 80.445 m 161.238 146.211 l 140.371 146.211 l 140.371 80.445 l h
239.938 146.211 m 223.309 146.211 l 223.309 80.445 l 239.938 80.445 l h
231.602 71.445 m 229.484 50.582 212.805 34.828 191.879 34.828 c 170.957
 34.828 154.262 50.578 152.148 71.445 c 135.824 71.445 l 136.801 56.836 
142.484 43.52 152.113 33.574 c 162.465 22.852 176.754 16.828 191.66 16.906
 c 220.418 16.906 245.797 41.91 248.172 71.445 c h
248.938 109.414 m 264.238 109.414 l 290.078 109.449 311.016 130.387 311.043
 156.227 c 311.043 231.938 l 311.055 236.754 307.188 240.68 302.371 240.738
 c 297.555 240.801 293.59 236.973 293.48 232.156 c 291.613 157.273 l 291.09
 136.258 273.906 119.492 252.883 119.492 c 248.938 119.492 l h
325.516 256.605 m 319.715 262.48 311.793 265.781 303.535 265.754 c 286.582
 265.699 272.805 252.066 272.57 235.113 c 271.945 173.496 l 271.754 160.16
 262.086 148.855 248.941 146.598 c 248.941 128.492 l 252.883 128.492 l 269.062
 128.402 282.309 141.328 282.617 157.5 c 284.484 232.383 l 284.738 242.105
 292.754 249.824 302.48 249.703 c 312.207 249.582 320.031 241.668 320.043
 231.941 c 320.043 156.227 l 320.008 125.418 295.043 100.449 264.238 100.414
 c 248.938 100.414 l 248.938 80.445 l 270.363 80.445 l 289.098 80.445 305.121
 87.594 316.691 101.125 c 327.777 114.094 333.887 132.141 333.887 151.973
 c 334.496 234.547 l 334.586 242.809 331.348 250.758 325.512 256.605 c h
325.516 256.605 m f
Q Q
showpage
%%Trailer
end
%%EOF
