%!PS-Adobe-3.0 EPSF-3.0
%%Creator: cairo 1.16.0 (https://cairographics.org)
%%CreationDate: Mon Dec 14 10:17:31 2020
%%Pages: 1
%%DocumentData: Clean7Bit
%%LanguageLevel: 2
%%BoundingBox: 7 45 377 339
%%EndComments
%%BeginProlog
50 dict begin
/q { gsave } bind def
/Q { grestore } bind def
/cm { 6 array astore concat } bind def
/w { setlinewidth } bind def
/J { setlinecap } bind def
/j { setlinejoin } bind def
/M { setmiterlimit } bind def
/d { setdash } bind def
/m { moveto } bind def
/l { lineto } bind def
/c { curveto } bind def
/h { closepath } bind def
/re { exch dup neg 3 1 roll 5 3 roll moveto 0 rlineto
      0 exch rlineto 0 rlineto closepath } bind def
/S { stroke } bind def
/f { fill } bind def
/f* { eofill } bind def
/n { newpath } bind def
/W { clip } bind def
/W* { eoclip } bind def
/BT { } bind def
/ET { } bind def
/BDC { mark 3 1 roll /BDC pdfmark } bind def
/EMC { mark /EMC pdfmark } bind def
/cairo_store_point { /cairo_point_y exch def /cairo_point_x exch def } def
/Tj { show currentpoint cairo_store_point } bind def
/TJ {
  {
    dup
    type /stringtype eq
    { show } { -0.001 mul 0 cairo_font_matrix dtransform rmoveto } ifelse
  } forall
  currentpoint cairo_store_point
} bind def
/cairo_selectfont { cairo_font_matrix aload pop pop pop 0 0 6 array astore
    cairo_font exch selectfont cairo_point_x cairo_point_y moveto } bind def
/Tf { pop /cairo_font exch def /cairo_font_matrix where
      { pop cairo_selectfont } if } bind def
/Td { matrix translate cairo_font_matrix matrix concatmatrix dup
      /cairo_font_matrix exch def dup 4 get exch 5 get cairo_store_point
      /cairo_font where { pop cairo_selectfont } if } bind def
/Tm { 2 copy 8 2 roll 6 array astore /cairo_font_matrix exch def
      cairo_store_point /cairo_font where { pop cairo_selectfont } if } bind def
/g { setgray } bind def
/rg { setrgbcolor } bind def
/d1 { setcachedevice } bind def
/cairo_data_source {
  CairoDataIndex CairoData length lt
    { CairoData CairoDataIndex get /CairoDataIndex CairoDataIndex 1 add def }
    { () } ifelse
} def
/cairo_flush_ascii85_file { cairo_ascii85_file status { cairo_ascii85_file flushfile } if } def
/cairo_image { image cairo_flush_ascii85_file } def
/cairo_imagemask { imagemask cairo_flush_ascii85_file } def
%%EndProlog
%%BeginSetup
%%EndSetup
%%Page: 1 1
%%BeginPageSetup
%%PageBoundingBox: 7 45 377 339
%%EndPageSetup
q 7 45 370 294 rectclip
1 0 0 -1 0 384 cm q
0.858824 0.556863 0.329412 rg
220.125 72.797 105.309 24.395 re f
55.359 72.797 m 55.359 97.449 l 159.156 97.449 l 159.434 72.797 l h
55.359 72.797 m f
0.996078 0.741176 0.537255 rg
159.016 97.449 m 55.215 97.449 l 47.324 176.859 l 140.543 176.859 l 166.125
 175.5 l h
159.016 97.449 m f
325.434 97.191 m 220.125 97.191 l 213.938 176.543 l 213.938 176.625 l 239.43
 179.836 l 333.637 179.836 l h
325.434 97.191 m f
0.858824 0.556863 0.329412 rg
333.637 179.836 m 237.93 179.836 l 241.441 254.609 l 341.062 254.609 l 
h
333.637 179.836 m f
47.469 176.859 m 39.977 252.238 l 137.941 252.988 l 142.184 176.859 l h
47.469 176.859 m f
0.690196 0.67451 0.705882 rg
59.445 252.238 m 59.445 300.211 l 35.203 300.211 l 39.977 252.238 l h
59.445 252.238 m f
0.501961 0.517647 0.584314 rg
59.445 252.238 19.5 47.973 re f
0.690196 0.67451 0.705882 rg
78.945 252.238 19.215 47.973 re f
0.501961 0.517647 0.584314 rg
98.16 252.238 19.777 47.973 re f
0.690196 0.67451 0.705882 rg
117.938 252.238 m 117.938 300.211 l 263.625 300.211 l 263.625 254.609 l
 h
117.938 252.238 m f
0.501961 0.517647 0.584314 rg
263.625 254.609 19.77 45.602 re f
0.690196 0.67451 0.705882 rg
283.395 254.609 18.34 45.602 re f
0.501961 0.517647 0.584314 rg
301.734 254.609 19.355 45.602 re f
0.690196 0.67451 0.705882 rg
341.062 254.609 m 345.594 300.211 l 321.09 300.211 l 321.09 254.609 l h
341.062 254.609 m f
0.737255 0.52549 0.388235 rg
39.977 49.5 m 46.641 70.695 l 47.039 71.945 48.199 72.793 49.508 72.797
 c 165.602 72.797 l 166.91 72.793 168.066 71.945 168.465 70.695 c 175.133
 49.5 l h
39.977 49.5 m f
204.238 49.5 m 210.914 70.695 l 211.309 71.941 212.465 72.793 213.773 72.797
 c 329.863 72.797 l 331.176 72.793 332.332 71.945 332.73 70.695 c 339.406
 49.5 l h
204.238 49.5 m f
0.364706 0.388235 0.447059 rg
264.75 197.121 29.012 57.488 re f
82.891 197.121 29 55.117 re f
0.858824 0.556863 0.329412 rg
369 316.926 m 15 316.926 l 13.344 316.926 12 318.27 12 319.926 c 12 334.5
 l 372 334.5 l 372 319.926 l 372 318.27 370.656 316.926 369 316.926 c h
369 316.926 m f
0.996078 0.741176 0.537255 rg
354.434 300.211 m 26.363 300.211 l 24.707 300.211 23.363 301.555 23.363
 303.211 c 23.363 316.926 l 357.434 316.926 l 357.434 303.211 l 357.434 
301.555 356.094 300.211 354.434 300.211 c h
354.434 300.211 m f
0.627451 0.615686 0.639216 rg
238.453 159.098 m 141.66 159.098 l 133.941 300.211 l 245.078 300.211 l 
h
238.453 159.098 m f
0.580392 0.564706 0.6 rg
128.977 137.773 m 137.527 159.098 l 242.953 159.098 l 250.68 137.773 l 
h
128.977 137.773 m f
167.109 198.602 47.062 19.617 re f
0.364706 0.388235 0.447059 rg
167.109 218.219 47.062 81.992 re f
0.729412 0.470588 0.290196 rg
55.359 72.797 19.5 24.652 re f
0.898039 0.670588 0.513726 rg
55.215 97.449 m 47.324 176.859 l 66.824 176.859 l 74.715 97.449 l h
55.215 97.449 m f
0.647059 0.45098 0.337255 rg
49.508 72.797 m 69.008 72.797 l 67.699 72.793 66.539 71.945 66.141 70.695
 c 59.477 49.5 l 39.977 49.5 l 46.641 70.695 l 47.039 71.945 48.199 72.793
 49.508 72.797 c h
49.508 72.797 m f
0.729412 0.470588 0.290196 rg
34.5 316.926 m 15 316.926 l 13.344 316.926 12 318.27 12 319.926 c 12 334.5
 l 31.5 334.5 l 31.5 319.926 l 31.5 318.27 32.844 316.926 34.5 316.926 c
 h
34.5 316.926 m f
0.580392 0.564706 0.6 rg
59.445 252.238 m 39.977 252.238 l 35.203 300.211 l 54.703 300.211 l 59.445
 252.543 l h
59.445 252.238 m f
0.898039 0.670588 0.513726 rg
45.863 300.211 m 26.363 300.211 l 24.707 300.211 23.363 301.555 23.363 
303.211 c 23.363 316.926 l 42.863 316.926 l 42.863 303.211 l 42.863 301.555
 44.207 300.211 45.863 300.211 c h
45.863 300.211 m f
0.729412 0.470588 0.290196 rg
47.469 176.859 m 39.977 252.238 l 59.477 252.238 l 66.969 176.859 l h
47.469 176.859 m f
0.156863 0.258824 0.407843 rg
265.418 148.957 m 267.902 148.957 269.918 146.941 269.918 144.457 c 269.918
 129.805 l 269.918 123.805 260.918 123.805 260.918 129.805 c 260.918 144.457
 l 260.918 146.941 262.934 148.957 265.418 148.957 c h
265.418 148.957 m f
287.418 148.957 m 289.902 148.957 291.918 146.941 291.918 144.457 c 291.918
 129.805 l 291.918 123.805 282.918 123.805 282.918 129.805 c 282.918 144.457
 l 282.918 146.941 284.934 148.957 287.418 148.957 c h
287.418 148.957 m f
90.883 125.305 m 88.398 125.305 86.383 127.32 86.383 129.805 c 86.383 144.457
 l 86.383 150.457 95.383 150.457 95.383 144.457 c 95.383 129.805 l 95.383
 127.32 93.371 125.305 90.883 125.305 c h
90.883 125.305 m f
112.883 125.305 m 110.398 125.305 108.383 127.32 108.383 129.805 c 108.383
 144.457 l 108.383 150.457 117.383 150.457 117.383 144.457 c 117.383 129.805
 l 117.383 127.32 115.371 125.305 112.883 125.305 c h
112.883 125.305 m f
369 312.426 m 361.934 312.426 l 361.934 303.207 l 361.934 299.062 358.574
 295.707 354.434 295.707 c 349.664 295.707 l 335.852 156.543 l 335.852 156.539
 l 329.938 96.973 l 329.938 77.289 l 333.188 77.27 336.055 75.148 337.023
 72.043 c 343.699 50.852 l 344.609 47.953 342.445 45 339.406 45 c 204.238
 45 l 201.199 45 199.035 47.953 199.949 50.852 c 206.621 72.043 l 207.598
 75.176 210.5 77.305 213.777 77.293 c 215.625 77.293 l 215.625 97.02 l 212.84
 133.273 l 167.059 133.273 l 163.66 97.262 l 163.883 77.293 l 165.602 77.293
 l 168.879 77.301 171.777 75.172 172.754 72.043 c 179.43 50.852 l 180.34
 47.953 178.176 45 175.137 45 c 39.977 45 l 36.938 45 34.77 47.953 35.684
 50.852 c 42.359 72.043 l 43.332 75.172 46.234 77.305 49.512 77.293 c 50.863
 77.293 l 50.863 97.223 l 31.129 295.707 l 26.363 295.707 l 22.219 295.707
 18.863 299.062 18.863 303.207 c 18.863 312.426 l 15 312.426 l 10.859 312.43
 7.504 315.785 7.5 319.926 c 7.5 334.5 l 7.5 336.984 9.516 339 12 339 c 
372 339 l 374.484 339 376.5 336.984 376.5 334.5 c 376.5 319.926 l 376.496
 315.785 373.141 312.43 369 312.426 c h
340.621 295.707 m 325.586 295.707 l 325.586 259.109 l 336.988 259.109 l
 h
334.926 238.359 m 329.121 238.617 329.227 247.242 335.039 247.352 c 335.82
 247.352 l 336.094 250.109 l 298.258 250.109 l 298.258 197.125 l 298.258
 194.641 296.242 192.625 293.758 192.625 c 264.75 192.625 l 262.266 192.625
 260.25 194.641 260.25 197.125 c 260.25 250.109 l 247.23 250.109 l 244.141
 184.336 l 329.562 184.336 l h
316.586 259.109 m 316.586 295.707 l 306.23 295.707 l 306.23 259.109 l h
269.254 250.109 m 269.254 201.625 l 289.258 201.625 l 289.258 250.109 l
 h
278.891 259.109 m 278.891 295.707 l 268.125 295.707 l 268.125 259.109 l
 h
287.891 259.109 m 297.23 259.109 l 297.23 295.707 l 287.891 295.707 l h
259.125 259.109 m 259.125 295.707 l 249.375 295.707 l 247.656 259.109 l
 h
253.184 134.023 m 252.414 133.52 251.508 133.258 250.586 133.273 c 221.867
 133.273 l 224.293 101.695 l 321.359 101.695 l 326.402 152.504 l 324.754
 152.504 l 318.754 152.504 318.754 161.504 324.754 161.504 c 327.301 161.504
 l 328.676 175.34 l 243.719 175.34 l 243.168 163.578 l 244.98 163.496 246.566
 162.332 247.188 160.629 c 254.91 139.309 l 255.617 137.359 254.906 135.18
 253.184 134.023 c h
224.625 92.695 m 224.625 77.293 l 320.934 77.293 l 320.934 92.695 l h
214.875 68.293 m 210.375 54 l 333.266 54 l 328.766 68.293 l h
244.266 142.273 m 239.801 154.598 l 235.125 154.598 l 229.754 154.602 228.906
 162.316 234.148 163.488 c 236.125 205.539 l 235.414 205.539 l 229.414 205.539
 229.414 214.539 235.414 214.539 c 236.551 214.539 l 240.363 295.707 l 218.672
 295.707 l 218.672 198.602 l 218.672 196.113 216.656 194.102 214.172 194.102
 c 167.109 194.102 l 164.625 194.102 162.609 196.113 162.609 198.602 c 162.609
 295.707 l 138.695 295.707 l 141.449 245.398 l 142.484 245.398 l 148.484
 245.398 148.484 236.398 142.484 236.398 c 141.941 236.398 l 145.922 163.594
 l 174.387 163.594 l 174.387 173.746 l 174.387 179.746 183.387 179.746 183.387
 173.746 c 183.387 163.594 l 196.387 163.594 l 196.387 173.746 l 196.387
 179.746 205.387 179.746 205.387 173.746 c 205.387 163.582 l 211.098 163.148
 210.855 154.695 205.129 154.594 c 140.578 154.594 l 135.629 142.273 l h
171.609 213.719 m 171.609 203.102 l 209.672 203.102 l 209.672 213.719 l
 h
209.672 222.719 m 209.672 295.707 l 171.609 295.707 l 171.609 222.719 l
 h
122.84 166.492 m 120.355 166.492 118.34 168.508 118.34 170.992 c 118.34
 172.359 l 52.434 172.359 l 59.434 101.945 l 155.059 101.945 l 158.016 133.273
 l 129.066 133.273 l 128.125 133.258 127.203 133.531 126.422 134.059 c 124.688
 135.258 124.012 137.492 124.797 139.449 c 133.352 160.77 l 133.953 162.266
 135.309 163.324 136.906 163.547 c 136.426 172.355 l 127.34 172.355 l 127.34
 170.992 l 127.34 168.508 125.328 166.492 122.84 166.492 c h
59.859 92.945 m 59.859 77.293 l 154.883 77.293 l 154.711 92.945 l h
50.609 68.293 m 46.109 54 l 169 54 l 164.5 68.293 l h
48.242 214.535 m 48.934 214.535 l 54.691 214.434 54.887 205.91 49.137 205.547
 c 51.535 181.359 l 135.934 181.359 l 132.305 247.738 l 116.391 247.738 
l 116.391 197.125 l 116.391 194.641 114.375 192.625 111.891 192.625 c 82.887
 192.625 l 80.402 192.625 78.387 194.641 78.387 197.125 c 78.387 247.738
 l 44.941 247.738 l h
131.812 256.738 m 129.684 295.707 l 122.438 295.707 l 122.438 256.738 l
 h
87.387 247.738 m 87.387 201.625 l 107.391 201.625 l 107.391 247.738 l h
93.664 256.738 m 93.664 295.707 l 83.445 295.707 l 83.445 256.738 l h
102.664 256.738 m 113.438 256.738 l 113.438 295.707 l 102.664 295.707 l
 h
74.445 256.738 m 74.445 295.707 l 63.945 295.707 l 63.945 256.738 l h
44.047 256.738 m 54.949 256.738 l 54.949 295.707 l 40.172 295.707 l h
367.5 330 m 16.5 330 l 16.5 321.426 l 56.129 321.426 l 62.129 321.426 62.129
 312.426 56.129 312.426 c 27.863 312.426 l 27.863 304.707 l 352.934 304.707
 l 352.934 312.426 l 86.129 312.426 l 80.129 312.426 80.129 321.426 86.129
 321.426 c 367.5 321.426 l h
367.5 330 m f
Q Q
showpage
%%Trailer
end
%%EOF
