%!PS-Adobe-3.0 EPSF-3.0
%%Creator: cairo 1.16.0 (https://cairographics.org)
%%CreationDate: Mon Dec 14 10:17:32 2020
%%Pages: 1
%%DocumentData: Clean7Bit
%%LanguageLevel: 2
%%BoundingBox: 20 7 364 377
%%EndComments
%%BeginProlog
50 dict begin
/q { gsave } bind def
/Q { grestore } bind def
/cm { 6 array astore concat } bind def
/w { setlinewidth } bind def
/J { setlinecap } bind def
/j { setlinejoin } bind def
/M { setmiterlimit } bind def
/d { setdash } bind def
/m { moveto } bind def
/l { lineto } bind def
/c { curveto } bind def
/h { closepath } bind def
/re { exch dup neg 3 1 roll 5 3 roll moveto 0 rlineto
      0 exch rlineto 0 rlineto closepath } bind def
/S { stroke } bind def
/f { fill } bind def
/f* { eofill } bind def
/n { newpath } bind def
/W { clip } bind def
/W* { eoclip } bind def
/BT { } bind def
/ET { } bind def
/BDC { mark 3 1 roll /BDC pdfmark } bind def
/EMC { mark /EMC pdfmark } bind def
/cairo_store_point { /cairo_point_y exch def /cairo_point_x exch def } def
/Tj { show currentpoint cairo_store_point } bind def
/TJ {
  {
    dup
    type /stringtype eq
    { show } { -0.001 mul 0 cairo_font_matrix dtransform rmoveto } ifelse
  } forall
  currentpoint cairo_store_point
} bind def
/cairo_selectfont { cairo_font_matrix aload pop pop pop 0 0 6 array astore
    cairo_font exch selectfont cairo_point_x cairo_point_y moveto } bind def
/Tf { pop /cairo_font exch def /cairo_font_matrix where
      { pop cairo_selectfont } if } bind def
/Td { matrix translate cairo_font_matrix matrix concatmatrix dup
      /cairo_font_matrix exch def dup 4 get exch 5 get cairo_store_point
      /cairo_font where { pop cairo_selectfont } if } bind def
/Tm { 2 copy 8 2 roll 6 array astore /cairo_font_matrix exch def
      cairo_store_point /cairo_font where { pop cairo_selectfont } if } bind def
/g { setgray } bind def
/rg { setrgbcolor } bind def
/d1 { setcachedevice } bind def
/cairo_data_source {
  CairoDataIndex CairoData length lt
    { CairoData CairoDataIndex get /CairoDataIndex CairoDataIndex 1 add def }
    { () } ifelse
} def
/cairo_flush_ascii85_file { cairo_ascii85_file status { cairo_ascii85_file flushfile } if } def
/cairo_image { image cairo_flush_ascii85_file } def
/cairo_imagemask { imagemask cairo_flush_ascii85_file } def
%%EndProlog
%%BeginSetup
%%EndSetup
%%Page: 1 1
%%BeginPageSetup
%%PageBoundingBox: 20 7 364 377
%%EndPageSetup
q 20 7 344 370 rectclip
1 0 0 -1 0 384 cm q
0.580392 0.564706 0.6 rg
106.613 103.922 172.902 43.566 re f
57.984 205.859 269.488 54.023 re f
24.781 319.125 334.438 52.875 re f
0.411765 0.4 0.427451 rg
75.539 147.488 233.027 58.371 re f
41.094 259.883 299.887 59.242 re f
0.882353 0.717647 0.639216 rg
117.816 12 149.605 21.473 re f
0.780392 0.603922 0.513726 rg
128.414 33.473 25.051 70.449 re f
233.617 33.473 25.043 70.449 re f
0.560784 0.560784 0.717647 rg
238.426 334.672 m 240.93 372 l 145.934 372 l 147.93 334.672 l h
238.426 334.672 m f
0.427451 0.427451 0.576471 rg
235.613 292.68 m 150.172 292.68 l 147.93 334.672 l 238.426 334.672 l h
235.613 292.68 m f
0.560784 0.560784 0.717647 rg
233.031 254.168 m 152.227 254.168 l 150.172 292.68 l 235.613 292.68 l h
233.031 254.168 m f
0.427451 0.427451 0.576471 rg
230.453 215.656 m 233.031 254.168 l 152.227 254.168 l 154.281 215.656 l
 h
230.453 215.656 m f
0.560784 0.560784 0.717647 rg
227.871 177.148 m 156.344 177.148 l 154.281 215.656 l 230.453 215.656 l
 h
227.871 177.148 m f
0.427451 0.427451 0.576471 rg
225.285 138.637 m 158.398 138.637 l 156.344 177.148 l 227.871 177.148 l
 h
225.285 138.637 m f
0.560784 0.560784 0.717647 rg
222.961 103.922 m 160.254 103.922 l 158.398 138.637 l 225.285 138.637 l
 h
222.961 103.922 m f
0.501961 0.333333 0.294118 rg
153.465 33.473 80.152 70.449 re f
0.431373 0.447059 0.509804 rg
209.633 87.098 m 209.633 103.922 l 174.359 103.922 l 174.359 87.098 l 174.359
 76.934 182.258 68.699 191.992 68.699 c 196.711 68.711 201.219 70.656 204.465
 74.086 c 207.805 77.594 209.656 82.254 209.633 87.098 c h
209.633 87.098 m f
0.498039 0.490196 0.509804 rg
106.613 103.922 22.5 43.566 re f
57.984 205.859 22.5 54.023 re f
24.781 319.125 22.5 52.875 re f
0.32549 0.313726 0.337255 rg
75.539 147.488 22.5 58.371 re f
41.094 259.883 22.5 59.242 re f
0.427451 0.282353 0.254902 rg
153.465 33.473 22.5 70.449 re f
0.156863 0.258824 0.407843 rg
359.219 314.629 m 345.484 314.629 l 345.484 259.879 l 345.484 257.395 343.469
 255.379 340.984 255.379 c 331.973 255.379 l 331.973 205.863 l 331.973 203.379
 329.961 201.363 327.473 201.363 c 313.062 201.363 l 313.062 147.488 l 313.062
 145 311.047 142.988 308.562 142.988 c 284.02 142.988 l 284.02 103.922 l
 284.02 101.438 282.004 99.422 279.52 99.422 c 263.16 99.422 l 263.16 37.969
 l 267.422 37.969 l 269.91 37.969 271.922 35.957 271.922 33.469 c 271.922
 12 l 271.922 9.516 269.91 7.5 267.422 7.5 c 117.816 7.5 l 115.328 7.5 113.316
 9.516 113.316 12 c 113.316 33.469 l 113.316 35.957 115.328 37.969 117.816
 37.969 c 123.918 37.969 l 123.918 99.422 l 106.609 99.422 l 104.125 99.422
 102.109 101.438 102.109 103.922 c 102.109 142.988 l 75.543 142.988 l 73.059
 142.988 71.043 145 71.043 147.488 c 71.043 201.363 l 57.98 201.363 l 55.496
 201.363 53.48 203.379 53.48 205.863 c 53.48 255.383 l 41.094 255.383 l 
38.609 255.383 36.594 257.395 36.594 259.883 c 36.594 314.633 l 24.781 314.633
 l 22.297 314.633 20.281 316.645 20.281 319.133 c 20.281 372 l 20.281 374.484
 22.297 376.5 24.781 376.5 c 359.219 376.5 l 361.703 376.5 363.719 374.484
 363.719 372 c 363.719 319.129 l 363.719 316.645 361.703 314.629 359.219
 314.629 c h
304.062 151.988 m 304.062 158.164 l 300.129 158.164 l 294.129 158.164 294.129
 167.164 300.129 167.164 c 304.062 167.164 l 304.062 201.367 l 234 201.367
 l 230.691 151.988 l h
218.754 108.422 m 220.48 134.137 l 163.145 134.137 l 164.516 108.422 l 
h
178.859 99.422 m 178.859 87.102 l 178.859 79.434 184.754 73.195 191.996
 73.195 c 199.238 73.195 205.129 79.434 205.129 87.102 c 205.129 99.422 
l h
221.078 143.137 m 223.059 172.648 l 161.09 172.648 l 162.664 143.141 l 
h
223.66 181.645 m 225.637 211.156 l 159.031 211.156 l 160.605 181.645 l 
h
214.129 99.422 m 214.129 87.102 l 214.129 74.473 204.199 64.195 191.996
 64.195 c 179.789 64.195 169.859 74.473 169.859 87.102 c 169.859 99.422 
l 157.965 99.422 l 157.965 37.969 l 229.113 37.969 l 229.113 99.422 l h
158.551 220.156 m 226.242 220.156 l 228.219 249.668 l 156.977 249.668 l
 h
228.531 258.668 m 228.629 258.668 228.723 258.66 228.82 258.652 c 230.801
 288.18 l 154.918 288.18 l 156.496 258.668 l h
231.402 297.18 m 233.613 330.172 l 152.676 330.172 l 154.438 297.18 l h
275.02 108.422 m 275.02 114.602 l 270.91 114.602 l 264.91 114.602 264.91
 123.602 270.91 123.602 c 275.02 123.602 l 275.02 142.984 l 230.09 142.984
 l 227.773 108.422 l h
252.609 83.215 m 254.16 83.215 l 254.16 99.422 l 238.109 99.422 l 238.109
 37.969 l 254.16 37.969 l 254.16 74.215 l 252.609 74.215 l 246.609 74.215
 246.609 83.215 252.609 83.215 c h
122.316 28.969 m 122.316 16.5 l 262.922 16.5 l 262.922 28.969 l h
135.715 54.016 m 132.918 54.016 l 132.918 37.969 l 148.965 37.969 l 148.965
 99.422 l 132.918 99.422 l 132.918 63.016 l 135.715 63.016 l 141.715 63.016
 141.715 54.016 135.715 54.016 c h
111.109 123.602 m 115.18 123.602 l 121.18 123.602 121.18 114.602 115.18
 114.602 c 111.109 114.602 l 111.109 108.422 l 155.504 108.422 l 153.66 
142.984 l 111.109 142.984 l h
141.676 367.5 m 29.281 367.5 l 29.281 341.422 l 33.359 341.422 l 39.359
 341.422 39.359 332.422 33.359 332.422 c 29.281 332.422 l 29.281 323.629
 l 144.016 323.629 l h
144.496 314.629 m 45.594 314.629 l 45.594 280.43 l 49.223 280.43 l 55.223
 280.43 55.223 271.43 49.223 271.43 c 45.594 271.43 l 45.594 264.379 l 147.176
 264.379 l h
135.383 210.363 m 150.062 210.363 l 147.66 255.383 l 62.48 255.383 l 62.48
 228.156 l 65.926 228.156 l 71.926 228.156 71.926 219.156 65.926 219.156
 c 62.48 219.156 l 62.48 210.363 l 105.383 210.363 l 111.383 210.363 111.383
 201.363 105.383 201.363 c 80.043 201.363 l 80.043 167.164 l 83.453 167.164
 l 89.453 167.164 89.453 158.164 83.453 158.164 c 80.043 158.164 l 80.043
 151.984 l 153.18 151.984 l 150.543 201.359 l 135.383 201.359 l 129.383 
201.359 129.383 210.359 135.383 210.359 c h
150.684 367.5 m 152.195 339.172 l 234.215 339.172 l 236.113 367.5 l h
237.621 255.395 m 234.605 210.363 l 322.973 210.363 l 322.973 219.156 l
 319.332 219.156 l 313.332 219.156 313.332 228.156 319.332 228.156 c 322.973
 228.156 l 322.973 255.379 l 237.914 255.379 l 237.816 255.383 237.719 255.391
 237.621 255.395 c h
238.223 264.383 m 336.484 264.383 l 336.484 271.434 l 331.855 271.434 l
 325.855 271.434 325.855 280.434 331.855 280.434 c 336.484 280.434 l 336.484
 314.633 l 241.594 314.633 l h
354.719 332.422 m 350.223 332.422 l 344.223 332.422 344.223 341.422 350.223
 341.422 c 354.719 341.422 l 354.719 367.5 l 245.137 367.5 l 242.195 323.629
 l 354.719 323.629 l h
354.719 332.422 m f
Q Q
showpage
%%Trailer
end
%%EOF
