%!PS-Adobe-3.0 EPSF-3.0
%%Creator: cairo 1.16.0 (https://cairographics.org)
%%CreationDate: Mon Dec 14 10:17:33 2020
%%Pages: 1
%%DocumentData: Clean7Bit
%%LanguageLevel: 2
%%BoundingBox: 95 7 289 377
%%EndComments
%%BeginProlog
50 dict begin
/q { gsave } bind def
/Q { grestore } bind def
/cm { 6 array astore concat } bind def
/w { setlinewidth } bind def
/J { setlinecap } bind def
/j { setlinejoin } bind def
/M { setmiterlimit } bind def
/d { setdash } bind def
/m { moveto } bind def
/l { lineto } bind def
/c { curveto } bind def
/h { closepath } bind def
/re { exch dup neg 3 1 roll 5 3 roll moveto 0 rlineto
      0 exch rlineto 0 rlineto closepath } bind def
/S { stroke } bind def
/f { fill } bind def
/f* { eofill } bind def
/n { newpath } bind def
/W { clip } bind def
/W* { eoclip } bind def
/BT { } bind def
/ET { } bind def
/BDC { mark 3 1 roll /BDC pdfmark } bind def
/EMC { mark /EMC pdfmark } bind def
/cairo_store_point { /cairo_point_y exch def /cairo_point_x exch def } def
/Tj { show currentpoint cairo_store_point } bind def
/TJ {
  {
    dup
    type /stringtype eq
    { show } { -0.001 mul 0 cairo_font_matrix dtransform rmoveto } ifelse
  } forall
  currentpoint cairo_store_point
} bind def
/cairo_selectfont { cairo_font_matrix aload pop pop pop 0 0 6 array astore
    cairo_font exch selectfont cairo_point_x cairo_point_y moveto } bind def
/Tf { pop /cairo_font exch def /cairo_font_matrix where
      { pop cairo_selectfont } if } bind def
/Td { matrix translate cairo_font_matrix matrix concatmatrix dup
      /cairo_font_matrix exch def dup 4 get exch 5 get cairo_store_point
      /cairo_font where { pop cairo_selectfont } if } bind def
/Tm { 2 copy 8 2 roll 6 array astore /cairo_font_matrix exch def
      cairo_store_point /cairo_font where { pop cairo_selectfont } if } bind def
/g { setgray } bind def
/rg { setrgbcolor } bind def
/d1 { setcachedevice } bind def
/cairo_data_source {
  CairoDataIndex CairoData length lt
    { CairoData CairoDataIndex get /CairoDataIndex CairoDataIndex 1 add def }
    { () } ifelse
} def
/cairo_flush_ascii85_file { cairo_ascii85_file status { cairo_ascii85_file flushfile } if } def
/cairo_image { image cairo_flush_ascii85_file } def
/cairo_imagemask { imagemask cairo_flush_ascii85_file } def
%%EndProlog
%%BeginSetup
%%EndSetup
%%Page: 1 1
%%BeginPageSetup
%%PageBoundingBox: 95 7 289 377
%%EndPageSetup
q 95 7 194 370 rectclip
1 0 0 -1 0 384 cm q
0.729412 0.552941 0.47451 rg
281.551 86.934 m 245.949 19.539 l 242.891 14.84 237.668 12.004 232.066 
12 c 192.691 12 l 192.691 371.789 l 227.387 371.527 l 235.52 371.457 242.402
 365.504 243.645 357.465 c 284.047 98.609 l 284.684 94.543 283.793 90.383
 281.551 86.934 c h
281.551 86.934 m f
0.501961 0.333333 0.294118 rg
269.715 96.328 m 234.039 28.727 l 233.516 27.742 232.496 27.129 231.383
 27.129 c 192.691 27.129 l 192.691 357.406 l 226.484 357.406 l 227.961 357.406
 229.219 356.328 229.449 354.871 c 270.023 98.203 l 270.125 97.562 270.016
 96.906 269.715 96.328 c h
269.715 96.328 m f
0.686275 0.662745 0.654902 rg
192.691 327.512 m 192.691 343.754 l 200.969 343.754 l 208.621 343.754 215.062
 337.469 216.008 329.094 c 216.938 320.852 l 205.262 334.59 192.691 327.512
 192.691 327.512 c h
192.691 327.512 m f
0.807843 0.803922 0.788235 rg
192.691 305.543 m 192.691 327.512 l 192.691 327.512 205.262 334.59 216.938
 320.852 c 218.016 311.297 l 206.895 315.227 192.691 305.543 192.691 305.543
 c h
192.691 305.543 m f
0.776471 0.745098 0.733333 rg
203.895 279.652 m 200.273 280.961 196.516 281.844 192.691 282.277 c 192.691
 305.543 l 192.691 305.543 206.895 315.227 218.016 311.297 c 219.195 300.898
 l 205.859 297.832 203.895 279.652 203.895 279.652 c h
203.895 279.652 m f
0.686275 0.662745 0.654902 rg
223.5 262.754 m 219.195 300.898 l 205.859 297.832 203.895 279.652 203.895
 279.652 c 211.051 277.102 219.676 272.168 223.5 262.754 c h
223.5 262.754 m f
0.807843 0.803922 0.788235 rg
204.758 245.234 m 196.922 242.316 192.691 238.547 192.691 238.547 c 192.691
 282.277 l 196.516 281.844 200.273 280.961 203.895 279.652 c 211.051 277.102
 219.676 272.168 223.5 262.754 c 223.508 262.746 l 225.105 248.559 l 218.172
 248.758 211.266 247.629 204.758 245.234 c h
204.758 245.234 m f
0.686275 0.662745 0.654902 rg
204.758 245.234 m 204.758 245.234 223.078 227.113 227.316 228.922 c 227.324
 228.922 l 225.105 248.559 l 218.172 248.758 211.266 247.629 204.758 245.234
 c h
204.758 245.234 m f
0.776471 0.745098 0.733333 rg
229.043 213.711 m 227.324 228.922 l 227.316 228.922 l 223.078 227.113 204.758
 245.234 204.758 245.234 c 196.922 242.316 192.691 238.547 192.691 238.547
 c 192.691 224.398 l 192.691 224.398 202.891 223.297 212.438 211.582 c 212.438
 211.574 l 217.727 213.285 223.516 214.336 229.043 213.711 c h
229.043 213.711 m f
0.807843 0.803922 0.788235 rg
192.691 201.766 m 192.691 224.398 l 192.691 224.398 202.891 223.297 212.438
 211.582 c 212.438 211.574 l 205.438 209.223 198.793 205.922 192.691 201.766
 c h
192.691 201.766 m f
0.686275 0.662745 0.654902 rg
240.586 183.809 m 239.902 186.523 238.863 189.137 237.496 191.578 c 233.199
 199.254 l 231.102 203.008 229.777 207.145 229.305 211.418 c 229.043 213.711
 l 223.516 214.336 217.727 213.285 212.438 211.574 c 205.438 209.223 198.793
 205.922 192.691 201.766 c 192.691 190.957 l 196.664 188.105 200.41 184.949
 203.895 181.516 c 203.895 181.516 218.633 193.379 240.586 183.809 c h
240.586 183.809 m f
0.807843 0.803922 0.788235 rg
241.598 155.438 m 241.598 175.664 l 241.598 178.41 241.258 181.148 240.586
 183.809 c 218.633 193.379 203.895 181.516 203.895 181.516 c 209.934 175.648
 217.109 167.309 221.969 157.199 c 228.863 157.695 235.859 157.387 241.598
 155.438 c h
241.598 155.438 m f
0.776471 0.745098 0.733333 rg
192.691 151.312 m 192.691 190.957 l 196.664 188.105 200.41 184.949 203.895
 181.516 c 209.934 175.648 217.109 167.309 221.969 157.199 c 207.074 156.129
 192.691 151.312 192.691 151.312 c h
192.691 151.312 m f
0.807843 0.803922 0.788235 rg
241.598 134.781 m 241.598 155.438 l 235.859 157.387 228.863 157.695 221.969
 157.199 c 207.074 156.129 192.691 151.312 192.691 151.312 c 192.691 127.066
 l 192.691 127.066 219.645 142.184 241.598 134.781 c h
241.598 134.781 m f
0.776471 0.745098 0.733333 rg
237.434 97.051 m 220.965 118.191 192.691 120.789 192.691 120.789 c 192.691
 127.066 l 192.691 127.066 219.645 142.184 241.598 134.781 c 241.598 113.055
 l 241.617 107.449 240.18 101.938 237.434 97.051 c h
237.434 97.051 m f
0.807843 0.803922 0.788235 rg
237.434 97.051 m 220.965 118.191 192.691 120.789 192.691 120.789 c 192.691
 98.297 l 202.637 96.711 210.602 89.844 214.133 80.016 c 214.141 80.016 
l 225.203 85.363 l 230.375 87.922 234.645 92 237.434 97.051 c h
237.434 97.051 m f
0.776471 0.745098 0.733333 rg
192.691 72.668 m 215.863 72.668 l 215.566 75.176 214.984 77.641 214.133
 80.016 c 210.602 89.844 202.637 96.711 192.691 98.297 c h
192.691 72.668 m f
0.807843 0.803922 0.788235 rg
216.121 68.281 m 216.121 69.746 216.035 71.211 215.863 72.668 c 192.691
 72.668 l 188.648 72.668 185.086 69.703 183.016 65.203 c 210.84 48.824 l
 214.273 54.047 216.121 60.953 216.121 68.281 c h
216.121 68.281 m f
0.776471 0.745098 0.733333 rg
181.836 50.25 m 183.488 43.957 187.727 39.48 192.691 39.48 c 200.633 38.941
 206.82 42.727 210.84 48.824 c 183.016 65.203 l 182.012 62.984 181.398 60.605
 181.199 58.176 c 181.133 57.496 181.102 56.789 181.102 56.078 c 181.098
 54.113 181.348 52.152 181.836 50.25 c h
181.836 50.25 m f
0.470588 0.709804 0.662745 rg
154.312 90.137 m 100.035 102.562 l 147.801 358.426 l 149.262 366.328 156.18
 372.051 164.219 372 c 192.691 371.789 l 192.691 125.062 l h
154.312 90.137 m f
0.882353 0.392157 0.309804 rg
121.574 217.949 m 126.234 242.902 l 192.691 242.902 l 192.691 217.949 l
 h
121.574 217.949 m f
138.66 309.441 m 143.316 334.395 l 192.691 334.395 l 192.691 309.441 l 
h
138.66 309.441 m f
1 0.847059 0.717647 rg
183.016 65.203 m 182.012 62.984 181.398 60.605 181.199 58.176 c 181.102
 58.184 l 154.312 67.547 l 154.312 90.137 l 154.312 90.137 156.156 111.262
 176.371 120.789 c 181.52 123.152 187.043 124.598 192.691 125.062 c 192.691
 72.668 l 188.648 72.668 185.086 69.703 183.016 65.203 c h
183.016 65.203 m f
0.407843 0.607843 0.568627 rg
100.035 102.562 m 121.578 217.949 l 144.078 217.949 l 121.758 97.59 l h
100.035 102.562 m f
170.301 358.426 m 165.816 334.395 l 143.316 334.395 l 138.66 309.441 l 
161.16 309.441 l 148.734 242.902 l 126.234 242.902 l 147.801 358.426 l 149.262
 366.328 156.18 372.051 164.219 372 c 184.492 371.852 l 177.348 370.93 171.617
 365.504 170.301 358.426 c h
170.301 358.426 m f
0.917647 0.760784 0.643137 rg
176.812 90.137 m 176.812 59.684 l 154.312 67.547 l 154.312 90.137 l 154.312
 90.137 156.156 111.266 176.371 120.789 c 181.52 123.152 187.043 124.602
 192.691 125.062 c 192.691 117.141 l 178.273 106.738 176.812 90.137 176.812
 90.137 c h
176.812 90.137 m f
0.788235 0.352941 0.294118 rg
144.078 217.949 m 121.574 217.949 l 126.234 242.902 l 148.734 242.902 l
 h
144.078 217.949 m f
143.316 334.395 m 165.816 334.395 l 161.156 309.441 l 138.66 309.441 l 
h
143.316 334.395 m f
0.933333 0.686275 0.258824 rg
154.312 162.906 m 154.312 198.996 l 137.199 191.031 131.918 165.824 130.141
 145.859 c h
154.312 162.906 m f
0.85098 0.733333 0.294118 rg
154.312 138.789 m 154.312 162.906 l 130.141 145.859 l 129.121 134.406 129.254
 124.672 128.961 120.906 c h
154.312 138.789 m f
0.933333 0.686275 0.258824 rg
154.312 114.906 m 154.312 138.789 l 128.961 120.906 l 128.168 110.574 100.035
 102.562 100.035 102.562 c 99.277 98.512 100.047 94.32 102.195 90.801 c 
106.777 81.945 l h
154.312 114.906 m f
0.85098 0.733333 0.294118 rg
154.312 90.137 m 154.312 114.906 l 106.777 81.945 l 115.727 64.656 l h
154.312 90.137 m f
0.933333 0.686275 0.258824 rg
154.312 67.547 m 154.312 90.137 l 115.727 64.656 l 124.68 47.355 l h
154.312 67.547 m f
0.85098 0.733333 0.294118 rg
138.871 19.941 m 138.871 19.941 163.551 48.457 161.016 65.203 c 154.312
 67.547 l 124.68 47.355 l h
138.871 19.941 m f
0.933333 0.686275 0.258824 rg
168 12 m 168 12 185.918 29.289 181.836 50.25 c 181.348 52.152 181.098 54.113
 181.102 56.078 c 181.102 56.789 181.133 57.496 181.199 58.176 c 181.102
 58.184 l 161.016 65.203 l 163.551 48.457 138.871 19.941 138.871 19.941 
c 141.879 15.012 147.234 12.004 153.008 12 c h
168 12 m f
0.85098 0.733333 0.294118 rg
192.691 27.129 m 192.691 39.48 l 187.727 39.48 183.488 43.957 181.836 50.25
 c 185.918 29.289 168 12 168 12 c 192.691 12 l h
192.691 27.129 m f
0.156863 0.258824 0.407843 rg
143.375 359.25 m 145.223 369.242 153.934 376.496 164.094 376.5 c 164.254
 376.5 l 227.418 376.023 l 237.766 375.969 246.535 368.391 248.086 358.156
 c 288.496 99.301 l 289.293 94.211 288.207 89.004 285.438 84.66 c 249.926
 17.434 l 249.859 17.312 249.793 17.195 249.715 17.078 c 245.84 11.098 239.195
 7.492 232.066 7.5 c 153.004 7.5 l 145.672 7.527 138.871 11.348 135.031 
17.594 c 134.977 17.684 134.922 17.777 134.875 17.871 c 98.27 88.598 l 95.602
 93.035 94.656 98.293 95.609 103.383 c h
188.191 367.316 m 164.188 367.5 l 158.324 367.543 153.277 363.367 152.223
 357.602 c 151.32 352.75 l 151.754 352.75 l 157.754 352.75 157.754 343.75
 151.754 343.75 c 149.641 343.75 l 148.734 338.898 l 188.191 338.898 l h
188.191 329.895 m 147.051 329.895 l 144.074 313.945 l 188.195 313.945 l
 h
188.191 238.395 m 168.816 238.395 l 162.816 238.395 162.816 247.395 168.816
 247.395 c 188.191 247.395 l 188.191 291.098 l 185.551 291.098 l 179.551
 291.098 179.551 300.098 185.551 300.098 c 188.191 300.098 l 188.191 304.945
 l 142.395 304.945 l 131.652 247.402 l 138.816 247.402 l 144.816 247.402
 144.816 238.402 138.816 238.402 c 129.977 238.402 l 126.992 222.449 l 188.191
 222.449 l h
188.191 213.441 m 125.312 213.441 l 124.48 208.984 l 124.68 208.984 l 130.68
 208.984 130.68 199.984 124.68 199.984 c 122.801 199.984 l 105.852 109.184
 l 116.863 113.258 124.262 118.406 124.477 121.246 c 124.566 122.41 124.617
 124.328 124.676 126.758 c 125.16 145.957 126.289 190.914 152.418 203.07
 c 155.402 204.457 158.816 202.281 158.816 198.988 c 158.816 112.305 l 162.352
 116.902 166.793 120.723 171.867 123.523 c 171.867 129.809 l 171.867 135.809
 180.867 135.809 180.867 129.809 c 180.867 127.324 l 183.266 128.055 185.715
 128.625 188.191 129.023 c h
134.465 143.398 m 134.059 138.27 133.871 133.582 133.758 129.793 c 149.816
 141.117 l 149.816 154.227 l h
149.816 165.238 m 149.816 190.426 l 141.766 182.551 137.812 168.688 135.816
 155.363 c h
188.191 119.867 m 162.285 114.859 159.074 92.199 158.816 89.898 c 158.816
 70.738 l 177.785 64.109 l 179.609 70.066 183.41 74.602 188.191 76.367 c
 h
189.418 66.656 m 209.082 55.082 l 210.789 59.234 211.648 63.68 211.617 
68.168 c 192.691 68.168 l 191.449 68.098 190.281 67.555 189.418 66.656 c
 h
232.816 125.285 m 237.094 125.285 l 237.094 131.367 l 221.883 134.867 204.453
 127.754 197.734 124.57 c 205.828 123.047 222.848 118.441 236.043 105.371
 c 236.738 107.875 237.094 110.461 237.094 113.059 c 237.094 116.289 l 232.816
 116.289 l 226.816 116.289 226.816 125.289 232.816 125.289 c h
197.191 324.441 m 197.191 313.082 l 201.289 314.918 206.723 316.723 212.277
 316.723 c 212.477 316.723 212.68 316.715 212.875 316.711 c 212.625 318.922
 l 206.449 325.531 200.422 325.281 197.191 324.441 c h
210.91 331.379 m 209.359 336.012 205.453 339.254 200.973 339.254 c 197.191
 339.254 l 197.191 333.57 l 198.25 333.73 199.316 333.82 200.387 333.832
 c 200.633 333.832 l 204.203 333.824 207.723 332.984 210.91 331.383 c h
197.191 303.023 m 197.191 286.145 l 198.168 285.957 199.273 285.715 200.48
 285.402 c 202.059 291.18 205.797 300.109 214.32 303.977 c 213.906 307.637
 l 208.062 308.289 201.117 305.25 197.191 303.023 c h
209.016 282.461 m 211.949 281.176 214.723 279.562 217.293 277.652 c 215.434
 294.102 l 211.707 290.973 209.867 285.824 209.02 282.465 c h
197.191 276.922 m 197.191 267.246 l 199.688 267.246 l 205.688 267.246 205.688
 258.246 199.688 258.246 c 197.191 258.246 l 197.191 246.801 l 204.305 250.445
 212.102 252.547 220.082 252.969 c 219.113 261.551 l 214.789 271.418 203.672
 275.398 197.191 276.926 c h
213.617 243.078 m 216.66 240.352 219.594 237.93 221.977 236.176 c 221.094
 244.008 l 218.582 243.883 216.086 243.574 213.621 243.078 c h
211.547 232.957 m 208.465 235.551 205.609 238.191 203.75 239.953 c 201.453
 238.949 199.258 237.73 197.191 236.316 c 197.191 227.91 l 201.191 226.602
 207.621 223.578 213.945 216.707 c 217.227 217.613 220.598 218.164 223.996
 218.348 c 223.246 225.008 l 220.293 226.156 216.586 228.719 211.547 232.961
 c h
197.191 218.262 m 197.191 209.797 l 199.289 210.949 201.766 212.203 204.504
 213.383 c 202.312 215.352 199.852 216.996 197.191 218.266 c h
197.191 199.34 m 197.191 193.246 l 198.848 191.992 201.418 189.949 204.434
 187.199 c 210.305 190.414 216.895 192.086 223.59 192.059 c 226.621 192.055
 229.641 191.73 232.605 191.098 c 229.266 197.051 l 227.129 200.871 225.699
 205.051 225.043 209.379 c 213.781 209.121 201.742 202.219 197.191 199.344
 c h
199.688 163.07 m 197.191 163.07 l 197.191 157.336 l 202.977 158.91 208.855
 160.121 214.797 160.957 c 209.961 168.648 204.031 175.594 197.191 181.574
 c 197.191 172.074 l 199.691 172.074 l 205.691 172.074 205.691 163.074 199.691
 163.074 c h
211.16 180.516 m 216.43 174.887 220.965 168.609 224.648 161.836 c 225.609
 161.871 226.57 161.895 227.523 161.895 c 230.73 161.91 233.93 161.664 237.09
 161.156 c 237.09 175.664 l 237.086 177.297 236.945 178.926 236.664 180.535
 c 225.133 184.887 216.184 182.711 211.168 180.52 c h
211.258 151.281 m 206.516 150.418 201.82 149.316 197.188 147.98 c 197.188
 134.223 l 204.238 137.258 215.977 141.328 228.273 141.328 c 231.23 141.332
 234.18 141.078 237.09 140.559 c 237.09 152.004 l 230.582 153.406 221.75
 153.172 211.266 151.285 c h
197.188 115.477 m 197.188 101.887 l 205.465 99.461 212.387 93.75 216.34
 86.086 c 223.238 89.418 l 226.664 91.105 229.621 93.605 231.855 96.699 
c 220.789 109.109 205.078 113.824 197.191 115.48 c h
197.188 92.379 m 197.188 77.172 l 210.352 77.172 l 208.227 84.254 203.543
 89.719 197.191 92.375 c h
197.188 31.629 m 209.012 31.629 l 209.012 33.051 l 209.012 39.051 218.012
 39.051 218.012 33.051 c 218.012 31.629 l 230.473 31.629 l 265.5 97.992 
l 260.715 128.27 l 259.777 134.195 268.668 135.602 269.602 129.672 c 274.469
 98.902 l 274.719 97.305 274.445 95.668 273.691 94.234 c 238.016 26.625 
l 236.723 24.16 234.164 22.621 231.383 22.625 c 197.191 22.625 l 197.191
 16.5 l 232.066 16.5 l 236.082 16.496 239.836 18.496 242.07 21.832 c 277.57
 89.035 l 277.637 89.152 277.707 89.273 277.781 89.387 c 279.422 91.906 
280.07 94.941 279.605 97.91 c 239.195 356.77 l 238.309 362.637 233.285 366.988
 227.352 367.023 c 197.191 367.25 l 197.191 361.906 l 226.484 361.906 l 
230.18 361.922 233.332 359.23 233.891 355.578 c 264.863 159.676 l 265.797
 153.75 256.91 152.344 255.973 158.27 c 246.828 216.109 l 241.332 216.109
 l 235.332 216.109 235.332 225.109 241.332 225.109 c 245.406 225.109 l 225.203
 352.91 l 197.191 352.91 l 197.191 348.258 l 200.973 348.258 l 210.891 348.258
 219.277 340.238 220.48 329.602 c 233.773 211.926 l 234.188 208.25 235.324
 204.688 237.117 201.453 c 241.426 193.777 l 244.504 188.238 246.113 182.004
 246.098 175.668 c 246.098 113.059 l 246.098 99.332 238.664 86.875 227.16
 81.316 c 219.523 77.625 l 220.258 74.562 220.625 71.426 220.617 68.277 
c 220.617 57.223 216.887 47.395 210.375 41.312 c 206.762 37.883 202.137 
35.711 197.191 35.117 c h
192.688 43.984 m 192.793 43.984 192.891 43.977 192.992 43.969 c 192.992
 43.973 l 197 43.613 200.977 44.953 203.953 47.66 c 185.742 58.379 l 185.648
 57.613 185.602 56.848 185.602 56.078 c 185.598 54.539 185.785 53.008 186.156
 51.516 c 186.172 51.516 l 186.191 51.414 186.207 51.316 186.227 51.215 
c 187.434 46.793 190.172 43.98 192.691 43.98 c h
188.188 16.504 m 188.188 35.785 l 187.527 36.035 186.887 36.336 186.273
 36.688 c 184.762 28.457 180.945 21.441 177.516 16.5 c h
153 16.504 m 166.062 16.504 l 169.707 20.559 180.301 33.914 177.449 49.191
 c 176.973 51.086 176.699 53.027 176.633 54.98 c 165.406 58.902 l 164.418
 51.945 160.844 43.566 154.695 33.879 c 151.598 29.035 148.25 24.363 144.652
 19.879 c 146.902 17.723 149.891 16.512 153.004 16.5 c h
139.703 28.117 m 146.598 37.102 156.301 51.906 156.688 61.949 c 154.973
 62.551 l 130.512 45.883 l h
126.344 53.934 m 149.82 69.926 l 149.82 81.77 l 121.586 63.129 l h
117.422 71.168 m 149.816 92.555 l 149.816 106.309 l 112.594 80.5 l h
106.035 93.148 m 106.09 93.059 106.145 92.965 106.191 92.871 c 108.422 
88.562 l 149.816 117.262 l 149.816 130.105 l 133.016 118.258 l 131.441 113.051
 125.875 108.293 116.09 103.773 c 112.234 102.016 108.289 100.48 104.266
 99.164 c 104.316 97.039 104.93 94.965 106.035 93.148 c h
106.035 93.148 m f
Q Q
showpage
%%Trailer
end
%%EOF
