%!PS-Adobe-3.0 EPSF-3.0
%%Creator: cairo 1.16.0 (https://cairographics.org)
%%CreationDate: Mon Dec 14 10:17:33 2020
%%Pages: 1
%%DocumentData: Clean7Bit
%%LanguageLevel: 2
%%BoundingBox: 58 7 326 377
%%EndComments
%%BeginProlog
50 dict begin
/q { gsave } bind def
/Q { grestore } bind def
/cm { 6 array astore concat } bind def
/w { setlinewidth } bind def
/J { setlinecap } bind def
/j { setlinejoin } bind def
/M { setmiterlimit } bind def
/d { setdash } bind def
/m { moveto } bind def
/l { lineto } bind def
/c { curveto } bind def
/h { closepath } bind def
/re { exch dup neg 3 1 roll 5 3 roll moveto 0 rlineto
      0 exch rlineto 0 rlineto closepath } bind def
/S { stroke } bind def
/f { fill } bind def
/f* { eofill } bind def
/n { newpath } bind def
/W { clip } bind def
/W* { eoclip } bind def
/BT { } bind def
/ET { } bind def
/BDC { mark 3 1 roll /BDC pdfmark } bind def
/EMC { mark /EMC pdfmark } bind def
/cairo_store_point { /cairo_point_y exch def /cairo_point_x exch def } def
/Tj { show currentpoint cairo_store_point } bind def
/TJ {
  {
    dup
    type /stringtype eq
    { show } { -0.001 mul 0 cairo_font_matrix dtransform rmoveto } ifelse
  } forall
  currentpoint cairo_store_point
} bind def
/cairo_selectfont { cairo_font_matrix aload pop pop pop 0 0 6 array astore
    cairo_font exch selectfont cairo_point_x cairo_point_y moveto } bind def
/Tf { pop /cairo_font exch def /cairo_font_matrix where
      { pop cairo_selectfont } if } bind def
/Td { matrix translate cairo_font_matrix matrix concatmatrix dup
      /cairo_font_matrix exch def dup 4 get exch 5 get cairo_store_point
      /cairo_font where { pop cairo_selectfont } if } bind def
/Tm { 2 copy 8 2 roll 6 array astore /cairo_font_matrix exch def
      cairo_store_point /cairo_font where { pop cairo_selectfont } if } bind def
/g { setgray } bind def
/rg { setrgbcolor } bind def
/d1 { setcachedevice } bind def
/cairo_data_source {
  CairoDataIndex CairoData length lt
    { CairoData CairoDataIndex get /CairoDataIndex CairoDataIndex 1 add def }
    { () } ifelse
} def
/cairo_flush_ascii85_file { cairo_ascii85_file status { cairo_ascii85_file flushfile } if } def
/cairo_image { image cairo_flush_ascii85_file } def
/cairo_imagemask { imagemask cairo_flush_ascii85_file } def
%%EndProlog
%%BeginSetup
%%EndSetup
%%Page: 1 1
%%BeginPageSetup
%%PageBoundingBox: 58 7 326 377
%%EndPageSetup
q 58 7 268 370 rectclip
1 0 0 -1 0 384 cm q
0.780392 0.603922 0.513726 rg
270.137 347.766 m 143.211 347.766 l 131.734 348.301 122.703 357.766 122.707
 369.254 c 122.707 372 l 290.641 372 l 290.641 369.254 l 290.645 357.766
 281.613 348.301 270.137 347.766 c h
270.137 347.766 m f
135.699 268.906 141.949 22.234 re f
0.501961 0.482353 0.529412 rg
257.578 49.559 m 216.375 15.449 l 210.805 10.852 202.754 10.844 197.176
 15.434 c 155.781 49.559 l 152.359 52.375 150.371 56.574 150.367 61.004 
c 150.367 162.434 l 262.973 162.434 l 262.973 60.984 l 262.969 56.562 260.992
 52.371 257.578 49.559 c h
257.578 49.559 m f
0.831373 0.882353 0.956863 rg
110.859 70.238 m 110.461 70.238 110.062 70.262 109.68 70.297 c 109.793 
69.547 109.852 68.785 109.859 68.023 c 109.777 59.449 102.801 52.539 94.223
 52.539 c 85.645 52.539 78.668 59.449 78.586 68.023 c 78.586 68.594 78.621
 69.164 78.684 69.727 c 75.41 67.746 71.328 67.676 67.988 69.539 c 64.652
 71.406 62.57 74.918 62.543 78.742 c 62.543 84.562 67.754 91.605 73.629 
91.605 c 109.98 91.605 l 116.52 91.605 122.707 88.484 122.707 81.988 c 122.68
 75.473 117.375 70.215 110.859 70.238 c h
110.859 70.238 m f
0.27451 0.537255 0.827451 rg
206.672 54.516 m 212.805 54.566 218.305 58.301 220.617 63.98 c 222.93 69.66
 221.602 76.176 217.246 80.492 c 212.895 84.812 206.371 86.09 200.707 83.734
 c 195.047 81.375 191.355 75.844 191.355 69.711 c 191.371 65.668 192.992
 61.793 195.867 58.941 c 198.738 56.094 202.625 54.5 206.672 54.516 c h
206.672 54.516 m f
0.501961 0.333333 0.294118 rg
269.121 347.738 m 144.227 347.738 l 143.887 347.738 143.551 347.746 143.211
 347.766 c 143.211 291.141 l 270.137 291.141 l 270.137 347.766 l 269.797
 347.746 269.461 347.738 269.121 347.738 c h
269.121 347.738 m f
0.415686 0.521569 0.607843 rg
150.367 162.434 112.605 106.473 re f
0.85098 0.733333 0.294118 rg
192.406 224.102 m 189.805 222.828 187.379 221.234 185.184 219.352 c 185.184
 219.352 201.684 196.32 222.227 219.352 c 215.406 226.223 208.32 227.766
 202.184 227.086 c 198.773 226.672 195.465 225.66 192.406 224.102 c h
192.406 224.102 m f
0.831373 0.882353 0.956863 rg
309.609 114.137 m 309.211 114.137 308.812 114.156 308.43 114.195 c 308.543
 113.441 308.602 112.684 308.609 111.922 c 308.527 103.348 301.551 96.438
 292.973 96.438 c 284.395 96.438 277.418 103.348 277.336 111.922 c 277.336
 112.492 277.371 113.059 277.434 113.625 c 272.508 110.648 266.105 112.117
 262.973 116.949 c 262.973 135.504 l 308.73 135.504 l 315.27 135.504 321.457
 132.383 321.457 125.887 c 321.43 119.371 316.125 114.109 309.609 114.137
 c h
309.609 114.137 m f
0.686275 0.52549 0.454902 rg
165.711 347.766 m 143.211 347.766 l 131.734 348.301 122.703 357.766 122.707
 369.254 c 122.707 372 l 145.207 372 l 145.207 369.254 l 145.203 357.766
 154.234 348.301 165.711 347.766 c h
165.711 347.766 m f
135.699 268.906 22.5 22.234 re f
0.415686 0.4 0.439216 rg
172.867 61.004 m 172.871 56.574 174.859 52.375 178.281 49.559 c 218.012
 16.805 l 216.375 15.449 l 210.805 10.852 202.754 10.844 197.176 15.434 
c 155.781 49.559 l 152.359 52.375 150.371 56.574 150.367 61.004 c 150.367
 162.434 l 172.867 162.434 l h
172.867 61.004 m f
0.501961 0.333333 0.294118 rg
270.137 347.766 m 270.137 347.738 l 269.121 347.738 l 269.461 347.738 269.797
 347.746 270.137 347.766 c h
270.137 347.766 m f
0.407843 0.270588 0.243137 rg
143.211 291.141 m 143.211 347.766 l 143.551 347.746 143.887 347.738 144.227
 347.738 c 165.711 347.738 l 165.711 291.141 l h
143.211 291.141 m f
0.34902 0.443137 0.509804 rg
150.367 162.434 22.5 106.473 re f
0.156863 0.258824 0.407843 rg
159.051 312.379 m 213.453 312.379 l 219.453 312.379 219.453 303.379 213.453
 303.379 c 159.051 303.379 l 153.051 303.379 153.051 312.379 159.051 312.379
 c h
159.051 312.379 m f
227.422 312.379 m 238.18 312.379 l 244.18 312.379 244.18 303.379 238.18
 303.379 c 227.422 303.379 l 221.422 303.379 221.422 312.379 227.422 312.379
 c h
227.422 312.379 m f
252.43 324.199 m 202.527 324.199 l 196.527 324.199 196.527 333.199 202.527
 333.199 c 252.43 333.199 l 258.43 333.199 258.43 324.199 252.43 324.199
 c h
252.43 324.199 m f
185.559 324.199 m 159.801 324.199 l 153.801 324.199 153.801 333.199 159.801
 333.199 c 185.559 333.199 l 191.559 333.199 191.559 324.199 185.559 324.199
 c h
185.559 324.199 m f
251.422 312.379 m 251.68 312.379 l 257.68 312.379 257.68 303.379 251.68
 303.379 c 251.422 303.379 l 245.422 303.379 245.422 312.379 251.422 312.379
 c h
251.422 312.379 m f
187.91 246.172 m 187.91 248.656 189.922 250.672 192.41 250.672 c 194.895
 250.672 196.91 248.656 196.91 246.172 c 196.91 230.629 l 197.141 230.691
 197.375 230.754 197.613 230.812 c 197.801 233.762 198.59 237.637 201.117
 240.664 c 203.48 243.434 206.926 245.047 210.566 245.09 c 211.531 245.133
 212.82 245.148 214.273 245.148 c 220.074 245.148 228.445 244.887 228.883
 244.871 c 234.883 244.684 234.602 235.684 228.602 235.871 c 228.469 235.879
 215.434 236.285 210.945 236.098 c 209.176 236.023 208.438 235.383 208.039
 234.91 c 207.336 233.957 206.895 232.84 206.758 231.664 c 212.172 231.281
 218.148 229.207 223.992 223.887 c 228.652 223.977 l 228.742 223.977 l 234.742
 224.035 234.832 215.035 228.832 214.977 c 224.227 214.887 l 217.297 207.68
 209.918 204.238 202.309 204.648 c 189.844 205.312 181.863 216.262 181.527
 216.727 c 180.203 218.582 180.469 221.137 182.156 222.672 c 183.938 224.219
 185.867 225.59 187.91 226.77 c h
202.84 213.633 m 207.043 213.426 211.32 215.258 215.629 219.09 c 210.766
 222.695 204.449 223.699 198.707 221.781 c 196.324 221.043 194.047 220 191.926
 218.688 c 194.422 216.449 198.266 213.859 202.84 213.633 c h
202.84 213.633 m f
205.426 197.516 m 212.324 197.723 218.734 201.039 224.492 207.363 c 225.344
 208.301 226.551 208.836 227.82 208.836 c 234.906 208.836 l 240.906 208.836
 240.906 199.836 234.906 199.836 c 229.758 199.836 l 222.633 192.594 214.547
 188.785 205.699 188.52 c 188.961 188.012 175.844 200.578 175.293 201.113
 c 170.996 205.297 177.273 211.746 181.574 207.562 c 181.68 207.457 192.449
 197.117 205.426 197.516 c h
205.426 197.516 m f
231.562 109.824 m 226.039 115.879 l 220.145 109.742 l 218.488 108.02 215.773
 107.891 213.961 109.449 c 206.137 116.188 l 200.402 109.84 l 198.734 107.996
 195.887 107.855 194.043 109.523 c 186.91 115.98 l 181.914 109.98 l 180.328
 108.051 177.477 107.781 175.559 109.379 c 173.641 110.977 173.387 113.832
 175 115.738 c 183 125.344 l 184.637 127.309 187.582 127.516 189.477 125.801
 c 196.75 119.219 l 202.41 125.48 l 204.047 127.293 206.832 127.469 208.684
 125.875 c 216.609 119.047 l 222.883 125.578 l 223.738 126.484 224.938 126.984
 226.184 126.961 c 227.426 126.945 228.609 126.414 229.449 125.496 c 238.211
 115.891 l 239.918 114.059 239.801 111.188 237.953 109.5 c 236.105 107.812
 233.234 107.957 231.566 109.824 c h
231.562 109.824 m f
206.672 89.398 m 214.625 89.352 221.77 84.523 224.777 77.16 c 227.789 69.797
 226.074 61.348 220.434 55.742 c 214.793 50.133 206.332 48.473 198.988 51.527
 c 191.645 54.582 186.859 61.754 186.859 69.707 c 186.902 80.613 195.766
 89.422 206.672 89.398 c h
206.672 59.016 m 210.984 59.062 214.848 61.699 216.465 65.699 c 218.082
 69.699 217.137 74.277 214.07 77.312 c 211.004 80.344 206.414 81.238 202.434
 79.574 c 198.449 77.914 195.859 74.023 195.859 69.707 c 195.898 63.773 
200.738 58.992 206.672 59.02 c h
206.672 59.016 m f
73.629 96.105 m 109.977 96.105 l 120.121 96.105 127.207 90.301 127.207 
81.992 c 127.18 74.305 121.789 67.68 114.27 66.094 c 113.25 56.27 105.262
 48.629 95.402 48.051 c 85.543 47.469 76.715 54.117 74.551 63.754 c 74.094
 63.711 73.637 63.691 73.18 63.691 c 64.848 63.676 58.078 70.41 58.047 78.742
 c 58.16 82.945 59.695 86.988 62.402 90.207 c 65.469 93.957 69.562 96.105
 73.629 96.105 c h
73.176 72.691 m 74.301 72.691 75.402 73 76.363 73.582 c 79.555 75.508 83.566
 72.941 83.16 69.238 c 83.113 68.836 83.086 68.43 83.086 68.027 c 83.156
 61.926 88.121 57.016 94.223 57.016 c 100.324 57.016 105.289 61.926 105.359
 68.027 c 105.355 68.562 105.309 69.102 105.223 69.633 c 104.793 72.527 
107.195 75.055 110.109 74.773 c 110.371 74.75 110.613 74.734 110.852 74.734
 c 114.883 74.715 118.172 77.961 118.203 81.992 c 118.203 86.961 110.816
 87.105 109.977 87.105 c 73.629 87.105 l 70.676 87.105 67.043 82.492 67.043
 78.742 c 67.07 75.379 69.816 72.672 73.176 72.691 c h
73.176 72.691 m f
135.695 295.641 m 138.711 295.641 l 138.711 343.832 l 126.754 346.438 118.223
 357.016 118.207 369.254 c 118.207 372 l 118.207 374.484 120.219 376.5 122.707
 376.5 c 290.637 376.5 l 293.125 376.5 295.137 374.484 295.137 372 c 295.137
 369.254 l 295.121 357.016 286.59 346.438 274.633 343.828 c 274.633 295.641
 l 277.648 295.641 l 280.137 295.641 282.148 293.629 282.148 291.141 c 282.148
 268.902 l 282.148 266.418 280.137 264.402 277.648 264.402 c 267.477 264.402
 l 267.477 140.004 l 308.727 140.004 l 318.871 140.004 325.957 134.199 325.957
 125.891 c 325.93 118.203 320.539 111.578 313.02 109.992 c 312 100.164 304.016
 92.523 294.152 91.945 c 284.293 91.363 275.461 98.012 273.297 107.652 c
 272.844 107.609 272.387 107.59 271.926 107.59 c 270.418 107.59 268.918 
107.812 267.477 108.254 c 267.477 60.984 l 267.477 55.219 264.902 49.754
 260.453 46.09 c 219.242 11.988 l 212.008 6.016 201.559 6.008 194.316 11.965
 c 152.926 46.082 l 148.457 49.75 145.871 55.223 145.875 61.004 c 145.875
 264.402 l 135.695 264.402 l 133.211 264.402 131.195 266.418 131.195 268.902
 c 131.195 291.141 l 131.195 293.625 133.211 295.641 135.695 295.641 c h
267.473 118.492 m 269.465 116.402 272.641 115.98 275.109 117.48 c 278.301
 119.402 282.312 116.836 281.906 113.133 c 281.594 110.105 282.539 107.082
 284.516 104.77 c 286.492 102.453 289.332 101.051 292.371 100.887 c 295.41
 100.719 298.383 101.805 300.602 103.891 c 302.82 105.977 304.086 108.879
 304.105 111.922 c 304.102 112.461 304.055 112.996 303.969 113.527 c 303.539
 116.426 305.945 118.953 308.859 118.668 c 309.113 118.645 309.363 118.633
 309.598 118.633 c 313.629 118.609 316.918 121.855 316.949 125.887 c 316.949
 130.859 309.566 131 308.723 131 c 267.473 131 l h
286.051 367.5 m 127.297 367.5 l 128.203 358.832 135.508 352.246 144.227
 352.238 c 269.121 352.238 l 277.836 352.246 285.141 358.832 286.051 367.5
 c h
147.711 343.238 m 147.711 295.641 l 265.633 295.641 l 265.633 343.238 l
 h
154.871 61.004 m 154.871 57.914 156.258 54.984 158.648 53.027 c 200.039
 18.906 l 203.953 15.688 209.598 15.695 213.504 18.922 c 254.715 53.023 
l 257.094 54.984 258.473 57.902 258.477 60.984 c 258.477 157.934 l 154.867
 157.934 l h
140.199 273.402 m 162.133 273.402 l 168.133 273.402 168.133 264.402 162.133
 264.402 c 154.871 264.402 l 154.871 166.934 l 258.477 166.934 l 258.477
 264.402 l 192.133 264.402 l 186.133 264.402 186.133 273.402 192.133 273.402
 c 273.148 273.402 l 273.148 286.641 l 140.195 286.641 l h
140.199 273.402 m f
Q Q
showpage
%%Trailer
end
%%EOF
