%!PS-Adobe-3.0 EPSF-3.0
%%Creator: cairo 1.16.0 (https://cairographics.org)
%%CreationDate: Mon Dec 14 10:17:34 2020
%%Pages: 1
%%DocumentData: Clean7Bit
%%LanguageLevel: 2
%%BoundingBox: 12 7 372 377
%%EndComments
%%BeginProlog
50 dict begin
/q { gsave } bind def
/Q { grestore } bind def
/cm { 6 array astore concat } bind def
/w { setlinewidth } bind def
/J { setlinecap } bind def
/j { setlinejoin } bind def
/M { setmiterlimit } bind def
/d { setdash } bind def
/m { moveto } bind def
/l { lineto } bind def
/c { curveto } bind def
/h { closepath } bind def
/re { exch dup neg 3 1 roll 5 3 roll moveto 0 rlineto
      0 exch rlineto 0 rlineto closepath } bind def
/S { stroke } bind def
/f { fill } bind def
/f* { eofill } bind def
/n { newpath } bind def
/W { clip } bind def
/W* { eoclip } bind def
/BT { } bind def
/ET { } bind def
/BDC { mark 3 1 roll /BDC pdfmark } bind def
/EMC { mark /EMC pdfmark } bind def
/cairo_store_point { /cairo_point_y exch def /cairo_point_x exch def } def
/Tj { show currentpoint cairo_store_point } bind def
/TJ {
  {
    dup
    type /stringtype eq
    { show } { -0.001 mul 0 cairo_font_matrix dtransform rmoveto } ifelse
  } forall
  currentpoint cairo_store_point
} bind def
/cairo_selectfont { cairo_font_matrix aload pop pop pop 0 0 6 array astore
    cairo_font exch selectfont cairo_point_x cairo_point_y moveto } bind def
/Tf { pop /cairo_font exch def /cairo_font_matrix where
      { pop cairo_selectfont } if } bind def
/Td { matrix translate cairo_font_matrix matrix concatmatrix dup
      /cairo_font_matrix exch def dup 4 get exch 5 get cairo_store_point
      /cairo_font where { pop cairo_selectfont } if } bind def
/Tm { 2 copy 8 2 roll 6 array astore /cairo_font_matrix exch def
      cairo_store_point /cairo_font where { pop cairo_selectfont } if } bind def
/g { setgray } bind def
/rg { setrgbcolor } bind def
/d1 { setcachedevice } bind def
/cairo_data_source {
  CairoDataIndex CairoData length lt
    { CairoData CairoDataIndex get /CairoDataIndex CairoDataIndex 1 add def }
    { () } ifelse
} def
/cairo_flush_ascii85_file { cairo_ascii85_file status { cairo_ascii85_file flushfile } if } def
/cairo_image { image cairo_flush_ascii85_file } def
/cairo_imagemask { imagemask cairo_flush_ascii85_file } def
%%EndProlog
%%BeginSetup
%%EndSetup
%%Page: 1 1
%%BeginPageSetup
%%PageBoundingBox: 12 7 372 377
%%EndPageSetup
q 12 7 360 370 rectclip
1 0 0 -1 0 384 cm q
0.427451 0.427451 0.576471 rg
161.961 17.129 m 268.934 3.301 342.684 73.266 362.168 157.703 c 372.73 
202.906 364.844 250.453 340.258 289.824 c 315.672 329.199 276.41 357.152
 231.156 367.5 c 137.316 389.137 43.641 330.629 21.824 236.676 c 7.062 173.223
 28.77 106.816 78.164 64.336 c 81.836 61.164 84.516 57.008 85.891 52.359
 c 90.219 37.824 106.215 5.91 162.531 13.02 c 163.453 13.137 164 14.105 
163.629 14.953 c h
162.711 41.094 m 165.559 41.16 166.82 44.703 164.656 46.551 c 152.152 57.586
 138.152 66.797 123.074 73.922 c 115.422 77.504 108.312 82.148 101.953 87.711
 c 63.461 121.012 46.332 172.742 57.336 222.434 c 73.867 297.449 148.926
 344.969 223.695 327.719 c 298.352 310.484 344.836 235.875 327.488 161.191
 c 312.336 95.926 251.699 36.562 162.711 41.094 c h
162.711 41.094 m f
0.85098 0.733333 0.294118 rg
250.004 205.273 m 280.559 261.48 l 252.328 261.195 l 231.562 215.641 l 
231.562 215.633 l 237.93 212.59 244.09 209.129 250.004 205.273 c h
250.004 205.273 m f
0.933333 0.686275 0.258824 rg
231.562 215.641 m 252.328 261.195 l 223.297 260.902 l 223.297 260.895 l
 209.715 223.793 l 217.23 221.742 224.543 219.008 231.562 215.633 c h
231.562 215.641 m f
0.85098 0.733333 0.294118 rg
223.297 260.895 m 223.297 260.902 l 188.137 260.543 l 188.137 227.387 l
 195.434 226.922 202.664 225.719 209.715 223.793 c h
223.297 260.895 m f
0.933333 0.686275 0.258824 rg
188.137 227.387 m 188.137 260.543 l 156.879 260.227 l 169.125 226.738 l
 169.125 226.734 l 175.426 227.559 181.793 227.777 188.137 227.387 c h
188.137 227.387 m f
0.85098 0.733333 0.294118 rg
169.125 226.734 m 169.125 226.738 l 156.879 260.227 l 127.281 259.926 l
 145.23 220.516 l 152.906 223.57 160.934 225.656 169.125 226.734 c h
169.125 226.734 m f
0.933333 0.686275 0.258824 rg
145.23 220.516 m 127.281 259.926 l 98.609 259.641 l 125.484 210.156 l 131.684
 214.289 138.305 217.762 145.23 220.516 c h
145.23 220.516 m f
0.85098 0.733333 0.294118 rg
144.773 127.695 m 144.773 166.184 l 121.828 178.266 110.191 197.617 110.191
 197.617 c 110.191 197.617 115.566 203.566 125.484 210.156 c 98.609 259.641
 l 71.227 259.363 l h
144.773 127.695 m f
0.933333 0.686275 0.258824 rg
163.824 93.586 m 166.02 158.469 l 158.617 160.051 151.465 162.648 144.773
 166.184 c 144.773 127.695 l h
163.824 93.586 m f
0.85098 0.733333 0.294118 rg
188.641 49.156 m 188.137 156.871 l 180.727 156.41 173.289 156.949 166.02
 158.469 c 163.824 93.586 l h
188.641 49.156 m f
0.933333 0.686275 0.258824 rg
202.027 158.766 m 197.453 157.789 192.809 157.152 188.137 156.871 c 188.641
 49.156 l 216.586 97.086 l 216.57 97.094 l 216.391 162.863 l 211.699 161.176
 206.902 159.809 202.027 158.766 c h
202.027 158.766 m f
0.85098 0.733333 0.294118 rg
237.996 133.828 m 238.906 173.332 l 231.719 169.195 224.184 165.695 216.391
 162.871 c 216.391 162.863 l 216.57 97.094 l 216.586 97.086 l h
237.996 133.828 m f
0.933333 0.686275 0.258824 rg
237.996 133.828 m 312.609 261.801 l 280.559 261.48 l 250.004 205.273 l 
255.91 201.43 261.613 197.277 267.09 192.84 c 258.242 185.578 248.816 179.055
 238.906 173.332 c h
237.996 133.828 m f
0.831373 0.882353 0.956863 rg
109.156 197.691 m 109.156 197.691 163.246 107.766 268.125 192.848 c 173.723
 269.094 109.156 197.691 109.156 197.691 c h
109.156 197.691 m f
0.427451 0.454902 0.52549 rg
200.684 158.324 m 212.469 166.367 217.629 181.156 213.402 194.785 c 209.176
 208.414 196.555 217.688 182.285 217.648 c 168.02 217.609 155.445 208.266
 151.293 194.617 c 147.141 180.965 152.379 166.203 164.211 158.227 c 164.203
 158.02 l 171.566 156.48 179.102 155.938 186.609 156.402 c 191.344 156.691
 196.047 157.332 200.684 158.324 c h
200.684 158.324 m f
0.290196 0.317647 0.376471 rg
183.207 170.586 m 188.785 170.922 193.613 174.586 195.434 179.871 c 197.254
 185.156 195.715 191.016 191.527 194.719 c 187.34 198.426 181.336 199.238
 176.312 196.785 c 171.289 194.332 168.238 189.098 168.586 183.516 c 169.059
 175.91 175.602 170.125 183.207 170.586 c h
183.207 170.586 m f
0.341176 0.341176 0.466667 rg
44.324 236.676 m 29.562 173.223 51.27 106.816 100.664 64.336 c 104.336 
61.164 107.016 57.008 108.391 52.359 c 111.953 40.395 123.426 16.664 158.773
 12.602 c 105.504 7.352 90.121 38.148 85.891 52.355 c 84.52 57.004 81.836
 61.164 78.168 64.332 c 21.172 113.328 1.84 193.25 30.141 262.879 c 58.441
 332.508 128.051 376.281 203.066 371.621 c 126.199 366.527 61.727 311.723
 44.324 236.676 c h
44.324 236.676 m f
0.294118 0.294118 0.388235 rg
118.906 36.129 m 114.129 36.129 111.734 30.352 115.113 26.973 c 118.492
 23.594 124.266 25.988 124.266 30.766 c 124.266 33.727 121.863 36.125 118.906
 36.129 c h
118.906 36.129 m f
0.156863 0.258824 0.407843 rg
118.906 36.129 m 121.867 36.129 124.27 33.727 124.27 30.766 c 124.27 27.805
 121.867 25.402 118.906 25.402 c 116.16 25.406 113.855 27.484 113.574 30.219
 c 113.535 30.582 113.535 30.949 113.574 31.312 c 113.855 34.047 116.156
 36.125 118.906 36.129 c h
118.906 36.129 m f
97.098 349.254 m 125.418 367.051 158.184 376.504 191.633 376.527 c 205.277
 376.52 218.879 374.961 232.172 371.887 c 278.609 361.363 318.902 332.688
 344.051 292.254 c 369.375 251.695 377.367 203.551 366.555 156.688 c 356.297
 112.234 331.812 73.281 297.613 47 c 261.324 19.109 216.531 7.051 167.707
 11.938 c 167.637 11.789 167.559 11.637 167.477 11.488 c 166.555 9.875 164.934
 8.789 163.094 8.555 c 103.199 1 86.133 35.773 81.574 51.074 c 80.449 54.898
 78.25 58.32 75.234 60.93 c 31.973 98.148 8.98 153.715 13.297 210.617 c 
17.613 267.52 48.723 318.984 97.098 349.254 c h
24.172 168.246 m 28.789 169.289 l 31.242 169.914 33.73 168.391 34.289 165.922
 c 34.848 163.449 33.258 161.008 30.773 160.512 c 25.922 159.418 l 29.57
 143.258 35.559 127.719 43.703 113.297 c 47.445 115.02 l 49.711 116.102 
52.426 115.121 53.473 112.84 c 54.523 110.562 53.504 107.863 51.207 106.848
 c 48.363 105.535 l 57.371 91.41 68.402 78.68 81.105 67.754 c 85.426 64.023
 88.586 59.125 90.203 53.648 c 93.125 43.543 99.164 34.617 107.457 28.148
 c 117.531 20.391 130.809 16.5 147.066 16.5 c 150.066 16.5 153.168 16.633
 156.375 16.898 c 152.336 21.633 147.52 25.645 142.133 28.758 c 134.305 
33.293 127.926 39.746 123.949 44.359 c 122.738 45.758 122.25 47.637 122.625
 49.449 c 122.953 51.055 123.922 52.457 125.312 53.328 c 126.703 54.199 
128.391 54.461 129.98 54.051 c 157.141 47.059 l 146.133 56.109 134.051 63.766
 121.164 69.848 c 113.133 73.605 105.676 78.473 99.004 84.312 c 81.422 99.566
 67.816 118.871 59.371 140.562 c 53.371 137.863 l 51.102 136.844 48.441 
137.855 47.418 140.121 c 46.398 142.387 47.41 145.051 49.68 146.07 c 56.352
 149.07 l 48.684 173.113 47.504 198.754 52.941 223.395 c 53.551 226.172 
54.25 228.918 55.02 231.629 c 49.301 232.66 l 43.395 233.727 44.992 242.586
 50.898 241.52 c 57.75 240.285 l 66.961 266.484 83.668 289.398 105.797 306.18
 c 100.656 313.492 l 104.332 320.578 l 105.797 320.582 107.176 319.867 108.016
 318.668 c 113.109 311.418 l 114.184 312.137 115.262 312.84 116.355 313.531
 c 141.027 329.254 169.957 336.969 199.18 335.625 c 198.68 345.133 l 198.551
 347.613 200.457 349.73 202.938 349.863 c 203.02 349.863 203.098 349.867
 203.18 349.867 c 205.57 349.867 207.543 347.992 207.668 345.605 c 208.23
 334.906 l 227.164 332.809 245.496 326.977 262.156 317.742 c 266.516 323.305
 l 270.234 327.867 277.145 322.457 273.602 317.754 c 269.949 313.098 l 287.715
 301.656 302.715 286.41 313.867 268.457 c 314.016 268.219 314.156 267.977
 314.305 267.734 c 320.297 270.805 l 322.512 271.957 325.242 271.086 326.379
 268.867 c 327.52 266.645 326.633 263.922 324.402 262.797 c 318.793 259.922
 l 332.598 234.176 338.121 204.797 334.609 175.797 c 340.391 174.141 l 342.805
 173.477 344.211 170.969 343.52 168.562 c 342.832 166.156 340.312 164.777
 337.914 165.492 c 333.254 166.824 l 332.844 164.609 332.387 162.395 331.875
 160.18 c 325.891 134.699 313.73 111.082 296.473 91.406 c 299.383 88 l 301
 86.113 300.777 83.27 298.887 81.656 c 297 80.039 294.156 80.262 292.543
 82.152 c 290.32 84.75 l 269.781 63.742 243.836 48.82 215.348 41.633 c 216.266
 38.203 l 216.91 35.801 215.48 33.332 213.082 32.691 c 210.68 32.051 208.215
 33.477 207.57 35.875 c 206.562 39.656 l 192.051 36.832 177.246 35.805 162.48
 36.602 c 161.82 36.613 161.16 36.715 160.523 36.895 c 138.289 42.621 l 
140.871 40.332 143.672 38.297 146.645 36.547 c 153.434 32.617 159.441 27.469
 164.363 21.363 c 170.188 20.664 175.949 20.215 181.648 20.012 c 181.648
 26.465 l 181.648 32.465 190.648 32.465 190.648 26.465 c 190.648 19.895 
l 208.949 20.008 227.113 22.996 244.488 28.746 c 242.387 33.648 l 241.41
 35.934 242.469 38.578 244.754 39.555 c 247.039 40.535 249.684 39.473 250.66
 37.188 c 252.949 31.84 l 264.09 36.27 274.703 41.918 284.598 48.684 c 280.762
 53.402 l 276.98 58.059 283.961 63.734 287.746 59.078 c 291.902 53.965 l
 291.977 54.023 292.051 54.078 292.129 54.137 c 305.207 64.234 316.773 76.156
 326.469 89.535 c 322.746 92.543 l 318.082 96.316 323.738 103.316 328.406
 99.543 c 331.602 96.961 l 339.074 108.406 345.281 120.633 350.109 133.418
 c 344.484 135.086 l 342.066 135.762 340.668 138.285 341.379 140.691 c 342.094
 143.102 344.637 144.461 347.031 143.715 c 353.102 141.918 l 354.895 147.41
 356.453 153.008 357.777 158.711 c 360.207 169.227 361.652 179.945 362.09
 190.73 c 357.039 191.129 l 351.297 191.586 351.625 200.102 357.387 200.113
 c 357.508 200.113 357.625 200.109 357.746 200.102 c 362.223 199.75 l 362.039
 215.012 359.785 230.18 355.523 244.836 c 351.582 243.012 l 349.32 241.938
 346.617 242.914 345.562 245.188 c 344.512 247.461 345.52 250.152 347.801
 251.18 c 352.762 253.477 l 346.246 272 336.605 289.27 324.262 304.539 c
 319.438 300.93 l 314.633 297.34 309.242 304.547 314.047 308.141 c 318.402
 311.395 l 297.902 334.148 271.598 350.898 242.305 359.848 c 240.629 355.141
 l 239.797 352.797 237.223 351.574 234.883 352.41 c 232.539 353.242 231.316
 355.816 232.152 358.156 c 233.617 362.27 l 232.461 362.562 231.305 362.848
 230.141 363.117 c 212.297 367.254 193.902 368.484 175.664 366.758 c 176.086
 359.898 l 176.238 357.418 174.348 355.281 171.867 355.133 c 169.387 354.98
 167.254 356.867 167.102 359.348 c 166.715 365.656 l 151.43 363.359 136.535
 358.969 122.445 352.613 c 126.082 345.484 l 128.809 340.141 120.793 336.047
 118.066 341.391 c 114.336 348.703 l 110.105 346.523 105.949 344.16 101.859
 341.617 c 91.707 335.277 82.242 327.891 73.621 319.578 c 78.184 313.941
 l 79.781 312.012 79.5 309.148 77.551 307.574 c 75.602 305.996 72.742 306.316
 71.188 308.281 c 67.281 313.125 l 56.641 301.711 47.641 288.867 40.539 
274.973 c 46.766 272.5 l 52.34 270.281 49.012 261.918 43.438 264.137 c 36.66
 266.836 l 29.836 251.5 25.285 235.254 23.148 218.605 c 27.863 217.797 l
 33.777 216.781 32.254 207.91 26.34 208.926 c 22.234 209.629 l 21.191 195.809
 21.844 181.91 24.172 168.246 c h
151.863 167.766 m 145.656 179.129 145.918 192.922 152.551 204.039 c 159.184
 215.152 171.195 221.938 184.141 221.871 c 197.086 221.809 209.031 214.906
 215.551 203.723 c 222.07 192.539 222.195 178.746 215.875 167.449 c 230.039
 172.66 244.688 181.121 259.828 192.828 c 240.691 207.465 221.473 216.891
 202.625 220.871 c 186.988 224.285 170.746 223.727 155.383 219.254 c 140.758
 214.898 127.305 207.305 116.016 197.043 c 120.492 190.875 132.559 176.301
 151.863 167.766 c h
122.965 175.965 m 140.27 144.984 l 140.27 163.48 l 134.062 166.996 128.258
 171.184 122.965 175.965 c h
149.27 159.051 m 149.27 128.871 l 159.871 109.887 l 161.402 154.941 l 157.262
 156.008 153.207 157.383 149.27 159.051 c h
211.906 156.645 m 205.629 154.734 199.184 153.422 192.656 152.719 c 193.062
 65.68 l 212.07 98.285 l h
220.898 159.727 m 221.027 113.648 l 233.527 135.09 l 234.23 165.703 l 229.891
 163.488 225.441 161.492 220.898 159.727 c h
242.898 151.164 m 261.234 182.613 l 255.484 178.332 249.512 174.359 243.348
 170.703 c h
215.59 226.75 m 220.262 225.281 224.848 223.559 229.328 221.59 c 245.305
 256.621 l 226.457 256.43 l h
216.836 256.332 m 192.637 256.09 l 192.637 231.523 l 196.516 231.133 200.367
 230.535 204.184 229.742 c 205.082 229.555 205.977 229.34 206.875 229.129
 c h
237.461 217.727 m 241.086 215.871 244.711 213.836 248.336 211.621 c 272.953
 256.898 l 255.242 256.719 l h
183.637 232.051 m 183.637 255.996 l 163.293 255.793 l 172.141 231.59 l 
175.391 231.902 178.66 232.07 181.941 232.07 c 182.504 232.07 183.074 232.059
 183.637 232.051 c h
147.59 226.195 m 149.156 226.746 150.762 227.27 152.414 227.762 c 155.902
 228.801 159.441 229.656 163.023 230.32 c 153.742 255.695 l 134.242 255.5
 l h
124.398 255.402 m 106.133 255.215 l 127.133 216.547 l 131.027 218.898 135.066
 221.008 139.219 222.863 c h
119.59 211.574 m 95.949 255.113 l 78.855 254.938 l 108.328 202.164 l 111.836
 205.586 115.602 208.73 119.59 211.574 c h
304.598 266.219 m 293.527 283.195 278.734 297.426 261.34 307.824 c 261.117
 307.93 260.906 308.055 260.703 308.199 c 248.879 315.156 236.055 320.258
 222.684 323.332 c 167.078 335.906 109.578 312.125 79.105 263.941 c h
283.25 257.004 m 255.914 206.73 l 260.438 203.66 264.949 200.32 269.453
 196.711 c 304.73 257.223 l h
192.523 46.891 m 192.449 46.758 192.359 46.637 192.27 46.516 c 221.223 
49.914 247.695 60.75 269.98 78.492 c 276.129 83.391 281.887 88.758 287.203
 94.547 c 287.242 94.59 l 304.816 113.668 317.168 136.961 323.105 162.215
 c 330.27 192.656 326.496 224.652 312.449 252.594 c h
200.156 162.969 m 209.859 170.02 213.895 182.535 210.125 193.926 c 206.359
 205.316 195.66 212.961 183.664 212.836 c 171.668 212.707 161.133 204.836
 157.605 193.371 c 154.082 181.902 158.375 169.473 168.23 162.629 c 168.66
 162.547 169.086 162.457 169.523 162.379 c 179.68 160.656 190.074 160.855
 200.156 162.969 c h
168.359 94.688 m 184.055 66.586 l 183.656 152.219 l 179.203 152.184 174.75
 152.492 170.344 153.141 c h
184.711 46.961 m 71.391 249.848 l 45.777 195.387 59.477 130.543 104.926
 91.094 c 110.965 85.809 117.719 81.398 124.988 77.996 c 140.457 70.695 
154.816 61.242 167.645 49.926 c 168.992 48.746 169.883 47.129 170.164 45.359
 c 175.371 45.297 180.512 45.469 185.59 45.863 c 185.242 46.18 184.945 46.551
 184.711 46.961 c h
184.711 46.961 m f
165.855 183.355 m 165.246 193.344 172.836 201.941 182.824 202.574 c 183.203
 202.598 183.586 202.609 183.965 202.609 c 193.531 202.59 201.438 195.141
 202.023 185.594 c 202.332 180.789 200.715 176.062 197.531 172.453 c 194.352
 168.84 189.863 166.645 185.059 166.348 c 180.254 166.055 175.531 167.68
 171.93 170.871 c 168.328 174.062 166.141 178.555 165.855 183.359 c h
174.84 183.91 m 175.129 179.102 179.109 175.348 183.926 175.336 c 184.117
 175.336 184.309 175.344 184.5 175.355 c 188.184 175.59 191.367 178.02 192.562
 181.512 c 193.762 185.004 192.742 188.871 189.977 191.32 c 188.168 192.93
 185.789 193.746 183.375 193.59 c 178.348 193.266 174.531 188.938 174.84
 183.91 c h
174.84 183.91 m f
Q Q
showpage
%%Trailer
end
%%EOF
