%!PS-Adobe-3.0 EPSF-3.0
%%Creator: cairo 1.16.0 (https://cairographics.org)
%%CreationDate: Mon Dec 14 10:17:35 2020
%%Pages: 1
%%DocumentData: Clean7Bit
%%LanguageLevel: 2
%%BoundingBox: 38 8 346 376
%%EndComments
%%BeginProlog
50 dict begin
/q { gsave } bind def
/Q { grestore } bind def
/cm { 6 array astore concat } bind def
/w { setlinewidth } bind def
/J { setlinecap } bind def
/j { setlinejoin } bind def
/M { setmiterlimit } bind def
/d { setdash } bind def
/m { moveto } bind def
/l { lineto } bind def
/c { curveto } bind def
/h { closepath } bind def
/re { exch dup neg 3 1 roll 5 3 roll moveto 0 rlineto
      0 exch rlineto 0 rlineto closepath } bind def
/S { stroke } bind def
/f { fill } bind def
/f* { eofill } bind def
/n { newpath } bind def
/W { clip } bind def
/W* { eoclip } bind def
/BT { } bind def
/ET { } bind def
/BDC { mark 3 1 roll /BDC pdfmark } bind def
/EMC { mark /EMC pdfmark } bind def
/cairo_store_point { /cairo_point_y exch def /cairo_point_x exch def } def
/Tj { show currentpoint cairo_store_point } bind def
/TJ {
  {
    dup
    type /stringtype eq
    { show } { -0.001 mul 0 cairo_font_matrix dtransform rmoveto } ifelse
  } forall
  currentpoint cairo_store_point
} bind def
/cairo_selectfont { cairo_font_matrix aload pop pop pop 0 0 6 array astore
    cairo_font exch selectfont cairo_point_x cairo_point_y moveto } bind def
/Tf { pop /cairo_font exch def /cairo_font_matrix where
      { pop cairo_selectfont } if } bind def
/Td { matrix translate cairo_font_matrix matrix concatmatrix dup
      /cairo_font_matrix exch def dup 4 get exch 5 get cairo_store_point
      /cairo_font where { pop cairo_selectfont } if } bind def
/Tm { 2 copy 8 2 roll 6 array astore /cairo_font_matrix exch def
      cairo_store_point /cairo_font where { pop cairo_selectfont } if } bind def
/g { setgray } bind def
/rg { setrgbcolor } bind def
/d1 { setcachedevice } bind def
/cairo_data_source {
  CairoDataIndex CairoData length lt
    { CairoData CairoDataIndex get /CairoDataIndex CairoDataIndex 1 add def }
    { () } ifelse
} def
/cairo_flush_ascii85_file { cairo_ascii85_file status { cairo_ascii85_file flushfile } if } def
/cairo_image { image cairo_flush_ascii85_file } def
/cairo_imagemask { imagemask cairo_flush_ascii85_file } def
%%EndProlog
%%BeginSetup
%%EndSetup
%%Page: 1 1
%%BeginPageSetup
%%PageBoundingBox: 38 8 346 376
%%EndPageSetup
q 38 8 308 368 rectclip
1 0 0 -1 0 384 cm q
0.780392 0.603922 0.513726 rg
226.02 371.25 m 203.391 100.613 l 203.566 100.426 l 192.328 91.531 l 192.219
 91.43 192.051 91.43 191.941 91.531 c 180.301 100.77 l 180.414 100.898 l
 151.973 371.25 l h
226.02 371.25 m f
0.658824 0.501961 0.435294 rg
202.801 100.77 m 203.398 100.293 l 192.328 91.531 l 192.219 91.43 192.051
 91.43 191.941 91.531 c 180.301 100.77 l 180.414 100.898 l 151.973 371.25
 l 174.473 371.25 l 202.914 100.898 l h
202.801 100.77 m f
0.298039 0.662745 0.529412 rg
206.578 57.082 m 200.559 67.91 195.656 79.324 191.949 91.148 c 259.238 
65.055 l 319.172 25.703 l 319.172 25.703 249.684 -18.766 206.578 57.082 
c h
206.578 57.082 m f
0.372549 0.803922 0.643137 rg
191.949 91.148 m 185.984 72.766 178.926 58.441 171.234 47.379 c 128.016
 -14.773 64.828 25.703 64.828 25.703 c 126.422 65.055 l 126.422 65.07 l 
h
191.949 91.148 m f
259.238 65.055 m 239.461 64.934 216.773 71.797 191.949 91.148 c 192.008
 91.148 192.059 91.141 192.121 91.141 c 273.938 113.398 l 273.938 113.391
 l 341.363 111.324 l 341.363 111.324 309.773 65.379 259.238 65.055 c h
259.238 65.055 m f
0.45098 0.6 0.215686 rg
126.422 65.07 m 74.902 64.32 42.637 111.324 42.637 111.324 c 110.961 112.59
 l 191.949 91.148 l 167.852 72.367 145.777 65.348 126.422 65.07 c h
126.422 65.07 m f
0.407843 0.607843 0.176471 rg
273.938 113.398 m 261.816 103.238 245.438 95.355 223.305 92.281 c 212.969
 90.91 202.527 90.531 192.121 91.141 c 192.137 91.453 l 192.207 91.457 192.273
 91.484 192.328 91.531 c 308.094 198.594 l 308.094 198.594 311.602 144.969
 273.938 113.398 c h
273.938 113.398 m f
0.298039 0.662745 0.529412 rg
192.121 91.141 m 192.059 91.141 192.008 91.148 191.949 91.148 c 177.75 
90.391 165.277 91.23 154.336 93.309 c 140.625 95.902 129.301 100.441 119.949
 106.215 c 116.816 108.141 113.816 110.273 110.961 112.59 c 72.293 144.051
 75.906 198.594 75.906 198.594 c 191.941 91.531 l 191.996 91.484 192.062
 91.457 192.137 91.453 c h
192.121 91.141 m f
0.156863 0.258824 0.407843 rg
272.602 61.66 m 321.641 29.465 l 324.367 27.676 324.344 23.668 321.598 
21.91 c 320.145 20.98 285.582 -0.707 248.891 12.438 c 224.477 21.184 205.359
 43.125 191.949 77.707 c 178.539 43.105 159.422 21.164 135.012 12.426 c 
98.355 -0.695 63.852 20.984 62.398 21.914 c 59.637 23.684 59.637 27.727 
62.406 29.492 c 112.48 61.492 l 112.223 61.527 111.969 61.559 111.711 61.598
 c 67.02 68.52 40.051 107.133 38.926 108.773 c 36.895 111.73 38.969 115.754
 42.551 115.82 c 99.734 116.879 l 68.551 149.812 71.281 196.875 71.418 198.891
 c 71.668 202.664 76.18 204.465 78.957 201.902 c 174.703 113.559 l 160.949
 243.59 l 160.668 246.246 162.754 248.562 165.426 248.562 c 167.727 248.562
 169.66 246.824 169.902 244.535 c 173.145 213.867 l 182.926 213.867 l 188.926
 213.867 188.926 204.867 182.926 204.867 c 174.098 204.867 l 184.734 104.305
 l 192.129 97.477 l 199.02 103.852 l 204.363 167.395 l 196.375 167.395 l
 190.375 167.395 190.375 176.395 196.375 176.395 c 205.121 176.395 l 210.453
 239.836 l 194.832 239.836 l 188.832 239.836 188.832 248.836 194.832 248.836
 c 211.211 248.836 l 217.707 326.109 l 200.797 326.109 l 194.797 326.109
 194.797 335.109 200.797 335.109 c 218.465 335.109 l 221.125 366.75 l 156.977
 366.75 l 164.852 292.281 l 192.094 292.281 l 198.094 292.281 198.094 283.281
 192.094 283.281 c 165.801 283.281 l 166.727 274.535 l 167.359 268.566 158.406
 267.621 157.777 273.59 c 147.496 370.777 l 147.297 372.699 148.344 374.539
 150.102 375.348 c 150.719 375.625 151.387 375.762 152.062 375.75 c 226.02
 375.75 l 227.93 375.75 229.629 374.543 230.27 372.742 c 230.484 372.113
 230.562 371.445 230.492 370.781 c 208.812 112.906 l 305.039 201.898 l 307.816
 204.473 312.336 202.668 312.582 198.891 c 312.715 196.891 315.367 150.453
 284.828 117.559 c 341.5 115.82 l 345.062 115.715 347.094 111.707 345.07
 108.77 c 343.949 107.137 317.09 68.746 272.602 61.66 c h
51.852 106.992 m 58.426 99.469 65.859 92.742 74 86.957 c 74.574 88.164 
l 77.148 93.582 85.277 89.719 82.703 84.301 c 81.625 82.031 l 91.289 76.23
 101.965 72.312 113.09 70.492 c 134.227 67.215 155.848 72.578 177.516 86.426
 c 170.77 86.57 164.039 87.168 157.371 88.203 c 156.238 84.805 l 154.336
 79.113 145.801 81.965 147.699 87.656 c 148.461 89.934 l 133.41 93.422 120.395
 99.465 109.414 108.059 c h
97.828 172.242 m 95.406 168.836 l 91.926 163.945 84.594 169.164 88.07 174.051
 c 91.16 178.395 l 80.539 188.191 l 81.488 172.898 86.195 143.379 107.426
 121.867 c 110.703 118.543 114.273 115.52 118.086 112.824 c 118.879 114.508
 l 119.93 116.777 122.625 117.758 124.887 116.688 c 127.148 115.621 128.105
 112.914 127.02 110.664 c 125.766 108.012 l 140.812 99.699 159.332 95.465
 181.137 95.371 c h
127.793 60.594 m 88.727 35.633 l 89.379 34.863 l 93.273 30.301 86.43 24.457
 82.535 29.02 c 81.066 30.738 l 73.734 26.051 l 84.766 20.832 108.297 12.387
 132.051 20.926 c 144.594 25.434 155.637 34.031 165.125 46.598 c 162.852
 48.484 l 158.234 52.312 163.977 59.242 168.598 55.41 c 170.258 54.031 l
 175.223 62 179.441 70.414 182.859 79.156 c 164.523 67.336 146.094 61.121
 127.793 60.594 c h
208.273 63.336 m 209.25 63.914 l 214.406 66.988 219.012 59.254 213.855 
56.184 c 212.723 55.508 l 223.453 38.031 236.535 26.445 251.852 20.934 c
 275.715 12.352 299.363 20.883 310.363 26.102 c 296.918 34.926 l 294.633
 31.691 l 293.195 29.664 290.391 29.18 288.359 30.613 c 286.328 32.047 285.848
 34.855 287.281 36.887 c 289.391 39.871 l 257.875 60.562 l 238.992 60.73
 219.965 66.957 201.047 79.156 c 203.18 73.762 205.594 68.48 208.273 63.336
 c h
303.43 188.152 m 266.508 154.004 l 267.352 153.262 l 271.859 149.301 265.918
 142.543 261.41 146.504 c 259.863 147.863 l 203.113 95.375 l 208.203 95.41
 213.113 95.668 217.844 96.156 c 217.836 96.195 l 216.543 102.055 225.332
 103.992 226.625 98.133 c 226.789 97.383 l 247.207 100.906 263.84 109.074
 276.453 121.82 c 297.676 143.262 302.445 172.82 303.43 188.152 c h
304.414 107.953 m 304.312 105.297 l 304.055 99.332 295.121 99.676 295.32
 105.645 c 295.418 108.23 l 275.477 108.84 l 257.859 94.633 234.707 87.117
 206.387 86.426 c 218.348 78.781 230.273 73.734 242.16 71.281 c 242.16 71.602
 l 242.16 77.602 251.16 77.602 251.16 71.602 c 251.16 69.93 l 257.684 69.301
 264.262 69.484 270.742 70.477 c 300.727 75.078 322.598 96.09 332.219 107.098
 c h
304.414 107.953 m f
Q Q
showpage
%%Trailer
end
%%EOF
