%!PS-Adobe-3.0 EPSF-3.0
%%Creator: cairo 1.16.0 (https://cairographics.org)
%%CreationDate: Mon Dec 14 10:17:35 2020
%%Pages: 1
%%DocumentData: Clean7Bit
%%LanguageLevel: 2
%%BoundingBox: 7 47 377 336
%%EndComments
%%BeginProlog
50 dict begin
/q { gsave } bind def
/Q { grestore } bind def
/cm { 6 array astore concat } bind def
/w { setlinewidth } bind def
/J { setlinecap } bind def
/j { setlinejoin } bind def
/M { setmiterlimit } bind def
/d { setdash } bind def
/m { moveto } bind def
/l { lineto } bind def
/c { curveto } bind def
/h { closepath } bind def
/re { exch dup neg 3 1 roll 5 3 roll moveto 0 rlineto
      0 exch rlineto 0 rlineto closepath } bind def
/S { stroke } bind def
/f { fill } bind def
/f* { eofill } bind def
/n { newpath } bind def
/W { clip } bind def
/W* { eoclip } bind def
/BT { } bind def
/ET { } bind def
/BDC { mark 3 1 roll /BDC pdfmark } bind def
/EMC { mark /EMC pdfmark } bind def
/cairo_store_point { /cairo_point_y exch def /cairo_point_x exch def } def
/Tj { show currentpoint cairo_store_point } bind def
/TJ {
  {
    dup
    type /stringtype eq
    { show } { -0.001 mul 0 cairo_font_matrix dtransform rmoveto } ifelse
  } forall
  currentpoint cairo_store_point
} bind def
/cairo_selectfont { cairo_font_matrix aload pop pop pop 0 0 6 array astore
    cairo_font exch selectfont cairo_point_x cairo_point_y moveto } bind def
/Tf { pop /cairo_font exch def /cairo_font_matrix where
      { pop cairo_selectfont } if } bind def
/Td { matrix translate cairo_font_matrix matrix concatmatrix dup
      /cairo_font_matrix exch def dup 4 get exch 5 get cairo_store_point
      /cairo_font where { pop cairo_selectfont } if } bind def
/Tm { 2 copy 8 2 roll 6 array astore /cairo_font_matrix exch def
      cairo_store_point /cairo_font where { pop cairo_selectfont } if } bind def
/g { setgray } bind def
/rg { setrgbcolor } bind def
/d1 { setcachedevice } bind def
/cairo_data_source {
  CairoDataIndex CairoData length lt
    { CairoData CairoDataIndex get /CairoDataIndex CairoDataIndex 1 add def }
    { () } ifelse
} def
/cairo_flush_ascii85_file { cairo_ascii85_file status { cairo_ascii85_file flushfile } if } def
/cairo_image { image cairo_flush_ascii85_file } def
/cairo_imagemask { imagemask cairo_flush_ascii85_file } def
%%EndProlog
%%BeginSetup
%%EndSetup
%%Page: 1 1
%%BeginPageSetup
%%PageBoundingBox: 7 47 377 336
%%EndPageSetup
q 7 47 370 289 rectclip
1 0 0 -1 0 384 cm q
0.690196 0.67451 0.705882 rg
189.953 177.512 m 189.953 292.926 l 223.434 291.555 l 230.828 282.594 l
 238.746 289.973 l 315.352 289.973 l 315.352 177.512 l h
189.953 177.512 m f
0.85098 0.733333 0.294118 rg
281.453 228.113 m 284.332 233.094 l 263.129 245.324 l 247.723 254.211 228.027
 248.934 219.129 233.535 c 216.246 228.555 l 237.457 216.324 l 252.863 207.438
 272.555 212.715 281.453 228.113 c h
281.453 228.113 m f
0.580392 0.564706 0.6 rg
346.754 52.5 m 360.25 52.492 371.195 63.426 371.203 76.922 c 369.613 78.504
 355.246 95.961 335.219 92.746 c 327.164 91.375 319.715 87.605 313.836 81.93
 c 313.273 81.398 312.352 81.801 312.352 82.574 c 312.352 113.738 l 321.188
 125.113 l 312.352 136.727 l 312.352 177.512 l 189.953 177.512 l 189.953
 52.5 l 235.754 52.5 l 251.355 60.449 l 262.695 52.5 l 273.57 52.5 l 283.973
 60.449 l 294.367 52.5 l h
346.754 52.5 m f
68.746 177.512 m 68.746 197.836 l 68.746 200.215 67.77 202.492 66.047 204.137
 c 61.672 208.312 l 66.848 214.816 l 68.078 216.355 68.746 218.266 68.746
 220.238 c 68.746 294.195 l 135.801 294.195 l 159.031 278.371 l 159.031 
294.195 l 189.953 292.926 l 189.953 177.512 l h
68.746 177.512 m f
0.690196 0.67451 0.705882 rg
189.953 52.5 m 189.953 177.512 l 71.746 177.512 l 71.746 82.574 l 71.742
 81.801 70.816 81.398 70.254 81.93 c 64.375 87.605 56.926 91.375 48.871 
92.746 c 29.012 95.934 14.656 82.262 12.871 80.488 c 12.887 76.922 l 12.895
 63.426 23.84 52.492 37.336 52.5 c 86.258 52.5 l 90.301 52.496 94.215 53.918
 97.312 56.512 c 113.625 70.164 l 129.27 56.676 l 132.398 53.984 136.391
 52.5 140.52 52.5 c h
189.953 52.5 m f
0.321569 0.454902 0.733333 rg
126.523 99.074 m 137.059 99.086 146.547 105.438 150.566 115.172 c 154.59
 124.906 152.355 136.102 144.902 143.547 c 137.453 150.988 126.254 153.211
 116.523 149.176 c 106.797 145.145 100.453 135.648 100.453 125.113 c 100.469
 110.727 112.137 99.07 126.523 99.074 c h
126.523 99.074 m f
0.831373 0.882353 0.956863 rg
254.512 230.852 m 254.512 233.301 252.52 235.289 250.066 235.289 c 247.609
 235.289 245.617 233.301 245.617 230.852 c 245.617 228.398 247.609 226.41
 250.066 226.41 c 252.52 226.41 254.512 228.398 254.512 230.852 c h
254.512 230.852 m f
0.780392 0.603922 0.513726 rg
365.852 291.129 m 370.777 282.855 l 371.582 281.496 372.004 279.949 372
 278.371 c 371.203 76.922 l 369.613 78.504 355.246 95.961 335.219 92.746
 c 327.164 91.375 319.715 87.605 313.836 81.93 c 313.273 81.398 312.352 
81.801 312.352 82.574 c 312.352 113.738 l 321.188 125.113 l 312.352 136.727
 l 312.352 301.664 l 312.375 317.555 324.828 330.648 340.699 331.461 c 356.566
 332.273 370.297 320.523 371.941 304.719 c 372.133 302.832 371.715 300.934
 370.746 299.301 c h
365.852 291.129 m f
71.746 197.836 m 71.746 82.574 l 71.742 81.801 70.816 81.398 70.254 81.93
 c 64.375 87.605 56.926 91.375 48.871 92.746 c 29.012 95.934 14.656 82.262
 12.871 80.488 c 12 301.547 l 11.961 309.012 14.734 316.223 19.77 321.734
 c 22.094 324.285 28.387 318.488 31.469 320.109 c 35.625 322.305 36.832 
331.5 41.871 331.5 c 58.359 331.508 71.734 318.152 71.746 301.664 c 71.746
 220.238 l 71.746 218.266 71.078 216.355 69.848 214.816 c 64.672 208.312
 l 69.047 204.137 l 70.77 202.492 71.746 200.215 71.746 197.836 c h
71.746 197.836 m f
0.666667 0.521569 0.454902 rg
35.367 92.469 m 22.73 89.941 14.219 81.828 12.867 80.488 c 12 301.547 l
 11.961 309.012 14.734 316.223 19.77 321.734 c 22.094 324.285 28.387 318.488
 31.469 320.109 c 35.348 322.16 36.66 330.309 40.922 331.379 c 36.73 326.094
 34.465 319.539 34.5 312.797 c h
35.367 92.469 m f
0.156863 0.258824 0.407843 rg
376.5 278.355 m 375.703 76.918 l 375.68 60.945 362.73 48.012 346.758 48
 c 294.371 48 l 293.383 48 292.422 48.324 291.637 48.926 c 283.969 54.785
 l 276.301 48.926 l 275.516 48.324 274.555 48 273.57 48 c 262.695 48 l 261.77
 48 260.867 48.285 260.113 48.816 c 250.98 55.211 l 237.793 48.492 l 237.16
 48.168 236.461 48 235.75 48 c 140.516 48 l 135.309 48 130.277 49.871 126.332
 53.27 c 113.582 64.258 l 100.199 53.062 l 96.289 49.793 91.355 48.004 86.258
 48 c 37.336 48 l 21.367 48.008 8.418 60.934 8.387 76.902 c 7.5 301.531 
l 7.457 310.125 10.652 318.418 16.445 324.766 c 19.789 328.441 24.547 326.469
 27.383 325.293 c 28.051 325.016 29.07 324.59 29.727 324.406 c 30.523 325.461
 31.227 326.586 31.828 327.762 c 33.738 331.242 36.359 336 41.871 336 c 
60.836 335.988 76.211 320.629 76.242 301.664 c 76.242 298.691 l 135.801 
298.691 l 136.703 298.691 137.586 298.422 138.332 297.91 c 154.527 286.883
 l 154.527 294.191 l 154.527 296.75 156.656 298.797 159.211 298.691 c 223.617
 296.055 l 224.898 296.004 226.094 295.41 226.906 294.422 c 231.258 289.148
 l 235.676 293.273 l 236.512 294.047 237.605 294.48 238.746 294.48 c 307.852
 294.48 l 307.852 301.668 l 307.871 319.957 322.203 335.027 340.469 335.961
 c 358.73 336.895 374.527 323.371 376.414 305.18 c 376.703 302.328 376.07
 299.461 374.609 296.996 c 371.094 291.129 l 374.645 285.164 l 375.867 283.105
 376.512 280.75 376.5 278.355 c h
185.453 288.605 m 163.527 289.508 l 163.527 278.371 l 163.527 274.758 159.48
 272.617 156.496 274.652 c 134.414 289.691 l 76.242 289.691 l 76.242 220.242
 l 76.242 217.254 75.23 214.355 73.367 212.016 c 70.754 208.727 l 72.156
 207.383 l 74.766 204.895 76.242 201.441 76.242 197.836 c 76.242 182.012
 l 185.453 182.012 l h
185.453 173.012 m 76.242 173.012 l 76.242 156.074 l 76.242 150.074 67.242
 150.074 67.242 156.074 c 67.242 197.836 l 67.242 198.984 66.773 200.082
 65.941 200.875 c 61.562 205.055 l 59.879 206.664 59.699 209.289 61.148 
211.113 c 66.328 217.621 l 66.922 218.363 67.242 219.285 67.242 220.234 
c 67.242 255.18 l 61.477 255.18 l 55.477 255.18 55.477 264.18 61.477 264.18
 c 67.242 264.18 l 67.242 301.66 l 67.219 315.59 55.973 326.898 42.043 327
 c 41.406 326.512 40.352 324.594 39.707 323.426 c 38.234 320.746 36.562 
317.715 33.566 316.133 c 32.527 315.582 31.363 315.297 30.188 315.309 c 
27.965 315.309 25.801 316.207 23.938 316.977 c 23.426 317.191 22.75 317.469
 22.199 317.664 c 18.488 313.121 16.473 307.43 16.5 301.566 c 17.141 139.223
 l 35.789 139.223 l 41.789 139.223 41.789 130.223 35.789 130.223 c 17.176
 130.223 l 17.227 117.367 l 19.305 117.367 l 25.305 117.367 25.305 108.367
 19.305 108.367 c 17.266 108.367 l 17.34 89.77 l 24.441 94.41 35.754 99.414
 49.586 97.188 c 55.918 96.16 61.945 93.75 67.246 90.129 c 67.246 126.074
 l 67.246 132.074 76.246 132.074 76.246 126.074 c 76.246 82.715 l 76.27 
80.953 75.453 79.289 74.043 78.23 c 71.941 76.691 69.039 76.879 67.152 78.676
 c 61.938 83.73 55.316 87.086 48.156 88.301 c 33.117 90.723 21.406 82.039
 17.383 78.531 c 17.391 76.918 l 17.41 65.914 26.332 57.004 37.336 57 c 
86.258 57 l 89.246 57 92.137 58.051 94.43 59.969 c 110.734 73.613 l 112.426
 75.027 114.891 75.008 116.559 73.57 c 132.203 60.086 l 134.516 58.098 137.465
 57 140.516 57 c 185.453 57 l h
307.852 285.473 m 240.516 285.473 l 233.895 279.297 l 231.996 277.531 229.004
 277.727 227.352 279.727 c 221.242 287.141 l 194.453 288.238 l 194.453 182.012
 l 307.852 182.012 l h
308.773 134 m 308.176 134.785 307.852 135.742 307.852 136.727 c 307.852
 173.012 l 194.453 173.012 l 194.453 57 l 234.676 57 l 249.312 64.457 l 
250.797 65.211 252.574 65.09 253.938 64.133 c 264.117 57 l 272.047 57 l 
281.238 64.023 l 282.852 65.254 285.09 65.254 286.703 64.023 c 295.891 57
 l 346.758 57 l 357.102 57.008 365.727 64.914 366.633 75.219 c 356.895 85.445
 346.301 89.969 335.938 88.301 c 328.836 87.098 322.258 83.781 317.059 78.789
 c 315.82 77.566 314.078 77 312.355 77.262 c 309.758 77.691 307.852 79.941
 307.852 82.574 c 307.852 113.734 l 307.852 114.734 308.184 115.707 308.797
 116.496 c 315.516 125.145 l h
361.996 293.441 m 366.887 301.617 l 367.359 302.414 367.559 303.344 367.465
 304.266 c 366.062 317.688 354.402 327.664 340.926 326.973 c 327.449 326.281
 316.871 315.16 316.852 301.668 c 316.852 256.836 l 321.203 256.836 l 327.203
 256.836 327.203 247.836 321.203 247.836 c 316.852 247.836 l 316.852 232.68
 l 338.758 232.68 l 344.758 232.68 344.758 223.68 338.758 223.68 c 316.848
 223.68 l 316.848 138.246 l 324.77 127.844 l 326.004 126.223 325.996 123.969
 324.742 122.359 c 316.848 112.191 l 316.848 90.125 l 322.148 93.746 328.176
 96.156 334.508 97.188 c 342.566 98.484 354.184 97.531 366.746 87.367 c 
366.828 108.703 l 361.84 108.703 l 355.84 108.703 355.84 117.703 361.84 
117.703 c 366.863 117.703 l 367.5 278.391 l 367.504 279.152 367.297 279.898
 366.91 280.555 c 361.984 288.824 l 361.137 290.246 361.141 292.023 361.992
 293.441 c h
361.996 293.441 m f
95.953 125.117 m 95.938 137.488 103.379 148.645 114.805 153.387 c 126.227
 158.129 139.383 155.523 148.133 146.781 c 156.887 138.039 159.508 124.883
 154.777 113.457 c 150.043 102.027 138.895 94.574 126.523 94.574 c 109.656
 94.586 95.98 108.25 95.953 125.117 c h
148.098 125.117 m 148.113 133.848 142.863 141.723 134.801 145.074 c 126.742
 148.422 117.457 146.582 111.281 140.414 c 105.105 134.246 103.254 124.965
 106.59 116.902 c 109.926 108.836 117.797 103.574 126.523 103.574 c 138.426
 103.578 148.078 113.219 148.098 125.117 c h
148.098 125.117 m f
99.121 244.457 m 100.836 246.723 104.199 246.852 106.082 244.719 c 114.633
 235.035 l 122.879 244.668 l 124.605 246.684 127.695 246.773 129.539 244.863
 c 138.57 235.488 l 143.875 244.102 l 145.352 246.508 148.656 246.969 150.742
 245.066 c 163.645 233.27 l 165.48 231.59 165.609 228.746 163.93 226.91 
c 162.254 225.074 159.406 224.949 157.57 226.625 c 148.684 234.75 l 143.191
 225.824 l 141.648 223.32 138.156 222.941 136.117 225.062 c 126.492 235.051
 l 118.102 225.25 l 117.254 224.262 116.02 223.688 114.719 223.676 c 114.684
 223.676 l 113.391 223.676 112.164 224.23 111.309 225.199 c 102.977 234.641
 l 96.027 225.461 l 92.406 220.676 85.23 226.109 88.852 230.895 c h
99.121 244.457 m f
215.234 235.789 m 225.387 253.324 247.816 259.336 265.375 249.227 c 286.586
 236.992 l 288.738 235.75 289.477 232.996 288.234 230.844 c 285.352 225.859
 l 275.191 208.332 252.773 202.324 235.211 212.422 c 214.004 224.652 l 211.848
 225.895 211.109 228.652 212.352 230.805 c h
239.707 220.219 m 252.965 212.598 269.887 217.133 277.559 230.359 c 278.184
 231.445 l 260.879 241.426 l 247.621 249.047 230.699 244.512 223.027 231.281
 c 222.398 230.195 l h
239.707 220.219 m f
250.066 239.793 m 253.68 239.789 256.938 237.609 258.32 234.27 c 259.703
 230.93 258.938 227.086 256.379 224.527 c 253.824 221.973 249.977 221.211
 246.637 222.594 c 243.297 223.977 241.121 227.238 241.121 230.852 c 241.129
 235.789 245.129 239.789 250.066 239.793 c h
250.066 239.793 m f
283.414 103.406 m 225.27 103.406 l 219.27 103.406 219.27 112.406 225.27
 112.406 c 283.414 112.406 l 289.414 112.406 289.414 103.406 283.414 103.406
 c h
283.414 103.406 m f
283.414 129.895 m 225.27 129.895 l 219.27 129.895 219.27 138.895 225.27
 138.895 c 283.414 138.895 l 289.414 138.895 289.414 129.895 283.414 129.895
 c h
283.414 129.895 m f
Q Q
showpage
%%Trailer
end
%%EOF
