%!PS-Adobe-3.0 EPSF-3.0
%%Creator: cairo 1.16.0 (https://cairographics.org)
%%CreationDate: Mon Dec 14 10:17:36 2020
%%Pages: 1
%%DocumentData: Clean7Bit
%%LanguageLevel: 2
%%BoundingBox: 8 45 376 339
%%EndComments
%%BeginProlog
50 dict begin
/q { gsave } bind def
/Q { grestore } bind def
/cm { 6 array astore concat } bind def
/w { setlinewidth } bind def
/J { setlinecap } bind def
/j { setlinejoin } bind def
/M { setmiterlimit } bind def
/d { setdash } bind def
/m { moveto } bind def
/l { lineto } bind def
/c { curveto } bind def
/h { closepath } bind def
/re { exch dup neg 3 1 roll 5 3 roll moveto 0 rlineto
      0 exch rlineto 0 rlineto closepath } bind def
/S { stroke } bind def
/f { fill } bind def
/f* { eofill } bind def
/n { newpath } bind def
/W { clip } bind def
/W* { eoclip } bind def
/BT { } bind def
/ET { } bind def
/BDC { mark 3 1 roll /BDC pdfmark } bind def
/EMC { mark /EMC pdfmark } bind def
/cairo_store_point { /cairo_point_y exch def /cairo_point_x exch def } def
/Tj { show currentpoint cairo_store_point } bind def
/TJ {
  {
    dup
    type /stringtype eq
    { show } { -0.001 mul 0 cairo_font_matrix dtransform rmoveto } ifelse
  } forall
  currentpoint cairo_store_point
} bind def
/cairo_selectfont { cairo_font_matrix aload pop pop pop 0 0 6 array astore
    cairo_font exch selectfont cairo_point_x cairo_point_y moveto } bind def
/Tf { pop /cairo_font exch def /cairo_font_matrix where
      { pop cairo_selectfont } if } bind def
/Td { matrix translate cairo_font_matrix matrix concatmatrix dup
      /cairo_font_matrix exch def dup 4 get exch 5 get cairo_store_point
      /cairo_font where { pop cairo_selectfont } if } bind def
/Tm { 2 copy 8 2 roll 6 array astore /cairo_font_matrix exch def
      cairo_store_point /cairo_font where { pop cairo_selectfont } if } bind def
/g { setgray } bind def
/rg { setrgbcolor } bind def
/d1 { setcachedevice } bind def
/cairo_data_source {
  CairoDataIndex CairoData length lt
    { CairoData CairoDataIndex get /CairoDataIndex CairoDataIndex 1 add def }
    { () } ifelse
} def
/cairo_flush_ascii85_file { cairo_ascii85_file status { cairo_ascii85_file flushfile } if } def
/cairo_image { image cairo_flush_ascii85_file } def
/cairo_imagemask { imagemask cairo_flush_ascii85_file } def
%%EndProlog
%%BeginSetup
%%EndSetup
%%Page: 1 1
%%BeginPageSetup
%%PageBoundingBox: 8 45 376 339
%%EndPageSetup
q 8 45 368 294 rectclip
1 0 0 -1 0 384 cm q
0.827451 0.945098 0.972549 rg
230.004 50.301 m 206.492 50.258 185.703 65.566 178.777 88.035 c 171.848
 110.504 180.398 134.859 199.852 148.066 c 260.453 147.848 l 260.676 147.711
 l 279.875 134.344 288.16 110.051 281.133 87.734 c 274.105 65.422 253.398
 50.262 230.004 50.301 c h
230.004 50.301 m f
0.729412 0.847059 0.866667 rg
198.898 103.816 m 198.918 78.57 216.566 56.77 241.254 51.492 c 216.207 
46.062 190.828 59.152 180.73 82.707 c 170.633 106.262 178.652 133.668 199.852
 148.066 c 222.238 147.984 l 207.629 138.031 198.891 121.492 198.898 103.816
 c h
198.898 103.816 m f
0.627451 0.917647 0.917647 rg
328.223 164.055 m 331.984 164.051 335.59 165.543 338.254 168.199 c 340.914
 170.855 342.41 174.461 342.414 178.223 c 342.414 186.047 335.012 189.801
 327.172 189.801 c 285.734 189.801 l 285.531 189.922 l 272.438 167.949 l
 272.453 167.941 l 274.703 164.156 278.711 161.766 283.109 161.586 c 285.438
 161.586 287.719 162.227 289.703 163.441 c 289.148 158.332 290.715 153.219
 294.043 149.301 c 297.367 145.387 302.156 143.008 307.285 142.723 c 312.418
 142.441 317.438 144.281 321.172 147.809 c 324.906 151.34 327.027 156.246
 327.039 161.387 c 327.031 162.301 326.957 163.219 326.812 164.121 c 327.277
 164.078 327.75 164.055 328.223 164.055 c h
328.223 164.055 m f
79.809 80.738 m 82.305 80.734 84.699 81.727 86.469 83.492 c 88.234 85.258
 89.227 87.652 89.227 90.148 c 89.227 95.348 84.316 97.844 79.109 97.844
 c 50.199 97.844 l 45.531 97.844 41.387 92.211 41.387 87.547 c 41.387 84.496
 43.035 81.68 45.695 80.184 c 48.355 78.691 51.617 78.746 54.227 80.332 
c 54.172 79.883 54.145 79.43 54.141 78.977 c 54.141 72.105 59.711 66.539
 66.578 66.539 c 73.445 66.539 79.012 72.105 79.012 78.977 c 79.008 79.582
 78.961 80.188 78.871 80.789 c 79.176 80.762 79.484 80.738 79.809 80.738
 c h
79.809 80.738 m f
0.8 0.556863 0.368627 rg
121.637 155.379 m 74.559 333.699 l 228.285 333.699 l h
121.637 155.379 m f
0.960784 0.729412 0.498039 rg
12.75 333.699 m 74.559 333.699 l 121.637 155.379 l h
12.75 333.699 m f
0.729412 0.501961 0.345098 rg
230.648 97.859 m 186.855 263.879 l 186.613 264.023 l 228.285 333.699 l 
371.25 333.699 l h
230.648 97.859 m f
0.960784 0.729412 0.498039 rg
158.031 216.234 m 186.613 264.023 l 186.855 263.879 l 230.648 97.859 l 
h
158.031 216.234 m f
0.866667 0.647059 0.447059 rg
121.637 155.379 m 12.75 333.699 l 35.195 333.699 l 104.539 220.137 l h
121.637 155.379 m f
230.648 97.859 m 158.031 216.234 l 169.145 234.816 l 213.664 162.242 l 
h
230.648 97.859 m f
0.156863 0.258824 0.407843 rg
134.754 267.184 m 147.785 267.184 l 153.785 267.184 153.785 258.184 147.785
 258.184 c 134.754 258.184 l 128.754 258.184 128.754 267.184 134.754 267.184
 c h
134.754 267.184 m f
116.523 285.012 m 102.742 285.012 l 96.742 285.012 96.742 294.012 102.742
 294.012 c 116.523 294.012 l 122.523 294.012 122.523 285.012 116.523 285.012
 c h
116.523 285.012 m f
149.207 316.34 m 149.207 318.824 151.223 320.84 153.707 320.84 c 162.988
 320.84 l 168.988 320.84 168.988 311.84 162.988 311.84 c 153.707 311.84 
l 151.223 311.84 149.207 313.852 149.207 316.34 c h
149.207 316.34 m f
237.402 226.945 m 257.184 226.945 l 263.184 226.945 263.184 217.945 257.184
 217.945 c 237.402 217.945 l 231.402 217.945 231.402 226.945 237.402 226.945
 c h
237.402 226.945 m f
206.891 253.773 m 222.926 253.773 l 228.926 253.773 228.926 244.773 222.926
 244.773 c 206.891 244.773 l 200.891 244.773 200.891 253.773 206.891 253.773
 c h
206.891 253.773 m f
252.605 276.098 m 252.605 278.582 254.621 280.598 257.105 280.598 c 274.641
 280.598 l 280.641 280.598 280.641 271.598 274.641 271.598 c 257.105 271.598
 l 254.621 271.598 252.605 273.613 252.605 276.098 c h
252.605 276.098 m f
251.934 166.586 m 257.934 166.586 257.934 157.586 251.934 157.586 c 244.902
 157.586 l 238.902 157.586 238.902 166.586 244.902 166.586 c h
251.934 166.586 m f
307.32 307.426 m 320.352 307.426 l 326.352 307.426 326.352 298.426 320.352
 298.426 c 307.32 298.426 l 301.32 298.426 301.32 307.426 307.32 307.426
 c h
307.32 307.426 m f
50.199 102.344 m 79.105 102.344 l 87.715 102.344 93.73 97.328 93.73 90.148
 c 93.723 83.836 89.469 78.32 83.367 76.699 c 82.277 68.707 75.699 62.59
 67.648 62.082 c 59.598 61.574 52.305 66.816 50.219 74.609 c 50.094 74.609
 49.969 74.605 49.844 74.605 c 42.695 74.609 36.898 80.398 36.887 87.547
 c 36.887 94.391 42.703 102.344 50.199 102.344 c h
49.844 83.605 m 50.566 83.602 51.273 83.805 51.891 84.184 c 55.078 86.117
 59.102 83.555 58.695 79.848 c 58.414 77.562 59.137 75.27 60.676 73.562 
c 62.215 71.852 64.422 70.895 66.723 70.938 c 69.02 70.98 71.188 72.016 
72.664 73.781 c 74.141 75.543 74.781 77.859 74.414 80.133 c 73.988 83.027
 76.398 85.555 79.309 85.266 c 79.473 85.25 79.637 85.242 79.805 85.242 
c 82.52 85.238 84.723 87.434 84.727 90.148 c 84.727 93.309 79.336 93.344
 79.102 93.344 c 50.199 93.344 l 48.496 93.344 45.887 90.234 45.887 87.547
 c 45.895 85.367 47.664 83.602 49.844 83.605 c h
49.844 83.605 m f
12.75 338.203 m 371.25 338.203 l 374.742 338.203 376.902 334.395 375.117
 331.398 c 293.383 194.305 l 327.172 194.305 l 338.797 194.305 346.914 187.691
 346.914 178.219 c 346.898 169.164 340.398 161.422 331.484 159.836 c 330.684
 148.148 321.309 138.887 309.613 138.23 c 297.914 137.57 287.559 145.727
 285.457 157.25 c 284.68 157.141 283.895 157.09 283.109 157.09 c 279.543
 157.176 276.09 158.371 273.234 160.508 c 266.398 149.039 l 285.641 133.578
 293.012 107.648 284.785 84.379 c 276.559 61.109 254.527 45.574 229.848 
45.641 c 205.164 45.711 183.219 61.363 175.121 84.676 c 167.02 107.992 174.535
 133.879 193.855 149.234 c 158.086 207.555 l 125.496 153.066 l 124.688 151.711
 123.23 150.883 121.656 150.875 c 121.637 150.875 l 120.066 150.875 118.613
 151.691 117.797 153.031 c 8.91 331.355 l 7.078 334.355 9.238 338.203 12.75
 338.203 c h
283.109 166.09 m 284.613 166.09 286.086 166.504 287.371 167.289 c 290.559
 169.223 294.586 166.66 294.18 162.949 c 293.758 159.07 294.949 155.188 
297.473 152.211 c 300 149.238 303.637 147.43 307.531 147.215 c 311.43 147
 315.242 148.398 318.082 151.078 c 320.918 153.758 322.527 157.484 322.535
 161.387 c 322.527 162.082 322.469 162.777 322.359 163.465 c 321.934 166.359
 324.34 168.887 327.254 168.602 c 327.586 168.566 327.914 168.551 328.223
 168.551 c 333.566 168.551 337.902 172.875 337.914 178.219 c 337.914 185.105
 328.273 185.305 327.172 185.305 c 288.016 185.305 l 277.891 168.324 l 279.316
 166.992 281.164 166.203 283.109 166.09 c h
180.898 103.816 m 180.879 87.051 189.41 71.434 203.531 62.395 c 217.652
 53.355 235.406 52.145 250.621 59.188 c 265.84 66.227 276.41 80.543 278.66
 97.156 c 280.91 113.773 274.527 130.387 261.734 141.219 c 234.512 95.555
 l 233.703 94.203 232.246 93.367 230.672 93.359 c 229.102 93.367 227.645
 94.176 226.809 95.504 c 198.602 141.5 l 187.387 132.199 180.898 118.387
 180.898 103.816 c h
218.496 126.273 m 197.176 207.094 l 196.422 209.945 198.574 212.738 201.523
 212.742 c 203.566 212.738 205.355 211.363 205.875 209.387 c 208.32 200.117
 l 238.328 200.117 l 244.328 200.117 244.328 191.117 238.328 191.117 c 210.699
 191.117 l 232.266 109.363 l 308.992 238.062 l 282.852 238.062 l 276.852
 238.062 276.852 247.062 282.852 247.062 c 314.359 247.062 l 363.328 329.199
 l 230.836 329.199 l 225.836 320.836 l 230.613 320.836 l 236.613 320.836
 236.613 311.836 230.613 311.836 c 220.453 311.836 l 191.586 263.574 l 197.969
 239.387 l 199.34 233.68 190.891 231.449 189.266 237.09 c 185.129 252.773
 l 163.297 216.27 l h
123.254 166.855 m 141.781 197.824 l 140.754 197.824 l 134.754 197.824 134.754
 206.824 140.754 206.824 c 147.16 206.824 l 189.91 278.305 l 166.566 278.305
 l 160.566 278.305 160.566 287.305 166.566 287.305 c 195.289 287.305 l 220.348
 329.203 l 80.398 329.203 l 103.852 240.359 l 122.73 240.359 l 128.73 240.359
 128.73 231.359 122.73 231.359 c 106.23 231.359 l h
109.418 184.016 m 71.094 329.203 l 20.766 329.203 l h
109.418 184.016 m f
Q Q
showpage
%%Trailer
end
%%EOF
