%!PS-Adobe-3.0 EPSF-3.0
%%Creator: cairo 1.16.0 (https://cairographics.org)
%%CreationDate: Mon Dec 14 10:17:38 2020
%%Pages: 1
%%DocumentData: Clean7Bit
%%LanguageLevel: 2
%%BoundingBox: 86 7 298 377
%%EndComments
%%BeginProlog
50 dict begin
/q { gsave } bind def
/Q { grestore } bind def
/cm { 6 array astore concat } bind def
/w { setlinewidth } bind def
/J { setlinecap } bind def
/j { setlinejoin } bind def
/M { setmiterlimit } bind def
/d { setdash } bind def
/m { moveto } bind def
/l { lineto } bind def
/c { curveto } bind def
/h { closepath } bind def
/re { exch dup neg 3 1 roll 5 3 roll moveto 0 rlineto
      0 exch rlineto 0 rlineto closepath } bind def
/S { stroke } bind def
/f { fill } bind def
/f* { eofill } bind def
/n { newpath } bind def
/W { clip } bind def
/W* { eoclip } bind def
/BT { } bind def
/ET { } bind def
/BDC { mark 3 1 roll /BDC pdfmark } bind def
/EMC { mark /EMC pdfmark } bind def
/cairo_store_point { /cairo_point_y exch def /cairo_point_x exch def } def
/Tj { show currentpoint cairo_store_point } bind def
/TJ {
  {
    dup
    type /stringtype eq
    { show } { -0.001 mul 0 cairo_font_matrix dtransform rmoveto } ifelse
  } forall
  currentpoint cairo_store_point
} bind def
/cairo_selectfont { cairo_font_matrix aload pop pop pop 0 0 6 array astore
    cairo_font exch selectfont cairo_point_x cairo_point_y moveto } bind def
/Tf { pop /cairo_font exch def /cairo_font_matrix where
      { pop cairo_selectfont } if } bind def
/Td { matrix translate cairo_font_matrix matrix concatmatrix dup
      /cairo_font_matrix exch def dup 4 get exch 5 get cairo_store_point
      /cairo_font where { pop cairo_selectfont } if } bind def
/Tm { 2 copy 8 2 roll 6 array astore /cairo_font_matrix exch def
      cairo_store_point /cairo_font where { pop cairo_selectfont } if } bind def
/g { setgray } bind def
/rg { setrgbcolor } bind def
/d1 { setcachedevice } bind def
/cairo_data_source {
  CairoDataIndex CairoData length lt
    { CairoData CairoDataIndex get /CairoDataIndex CairoDataIndex 1 add def }
    { () } ifelse
} def
/cairo_flush_ascii85_file { cairo_ascii85_file status { cairo_ascii85_file flushfile } if } def
/cairo_image { image cairo_flush_ascii85_file } def
/cairo_imagemask { imagemask cairo_flush_ascii85_file } def
%%EndProlog
%%BeginSetup
%%EndSetup
%%Page: 1 1
%%BeginPageSetup
%%PageBoundingBox: 86 7 298 377
%%EndPageSetup
q 86 7 212 370 rectclip
1 0 0 -1 0 384 cm q
0.552941 0.423529 0.384314 rg
238.801 73.734 m 237.48 66.098 234.965 58.719 231.344 51.871 c 224.621 
39.121 214.363 28.582 201.801 21.516 c 178.223 8.316 149.352 8.883 126.309
 23.004 c 114.887 30.035 105.559 40.004 99.309 51.871 c 99.301 51.871 l 
95.68 58.719 93.164 66.098 91.844 73.734 c 90.758 80.004 90.473 86.387 91.004
 92.73 c 111.879 327.711 l 219.219 326.871 l 239.754 91.223 l 239.852 89.625
 239.898 88.039 239.902 86.461 c 239.906 82.195 239.535 77.934 238.801 73.734
 c h
238.801 73.734 m f
0.478431 0.352941 0.32549 rg
165.324 12 m 151.547 11.973 138.039 15.781 126.309 23.004 c 114.887 30.035
 105.559 40.004 99.309 51.871 c 99.301 51.871 l 95.68 58.719 93.164 66.098
 91.844 73.734 c 90.758 80.004 90.473 86.387 91.004 92.73 c 111.879 327.711
 l 134.363 327.535 l 113.504 92.73 l 112.973 86.387 113.258 80.004 114.344
 73.734 c 115.664 66.098 118.18 58.719 121.801 51.871 c 121.809 51.871 l
 128.059 40.004 137.387 30.035 148.809 23.004 c 157.285 17.785 166.727 14.332
 176.57 12.852 c 172.848 12.285 169.086 12 165.324 12 c h
165.324 12 m f
0.588235 0.552941 0.54902 rg
272.574 312.906 m 219.316 326.871 l 219.316 371.852 l 274.551 352.402 l
 276.352 351.773 277.555 350.078 277.559 348.172 c 277.648 317.387 l 277.66
 314.664 275.27 312.559 272.574 312.906 c h
272.574 312.906 m f
0.796078 0.756863 0.745098 rg
219.219 326.871 m 111.879 327.711 l 108.156 328.215 105.379 331.395 105.383
 335.152 c 105.426 364.516 l 105.438 368.648 108.793 371.996 112.926 372
 c 218.879 372 l 219.316 371.852 l 219.316 326.871 l h
219.219 326.871 m f
0.85098 0.733333 0.294118 rg
195.742 50.723 m 201.801 21.516 l 214.363 28.582 224.621 39.121 231.344
 51.871 c 195.504 51.871 l h
195.742 50.723 m f
0.933333 0.686275 0.258824 rg
238.801 73.734 m 190.215 73.734 l 194.754 51.871 l 231.344 51.871 l 234.965
 58.719 237.48 66.098 238.801 73.734 c h
238.801 73.734 m f
0.85098 0.733333 0.294118 rg
238.801 73.734 m 190.215 73.734 l 181.836 95.324 l 182.586 96.023 l 231.727
 96.023 l 234.25 94.18 236.934 92.57 239.754 91.223 c 239.852 89.625 239.898
 88.039 239.902 86.461 c 239.906 82.195 239.535 77.934 238.801 73.734 c 
h
238.801 73.734 m f
0.933333 0.686275 0.258824 rg
182.586 96.023 m 231.727 96.023 l 225.758 100.297 217.996 107.52 214.02
 118.02 c 182.586 118.02 l h
182.586 96.023 m f
0.85098 0.733333 0.294118 rg
182.586 118.02 m 214.02 118.02 l 211.996 123.402 211.141 129.152 211.508
 134.887 c 211.621 136.676 211.574 138.469 211.371 140.25 c 182.586 140.25
 l h
182.586 118.02 m f
0.933333 0.686275 0.258824 rg
182.586 140.25 m 211.371 140.25 l 209.574 155.738 195.367 159.098 187.613
 159.781 c 184.914 160.02 182.59 157.895 182.586 155.184 c h
182.586 140.25 m f
145.336 140.25 m 145.336 155.184 l 145.332 157.895 143.008 160.02 140.309
 159.781 c 132.555 159.098 118.352 155.738 116.551 140.25 c h
145.336 140.25 m f
0.85098 0.733333 0.294118 rg
145.336 118.02 m 145.336 140.25 l 116.551 140.25 l 116.348 138.469 116.301
 136.676 116.414 134.887 c 116.797 129.172 116.031 123.438 114.164 118.02
 c h
145.336 118.02 m f
0.933333 0.686275 0.258824 rg
144.18 96.023 m 96.711 96.023 l 102.203 99.758 110.242 106.828 114.164 
118.02 c 145.336 118.02 l h
144.18 96.023 m f
0.85098 0.733333 0.294118 rg
136.875 73.734 m 91.844 73.734 l 90.758 80.004 90.473 86.387 91.004 92.73
 c 92.996 93.664 94.906 94.766 96.711 96.023 c 144.18 96.023 l h
136.875 73.734 m f
0.933333 0.686275 0.258824 rg
132.969 51.871 m 136.875 73.734 l 91.844 73.734 l 93.164 66.098 95.68 58.719
 99.301 51.871 c h
132.969 51.871 m f
0.85098 0.733333 0.294118 rg
126.309 23.004 m 114.887 30.035 105.559 40.004 99.309 51.871 c 132.969 
51.871 l h
126.309 23.004 m f
0.266667 0.184314 0.180392 rg
218.676 12 m 165.324 12 l 178.102 11.973 190.668 15.254 201.801 21.516 
c 214.363 28.582 224.621 39.121 231.344 51.871 c 236.961 62.535 239.898 
74.406 239.902 86.461 c 219.219 326.871 l 219.316 326.871 l 272.004 313.02
 l 272.188 312.969 272.379 312.93 272.574 312.906 c 272.527 312.602 l 292.957
 93.137 l 294.797 72.297 287.805 51.645 273.676 36.215 c 259.551 20.789 
239.598 12 218.676 12 c h
218.676 12 m f
0.27451 0.537255 0.827451 rg
165.324 12 m 151.547 11.973 138.039 15.781 126.309 23.004 c 131.266 50.723
 l 195.742 50.723 l 201.801 21.516 l 190.668 15.254 178.102 11.973 165.324
 12 c h
165.324 12 m f
1 0.847059 0.717647 rg
131.266 50.723 m 136.98 82.711 l 138.039 87.754 140.539 92.379 144.18 96.023
 c 144.555 96.406 144.938 96.773 145.336 97.117 c 145.336 97.125 l 154.973
 105.707 169.371 106.145 179.512 98.168 c 180.613 97.305 181.641 96.355 
182.586 95.324 c 185.676 91.992 187.863 87.922 188.934 83.504 c 195.742 
50.723 l h
131.266 50.723 m f
0.372549 0.803922 0.643137 rg
171.57 50.191 m 171.57 50.371 171.562 50.551 171.555 50.723 c 171.273 55.945
 166.957 60.035 161.727 60.035 c 156.496 60.035 152.18 55.945 151.898 50.723
 c 151.891 50.551 151.883 50.371 151.883 50.191 c 151.883 44.754 156.289
 40.348 161.727 40.348 c 167.164 40.348 171.57 44.754 171.57 50.191 c h
171.57 50.191 m f
0.666667 0.631373 0.623529 rg
127.926 364.516 m 127.883 335.152 l 127.879 331.395 130.656 328.215 134.379
 327.711 c 111.879 327.711 l 108.156 328.215 105.379 331.395 105.383 335.152
 c 105.426 364.516 l 105.438 368.648 108.793 371.996 112.926 372 c 135.426
 372 l 131.293 371.996 127.938 368.648 127.926 364.516 c h
127.926 364.516 m f
0.898039 0.74902 0.639216 rg
167.836 97.117 m 167.438 96.773 167.055 96.406 166.68 96.023 c 163.039 
92.379 160.539 87.754 159.48 82.711 c 153.766 50.723 l 131.266 50.723 l 
136.98 82.711 l 138.039 87.754 140.539 92.379 144.18 96.023 c 144.555 96.406
 144.938 96.773 145.336 97.117 c 145.336 97.125 l 153.277 104.199 164.664
 105.867 174.301 101.371 c 171.949 100.277 169.773 98.848 167.836 97.125
 c h
167.836 97.117 m f
0.156863 0.258824 0.407843 rg
276.996 33.176 m 262.004 16.836 240.852 7.523 218.676 7.5 c 165.324 7.5
 l 143.215 7.5 122.113 16.758 107.141 33.027 c 92.168 49.297 84.691 71.094
 86.523 93.129 c 107.086 324.645 l 103.262 326.762 100.887 330.789 100.883
 335.16 c 100.93 364.52 l 100.949 371.137 106.312 376.492 112.93 376.5 c
 218.879 376.5 l 219.391 376.5 219.895 376.414 220.375 376.246 c 276.051
 356.648 l 279.637 355.379 282.043 351.992 282.059 348.188 c 282.148 317.395
 l 282.168 314.598 280.875 311.953 278.656 310.25 c 278.242 309.938 277.801
 309.656 277.34 309.418 c 297.441 93.535 l 299.371 71.441 291.953 49.551
 276.996 33.176 c h
228.535 56.371 m 230.504 60.496 232.066 64.805 233.203 69.23 c 196.492 
69.23 l 199.164 56.371 l h
201.031 47.371 m 204.898 28.758 l 212.191 33.73 218.473 40.047 223.398 
47.371 c h
207.016 135.148 m 207.027 135.355 207.027 135.551 207.035 135.75 c 187.086
 135.75 l 187.086 122.52 l 207.965 122.52 l 207.074 126.668 206.754 130.918
 207.016 135.148 c h
120.887 135.75 m 120.895 135.547 120.895 135.352 120.906 135.148 c 121.164
 130.922 120.871 126.676 120.039 122.523 c 140.832 122.523 l 140.832 135.75
 l h
140.836 144.75 m 140.836 155.184 l 140.84 155.215 140.828 155.246 140.805
 155.266 c 140.777 155.289 140.742 155.301 140.707 155.297 c 133.629 154.68
 125.645 152.211 122.379 144.75 c h
117.215 113.52 m 115.129 108.746 112.262 104.355 108.734 100.523 c 140.832
 100.523 l 140.832 113.52 l h
136.641 55.219 m 148.312 55.219 l 150.402 60.82 155.75 64.535 161.73 64.535
 c 167.707 64.535 173.055 60.82 175.145 55.219 c 190.215 55.219 l 184.547
 82.512 l 182.086 92.535 173.027 99.523 162.707 99.363 c 152.391 99.203 
143.555 91.938 141.402 81.844 c h
156.383 50.188 m 156.383 45.426 162.141 43.043 165.508 46.41 c 168.875 
49.777 166.492 55.535 161.73 55.535 c 158.777 55.531 156.383 53.141 156.379
 50.188 c h
187.09 144.75 m 205.547 144.75 l 202.285 152.211 194.297 154.68 187.219
 155.297 c 187.184 155.301 187.148 155.289 187.125 155.266 c 187.102 155.246
 187.086 155.215 187.09 155.184 c h
187.09 113.52 m 187.09 100.523 l 219.742 100.523 l 216.145 104.363 213.184
 108.75 210.969 113.52 c h
190.715 91.523 m 191.852 89.316 192.723 86.98 193.309 84.566 c 193.32 84.516
 193.328 84.469 193.34 84.422 c 194.625 78.23 l 234.891 78.23 l 235.297 
81.605 235.457 85.004 235.367 88.398 c 234.031 89.125 232.266 90.16 230.262
 91.523 c h
165.324 16.5 m 176.223 16.508 186.965 19.055 196.707 23.938 c 192.078 46.219
 l 175.5 46.219 l 173.734 40.078 168.117 35.844 161.727 35.844 c 155.332
 35.844 149.715 40.078 147.949 46.219 c 135.027 46.219 l 131.277 25.262 
l 141.691 19.473 153.414 16.457 165.324 16.5 c h
113.77 39.113 m 116.621 36.012 119.742 33.168 123.098 30.617 c 126.09 47.371
 l 107.219 47.371 l 109.199 44.461 111.387 41.703 113.77 39.113 c h
102.035 56.371 m 127.699 56.371 l 130 69.23 l 97.367 69.23 l 98.492 64.801
 100.055 60.492 102.035 56.371 c h
95.715 78.23 m 131.609 78.23 l 132.551 83.5 l 132.559 83.543 132.566 83.586
 132.578 83.633 c 133.156 86.379 134.105 89.035 135.406 91.523 c 98.055 
91.523 l 97.031 90.867 96.113 90.324 95.336 89.895 c 95.145 86.004 95.27
 82.102 95.715 78.23 c h
214.812 367.5 m 112.93 367.5 l 111.273 367.496 109.934 366.16 109.93 364.504
 c 109.883 335.148 l 109.887 333.5 111.215 332.16 112.863 332.145 c 214.812
 331.406 l h
273.059 348.16 m 223.812 365.492 l 223.812 330.344 l 273.148 317.371 l 
h
288.566 91.523 m 260.203 91.523 l 254.203 91.523 254.203 100.523 260.203
 100.523 c 287.75 100.523 l 270.582 284.934 l 257.668 287.984 l 252.473 
289.211 253.359 296.859 258.699 296.863 c 259.047 296.863 259.395 296.824
 259.734 296.742 c 269.699 294.387 l 268.309 309.336 l 224.25 320.926 l 
233.242 217.891 l 233.762 211.914 224.797 211.133 224.273 217.109 c 215.086
 322.41 l 200 322.52 l 200 286.941 l 200 280.941 191 280.941 191 286.941
 c 191 322.578 l 169.824 322.73 l 169.824 202.805 l 169.824 196.805 160.824
 196.805 160.824 202.805 c 160.824 322.801 l 139.875 322.949 l 139.875 266.785
 l 139.875 260.785 130.875 260.785 130.875 266.785 c 130.875 323.012 l 115.988
 323.121 l 96.277 101.207 l 103.328 106.562 112.934 117.148 111.922 134.625
 c 110.941 151.578 121.41 162.652 139.922 164.262 c 140.184 164.281 140.449
 164.293 140.711 164.293 c 143.129 164.297 145.449 163.34 147.16 161.629
 c 148.871 159.922 149.832 157.602 149.832 155.184 c 149.832 105.383 l 158.848
 109.645 169.355 109.32 178.09 104.512 c 178.09 155.18 l 178.09 157.598 
179.051 159.918 180.762 161.629 c 182.473 163.336 184.793 164.293 187.211
 164.293 c 187.477 164.293 187.738 164.281 188 164.258 c 206.516 162.652
 216.98 151.574 216 134.625 c 214.949 116.453 226.598 105.082 234.535 99.492
 c 226.891 187.109 l 226.648 189.602 228.484 191.812 230.98 192.027 c 233.473
 192.246 235.664 190.387 235.855 187.891 c 244.09 93.531 l 246.926 61.684
 230.273 31.27 201.914 16.5 c 218.676 16.5 l 238.117 16.5 256.691 24.578
 269.945 38.805 c 283.199 53.031 289.945 72.129 288.566 91.523 c h
288.566 91.523 m f
Q Q
showpage
%%Trailer
end
%%EOF
