%!PS-Adobe-3.0 EPSF-3.0
%%Creator: cairo 1.16.0 (https://cairographics.org)
%%CreationDate: Mon Dec 14 10:17:39 2020
%%Pages: 1
%%DocumentData: Clean7Bit
%%LanguageLevel: 2
%%BoundingBox: 8 7 376 377
%%EndComments
%%BeginProlog
50 dict begin
/q { gsave } bind def
/Q { grestore } bind def
/cm { 6 array astore concat } bind def
/w { setlinewidth } bind def
/J { setlinecap } bind def
/j { setlinejoin } bind def
/M { setmiterlimit } bind def
/d { setdash } bind def
/m { moveto } bind def
/l { lineto } bind def
/c { curveto } bind def
/h { closepath } bind def
/re { exch dup neg 3 1 roll 5 3 roll moveto 0 rlineto
      0 exch rlineto 0 rlineto closepath } bind def
/S { stroke } bind def
/f { fill } bind def
/f* { eofill } bind def
/n { newpath } bind def
/W { clip } bind def
/W* { eoclip } bind def
/BT { } bind def
/ET { } bind def
/BDC { mark 3 1 roll /BDC pdfmark } bind def
/EMC { mark /EMC pdfmark } bind def
/cairo_store_point { /cairo_point_y exch def /cairo_point_x exch def } def
/Tj { show currentpoint cairo_store_point } bind def
/TJ {
  {
    dup
    type /stringtype eq
    { show } { -0.001 mul 0 cairo_font_matrix dtransform rmoveto } ifelse
  } forall
  currentpoint cairo_store_point
} bind def
/cairo_selectfont { cairo_font_matrix aload pop pop pop 0 0 6 array astore
    cairo_font exch selectfont cairo_point_x cairo_point_y moveto } bind def
/Tf { pop /cairo_font exch def /cairo_font_matrix where
      { pop cairo_selectfont } if } bind def
/Td { matrix translate cairo_font_matrix matrix concatmatrix dup
      /cairo_font_matrix exch def dup 4 get exch 5 get cairo_store_point
      /cairo_font where { pop cairo_selectfont } if } bind def
/Tm { 2 copy 8 2 roll 6 array astore /cairo_font_matrix exch def
      cairo_store_point /cairo_font where { pop cairo_selectfont } if } bind def
/g { setgray } bind def
/rg { setrgbcolor } bind def
/d1 { setcachedevice } bind def
/cairo_data_source {
  CairoDataIndex CairoData length lt
    { CairoData CairoDataIndex get /CairoDataIndex CairoDataIndex 1 add def }
    { () } ifelse
} def
/cairo_flush_ascii85_file { cairo_ascii85_file status { cairo_ascii85_file flushfile } if } def
/cairo_image { image cairo_flush_ascii85_file } def
/cairo_imagemask { imagemask cairo_flush_ascii85_file } def
%%EndProlog
%%BeginSetup
%%EndSetup
%%Page: 1 1
%%BeginPageSetup
%%PageBoundingBox: 8 7 376 377
%%EndPageSetup
q 8 7 368 370 rectclip
1 0 0 -1 0 384 cm q
0.580392 0.564706 0.6 rg
215.746 331.77 m 215.258 347.934 l 214.867 361.383 203.816 372.062 190.359
 371.996 c 176.906 371.93 165.961 361.137 165.703 347.684 c 165.383 331.77
 l h
215.746 331.77 m f
0.411765 0.4 0.427451 rg
216.359 311.488 m 215.746 331.77 l 165.383 331.77 l 164.969 311.488 l h
216.359 311.488 m f
0.580392 0.564706 0.6 rg
160.746 103.051 m 164.969 311.488 l 216.359 311.488 l 222.621 103.051 l
 h
160.746 103.051 m f
0.933333 0.686275 0.258824 rg
363.719 12 m 365.75 12.004 367.688 12.867 369.043 14.379 c 370.402 15.891
 371.055 17.906 370.836 19.926 c 370.613 22.066 370.297 24.57 369.855 27.367
 c 257.836 27.367 l 258.027 24.141 257.953 20.902 257.617 17.684 c 257.305
 14.645 259.691 12 262.746 12 c h
363.719 12 m f
121.254 12 m 124.309 12 126.695 14.645 126.383 17.684 c 126.043 20.902 
125.941 24.137 126.082 27.367 c 14.137 27.367 l 13.703 24.578 13.387 22.066
 13.164 19.926 c 12.945 17.906 13.598 15.891 14.957 14.379 c 16.312 12.867
 18.25 12.004 20.281 12 c h
121.254 12 m f
0.85098 0.733333 0.294118 rg
146.332 50.363 m 130.59 51.016 126.609 38.324 126.082 27.367 c 14.137 27.367
 l 16.027 39.578 20.234 57.238 29.543 73.395 c 34.562 82.32 41.172 90.25
 49.051 96.797 c 70.352 114.148 104.07 121.738 157.477 101.566 c 157.484
 101.559 l h
146.332 50.363 m f
257.836 27.367 m 257.168 38.406 252.891 51.277 237.137 50.625 c 225.93 
101.52 l 279.301 121.68 313.133 114.121 334.559 96.797 c 334.566 96.797 
l 342.5 90.262 349.168 82.328 354.246 73.395 c 363.652 57.234 367.934 39.578
 369.855 27.367 c h
257.836 27.367 m f
0.341176 0.333333 0.356863 rg
164.969 311.488 m 165.383 331.77 l 187.883 331.77 l 187.469 311.488 l h
164.969 311.488 m f
0.47451 0.466667 0.486275 rg
188.203 347.684 m 187.883 331.77 l 165.383 331.77 l 165.703 347.684 l 165.863
 356.223 170.41 364.078 177.734 368.473 c 185.059 372.863 194.129 373.176
 201.734 369.293 c 193.59 365.133 188.391 356.832 188.203 347.684 c h
188.203 347.684 m f
160.746 103.051 m 164.969 311.488 l 187.469 311.488 l 183.246 103.051 l
 h
160.746 103.051 m f
0.27451 0.537255 0.827451 rg
240.016 67.156 m 240.016 93.922 218.316 115.621 191.555 115.621 c 164.789
 115.621 143.09 93.922 143.09 67.156 c 143.09 40.395 164.789 18.695 191.555
 18.695 c 218.316 18.695 240.016 40.395 240.016 67.156 c h
240.016 67.156 m f
0.235294 0.470588 0.686275 rg
165.59 67.156 m 165.598 44.73 180.988 25.234 202.801 20.023 c 188.371 16.578
 173.16 19.93 161.516 29.117 c 149.871 38.309 143.078 52.324 143.078 67.16
 c 143.078 81.992 149.871 96.012 161.516 105.199 c 173.16 114.391 188.371
 117.742 202.801 114.293 c 180.984 109.082 165.594 89.586 165.59 67.156 
c h
165.59 67.156 m f
0.827451 0.588235 0.239216 rg
42.781 12 m 20.281 12 l 18.25 12.004 16.312 12.867 14.957 14.379 c 13.598
 15.891 12.945 17.906 13.164 19.926 c 13.387 22.066 13.703 24.578 14.137
 27.367 c 36.637 27.367 l 36.203 24.578 35.887 22.066 35.664 19.926 c 35.445
 17.906 36.098 15.891 37.457 14.379 c 38.812 12.867 40.75 12.004 42.781 
12 c h
42.781 12 m f
0.756863 0.643137 0.286275 rg
52.043 73.395 m 42.734 57.238 38.527 39.578 36.637 27.367 c 14.137 27.367
 l 16.027 39.578 20.234 57.238 29.543 73.395 c 34.562 82.32 41.172 90.25
 49.051 96.797 c 63.449 108.531 83.547 115.785 111.555 113.027 c 94.836 
111.176 81.758 105.113 71.551 96.797 c 63.672 90.25 57.062 82.32 52.043 
73.395 c h
52.043 73.395 m f
0.156863 0.258824 0.407843 rg
363.723 7.5 m 262.75 7.5 l 260.016 7.5 257.41 8.656 255.578 10.688 c 253.746
 12.715 252.859 15.426 253.141 18.145 c 253.551 22.156 254.41 35.762 248.203
 42.363 c 246.066 44.566 243.18 45.883 240.117 46.047 c 231.742 26.828 212.793
 14.383 191.828 14.328 c 170.863 14.273 151.852 26.621 143.375 45.797 c 
140.383 45.656 137.555 44.387 135.461 42.242 c 131.41 37.934 129.734 29.152
 130.859 18.145 c 131.141 15.426 130.254 12.715 128.422 10.688 c 126.59 
8.656 123.984 7.5 121.25 7.5 c 20.277 7.5 l 16.973 7.504 13.82 8.91 11.613
 11.367 c 9.402 13.828 8.34 17.113 8.691 20.398 c 9.797 30.781 11.918 41.031
 15.023 51 c 15.082 51.258 15.16 51.508 15.262 51.75 c 17.82 59.863 21.211
 67.695 25.375 75.117 c 25.52 75.473 25.715 75.805 25.949 76.113 c 31.133
 85.203 37.895 93.301 45.918 100.02 c 46.121 100.219 46.344 100.398 46.582
 100.555 c 49.066 102.566 51.676 104.422 54.398 106.109 c 67.391 114.117
 82.613 118.125 99.949 118.125 c 116.777 118.125 135.598 114.34 156.293 
106.801 c 161.203 347.773 l 161.602 363.688 174.566 376.406 190.484 376.5
 c 206.352 376.562 219.359 363.93 219.758 348.066 c 227.055 106.727 l 247.785
 114.289 266.656 118.082 283.531 118.082 c 300.961 118.082 316.281 114.047
 329.367 105.984 c 332.133 104.273 334.785 102.391 337.316 100.348 c 337.359
 100.312 337.406 100.281 337.453 100.242 c 349.039 90.867 358.293 77.938
 365.023 61.668 c 366.449 58.234 367.676 54.82 368.746 51.488 c 368.777 
51.406 368.805 51.32 368.832 51.23 c 372.012 41.195 374.18 30.867 375.309
 20.398 c 375.66 17.113 374.598 13.828 372.387 11.367 c 370.18 8.91 367.027
 7.504 363.723 7.5 c h
17.641 19.457 m 17.559 18.699 17.805 17.941 18.316 17.375 c 18.816 16.816
 19.531 16.5 20.277 16.5 c 121.25 16.5 l 121.438 16.496 121.617 16.578 121.742
 16.719 c 121.871 16.855 121.93 17.043 121.906 17.227 c 121.727 19.004 121.594
 20.902 121.539 22.863 c 18.039 22.863 l 17.883 21.645 17.75 20.504 17.641
 19.457 c h
210.766 347.793 m 210.449 358.805 201.402 367.551 190.387 367.496 c 179.371
 367.441 170.414 358.605 170.207 347.594 c 169.977 336.27 l 211.113 336.27
 l h
211.387 327.27 m 169.789 327.27 l 169.562 315.992 l 211.727 315.992 l h
212 306.992 m 169.375 306.992 l 165.426 113.238 l 181.652 122.566 201.609
 122.582 217.852 113.281 c h
191.684 111.246 m 175.164 111.227 160.055 101.941 152.578 87.215 c 151.52
 84.887 148.742 83.906 146.461 85.055 c 144.176 86.199 143.305 89.016 144.543
 91.25 c 146.035 94.176 147.793 96.957 149.797 99.555 c 114.875 111.688 
86.152 112.27 64.254 101.297 c 77.516 101.297 l 83.516 101.297 83.516 92.297
 77.516 92.297 c 50.688 92.297 l 45.773 88.066 41.422 83.227 37.73 77.898
 c 87.641 77.898 l 93.641 77.898 93.641 68.898 87.641 68.898 c 32.184 68.898
 l 29.688 64.254 27.523 59.441 25.703 54.496 c 100.879 54.496 l 106.879 
54.496 106.879 45.496 100.879 45.496 c 22.742 45.496 l 21.336 40.66 20.273
 36.043 19.48 31.863 c 121.957 31.863 l 122.754 37.988 124.746 43.988 128.906
 48.406 c 131.957 51.645 135.996 53.777 140.387 54.48 c 140.066 55.773 139.781
 57.078 139.559 58.402 c 139.066 61.16 141.184 63.691 143.98 63.703 c 143.996
 63.703 l 146.195 63.695 148.07 62.098 148.426 59.926 c 151.316 43.098 163.707
 29.477 180.184 25.004 c 196.66 20.531 214.234 26.02 225.238 39.074 c 236.242
 52.129 238.676 70.383 231.477 85.863 c 224.281 101.344 208.754 111.246 
191.684 111.25 c h
361.344 45.496 m 283.125 45.496 l 277.125 45.496 277.125 54.496 283.125
 54.496 c 358.332 54.496 l 356.465 59.457 354.234 64.27 351.652 68.898 c
 296.359 68.898 l 290.359 68.898 290.359 77.898 296.359 77.898 c 345.938
 77.898 l 342.156 83.203 337.754 88.035 332.828 92.297 c 306.484 92.297 
l 300.484 92.297 300.484 101.297 306.484 101.297 c 319.266 101.297 l 297.266
 112.23 268.512 111.637 233.613 99.512 c 243.398 86.797 246.875 70.328 243.062
 54.742 c 247.543 54.02 251.656 51.836 254.766 48.531 c 256.766 46.406 260.512
 41.293 261.914 31.867 c 364.566 31.867 l 363.723 36.461 362.648 41.012 
361.344 45.496 c h
366.359 19.457 m 366.238 20.609 366.102 21.742 365.961 22.863 c 262.441
 22.863 l 262.406 21.09 262.297 19.215 262.094 17.227 c 262.07 17.043 262.129
 16.855 262.258 16.719 c 262.383 16.578 262.562 16.496 262.75 16.5 c 363.723
 16.5 l 364.473 16.496 365.188 16.816 365.688 17.375 c 366.199 17.941 366.441
 18.699 366.359 19.457 c h
366.359 19.457 m f
107.637 69.699 m 101.391 69.699 l 95.391 69.699 95.391 78.699 101.391 78.699
 c 107.637 78.699 l 113.637 78.699 113.637 69.699 107.637 69.699 c h
107.637 69.699 m f
97.512 91.539 m 94.383 91.539 l 88.383 91.539 88.383 100.539 94.383 100.539
 c 97.512 100.539 l 103.512 100.539 103.512 91.539 97.512 91.539 c h
97.512 91.539 m f
273.508 79.48 m 279.758 79.48 l 285.758 79.48 285.758 70.48 279.758 70.48
 c 273.508 70.48 l 267.508 70.48 267.508 79.48 273.508 79.48 c h
273.508 79.48 m f
279.133 96.82 m 279.133 99.305 281.148 101.32 283.633 101.32 c 286.766 
101.32 l 292.766 101.32 292.766 92.32 286.766 92.32 c 283.633 92.32 l 281.148
 92.32 279.133 94.332 279.133 96.82 c h
279.133 96.82 m f
204.176 257.609 m 204.289 257.609 l 206.73 257.609 208.727 255.66 208.789
 253.219 c 209.051 242.645 l 209.199 236.645 200.199 236.422 200.051 242.422
 c 199.789 252.996 l 199.727 255.48 201.688 257.547 204.176 257.609 c h
204.176 257.609 m f
204.824 231.207 m 204.938 231.207 l 207.383 231.207 209.379 229.258 209.438
 226.816 c 210.668 177.258 l 210.816 171.258 201.816 171.031 201.668 177.031
 c 200.438 226.594 l 200.375 229.078 202.34 231.145 204.824 231.207 c h
204.824 231.207 m f
192.016 31.637 m 172.258 31.672 156.254 47.695 156.242 67.453 c 156.242
 73.453 165.242 73.453 165.242 67.453 c 165.246 52.664 177.227 40.664 192.016
 40.637 c 198.016 40.637 198.016 31.637 192.016 31.637 c h
192.016 31.637 m f
Q Q
showpage
%%Trailer
end
%%EOF
