%!PS-Adobe-3.0 EPSF-3.0
%%Creator: cairo 1.16.0 (https://cairographics.org)
%%CreationDate: Mon Dec 14 10:17:40 2020
%%Pages: 1
%%DocumentData: Clean7Bit
%%LanguageLevel: 2
%%BoundingBox: 8 18 376 366
%%EndComments
%%BeginProlog
50 dict begin
/q { gsave } bind def
/Q { grestore } bind def
/cm { 6 array astore concat } bind def
/w { setlinewidth } bind def
/J { setlinecap } bind def
/j { setlinejoin } bind def
/M { setmiterlimit } bind def
/d { setdash } bind def
/m { moveto } bind def
/l { lineto } bind def
/c { curveto } bind def
/h { closepath } bind def
/re { exch dup neg 3 1 roll 5 3 roll moveto 0 rlineto
      0 exch rlineto 0 rlineto closepath } bind def
/S { stroke } bind def
/f { fill } bind def
/f* { eofill } bind def
/n { newpath } bind def
/W { clip } bind def
/W* { eoclip } bind def
/BT { } bind def
/ET { } bind def
/BDC { mark 3 1 roll /BDC pdfmark } bind def
/EMC { mark /EMC pdfmark } bind def
/cairo_store_point { /cairo_point_y exch def /cairo_point_x exch def } def
/Tj { show currentpoint cairo_store_point } bind def
/TJ {
  {
    dup
    type /stringtype eq
    { show } { -0.001 mul 0 cairo_font_matrix dtransform rmoveto } ifelse
  } forall
  currentpoint cairo_store_point
} bind def
/cairo_selectfont { cairo_font_matrix aload pop pop pop 0 0 6 array astore
    cairo_font exch selectfont cairo_point_x cairo_point_y moveto } bind def
/Tf { pop /cairo_font exch def /cairo_font_matrix where
      { pop cairo_selectfont } if } bind def
/Td { matrix translate cairo_font_matrix matrix concatmatrix dup
      /cairo_font_matrix exch def dup 4 get exch 5 get cairo_store_point
      /cairo_font where { pop cairo_selectfont } if } bind def
/Tm { 2 copy 8 2 roll 6 array astore /cairo_font_matrix exch def
      cairo_store_point /cairo_font where { pop cairo_selectfont } if } bind def
/g { setgray } bind def
/rg { setrgbcolor } bind def
/d1 { setcachedevice } bind def
/cairo_data_source {
  CairoDataIndex CairoData length lt
    { CairoData CairoDataIndex get /CairoDataIndex CairoDataIndex 1 add def }
    { () } ifelse
} def
/cairo_flush_ascii85_file { cairo_ascii85_file status { cairo_ascii85_file flushfile } if } def
/cairo_image { image cairo_flush_ascii85_file } def
/cairo_imagemask { imagemask cairo_flush_ascii85_file } def
%%EndProlog
%%BeginSetup
%%EndSetup
%%Page: 1 1
%%BeginPageSetup
%%PageBoundingBox: 8 18 376 366
%%EndPageSetup
q 8 18 368 348 rectclip
1 0 0 -1 0 384 cm q
0.85098 0.733333 0.294118 rg
359.43 315.988 m 213.539 315.988 l 279.352 301.027 338.113 241.379 338.113
 170.895 c 338.113 89.102 271.957 22.801 190.352 22.801 c 151.113 22.836
 113.5 38.465 85.785 66.238 c 58.074 94.012 42.531 131.66 42.578 170.895
 c 42.578 241.508 100.613 301.156 166.605 315.988 c 24.57 315.988 l 18.031
 315.988 12.727 321.293 12.727 327.832 c 12.727 334.371 18.031 339.676 24.57
 339.676 c 359.43 339.676 l 365.969 339.676 371.273 334.371 371.273 327.832
 c 371.273 321.293 365.969 315.988 359.43 315.988 c h
69.465 171.398 m 69.465 104.281 123.75 49.875 190.719 49.875 c 257.684 
49.875 311.961 104.281 311.961 171.398 c 311.961 227.672 265.344 279.504
 213.539 293.324 c 166.605 291.047 l 114.512 277.418 69.465 227.871 69.465
 171.398 c h
69.465 171.398 m f
0.729412 0.619608 0.258824 rg
61.328 170.895 m 61.293 148.605 66.305 126.602 75.984 106.523 c 98.586 
59.652 145.113 26.543 199.68 23.102 c 196.594 22.906 193.484 22.801 190.352
 22.801 c 151.113 22.836 113.5 38.465 85.785 66.238 c 58.074 94.012 42.531
 131.66 42.578 170.895 c 42.578 241.508 100.613 301.156 166.605 315.988 
c 185.355 315.988 l 119.363 301.156 61.328 241.508 61.328 170.895 c h
61.328 170.895 m f
31.5 327.832 m 31.492 324.695 32.734 321.68 34.953 319.461 c 37.172 317.238
 40.18 315.988 43.32 315.988 c 24.57 315.988 l 18.031 315.988 12.727 321.293
 12.727 327.832 c 12.727 334.371 18.031 339.676 24.57 339.676 c 43.32 339.676
 l 40.184 339.672 37.172 338.422 34.957 336.203 c 32.738 333.98 31.496 330.969
 31.5 327.832 c h
31.5 327.832 m f
0.760784 0.407843 0.309804 rg
186.613 275.766 m 183.262 272.414 178.223 271.41 173.84 273.223 c 169.461
 275.039 166.605 279.312 166.605 284.055 c 166.605 349.477 l 166.605 352.586
 167.84 355.566 170.039 357.766 c 172.238 359.965 175.219 361.199 178.328
 361.199 c 181.438 361.199 184.418 359.965 186.617 357.766 c 188.816 355.566
 190.051 352.586 190.051 349.477 c 190.051 284.055 l 190.055 280.945 188.816
 277.961 186.613 275.766 c h
186.613 275.766 m f
0.737255 0.368627 0.317647 rg
210.105 275.773 m 206.758 272.418 201.715 271.41 197.332 273.223 c 192.949
 275.035 190.094 279.312 190.094 284.055 c 190.051 284.055 l 190.051 349.477
 l 190.094 349.477 l 190.102 355.953 195.355 361.195 201.828 361.188 c 208.305
 361.184 213.547 355.93 213.539 349.453 c 213.539 284.086 l 213.543 280.969
 212.309 277.98 210.105 275.773 c h
210.105 275.773 m f
0.156863 0.258824 0.407843 rg
359.434 311.484 m 242.023 311.484 l 265.633 301.465 286.742 286.363 303.859
 267.266 c 328.852 239.355 342.617 205.129 342.617 170.891 c 342.617 86.75
 274.309 18.293 190.348 18.293 c 106.387 18.293 38.082 86.75 38.082 170.895
 c 38.082 205.242 51.719 239.5 76.484 267.348 c 93.465 286.434 114.473 301.508
 137.992 311.484 c 24.566 311.484 l 15.539 311.484 8.223 318.805 8.223 327.828
 c 8.223 336.855 15.539 344.172 24.566 344.172 c 162.105 344.172 l 162.105
 349.48 l 162.102 356.117 166.141 362.086 172.305 364.547 c 178.469 367.008
 185.508 365.465 190.074 360.648 c 194.645 365.469 201.691 367.008 207.855
 364.543 c 214.02 362.074 218.055 356.094 218.035 349.453 c 218.035 344.176
 l 359.434 344.176 l 368.457 344.176 375.777 336.859 375.777 327.832 c 375.777
 318.805 368.457 311.488 359.434 311.488 c h
162.105 335.176 m 118.273 335.176 l 118.273 332.953 l 118.273 326.953 109.273
 326.953 109.273 332.953 c 109.273 335.176 l 24.566 335.176 l 20.512 335.176
 17.223 331.887 17.223 327.832 c 17.223 323.777 20.512 320.488 24.566 320.488
 c 48.02 320.488 l 48.02 323.219 l 48.02 329.219 57.02 329.219 57.02 323.219
 c 57.02 320.488 l 162.105 320.488 l h
162.105 310.25 m 132.172 302.332 104.332 285.125 83.207 261.371 c 59.91
 235.168 47.078 203.039 47.078 170.895 c 47.055 150.23 51.512 129.801 60.141
 111.023 c 66.176 111.023 l 72.176 111.023 72.176 102.023 66.176 102.023
 c 64.668 102.023 l 89.035 57.527 136.234 27.301 190.352 27.301 c 269.348
 27.301 333.617 91.715 333.617 170.895 c 333.59 182.871 331.828 194.777 
328.391 206.246 c 321.02 206.246 l 315.02 206.246 315.02 215.246 321.02 
215.246 c 325.367 215.246 l 318.891 232.199 309.324 247.801 297.156 261.262
 c 275.898 285 247.98 302.242 218.035 310.238 c 218.035 296.723 l 243.438
 289.16 267.328 273.086 285.633 251.164 c 305.516 227.344 316.465 199.016
 316.465 171.395 c 316.465 101.91 260.055 45.379 190.715 45.379 c 121.379
 45.379 64.969 101.91 64.969 171.395 c 64.969 199.117 75.652 227.098 95.055
 250.188 c 112.887 271.406 136.59 287.027 162.105 294.465 c h
185.551 349.48 m 185.551 353.469 182.316 356.703 178.328 356.703 c 174.34
 356.703 171.105 353.469 171.105 349.48 c 171.105 311.477 l 175.094 311.477
 l 181.094 311.477 181.094 302.477 175.094 302.477 c 171.105 302.477 l 171.105
 284.055 l 171.105 280.066 174.34 276.836 178.328 276.836 c 182.316 276.836
 185.551 280.066 185.551 284.055 c h
209.035 323.328 m 204.164 323.328 l 198.164 323.328 198.164 332.328 204.164
 332.328 c 209.035 332.328 l 209.035 349.453 l 209.035 353.441 205.805 356.676
 201.816 356.676 c 197.824 356.676 194.594 353.441 194.594 349.453 c 194.59
 349.262 194.578 349.066 194.551 348.875 c 194.551 284.66 l 194.578 284.469
 194.59 284.277 194.594 284.082 c 194.594 282.168 195.355 280.328 196.707
 278.977 c 198.062 277.621 199.898 276.859 201.816 276.859 c 203.73 276.859
 205.566 277.621 206.922 278.977 c 208.273 280.328 209.035 282.168 209.035
 284.082 c h
201.812 267.836 m 197.371 267.836 193.129 269.66 190.074 272.887 c 185.508
 268.074 178.469 266.531 172.305 268.992 c 166.141 271.453 162.102 277.422
 162.105 284.055 c 162.105 285.059 l 139.242 277.844 118.051 263.562 101.945
 244.395 c 83.902 222.926 73.969 197 73.969 171.395 c 73.969 106.875 126.34
 54.375 190.715 54.375 c 255.09 54.375 307.465 106.875 307.465 171.395 c
 307.465 196.91 297.258 223.191 278.723 245.395 c 262.422 264.922 240.57
 279.949 218.035 287.293 c 218.035 284.082 l 218.031 275.121 210.777 267.852
 201.816 267.836 c h
359.434 335.176 m 338.883 335.176 l 338.883 331.223 l 338.883 325.223 329.883
 325.223 329.883 331.223 c 329.883 335.176 l 218.035 335.176 l 218.035 320.484
 l 266.574 320.484 l 266.574 324.438 l 266.574 330.438 275.574 330.438 275.574
 324.438 c 275.574 320.484 l 359.434 320.484 l 363.488 320.484 366.777 323.773
 366.777 327.828 c 366.777 331.887 363.488 335.172 359.434 335.172 c h
359.434 335.176 m f
Q Q
showpage
%%Trailer
end
%%EOF
