%!PS-Adobe-3.0 EPSF-3.0
%%Creator: cairo 1.16.0 (https://cairographics.org)
%%CreationDate: Mon Dec 14 10:17:40 2020
%%Pages: 1
%%DocumentData: Clean7Bit
%%LanguageLevel: 2
%%BoundingBox: 13 8 371 376
%%EndComments
%%BeginProlog
50 dict begin
/q { gsave } bind def
/Q { grestore } bind def
/cm { 6 array astore concat } bind def
/w { setlinewidth } bind def
/J { setlinecap } bind def
/j { setlinejoin } bind def
/M { setmiterlimit } bind def
/d { setdash } bind def
/m { moveto } bind def
/l { lineto } bind def
/c { curveto } bind def
/h { closepath } bind def
/re { exch dup neg 3 1 roll 5 3 roll moveto 0 rlineto
      0 exch rlineto 0 rlineto closepath } bind def
/S { stroke } bind def
/f { fill } bind def
/f* { eofill } bind def
/n { newpath } bind def
/W { clip } bind def
/W* { eoclip } bind def
/BT { } bind def
/ET { } bind def
/BDC { mark 3 1 roll /BDC pdfmark } bind def
/EMC { mark /EMC pdfmark } bind def
/cairo_store_point { /cairo_point_y exch def /cairo_point_x exch def } def
/Tj { show currentpoint cairo_store_point } bind def
/TJ {
  {
    dup
    type /stringtype eq
    { show } { -0.001 mul 0 cairo_font_matrix dtransform rmoveto } ifelse
  } forall
  currentpoint cairo_store_point
} bind def
/cairo_selectfont { cairo_font_matrix aload pop pop pop 0 0 6 array astore
    cairo_font exch selectfont cairo_point_x cairo_point_y moveto } bind def
/Tf { pop /cairo_font exch def /cairo_font_matrix where
      { pop cairo_selectfont } if } bind def
/Td { matrix translate cairo_font_matrix matrix concatmatrix dup
      /cairo_font_matrix exch def dup 4 get exch 5 get cairo_store_point
      /cairo_font where { pop cairo_selectfont } if } bind def
/Tm { 2 copy 8 2 roll 6 array astore /cairo_font_matrix exch def
      cairo_store_point /cairo_font where { pop cairo_selectfont } if } bind def
/g { setgray } bind def
/rg { setrgbcolor } bind def
/d1 { setcachedevice } bind def
/cairo_data_source {
  CairoDataIndex CairoData length lt
    { CairoData CairoDataIndex get /CairoDataIndex CairoDataIndex 1 add def }
    { () } ifelse
} def
/cairo_flush_ascii85_file { cairo_ascii85_file status { cairo_ascii85_file flushfile } if } def
/cairo_image { image cairo_flush_ascii85_file } def
/cairo_imagemask { imagemask cairo_flush_ascii85_file } def
%%EndProlog
%%BeginSetup
%%EndSetup
%%Page: 1 1
%%BeginPageSetup
%%PageBoundingBox: 13 8 371 376
%%EndPageSetup
q 13 8 358 368 rectclip
1 0 0 -1 0 384 cm q
0.6 0.486275 0.462745 rg
275.844 186.539 m 209.281 140.73 l 171.512 140.73 l 106.477 188.324 l 106.469
 188.324 l 18.367 333.141 l 365.633 333.141 l h
275.844 186.539 m f
0.529412 0.431373 0.411765 rg
128.977 188.324 m 181.281 150.047 l 171.512 140.73 l 106.477 188.324 l 
106.469 188.324 l 18.367 333.141 l 40.867 333.141 l 128.969 188.324 l h
128.977 188.324 m f
0.576471 0.415686 0.376471 rg
18.367 333.141 m 18.367 351.879 l 18.367 355.84 19.941 359.637 22.746 362.438
 c 25.547 365.238 29.348 366.812 33.309 366.809 c 350.691 366.809 l 354.652
 366.812 358.453 365.238 361.254 362.438 c 364.059 359.637 365.633 355.84
 365.633 351.879 c 365.633 333.141 l h
18.367 333.141 m f
0.501961 0.517647 0.592157 rg
252.113 63.422 m 265.77 84.562 l 238.664 84.562 l 244.32 78.203 l 250.809
 70.906 l 252.625 68.859 253.129 65.961 252.113 63.422 c h
252.113 63.422 m f
0.34902 0.368627 0.419608 rg
265.77 84.562 m 279.719 106.172 l 230.332 106.312 l 231.164 92.992 l 238.664
 84.562 l h
265.77 84.562 m f
0.501961 0.517647 0.592157 rg
230.332 106.312 m 279.719 106.172 l 294.129 128.461 l 294.082 128.488 l
 226.695 128.488 l 228.297 126.277 229.238 123.656 229.41 120.93 c h
230.332 106.312 m f
0.34902 0.368627 0.419608 rg
303.742 150.098 m 209.301 150.098 l 209.289 149.805 209.281 149.504 209.281
 149.203 c 225.969 129.414 l 226.223 129.113 226.461 128.805 226.695 128.488
 c 294.082 128.488 l 294.129 128.461 l 298.508 135.246 l 301.41 139.711 
303.207 144.801 303.742 150.098 c h
303.742 150.098 m f
0.501961 0.517647 0.592157 rg
303.742 150.098 m 304.473 157.289 302.656 164.512 298.613 170.504 c 298.336
 170.918 298.051 171.324 297.758 171.703 c 219.699 171.703 l 213.188 165.586
 209.535 158.504 209.301 150.098 c h
303.742 150.098 m f
0.34902 0.368627 0.419608 rg
219.699 171.703 m 224.34 175.895 229.539 179.426 235.148 182.191 c 240.832
 184.266 l 246.512 186.344 250.289 191.75 250.281 197.797 c 250.078 259.32
 l 271.574 259.41 l 271.582 196.754 l 271.594 190.48 275.656 184.934 281.633
 183.023 c 288.07 181.055 293.719 177.09 297.758 171.703 c h
219.699 171.703 m f
83.023 171.703 m 87.07 177.09 92.719 181.051 99.156 183.023 c 105.137 184.926
 109.199 190.48 109.207 196.754 c 109.207 261.137 l 109.215 261.141 l 130.164
 259.32 l 130.5 197.797 l 130.496 191.75 134.277 186.344 139.957 184.266
 c 145.641 182.191 l 151.105 179.461 156.125 175.926 160.539 171.703 c h
83.023 171.703 m f
0.501961 0.517647 0.592157 rg
77.039 150.098 m 171.398 150.098 l 170.723 158.109 166.941 165.414 160.539
 171.703 c 83.023 171.703 l 82.734 171.324 82.449 170.918 82.172 170.504
 c 78.137 164.508 76.324 157.289 77.039 150.098 c h
77.039 150.098 m f
0.34902 0.368627 0.419608 rg
156.684 129.465 m 171.512 147.48 l 171.512 148.359 171.473 149.234 171.398
 150.098 c 77.039 150.098 l 77.574 144.801 79.371 139.711 82.273 135.246
 c 86.641 128.488 l 155.887 128.488 l 156.137 128.828 156.406 129.148 156.684
 129.465 c h
156.684 129.465 m f
0.501961 0.517647 0.592157 rg
155.887 128.488 m 86.641 128.488 l 101.062 106.172 l 152.152 106.312 l 
153.059 120.781 l 153.234 123.57 154.215 126.25 155.887 128.488 c h
155.887 128.488 m f
138.039 79.223 m 142.891 84.555 l 142.883 84.562 l 115.02 84.562 l 128.773
 63.27 l 127.848 65.789 128.398 68.609 130.199 70.598 c h
138.039 79.223 m f
0.34902 0.368627 0.419608 rg
151.363 93.879 m 152.152 106.312 l 101.062 106.172 l 115.02 84.562 l 142.883
 84.562 l 142.891 84.555 l h
151.363 93.879 m f
0.729412 0.678431 0.670588 rg
216.879 76.926 m 165.602 76.926 l 161.781 76.93 158.117 78.449 155.418 
81.152 c 152.723 83.852 151.207 87.516 151.207 91.336 c 153.059 120.781 
l 153.234 123.57 154.215 126.25 155.887 128.488 c 183.727 162.324 l 198.219
 162.324 l 226.695 128.488 l 228.297 126.277 229.238 123.656 229.41 120.93
 c 231.164 92.992 l 231.27 91.336 l 231.273 87.516 229.758 83.852 227.059
 81.152 c 224.359 78.449 220.695 76.93 216.879 76.926 c h
216.879 76.926 m f
0.290196 0.317647 0.376471 rg
197.656 154.477 m 196.117 147.195 185.691 147.324 184.328 154.637 c 179.859
 212.113 l 179.621 215.102 180.609 218.051 182.598 220.293 c 184.586 222.531
 187.402 223.863 190.391 223.98 c 193.383 224.102 196.297 222.996 198.453
 220.918 c 200.613 218.844 201.832 215.98 201.832 212.984 c h
197.656 154.477 m f
0.501961 0.517647 0.592157 rg
283.914 284.527 m 104.461 284.527 l 103.914 284.527 103.371 284.559 102.832
 284.625 c 95.559 285.457 90.07 291.613 90.074 298.934 c 90.074 328.172 
l 298.305 327.816 l 298.305 298.934 l 298.309 295.117 296.793 291.453 294.094
 288.75 c 291.395 286.047 287.73 284.531 283.914 284.527 c h
283.914 284.527 m f
0.34902 0.368627 0.419608 rg
271.574 259.41 m 271.121 259.352 270.668 259.32 270.211 259.32 c 115.164
 259.32 l 113.047 259.34 110.98 259.973 109.215 261.141 c 105.406 263.594
 102.832 268.312 102.832 273.727 c 102.832 284.625 l 103.371 284.559 103.914
 284.527 104.461 284.527 c 282.637 284.527 l 282.637 273.727 l 282.637 266.301
 277.793 260.191 271.574 259.41 c h
271.574 259.41 m f
0.501961 0.517647 0.592157 rg
256.816 234.113 m 125.676 234.113 l 119.871 234.113 115.164 240.562 115.164
 248.52 c 115.164 259.32 l 267.328 259.32 l 267.328 248.52 l 267.328 240.562
 262.621 234.113 256.816 234.113 c h
256.816 234.113 m f
0.290196 0.317647 0.376471 rg
198.773 295.078 m 184.281 295.078 l 182.375 295.082 180.543 295.84 179.195
 297.191 c 177.848 298.539 177.09 300.371 177.09 302.281 c 177.09 332.828
 l 205.973 333.016 l 205.973 302.281 l 205.973 300.371 205.215 298.539 203.863
 297.188 c 202.512 295.84 200.684 295.078 198.773 295.078 c h
198.773 295.078 m f
0.509804 0.368627 0.341176 rg
40.867 351.879 m 40.867 333.141 l 18.367 333.141 l 18.367 351.879 l 18.367
 355.84 19.941 359.637 22.746 362.438 c 25.547 365.238 29.348 366.812 33.309
 366.809 c 55.809 366.809 l 51.848 366.812 48.047 365.238 45.246 362.438
 c 42.441 359.637 40.867 355.84 40.867 351.879 c h
40.867 351.879 m f
0.639216 0.588235 0.584314 rg
175.559 120.781 m 173.707 91.336 l 173.707 87.516 175.223 83.852 177.918
 81.152 c 180.617 78.449 184.281 76.93 188.102 76.926 c 165.602 76.926 l
 161.781 76.93 158.117 78.449 155.418 81.152 c 152.723 83.852 151.207 87.516
 151.207 91.336 c 153.059 120.781 l 153.234 123.57 154.215 126.25 155.887
 128.488 c 183.727 162.324 l 198.219 162.324 l 202.266 157.512 l 178.387
 128.488 l 176.715 126.25 175.734 123.57 175.559 120.781 c h
175.559 120.781 m f
0.313726 0.329412 0.368627 rg
131.715 261.141 m 133.48 259.973 135.547 259.34 137.664 259.32 c 115.164
 259.32 l 113.047 259.34 110.98 259.973 109.215 261.141 c 105.406 263.594
 102.832 268.312 102.832 273.727 c 102.832 284.625 l 103.371 284.559 103.914
 284.527 104.461 284.527 c 125.332 284.527 l 125.332 273.727 l 125.332 268.312
 127.906 263.594 131.715 261.141 c h
131.715 261.141 m f
0.419608 0.439216 0.498039 rg
104.461 284.527 m 103.914 284.527 103.371 284.559 102.832 284.625 c 95.559
 285.457 90.07 291.613 90.074 298.934 c 90.074 328.172 l 112.574 328.133
 l 112.574 298.934 l 112.57 291.613 118.059 285.457 125.332 284.625 c 125.871
 284.559 126.414 284.527 126.961 284.527 c h
104.461 284.527 m f
137.664 259.32 m 137.664 248.52 l 137.664 240.562 142.371 234.113 148.176
 234.113 c 125.676 234.113 l 119.871 234.113 115.164 240.562 115.164 248.52
 c 115.164 259.32 l h
137.664 259.32 m f
0.427451 0.427451 0.576471 rg
252.113 63.422 m 251.707 62.418 251.086 61.523 250.289 60.797 c 233.926
 45.758 220.027 38.781 205.363 36.246 c 175.363 36.316 l 175.359 36.316 
l 153.48 40.395 137.918 53.309 130.5 60.602 c 129.73 61.348 129.141 62.262
 128.773 63.27 c 127.848 65.789 128.398 68.609 130.199 70.598 c 151.363 
93.879 l 231.164 92.992 l 250.809 70.906 l 252.625 68.859 253.129 65.961
 252.113 63.422 c h
252.113 63.422 m f
0.933333 0.686275 0.258824 rg
177.562 53.941 m 180.195 74.992 l 180.277 75.648 180.422 76.297 180.629
 76.926 c 182.027 81.219 186.027 84.121 190.543 84.121 c 195.055 84.121 
199.055 81.219 200.453 76.926 c 200.664 76.266 200.812 75.586 200.895 74.895
 c 203.316 53.941 l h
177.562 53.941 m f
0.85098 0.733333 0.294118 rg
200.016 12.75 m 180.57 12.75 l 178.484 12.75 176.5 13.656 175.137 15.23
 c 173.77 16.809 173.152 18.898 173.445 20.961 c 177.562 53.941 l 203.316
 53.941 l 207.098 21.246 l 207.484 19.145 206.914 16.98 205.547 15.34 c 
204.18 13.699 202.152 12.75 200.016 12.75 c h
200.016 12.75 m f
0.729412 0.678431 0.670588 rg
154.109 325.516 m 154.109 357.703 l 154.109 365.184 148.051 371.246 140.574
 371.25 c 136.945 371.242 133.461 369.816 130.867 367.281 c 128.258 364.777
 126.777 361.32 126.766 357.703 c 126.766 325.516 l 126.891 317.984 133.043
 311.953 140.574 311.969 c 148.051 311.973 154.109 318.035 154.109 325.516
 c h
154.109 325.516 m f
0.658824 0.607843 0.603922 rg
122.797 315.938 m 120.266 313.391 116.82 311.965 113.227 311.969 c 106.723
 311.996 101.145 316.617 99.906 323.004 c 99.879 360.352 l 99.887 360.352
 l 101.266 367.18 107.59 371.852 114.52 371.168 c 121.453 370.484 126.742
 364.668 126.766 357.703 c 126.766 325.516 l 126.77 321.922 125.344 318.473
 122.797 315.938 c h
122.797 315.938 m f
0.729412 0.678431 0.670588 rg
99.906 323.004 m 98.617 316.133 92.309 311.379 85.352 312.023 c 78.395 
312.672 73.074 318.512 73.074 325.5 c 73.074 357.711 l 73.07 364.672 78.352
 370.5 85.277 371.184 c 92.207 371.863 98.52 367.18 99.879 360.352 c 100.055
 359.484 100.141 358.598 100.141 357.711 c 100.141 325.5 l 100.141 324.664
 100.062 323.824 99.906 323.004 c h
99.906 323.004 m f
256.559 325.516 m 256.559 357.703 l 256.547 361.32 255.066 364.777 252.457
 367.281 c 249.863 369.816 246.379 371.242 242.754 371.25 c 235.273 371.246
 229.215 365.184 229.215 357.703 c 229.215 325.516 l 229.215 318.039 235.273
 311.973 242.754 311.969 c 250.285 311.953 256.434 317.984 256.559 325.516
 c h
256.559 325.516 m f
0.658824 0.607843 0.603922 rg
283.418 323.004 m 282.121 316.129 275.809 311.371 268.844 312.023 c 261.879
 312.676 256.559 318.52 256.559 325.516 c 256.559 357.703 l 256.609 364.652
 261.895 370.441 268.809 371.125 c 275.723 371.805 282.035 367.156 283.441
 360.352 c 283.449 360.352 l h
283.418 323.004 m f
0.729412 0.678431 0.670588 rg
298.305 312.066 m 297.777 312 297.246 311.969 296.715 311.969 c 290.203
 311.965 284.613 316.602 283.418 323.004 c 283.266 323.824 283.188 324.664
 283.184 325.5 c 283.184 357.711 l 283.184 358.598 283.273 359.484 283.449
 360.352 c 284.809 367.176 291.121 371.855 298.047 371.176 c 304.973 370.492
 310.25 364.672 310.254 357.711 c 310.254 325.5 l 310.254 318.641 305.117
 312.867 298.305 312.066 c h
298.305 312.066 m f
0.427451 0.427451 0.576471 rg
177.09 313.328 m 175.758 312.441 174.191 311.969 172.59 311.969 c 161.805
 311.969 l 157.305 311.969 153.219 316.176 153.219 320.676 c 153.219 362.543
 l 153.219 367.254 157.477 371.25 162.188 371.25 c 172.207 371.25 l 176.047
 371.25 179.41 368.684 180.422 364.98 c 180.625 364.242 180.73 363.48 180.727
 362.715 c 180.727 320.113 l 180.734 317.387 179.367 314.836 177.09 313.328
 c h
177.09 313.328 m f
221.52 311.969 m 210.734 311.969 l 209.023 311.969 207.359 312.504 205.973
 313.508 c 205.973 313.516 l 203.848 315.039 202.586 317.496 202.59 320.113
 c 202.59 362.715 l 202.59 363.48 202.691 364.242 202.898 364.98 c 203.91
 368.684 207.277 371.25 211.117 371.25 c 221.137 371.25 l 225.84 371.25 
230.109 367.254 230.109 362.543 c 230.109 320.676 l 230.109 316.176 226.02
 311.969 221.52 311.969 c h
221.52 311.969 m f
0.156863 0.258824 0.407843 rg
33.305 371.312 m 74.781 371.312 l 82.156 377.75 93.324 377.109 99.914 369.875
 c 103.375 373.668 108.289 375.809 113.426 375.75 c 118.559 375.691 123.426
 373.445 126.801 369.574 c 130.297 373.512 135.309 375.758 140.574 375.75
 c 144.883 375.754 149.047 374.203 152.309 371.391 c 154.859 374.148 158.434
 375.727 162.191 375.75 c 172.203 375.75 l 176.75 375.742 180.961 373.367
 183.316 369.484 c 200.008 369.484 l 202.363 373.367 206.574 375.742 211.121
 375.75 c 221.133 375.75 l 224.891 375.727 228.465 374.148 231.016 371.391
 c 234.277 374.203 238.441 375.754 242.75 375.75 c 248.016 375.758 253.031
 373.508 256.527 369.57 c 259.898 373.445 264.766 375.691 269.902 375.746
 c 275.035 375.805 279.949 373.668 283.41 369.871 c 290.004 377.109 301.168
 377.746 308.543 371.309 c 350.691 371.309 l 361.422 371.297 370.117 362.602
 370.129 351.871 c 370.129 333.148 l 370.125 333.148 l 370.125 332.32 369.898
 331.508 369.469 330.801 c 281.867 187.762 l 282.234 187.59 282.613 187.441
 283 187.316 c 290.887 184.891 297.711 179.848 302.348 173.02 c 305.324 
168.613 307.27 163.59 308.031 158.324 c 309.277 149.406 307.234 140.336 
302.293 132.809 c 256.051 61.234 l 255.406 59.812 254.484 58.539 253.336
 57.484 c 238.496 43.848 225.047 36.074 210.305 32.668 c 211.551 21.891 
l 212.121 18.496 211.168 15.023 208.945 12.395 c 206.723 9.766 203.457 8.25
 200.016 8.25 c 180.566 8.25 l 177.191 8.25 173.98 9.711 171.758 12.25 c
 169.539 14.793 168.523 18.172 168.977 21.516 c 170.383 32.773 l 150.824
 37.488 136.297 48.602 127.352 57.391 c 126.238 58.48 125.352 59.781 124.746
 61.219 c 78.5 132.805 l 73.559 140.332 71.516 149.398 72.762 158.32 c 73.523
 163.586 75.465 168.609 78.441 173.016 c 83.078 179.844 89.906 184.887 97.793
 187.312 c 98.898 187.664 99.934 188.207 100.852 188.914 c 14.527 330.809
 l 14.098 331.516 13.871 332.324 13.875 333.148 c 13.871 333.148 l 13.871
 351.879 l 13.883 362.605 22.578 371.301 33.305 371.312 c h
95.641 357.715 m 95.641 362.707 91.598 366.75 86.609 366.75 c 81.617 366.75
 77.574 362.707 77.574 357.715 c 77.574 325.5 l 77.574 320.512 81.617 316.465
 86.609 316.465 c 91.598 316.465 95.641 320.512 95.641 325.5 c h
122.266 357.703 m 122.266 362.695 118.223 366.742 113.23 366.75 c 109.176
 366.738 105.609 364.055 104.473 360.164 c 104.488 323.184 l 105.66 318.801
 109.898 315.961 114.398 316.551 c 118.895 317.141 122.262 320.977 122.262
 325.512 c h
149.609 357.703 m 149.605 362.695 145.566 366.742 140.574 366.75 c 135.531
 366.758 131.402 362.742 131.266 357.703 c 131.266 325.512 l 131.402 320.473
 135.531 316.461 140.574 316.469 c 145.562 316.477 149.605 320.523 149.609
 325.512 c h
176.234 362.715 m 176.234 364.941 174.43 366.746 172.203 366.75 c 162.191
 366.75 l 160.062 366.688 158.246 365.195 157.777 363.121 c 158.328 361.367
 158.609 359.539 158.609 357.703 c 158.609 325.512 l 158.609 323.68 158.332
 321.852 157.781 320.102 c 158.121 318.246 160.008 316.469 161.809 316.469
 c 172.594 316.469 l 174.605 316.473 176.234 318.102 176.234 320.113 c h
198.098 360.484 m 185.23 360.484 l 185.23 337.648 l 198.094 337.648 l h
201.473 311.535 m 199.301 313.867 198.098 316.93 198.098 320.113 c 198.098
 328.648 l 185.23 328.648 l 185.23 320.113 l 185.23 316.797 183.922 313.609
 181.59 311.25 c 181.59 302.277 l 181.59 300.789 182.797 299.582 184.285
 299.578 c 198.777 299.578 l 200.266 299.582 201.473 300.789 201.473 302.277
 c h
221.133 366.75 m 211.121 366.75 l 208.895 366.746 207.094 364.941 207.094
 362.715 c 207.094 320.117 l 207.094 318.105 208.723 316.473 210.734 316.469
 c 221.52 316.469 l 223.32 316.469 225.207 318.246 225.547 320.105 c 224.996
 321.855 224.719 323.68 224.719 325.516 c 224.719 357.703 l 224.719 359.543
 225 361.367 225.551 363.121 c 225.078 365.195 223.262 366.691 221.133 366.75
 c h
252.059 357.703 m 251.922 362.742 247.793 366.758 242.75 366.75 c 237.762
 366.742 233.719 362.695 233.715 357.703 c 233.715 325.512 l 233.719 320.523
 237.762 316.477 242.75 316.469 c 247.793 316.461 251.922 320.473 252.059
 325.512 c h
270.094 366.75 m 265.102 366.742 261.062 362.695 261.059 357.703 c 261.059
 325.512 l 261.062 320.977 264.426 317.141 268.926 316.551 c 273.426 315.961
 277.664 318.801 278.836 323.184 c 278.852 360.164 l 277.711 364.055 274.148
 366.734 270.094 366.75 c h
283.398 313.355 m 279.945 309.555 275.031 307.414 269.898 307.469 c 264.762
 307.523 259.895 309.77 256.527 313.645 c 253.031 309.707 248.016 307.457
 242.75 307.469 c 238.445 307.465 234.285 309.008 231.023 311.816 c 228.602
 309.105 225.156 307.531 221.52 307.469 c 210.734 307.469 l 210.645 307.469
 210.559 307.477 210.473 307.48 c 210.473 302.277 l 210.465 295.82 205.234
 290.59 198.777 290.578 c 184.285 290.578 l 177.828 290.59 172.598 295.82
 172.59 302.277 c 172.59 307.469 l 161.805 307.469 l 158.168 307.531 154.723
 309.105 152.301 311.816 c 149.039 309.008 144.879 307.465 140.574 307.469
 c 135.309 307.457 130.293 309.707 126.797 313.645 c 123.43 309.77 118.562
 307.523 113.426 307.469 c 108.293 307.414 103.379 309.555 99.926 313.355
 c 98.406 311.691 96.59 310.328 94.57 309.328 c 94.57 298.934 l 94.59 293.469
 99.012 289.047 104.477 289.027 c 122.434 289.027 l 128.434 289.027 128.434
 280.027 122.434 280.027 c 107.324 280.027 l 107.324 273.727 l 107.324 268.266
 110.879 263.828 115.25 263.828 c 270.211 263.828 l 274.582 263.828 278.137
 268.27 278.137 273.727 c 278.137 280.027 l 152.438 280.027 l 146.438 280.027
 146.438 289.027 152.438 289.027 c 283.914 289.027 l 289.375 289.027 293.805
 293.457 293.805 298.918 c 293.805 307.559 l 294.453 307.613 l 290.203 308.152
 286.281 310.188 283.398 313.355 c h
179.449 223.512 m 183.922 228.344 190.957 229.82 196.996 227.199 c 203.035
 224.578 206.762 218.426 206.285 211.859 c 202.836 163.828 l 206.402 159.598
 l 209.812 169.977 218.629 178.738 233.082 186.188 c 233.25 186.273 233.422
 186.348 233.598 186.414 c 239.281 188.488 l 243.18 189.926 245.773 193.637
 245.781 197.793 c 245.781 229.613 l 135 229.613 l 135 197.793 l 135.008
 193.641 137.602 189.93 141.5 188.496 c 147.184 186.418 l 147.359 186.355
 147.531 186.277 147.699 186.191 c 161.691 178.984 170.855 169.223 174.379
 158.051 c 179.102 163.789 l 175.371 211.773 l 175.043 216.082 176.52 220.336
 179.449 223.512 c h
184.34 212.465 m 188.789 155.277 l 189.391 153.074 192.488 153 193.191 
155.172 c 197.309 212.504 l 197.441 214.309 196.812 216.086 195.578 217.41
 c 194.344 218.734 192.613 219.48 190.805 219.477 c 188.996 219.473 187.27
 218.711 186.043 217.383 c 184.816 216.051 184.199 214.27 184.34 212.465
 c h
256.812 238.613 m 259.66 238.613 262.828 242.684 262.828 248.516 c 262.828
 254.816 l 119.66 254.816 l 119.66 248.516 l 119.66 242.68 122.832 238.613
 125.68 238.613 c h
305.746 357.715 m 305.746 360.109 304.797 362.41 303.102 364.102 c 301.406
 365.797 299.109 366.75 296.715 366.75 c 294.316 366.75 292.02 365.797 290.328
 364.102 c 288.633 362.41 287.68 360.109 287.68 357.715 c 287.68 325.5 l
 287.68 320.512 291.727 316.465 296.715 316.465 c 301.703 316.465 305.746
 320.512 305.746 325.5 c h
361.129 351.875 m 361.121 357.637 356.453 362.305 350.691 362.312 c 314.156
 362.312 l 314.551 360.812 314.75 359.266 314.75 357.715 c 314.75 337.648
 l 361.129 337.648 l h
341.332 302.09 m 337.656 302.09 l 331.656 302.09 331.656 311.09 337.656
 311.09 c 344.672 311.09 l 345.332 311.09 345.984 310.941 346.582 310.66
 c 357.602 328.648 l 314.75 328.648 l 314.75 325.5 l 314.738 317.551 309.535
 310.539 301.926 308.234 c 302.809 308.309 l 302.809 298.934 l 302.809 289.742
 296.195 281.887 287.141 280.312 c 287.141 273.727 l 287.141 265.609 282.531
 258.684 276.082 256.012 c 276.082 251.34 l 280.453 251.34 l 286.453 251.34
 286.453 242.34 280.453 242.34 c 276.082 242.34 l 276.082 196.754 l 276.086
 196.387 276.109 196.02 276.152 195.656 c h
280.266 178.738 m 272.406 181.219 267.066 188.512 267.082 196.754 c 267.082
 234.609 l 264.57 231.504 260.809 229.676 256.816 229.613 c 254.793 229.613
 l 254.793 197.793 l 254.777 189.863 249.824 182.777 242.383 180.039 c 236.969
 178.059 l 235.789 177.445 234.66 176.828 233.574 176.203 c 286.02 176.203
 l 284.195 177.25 282.266 178.098 280.266 178.738 c h
299.125 157.012 m 298.598 160.633 297.32 164.105 295.375 167.203 c 221.523
 167.203 l 218 163.758 215.52 159.391 214.367 154.598 c 299.367 154.598 
l 299.324 155.406 299.242 156.211 299.125 157.012 c h
294.73 137.688 m 296.312 140.133 297.527 142.801 298.328 145.598 c 218.207
 145.598 l 228.836 132.992 l 291.695 132.992 l h
285.879 123.992 m 233.508 123.992 l 233.707 123.078 233.84 122.148 233.902
 121.215 c 234.555 110.797 l 277.277 110.676 l h
271.473 101.691 m 235.121 101.797 l 235.559 94.82 l 240.684 89.059 l 263.312
 89.059 l h
253.793 74.324 m 257.5 80.066 l 248.688 80.066 l h
209.262 41.672 m 222.059 44.852 233.965 51.906 247.246 64.109 c 248.336
 65.113 248.426 66.801 247.449 67.914 c 244.406 71.336 l 240.398 66.965 
233.277 60.27 224.48 56.594 c 218.941 54.285 215.477 62.59 221.012 64.902
 c 228.719 68.117 235.121 74.449 238.383 78.105 c 233.902 83.145 l 230.754
 76.598 224.141 72.438 216.879 72.43 c 205.707 72.43 l h
178.535 18.176 m 179.043 17.586 179.785 17.246 180.566 17.25 c 200.016 
17.25 l 201.699 17.254 202.973 18.781 202.668 20.438 c 202.652 20.535 202.637
 20.629 202.625 20.727 c 199.305 49.441 l 181.539 49.441 l 177.898 20.332
 l 177.785 19.555 178.016 18.766 178.535 18.176 c h
198.266 58.441 m 196.426 74.379 l 196.074 77.352 193.562 79.594 190.57 
79.605 c 187.578 79.621 185.043 77.402 184.664 74.434 c 182.664 58.441 l
 h
190.539 88.629 m 195.758 88.629 200.598 85.898 203.293 81.43 c 216.879 
81.43 l 222.293 81.441 226.695 85.793 226.77 91.207 c 224.926 120.648 l 
224.781 122.812 223.941 124.871 222.531 126.512 c 201.434 151.531 l 199.684
 147.336 195.594 144.602 191.047 144.586 c 186.504 144.57 182.395 147.277
 180.617 151.461 c 160.152 126.605 l 160.117 126.562 160.078 126.516 160.039
 126.473 c 158.566 124.812 157.688 122.711 157.547 120.5 c 155.711 91.203
 l 155.781 85.789 160.188 81.438 165.602 81.43 c 177.793 81.43 l 180.492
 85.891 185.324 88.621 190.539 88.629 c h
133.656 63.809 m 140.207 57.375 153.449 46.438 171.512 41.781 c 175.34 
72.43 l 165.602 72.43 l 158.078 72.438 151.281 76.902 148.281 83.797 c 143.973
 79.059 l 147.219 75.328 153.633 68.84 161.348 65.621 c 163.641 64.664 164.723
 62.027 163.766 59.734 c 162.809 57.441 160.172 56.359 157.879 57.316 c 
149.027 61.008 141.875 67.887 137.875 72.352 c 133.535 67.574 l 132.555 
66.492 132.605 64.824 133.656 63.809 c h
127.207 73.992 m 132.723 80.062 l 123.285 80.062 l h
117.473 89.062 m 140.898 89.062 l 146.977 95.746 l 147.355 101.801 l 109.309
 101.691 l h
103.508 110.676 m 147.922 110.805 l 148.566 121.062 l 148.629 122.047 148.77
 123.027 148.988 123.992 c 94.906 123.992 l h
86.055 137.688 m 89.09 132.992 l 153.754 132.992 l 164.133 145.598 l 82.457
 145.598 l 83.262 142.797 84.473 140.133 86.059 137.688 c h
81.66 157.012 m 81.543 156.211 81.461 155.406 81.422 154.598 c 165.996 
154.598 l 164.566 159.328 162.031 163.648 158.605 167.203 c 85.406 167.203
 l 83.465 164.105 82.188 160.633 81.66 157.012 c h
100.523 178.738 m 98.52 178.098 96.59 177.25 94.766 176.203 c 147.156 176.203
 l 146.086 176.84 144.973 177.457 143.824 178.059 c 138.41 180.039 l 130.969
 182.777 126.016 189.863 126 197.793 c 126 229.613 l 125.676 229.613 l 120.734
 229.613 116.422 232.477 113.703 236.984 c 113.703 196.754 l 113.719 188.512
 108.379 181.219 100.523 178.738 c h
37.055 311.09 m 42.969 311.09 l 48.969 311.09 48.969 302.09 42.969 302.09
 c 42.531 302.09 l 104.707 199.887 l 104.707 242.34 l 100.176 242.34 l 94.176
 242.34 94.176 251.34 100.176 251.34 c 104.699 251.34 l 104.699 258.961 
l 100.578 262.754 98.258 268.121 98.324 273.723 c 98.324 281.051 l 90.695
 283.676 85.574 290.852 85.574 298.918 c 85.574 307.168 l 86.797 307.473
 l 86.734 307.473 86.672 307.469 86.609 307.469 c 76.656 307.48 68.586 315.547
 68.574 325.5 c 68.574 328.648 l 26.375 328.648 l h
22.871 337.648 m 68.574 337.648 l 68.574 357.719 l 68.574 359.27 68.773
 360.816 69.168 362.316 c 33.305 362.316 l 27.543 362.309 22.875 357.641
 22.871 351.879 c h
22.871 337.648 m f
78.066 282.707 m 84.066 282.707 84.066 273.707 78.066 273.707 c 71.055 
273.707 l 65.055 273.707 65.055 282.707 71.055 282.707 c h
78.066 282.707 m f
302.559 282.707 m 309.574 282.707 l 315.574 282.707 315.574 273.707 309.574
 273.707 c 302.559 273.707 l 296.559 273.707 296.559 282.707 302.559 282.707
 c h
302.559 282.707 m f
Q Q
showpage
%%Trailer
end
%%EOF
