%!PS-Adobe-3.0 EPSF-3.0
%%Creator: cairo 1.16.0 (https://cairographics.org)
%%CreationDate: Mon Dec 14 10:17:42 2020
%%Pages: 1
%%DocumentData: Clean7Bit
%%LanguageLevel: 2
%%BoundingBox: 7 31 377 353
%%EndComments
%%BeginProlog
50 dict begin
/q { gsave } bind def
/Q { grestore } bind def
/cm { 6 array astore concat } bind def
/w { setlinewidth } bind def
/J { setlinecap } bind def
/j { setlinejoin } bind def
/M { setmiterlimit } bind def
/d { setdash } bind def
/m { moveto } bind def
/l { lineto } bind def
/c { curveto } bind def
/h { closepath } bind def
/re { exch dup neg 3 1 roll 5 3 roll moveto 0 rlineto
      0 exch rlineto 0 rlineto closepath } bind def
/S { stroke } bind def
/f { fill } bind def
/f* { eofill } bind def
/n { newpath } bind def
/W { clip } bind def
/W* { eoclip } bind def
/BT { } bind def
/ET { } bind def
/BDC { mark 3 1 roll /BDC pdfmark } bind def
/EMC { mark /EMC pdfmark } bind def
/cairo_store_point { /cairo_point_y exch def /cairo_point_x exch def } def
/Tj { show currentpoint cairo_store_point } bind def
/TJ {
  {
    dup
    type /stringtype eq
    { show } { -0.001 mul 0 cairo_font_matrix dtransform rmoveto } ifelse
  } forall
  currentpoint cairo_store_point
} bind def
/cairo_selectfont { cairo_font_matrix aload pop pop pop 0 0 6 array astore
    cairo_font exch selectfont cairo_point_x cairo_point_y moveto } bind def
/Tf { pop /cairo_font exch def /cairo_font_matrix where
      { pop cairo_selectfont } if } bind def
/Td { matrix translate cairo_font_matrix matrix concatmatrix dup
      /cairo_font_matrix exch def dup 4 get exch 5 get cairo_store_point
      /cairo_font where { pop cairo_selectfont } if } bind def
/Tm { 2 copy 8 2 roll 6 array astore /cairo_font_matrix exch def
      cairo_store_point /cairo_font where { pop cairo_selectfont } if } bind def
/g { setgray } bind def
/rg { setrgbcolor } bind def
/d1 { setcachedevice } bind def
/cairo_data_source {
  CairoDataIndex CairoData length lt
    { CairoData CairoDataIndex get /CairoDataIndex CairoDataIndex 1 add def }
    { () } ifelse
} def
/cairo_flush_ascii85_file { cairo_ascii85_file status { cairo_ascii85_file flushfile } if } def
/cairo_image { image cairo_flush_ascii85_file } def
/cairo_imagemask { imagemask cairo_flush_ascii85_file } def
%%EndProlog
%%BeginSetup
%%EndSetup
%%Page: 1 1
%%BeginPageSetup
%%PageBoundingBox: 7 31 377 353
%%EndPageSetup
q 7 31 370 322 rectclip
1 0 0 -1 0 384 cm q
0.690196 0.67451 0.705882 rg
339.105 97.387 m 46.352 97.387 l 23.453 329.625 l 362.004 329.625 l h
339.105 97.387 m f
0.364706 0.388235 0.447059 rg
316.027 138.668 m 69.879 138.668 l 46.32 329.625 l 339.277 329.625 l h
316.027 138.668 m f
0.270588 0.290196 0.329412 rg
69.879 138.668 m 46.32 329.625 l 68.82 329.625 l 92.379 138.668 l h
69.879 138.668 m f
0.933333 0.686275 0.258824 rg
269.496 302.91 28.41 26.715 re f
207.945 302.91 28.41 26.715 re f
149.551 302.91 28.41 26.715 re f
86.414 302.91 28.41 26.715 re f
0.85098 0.733333 0.294118 rg
86.414 167.25 28.41 135.66 re f
149.551 167.25 28.41 135.66 re f
207.945 167.25 28.41 135.66 re f
269.496 167.25 28.41 135.66 re f
0.933333 0.686275 0.258824 rg
269.496 138.668 28.41 28.582 re f
207.945 138.668 28.41 28.582 re f
149.551 138.668 28.41 28.582 re f
86.414 138.668 28.41 28.582 re f
0.580392 0.564706 0.6 rg
362.559 329.625 m 21.441 329.625 l 16.227 329.625 12 333.852 12 339.066
 c 12 347.625 l 372 347.625 l 372 339.066 l 372 333.852 367.773 329.625 
362.559 329.625 c h
362.559 329.625 m f
0.858824 0.556863 0.329412 rg
67.836 36.375 34.84 30.703 re f
0.737255 0.52549 0.388235 rg
102.676 36.375 34.828 30.703 re f
0.858824 0.556863 0.329412 rg
137.504 36.375 34.84 30.703 re f
0.737255 0.52549 0.388235 rg
172.344 36.375 34.836 30.703 re f
0.858824 0.556863 0.329412 rg
207.18 36.375 34.832 30.703 re f
0.737255 0.52549 0.388235 rg
242.012 36.375 34.836 30.703 re f
0.858824 0.556863 0.329412 rg
276.848 36.375 34.836 30.703 re f
0.737255 0.52549 0.388235 rg
353.301 36.375 m 311.684 36.375 l 311.684 67.078 l 347.031 67.078 l 348.473
 67.082 349.73 66.105 350.086 64.711 c 356.363 40.312 l 356.871 38.316 355.363
 36.375 353.301 36.375 c h
353.301 36.375 m f
0.580392 0.564706 0.6 rg
46.352 67.078 292.754 30.309 re f
0.592157 0.580392 0.607843 rg
46.352 97.387 m 23.453 329.625 l 45.953 329.625 l 68.852 97.387 l h
46.352 97.387 m f
0.478431 0.466667 0.498039 rg
46.352 67.078 22.5 30.309 re f
43.941 329.625 m 21.441 329.625 l 16.227 329.625 12 333.852 12 339.066 
c 12 347.625 l 34.5 347.625 l 34.5 339.066 l 34.5 333.852 38.727 329.625
 43.941 329.625 c h
43.941 329.625 m f
0.737255 0.52549 0.388235 rg
31.809 36.375 m 29.746 36.375 28.238 38.316 28.746 40.312 c 35.016 64.711
 l 35.379 66.105 36.637 67.078 38.078 67.078 c 67.836 67.078 l 67.836 36.375
 l h
31.809 36.375 m f
0.607843 0.423529 0.317647 rg
35.016 64.711 m 35.379 66.105 36.637 67.078 38.078 67.078 c 60.578 67.078
 l 59.137 67.078 57.879 66.105 57.516 64.711 c 51.246 40.312 l 50.738 38.316
 52.246 36.375 54.309 36.375 c 31.809 36.375 l 29.746 36.375 28.238 38.316
 28.746 40.312 c h
35.016 64.711 m f
0.156863 0.258824 0.407843 rg
366.129 325.605 m 343.605 97.168 l 343.605 71.582 l 347.031 71.582 l 350.527
 71.586 353.578 69.219 354.445 65.832 c 360.719 41.43 l 361.309 39.141 360.805
 36.703 359.352 34.836 c 357.902 32.965 355.668 31.871 353.301 31.875 c 
31.805 31.875 l 29.441 31.875 27.207 32.965 25.754 34.836 c 24.305 36.703
 23.801 39.141 24.391 41.43 c 30.66 65.832 l 31.531 69.219 34.582 71.586
 38.078 71.582 c 41.852 71.582 l 41.852 97.168 l 19.355 325.297 l 12.547
 326.332 7.512 332.18 7.5 339.066 c 7.5 347.625 l 7.5 350.109 9.516 352.125
 12 352.125 c 372 352.125 l 374.484 352.125 376.5 350.109 376.5 347.625 
c 376.5 339.066 l 376.488 332.75 372.234 327.227 366.129 325.605 c h
316.184 40.875 m 351.57 40.875 l 345.988 62.582 l 316.184 62.582 l h
281.348 40.875 m 307.184 40.875 l 307.184 62.582 l 281.348 62.582 l h
246.512 40.875 m 272.348 40.875 l 272.348 62.582 l 246.512 62.582 l h
211.676 40.875 m 237.512 40.875 l 237.512 62.582 l 211.676 62.582 l h
176.84 40.875 m 202.676 40.875 l 202.676 62.582 l 176.84 62.582 l h
142.008 40.875 m 167.84 40.875 l 167.84 62.582 l 142.008 62.582 l h
107.172 40.875 m 133.008 40.875 l 133.008 62.582 l 107.176 62.582 l h
72.336 40.875 m 98.176 40.875 l 98.176 62.582 l 72.336 62.582 l h
39.117 62.582 m 33.539 40.875 l 63.336 40.875 l 63.336 62.582 l h
50.426 101.887 m 71.418 101.887 l 77.418 101.887 77.418 92.887 71.418 92.887
 c 50.852 92.887 l 50.852 71.582 l 79.559 71.582 l 79.559 78.457 l 79.559
 84.457 88.559 84.457 88.559 78.457 c 88.559 71.582 l 142.691 71.582 l 142.691
 78.457 l 142.691 84.457 151.691 84.457 151.691 78.457 c 151.691 71.582 
l 205.82 71.582 l 205.82 78.457 l 205.82 84.457 214.82 84.457 214.82 78.457
 c 214.82 71.582 l 268.949 71.582 l 268.949 78.457 l 268.949 84.457 277.949
 84.457 277.949 78.457 c 277.949 71.582 l 334.605 71.582 l 334.605 92.887
 l 309.516 92.887 l 309.516 83.629 l 309.516 77.629 300.516 77.629 300.516
 83.629 c 300.516 92.887 l 246.383 92.887 l 246.383 83.629 l 246.383 77.629
 237.383 77.629 237.383 83.629 c 237.383 92.887 l 183.254 92.887 l 183.254
 83.629 l 183.254 77.629 174.254 77.629 174.254 83.629 c 174.254 92.887 
l 120.121 92.887 l 120.121 83.629 l 120.121 77.629 111.121 77.629 111.121
 83.629 c 111.121 92.887 l 101.418 92.887 l 95.418 92.887 95.418 101.887
 101.418 101.887 c 335.027 101.887 l 357.039 325.125 l 343.266 325.125 l
 320.496 138.125 l 320.219 135.867 318.305 134.172 316.027 134.172 c 69.879
 134.172 l 67.609 134.172 65.691 135.863 65.414 138.121 c 42.344 325.125
 l 28.414 325.125 l h
334.199 325.125 m 302.41 325.125 l 302.41 143.172 l 312.043 143.172 l h
274 298.41 m 274 294.238 l 274 288.238 265 288.238 265 294.238 c 265 325.125
 l 240.855 325.125 l 240.855 143.172 l 265 143.172 l 265 264.238 l 265 270.238
 274 270.238 274 264.238 c 274 171.75 l 293.41 171.75 l 293.41 298.41 l 
h
293.41 307.41 m 293.41 325.125 l 274 325.125 l 274 307.41 l h
274 162.75 m 274 143.172 l 293.41 143.172 l 293.41 162.75 l h
212.445 298.41 m 212.445 171.75 l 231.855 171.75 l 231.855 298.41 l h
231.855 307.41 m 231.855 325.125 l 212.445 325.125 l 212.445 307.41 l h
212.445 162.75 m 212.445 143.172 l 231.855 143.172 l 231.855 162.75 l h
203.445 143.168 m 203.445 325.125 l 182.457 325.125 l 182.457 143.172 l
 h
154.051 298.41 m 154.051 171.75 l 173.461 171.75 l 173.461 298.41 l h
173.461 307.41 m 173.461 325.125 l 154.051 325.125 l 154.051 307.41 l h
154.051 162.75 m 154.051 143.172 l 173.461 143.172 l 173.461 162.75 l h
145.051 143.168 m 145.051 325.125 l 119.324 325.125 l 119.324 143.172 l
 h
90.918 298.41 m 90.918 171.75 l 110.324 171.75 l 110.324 298.41 l h
110.328 307.41 m 110.328 325.125 l 90.918 325.125 l 90.918 307.41 l h
90.918 162.75 m 90.918 143.172 l 110.324 143.172 l 110.324 162.75 l h
81.918 143.168 m 81.918 325.125 l 51.414 325.125 l 73.859 143.172 l h
367.5 343.125 m 16.5 343.125 l 16.5 339.066 l 16.504 336.34 18.711 334.129
 21.441 334.125 c 362.559 334.125 l 365.289 334.129 367.496 336.34 367.5
 339.066 c h
367.5 343.125 m f
Q Q
showpage
%%Trailer
end
%%EOF
