%!PS-Adobe-3.0 EPSF-3.0
%%Creator: cairo 1.16.0 (https://cairographics.org)
%%CreationDate: Mon Dec 14 10:17:43 2020
%%Pages: 1
%%DocumentData: Clean7Bit
%%LanguageLevel: 2
%%BoundingBox: 7 65 377 319
%%EndComments
%%BeginProlog
50 dict begin
/q { gsave } bind def
/Q { grestore } bind def
/cm { 6 array astore concat } bind def
/w { setlinewidth } bind def
/J { setlinecap } bind def
/j { setlinejoin } bind def
/M { setmiterlimit } bind def
/d { setdash } bind def
/m { moveto } bind def
/l { lineto } bind def
/c { curveto } bind def
/h { closepath } bind def
/re { exch dup neg 3 1 roll 5 3 roll moveto 0 rlineto
      0 exch rlineto 0 rlineto closepath } bind def
/S { stroke } bind def
/f { fill } bind def
/f* { eofill } bind def
/n { newpath } bind def
/W { clip } bind def
/W* { eoclip } bind def
/BT { } bind def
/ET { } bind def
/BDC { mark 3 1 roll /BDC pdfmark } bind def
/EMC { mark /EMC pdfmark } bind def
/cairo_store_point { /cairo_point_y exch def /cairo_point_x exch def } def
/Tj { show currentpoint cairo_store_point } bind def
/TJ {
  {
    dup
    type /stringtype eq
    { show } { -0.001 mul 0 cairo_font_matrix dtransform rmoveto } ifelse
  } forall
  currentpoint cairo_store_point
} bind def
/cairo_selectfont { cairo_font_matrix aload pop pop pop 0 0 6 array astore
    cairo_font exch selectfont cairo_point_x cairo_point_y moveto } bind def
/Tf { pop /cairo_font exch def /cairo_font_matrix where
      { pop cairo_selectfont } if } bind def
/Td { matrix translate cairo_font_matrix matrix concatmatrix dup
      /cairo_font_matrix exch def dup 4 get exch 5 get cairo_store_point
      /cairo_font where { pop cairo_selectfont } if } bind def
/Tm { 2 copy 8 2 roll 6 array astore /cairo_font_matrix exch def
      cairo_store_point /cairo_font where { pop cairo_selectfont } if } bind def
/g { setgray } bind def
/rg { setrgbcolor } bind def
/d1 { setcachedevice } bind def
/cairo_data_source {
  CairoDataIndex CairoData length lt
    { CairoData CairoDataIndex get /CairoDataIndex CairoDataIndex 1 add def }
    { () } ifelse
} def
/cairo_flush_ascii85_file { cairo_ascii85_file status { cairo_ascii85_file flushfile } if } def
/cairo_image { image cairo_flush_ascii85_file } def
/cairo_imagemask { imagemask cairo_flush_ascii85_file } def
%%EndProlog
%%BeginSetup
%%EndSetup
%%Page: 1 1
%%BeginPageSetup
%%PageBoundingBox: 7 65 377 319
%%EndPageSetup
q 7 65 370 254 rectclip
1 0 0 -1 0 384 cm q
0.501961 0.333333 0.294118 rg
39.727 138.734 304.547 18.547 re f
0.780392 0.603922 0.513726 rg
331.5 70.453 m 52.5 70.453 l 42.559 70.457 34.504 78.516 34.5 88.453 c 
34.5 138.734 l 349.5 138.734 l 349.5 88.453 l 349.496 78.516 341.441 70.457
 331.5 70.453 c h
331.5 70.453 m f
0.560784 0.560784 0.717647 rg
34.5 102.848 m 34.5 138.734 l 12 138.734 l 12 88.453 l 12.004 78.516 20.059
 70.457 30 70.453 c 52.5 70.453 l 42.559 70.457 34.504 78.516 34.5 88.453
 c h
34.5 102.848 m f
372 88.453 m 372 138.734 l 349.5 138.734 l 349.5 88.453 l 349.496 78.516
 341.441 70.457 331.5 70.453 c 354 70.453 l 363.941 70.457 371.996 78.516
 372 88.453 c h
372 88.453 m f
0.85098 0.733333 0.294118 rg
125.047 225.457 136.5 72.707 re f
0.933333 0.686275 0.258824 rg
125.047 157.281 136.5 68.176 re f
0.427451 0.427451 0.576471 rg
12 138.734 27.727 159.062 re f
344.273 138.734 27.727 159.062 re f
0.85098 0.733333 0.294118 rg
372 297.797 m 372 310.547 l 372 312.203 370.656 313.547 369 313.547 c 347.273
 313.547 l 345.617 313.547 344.273 312.203 344.273 310.547 c 344.273 297.797
 l h
372 297.797 m f
39.727 298.164 m 39.727 310.547 l 39.727 312.203 38.383 313.547 36.727 
313.547 c 15 313.547 l 13.344 313.547 12 312.203 12 310.547 c 12 297.797
 l 39.727 297.797 l h
39.727 298.164 m f
0.298039 0.662745 0.529412 rg
205.891 261.227 m 199.891 267.301 193.648 268.68 188.242 268.086 c 185.215
 267.719 182.277 266.82 179.566 265.434 c 177.273 264.305 175.129 262.891
 173.191 261.227 c 173.191 261.227 187.754 240.801 205.891 261.227 c h
205.891 261.227 m f
0.85098 0.733333 0.294118 rg
39.727 157.281 85.32 68.176 re f
0.933333 0.686275 0.258824 rg
39.727 225.457 85.32 72.707 re f
344.273 297.797 m 344.273 298.164 l 261.547 298.164 l 261.547 225.457 l
 344.273 225.457 l h
344.273 297.797 m f
0.85098 0.733333 0.294118 rg
261.547 157.281 82.727 68.176 re f
0.921569 0.447059 0.533333 rg
303.797 246.316 m 309.645 246.332 314.914 249.867 317.141 255.277 c 319.371
 260.688 318.121 266.906 313.98 271.039 c 309.836 275.172 303.613 276.402
 298.211 274.16 c 292.805 271.918 289.281 266.641 289.281 260.789 c 289.297
 252.785 295.793 246.309 303.797 246.316 c h
303.797 246.316 m f
0.27451 0.537255 0.827451 rg
81.047 176.766 m 86.895 176.781 92.164 180.32 94.391 185.73 c 96.621 191.141
 95.371 197.359 91.23 201.492 c 87.086 205.625 80.863 206.855 75.461 204.613
 c 70.055 202.371 66.531 197.094 66.531 191.242 c 66.547 183.238 73.043 
176.758 81.047 176.766 c h
81.047 176.766 m f
0.298039 0.662745 0.529412 rg
175.688 138.734 m 175.688 188.82 l 175.688 198.75 183.738 206.801 193.668
 206.801 c 203.598 206.801 211.648 198.75 211.648 188.82 c 211.648 138.734
 l h
175.688 138.734 m f
0.262745 0.435294 0.117647 rg
193.664 151.289 m 196.086 151.297 198.27 152.762 199.191 155 c 200.113 
157.238 199.598 159.812 197.883 161.523 c 196.168 163.234 193.59 163.746
 191.352 162.816 c 189.117 161.891 187.656 159.703 187.656 157.281 c 187.664
 153.969 190.352 151.289 193.664 151.289 c h
193.664 151.289 m f
187.852 175.266 11.633 16.539 re f
0.658824 0.498039 0.427451 rg
57 88.453 m 57.004 78.516 65.059 70.457 75 70.453 c 52.5 70.453 l 42.559
 70.457 34.504 78.516 34.5 88.453 c 34.5 138.734 l 57 138.734 l h
57 88.453 m f
0.768627 0.65098 0.278431 rg
39.727 157.281 22.5 68.176 re f
0.419608 0.270588 0.239216 rg
39.727 138.734 22.5 18.547 re f
0.858824 0.607843 0.25098 rg
39.727 225.457 22.5 72.707 re f
0.156863 0.258824 0.407843 rg
211.559 265.832 m 211.648 265.832 l 217.648 265.891 217.734 256.891 211.734
 256.832 c 207.891 256.758 l 201.707 250.363 195.121 247.301 188.281 247.672
 c 177.02 248.273 169.828 258.188 169.527 258.609 c 168.207 260.457 168.473
 263.004 170.148 264.539 c 171.676 265.867 173.324 267.055 175.066 268.082
 c 175.066 285.008 l 175.066 291.008 184.066 291.008 184.066 285.008 c 184.066
 274.41 l 184.496 276.625 185.457 278.699 186.867 280.461 c 189.039 283.023
 192.215 284.516 195.574 284.559 c 196.43 284.594 197.578 284.609 198.863
 284.609 c 203.996 284.609 211.398 284.379 211.789 284.363 c 214.273 284.285
 216.223 282.207 216.145 279.723 c 216.066 277.238 213.988 275.289 211.504
 275.371 c 211.387 275.371 199.895 275.734 195.957 275.566 c 195.145 275.629
 194.344 275.312 193.793 274.711 c 193.328 274.09 193.016 273.371 192.883
 272.605 c 197.551 272.156 202.656 270.27 207.648 265.758 c h
188.863 263.629 m 188.859 263.629 l 187.66 263.5 186.473 263.258 185.316
 262.902 c 183.465 262.332 181.684 261.543 180.012 260.559 c 182.148 258.75
 185.223 256.836 188.812 256.66 c 192.223 256.484 195.715 257.934 199.242
 260.953 c 196.223 263.078 192.535 264.027 188.863 263.629 c h
188.863 263.629 m f
170.367 251.133 m 170.461 251.039 179.941 241.996 191.098 242.367 c 197.016
 242.562 202.535 245.441 207.5 250.926 c 208.355 251.867 209.566 252.406
 210.836 252.406 c 217.094 252.406 l 223.094 252.406 223.094 243.406 217.094
 243.406 c 212.773 243.406 l 206.422 236.984 199.211 233.609 191.32 233.371
 c 191.02 233.359 190.727 233.355 190.434 233.355 c 175.848 233.355 164.566
 244.219 164.086 244.688 c 159.832 248.879 166.074 255.277 170.371 251.133
 c h
170.367 251.133 m f
283.242 198.363 m 284.879 200.34 287.836 200.551 289.734 198.82 c 295.004
 194.023 l 299.027 198.5 l 300.668 200.324 303.465 200.5 305.32 198.895 
c 311.141 193.855 l 315.676 198.602 l 316.523 199.488 317.699 199.992 318.93
 199.992 c 318.988 199.992 l 320.238 199.977 321.422 199.441 322.262 198.516
 c 329.379 190.672 l 331.074 188.832 330.945 185.969 329.094 184.289 c 327.242
 182.609 324.379 182.758 322.715 184.625 c 318.844 188.891 l 314.691 184.539
 l 313.035 182.805 310.305 182.672 308.492 184.246 c 302.77 189.195 l 298.676
 184.637 l 297.008 182.781 294.145 182.637 292.301 184.316 c 287.168 188.984
 l 283.68 184.773 l 279.848 180.242 273.016 185.902 276.75 190.512 c h
283.242 198.363 m f
61.992 267.91 m 63.629 269.887 66.586 270.094 68.484 268.367 c 73.754 263.57
 l 77.773 268.051 l 79.414 269.875 82.215 270.051 84.066 268.445 c 89.887
 263.406 l 94.418 268.152 l 95.27 269.039 96.445 269.543 97.676 269.543 
c 97.73 269.543 l 98.98 269.527 100.168 268.992 101.008 268.066 c 108.125
 260.223 l 112.156 255.781 105.492 249.73 101.461 254.176 c 97.59 258.441
 l 93.438 254.09 l 91.777 252.355 89.051 252.227 87.234 253.797 c 81.516
 258.746 l 77.418 254.188 l 75.75 252.332 72.891 252.188 71.043 253.867 
c 65.914 258.539 l 62.426 254.324 l 58.598 249.734 51.699 255.445 55.496
 260.066 c h
61.992 267.91 m f
81.047 210.215 m 88.719 210.199 95.625 205.566 98.551 198.473 c 101.473
 191.383 99.84 183.227 94.41 177.809 c 88.98 172.391 80.824 170.773 73.738
 173.711 c 66.652 176.652 62.031 183.566 62.031 191.238 c 62.055 201.723
 70.562 210.215 81.047 210.215 c h
81.047 181.27 m 85.078 181.285 88.703 183.727 90.234 187.453 c 91.766 191.184
 90.902 195.465 88.047 198.312 c 85.191 201.156 80.902 202.004 77.18 200.457
 c 73.457 198.91 71.031 195.273 71.031 191.242 c 71.051 185.727 75.527 181.266
 81.047 181.27 c h
81.047 181.27 m f
303.797 279.762 m 311.469 279.746 318.375 275.113 321.301 268.02 c 324.223
 260.93 322.59 252.773 317.16 247.355 c 311.73 241.938 303.574 240.32 296.488
 243.258 c 289.402 246.199 284.781 253.113 284.781 260.785 c 284.805 271.27
 293.312 279.762 303.797 279.762 c h
303.797 250.816 m 307.828 250.832 311.453 253.273 312.984 257 c 314.516
 260.73 313.652 265.012 310.797 267.859 c 307.941 270.703 303.652 271.551
 299.93 270.004 c 296.207 268.457 293.781 264.82 293.781 260.789 c 293.801
 255.273 298.277 250.812 303.797 250.816 c h
303.797 250.816 m f
354 65.957 m 30 65.957 l 17.578 65.973 7.516 76.039 7.5 88.457 c 7.5 310.543
 l 7.5 314.684 10.859 318.043 15 318.043 c 36.727 318.043 l 40.867 318.043
 44.227 314.684 44.227 310.543 c 44.227 302.66 l 339.777 302.66 l 339.777
 310.543 l 339.777 314.684 343.133 318.043 347.277 318.043 c 369 318.043
 l 373.141 318.043 376.5 314.684 376.5 310.543 c 376.5 88.457 l 376.484 
76.039 366.422 65.973 354 65.957 c h
16.5 88.457 m 16.508 81.004 22.547 74.965 30 74.957 c 34.512 74.957 l 31.578
 78.848 29.996 83.586 30 88.457 c 30 102.375 l 29.969 102.688 29.969 103.004
 30 103.316 c 30 134.238 l 16.5 134.238 l h
35.227 309.043 m 16.5 309.043 l 16.5 302.293 l 35.227 302.293 l h
35.227 293.293 m 16.5 293.293 l 16.5 143.238 l 35.227 143.238 l h
120.547 293.66 m 44.227 293.66 l 44.227 229.953 l 120.547 229.953 l h
120.547 220.953 m 44.227 220.953 l 44.227 161.777 l 120.547 161.777 l h
257.047 293.66 m 129.547 293.66 l 129.547 229.953 l 257.047 229.953 l h
257.047 220.953 m 129.547 220.953 l 129.547 161.777 l 171.188 161.777 l
 171.188 188.82 l 171.188 194.781 173.555 200.5 177.77 204.715 c 181.988
 208.93 187.703 211.301 193.668 211.301 c 199.629 211.301 205.348 208.93
 209.562 204.715 c 213.777 200.5 216.148 194.781 216.148 188.82 c 216.148
 161.781 l 257.047 161.781 l h
180.188 188.82 m 180.188 143.238 l 207.148 143.238 l 207.148 188.82 l 207.148
 192.398 205.73 195.828 203.203 198.355 c 200.672 200.883 197.246 202.305
 193.668 202.305 c 190.094 202.305 186.664 200.883 184.137 198.355 c 181.609
 195.828 180.188 192.398 180.188 188.82 c h
339.777 293.66 m 266.047 293.66 l 266.047 229.953 l 339.777 229.953 l h
339.777 220.953 m 266.047 220.953 l 266.047 161.777 l 339.777 161.777 l
 h
339.777 152.777 m 216.148 152.777 l 216.148 143.238 l 339.777 143.238 l
 h
345 113.922 m 253.477 113.922 l 247.477 113.922 247.477 122.922 253.477
 122.922 c 345 122.922 l 345 134.238 l 106.133 134.238 l 100.133 134.238
 100.133 143.238 106.133 143.238 c 171.188 143.238 l 171.188 152.781 l 44.227
 152.781 l 44.227 143.238 l 76.133 143.238 l 82.133 143.238 82.133 134.238
 76.133 134.238 c 39 134.238 l 39 107.348 l 43.18 107.348 l 49.18 107.348
 49.18 98.348 43.18 98.348 c 39 98.348 l 39 88.457 l 39.008 81.004 45.047
 74.965 52.5 74.957 c 331.5 74.957 l 338.953 74.965 344.992 81.004 345 88.457
 c h
367.5 309.043 m 348.777 309.043 l 348.777 302.293 l 367.5 302.293 l h
367.5 293.293 m 348.777 293.293 l 348.777 143.238 l 367.5 143.238 l h
367.5 134.238 m 354 134.238 l 354 88.457 l 354.004 83.586 352.422 78.848
 349.488 74.957 c 354 74.957 l 361.453 74.965 367.492 81.004 367.5 88.457
 c h
367.5 134.238 m f
203.984 191.805 m 203.984 175.266 l 203.984 172.781 201.969 170.766 199.484
 170.766 c 187.852 170.766 l 185.367 170.766 183.352 172.781 183.352 175.266
 c 183.352 191.805 l 183.352 194.289 185.367 196.305 187.852 196.305 c 199.484
 196.305 l 201.969 196.305 203.984 194.289 203.984 191.805 c h
194.984 187.305 m 192.352 187.305 l 192.352 179.766 l 194.984 179.766 l
 h
194.984 187.305 m f
193.668 167.773 m 197.91 167.77 201.73 165.207 203.352 161.285 c 204.969
 157.363 204.066 152.852 201.062 149.855 c 198.062 146.855 193.551 145.961
 189.629 147.586 c 185.711 149.211 183.156 153.039 183.156 157.281 c 183.168
 163.078 187.871 167.773 193.668 167.773 c h
193.668 155.785 m 194.996 155.805 195.645 157.41 194.699 158.344 c 193.758
 159.277 192.156 158.609 192.156 157.281 c 192.16 156.453 192.84 155.781
 193.668 155.789 c h
193.668 155.785 m f
236.523 113.922 m 212.223 113.922 l 206.223 113.922 206.223 122.922 212.223
 122.922 c 236.523 122.922 l 242.523 122.922 242.523 113.922 236.523 113.922
 c h
236.523 113.922 m f
146.82 93.824 m 119.637 93.824 l 113.637 93.824 113.637 102.824 119.637
 102.824 c 146.82 102.824 l 152.82 102.824 152.82 93.824 146.82 93.824 c
 h
146.82 93.824 m f
Q Q
showpage
%%Trailer
end
%%EOF
