%!PS-Adobe-3.0 EPSF-3.0
%%Creator: cairo 1.16.0 (https://cairographics.org)
%%CreationDate: Tue Jan 28 07:31:25 2020
%%Pages: 1
%%DocumentData: Clean7Bit
%%LanguageLevel: 2
%%BoundingBox: 24 12 360 373
%%EndComments
%%BeginProlog
50 dict begin
/q { gsave } bind def
/Q { grestore } bind def
/cm { 6 array astore concat } bind def
/w { setlinewidth } bind def
/J { setlinecap } bind def
/j { setlinejoin } bind def
/M { setmiterlimit } bind def
/d { setdash } bind def
/m { moveto } bind def
/l { lineto } bind def
/c { curveto } bind def
/h { closepath } bind def
/re { exch dup neg 3 1 roll 5 3 roll moveto 0 rlineto
      0 exch rlineto 0 rlineto closepath } bind def
/S { stroke } bind def
/f { fill } bind def
/f* { eofill } bind def
/n { newpath } bind def
/W { clip } bind def
/W* { eoclip } bind def
/BT { } bind def
/ET { } bind def
/BDC { mark 3 1 roll /BDC pdfmark } bind def
/EMC { mark /EMC pdfmark } bind def
/cairo_store_point { /cairo_point_y exch def /cairo_point_x exch def } def
/Tj { show currentpoint cairo_store_point } bind def
/TJ {
  {
    dup
    type /stringtype eq
    { show } { -0.001 mul 0 cairo_font_matrix dtransform rmoveto } ifelse
  } forall
  currentpoint cairo_store_point
} bind def
/cairo_selectfont { cairo_font_matrix aload pop pop pop 0 0 6 array astore
    cairo_font exch selectfont cairo_point_x cairo_point_y moveto } bind def
/Tf { pop /cairo_font exch def /cairo_font_matrix where
      { pop cairo_selectfont } if } bind def
/Td { matrix translate cairo_font_matrix matrix concatmatrix dup
      /cairo_font_matrix exch def dup 4 get exch 5 get cairo_store_point
      /cairo_font where { pop cairo_selectfont } if } bind def
/Tm { 2 copy 8 2 roll 6 array astore /cairo_font_matrix exch def
      cairo_store_point /cairo_font where { pop cairo_selectfont } if } bind def
/g { setgray } bind def
/rg { setrgbcolor } bind def
/d1 { setcachedevice } bind def
/cairo_data_source {
  CairoDataIndex CairoData length lt
    { CairoData CairoDataIndex get /CairoDataIndex CairoDataIndex 1 add def }
    { () } ifelse
} def
/cairo_flush_ascii85_file { cairo_ascii85_file status { cairo_ascii85_file flushfile } if } def
/cairo_image { image cairo_flush_ascii85_file } def
/cairo_imagemask { imagemask cairo_flush_ascii85_file } def
%%EndProlog
%%BeginSetup
%%EndSetup
%%Page: 1 1
%%BeginPageSetup
%%PageBoundingBox: 24 12 360 373
%%EndPageSetup
q 24 12 336 361 rectclip
1 0 0 -1 0 384 cm q
0.980392 0.823529 0.627451 rg
240 132 m 294 132 l 307.254 132 318 142.746 318 156 c 318 169.254 307.254
 180 294 180 c 240 180 l h
240 132 m f
144 180 m 90 180 l 76.746 180 66 169.254 66 156 c 66 142.746 76.746 132
 90 132 c 144 132 l h
144 180 m f
1 0.231373 0.25098 rg
240 276 m 240 204 l 144 204 l 144 276 l 84 276 l 57.492 276 36 297.492 
36 324 c 36 360 l 348 360 l 348 324 l 348 297.492 326.508 276 300 276 c 
h
240 276 m f
1 0.411765 0.439216 rg
144 276 m 84 276 l 57.492 276 36 297.492 36 324 c 36 360 l 60 360 l 60 
348 l 60 321.492 81.492 300 108 300 c 120 300 l 133.254 300 144 289.254 
144 276 c h
144 276 m f
1 0.231373 0.25098 rg
300 276 m 240 276 l 240 204 l 192 204 l 192 360 l 348 360 l 348 324 l 348
 297.492 326.508 276 300 276 c h
300 276 m f
1 0.866667 0.690196 rg
114 120 m 270 120 l 270 168 l 270 211.078 235.078 246 192 246 c 148.922
 246 114 211.078 114 168 c h
114 120 m f
1 0.901961 0.745098 rg
138 168 m 138 120 l 114 120 l 114 168 l 113.84 190.828 123.758 212.566 
141.109 227.406 c 158.457 242.246 181.473 248.676 204 244.98 c 166.047 239.07
 138.047 206.41 138 168 c h
138 168 m f
1 0.231373 0.25098 rg
270 132 m 114 132 l 114 102 l 114 58.922 148.922 24 192 24 c 235.078 24
 270 58.922 270 102 c h
270 132 m f
1 0.411765 0.439216 rg
138 132 m 138 102 l 138.047 63.59 166.047 30.93 204 25.02 c 181.473 21.324
 158.457 27.754 141.109 42.594 c 123.758 57.434 113.84 79.172 114 102 c 
114 132 l h
138 132 m f
0.223529 g
288 72 m 96 72 l 114 132 l 270 132 l h
288 72 m f
0.352941 g
144.191 72 m 96 72 l 114 132 l 138 132 l 138 102 l 138.039 91.688 140.145
 81.484 144.191 72 c h
144.191 72 m f
0 g
300 264 m 252 264 l 252 234.887 l 264.793 223.43 274.043 208.547 278.652
 192 c 294 192 l 313.883 192 330 175.883 330 156 c 330 136.117 313.883 120
 294 120 c 286.129 120 l 304.129 60 l 271.332 60 l 255.875 30.488 225.312
 11.996 192 11.996 c 158.688 11.996 128.125 30.488 112.668 60 c 79.871 60
 l 97.871 120 l 90 120 l 70.117 120 54 136.117 54 156 c 54 175.883 70.117
 192 90 192 c 105.348 192 l 109.957 208.547 119.207 223.43 132 234.887 c
 132 264 l 84 264 l 50.879 264.039 24.039 290.879 24 324 c 24 372 l 360 
372 l 360 324 l 359.961 290.879 333.121 264.039 300 264 c h
112.129 84 m 271.871 84 l 261.07 120 l 122.93 120 l h
306 156 m 306 162.629 300.629 168 294 168 c 282 168 l 282 144 l 294 144
 l 300.629 144 306 149.371 306 156 c h
192 36 m 211.711 35.965 230.398 44.773 242.914 60 c 141.086 60 l 153.602
 44.773 172.289 35.965 192 36 c h
90 168 m 83.371 168 78 162.629 78 156 c 78 149.371 83.371 144 90 144 c 
102 144 l 102 168 l h
126 168 m 126 144 l 258 144 l 258 168 l 258 204.449 228.449 234 192 234
 c 155.551 234 126 204.449 126 168 c h
48 348 m 48 324 l 48 304.117 64.117 288 84 288 c 156 288 l 156 250.441 
l 163.652 253.77 171.73 256.008 180 257.102 c 180 300 l 156 300 l 156 324
 l 180 324 l 180 348 l h
336 348 m 204 348 l 204 324 l 228 324 l 228 300 l 204 300 l 204 257.102
 l 212.27 256.008 220.348 253.77 228 250.441 c 228 288 l 300 288 l 319.883
 288 336 304.117 336 324 c h
336 348 m f
Q Q
showpage
%%Trailer
end
%%EOF
