%!PS-Adobe-3.0 EPSF-3.0
%%Creator: cairo 1.16.0 (https://cairographics.org)
%%CreationDate: Tue Jan 28 07:31:29 2020
%%Pages: 1
%%DocumentData: Clean7Bit
%%LanguageLevel: 2
%%BoundingBox: 12 12 372 372
%%EndComments
%%BeginProlog
50 dict begin
/q { gsave } bind def
/Q { grestore } bind def
/cm { 6 array astore concat } bind def
/w { setlinewidth } bind def
/J { setlinecap } bind def
/j { setlinejoin } bind def
/M { setmiterlimit } bind def
/d { setdash } bind def
/m { moveto } bind def
/l { lineto } bind def
/c { curveto } bind def
/h { closepath } bind def
/re { exch dup neg 3 1 roll 5 3 roll moveto 0 rlineto
      0 exch rlineto 0 rlineto closepath } bind def
/S { stroke } bind def
/f { fill } bind def
/f* { eofill } bind def
/n { newpath } bind def
/W { clip } bind def
/W* { eoclip } bind def
/BT { } bind def
/ET { } bind def
/BDC { mark 3 1 roll /BDC pdfmark } bind def
/EMC { mark /EMC pdfmark } bind def
/cairo_store_point { /cairo_point_y exch def /cairo_point_x exch def } def
/Tj { show currentpoint cairo_store_point } bind def
/TJ {
  {
    dup
    type /stringtype eq
    { show } { -0.001 mul 0 cairo_font_matrix dtransform rmoveto } ifelse
  } forall
  currentpoint cairo_store_point
} bind def
/cairo_selectfont { cairo_font_matrix aload pop pop pop 0 0 6 array astore
    cairo_font exch selectfont cairo_point_x cairo_point_y moveto } bind def
/Tf { pop /cairo_font exch def /cairo_font_matrix where
      { pop cairo_selectfont } if } bind def
/Td { matrix translate cairo_font_matrix matrix concatmatrix dup
      /cairo_font_matrix exch def dup 4 get exch 5 get cairo_store_point
      /cairo_font where { pop cairo_selectfont } if } bind def
/Tm { 2 copy 8 2 roll 6 array astore /cairo_font_matrix exch def
      cairo_store_point /cairo_font where { pop cairo_selectfont } if } bind def
/g { setgray } bind def
/rg { setrgbcolor } bind def
/d1 { setcachedevice } bind def
/cairo_data_source {
  CairoDataIndex CairoData length lt
    { CairoData CairoDataIndex get /CairoDataIndex CairoDataIndex 1 add def }
    { () } ifelse
} def
/cairo_flush_ascii85_file { cairo_ascii85_file status { cairo_ascii85_file flushfile } if } def
/cairo_image { image cairo_flush_ascii85_file } def
/cairo_imagemask { imagemask cairo_flush_ascii85_file } def
%%EndProlog
%%BeginSetup
%%EndSetup
%%Page: 1 1
%%BeginPageSetup
%%PageBoundingBox: 12 12 372 372
%%EndPageSetup
q 12 12 360 360 rectclip
1 0 0 -1 0 384 cm q
1 0.784314 0.0392157 rg
276 180 m 276 226.391 238.391 264 192 264 c 145.609 264 108 226.391 108
 180 c 108 133.609 145.609 96 192 96 c 214.277 96 235.645 104.852 251.398
 120.602 c 267.148 136.355 276 157.723 276 180 c h
276 180 m f
1 0.901961 0.196078 rg
132 204 m 132.012 173.121 148.965 144.742 176.145 130.09 c 203.324 115.441
 236.352 116.883 262.152 133.848 c 248.293 112.707 225.648 98.934 200.504
 96.344 c 175.355 93.758 150.379 102.629 132.504 120.504 c 114.629 138.379
 105.758 163.355 108.344 188.504 c 110.934 213.648 124.707 236.293 145.848
 250.152 c 136.801 236.461 131.984 220.41 132 204 c h
132 204 m f
228 180 m 228 199.883 211.883 216 192 216 c 172.117 216 156 199.883 156
 180 c 156 160.117 172.117 144 192 144 c 211.883 144 228 160.117 228 180
 c h
228 180 m f
1 0.941176 0.431373 rg
192 168 m 192 174.629 186.629 180 180 180 c 173.371 180 168 174.629 168
 168 c 168 161.371 173.371 156 180 156 c 186.629 156 192 161.371 192 168
 c h
192 168 m f
1 0.231373 0.25098 rg
48 312 m 336 312 l 349.254 312 360 322.746 360 336 c 360 360 l 24 360 l
 24 336 l 24 322.746 34.746 312 48 312 c h
48 312 m f
1 0.411765 0.439216 rg
72 336 m 360 336 l 360 322.746 349.254 312 336 312 c 48 312 l 34.746 312
 24 322.746 24 336 c 24 360 l 48 360 l 48 346.746 58.746 336 72 336 c h
72 336 m f
0 g
192 228 m 211.414 228 228.918 216.305 236.348 198.367 c 243.777 180.434
 239.668 159.785 225.941 146.059 c 212.215 132.332 191.566 128.223 173.633
 135.652 c 155.695 143.082 144 160.586 144 180 c 144 206.508 165.492 228
 192 228 c h
192 156 m 201.707 156 210.457 161.848 214.172 170.816 c 217.887 179.785
 215.836 190.105 208.969 196.969 c 202.105 203.836 191.785 205.887 182.816
 202.172 c 173.848 198.457 168 189.707 168 180 c 168 166.746 178.746 156
 192 156 c h
192 156 m f
336 60 m 355.883 60 372 43.883 372 24 c 372 12 l 348 12 l 348 24 l 348 
30.629 342.629 36 336 36 c 48 36 l 41.371 36 36 30.629 36 24 c 36 12 l 12
 12 l 12 24 l 12 43.883 28.117 60 48 60 c 84 60 l 84 82.523 l 84.027 106.102
 67.977 126.664 45.098 132.359 c 36 134.629 l 36 302.207 l 21.668 307.273
 12.062 320.797 12 336 c 12 372 l 372 372 l 372 336 l 371.938 320.797 362.332
 307.273 348 302.207 c 348 134.629 l 338.902 132.359 l 316.023 126.664 299.973
 106.102 300 82.523 c 300 60 l h
192 108 m 221.121 108 247.375 125.543 258.52 152.445 c 269.664 179.352 
263.504 210.32 242.91 230.91 c 222.32 251.504 191.352 257.664 164.445 246.52
 c 137.543 235.375 120 209.121 120 180 c 120.039 140.25 152.25 108.039 192
 108 c h
192 84 m 179.656 84.004 167.43 86.402 156 91.066 c 156 60 l 228 60 l 228
 91.066 l 216.57 86.402 204.344 84.004 192 84 c h
348 348 m 36 348 l 36 336 l 36 329.371 41.371 324 48 324 c 336 324 l 342.629
 324 348 329.371 348 336 c h
324 152.746 m 324 300 l 60 300 l 60 152.746 l 88.965 141.496 108.035 113.598
 108 82.523 c 108 60 l 132 60 l 132 105.18 l 100.18 130.656 87.918 173.453
 101.418 211.914 c 114.918 250.379 151.238 276.121 192 276.121 c 232.762
 276.121 269.082 250.379 282.582 211.914 c 296.082 173.453 283.82 130.656
 252 105.18 c 252 60 l 276 60 l 276 82.523 l 275.965 113.598 295.035 141.496
 324 152.746 c h
324 152.746 m f
Q Q
showpage
%%Trailer
end
%%EOF
