%!PS-Adobe-3.0 EPSF-3.0
%%Creator: cairo 1.16.0 (https://cairographics.org)
%%CreationDate: Tue Jan 28 07:31:30 2020
%%Pages: 1
%%DocumentData: Clean7Bit
%%LanguageLevel: 2
%%BoundingBox: 0 0 384 384
%%EndComments
%%BeginProlog
50 dict begin
/q { gsave } bind def
/Q { grestore } bind def
/cm { 6 array astore concat } bind def
/w { setlinewidth } bind def
/J { setlinecap } bind def
/j { setlinejoin } bind def
/M { setmiterlimit } bind def
/d { setdash } bind def
/m { moveto } bind def
/l { lineto } bind def
/c { curveto } bind def
/h { closepath } bind def
/re { exch dup neg 3 1 roll 5 3 roll moveto 0 rlineto
      0 exch rlineto 0 rlineto closepath } bind def
/S { stroke } bind def
/f { fill } bind def
/f* { eofill } bind def
/n { newpath } bind def
/W { clip } bind def
/W* { eoclip } bind def
/BT { } bind def
/ET { } bind def
/BDC { mark 3 1 roll /BDC pdfmark } bind def
/EMC { mark /EMC pdfmark } bind def
/cairo_store_point { /cairo_point_y exch def /cairo_point_x exch def } def
/Tj { show currentpoint cairo_store_point } bind def
/TJ {
  {
    dup
    type /stringtype eq
    { show } { -0.001 mul 0 cairo_font_matrix dtransform rmoveto } ifelse
  } forall
  currentpoint cairo_store_point
} bind def
/cairo_selectfont { cairo_font_matrix aload pop pop pop 0 0 6 array astore
    cairo_font exch selectfont cairo_point_x cairo_point_y moveto } bind def
/Tf { pop /cairo_font exch def /cairo_font_matrix where
      { pop cairo_selectfont } if } bind def
/Td { matrix translate cairo_font_matrix matrix concatmatrix dup
      /cairo_font_matrix exch def dup 4 get exch 5 get cairo_store_point
      /cairo_font where { pop cairo_selectfont } if } bind def
/Tm { 2 copy 8 2 roll 6 array astore /cairo_font_matrix exch def
      cairo_store_point /cairo_font where { pop cairo_selectfont } if } bind def
/g { setgray } bind def
/rg { setrgbcolor } bind def
/d1 { setcachedevice } bind def
/cairo_data_source {
  CairoDataIndex CairoData length lt
    { CairoData CairoDataIndex get /CairoDataIndex CairoDataIndex 1 add def }
    { () } ifelse
} def
/cairo_flush_ascii85_file { cairo_ascii85_file status { cairo_ascii85_file flushfile } if } def
/cairo_image { image cairo_flush_ascii85_file } def
/cairo_imagemask { imagemask cairo_flush_ascii85_file } def
%%EndProlog
%%BeginSetup
%%EndSetup
%%Page: 1 1
%%BeginPageSetup
%%PageBoundingBox: 0 0 384 384
%%EndPageSetup
q 0 0 384 384 rectclip
1 0 0 -1 0 384 cm q
1 0.901961 0.196078 rg
192 312 m 205.254 312 216 322.746 216 336 c 216 372 l 168 372 l 168 336
 l 168 322.746 178.746 312 192 312 c h
192 312 m f
1 0.231373 0.25098 rg
228 156 m 228 175.883 211.883 192 192 192 c 172.117 192 156 175.883 156
 156 c 156 136.117 172.117 120 192 120 c 211.883 120 228 136.117 228 156
 c h
228 156 m f
1 0.411765 0.439216 rg
198 150 m 198 156.629 192.629 162 186 162 c 179.371 162 174 156.629 174
 150 c 174 143.371 179.371 138 186 138 c 192.629 138 198 143.371 198 150
 c h
198 150 m f
1 0.901961 0.196078 rg
216 252 m 216 265.254 205.254 276 192 276 c 178.746 276 168 265.254 168
 252 c 168 238.746 178.746 228 192 228 c 205.254 228 216 238.746 216 252
 c h
216 252 m f
1 0.941176 0.431373 rg
204 252 m 204 258.629 198.629 264 192 264 c 185.371 264 180 258.629 180
 252 c 180 245.371 185.371 240 192 240 c 198.629 240 204 245.371 204 252
 c h
204 252 m f
1 0.901961 0.196078 rg
216 60 m 216 73.254 205.254 84 192 84 c 178.746 84 168 73.254 168 60 c 
168 46.746 178.746 36 192 36 c 205.254 36 216 46.746 216 60 c h
216 60 m f
1 0.941176 0.431373 rg
204 60 m 204 66.629 198.629 72 192 72 c 185.371 72 180 66.629 180 60 c 
180 53.371 185.371 48 192 48 c 198.629 48 204 53.371 204 60 c h
204 60 m f
0 g
300 72 m 267.402 72.043 237.777 90.941 223.992 120.48 c 218.289 115.336
 211.434 111.641 204 109.703 c 204 93.793 l 218.379 88.781 228.012 75.227
 228.012 60 c 228.012 44.773 218.379 31.219 204 26.207 c 204 0 l 180 0 l
 180 26.207 l 165.621 31.219 155.988 44.773 155.988 60 c 155.988 75.227 
165.621 88.781 180 93.793 c 180 109.703 l 172.566 111.645 165.707 115.352
 160.008 120.504 c 143.355 84.816 104.145 65.488 65.695 74.016 c 27.25 82.547
 -0.113 116.641 -0.113 156.023 c -0.113 195.406 27.25 229.5 65.695 238.031
 c 104.145 246.559 143.355 227.23 160.008 191.543 c 165.707 196.699 172.566
 200.402 180 202.344 c 180 218.258 l 165.621 223.266 155.988 236.824 155.988
 252.047 c 155.988 267.273 165.621 280.832 180 285.84 c 180 302.258 l 165.684
 307.316 156.082 320.816 156 336 c 156 384 l 228 384 l 228 336 l 227.938
 320.797 218.332 307.273 204 302.207 c 204 285.793 l 218.379 280.781 228.012
 267.227 228.012 252 c 228.012 236.773 218.379 223.219 204 218.207 c 204
 202.297 l 211.434 200.355 218.293 196.648 223.992 191.496 c 236.957 219.301
 264.047 237.824 294.656 239.82 c 325.27 241.816 354.535 226.969 371 201.082
 c 387.465 175.199 388.508 142.395 373.723 115.516 c 358.941 88.637 330.676
 71.953 300 72 c h
252 168 m 247.145 168 242.77 165.078 240.914 160.594 c 239.055 156.109 
240.082 150.945 243.516 147.516 c 246.945 144.082 252.109 143.055 256.594
 144.914 c 261.078 146.77 264 151.145 264 156 c 264 162.629 258.629 168 
252 168 c h
264 189.793 m 278.379 184.781 288.012 171.227 288.012 156 c 288.012 140.773
 278.379 127.219 264 122.207 c 267.844 120.785 271.902 120.039 276 120 c
 295.883 120 312 136.117 312 156 c 312 175.883 295.883 192 276 192 c 271.902
 191.961 267.844 191.215 264 189.793 c h
192 48 m 196.855 48 201.23 50.922 203.086 55.406 c 204.945 59.891 203.918
 65.055 200.484 68.484 c 197.055 71.918 191.891 72.945 187.406 71.086 c 
182.922 69.23 180 64.855 180 60 c 180 53.371 185.371 48 192 48 c h
132 168 m 127.145 168 122.77 165.078 120.914 160.594 c 119.055 156.109 
120.082 150.945 123.516 147.516 c 126.945 144.082 132.109 143.055 136.594
 144.914 c 141.078 146.77 144 151.145 144 156 c 144 162.629 138.629 168 
132 168 c h
120 122.207 m 105.621 127.219 95.988 140.773 95.988 156 c 95.988 171.227
 105.621 184.781 120 189.793 c 116.156 191.215 112.098 191.961 108 192 c
 88.117 192 72 175.883 72 156 c 72 136.117 88.117 120 108 120 c 112.098 
120.039 116.156 120.785 120 122.207 c h
24 156 m 23.996 137.98 32.09 120.914 46.047 109.516 c 60.004 98.117 78.344
 93.598 96 97.199 c 68.035 102.879 47.941 127.465 47.941 156 c 47.941 184.535
 68.035 209.121 96 214.801 c 78.344 218.402 60.004 213.883 46.047 202.484
 c 32.09 191.086 23.996 174.02 24 156 c h
204 360 m 180 360 l 180 336 l 180 329.371 185.371 324 192 324 c 198.629
 324 204 329.371 204 336 c h
192 264 m 187.145 264 182.77 261.078 180.914 256.594 c 179.055 252.109 
180.082 246.945 183.516 243.516 c 186.945 240.082 192.109 239.055 196.594
 240.914 c 201.078 242.77 204 247.145 204 252 c 204 258.629 198.629 264 
192 264 c h
192 180 m 182.293 180 173.543 174.152 169.828 165.184 c 166.113 156.215
 168.164 145.895 175.031 139.031 c 181.895 132.164 192.215 130.113 201.184
 133.828 c 210.152 137.543 216 146.293 216 156 c 216 169.254 205.254 180
 192 180 c h
300 216 m 295.969 216.004 291.949 215.602 288 214.801 c 315.965 209.121
 336.059 184.535 336.059 156 c 336.059 127.465 315.965 102.879 288 97.199
 c 304.613 93.828 321.879 97.637 335.527 107.691 c 349.172 117.746 357.934
 133.105 359.637 149.969 c 361.34 166.836 355.828 183.637 344.469 196.215
 c 333.105 208.797 316.953 215.984 300 216 c h
300 216 m f
Q Q
showpage
%%Trailer
end
%%EOF
