%!PS-Adobe-3.0 EPSF-3.0
%%Creator: cairo 1.16.0 (https://cairographics.org)
%%CreationDate: Tue Jan 28 07:31:31 2020
%%Pages: 1
%%DocumentData: Clean7Bit
%%LanguageLevel: 2
%%BoundingBox: 12 36 372 349
%%EndComments
%%BeginProlog
50 dict begin
/q { gsave } bind def
/Q { grestore } bind def
/cm { 6 array astore concat } bind def
/w { setlinewidth } bind def
/J { setlinecap } bind def
/j { setlinejoin } bind def
/M { setmiterlimit } bind def
/d { setdash } bind def
/m { moveto } bind def
/l { lineto } bind def
/c { curveto } bind def
/h { closepath } bind def
/re { exch dup neg 3 1 roll 5 3 roll moveto 0 rlineto
      0 exch rlineto 0 rlineto closepath } bind def
/S { stroke } bind def
/f { fill } bind def
/f* { eofill } bind def
/n { newpath } bind def
/W { clip } bind def
/W* { eoclip } bind def
/BT { } bind def
/ET { } bind def
/BDC { mark 3 1 roll /BDC pdfmark } bind def
/EMC { mark /EMC pdfmark } bind def
/cairo_store_point { /cairo_point_y exch def /cairo_point_x exch def } def
/Tj { show currentpoint cairo_store_point } bind def
/TJ {
  {
    dup
    type /stringtype eq
    { show } { -0.001 mul 0 cairo_font_matrix dtransform rmoveto } ifelse
  } forall
  currentpoint cairo_store_point
} bind def
/cairo_selectfont { cairo_font_matrix aload pop pop pop 0 0 6 array astore
    cairo_font exch selectfont cairo_point_x cairo_point_y moveto } bind def
/Tf { pop /cairo_font exch def /cairo_font_matrix where
      { pop cairo_selectfont } if } bind def
/Td { matrix translate cairo_font_matrix matrix concatmatrix dup
      /cairo_font_matrix exch def dup 4 get exch 5 get cairo_store_point
      /cairo_font where { pop cairo_selectfont } if } bind def
/Tm { 2 copy 8 2 roll 6 array astore /cairo_font_matrix exch def
      cairo_store_point /cairo_font where { pop cairo_selectfont } if } bind def
/g { setgray } bind def
/rg { setrgbcolor } bind def
/d1 { setcachedevice } bind def
/cairo_data_source {
  CairoDataIndex CairoData length lt
    { CairoData CairoDataIndex get /CairoDataIndex CairoDataIndex 1 add def }
    { () } ifelse
} def
/cairo_flush_ascii85_file { cairo_ascii85_file status { cairo_ascii85_file flushfile } if } def
/cairo_image { image cairo_flush_ascii85_file } def
/cairo_imagemask { imagemask cairo_flush_ascii85_file } def
%%EndProlog
%%BeginSetup
%%EndSetup
%%Page: 1 1
%%BeginPageSetup
%%PageBoundingBox: 12 36 372 349
%%EndPageSetup
q 12 36 360 313 rectclip
1 0 0 -1 0 384 cm q
1 0.784314 0.0392157 rg
318 102 m 318 131.824 293.824 156 264 156 c 234.176 156 210 131.824 210
 102 c 210 72.176 234.176 48 264 48 c 293.824 48 318 72.176 318 102 c h
318 102 m f
1 0.847059 0.0392157 rg
276 96 m 276 109.254 265.254 120 252 120 c 238.746 120 228 109.254 228 
96 c 228 82.746 238.746 72 252 72 c 265.254 72 276 82.746 276 96 c h
276 96 m f
1 0.901961 0.196078 rg
323.281 82.945 m 302.16 96.145 l 278.812 110.734 249.188 110.734 225.84
 96.145 c 204.719 82.945 l 197.32 78.32 187.996 78.074 180.367 82.305 c 
172.734 86.535 168 94.57 168 103.297 c 167.996 120.457 174.812 136.914 186.945
 149.047 c 199.074 161.184 215.531 168 232.691 168 c 295.309 168 l 331.035
 168 360 139.035 360 103.309 c 360.004 94.582 355.27 86.539 347.641 82.309
 c 340.008 78.074 330.68 78.32 323.281 82.945 c h
323.281 82.945 m f
1 0.847059 0.0392157 rg
336 79.297 m 336.004 96.457 329.188 112.914 317.055 125.047 c 304.926 137.184
 288.469 144 271.309 144 c 208.691 144 l 197.465 143.934 186.453 140.918
 176.762 135.254 c 188.152 155.438 209.512 167.945 232.691 168 c 295.309
 168 l 331.039 167.992 360 139.027 360 103.297 c 360 90.043 349.254 79.297
 336 79.297 c h
336 79.297 m f
1 0.784314 0.0392157 rg
246 186 m 246 215.824 221.824 240 192 240 c 162.176 240 138 215.824 138
 186 c 138 156.176 162.176 132 192 132 c 221.824 132 246 156.176 246 186
 c h
246 186 m f
1 0.847059 0.0392157 rg
204 180 m 204 193.254 193.254 204 180 204 c 166.746 204 156 193.254 156
 180 c 156 166.746 166.746 156 180 156 c 193.254 156 204 166.746 204 180
 c h
204 180 m f
1 0.901961 0.196078 rg
251.281 166.945 m 230.16 180.145 l 206.812 194.734 177.188 194.734 153.84
 180.145 c 132.719 166.945 l 125.32 162.32 115.996 162.074 108.367 166.305
 c 100.734 170.535 96 178.57 96 187.297 c 95.996 204.457 102.812 220.914
 114.945 233.047 c 127.074 245.184 143.531 252 160.691 252 c 223.309 252
 l 259.035 252 288 223.035 288 187.309 c 288.004 178.582 283.27 170.539 
275.641 166.309 c 268.008 162.074 258.68 162.32 251.281 166.945 c h
251.281 166.945 m f
1 0.847059 0.0392157 rg
264 163.297 m 264.004 180.457 257.188 196.914 245.055 209.047 c 232.926
 221.184 216.469 228 199.309 228 c 136.691 228 l 125.465 227.934 114.453
 224.918 104.762 219.254 c 116.152 239.438 137.512 251.945 160.691 252 c
 223.309 252 l 259.039 251.992 288 223.027 288 187.297 c 288 174.043 277.254
 163.297 264 163.297 c h
264 163.297 m f
1 0.784314 0.0392157 rg
174 270 m 174 299.824 149.824 324 120 324 c 90.176 324 66 299.824 66 270
 c 66 240.176 90.176 216 120 216 c 149.824 216 174 240.176 174 270 c h
174 270 m f
1 0.847059 0.0392157 rg
132 264 m 132 277.254 121.254 288 108 288 c 94.746 288 84 277.254 84 264
 c 84 250.746 94.746 240 108 240 c 121.254 240 132 250.746 132 264 c h
132 264 m f
1 0.901961 0.196078 rg
179.281 250.945 m 158.16 264.145 l 134.812 278.734 105.188 278.734 81.84
 264.145 c 60.719 250.945 l 53.32 246.32 43.996 246.074 36.367 250.305 c
 28.734 254.535 24 262.57 24 271.297 c 23.996 288.457 30.812 304.914 42.945
 317.047 c 55.074 329.184 71.531 336 88.691 336 c 151.309 336 l 168.465 
336 184.922 329.184 197.051 317.051 c 209.184 304.922 216 288.465 216 271.309
 c 216.004 262.582 211.27 254.539 203.641 250.309 c 196.008 246.074 186.68
 246.32 179.281 250.945 c h
179.281 250.945 m f
1 0.847059 0.0392157 rg
192 247.297 m 192.004 264.457 185.188 280.914 173.055 293.047 c 160.926
 305.184 144.469 312 127.309 312 c 64.691 312 l 53.465 311.934 42.453 308.918
 32.762 303.254 c 44.152 323.438 65.512 335.945 88.691 336 c 151.309 336
 l 187.039 335.992 216 307.027 216 271.297 c 216 258.043 205.254 247.297
 192 247.297 c h
192 247.297 m f
0 g
72 120 m 96 120 l 96 96 l 120 96 l 120 72 l 96 72 l 96 48 l 72 48 l 72 
72 l 48 72 l 48 96 l 72 96 l h
72 120 m f
312 264 m 288 264 l 288 288 l 264 288 l 264 312 l 288 312 l 288 336 l 312
 336 l 312 312 l 336 312 l 336 288 l 312 288 l h
312 264 m f
353.461 71.82 m 343.633 66.363 331.797 65.918 321.59 70.621 c 310.289 49.289
 288.125 35.953 263.988 35.953 c 239.852 35.953 217.688 49.289 206.387 70.621
 c 195.32 65.594 182.453 66.559 172.254 73.172 c 162.055 79.785 155.926 
91.141 156 103.297 c 156.047 111.793 157.57 120.219 160.5 128.195 c 149.461
 134.324 140.41 143.484 134.41 154.598 c 123.336 149.559 110.457 150.516
 100.25 157.137 c 90.043 163.758 83.914 175.129 84 187.297 c 84.047 195.793
 85.57 204.219 88.5 212.195 c 77.461 218.324 68.41 227.484 62.41 238.598
 c 51.336 233.559 38.457 234.516 28.25 241.137 c 18.043 247.758 11.914 259.129
 12 271.297 c 12.055 313.637 46.363 347.945 88.703 348 c 151.297 348 l 193.637
 347.945 227.945 313.637 228 271.297 c 227.93 268.773 227.598 266.266 227.016
 263.809 c 267.84 261.812 299.934 228.168 300 187.297 c 299.93 184.773 299.598
 182.266 299.016 179.809 c 339.84 177.812 371.934 144.168 372 103.297 c 
372.098 90.188 364.973 78.09 353.461 71.82 c h
264 60 m 279.609 60.113 293.855 68.902 300.961 82.801 c 295.801 86.027 
l 276.316 98.09 251.684 98.09 232.199 86.027 c 227.039 82.801 l 234.145 
68.902 248.391 60.113 264 60 c h
192 144 m 207.609 144.113 221.855 152.902 228.961 166.801 c 223.801 170.027
 l 204.316 182.094 179.684 182.094 160.199 170.027 c 155.039 166.801 l 162.145
 152.902 176.391 144.113 192 144 c h
120 228 m 135.609 228.113 149.855 236.902 156.961 250.801 c 151.801 254.027
 l 132.316 266.094 107.684 266.094 88.199 254.027 c 83.039 250.801 l 90.145
 236.902 104.391 228.113 120 228 c h
151.297 324 m 88.703 324 l 59.617 323.945 36.055 300.383 36 271.297 c 35.949
 266.922 38.328 262.883 42.18 260.809 c 43.988 259.805 46.016 259.27 48.086
 259.246 c 50.312 259.266 52.492 259.918 54.359 261.133 c 75.48 274.332 
l 102.754 291.227 137.246 291.227 164.52 274.332 c 185.641 261.133 l 189.336
 258.82 193.996 258.699 197.812 260.809 c 201.625 262.922 203.996 266.938
 204 271.297 c 203.945 300.383 180.383 323.945 151.297 324 c h
223.297 240 m 209.699 240 l 209.605 240 209.543 239.867 209.461 239.82 
c 199.637 234.359 187.797 233.914 177.59 238.621 c 166.168 217.414 144.082
 204.137 120 204 c 117.074 204.051 114.156 204.293 111.266 204.73 c 109.145
 199.16 108.039 193.258 108 187.297 c 108.004 182.938 110.375 178.922 114.188
 176.809 c 118.004 174.699 122.664 174.82 126.359 177.133 c 147.48 190.332
 l 174.754 207.227 209.246 207.227 236.52 190.332 c 257.641 177.133 l 261.336
 174.82 265.996 174.699 269.812 176.809 c 273.625 178.922 275.996 182.938
 276 187.297 c 275.945 216.383 252.383 239.945 223.297 240 c h
295.297 156 m 281.699 156 l 281.605 156 281.543 155.867 281.461 155.82 
c 271.637 150.359 259.797 149.914 249.59 154.621 c 237.105 130.195 210.371
 116.527 183.266 120.707 c 181.148 115.145 180.043 109.246 180 103.297 c
 180.004 98.938 182.375 94.922 186.188 92.809 c 190.004 90.699 194.664 90.82
 198.359 93.133 c 219.48 106.332 l 246.754 123.227 281.246 123.227 308.52
 106.332 c 329.641 93.133 l 333.336 90.82 337.996 90.699 341.812 92.809 
c 345.625 94.922 347.996 98.938 348 103.297 c 347.945 132.383 324.383 155.945
 295.297 156 c h
295.297 156 m f
Q Q
showpage
%%Trailer
end
%%EOF
