%!PS-Adobe-3.0 EPSF-3.0
%%Creator: cairo 1.16.0 (https://cairographics.org)
%%CreationDate: Tue Jan 28 07:31:31 2020
%%Pages: 1
%%DocumentData: Clean7Bit
%%LanguageLevel: 2
%%BoundingBox: 0 0 384 384
%%EndComments
%%BeginProlog
50 dict begin
/q { gsave } bind def
/Q { grestore } bind def
/cm { 6 array astore concat } bind def
/w { setlinewidth } bind def
/J { setlinecap } bind def
/j { setlinejoin } bind def
/M { setmiterlimit } bind def
/d { setdash } bind def
/m { moveto } bind def
/l { lineto } bind def
/c { curveto } bind def
/h { closepath } bind def
/re { exch dup neg 3 1 roll 5 3 roll moveto 0 rlineto
      0 exch rlineto 0 rlineto closepath } bind def
/S { stroke } bind def
/f { fill } bind def
/f* { eofill } bind def
/n { newpath } bind def
/W { clip } bind def
/W* { eoclip } bind def
/BT { } bind def
/ET { } bind def
/BDC { mark 3 1 roll /BDC pdfmark } bind def
/EMC { mark /EMC pdfmark } bind def
/cairo_store_point { /cairo_point_y exch def /cairo_point_x exch def } def
/Tj { show currentpoint cairo_store_point } bind def
/TJ {
  {
    dup
    type /stringtype eq
    { show } { -0.001 mul 0 cairo_font_matrix dtransform rmoveto } ifelse
  } forall
  currentpoint cairo_store_point
} bind def
/cairo_selectfont { cairo_font_matrix aload pop pop pop 0 0 6 array astore
    cairo_font exch selectfont cairo_point_x cairo_point_y moveto } bind def
/Tf { pop /cairo_font exch def /cairo_font_matrix where
      { pop cairo_selectfont } if } bind def
/Td { matrix translate cairo_font_matrix matrix concatmatrix dup
      /cairo_font_matrix exch def dup 4 get exch 5 get cairo_store_point
      /cairo_font where { pop cairo_selectfont } if } bind def
/Tm { 2 copy 8 2 roll 6 array astore /cairo_font_matrix exch def
      cairo_store_point /cairo_font where { pop cairo_selectfont } if } bind def
/g { setgray } bind def
/rg { setrgbcolor } bind def
/d1 { setcachedevice } bind def
/cairo_data_source {
  CairoDataIndex CairoData length lt
    { CairoData CairoDataIndex get /CairoDataIndex CairoDataIndex 1 add def }
    { () } ifelse
} def
/cairo_flush_ascii85_file { cairo_ascii85_file status { cairo_ascii85_file flushfile } if } def
/cairo_image { image cairo_flush_ascii85_file } def
/cairo_imagemask { imagemask cairo_flush_ascii85_file } def
%%EndProlog
%%BeginSetup
%%EndSetup
%%Page: 1 1
%%BeginPageSetup
%%PageBoundingBox: 0 0 384 384
%%EndPageSetup
q 0 0 384 384 rectclip
1 0 0 -1 0 384 cm q
1 0.411765 0.439216 rg
252 96 120 48 re f
1 0.231373 0.25098 rg
348 96 m 348 120 l 252 120 l 252 144 l 372 144 l 372 96 l h
348 96 m f
1 0.411765 0.439216 rg
252 204 120 48 re f
1 0.231373 0.25098 rg
348 204 m 348 228 l 252 228 l 252 252 l 372 252 l 372 204 l h
348 204 m f
1 0.411765 0.439216 rg
252 312 120 48 re f
1 0.231373 0.25098 rg
348 312 m 348 336 l 252 336 l 252 360 l 372 360 l 372 312 l h
348 312 m f
1 0.901961 0.196078 rg
216 36 m 216 49.254 205.211 60 191.902 60 c 178.598 60 167.809 49.254 167.809
 36 c 167.809 22.746 178.598 12 191.902 12 c 205.211 12 216 22.746 216 36
 c h
216 36 m f
1 0.411765 0.439216 rg
12 312 120 48 re f
12 204 120 48 re f
12 96 120 48 re f
1 0.231373 0.25098 rg
36 120 m 132 120 l 132 144 l 12 144 l 12 96 l 36 96 l h
36 120 m f
36 228 m 132 228 l 132 252 l 12 252 l 12 204 l 36 204 l h
36 228 m f
36 336 m 132 336 l 132 360 l 12 360 l 12 312 l 36 312 l h
36 336 m f
0 g
384 156 m 384 84 l 240 84 l 240 108 l 204 108 l 204 69.77 l 220.602 63.922
 230.57 46.961 227.602 29.613 c 224.637 12.266 209.602 -0.422 192 -0.422
 c 174.398 -0.422 159.363 12.266 156.398 29.613 c 153.43 46.961 163.398 
63.922 180 69.77 c 180 108 l 144 108 l 144 84 l 0 84 l 0 156 l 144 156 l
 144 132 l 180 132 l 180 216 l 144 216 l 144 192 l 0 192 l 0 264 l 144 264
 l 144 240 l 180 240 l 180 324 l 144 324 l 144 300 l 0 300 l 0 372 l 144
 372 l 144 348 l 180 348 l 180 384 l 204 384 l 204 348 l 240 348 l 240 372
 l 384 372 l 384 300 l 240 300 l 240 324 l 204 324 l 204 240 l 240 240 l
 240 264 l 384 264 l 384 192 l 240 192 l 240 216 l 204 216 l 204 132 l 240
 132 l 240 156 l h
191.902 24 m 196.746 24.043 201.09 26.996 202.914 31.48 c 204.738 35.969
 203.684 41.113 200.242 44.523 c 196.805 47.934 191.648 48.938 187.18 47.074
 c 182.707 45.211 179.797 40.844 179.797 36 c 179.828 29.344 185.25 23.973
 191.902 24 c h
24 132 m 24 108 l 120 108 l 120 132 l h
24 240 m 24 216 l 120 216 l 120 240 l h
24 348 m 24 324 l 120 324 l 120 348 l h
360 324 m 360 348 l 264 348 l 264 324 l h
360 216 m 360 240 l 264 240 l 264 216 l h
360 108 m 360 132 l 264 132 l 264 108 l h
360 108 m f
Q Q
showpage
%%Trailer
end
%%EOF
