%!PS-Adobe-3.0 EPSF-3.0
%%Creator: cairo 1.16.0 (https://cairographics.org)
%%CreationDate: Tue Jan 28 07:31:32 2020
%%Pages: 1
%%DocumentData: Clean7Bit
%%LanguageLevel: 2
%%BoundingBox: 12 12 372 372
%%EndComments
%%BeginProlog
50 dict begin
/q { gsave } bind def
/Q { grestore } bind def
/cm { 6 array astore concat } bind def
/w { setlinewidth } bind def
/J { setlinecap } bind def
/j { setlinejoin } bind def
/M { setmiterlimit } bind def
/d { setdash } bind def
/m { moveto } bind def
/l { lineto } bind def
/c { curveto } bind def
/h { closepath } bind def
/re { exch dup neg 3 1 roll 5 3 roll moveto 0 rlineto
      0 exch rlineto 0 rlineto closepath } bind def
/S { stroke } bind def
/f { fill } bind def
/f* { eofill } bind def
/n { newpath } bind def
/W { clip } bind def
/W* { eoclip } bind def
/BT { } bind def
/ET { } bind def
/BDC { mark 3 1 roll /BDC pdfmark } bind def
/EMC { mark /EMC pdfmark } bind def
/cairo_store_point { /cairo_point_y exch def /cairo_point_x exch def } def
/Tj { show currentpoint cairo_store_point } bind def
/TJ {
  {
    dup
    type /stringtype eq
    { show } { -0.001 mul 0 cairo_font_matrix dtransform rmoveto } ifelse
  } forall
  currentpoint cairo_store_point
} bind def
/cairo_selectfont { cairo_font_matrix aload pop pop pop 0 0 6 array astore
    cairo_font exch selectfont cairo_point_x cairo_point_y moveto } bind def
/Tf { pop /cairo_font exch def /cairo_font_matrix where
      { pop cairo_selectfont } if } bind def
/Td { matrix translate cairo_font_matrix matrix concatmatrix dup
      /cairo_font_matrix exch def dup 4 get exch 5 get cairo_store_point
      /cairo_font where { pop cairo_selectfont } if } bind def
/Tm { 2 copy 8 2 roll 6 array astore /cairo_font_matrix exch def
      cairo_store_point /cairo_font where { pop cairo_selectfont } if } bind def
/g { setgray } bind def
/rg { setrgbcolor } bind def
/d1 { setcachedevice } bind def
/cairo_data_source {
  CairoDataIndex CairoData length lt
    { CairoData CairoDataIndex get /CairoDataIndex CairoDataIndex 1 add def }
    { () } ifelse
} def
/cairo_flush_ascii85_file { cairo_ascii85_file status { cairo_ascii85_file flushfile } if } def
/cairo_image { image cairo_flush_ascii85_file } def
/cairo_imagemask { imagemask cairo_flush_ascii85_file } def
%%EndProlog
%%BeginSetup
%%EndSetup
%%Page: 1 1
%%BeginPageSetup
%%PageBoundingBox: 12 12 372 372
%%EndPageSetup
q 12 12 360 360 rectclip
1 0 0 -1 0 384 cm q
0.952941 0.0823529 0.141176 rg
261.59 24 m 122.41 24 l 24 122.41 l 24 261.59 l 122.41 360 l 261.59 360
 l 360 261.59 l 360 122.41 l h
261.59 24 m f
1 0.231373 0.25098 rg
192 192 m 261.59 24 l 122.41 24 l h
192 192 m f
122.41 360 m 261.59 360 l 192 192 l h
122.41 360 m f
192 192 m 360 261.59 l 360 122.41 l h
192 192 m f
192 192 m 24 122.41 l 24 261.59 l h
192 192 m f
1 0.784314 0.0392157 rg
241.703 72 m 142.297 72 l 72 142.297 l 72 241.703 l 142.297 312 l 241.703
 312 l 312 241.703 l 312 142.297 l h
241.703 72 m f
1 0.901961 0.196078 rg
192 192 m 241.703 72 l 142.297 72 l h
192 192 m f
142.297 312 m 241.703 312 l 192 192 l h
142.297 312 m f
312 142.297 m 192 192 l 312 241.703 l h
312 142.297 m f
192 192 m 72 142.297 l 72 241.703 l h
192 192 m f
1 g
264 192 m 264 231.766 231.766 264 192 264 c 152.234 264 120 231.766 120
 192 c 120 152.234 152.234 120 192 120 c 211.094 120 229.41 127.586 242.91
 141.09 c 256.414 154.59 264 172.906 264 192 c h
264 192 m f
0.223529 g
192 120 m 172.117 120 156 136.117 156 156 c 156 175.883 172.117 192 192
 192 c 211.883 192 228 208.117 228 228 c 228 247.883 211.883 264 192 264
 c 231.766 264 264 231.766 264 192 c 264 152.234 231.766 120 192 120 c h
192 120 m f
0 g
266.555 12 m 117.445 12 l 12 117.445 l 12 266.555 l 117.445 372 l 266.555
 372 l 372 266.555 l 372 117.445 l h
314.82 128.137 m 255.863 69.18 l 265.801 45.18 l 338.82 118.199 l h
132 192 m 132.027 179.125 136.238 166.609 144 156.336 c 144.184 182.715
 165.621 204 192 204 c 205.254 204 216 214.746 216 228 c 216 241.254 205.254
 252 192 252 c 158.879 251.961 132.039 225.121 132 192 c h
240 227.664 m 239.816 201.285 218.379 180 192 180 c 178.746 180 168 169.254
 168 156 c 168 142.746 178.746 132 192 132 c 225.121 132.039 251.961 158.879
 252 192 c 251.973 204.875 247.762 217.391 240 227.664 c h
192 108 m 185.02 108.027 178.066 108.93 171.312 110.688 c 160.262 84 l 
223.738 84 l 212.688 110.688 l 205.934 108.93 198.98 108.027 192 108 c h
149.148 119.891 m 137.117 127.062 127.062 137.117 119.891 149.148 c 93.18
 138.086 l 138.086 93.18 l h
110.746 171.312 m 107.164 184.871 107.164 199.129 110.746 212.688 c 84 
223.738 l 84 160.262 l h
119.953 234.91 m 127.121 246.941 137.176 256.996 149.207 264.168 c 138.145
 290.879 l 93.18 245.914 l h
171.371 273.312 m 184.93 276.895 199.188 276.895 212.746 273.312 c 223.738
 300 l 160.262 300 l h
234.973 264.109 m 247.004 256.938 257.059 246.883 264.227 234.852 c 290.941
 245.914 l 246.035 290.82 l h
273.371 212.688 m 276.957 199.129 276.957 184.871 273.371 171.312 c 300
 160.262 l 300 223.738 l h
264.168 149.148 m 256.996 137.117 246.941 127.062 234.91 119.891 c 245.977
 93.18 l 290.879 138.086 l h
233.688 60 m 150.312 60 l 140.398 36 l 243.602 36 l h
128.09 69.18 m 69.18 128.137 l 45.18 118.199 l 118.199 45.18 l h
60 150.312 m 60 233.688 l 36 243.602 l 36 140.398 l h
69.18 255.91 m 128.137 314.867 l 118.199 338.867 l 45.18 265.801 l h
150.312 324 m 233.688 324 l 243.625 348 l 140.398 348 l h
255.91 314.82 m 314.867 255.863 l 338.867 265.801 l 265.801 338.82 l h
324 233.688 m 324 150.312 l 348 140.375 l 348 243.574 l h
324 233.688 m f
204 156 m 204 162.629 198.629 168 192 168 c 185.371 168 180 162.629 180
 156 c 180 149.371 185.371 144 192 144 c 198.629 144 204 149.371 204 156
 c h
204 156 m f
204 228 m 204 234.629 198.629 240 192 240 c 185.371 240 180 234.629 180
 228 c 180 221.371 185.371 216 192 216 c 198.629 216 204 221.371 204 228
 c h
204 228 m f
Q Q
showpage
%%Trailer
end
%%EOF
