%!PS-Adobe-3.0 EPSF-3.0
%%Creator: cairo 1.16.0 (https://cairographics.org)
%%CreationDate: Tue Jan 28 07:31:33 2020
%%Pages: 1
%%DocumentData: Clean7Bit
%%LanguageLevel: 2
%%BoundingBox: 48 12 336 373
%%EndComments
%%BeginProlog
50 dict begin
/q { gsave } bind def
/Q { grestore } bind def
/cm { 6 array astore concat } bind def
/w { setlinewidth } bind def
/J { setlinecap } bind def
/j { setlinejoin } bind def
/M { setmiterlimit } bind def
/d { setdash } bind def
/m { moveto } bind def
/l { lineto } bind def
/c { curveto } bind def
/h { closepath } bind def
/re { exch dup neg 3 1 roll 5 3 roll moveto 0 rlineto
      0 exch rlineto 0 rlineto closepath } bind def
/S { stroke } bind def
/f { fill } bind def
/f* { eofill } bind def
/n { newpath } bind def
/W { clip } bind def
/W* { eoclip } bind def
/BT { } bind def
/ET { } bind def
/BDC { mark 3 1 roll /BDC pdfmark } bind def
/EMC { mark /EMC pdfmark } bind def
/cairo_store_point { /cairo_point_y exch def /cairo_point_x exch def } def
/Tj { show currentpoint cairo_store_point } bind def
/TJ {
  {
    dup
    type /stringtype eq
    { show } { -0.001 mul 0 cairo_font_matrix dtransform rmoveto } ifelse
  } forall
  currentpoint cairo_store_point
} bind def
/cairo_selectfont { cairo_font_matrix aload pop pop pop 0 0 6 array astore
    cairo_font exch selectfont cairo_point_x cairo_point_y moveto } bind def
/Tf { pop /cairo_font exch def /cairo_font_matrix where
      { pop cairo_selectfont } if } bind def
/Td { matrix translate cairo_font_matrix matrix concatmatrix dup
      /cairo_font_matrix exch def dup 4 get exch 5 get cairo_store_point
      /cairo_font where { pop cairo_selectfont } if } bind def
/Tm { 2 copy 8 2 roll 6 array astore /cairo_font_matrix exch def
      cairo_store_point /cairo_font where { pop cairo_selectfont } if } bind def
/g { setgray } bind def
/rg { setrgbcolor } bind def
/d1 { setcachedevice } bind def
/cairo_data_source {
  CairoDataIndex CairoData length lt
    { CairoData CairoDataIndex get /CairoDataIndex CairoDataIndex 1 add def }
    { () } ifelse
} def
/cairo_flush_ascii85_file { cairo_ascii85_file status { cairo_ascii85_file flushfile } if } def
/cairo_image { image cairo_flush_ascii85_file } def
/cairo_imagemask { imagemask cairo_flush_ascii85_file } def
%%EndProlog
%%BeginSetup
%%EndSetup
%%Page: 1 1
%%BeginPageSetup
%%PageBoundingBox: 48 12 336 373
%%EndPageSetup
q 48 12 288 361 rectclip
1 0 0 -1 0 384 cm q
1 0.231373 0.25098 rg
231.133 96.312 m 192 84 l 152.867 96.312 l 104.617 123.996 60 194.617 60
 252 c 60 324.898 119.102 360 192 360 c 264.898 360 324 324.898 324 252 
c 324 194.617 279.383 123.996 231.133 96.312 c h
231.133 96.312 m f
1 0.901961 0.196078 rg
242.914 290.914 m 263.504 270.324 269.664 239.355 258.52 212.453 c 247.375
 185.551 221.121 168.008 192 168.008 c 162.879 168.008 136.625 185.551 125.48
 212.453 c 114.336 239.355 120.496 270.324 141.086 290.914 c 154.586 304.422
 172.902 312.008 192 312.008 c 211.098 312.008 229.414 304.422 242.914 290.914
 c h
158.062 240 m 192 206.062 l 225.938 240 l 192 273.938 l h
158.062 240 m f
1 0.411765 0.439216 rg
84 276 m 84 228.59 114.469 172.129 152.27 138.324 c 165.852 125.891 169.121
 105.754 160.164 89.664 c 155.988 82.078 155.77 72.934 159.574 65.156 c 
163.383 57.383 170.738 51.945 179.293 50.594 c 191.445 48.82 203.715 47.953
 216 48 c 229.312 47.945 242.605 49.004 255.742 51.156 c 264 36 l 241.117
 26.961 216.578 22.871 192 24 c 167.422 22.871 142.883 26.961 120 36 c 152.867
 96.312 l 104.617 123.996 60 194.617 60 252 c 58.688 284.883 74.207 316.176
 101.184 335.027 c 89.504 317.598 83.5 296.977 84 276 c h
84 276 m f
1 0.231373 0.25098 rg
120 36 m 152.867 96.312 l 231.133 96.312 l 264 36 l 241.117 26.961 216.578
 22.871 192 24 c 167.422 22.871 142.883 26.961 120 36 c h
120 36 m f
179.293 50.594 m 191.445 48.82 203.715 47.953 216 48 c 229.312 47.945 242.605
 49.004 255.742 51.156 c 264 36 l 241.117 26.961 216.578 22.871 192 24 c
 167.422 22.871 142.883 26.961 120 36 c 152.867 96.312 l 163.02 96.312 l
 162.27 94.016 161.312 91.789 160.164 89.664 c 155.988 82.078 155.77 72.934
 159.574 65.156 c 163.383 57.383 170.738 51.945 179.293 50.594 c h
179.293 50.594 m f
0 g
247.043 92.184 m 280.488 30.828 l 269.363 25.262 l 244.816 15.375 218.438
 10.855 192 12 c 165.562 10.852 139.184 15.375 114.637 25.262 c 103.512 
30.828 l 136.957 92.184 l 87.816 126.109 48 196.441 48 252 c 48 324.898 
104.52 372 192 372 c 279.48 372 336 324.898 336 252 c 336 196.441 296.184
 126.109 247.043 92.184 c h
192 36 m 210.457 35.742 228.867 37.973 246.73 42.625 c 224.004 84.312 l
 159.996 84.312 l 137.27 42.625 l 155.133 37.965 173.543 35.738 192 36 c
 h
192 348 m 133.992 348 72 322.801 72 252 c 72 202.152 111.023 135.898 156.156
 108.312 c 227.844 108.312 l 272.977 135.898 312 202.152 312 252 c 312 322.801
 250.008 348 192 348 c h
192 348 m f
141.098 240 m 192 290.914 l 242.902 240 l 192 189.086 l h
192 256.969 m 175.031 240 l 192 223.031 l 208.969 240 l h
192 256.969 m f
192 156 m 151.926 155.996 117.43 184.305 109.609 223.609 c 101.789 262.914
 122.824 302.27 159.848 317.605 c 196.871 332.941 239.574 319.988 261.84
 286.668 c 284.102 253.344 279.727 208.938 251.387 180.602 c 235.672 164.797
 214.289 155.938 192 156 c h
234.422 282.434 m 214.176 302.668 182.457 305.789 158.66 289.883 c 134.863
 273.977 125.613 243.477 136.57 217.035 c 147.523 190.59 175.637 175.566
 203.707 181.152 c 231.781 186.738 252 211.375 252 240 c 252.043 255.926
 245.715 271.203 234.422 282.434 c h
234.422 282.434 m f
Q Q
showpage
%%Trailer
end
%%EOF
