%!PS-Adobe-3.0 EPSF-3.0
%%Creator: cairo 1.16.0 (https://cairographics.org)
%%CreationDate: Tue Jan 28 07:31:36 2020
%%Pages: 1
%%DocumentData: Clean7Bit
%%LanguageLevel: 2
%%BoundingBox: 24 12 360 372
%%EndComments
%%BeginProlog
50 dict begin
/q { gsave } bind def
/Q { grestore } bind def
/cm { 6 array astore concat } bind def
/w { setlinewidth } bind def
/J { setlinecap } bind def
/j { setlinejoin } bind def
/M { setmiterlimit } bind def
/d { setdash } bind def
/m { moveto } bind def
/l { lineto } bind def
/c { curveto } bind def
/h { closepath } bind def
/re { exch dup neg 3 1 roll 5 3 roll moveto 0 rlineto
      0 exch rlineto 0 rlineto closepath } bind def
/S { stroke } bind def
/f { fill } bind def
/f* { eofill } bind def
/n { newpath } bind def
/W { clip } bind def
/W* { eoclip } bind def
/BT { } bind def
/ET { } bind def
/BDC { mark 3 1 roll /BDC pdfmark } bind def
/EMC { mark /EMC pdfmark } bind def
/cairo_store_point { /cairo_point_y exch def /cairo_point_x exch def } def
/Tj { show currentpoint cairo_store_point } bind def
/TJ {
  {
    dup
    type /stringtype eq
    { show } { -0.001 mul 0 cairo_font_matrix dtransform rmoveto } ifelse
  } forall
  currentpoint cairo_store_point
} bind def
/cairo_selectfont { cairo_font_matrix aload pop pop pop 0 0 6 array astore
    cairo_font exch selectfont cairo_point_x cairo_point_y moveto } bind def
/Tf { pop /cairo_font exch def /cairo_font_matrix where
      { pop cairo_selectfont } if } bind def
/Td { matrix translate cairo_font_matrix matrix concatmatrix dup
      /cairo_font_matrix exch def dup 4 get exch 5 get cairo_store_point
      /cairo_font where { pop cairo_selectfont } if } bind def
/Tm { 2 copy 8 2 roll 6 array astore /cairo_font_matrix exch def
      cairo_store_point /cairo_font where { pop cairo_selectfont } if } bind def
/g { setgray } bind def
/rg { setrgbcolor } bind def
/d1 { setcachedevice } bind def
/cairo_data_source {
  CairoDataIndex CairoData length lt
    { CairoData CairoDataIndex get /CairoDataIndex CairoDataIndex 1 add def }
    { () } ifelse
} def
/cairo_flush_ascii85_file { cairo_ascii85_file status { cairo_ascii85_file flushfile } if } def
/cairo_image { image cairo_flush_ascii85_file } def
/cairo_imagemask { imagemask cairo_flush_ascii85_file } def
%%EndProlog
%%BeginSetup
%%EndSetup
%%Page: 1 1
%%BeginPageSetup
%%PageBoundingBox: 24 12 360 372
%%EndPageSetup
q 24 12 336 360 rectclip
1 0 0 -1 0 384 cm q
1 0.231373 0.25098 rg
275.902 180 m 192 156 l 108.098 180 l 86.805 192.723 73.262 215.23 72 240
 c 72 286.391 125.723 324 192 324 c 258.277 324 312 286.391 312 240 c 310.738
 215.23 297.195 192.723 275.902 180 c h
275.902 180 m f
275.902 180 m 192 156 l 108.098 180 l 86.805 192.723 73.262 215.23 72 240
 c 72 286.391 125.723 324 192 324 c 258.277 324 312 286.391 312 240 c 310.738
 215.23 297.195 192.723 275.902 180 c h
275.902 180 m f
96 132 m 108.098 180 l 275.902 180 l 288 132 l h
96 132 m f
1 0.411765 0.439216 rg
299.902 204 m 300.168 204.18 300.406 204.395 300.672 204.574 c 300.457 
204.254 300.215 203.941 300 203.617 c h
299.902 204 m f
0.952941 0.0823529 0.141176 rg
102.047 156 m 108.098 180 l 275.902 180 l 281.953 156 l h
102.047 156 m f
0 g
336 180 m 336 192 l 306.457 192 l 301.461 185.766 295.762 180.129 289.477
 175.199 c 303.395 120 l 264 120 l 264 12 l 240 12 l 240 120 l 204 120 l
 204 12 l 180 12 l 180 120 l 144 120 l 144 12 l 120 12 l 120 120 l 80.605
 120 l 94.523 175.199 l 88.238 180.129 82.539 185.766 77.543 192 c 48 192
 l 48 180 l 24 180 l 24 228 l 48 228 l 48 216 l 64.246 216 l 61.488 223.703
 60.055 231.816 60 240 c 60 270.492 79.703 297.602 110.27 315.238 c 99.348
 348 l 72 348 l 72 372 l 144 372 l 144 348 l 124.645 348 l 132.168 325.465
 l 170.82 339.508 213.18 339.508 251.832 325.465 c 259.355 348 l 240 348
 l 240 372 l 312 372 l 312 348 l 284.652 348 l 273.73 315.238 l 304.297 
297.602 324 270.492 324 240 c 323.945 231.816 322.512 223.703 319.754 216
 c 336 216 l 336 228 l 360 228 l 360 180 l h
272.605 144 m 266.605 168 l 117.445 168 l 111.445 144 l h
192 312 m 132.457 312 84 279.707 84 240 c 85.039 220.438 95.434 202.574
 111.926 192 c 272.074 192 l 288.566 202.574 298.961 220.438 300 240 c 300
 279.707 251.543 312 192 312 c h
192 312 m f
Q Q
showpage
%%Trailer
end
%%EOF
