%!PS-Adobe-3.0 EPSF-3.0
%%Creator: cairo 1.16.0 (https://cairographics.org)
%%CreationDate: Tue Jan 28 07:31:37 2020
%%Pages: 1
%%DocumentData: Clean7Bit
%%LanguageLevel: 2
%%BoundingBox: 0 0 384 384
%%EndComments
%%BeginProlog
50 dict begin
/q { gsave } bind def
/Q { grestore } bind def
/cm { 6 array astore concat } bind def
/w { setlinewidth } bind def
/J { setlinecap } bind def
/j { setlinejoin } bind def
/M { setmiterlimit } bind def
/d { setdash } bind def
/m { moveto } bind def
/l { lineto } bind def
/c { curveto } bind def
/h { closepath } bind def
/re { exch dup neg 3 1 roll 5 3 roll moveto 0 rlineto
      0 exch rlineto 0 rlineto closepath } bind def
/S { stroke } bind def
/f { fill } bind def
/f* { eofill } bind def
/n { newpath } bind def
/W { clip } bind def
/W* { eoclip } bind def
/BT { } bind def
/ET { } bind def
/BDC { mark 3 1 roll /BDC pdfmark } bind def
/EMC { mark /EMC pdfmark } bind def
/cairo_store_point { /cairo_point_y exch def /cairo_point_x exch def } def
/Tj { show currentpoint cairo_store_point } bind def
/TJ {
  {
    dup
    type /stringtype eq
    { show } { -0.001 mul 0 cairo_font_matrix dtransform rmoveto } ifelse
  } forall
  currentpoint cairo_store_point
} bind def
/cairo_selectfont { cairo_font_matrix aload pop pop pop 0 0 6 array astore
    cairo_font exch selectfont cairo_point_x cairo_point_y moveto } bind def
/Tf { pop /cairo_font exch def /cairo_font_matrix where
      { pop cairo_selectfont } if } bind def
/Td { matrix translate cairo_font_matrix matrix concatmatrix dup
      /cairo_font_matrix exch def dup 4 get exch 5 get cairo_store_point
      /cairo_font where { pop cairo_selectfont } if } bind def
/Tm { 2 copy 8 2 roll 6 array astore /cairo_font_matrix exch def
      cairo_store_point /cairo_font where { pop cairo_selectfont } if } bind def
/g { setgray } bind def
/rg { setrgbcolor } bind def
/d1 { setcachedevice } bind def
/cairo_data_source {
  CairoDataIndex CairoData length lt
    { CairoData CairoDataIndex get /CairoDataIndex CairoDataIndex 1 add def }
    { () } ifelse
} def
/cairo_flush_ascii85_file { cairo_ascii85_file status { cairo_ascii85_file flushfile } if } def
/cairo_image { image cairo_flush_ascii85_file } def
/cairo_imagemask { imagemask cairo_flush_ascii85_file } def
%%EndProlog
%%BeginSetup
%%EndSetup
%%Page: 1 1
%%BeginPageSetup
%%PageBoundingBox: 0 0 384 384
%%EndPageSetup
q 0 0 384 384 rectclip
1 0 0 -1 0 384 cm q
1 0.231373 0.25098 rg
48 216 m 336 216 l 336 276 l 336 329.02 293.02 372 240 372 c 144 372 l 
90.98 372 48 329.02 48 276 c h
48 216 m f
0.952941 0.0823529 0.141176 rg
226.703 305.879 m 204.199 298.23 179.801 298.23 157.297 305.879 c 145.023
 309.973 132.168 312.039 119.23 312 c 93.77 312.348 68.953 303.992 48.887
 288.312 c 51.426 308.055 60.066 326.512 73.598 341.113 c 104.668 350.672
 137.949 350.285 168.793 340.008 c 183.844 334.871 200.172 334.871 215.219
 340.008 c 246.059 350.289 279.336 350.676 310.402 341.113 c 323.934 326.512
 332.574 308.055 335.113 288.312 c 315.047 303.992 290.23 312.348 264.77
 312 c 251.832 312.039 238.977 309.973 226.703 305.879 c h
226.703 305.879 m f
1 0.231373 0.25098 rg
36 264 m 36 204 l 36 117.844 105.844 48 192 48 c 278.156 48 348 117.844
 348 204 c 348 264 l h
36 264 m f
0.952941 0.0823529 0.141176 rg
141.602 72.719 m 152.449 90.082 171.48 100.629 191.953 100.629 c 212.426
 100.629 231.453 90.082 242.305 72.719 c 250.297 60 l 249.793 59.184 l 212.707
 44.273 171.293 44.273 134.207 59.184 c 133.703 60 l h
141.602 72.719 m f
1 0.784314 0.0392157 rg
222 60 m 215.531 70.34 204.195 76.617 192 76.617 c 179.805 76.617 168.469
 70.34 162 60 c 192 12 l h
222 60 m f
1 g
348 180 m 348 213.137 321.137 240 288 240 c 254.863 240 228 213.137 228
 180 c 228 146.863 254.863 120 288 120 c 321.137 120 348 146.863 348 180
 c h
348 180 m f
0.823529 g
228 180 m 227.945 154.227 244.41 131.312 268.855 123.141 c 293.301 114.969
 320.23 123.375 335.688 144 c 335.508 144 335.34 144 335.172 144 c 302.988
 143.969 274.41 164.566 264.266 195.109 c 253.094 228.625 l 237.363 217.422
 228.02 199.309 228 180 c h
228 180 m f
1 g
156 180 m 156 213.137 129.137 240 96 240 c 62.863 240 36 213.137 36 180
 c 36 146.863 62.863 120 96 120 c 129.137 120 156 146.863 156 180 c h
156 180 m f
0.823529 g
156 180 m 156.055 154.227 139.59 131.312 115.145 123.141 c 90.699 114.969
 63.77 123.375 48.312 144 c 48.492 144 48.66 144 48.828 144 c 81.012 143.969
 109.59 164.566 119.734 195.109 c 130.906 228.625 l 146.637 217.422 155.98
 199.309 156 180 c h
156 180 m f
0.901961 g
228 228 m 241.488 187.523 l 254.93 147.199 292.664 120 335.172 120 c 355.512
 120 372 103.512 372 83.172 c 372.004 71.828 366.777 61.117 357.836 54.137
 c 348.895 47.152 337.238 44.684 326.23 47.438 c 309.816 51.602 l 259.289
 64.23 219.52 103.16 205.812 153.406 c 192 204 l f
228 228 m 241.488 187.523 l 254.93 147.199 292.664 120 335.172 120 c 355.512
 120 372 103.512 372 83.172 c 372.004 71.828 366.777 61.117 357.836 54.137
 c 348.895 47.152 337.238 44.684 326.23 47.438 c 309.816 51.602 l 259.289
 64.23 219.52 103.16 205.812 153.406 c 192 204 l f
156 228 m 142.512 187.523 l 129.07 147.199 91.336 120 48.828 120 c 28.488
 120 12 103.512 12 83.172 c 11.996 71.828 17.223 61.117 26.164 54.137 c 
35.105 47.152 46.762 44.684 57.77 47.438 c 74.184 51.602 l 124.711 64.23
 164.48 103.16 178.188 153.406 c 192 204 l f
1 g
33.758 71.438 m 50.184 75.602 l 100.715 88.234 140.484 127.168 154.188 
177.422 c 166.188 221.293 l 192 204 l 178.188 153.359 l 164.469 103.133 
124.699 64.223 74.184 51.602 c 57.758 47.438 l 38.867 42.754 19.605 53.625
 13.848 72.215 c 20.281 70.102 27.176 69.832 33.758 71.438 c h
33.758 71.438 m f
350.242 71.438 m 333.816 75.602 l 283.285 88.234 243.516 127.168 229.812
 177.422 c 217.812 221.293 l 192 204 l 205.812 153.359 l 219.531 103.133
 259.301 64.223 309.816 51.602 c 326.242 47.484 l 345.133 42.805 364.395
 53.672 370.152 72.266 c 363.723 70.133 356.828 69.848 350.242 71.438 c 
h
350.242 71.438 m f
0.352941 g
300 180 m 300 186.629 294.629 192 288 192 c 281.371 192 276 186.629 276
 180 c 276 173.371 281.371 168 288 168 c 294.629 168 300 173.371 300 180
 c h
300 180 m f
108 180 m 108 186.629 102.629 192 96 192 c 89.371 192 84 186.629 84 180
 c 84 173.371 89.371 168 96 168 c 102.629 168 108 173.371 108 180 c h
108 180 m f
1 0.784314 0.0392157 rg
228 228 m 228 247.883 211.883 264 192 264 c 172.117 264 156 247.883 156
 228 c 156 208.117 172.117 192 192 192 c 211.883 192 228 208.117 228 228
 c h
228 228 m f
1 g
264.77 324 m 250.531 324.043 236.383 321.766 222.875 317.258 c 202.855 
310.445 181.145 310.445 161.125 317.258 c 147.617 321.766 133.469 324.043
 119.23 324 c 71.305 324 28.922 298.668 13.738 260.965 c 8.793 248.668 14.75
 234.688 27.047 229.738 c 39.344 224.793 53.324 230.75 58.273 243.047 c 
66.086 262.453 91.199 276 119.23 276 c 128.262 276.035 137.242 274.598 145.812
 271.754 c 175.773 261.578 208.254 261.578 238.211 271.754 c 246.777 274.598
 255.746 276.031 264.77 276 c 292.859 276 317.914 262.441 325.727 243.035
 c 330.676 230.738 344.656 224.781 356.953 229.727 c 369.25 234.676 375.207
 248.656 370.262 260.953 c 355.078 298.668 312.695 324 264.77 324 c h
264.77 324 m f
1 0.901961 0.196078 rg
204 228 m 204 234.629 198.629 240 192 240 c 185.371 240 180 234.629 180
 228 c 180 221.371 185.371 216 192 216 c 198.629 216 204 221.371 204 228
 c h
204 228 m f
0 g
361.453 218.617 m 360.973 218.426 360.48 218.363 360 218.195 c 360 204 
l 360 199.199 359.676 194.398 359.281 189.602 c 359.73 186.418 359.973 183.211
 360 180 c 359.938 161.973 353.082 144.633 340.801 131.438 c 354.199 129.902
 366.363 122.887 374.395 112.051 c 382.43 101.219 385.613 87.543 383.188
 74.277 c 380.766 61.012 372.949 49.34 361.605 42.051 c 350.262 34.758 336.402
 32.492 323.328 35.797 c 306.898 39.898 l 293.637 43.234 280.875 48.297 
268.934 54.961 c 254.516 47.488 239.086 42.164 223.129 39.156 c 202.176 
5.641 l 199.84 2.32 196.035 0.344 191.977 0.344 c 187.918 0.344 184.109 
2.32 181.777 5.641 c 160.895 39.121 l 144.895 42.105 129.414 47.426 114.961
 54.91 c 103.051 48.27 90.324 43.223 77.102 39.898 c 60.672 35.797 l 47.598
 32.492 33.738 34.758 22.395 42.051 c 11.051 49.34 3.234 61.012 0.812 74.277
 c -1.613 87.543 1.57 101.219 9.605 112.051 c 17.637 122.887 29.801 129.902
 43.199 131.438 c 30.918 144.633 24.062 161.973 24 180 c 24.027 183.211 
24.27 186.418 24.719 189.602 c 24.324 194.398 24 199.199 24 204 c 24 218.195
 l 23.531 218.363 23.027 218.426 22.559 218.617 c 4.137 226.039 -4.793 246.98
 2.605 265.414 c 10.879 285.098 24.898 301.824 42.828 313.414 c 58.383 355.855
 98.801 384.055 144 384 c 240 384 l 285.184 384.066 325.594 355.898 341.172
 313.488 c 359.102 301.898 373.121 285.168 381.395 265.488 c 384.973 256.629
 384.879 246.711 381.141 237.918 c 377.398 229.125 370.316 222.184 361.453
 218.617 c h
76.441 136.547 m 102.27 145.184 122.527 165.473 131.125 191.316 c 135.984
 205.922 l 127.301 219.621 112.223 227.949 96 228 c 73.387 228.102 53.797
 212.336 49.066 190.219 c 44.34 168.105 55.762 145.703 76.441 136.547 c 
h
192 204 m 201.707 204 210.457 209.848 214.172 218.816 c 217.887 227.785
 215.836 238.105 208.969 244.969 c 202.105 251.836 191.785 253.887 182.816
 250.172 c 173.848 246.457 168 237.707 168 228 c 168 214.746 178.746 204
 192 204 c h
307.559 136.547 m 321.395 142.648 331.52 154.938 334.867 169.68 c 338.211
 184.426 334.379 199.883 324.531 211.355 c 314.684 222.828 299.988 228.957
 284.906 227.887 c 269.824 226.816 256.145 218.668 248.016 205.922 c 252.875
 191.316 l 261.473 165.473 281.73 145.184 307.559 136.547 c h
96 252 m 114.008 251.969 131.336 245.109 144.48 232.801 c 145.332 241.559
 148.602 249.91 153.926 256.922 c 149.93 257.93 145.934 259.078 141.984 
260.41 c 134.629 262.844 126.93 264.062 119.184 264.012 c 103.91 264.391
 89.016 259.223 77.258 249.469 c 83.363 251.137 89.668 251.988 96 252 c 
h
239.52 232.801 m 257.465 249.727 282.945 256.051 306.719 249.48 c 294.953
 259.234 280.047 264.391 264.77 264 c 257.023 264.051 249.32 262.832 241.969
 260.398 c 238.008 259.066 234.023 257.914 229.969 256.906 c 235.328 249.914
 238.637 241.566 239.52 232.801 c h
312.719 63.215 m 329.137 59.102 l 336.043 57.355 343.363 58.66 349.242 
62.684 c 355.117 66.707 358.984 73.062 359.855 80.129 c 360.73 87.199 358.523
 94.301 353.801 99.633 c 349.078 104.965 342.293 108.012 335.172 108 c 287.492
 107.957 245.148 138.473 230.113 183.719 c 226.512 194.711 l 221.844 189.898
 216.219 186.113 210 183.602 c 217.379 156.539 l 229.961 110.48 266.414 
74.789 312.73 63.191 c h
192 34.645 m 207.254 59.027 l 198.367 66.25 185.633 66.25 176.746 59.027
 c h
151.645 66 m 151.715 66.133 151.738 66.277 151.824 66.406 c 160.477 80.281
 175.672 88.715 192.023 88.715 c 208.375 88.715 223.57 80.281 232.223 66.406
 c 232.297 66.289 232.32 66.168 232.379 66.047 c 237.047 67.41 241.641 69.012
 246.145 70.848 c 221.023 91.281 202.895 119.039 194.281 150.254 c 192 158.398
 l 189.77 150.215 l 181.133 118.988 162.98 91.23 137.832 70.801 c 142.352
 68.965 146.961 67.363 151.645 66 c h
24 83.172 m 23.996 75.523 27.52 68.301 33.547 63.594 c 39.574 58.887 47.434
 57.219 54.852 59.074 c 71.27 63.191 l 117.574 74.789 154.023 110.469 166.609
 156.516 c 174 183.602 l 167.805 186.129 162.207 189.922 157.559 194.734
 c 153.961 183.742 l 138.922 138.461 96.543 107.93 48.828 108 c 35.121 107.988
 24.012 96.879 24 83.172 c h
240 360 m 144 360 l 119.602 359.977 96.43 349.285 80.578 330.73 c 108.293
 338.414 137.668 337.68 164.965 328.621 c 182.5 322.656 201.512 322.656 
219.047 328.621 c 246.34 337.68 275.711 338.414 303.422 330.73 c 287.57 
349.285 264.398 359.977 240 360 c h
359.125 256.488 m 345.758 289.691 307.836 312 264.77 312 c 251.832 312.039
 238.977 309.973 226.703 305.879 c 204.199 298.23 179.801 298.23 157.297
 305.879 c 145.023 309.973 132.168 312.039 119.23 312 c 76.164 312 38.242
 289.691 24.875 256.5 c 22.41 250.352 25.391 243.371 31.535 240.898 c 34.477
 239.691 37.785 239.723 40.703 240.984 c 43.641 242.227 45.957 244.598 47.137
 247.559 c 56.879 271.738 85.848 288 119.23 288 c 129.562 288.059 139.832
 286.438 149.641 283.199 c 177.109 273.871 206.891 273.871 234.359 283.199
 c 244.168 286.438 254.438 288.059 264.77 288 c 298.152 288 327.168 271.738
 336.863 247.535 c 337.996 244.508 340.305 242.062 343.262 240.758 c 346.223
 239.453 349.582 239.395 352.582 240.602 c 355.582 241.809 357.969 244.176
 359.199 247.168 c 360.434 250.156 360.406 253.52 359.125 256.488 c h
359.125 256.488 m f
108 180 m 108 186.629 102.629 192 96 192 c 89.371 192 84 186.629 84 180
 c 84 173.371 89.371 168 96 168 c 102.629 168 108 173.371 108 180 c h
108 180 m f
300 180 m 300 186.629 294.629 192 288 192 c 281.371 192 276 186.629 276
 180 c 276 173.371 281.371 168 288 168 c 294.629 168 300 173.371 300 180
 c h
300 180 m f
Q Q
showpage
%%Trailer
end
%%EOF
