%!PS-Adobe-3.0 EPSF-3.0
%%Creator: cairo 1.16.0 (https://cairographics.org)
%%CreationDate: Tue Jan 28 07:31:38 2020
%%Pages: 1
%%DocumentData: Clean7Bit
%%LanguageLevel: 2
%%BoundingBox: 12 12 373 372
%%EndComments
%%BeginProlog
50 dict begin
/q { gsave } bind def
/Q { grestore } bind def
/cm { 6 array astore concat } bind def
/w { setlinewidth } bind def
/J { setlinecap } bind def
/j { setlinejoin } bind def
/M { setmiterlimit } bind def
/d { setdash } bind def
/m { moveto } bind def
/l { lineto } bind def
/c { curveto } bind def
/h { closepath } bind def
/re { exch dup neg 3 1 roll 5 3 roll moveto 0 rlineto
      0 exch rlineto 0 rlineto closepath } bind def
/S { stroke } bind def
/f { fill } bind def
/f* { eofill } bind def
/n { newpath } bind def
/W { clip } bind def
/W* { eoclip } bind def
/BT { } bind def
/ET { } bind def
/BDC { mark 3 1 roll /BDC pdfmark } bind def
/EMC { mark /EMC pdfmark } bind def
/cairo_store_point { /cairo_point_y exch def /cairo_point_x exch def } def
/Tj { show currentpoint cairo_store_point } bind def
/TJ {
  {
    dup
    type /stringtype eq
    { show } { -0.001 mul 0 cairo_font_matrix dtransform rmoveto } ifelse
  } forall
  currentpoint cairo_store_point
} bind def
/cairo_selectfont { cairo_font_matrix aload pop pop pop 0 0 6 array astore
    cairo_font exch selectfont cairo_point_x cairo_point_y moveto } bind def
/Tf { pop /cairo_font exch def /cairo_font_matrix where
      { pop cairo_selectfont } if } bind def
/Td { matrix translate cairo_font_matrix matrix concatmatrix dup
      /cairo_font_matrix exch def dup 4 get exch 5 get cairo_store_point
      /cairo_font where { pop cairo_selectfont } if } bind def
/Tm { 2 copy 8 2 roll 6 array astore /cairo_font_matrix exch def
      cairo_store_point /cairo_font where { pop cairo_selectfont } if } bind def
/g { setgray } bind def
/rg { setrgbcolor } bind def
/d1 { setcachedevice } bind def
/cairo_data_source {
  CairoDataIndex CairoData length lt
    { CairoData CairoDataIndex get /CairoDataIndex CairoDataIndex 1 add def }
    { () } ifelse
} def
/cairo_flush_ascii85_file { cairo_ascii85_file status { cairo_ascii85_file flushfile } if } def
/cairo_image { image cairo_flush_ascii85_file } def
/cairo_imagemask { imagemask cairo_flush_ascii85_file } def
%%EndProlog
%%BeginSetup
%%EndSetup
%%Page: 1 1
%%BeginPageSetup
%%PageBoundingBox: 12 12 373 372
%%EndPageSetup
q 12 12 361 360 rectclip
1 0 0 -1 0 384 cm q
1 0.705882 0.0392157 rg
192 204 m 192 237.137 165.137 264 132 264 c 98.863 264 72 237.137 72 204
 c 72 170.863 98.863 144 132 144 c 147.914 144 163.176 150.32 174.426 161.574
 c 185.68 172.824 192 188.086 192 204 c h
192 204 m f
312 204 m 312 237.137 285.137 264 252 264 c 218.863 264 192 237.137 192
 204 c 192 170.863 218.863 144 252 144 c 285.137 144 312 170.863 312 204
 c h
312 204 m f
1 0.635294 0 rg
192 204 m 191.98 171.355 165.836 144.734 133.199 144.121 c 117.09 159.879
 108.012 181.465 108.012 204 c 108.012 226.535 117.09 248.121 133.199 263.879
 c 165.836 263.266 191.98 236.645 192 204 c h
192 204 m f
276 204 m 276 181.461 266.914 159.875 250.801 144.121 c 218.195 144.773
 192.105 171.391 192.105 204 c 192.105 236.609 218.195 263.227 250.801 263.879
 c 266.914 248.125 276 226.539 276 204 c h
276 204 m f
1 0.705882 0.0392157 rg
252 204 m 252 237.137 225.137 264 192 264 c 158.863 264 132 237.137 132
 204 c 132 170.863 158.863 144 192 144 c 207.914 144 223.176 150.32 234.426
 161.574 c 245.68 172.824 252 188.086 252 204 c h
252 204 m f
1 0.784314 0.0392157 rg
156 228 m 156 194.863 182.863 168 216 168 c 225.98 168.066 235.781 170.645
 244.5 175.5 c 235.543 158.844 219.238 147.406 200.527 144.652 c 181.816
 141.902 162.906 148.16 149.535 161.535 c 136.16 174.906 129.902 193.816
 132.652 212.527 c 135.406 231.238 146.844 247.543 163.5 256.5 c 158.645
 247.781 156.066 237.98 156 228 c h
156 228 m f
0.752941 0.513726 0.25098 rg
240 372 m 144 372 l 106.918 371.961 71.555 356.34 46.555 328.953 c 21.551
 301.566 9.211 264.934 12.539 228 c 371.461 228 l 374.789 264.934 362.449
 301.566 337.445 328.953 c 312.445 356.34 277.082 371.961 240 372 c h
240 372 m f
0.701961 0.45098 0.211765 rg
371.473 228 m 335.293 228 l 329.059 295.891 272.176 347.883 204 348 c 108
 348 l 89.477 348.016 71.16 344.113 54.254 336.551 c 78.59 359.324 110.672
 371.992 144 372 c 240 372 l 277.086 371.961 312.445 356.34 337.449 328.953
 c 362.453 301.566 374.801 264.934 371.473 228 c h
371.473 228 m f
1 0.901961 0.196078 rg
156.012 300 m 192.012 263.996 l 228.016 300 l 192.012 336.004 l h
156.012 300 m f
1 0.231373 0.25098 rg
216 12 m 207.113 12.031 198.559 15.367 192 21.359 c 183.199 13.363 171.02
 10.227 159.453 12.977 c 147.887 15.73 138.426 24.016 134.168 35.121 c 129.914
 46.223 131.418 58.711 138.184 68.488 c 144.953 78.266 156.109 84.07 168
 84 c 216 84 l 235.883 84 252 67.883 252 48 c 252 28.117 235.883 12 216 
12 c h
156 48 m 156 41.371 161.371 36 168 36 c 174.629 36 180 41.371 180 48 c 
180 60 l 168 60 l 161.371 60 156 54.629 156 48 c h
216 60 m 204 60 l 204 48 l 204 43.145 206.922 38.77 211.406 36.914 c 215.891
 35.055 221.055 36.082 224.484 39.516 c 227.918 42.945 228.945 48.109 227.086
 52.594 c 225.23 57.078 220.855 60 216 60 c h
216 60 m f
0 g
245.762 68.207 m 256.074 53.18 253.492 32.809 239.75 20.836 c 226.008 8.859
 205.473 9.086 192 21.359 c 178.504 9.281 158.125 9.141 144.465 21.031 c
 130.805 32.926 128.133 53.129 138.238 68.16 c 63.168 91.754 12.07 161.309
 12 240 c 12.086 312.867 71.133 371.914 144 372 c 240 372 l 312.867 371.914
 371.914 312.867 372 240 c 371.902 161.328 320.812 91.801 245.762 68.207
 c h
216 36 m 222.629 36 228 41.371 228 48 c 228 54.629 222.629 60 216 60 c 
204 60 l 204 48 l 204 41.371 209.371 36 216 36 c h
168 36 m 174.629 36 180 41.371 180 48 c 180 60 l 168 60 l 161.371 60 156
 54.629 156 48 c 156 41.371 161.371 36 168 36 c h
192 84 m 273.465 84.102 341.172 146.785 347.543 228 c 319.68 228 l 322.508
 220.312 323.969 212.191 324 204 c 323.961 164.25 291.75 132.039 252 132
 c 241.719 132.047 231.574 134.359 222.289 138.77 c 203.105 129.746 180.895
 129.746 161.711 138.77 c 152.426 134.359 142.281 132.047 132 132 c 92.25
 132.039 60.039 164.25 60 204 c 60.031 212.191 61.492 220.312 64.32 228 
c 36.457 228 l 42.82 146.781 110.535 84.094 192 84 c h
259.68 228 m 262.508 220.312 263.969 212.191 264 204 c 264 186.457 257.555
 169.523 245.891 156.422 c 247.918 156.141 249.957 156 252 156 c 278.508
 156 300 177.492 300 204 c 299.945 212.465 297.598 220.758 293.207 228 c
 h
150.793 228 m 146.402 220.758 144.055 212.465 144 204 c 144 177.492 165.492
 156 192 156 c 218.508 156 240 177.492 240 204 c 239.945 212.465 237.598
 220.758 233.207 228 c h
90.793 228 m 86.402 220.758 84.055 212.465 84 204 c 84 177.492 105.492 
156 132 156 c 134.043 156 136.082 156.141 138.109 156.422 c 126.445 169.523
 120 186.457 120 204 c 120.031 212.191 121.492 220.312 124.32 228 c h
240 348 m 144 348 l 89.035 347.922 42.875 306.617 36.707 252 c 347.293 
252 l 341.129 306.621 294.969 347.926 240 348 c h
240 348 m f
192 340.969 m 151.031 300 l 192 259.031 l 232.969 300 l h
184.969 300 m 192 307.031 l 199.031 300 l 192 292.969 l h
184.969 300 m f
Q Q
showpage
%%Trailer
end
%%EOF
