%!PS-Adobe-3.0 EPSF-3.0
%%Creator: cairo 1.16.0 (https://cairographics.org)
%%CreationDate: Tue Jan 28 07:31:40 2020
%%Pages: 1
%%DocumentData: Clean7Bit
%%LanguageLevel: 2
%%BoundingBox: 23 12 372 372
%%EndComments
%%BeginProlog
50 dict begin
/q { gsave } bind def
/Q { grestore } bind def
/cm { 6 array astore concat } bind def
/w { setlinewidth } bind def
/J { setlinecap } bind def
/j { setlinejoin } bind def
/M { setmiterlimit } bind def
/d { setdash } bind def
/m { moveto } bind def
/l { lineto } bind def
/c { curveto } bind def
/h { closepath } bind def
/re { exch dup neg 3 1 roll 5 3 roll moveto 0 rlineto
      0 exch rlineto 0 rlineto closepath } bind def
/S { stroke } bind def
/f { fill } bind def
/f* { eofill } bind def
/n { newpath } bind def
/W { clip } bind def
/W* { eoclip } bind def
/BT { } bind def
/ET { } bind def
/BDC { mark 3 1 roll /BDC pdfmark } bind def
/EMC { mark /EMC pdfmark } bind def
/cairo_store_point { /cairo_point_y exch def /cairo_point_x exch def } def
/Tj { show currentpoint cairo_store_point } bind def
/TJ {
  {
    dup
    type /stringtype eq
    { show } { -0.001 mul 0 cairo_font_matrix dtransform rmoveto } ifelse
  } forall
  currentpoint cairo_store_point
} bind def
/cairo_selectfont { cairo_font_matrix aload pop pop pop 0 0 6 array astore
    cairo_font exch selectfont cairo_point_x cairo_point_y moveto } bind def
/Tf { pop /cairo_font exch def /cairo_font_matrix where
      { pop cairo_selectfont } if } bind def
/Td { matrix translate cairo_font_matrix matrix concatmatrix dup
      /cairo_font_matrix exch def dup 4 get exch 5 get cairo_store_point
      /cairo_font where { pop cairo_selectfont } if } bind def
/Tm { 2 copy 8 2 roll 6 array astore /cairo_font_matrix exch def
      cairo_store_point /cairo_font where { pop cairo_selectfont } if } bind def
/g { setgray } bind def
/rg { setrgbcolor } bind def
/d1 { setcachedevice } bind def
/cairo_data_source {
  CairoDataIndex CairoData length lt
    { CairoData CairoDataIndex get /CairoDataIndex CairoDataIndex 1 add def }
    { () } ifelse
} def
/cairo_flush_ascii85_file { cairo_ascii85_file status { cairo_ascii85_file flushfile } if } def
/cairo_image { image cairo_flush_ascii85_file } def
/cairo_imagemask { imagemask cairo_flush_ascii85_file } def
%%EndProlog
%%BeginSetup
%%EndSetup
%%Page: 1 1
%%BeginPageSetup
%%PageBoundingBox: 23 12 372 372
%%EndPageSetup
q 23 12 349 360 rectclip
1 0 0 -1 0 384 cm q
1 0.941176 0.431373 rg
72 330 m 72 24 l 324 24 l 324 330 l f
1 0.847059 0.0392157 rg
108 60 216 270 re f
1 0.941176 0.431373 rg
300 300 m 60 300 l 45.184 301.828 34.531 315.145 36 330 c 34.531 344.855
 45.184 358.172 60 360 c 300 360 l f
1 0.784314 0.0392157 rg
324 330 m 324 346.57 313.254 360 300 360 c 286.746 360 276 346.57 276 330
 c 276 313.43 286.746 300 300 300 c 313.254 300 324 313.43 324 330 c h
324 330 m f
0 g
210 72 m 186 72 l 186 96 l 120 96 l 120 204 l 186 204 l 186 264 l 210 264
 l 210 204 l 276 204 l 276 96 l 210 96 l h
144 180 m 144 120 l 186 120 l 186 180 l h
252 120 m 252 180 l 210 180 l 210 120 l h
252 120 m f
372 36 m 336 36 l 336 12 l 60 12 l 60 36 l 24 36 l 24 60 l 60 60 l 60 288
 l 38.535 289.805 22.5 308.512 24 330 c 22.5 351.488 38.535 370.195 60 372
 c 300 372 l 321.465 370.195 337.5 351.488 336 330 c 336 60 l 372 60 l h
48 330 m 48 320.398 53.617 312 60 312 c 267.602 312 l 262.785 323.516 262.785
 336.484 267.602 348 c 60 348 l 53.617 348 48 339.602 48 330 c h
300 348 m 293.617 348 288 339.602 288 330 c 288 320.398 293.617 312 300
 312 c 306.383 312 312 320.398 312 330 c 312 339.602 306.383 348 300 348
 c h
312 290.578 m 308.211 288.93 304.133 288.055 300 288 c 84 288 l 84 36 l
 312 36 l h
312 290.578 m f
Q Q
showpage
%%Trailer
end
%%EOF
