%!PS-Adobe-3.0 EPSF-3.0
%%Creator: cairo 1.16.0 (https://cairographics.org)
%%CreationDate: Tue Jan 28 07:31:41 2020
%%Pages: 1
%%DocumentData: Clean7Bit
%%LanguageLevel: 2
%%BoundingBox: 7 7 377 377
%%EndComments
%%BeginProlog
50 dict begin
/q { gsave } bind def
/Q { grestore } bind def
/cm { 6 array astore concat } bind def
/w { setlinewidth } bind def
/J { setlinecap } bind def
/j { setlinejoin } bind def
/M { setmiterlimit } bind def
/d { setdash } bind def
/m { moveto } bind def
/l { lineto } bind def
/c { curveto } bind def
/h { closepath } bind def
/re { exch dup neg 3 1 roll 5 3 roll moveto 0 rlineto
      0 exch rlineto 0 rlineto closepath } bind def
/S { stroke } bind def
/f { fill } bind def
/f* { eofill } bind def
/n { newpath } bind def
/W { clip } bind def
/W* { eoclip } bind def
/BT { } bind def
/ET { } bind def
/BDC { mark 3 1 roll /BDC pdfmark } bind def
/EMC { mark /EMC pdfmark } bind def
/cairo_store_point { /cairo_point_y exch def /cairo_point_x exch def } def
/Tj { show currentpoint cairo_store_point } bind def
/TJ {
  {
    dup
    type /stringtype eq
    { show } { -0.001 mul 0 cairo_font_matrix dtransform rmoveto } ifelse
  } forall
  currentpoint cairo_store_point
} bind def
/cairo_selectfont { cairo_font_matrix aload pop pop pop 0 0 6 array astore
    cairo_font exch selectfont cairo_point_x cairo_point_y moveto } bind def
/Tf { pop /cairo_font exch def /cairo_font_matrix where
      { pop cairo_selectfont } if } bind def
/Td { matrix translate cairo_font_matrix matrix concatmatrix dup
      /cairo_font_matrix exch def dup 4 get exch 5 get cairo_store_point
      /cairo_font where { pop cairo_selectfont } if } bind def
/Tm { 2 copy 8 2 roll 6 array astore /cairo_font_matrix exch def
      cairo_store_point /cairo_font where { pop cairo_selectfont } if } bind def
/g { setgray } bind def
/rg { setrgbcolor } bind def
/d1 { setcachedevice } bind def
/cairo_data_source {
  CairoDataIndex CairoData length lt
    { CairoData CairoDataIndex get /CairoDataIndex CairoDataIndex 1 add def }
    { () } ifelse
} def
/cairo_flush_ascii85_file { cairo_ascii85_file status { cairo_ascii85_file flushfile } if } def
/cairo_image { image cairo_flush_ascii85_file } def
/cairo_imagemask { imagemask cairo_flush_ascii85_file } def
%%EndProlog
%%BeginSetup
%%EndSetup
%%Page: 1 1
%%BeginPageSetup
%%PageBoundingBox: 7 7 377 377
%%EndPageSetup
q 7 7 370 370 rectclip
1 0 0 -1 0 384 cm q
0.27451 0.882353 0.247059 rg
240 264 m 240 317.016 192 360 192 360 c 192 360 144 317.016 144 264 c 144
 210.984 192 168 192 168 c 192 168 240 210.984 240 264 c h
240 264 m f
0.317647 0.792157 0.188235 rg
193.68 169.586 m 192.336 169.754 191.051 169.934 189.77 170.125 c 173.297
 186.301 160.238 205.617 151.367 226.934 c 162.613 260.934 185.105 290.09
 215.137 309.602 c 218.727 311.57 222.422 313.348 226.199 314.93 c 234.84
 299.312 239.574 281.84 240 264 c 240 216.781 202.008 177.602 193.68 169.586
 c h
193.68 169.586 m f
232.609 226.934 m 223.738 205.617 210.68 186.301 194.207 170.125 c 192.926
 169.934 191.641 169.754 190.297 169.586 c 181.992 177.602 144 216.781 144
 264 c 144.418 281.855 149.152 299.348 157.801 314.977 c 161.578 313.398
 165.273 311.617 168.863 309.648 c 198.895 290.121 221.379 260.949 232.609
 226.934 c h
232.609 226.934 m f
0.27451 0.882353 0.247059 rg
275.137 205.715 m 321.059 232.223 334.273 295.285 334.273 295.285 c 334.273
 295.285 273.07 315.359 227.137 288.852 c 181.199 262.344 168 199.285 168
 199.285 c 168 199.285 229.199 179.207 275.137 205.715 c h
275.137 205.715 m f
108.863 205.715 m 62.941 232.223 49.727 295.285 49.727 295.285 c 49.727
 295.285 110.93 315.359 156.863 288.852 c 202.801 262.344 216 199.285 216
 199.285 c 216 199.285 154.801 179.207 108.863 205.715 c h
108.863 205.715 m f
1 0.231373 0.25098 rg
264 144 m 317.016 144 360 192 360 192 c 360 192 317.016 240 264 240 c 210.984
 240 168 192 168 192 c 168 192 210.984 144 264 144 c h
264 144 m f
120 144 m 173.016 144 216 192 216 192 c 216 192 173.016 240 120 240 c 66.984
 240 24 192 24 192 c 24 192 66.984 144 120 144 c h
120 144 m f
0.317647 0.792157 0.188235 rg
275.137 205.715 m 249.465 192.777 220.246 188.668 192 194.016 c 163.754
 188.668 134.535 192.777 108.863 205.715 c 90.844 216.902 76.219 232.797
 66.574 251.688 c 83.305 259.551 101.52 263.75 120 264 c 145.574 263.359
 170.477 255.711 192 241.883 c 213.523 255.711 238.426 263.359 264 264 c
 282.48 263.75 300.695 259.551 317.426 251.688 c 307.781 232.797 293.156
 216.902 275.137 205.715 c h
275.137 205.715 m f
1 0.231373 0.25098 rg
264 144 m 237.773 145.258 212.598 154.691 192 170.977 c 171.402 154.691
 146.227 145.258 120 144 c 66.984 144 24 192 24 192 c 24 192 66.984 240 
120 240 c 146.227 238.742 171.402 229.309 192 213.023 c 212.598 229.309 
237.773 238.742 264 240 c 317.016 240 360 192 360 192 c 360 192 317.016 
144 264 144 c h
264 144 m f
0.952941 0.0823529 0.141176 rg
330 166.801 m 310.715 152.891 287.762 144.961 264 144 c 237.773 145.258
 212.598 154.691 192 170.977 c 186.035 166.617 179.793 162.648 173.316 159.098
 c 169.414 175.867 167.68 193.074 168.156 210.289 c 169.176 227.172 l 177.152
 223.078 184.785 218.348 192 213.023 c 201.785 220.289 212.379 226.398 223.57
 231.227 c 256.172 227.988 286.832 214.219 310.906 192 c 318.363 184.484
 324.785 176.012 330 166.801 c h
330 166.801 m f
1 0.231373 0.25098 rg
226.055 107.148 m 263.555 69.66 327.887 73.199 327.887 73.199 c 327.887
 73.199 331.43 137.531 293.941 175.02 c 256.453 212.508 192.121 208.957 
192.121 208.957 c 192.121 208.957 188.566 144.637 226.055 107.148 c h
226.055 107.148 m f
0.952941 0.0823529 0.141176 rg
192 170.977 m 171.402 154.691 146.227 145.258 120 144 c 96.238 144.961 
73.285 152.891 54 166.801 c 59.215 176.012 65.637 184.484 73.094 192 c 97.168
 214.219 127.828 227.988 160.43 231.227 c 171.621 226.398 182.215 220.289
 192 213.023 c h
192 170.977 m f
1 0.231373 0.25098 rg
157.945 107.148 m 120.445 69.66 56.113 73.199 56.113 73.199 c 56.113 73.199
 52.57 137.531 90.059 175.02 c 127.547 212.508 191.879 208.957 191.879 208.957
 c 191.879 208.957 195.434 144.637 157.945 107.148 c h
157.945 107.148 m f
0.952941 0.0823529 0.141176 rg
258.816 85.621 m 246.617 90.629 235.496 97.938 226.055 107.148 c 188.566
 144.637 192.121 208.969 192.121 208.969 c 205.859 209.297 219.59 208.039
 233.039 205.211 c 251.957 180.711 262.777 150.93 264 120 c 263.938 108.352
 262.191 96.77 258.816 85.621 c h
258.816 85.621 m f
191.879 208.969 m 191.879 208.969 195.48 144.637 157.945 107.148 c 148.504
 97.938 137.383 90.629 125.184 85.621 c 121.809 96.77 120.062 108.352 120
 120 c 121.227 150.926 132.047 180.703 150.961 205.199 c 164.41 208.031 
178.141 209.293 191.879 208.969 c h
191.879 208.969 m f
1 0.231373 0.25098 rg
240 120 m 240 173.016 192 216 192 216 c 192 216 144 173.016 144 120 c 144
 66.984 192 24 192 24 c 192 24 240 66.984 240 120 c h
240 120 m f
0 g
368.941 183.984 m 356.152 170.504 341.453 158.977 325.32 149.762 c 335.699
 125.375 340.664 99.031 339.863 72.539 c 339.277 61.801 l 328.477 61.223
 l 299.285 60.363 270.328 66.629 244.105 79.477 c 234.191 55.078 219.133
 33.109 199.957 15.059 c 192 7.883 l 183.996 15.086 l 164.82 33.133 149.762
 55.105 139.848 79.5 c 113.625 66.645 84.668 60.363 55.477 61.199 c 44.676
 61.777 l 44.09 72.516 l 43.301 99.016 48.281 125.371 58.68 149.762 c 42.547
 158.977 27.848 170.504 15.059 183.984 c 7.883 192 l 15.086 200.016 l 28.691
 214.402 44.488 226.555 61.883 236.016 c 50.859 253.508 42.785 272.691 37.98
 292.801 c 35.762 303.324 l 45.984 306.672 l 63.363 311.883 81.406 314.547
 99.551 314.578 c 113.781 314.688 127.941 312.633 141.551 308.484 c 151.527
 331.27 165.973 351.824 184.031 368.93 c 192.035 376.129 l 200.039 368.93
 l 218.098 351.824 232.543 331.27 242.52 308.484 c 256.129 312.633 270.293
 314.688 284.52 314.578 c 302.664 314.547 320.707 311.883 338.09 306.672
 c 348.312 303.324 l 346.094 292.801 l 341.293 272.703 333.227 253.531 322.211
 236.051 c 339.609 226.59 355.402 214.441 369.012 200.051 c 376.211 192.035
 l h
315.758 85.355 m 314.773 104.293 309.758 142.309 285.469 166.547 c 268.934
 181.605 248.23 191.316 226.078 194.398 c 241.969 172.754 251 146.836 252
 120 c 251.957 114.477 251.473 108.969 250.547 103.523 c 270.559 92.441 
292.898 86.219 315.758 85.355 c h
192 41.148 m 204.695 55.199 228 85.715 228 120 c 228 154.285 204.695 184.801
 192 198.84 c 179.305 184.801 156 154.273 156 120 c 156 85.727 179.305 55.199
 192 41.148 c h
133.453 103.547 m 132.527 108.984 132.043 114.484 132 120 c 133 146.836
 142.031 172.754 157.922 194.398 c 135.766 191.312 115.066 181.598 98.531
 166.535 c 74.305 142.32 69.227 104.293 68.258 85.355 c 91.109 86.223 113.441
 92.445 133.453 103.523 c h
70.801 170.605 m 74.047 175.191 77.66 179.508 81.602 183.516 c 102.941 
203.082 129.898 215.434 158.652 218.82 c 146.57 224.598 133.391 227.73 120
 228 c 85.715 228 55.199 204.672 41.137 192 c 50.227 183.824 60.172 176.652
 70.801 170.605 c h
64.609 286.703 m 69.227 272.215 75.836 258.434 84.238 245.762 c 95.738 
249.777 107.82 251.887 120 252 c 144.703 251.219 168.668 243.414 189.098
 229.5 c 191.496 231.613 l 182.809 250.828 168.703 267.094 150.91 278.41
 c 121.199 295.609 83.113 290.664 64.586 286.703 c h
192 342.84 m 180.117 329.844 170.477 314.961 163.477 298.801 c 174.297 
292.332 183.957 284.098 192.059 274.441 c 200.117 284.098 209.746 292.332
 220.535 298.801 c 213.531 314.961 203.887 329.844 192 342.84 c h
319.414 286.703 m 300.898 290.664 262.824 295.621 233.148 278.461 c 222.75
 272.18 213.695 263.902 206.508 254.113 c 209.34 249.312 211.824 244.633
 214.031 240.023 c 229.617 247.609 246.672 251.695 264 252 c 276.18 251.887
 288.262 249.777 299.762 245.762 c 308.172 258.434 314.789 272.215 319.414
 286.703 c h
264 228 m 250.621 227.723 237.457 224.594 225.383 218.82 c 254.125 215.43
 281.07 203.078 302.398 183.516 c 306.34 179.508 309.953 175.191 313.199
 170.605 c 323.812 176.66 333.75 183.832 342.84 192 c 328.801 204.695 298.273
 228 264 228 c h
264 228 m f
Q Q
showpage
%%Trailer
end
%%EOF
