%!PS-Adobe-3.0 EPSF-3.0
%%Creator: cairo 1.16.0 (https://cairographics.org)
%%CreationDate: Tue Jan 28 07:31:43 2020
%%Pages: 1
%%DocumentData: Clean7Bit
%%LanguageLevel: 2
%%BoundingBox: 11 0 373 384
%%EndComments
%%BeginProlog
50 dict begin
/q { gsave } bind def
/Q { grestore } bind def
/cm { 6 array astore concat } bind def
/w { setlinewidth } bind def
/J { setlinecap } bind def
/j { setlinejoin } bind def
/M { setmiterlimit } bind def
/d { setdash } bind def
/m { moveto } bind def
/l { lineto } bind def
/c { curveto } bind def
/h { closepath } bind def
/re { exch dup neg 3 1 roll 5 3 roll moveto 0 rlineto
      0 exch rlineto 0 rlineto closepath } bind def
/S { stroke } bind def
/f { fill } bind def
/f* { eofill } bind def
/n { newpath } bind def
/W { clip } bind def
/W* { eoclip } bind def
/BT { } bind def
/ET { } bind def
/BDC { mark 3 1 roll /BDC pdfmark } bind def
/EMC { mark /EMC pdfmark } bind def
/cairo_store_point { /cairo_point_y exch def /cairo_point_x exch def } def
/Tj { show currentpoint cairo_store_point } bind def
/TJ {
  {
    dup
    type /stringtype eq
    { show } { -0.001 mul 0 cairo_font_matrix dtransform rmoveto } ifelse
  } forall
  currentpoint cairo_store_point
} bind def
/cairo_selectfont { cairo_font_matrix aload pop pop pop 0 0 6 array astore
    cairo_font exch selectfont cairo_point_x cairo_point_y moveto } bind def
/Tf { pop /cairo_font exch def /cairo_font_matrix where
      { pop cairo_selectfont } if } bind def
/Td { matrix translate cairo_font_matrix matrix concatmatrix dup
      /cairo_font_matrix exch def dup 4 get exch 5 get cairo_store_point
      /cairo_font where { pop cairo_selectfont } if } bind def
/Tm { 2 copy 8 2 roll 6 array astore /cairo_font_matrix exch def
      cairo_store_point /cairo_font where { pop cairo_selectfont } if } bind def
/g { setgray } bind def
/rg { setrgbcolor } bind def
/d1 { setcachedevice } bind def
/cairo_data_source {
  CairoDataIndex CairoData length lt
    { CairoData CairoDataIndex get /CairoDataIndex CairoDataIndex 1 add def }
    { () } ifelse
} def
/cairo_flush_ascii85_file { cairo_ascii85_file status { cairo_ascii85_file flushfile } if } def
/cairo_image { image cairo_flush_ascii85_file } def
/cairo_imagemask { imagemask cairo_flush_ascii85_file } def
%%EndProlog
%%BeginSetup
%%EndSetup
%%Page: 1 1
%%BeginPageSetup
%%PageBoundingBox: 11 0 373 384
%%EndPageSetup
q 11 0 362 384 rectclip
1 0 0 -1 0 384 cm q
1 0.231373 0.25098 rg
216 42 m 216 25.43 229.43 12 246 12 c 262.57 12 276 25.43 276 42 c 276 
25.43 289.43 12 306 12 c 322.57 12 336 25.43 336 42 c 349.254 42 360 52.746
 360 66 c 360 79.254 349.254 90 336 90 c 336 106.57 322.57 120 306 120 c
 289.43 120 276 106.57 276 90 c 276 106.57 262.57 120 246 120 c 229.43 120
 216 106.57 216 90 c 202.746 90 192 79.254 192 66 c 192 52.746 202.746 42
 216 42 c h
216 42 m f
300 372 m 252 372 l 252 348 l 252 334.746 262.746 324 276 324 c 289.254
 324 300 334.746 300 348 c h
300 372 m f
1 0.411765 0.439216 rg
288 327.324 m 280.605 322.949 271.426 322.891 263.973 327.172 c 256.523
 331.449 251.949 339.406 252 348 c 252 372 l 276 372 l 276 348 l 276.023
 339.461 280.598 331.582 288 327.324 c h
288 327.324 m f
1 0.847059 0.0392157 rg
276 150 m 246.879 150 220.625 167.543 209.48 194.445 c 198.336 221.352 
204.496 252.32 225.09 272.91 c 245.68 293.504 276.648 299.664 303.555 288.52
 c 330.457 277.375 348 251.121 348 222 c 348 182.234 315.766 150 276 150
 c h
276 252 m 246 222 l 276 192 l 306 222 l h
276 252 m f
1 0.231373 0.25098 rg
168 42 m 168 25.43 154.57 12 138 12 c 121.43 12 108 25.43 108 42 c 108 
25.43 94.57 12 78 12 c 61.43 12 48 25.43 48 42 c 34.746 42 24 52.746 24 
66 c 24 79.254 34.746 90 48 90 c 48 106.57 61.43 120 78 120 c 94.57 120 
108 106.57 108 90 c 108 106.57 121.43 120 138 120 c 154.57 120 168 106.57
 168 90 c 181.254 90 192 79.254 192 66 c 192 52.746 181.254 42 168 42 c 
h
168 42 m f
108 324 m 121.254 324 132 334.746 132 348 c 132 372 l 84 372 l 84 348 l
 84 334.746 94.746 324 108 324 c h
108 324 m f
1 0.411765 0.439216 rg
120 327.324 m 112.605 322.949 103.426 322.891 95.973 327.172 c 88.523 331.449
 83.949 339.406 84 348 c 84 372 l 108 372 l 108 348 l 108.023 339.461 112.598
 331.582 120 327.324 c h
120 327.324 m f
1 0.847059 0.0392157 rg
36 222 m 36 251.121 53.543 277.375 80.445 288.52 c 107.352 299.664 138.32
 293.504 158.91 272.91 c 179.504 252.32 185.664 221.352 174.52 194.445 c
 163.375 167.543 137.121 150 108 150 c 68.234 150 36 182.234 36 222 c h
78 222 m 108 192 l 138 222 l 108 252 l h
78 222 m f
0 g
306 132 m 325.191 131.977 341.938 118.969 346.703 100.379 c 361.762 95.703
 372.027 81.77 372.027 66 c 372.027 50.23 361.762 36.297 346.703 31.621 
c 342.949 16.922 331.555 5.391 316.902 1.453 c 302.25 -2.48 286.613 1.793
 276 12.637 c 265.387 1.793 249.75 -2.48 235.098 1.453 c 220.445 5.391 209.051
 16.922 205.297 31.621 c 200.363 33.199 195.832 35.816 192 39.301 c 188.168
 35.816 183.637 33.199 178.703 31.621 c 174.949 16.922 163.555 5.391 148.902
 1.453 c 134.25 -2.48 118.613 1.793 108 12.637 c 97.387 1.793 81.75 -2.48
 67.098 1.453 c 52.445 5.391 41.051 16.922 37.297 31.621 c 22.238 36.297
 11.973 50.23 11.973 66 c 11.973 81.77 22.238 95.703 37.297 100.379 c 42.062
 118.969 58.809 131.977 78 132 c 84.238 131.969 90.391 130.531 96 127.801
 c 96 138.961 l 54.699 144.891 24.035 180.273 24.035 222 c 24.035 263.727
 54.699 299.109 96 305.039 c 96 314.207 l 81.668 319.273 72.062 332.797 
72 348 c 72 384 l 144 384 l 144 348 l 143.938 332.797 134.332 319.273 120
 314.207 c 120 305.039 l 161.301 299.109 191.965 263.727 191.965 222 c 191.965
 180.273 161.301 144.891 120 138.961 c 120 127.801 l 125.609 130.531 131.762
 131.969 138 132 c 157.191 131.977 173.938 118.969 178.703 100.379 c 183.637
 98.801 188.168 96.184 192 92.699 c 195.832 96.184 200.363 98.801 205.297
 100.379 c 210.062 118.969 226.809 131.977 246 132 c 252.238 131.969 258.391
 130.531 264 127.801 c 264 138.961 l 222.699 144.891 192.035 180.273 192.035
 222 c 192.035 263.727 222.699 299.109 264 305.039 c 264 314.207 l 249.668
 319.273 240.062 332.797 240 348 c 240 384 l 312 384 l 312 348 l 311.938
 332.797 302.332 319.273 288 314.207 c 288 305.039 l 329.301 299.109 359.965
 263.727 359.965 222 c 359.965 180.273 329.301 144.891 288 138.961 c 288
 127.801 l 293.609 130.531 299.762 131.969 306 132 c h
120 360 m 96 360 l 96 348 l 96 341.371 101.371 336 108 336 c 114.629 336
 120 341.371 120 348 c h
168 222 m 168 246.27 153.383 268.145 130.961 277.434 c 108.539 286.719 
82.734 281.586 65.574 264.426 c 48.414 247.266 43.281 221.461 52.566 199.039
 c 61.855 176.617 83.73 162 108 162 c 141.121 162.039 167.961 188.879 168
 222 c h
168 78 m 156 78 l 156 90 l 156 99.941 147.941 108 138 108 c 128.059 108
 120 99.941 120 90 c 120 78 l 96 78 l 96 90 l 96 99.941 87.941 108 78 108
 c 68.059 108 60 99.941 60 90 c 60 78 l 48 78 l 41.371 78 36 72.629 36 66
 c 36 59.371 41.371 54 48 54 c 60 54 l 60 42 l 60 32.059 68.059 24 78 24
 c 87.941 24 96 32.059 96 42 c 120 42 l 120 32.059 128.059 24 138 24 c 147.941
 24 156 32.059 156 42 c 156 54 l 168 54 l 174.629 54 180 59.371 180 66 c
 180 72.629 174.629 78 168 78 c h
246 108 m 236.059 108 228 99.941 228 90 c 228 78 l 216 78 l 209.371 78 
204 72.629 204 66 c 204 59.371 209.371 54 216 54 c 228 54 l 228 42 l 228
 32.059 236.059 24 246 24 c 255.941 24 264 32.059 264 42 c 288 42 l 288 
32.059 296.059 24 306 24 c 315.941 24 324 32.059 324 42 c 324 54 l 336 54
 l 342.629 54 348 59.371 348 66 c 348 72.629 342.629 78 336 78 c 324 78 
l 324 90 l 324 99.941 315.941 108 306 108 c 296.059 108 288 99.941 288 90
 c 288 78 l 264 78 l 264 90 l 264 99.941 255.941 108 246 108 c h
288 360 m 264 360 l 264 348 l 264 341.371 269.371 336 276 336 c 282.629
 336 288 341.371 288 348 c h
336 222 m 336 246.27 321.383 268.145 298.961 277.434 c 276.539 286.719 
250.734 281.586 233.574 264.426 c 216.414 247.266 211.281 221.461 220.566
 199.039 c 229.855 176.617 251.73 162 276 162 c 309.121 162.039 335.961 
188.879 336 222 c h
336 222 m f
229.031 222 m 276 268.969 l 322.969 222 l 276 175.031 l h
276 235.031 m 262.969 222 l 276 208.969 l 289.031 222 l h
276 235.031 m f
61.031 222 m 108 268.969 l 154.969 222 l 108 175.031 l h
108 235.031 m 94.969 222 l 108 208.969 l 121.031 222 l h
108 235.031 m f
Q Q
showpage
%%Trailer
end
%%EOF
