%!PS-Adobe-3.0 EPSF-3.0
%%Creator: cairo 1.16.0 (https://cairographics.org)
%%CreationDate: Tue Jan 28 07:31:44 2020
%%Pages: 1
%%DocumentData: Clean7Bit
%%LanguageLevel: 2
%%BoundingBox: 12 12 372 372
%%EndComments
%%BeginProlog
50 dict begin
/q { gsave } bind def
/Q { grestore } bind def
/cm { 6 array astore concat } bind def
/w { setlinewidth } bind def
/J { setlinecap } bind def
/j { setlinejoin } bind def
/M { setmiterlimit } bind def
/d { setdash } bind def
/m { moveto } bind def
/l { lineto } bind def
/c { curveto } bind def
/h { closepath } bind def
/re { exch dup neg 3 1 roll 5 3 roll moveto 0 rlineto
      0 exch rlineto 0 rlineto closepath } bind def
/S { stroke } bind def
/f { fill } bind def
/f* { eofill } bind def
/n { newpath } bind def
/W { clip } bind def
/W* { eoclip } bind def
/BT { } bind def
/ET { } bind def
/BDC { mark 3 1 roll /BDC pdfmark } bind def
/EMC { mark /EMC pdfmark } bind def
/cairo_store_point { /cairo_point_y exch def /cairo_point_x exch def } def
/Tj { show currentpoint cairo_store_point } bind def
/TJ {
  {
    dup
    type /stringtype eq
    { show } { -0.001 mul 0 cairo_font_matrix dtransform rmoveto } ifelse
  } forall
  currentpoint cairo_store_point
} bind def
/cairo_selectfont { cairo_font_matrix aload pop pop pop 0 0 6 array astore
    cairo_font exch selectfont cairo_point_x cairo_point_y moveto } bind def
/Tf { pop /cairo_font exch def /cairo_font_matrix where
      { pop cairo_selectfont } if } bind def
/Td { matrix translate cairo_font_matrix matrix concatmatrix dup
      /cairo_font_matrix exch def dup 4 get exch 5 get cairo_store_point
      /cairo_font where { pop cairo_selectfont } if } bind def
/Tm { 2 copy 8 2 roll 6 array astore /cairo_font_matrix exch def
      cairo_store_point /cairo_font where { pop cairo_selectfont } if } bind def
/g { setgray } bind def
/rg { setrgbcolor } bind def
/d1 { setcachedevice } bind def
/cairo_data_source {
  CairoDataIndex CairoData length lt
    { CairoData CairoDataIndex get /CairoDataIndex CairoDataIndex 1 add def }
    { () } ifelse
} def
/cairo_flush_ascii85_file { cairo_ascii85_file status { cairo_ascii85_file flushfile } if } def
/cairo_image { image cairo_flush_ascii85_file } def
/cairo_imagemask { imagemask cairo_flush_ascii85_file } def
%%EndProlog
%%BeginSetup
%%EndSetup
%%Page: 1 1
%%BeginPageSetup
%%PageBoundingBox: 12 12 372 372
%%EndPageSetup
q 12 12 360 360 rectclip
1 0 0 -1 0 384 cm q
1 0.847059 0.0392157 rg
360 120 m 300 156 l 300 264 l 360 156 l h
360 120 m f
1 0.745098 0.0392157 rg
323.773 141.73 m 300 156 l 300 264 l 324 220.801 l 324 144 l 324 143.219
 323.797 142.5 323.773 141.73 c h
323.773 141.73 m f
1 0.847059 0.0392157 rg
120 108 m 264 108 l 283.945 108 300 124.055 300 144 c 300 276 l 300 295.945
 283.945 312 264 312 c 120 312 l 100.055 312 84 295.945 84 276 c 84 144 
l 84 124.055 100.055 108 120 108 c h
120 108 m f
1 0.941176 0.431373 rg
120 300 m 120 168 l 120 148.117 136.117 132 156 132 c 297.793 132 l 292.754
 117.645 279.215 108.027 264 108 c 120 108 l 100.117 108 84 124.117 84 144
 c 84 276 l 84 295.883 100.117 312 120 312 c 122.207 312 l 120.785 308.156
 120.039 304.098 120 300 c h
120 300 m f
1 0.784314 0.0392157 rg
156 60 m 228 60 l 247.883 60 264 76.117 264 96 c 264 108 l 120 108 l 120
 96 l 120 76.117 136.117 60 156 60 c h
156 60 m f
1 0.941176 0.431373 rg
192 60 m 156 60 l 136.117 60 120 76.117 120 96 c 120 108 l 156 108 l 156
 96 l 156 76.117 172.117 60 192 60 c h
192 60 m f
0.701961 0.45098 0.211765 rg
24 312 336 48 re f
0.752941 0.513726 0.25098 rg
48 336 m 360 336 l 360 312 l 24 312 l 24 360 l 48 360 l h
48 336 m f
0 g
312 267.109 m 372 159.109 l 372 98.809 l 311.125 135.336 l 307.699 117.043
 294.012 102.379 276 97.703 c 276 96 l 276 69.492 254.508 48 228 48 c 204
 48 l 204 36 l 222 36 l 222 12 l 162 12 l 162 36 l 180 36 l 180 48 l 156
 48 l 129.492 48 108 69.492 108 96 c 108 97.703 l 99.785 99.789 92.27 104.02
 86.219 109.957 c 67.141 105.086 46.887 109.973 32.125 123.008 c 17.359 
136.039 10.004 155.531 12.469 175.066 c 19.309 229.766 l 22.617 256.172 
45.062 275.988 71.676 276 c 72 276 l 72.051 284.449 74.352 292.734 78.672
 300 c 12 300 l 12 372 l 372 372 l 372 300 l 305.328 300 l 309.648 292.734
 311.949 284.449 312 276 c h
348 152.891 m 312 217.691 l 312 162.793 l 348 141.191 l h
156 72 m 228 72 l 241.254 72 252 82.746 252 96 c 132 96 l 132 82.746 142.746
 72 156 72 c h
71.676 252 m 57.168 251.992 44.93 241.195 43.117 226.801 c 36.277 172.105
 l 35.02 161.949 38.172 151.746 44.941 144.07 c 52.156 135.875 62.758 131.473
 73.656 132.156 c 72.609 136.02 72.055 140 72 144 c 72 252 l h
348 348 m 36 348 l 36 324 l 348 324 l h
120 300 m 106.746 300 96 289.254 96 276 c 96 144 l 96 130.746 106.746 120
 120 120 c 264 120 l 277.254 120 288 130.746 288 144 c 288 276 l 288 289.254
 277.254 300 264 300 c h
120 300 m f
Q Q
showpage
%%Trailer
end
%%EOF
