%!PS-Adobe-3.0 EPSF-3.0
%%Creator: cairo 1.16.0 (https://cairographics.org)
%%CreationDate: Tue Jan 28 07:31:46 2020
%%Pages: 1
%%DocumentData: Clean7Bit
%%LanguageLevel: 2
%%BoundingBox: 36 0 348 384
%%EndComments
%%BeginProlog
50 dict begin
/q { gsave } bind def
/Q { grestore } bind def
/cm { 6 array astore concat } bind def
/w { setlinewidth } bind def
/J { setlinecap } bind def
/j { setlinejoin } bind def
/M { setmiterlimit } bind def
/d { setdash } bind def
/m { moveto } bind def
/l { lineto } bind def
/c { curveto } bind def
/h { closepath } bind def
/re { exch dup neg 3 1 roll 5 3 roll moveto 0 rlineto
      0 exch rlineto 0 rlineto closepath } bind def
/S { stroke } bind def
/f { fill } bind def
/f* { eofill } bind def
/n { newpath } bind def
/W { clip } bind def
/W* { eoclip } bind def
/BT { } bind def
/ET { } bind def
/BDC { mark 3 1 roll /BDC pdfmark } bind def
/EMC { mark /EMC pdfmark } bind def
/cairo_store_point { /cairo_point_y exch def /cairo_point_x exch def } def
/Tj { show currentpoint cairo_store_point } bind def
/TJ {
  {
    dup
    type /stringtype eq
    { show } { -0.001 mul 0 cairo_font_matrix dtransform rmoveto } ifelse
  } forall
  currentpoint cairo_store_point
} bind def
/cairo_selectfont { cairo_font_matrix aload pop pop pop 0 0 6 array astore
    cairo_font exch selectfont cairo_point_x cairo_point_y moveto } bind def
/Tf { pop /cairo_font exch def /cairo_font_matrix where
      { pop cairo_selectfont } if } bind def
/Td { matrix translate cairo_font_matrix matrix concatmatrix dup
      /cairo_font_matrix exch def dup 4 get exch 5 get cairo_store_point
      /cairo_font where { pop cairo_selectfont } if } bind def
/Tm { 2 copy 8 2 roll 6 array astore /cairo_font_matrix exch def
      cairo_store_point /cairo_font where { pop cairo_selectfont } if } bind def
/g { setgray } bind def
/rg { setrgbcolor } bind def
/d1 { setcachedevice } bind def
/cairo_data_source {
  CairoDataIndex CairoData length lt
    { CairoData CairoDataIndex get /CairoDataIndex CairoDataIndex 1 add def }
    { () } ifelse
} def
/cairo_flush_ascii85_file { cairo_ascii85_file status { cairo_ascii85_file flushfile } if } def
/cairo_image { image cairo_flush_ascii85_file } def
/cairo_imagemask { imagemask cairo_flush_ascii85_file } def
%%EndProlog
%%BeginSetup
%%EndSetup
%%Page: 1 1
%%BeginPageSetup
%%PageBoundingBox: 36 0 348 384
%%EndPageSetup
q 36 0 312 384 rectclip
1 0 0 -1 0 384 cm q
0.266667 g
288 84 m 96 84 l 72.746 122.762 63.863 168.469 70.906 213.121 c 96 372 
l 288 372 l 313.094 213.121 l 320.137 168.469 311.254 122.762 288 84 c h
288 84 m f
0.352941 g
128.555 84 m 96 84 l 72.746 122.762 63.863 168.469 70.906 213.121 c 96 
372 l 128.555 372 l 103.465 213.121 l 96.418 168.469 105.301 122.762 128.555
 84 c h
128.555 84 m f
0.223529 g
288 84 m 96 84 l 87.031 98.996 80.141 115.145 75.527 132 c 308.473 132 
l 303.859 115.145 296.969 98.996 288 84 c h
288 84 m f
0.266667 g
96 84 m 87.031 98.996 80.141 115.145 75.527 132 c 108.086 132 l 112.699
 115.145 119.586 98.996 128.555 84 c h
96 84 m f
1 0.231373 0.25098 rg
288 60 m 96 60 l 60 108 l 324 108 l h
288 60 m f
1 0.847059 0.0392157 rg
192 180 m 162.879 180 136.625 197.543 125.48 224.445 c 114.336 251.352 
120.496 282.32 141.09 302.91 c 161.68 323.504 192.648 329.664 219.555 318.52
 c 246.457 307.375 264 281.121 264 252 c 264 212.234 231.766 180 192 180
 c h
192 282 m 162 252 l 192 222 l 222 252 l h
192 282 m f
1 0.231373 0.25098 rg
120 12 m 264 12 l 277.254 12 288 22.746 288 36 c 288 60 l 96 60 l 96 36
 l 96 22.746 106.746 12 120 12 c h
120 12 m f
1 0.411765 0.439216 rg
120 84 m 120 36 l 288 36 l 288 22.746 277.254 12 264 12 c 120 12 l 106.746
 12 96 22.746 96 36 c 96 60 l 60 108 l 102 108 l h
120 84 m f
0 g
348 120 m 300 56.004 l 300 36 l 300 16.117 283.883 0 264 0 c 120 0 l 100.117
 0 84 16.117 84 36 c 84 56.004 l 36 120 l 66.793 120 l 56.738 150.605 54.09
 183.164 59.062 214.992 c 85.754 384 l 298.246 384 l 324.949 214.992 l 329.91
 183.16 327.258 150.605 317.207 120 c h
120 24 m 264 24 l 270.629 24 276 29.371 276 36 c 276 48 l 108 48 l 108 
36 l 108 29.371 113.371 24 120 24 c h
102 72 m 282 72 l 300 96 l 84 96 l h
301.199 211.199 m 277.754 360 l 106.246 360 l 82.801 211.199 l 78.023 180.496
 81.273 149.078 92.23 120 c 291.77 120 l 302.719 149.078 305.969 180.496
 301.199 211.199 c h
301.199 211.199 m f
192 336 m 225.977 336 256.605 315.535 269.605 284.145 c 282.609 252.758
 275.422 216.625 251.398 192.602 c 227.375 168.578 191.242 161.391 159.855
 174.395 c 128.465 187.395 108 218.023 108 252 c 108.059 298.367 145.633
 335.941 192 336 c h
192 192 m 216.27 192 238.145 206.617 247.434 229.039 c 256.719 251.461 
251.586 277.266 234.426 294.426 c 217.266 311.586 191.461 316.719 169.039
 307.434 c 146.617 298.145 132 276.27 132 252 c 132.039 218.879 158.879 
192.039 192 192 c h
192 192 m f
238.969 252 m 192 205.031 l 145.031 252 l 192 298.969 l h
192 238.969 m 205.031 252 l 192 265.031 l 178.969 252 l h
192 238.969 m f
Q Q
showpage
%%Trailer
end
%%EOF
