%!PS-Adobe-3.0 EPSF-3.0
%%Creator: cairo 1.16.0 (https://cairographics.org)
%%CreationDate: Tue Jan 28 07:31:47 2020
%%Pages: 1
%%DocumentData: Clean7Bit
%%LanguageLevel: 2
%%BoundingBox: 12 12 372 372
%%EndComments
%%BeginProlog
50 dict begin
/q { gsave } bind def
/Q { grestore } bind def
/cm { 6 array astore concat } bind def
/w { setlinewidth } bind def
/J { setlinecap } bind def
/j { setlinejoin } bind def
/M { setmiterlimit } bind def
/d { setdash } bind def
/m { moveto } bind def
/l { lineto } bind def
/c { curveto } bind def
/h { closepath } bind def
/re { exch dup neg 3 1 roll 5 3 roll moveto 0 rlineto
      0 exch rlineto 0 rlineto closepath } bind def
/S { stroke } bind def
/f { fill } bind def
/f* { eofill } bind def
/n { newpath } bind def
/W { clip } bind def
/W* { eoclip } bind def
/BT { } bind def
/ET { } bind def
/BDC { mark 3 1 roll /BDC pdfmark } bind def
/EMC { mark /EMC pdfmark } bind def
/cairo_store_point { /cairo_point_y exch def /cairo_point_x exch def } def
/Tj { show currentpoint cairo_store_point } bind def
/TJ {
  {
    dup
    type /stringtype eq
    { show } { -0.001 mul 0 cairo_font_matrix dtransform rmoveto } ifelse
  } forall
  currentpoint cairo_store_point
} bind def
/cairo_selectfont { cairo_font_matrix aload pop pop pop 0 0 6 array astore
    cairo_font exch selectfont cairo_point_x cairo_point_y moveto } bind def
/Tf { pop /cairo_font exch def /cairo_font_matrix where
      { pop cairo_selectfont } if } bind def
/Td { matrix translate cairo_font_matrix matrix concatmatrix dup
      /cairo_font_matrix exch def dup 4 get exch 5 get cairo_store_point
      /cairo_font where { pop cairo_selectfont } if } bind def
/Tm { 2 copy 8 2 roll 6 array astore /cairo_font_matrix exch def
      cairo_store_point /cairo_font where { pop cairo_selectfont } if } bind def
/g { setgray } bind def
/rg { setrgbcolor } bind def
/d1 { setcachedevice } bind def
/cairo_data_source {
  CairoDataIndex CairoData length lt
    { CairoData CairoDataIndex get /CairoDataIndex CairoDataIndex 1 add def }
    { () } ifelse
} def
/cairo_flush_ascii85_file { cairo_ascii85_file status { cairo_ascii85_file flushfile } if } def
/cairo_image { image cairo_flush_ascii85_file } def
/cairo_imagemask { imagemask cairo_flush_ascii85_file } def
%%EndProlog
%%BeginSetup
%%EndSetup
%%Page: 1 1
%%BeginPageSetup
%%PageBoundingBox: 12 12 372 372
%%EndPageSetup
q 12 12 360 360 rectclip
1 0 0 -1 0 384 cm q
1 0.847059 0.0392157 rg
102 204 m 70.453 204 42.012 223.004 29.938 252.152 c 17.863 281.297 24.539
 314.848 46.844 337.156 c 69.152 359.461 102.703 366.137 131.848 354.062
 c 160.996 341.988 180 313.547 180 282 c 180 238.922 145.078 204 102 204
 c h
126 306 m 78 306 l 78 258 l 126 258 l h
126 306 m f
1 0.705882 0.0392157 rg
102 204 m 98.285 204.031 94.574 204.324 90.898 204.875 c 93.387 224.492
 101.543 242.953 114.371 258 c 126 258 l 126 269.629 l 141.047 282.457 159.508
 290.613 179.125 293.102 c 182.527 270.688 175.941 247.906 161.105 230.766
 c 146.27 213.625 124.668 203.844 102 204 c h
102 204 m f
1 0.847059 0.0392157 rg
138 278.398 m 138 246 l 105.602 246 l 113.816 259.105 124.895 270.184 138
 278.398 c h
138 278.398 m f
192 114 m 160.453 114 132.012 133.004 119.938 162.152 c 107.863 191.297
 114.539 224.848 136.844 247.156 c 159.152 269.461 192.703 276.137 221.848
 264.062 c 250.996 251.988 270 223.547 270 192 c 270 148.922 235.078 114
 192 114 c h
216 216 m 168 216 l 168 168 l 216 168 l h
216 216 m f
1 0.705882 0.0392157 rg
192 114 m 188.285 114.031 184.574 114.324 180.898 114.875 c 183.387 134.492
 191.543 152.953 204.371 168 c 216 168 l 216 179.629 l 231.047 192.457 249.508
 200.613 269.125 203.102 c 272.527 180.688 265.941 157.906 251.105 140.766
 c 236.27 123.625 214.668 113.844 192 114 c h
192 114 m f
1 0.847059 0.0392157 rg
228 188.398 m 228 156 l 195.602 156 l 203.816 169.105 214.895 180.184 228
 188.398 c h
228 188.398 m f
282 24 m 250.453 24 222.012 43.004 209.938 72.152 c 197.863 101.297 204.539
 134.848 226.844 157.156 c 249.152 179.461 282.703 186.137 311.848 174.062
 c 340.996 161.988 360 133.547 360 102 c 360 58.922 325.078 24 282 24 c 
h
306 126 m 258 126 l 258 78 l 306 78 l h
306 126 m f
0 g
372 102 m 372 52.293 331.707 12 282 12 c 232.293 12 192 52.293 192 102 
c 142.316 102.055 102.055 142.316 102 192 c 65.598 192 32.781 213.93 18.852
 247.559 c 4.922 281.188 12.621 319.898 38.359 345.641 c 64.102 371.379 
102.812 379.078 136.441 365.148 c 170.07 351.219 192 318.402 192 282 c 241.684
 281.945 281.945 241.684 282 192 c 331.684 191.945 371.945 151.684 372 102
 c h
282 36 m 308.695 36 332.762 52.082 342.977 76.742 c 353.191 101.406 347.543
 129.793 328.668 148.668 c 309.793 167.543 281.406 173.191 256.742 162.977
 c 232.082 152.762 216 128.695 216 102 c 216.039 65.566 245.566 36.039 282
 36 c h
168 282 m 168 308.695 151.918 332.762 127.258 342.977 c 102.594 353.191
 74.207 347.543 55.332 328.668 c 36.457 309.793 30.809 281.406 41.023 256.742
 c 51.238 232.082 75.305 216 102 216 c 103.055 216 104.328 216.254 105.434
 216.312 c 108.457 227.035 113.457 237.105 120.168 246 c 66 246 l 66 318
 l 138 318 l 138 263.832 l 146.895 270.543 156.965 275.543 167.688 278.566
 c 167.746 279.672 168 280.945 168 282 c h
114 270 m 114 294 l 90 294 l 90 270 l h
258 192 m 258 218.695 241.918 242.762 217.258 252.977 c 192.594 263.191
 164.207 257.543 145.332 238.668 c 126.457 219.793 120.809 191.406 131.023
 166.742 c 141.238 142.082 165.305 126 192 126 c 193.055 126 194.328 126.254
 195.434 126.312 c 198.457 137.035 203.457 147.105 210.168 156 c 156 156
 l 156 228 l 228 228 l 228 173.832 l 236.895 180.543 246.965 185.543 257.688
 188.566 c 257.746 189.672 258 190.945 258 192 c h
204 180 m 204 204 l 180 204 l 180 180 l h
204 180 m f
318 66 m 246 66 l 246 138 l 318 138 l h
294 114 m 270 114 l 270 90 l 294 90 l h
294 114 m f
60 108 m 84 108 l 84 84 l 108 84 l 108 60 l 84 60 l 84 36 l 60 36 l 60 
60 l 36 60 l 36 84 l 60 84 l h
60 108 m f
324 252 m 300 252 l 300 276 l 276 276 l 276 300 l 300 300 l 300 324 l 324
 324 l 324 300 l 348 300 l 348 276 l 324 276 l h
324 252 m f
Q Q
showpage
%%Trailer
end
%%EOF
