%!PS-Adobe-3.0 EPSF-3.0
%%Creator: cairo 1.16.0 (https://cairographics.org)
%%CreationDate: Tue Jan 28 07:31:47 2020
%%Pages: 1
%%DocumentData: Clean7Bit
%%LanguageLevel: 2
%%BoundingBox: 72 12 312 384
%%EndComments
%%BeginProlog
50 dict begin
/q { gsave } bind def
/Q { grestore } bind def
/cm { 6 array astore concat } bind def
/w { setlinewidth } bind def
/J { setlinecap } bind def
/j { setlinejoin } bind def
/M { setmiterlimit } bind def
/d { setdash } bind def
/m { moveto } bind def
/l { lineto } bind def
/c { curveto } bind def
/h { closepath } bind def
/re { exch dup neg 3 1 roll 5 3 roll moveto 0 rlineto
      0 exch rlineto 0 rlineto closepath } bind def
/S { stroke } bind def
/f { fill } bind def
/f* { eofill } bind def
/n { newpath } bind def
/W { clip } bind def
/W* { eoclip } bind def
/BT { } bind def
/ET { } bind def
/BDC { mark 3 1 roll /BDC pdfmark } bind def
/EMC { mark /EMC pdfmark } bind def
/cairo_store_point { /cairo_point_y exch def /cairo_point_x exch def } def
/Tj { show currentpoint cairo_store_point } bind def
/TJ {
  {
    dup
    type /stringtype eq
    { show } { -0.001 mul 0 cairo_font_matrix dtransform rmoveto } ifelse
  } forall
  currentpoint cairo_store_point
} bind def
/cairo_selectfont { cairo_font_matrix aload pop pop pop 0 0 6 array astore
    cairo_font exch selectfont cairo_point_x cairo_point_y moveto } bind def
/Tf { pop /cairo_font exch def /cairo_font_matrix where
      { pop cairo_selectfont } if } bind def
/Td { matrix translate cairo_font_matrix matrix concatmatrix dup
      /cairo_font_matrix exch def dup 4 get exch 5 get cairo_store_point
      /cairo_font where { pop cairo_selectfont } if } bind def
/Tm { 2 copy 8 2 roll 6 array astore /cairo_font_matrix exch def
      cairo_store_point /cairo_font where { pop cairo_selectfont } if } bind def
/g { setgray } bind def
/rg { setrgbcolor } bind def
/d1 { setcachedevice } bind def
/cairo_data_source {
  CairoDataIndex CairoData length lt
    { CairoData CairoDataIndex get /CairoDataIndex CairoDataIndex 1 add def }
    { () } ifelse
} def
/cairo_flush_ascii85_file { cairo_ascii85_file status { cairo_ascii85_file flushfile } if } def
/cairo_image { image cairo_flush_ascii85_file } def
/cairo_imagemask { imagemask cairo_flush_ascii85_file } def
%%EndProlog
%%BeginSetup
%%EndSetup
%%Page: 1 1
%%BeginPageSetup
%%PageBoundingBox: 72 12 312 384
%%EndPageSetup
q 72 12 240 372 rectclip
1 0 0 -1 0 384 cm q
1 0.784314 0.0392157 rg
300 270 m 300 319.707 251.648 360 192 360 c 132.352 360 84 319.707 84 270
 c 84 220.293 132.352 180 192 180 c 251.648 180 300 220.293 300 270 c h
300 270 m f
1 0.847059 0.0392157 rg
300 270 m 300 319.707 251.648 360 192 360 c 132.352 360 84 319.707 84 270
 c 84 220.293 132.352 180 192 180 c 251.648 180 300 220.293 300 270 c h
300 270 m f
1 0.745098 0.0392157 rg
261.602 201.238 m 270.867 214.336 275.895 229.957 276 246 c 276 295.703
 227.652 336 168 336 c 143.172 336.23 118.871 328.812 98.398 314.762 c 120.414
 344.133 155.309 361 192 360 c 251.652 360 300 319.703 300 270 c 299.281
 242.16 284.926 216.453 261.602 201.238 c h
261.602 201.238 m f
1 0.231373 0.25098 rg
192 180 m 158.047 179.258 125.496 193.531 103.043 219.012 c 117.301 245.375
 151.727 264 192 264 c 232.273 264 266.699 245.375 280.957 219.012 c 258.504
 193.531 225.953 179.258 192 180 c h
192 180 m f
0.952941 0.0823529 0.141176 rg
192 240 m 221.098 240.004 248.953 228.227 269.219 207.348 c 247.543 189.352
 220.172 179.656 192 180 c 163.828 179.656 136.457 189.352 114.781 207.348
 c 135.047 228.227 162.902 240.004 192 240 c h
192 240 m f
1 0.784314 0.0392157 rg
243.059 65.34 m 226.43 53.234 216.418 34.043 216 13.477 c 216 12 l 168 
12 l 168 13.477 l 167.582 34.043 157.57 53.234 140.941 65.34 c 112.352 87.227
 100.891 124.895 112.441 158.996 c 123.996 193.094 155.996 216.039 192 216.039
 c 228.004 216.039 260.004 193.094 271.559 158.996 c 283.109 124.895 271.648
 87.227 243.059 65.34 c h
243.059 65.34 m f
1 0.901961 0.196078 rg
132 156 m 131.039 129.648 143.422 104.586 164.941 89.34 c 177.992 80.305
 186.996 66.523 190.02 50.941 c 191.941 42.23 199.652 36.02 208.57 36 c 
220.391 36 l 217.508 28.84 216.016 21.195 216 13.477 c 216 12 l 168 12 l
 168 13.477 l 167.586 34.047 157.566 53.238 140.93 65.34 c 119.336 81.871
 107.086 107.836 108.062 135.012 c 109.043 162.188 123.125 187.203 145.848
 202.141 c 136.801 188.453 131.984 172.406 132 156 c h
132 156 m f
0 g
267.602 190.895 m 283.375 170.75 290.426 145.125 287.18 119.742 c 283.934
 94.363 270.66 71.34 250.32 55.812 c 236.668 45.969 228.406 30.301 228 13.477
 c 228 0 l 156 0 l 156 13.477 l 155.582 30.312 147.305 45.98 133.633 55.812
 c 113.301 71.348 100.035 94.375 96.797 119.754 c 93.559 145.137 100.621
 170.754 116.398 190.895 c 89.312 208.188 72.652 237.871 72 270 c 72 326.242
 125.832 372 192 372 c 258.168 372 312 326.242 312 270 c 311.348 237.871
 294.688 208.188 267.602 190.895 c h
192 252 m 163.938 253.043 136.891 241.43 118.32 220.367 c 123.066 215.777
 128.297 211.715 133.922 208.246 c 168.172 234.582 215.852 234.582 250.105
 208.246 c 255.727 211.715 260.957 215.777 265.703 220.367 c 247.129 241.438
 220.07 253.051 192 252 c h
148.234 74.867 m 164.805 62.602 175.926 44.348 179.23 24 c 204.77 24 l 
208.074 44.348 219.195 62.602 235.766 74.867 c 260.27 93.625 270.094 125.914
 260.191 155.145 c 250.289 184.375 222.859 204.039 192 204.039 c 161.141
 204.039 133.711 184.375 123.809 155.145 c 113.906 125.914 123.73 93.625
 148.234 74.867 c h
192 348 m 139.066 348 96 313.008 96 270 c 96.059 259.516 98.648 249.199
 103.547 239.93 c 121.359 258.707 145.086 270.797 170.746 274.176 c 157.969
 293.375 l 177.938 306.695 l 192 285.602 l 206.016 306.625 l 225.984 293.305
 l 213.203 274.105 l 238.867 270.727 262.59 258.637 280.402 239.855 c 285.332
 249.145 287.938 259.484 288 270 c 288 313.008 244.934 348 192 348 c h
192 348 m f
Q Q
showpage
%%Trailer
end
%%EOF
