%!PS-Adobe-3.0 EPSF-3.0
%%Creator: cairo 1.16.0 (https://cairographics.org)
%%CreationDate: Tue Jan 28 07:31:48 2020
%%Pages: 1
%%DocumentData: Clean7Bit
%%LanguageLevel: 2
%%BoundingBox: 12 12 372 372
%%EndComments
%%BeginProlog
50 dict begin
/q { gsave } bind def
/Q { grestore } bind def
/cm { 6 array astore concat } bind def
/w { setlinewidth } bind def
/J { setlinecap } bind def
/j { setlinejoin } bind def
/M { setmiterlimit } bind def
/d { setdash } bind def
/m { moveto } bind def
/l { lineto } bind def
/c { curveto } bind def
/h { closepath } bind def
/re { exch dup neg 3 1 roll 5 3 roll moveto 0 rlineto
      0 exch rlineto 0 rlineto closepath } bind def
/S { stroke } bind def
/f { fill } bind def
/f* { eofill } bind def
/n { newpath } bind def
/W { clip } bind def
/W* { eoclip } bind def
/BT { } bind def
/ET { } bind def
/BDC { mark 3 1 roll /BDC pdfmark } bind def
/EMC { mark /EMC pdfmark } bind def
/cairo_store_point { /cairo_point_y exch def /cairo_point_x exch def } def
/Tj { show currentpoint cairo_store_point } bind def
/TJ {
  {
    dup
    type /stringtype eq
    { show } { -0.001 mul 0 cairo_font_matrix dtransform rmoveto } ifelse
  } forall
  currentpoint cairo_store_point
} bind def
/cairo_selectfont { cairo_font_matrix aload pop pop pop 0 0 6 array astore
    cairo_font exch selectfont cairo_point_x cairo_point_y moveto } bind def
/Tf { pop /cairo_font exch def /cairo_font_matrix where
      { pop cairo_selectfont } if } bind def
/Td { matrix translate cairo_font_matrix matrix concatmatrix dup
      /cairo_font_matrix exch def dup 4 get exch 5 get cairo_store_point
      /cairo_font where { pop cairo_selectfont } if } bind def
/Tm { 2 copy 8 2 roll 6 array astore /cairo_font_matrix exch def
      cairo_store_point /cairo_font where { pop cairo_selectfont } if } bind def
/g { setgray } bind def
/rg { setrgbcolor } bind def
/d1 { setcachedevice } bind def
/cairo_data_source {
  CairoDataIndex CairoData length lt
    { CairoData CairoDataIndex get /CairoDataIndex CairoDataIndex 1 add def }
    { () } ifelse
} def
/cairo_flush_ascii85_file { cairo_ascii85_file status { cairo_ascii85_file flushfile } if } def
/cairo_image { image cairo_flush_ascii85_file } def
/cairo_imagemask { imagemask cairo_flush_ascii85_file } def
%%EndProlog
%%BeginSetup
%%EndSetup
%%Page: 1 1
%%BeginPageSetup
%%PageBoundingBox: 12 12 372 372
%%EndPageSetup
q 12 12 360 360 rectclip
1 0 0 -1 0 384 cm q
1 0.901961 0.196078 rg
24 120 336 240 re f
1 0.941176 0.431373 rg
48 72 m 360 72 l 360 48 l 24 48 l 24 360 l 48 360 l h
48 72 m f
1 0.231373 0.25098 rg
24 48 336 72 re f
1 0.411765 0.439216 rg
24 48 m 24 120 l 48 120 l 48 72 l 360 72 l 360 48 l h
24 48 m f
1 g
264 240 m 264 279.766 231.766 312 192 312 c 152.234 312 120 279.766 120
 240 c 120 200.234 152.234 168 192 168 c 211.094 168 229.41 175.586 242.91
 189.09 c 256.414 202.59 264 220.906 264 240 c h
264 240 m f
0.223529 g
192 168 m 172.117 168 156 184.117 156 204 c 156 223.883 172.117 240 192
 240 c 211.883 240 228 256.117 228 276 c 228 295.883 211.883 312 192 312
 c 231.766 312 264 279.766 264 240 c 264 200.234 231.766 168 192 168 c h
192 168 m f
0 g
315.996 36 m 315.996 12 l 291.996 12 l 291.996 36 l 260.004 36 l 260.004
 12 l 236.004 12 l 236.004 36 l 204 36 l 204 12 l 180 12 l 180 36 l 147.996
 36 l 147.996 12 l 123.996 12 l 123.996 36 l 92.004 36 l 92.004 12 l 68.004
 12 l 68.004 36 l 12 36 l 12 372 l 372 372 l 372 36 l h
348 348 m 36 348 l 36 132 l 348 132 l h
36 108 m 36 60 l 68.004 60 l 68.004 84 l 92.004 84 l 92.004 60 l 123.996
 60 l 123.996 84 l 147.996 84 l 147.996 60 l 180 60 l 180 84 l 204 84 l 
204 60 l 236.004 60 l 236.004 84 l 260.004 84 l 260.004 60 l 291.996 60 
l 291.996 84 l 315.996 84 l 315.996 60 l 348 60 l 348 108 l h
36 108 m f
192 324 m 225.977 324 256.605 303.535 269.605 272.145 c 282.609 240.758
 275.422 204.625 251.398 180.602 c 227.375 156.578 191.242 149.391 159.855
 162.395 c 128.465 175.395 108 206.023 108 240 c 108.055 286.371 145.629
 323.945 192 324 c h
252 240 m 251.973 252.875 247.762 265.391 240 275.664 c 239.816 249.285
 218.379 228 192 228 c 178.746 228 168 217.254 168 204 c 168 190.746 178.746
 180 192 180 c 225.121 180.039 251.961 206.879 252 240 c h
144 204.336 m 144.184 230.715 165.621 252 192 252 c 205.254 252 216 262.746
 216 276 c 216 289.254 205.254 300 192 300 c 158.879 299.961 132.039 273.121
 132 240 c 132.027 227.125 136.238 214.609 144 204.336 c h
144 204.336 m f
204 204 m 204 210.629 198.629 216 192 216 c 185.371 216 180 210.629 180
 204 c 180 197.371 185.371 192 192 192 c 198.629 192 204 197.371 204 204
 c h
204 204 m f
204 276 m 204 282.629 198.629 288 192 288 c 185.371 288 180 282.629 180
 276 c 180 269.371 185.371 264 192 264 c 198.629 264 204 269.371 204 276
 c h
204 276 m f
Q Q
showpage
%%Trailer
end
%%EOF
