%!PS-Adobe-3.0 EPSF-3.0
%%Creator: cairo 1.16.0 (https://cairographics.org)
%%CreationDate: Tue Jan 28 07:31:53 2020
%%Pages: 1
%%DocumentData: Clean7Bit
%%LanguageLevel: 2
%%BoundingBox: 12 12 372 373
%%EndComments
%%BeginProlog
50 dict begin
/q { gsave } bind def
/Q { grestore } bind def
/cm { 6 array astore concat } bind def
/w { setlinewidth } bind def
/J { setlinecap } bind def
/j { setlinejoin } bind def
/M { setmiterlimit } bind def
/d { setdash } bind def
/m { moveto } bind def
/l { lineto } bind def
/c { curveto } bind def
/h { closepath } bind def
/re { exch dup neg 3 1 roll 5 3 roll moveto 0 rlineto
      0 exch rlineto 0 rlineto closepath } bind def
/S { stroke } bind def
/f { fill } bind def
/f* { eofill } bind def
/n { newpath } bind def
/W { clip } bind def
/W* { eoclip } bind def
/BT { } bind def
/ET { } bind def
/BDC { mark 3 1 roll /BDC pdfmark } bind def
/EMC { mark /EMC pdfmark } bind def
/cairo_store_point { /cairo_point_y exch def /cairo_point_x exch def } def
/Tj { show currentpoint cairo_store_point } bind def
/TJ {
  {
    dup
    type /stringtype eq
    { show } { -0.001 mul 0 cairo_font_matrix dtransform rmoveto } ifelse
  } forall
  currentpoint cairo_store_point
} bind def
/cairo_selectfont { cairo_font_matrix aload pop pop pop 0 0 6 array astore
    cairo_font exch selectfont cairo_point_x cairo_point_y moveto } bind def
/Tf { pop /cairo_font exch def /cairo_font_matrix where
      { pop cairo_selectfont } if } bind def
/Td { matrix translate cairo_font_matrix matrix concatmatrix dup
      /cairo_font_matrix exch def dup 4 get exch 5 get cairo_store_point
      /cairo_font where { pop cairo_selectfont } if } bind def
/Tm { 2 copy 8 2 roll 6 array astore /cairo_font_matrix exch def
      cairo_store_point /cairo_font where { pop cairo_selectfont } if } bind def
/g { setgray } bind def
/rg { setrgbcolor } bind def
/d1 { setcachedevice } bind def
/cairo_data_source {
  CairoDataIndex CairoData length lt
    { CairoData CairoDataIndex get /CairoDataIndex CairoDataIndex 1 add def }
    { () } ifelse
} def
/cairo_flush_ascii85_file { cairo_ascii85_file status { cairo_ascii85_file flushfile } if } def
/cairo_image { image cairo_flush_ascii85_file } def
/cairo_imagemask { imagemask cairo_flush_ascii85_file } def
%%EndProlog
%%BeginSetup
%%EndSetup
%%Page: 1 1
%%BeginPageSetup
%%PageBoundingBox: 12 12 372 373
%%EndPageSetup
q 12 12 360 361 rectclip
1 0 0 -1 0 384 cm q
0.690196 g
270 240 m 286.57 240 300 253.43 300 270 c 300 312 l 240 312 l 240 270 l
 240 253.43 253.43 240 270 240 c h
270 240 m f
0.823529 g
282 242.531 m 272.73 238.484 262.043 239.383 253.578 244.922 c 245.113 
250.457 240.008 259.887 240 270 c 240 312 l 264 312 l 264 270 l 264.012 
258.082 271.078 247.301 282 242.531 c h
282 242.531 m f
1 0.847059 0.0392157 rg
336 312 m 192 300 l 48 312 l 48 338.508 69.492 360 96 360 c 288 360 l 314.508
 360 336 338.508 336 312 c h
336 312 m f
1 0.745098 0.0392157 rg
305.34 312 m 296.84 326.812 281.078 335.961 264 336 c 72 336 l 65.207 335.984
 58.496 334.512 52.32 331.68 c 60.039 348.895 77.137 359.98 96 360 c 288
 360 l 314.508 360 336 338.508 336 312 c h
305.34 312 m f
0.27451 0.882353 0.247059 rg
323.172 75.742 m 320.355 54.188 305.992 35.887 285.719 28.023 c 265.449
 20.164 242.504 23.996 225.887 38.016 c 215.43 27.555 200.711 22.527 186.039
 24.406 c 171.363 26.285 158.387 34.855 150.898 47.617 c 140.086 38.246 
125.621 34.266 111.535 36.777 c 97.449 39.293 85.254 48.031 78.348 60.562
 c 61.777 62.473 47.395 72.871 40.383 88.004 c 33.371 103.141 34.742 120.836
 44.004 134.711 c 53.266 148.586 69.078 156.641 85.746 155.973 c 102.414
 155.301 117.531 146.008 125.652 131.438 c 140.402 129.707 153.508 121.207
 161.102 108.445 c 175.418 120.957 195.883 123.559 212.879 115.031 c 223.672
 132.973 243.062 143.961 264 144 c 267.895 143.973 271.777 143.574 275.594
 142.801 c 284.219 151.914 296.477 156.684 308.996 155.801 c 321.516 154.914
 332.98 148.469 340.242 138.23 c 347.504 127.992 349.797 115.043 346.488
 102.934 c 343.184 90.824 334.629 80.836 323.172 75.707 c h
323.172 75.742 m f
0.509804 0.956863 0.380392 rg
60 132 m 60.047 107.738 78.246 87.352 102.348 84.562 c 109.242 72.023 121.434
 63.27 135.52 60.742 c 149.605 58.219 164.078 62.191 174.898 71.555 c 182.398
 58.805 195.379 50.246 210.051 48.379 c 224.727 46.512 239.438 51.547 249.887
 62.016 c 268.539 46.102 295.129 43.488 316.523 55.465 c 308.109 39.633 
292.984 28.461 275.379 25.07 c 257.773 21.684 239.578 26.441 225.887 38.016
 c 215.43 27.555 200.711 22.527 186.039 24.406 c 171.363 26.285 158.387 
34.855 150.898 47.617 c 140.086 38.246 125.621 34.266 111.535 36.777 c 97.449
 39.293 85.254 48.031 78.348 60.562 c 56.945 63.012 39.832 79.477 36.555
 100.766 c 33.273 122.059 44.648 142.906 64.32 151.68 c 61.488 145.504 60.016
 138.793 60 132 c h
60 132 m f
0 g
372 300 m 312 300 l 312 270 l 312 246.805 293.195 228 270 228 c 246.805
 228 228 246.805 228 270 c 228 300 l 204 300 l 177.492 300 156 278.508 156
 252 c 156 228 l 180 228 l 195.203 227.938 208.727 218.332 213.793 204 c
 264 204 l 286.004 203.934 305.145 188.914 310.441 167.555 c 333.754 165.723
 353.207 149.031 358.566 126.266 c 363.922 103.5 353.949 79.887 333.898 
67.848 c 326.348 35.289 297.422 12.18 264 12 c 250.707 11.98 237.68 15.723
 226.43 22.801 c 201.918 5.621 168.48 9.211 148.176 31.199 c 139.527 26.496
 129.844 24.023 120 24 c 100.484 24.07 82.223 33.645 71.062 49.656 c 45.711
 55.184 26.82 76.43 24.297 102.254 c 21.773 128.082 36.195 152.582 60 162.91
 c 60 192 l 60 211.883 76.117 228 96 228 c 132 228 l 132 252 l 132.004 269.734
 138.59 286.84 150.48 300 c 12 300 l 12 324 l 37.199 324 l 42.941 351.918
 67.5 371.965 96 372 c 288 372 l 316.5 371.965 341.059 351.918 346.801 324
 c 372 324 l h
180 204 m 156 204 l 156 131.688 l 158.801 129.609 161.41 127.289 163.801
 124.754 c 172.477 129.375 182.168 131.754 192 131.676 c 192 192 l 192 198.629
 186.629 204 180 204 c h
264 180 m 216 180 l 216 137.41 l 230.992 151.328 251.34 157.969 271.656
 155.566 c 276.094 159.23 281.086 162.156 286.453 164.23 c 283.008 173.668
 274.047 179.961 264 180 c h
48 108 m 48.07 89.828 61.711 74.578 79.766 72.492 c 85.766 71.773 l 88.801
 66.469 l 95.113 55.141 107.031 48.086 120 48 c 128.504 48.043 136.715 51.137
 143.137 56.711 c 153.938 65.879 l 161.137 53.699 l 166.742 44.129 176.469
 37.695 187.469 36.285 c 198.473 34.875 209.508 38.648 217.344 46.5 c 225.086
 54.215 l 233.484 47.242 l 242.004 40 252.816 36.016 264 36 c 287.859 36.133
 308 53.766 311.281 77.398 c 312.191 84 l 318.254 86.723 l 326.457 90.371
 332.59 97.504 334.969 106.16 c 337.344 114.816 335.711 124.082 330.516 
131.406 c 325.32 138.727 317.117 143.332 308.16 143.953 c 299.207 144.574
 290.445 141.141 284.293 134.605 c 279.758 129.805 l 273.277 131.074 l 270.223
 131.691 267.113 132 264 132 c 247.242 131.988 231.723 123.176 223.129 108.793
 c 217.453 99.457 l 207.637 104.258 l 194.918 110.703 179.551 108.738 168.863
 99.301 c 158.062 90.145 l 150.863 102.312 l 145.191 111.887 135.363 118.254
 124.309 119.52 c 118.309 120.238 l 115.32 125.543 l 107.445 140.004 90.734
 147.238 74.801 143.086 c 58.871 138.934 47.816 124.461 48 108 c h
96 204 m 89.371 204 84 198.629 84 192 c 84 168 l 102.977 167.91 120.785
 158.828 132 143.52 c 132 204 l h
252 270 m 252 260.059 260.059 252 270 252 c 279.941 252 288 260.059 288
 270 c 288 300 l 252 300 l h
288 348 m 96 348 l 80.797 347.938 67.273 338.332 62.207 324 c 321.793 324
 l 316.727 338.332 303.203 347.938 288 348 c h
288 348 m f
Q Q
showpage
%%Trailer
end
%%EOF
