%!PS-Adobe-3.0 EPSF-3.0
%%Creator: cairo 1.16.0 (https://cairographics.org)
%%CreationDate: Tue Jan 28 07:31:55 2020
%%Pages: 1
%%DocumentData: Clean7Bit
%%LanguageLevel: 2
%%BoundingBox: 0 24 384 360
%%EndComments
%%BeginProlog
50 dict begin
/q { gsave } bind def
/Q { grestore } bind def
/cm { 6 array astore concat } bind def
/w { setlinewidth } bind def
/J { setlinecap } bind def
/j { setlinejoin } bind def
/M { setmiterlimit } bind def
/d { setdash } bind def
/m { moveto } bind def
/l { lineto } bind def
/c { curveto } bind def
/h { closepath } bind def
/re { exch dup neg 3 1 roll 5 3 roll moveto 0 rlineto
      0 exch rlineto 0 rlineto closepath } bind def
/S { stroke } bind def
/f { fill } bind def
/f* { eofill } bind def
/n { newpath } bind def
/W { clip } bind def
/W* { eoclip } bind def
/BT { } bind def
/ET { } bind def
/BDC { mark 3 1 roll /BDC pdfmark } bind def
/EMC { mark /EMC pdfmark } bind def
/cairo_store_point { /cairo_point_y exch def /cairo_point_x exch def } def
/Tj { show currentpoint cairo_store_point } bind def
/TJ {
  {
    dup
    type /stringtype eq
    { show } { -0.001 mul 0 cairo_font_matrix dtransform rmoveto } ifelse
  } forall
  currentpoint cairo_store_point
} bind def
/cairo_selectfont { cairo_font_matrix aload pop pop pop 0 0 6 array astore
    cairo_font exch selectfont cairo_point_x cairo_point_y moveto } bind def
/Tf { pop /cairo_font exch def /cairo_font_matrix where
      { pop cairo_selectfont } if } bind def
/Td { matrix translate cairo_font_matrix matrix concatmatrix dup
      /cairo_font_matrix exch def dup 4 get exch 5 get cairo_store_point
      /cairo_font where { pop cairo_selectfont } if } bind def
/Tm { 2 copy 8 2 roll 6 array astore /cairo_font_matrix exch def
      cairo_store_point /cairo_font where { pop cairo_selectfont } if } bind def
/g { setgray } bind def
/rg { setrgbcolor } bind def
/d1 { setcachedevice } bind def
/cairo_data_source {
  CairoDataIndex CairoData length lt
    { CairoData CairoDataIndex get /CairoDataIndex CairoDataIndex 1 add def }
    { () } ifelse
} def
/cairo_flush_ascii85_file { cairo_ascii85_file status { cairo_ascii85_file flushfile } if } def
/cairo_image { image cairo_flush_ascii85_file } def
/cairo_imagemask { imagemask cairo_flush_ascii85_file } def
%%EndProlog
%%BeginSetup
%%EndSetup
%%Page: 1 1
%%BeginPageSetup
%%PageBoundingBox: 0 24 384 360
%%EndPageSetup
q 0 24 384 336 rectclip
1 0 0 -1 0 384 cm q
1 0.231373 0.25098 rg
336 276 m 192 252 l 48 276 l 48 348 l 336 348 l h
336 276 m f
1 0.901961 0.196078 rg
48 228 288 48 re f
0.27451 0.882353 0.247059 rg
372 192 m 344.094 192.008 320.062 172.312 314.594 144.949 c 312 132 l 72
 132 l 69.406 144.938 l 63.938 172.305 39.91 192.004 12 192 c 12 211.883
 28.117 228 48 228 c 336 228 l 355.883 228 372 211.883 372 192 c h
372 192 m f
0.317647 0.792157 0.188235 rg
312 156 m 313.938 155.902 315.867 155.707 317.785 155.41 c 316.391 152.031
 315.32 148.52 314.594 144.938 c 312 132 l 72 132 l 69.406 144.938 l 68.68
 148.52 67.613 152.027 66.227 155.41 c 68.141 155.707 70.066 155.902 72 
156 c h
312 156 m f
0.27451 0.882353 0.247059 rg
348 96 m 320.094 96.008 296.062 76.312 290.594 48.949 c 288 36 l 96 36 
l 93.406 48.938 l 87.938 76.305 63.91 96.004 36 96 c 36 115.883 52.117 132
 72 132 c 312 132 l 321.547 132 330.703 128.207 337.457 121.457 c 344.207
 114.703 348 105.547 348 96 c h
348 96 m f
0.509804 0.956863 0.380392 rg
60 120 m 87.91 120.004 111.938 100.305 117.406 72.938 c 118.918 65.414 
125.527 60 133.199 60 c 294.07 60 l 292.543 56.438 291.379 52.73 290.594
 48.938 c 288 36 l 96 36 l 93.406 48.938 l 87.938 76.305 63.91 96.004 36
 96 c 36.035 111.859 46.477 125.812 61.68 130.32 c 60.617 126.98 60.051 
123.504 60 120 c h
60 120 m f
0.952941 0.0823529 0.141176 rg
96 276 192 72 re f
1 0.784314 0.0392157 rg
96 228 192 48 re f
0.317647 0.792157 0.188235 rg
96 132 192 96 re f
1 0.231373 0.25098 rg
264 348 m 120 348 l 120 180 l 192 156 l 264 180 l h
264 348 m f
1 0.901961 0.196078 rg
168 276 48 72 re f
120 132 144 48 re f
1 0.847059 0.0392157 rg
120 132 m 120 180 l 144 180 l 144 166.746 154.746 156 168 156 c 264 156
 l 264 132 l h
120 132 m f
0 g
348 238.297 m 369.129 232.84 383.918 213.82 384 192 c 384 180 l 372 180
 l 349.848 179.938 330.793 164.309 326.398 142.598 c 326.207 141.637 l 346.246
 135.461 359.938 116.969 360 96 c 360 84 l 348 84 l 325.848 83.938 306.793
 68.309 302.398 46.598 c 297.84 24 l 86.16 24 l 81.602 46.586 l 77.199 68.293
 58.152 83.922 36 84 c 24 84 l 24 96 l 24.082 116.969 37.793 135.449 57.84
 141.602 c 57.648 142.559 l 53.254 164.297 34.176 179.945 12 180 c 0 180
 l 0 192 l 0.082 213.82 14.871 232.84 36 238.297 c 36 336 l 12 336 l 12 
360 l 372 360 l 372 336 l 348 336 l h
276 240 m 324 240 l 324 264 l 276 264 l h
357.602 202.5 m 353.578 210.766 345.191 216.008 336 216 c 276 216 l 276
 144 l 302.16 144 l 302.82 147.289 l 308.43 174.973 329.961 196.672 357.602
 202.5 c h
252 168 m 132 168 l 132 144 l 252 144 l h
50.398 106.512 m 78.031 100.68 99.555 78.988 105.168 51.312 c 105.84 48
 l 278.16 48 l 278.82 51.289 l 284.434 78.961 305.949 100.652 333.574 106.488
 c 329.562 114.75 321.184 119.996 312 120 c 72 120 l 62.816 119.988 54.441
 114.758 50.398 106.512 c h
26.398 202.512 m 54.031 196.68 75.555 174.988 81.168 147.312 c 81.84 144
 l 108 144 l 108 216 l 48 216 l 38.816 215.988 30.441 210.758 26.398 202.512
 c h
60 240 m 108 240 l 108 264 l 60 264 l h
60 336 m 60 288 l 108 288 l 108 336 l h
180 336 m 180 288 l 204 288 l 204 336 l h
228 336 m 228 264 l 156 264 l 156 336 l 132 336 l 132 192 l 252 192 l 252
 336 l h
324 336 m 276 336 l 276 288 l 324 288 l h
324 336 m f
144 72 96 24 re f
Q Q
showpage
%%Trailer
end
%%EOF
