%!PS-Adobe-3.0 EPSF-3.0
%%Creator: cairo 1.16.0 (https://cairographics.org)
%%CreationDate: Tue Jan 28 07:31:57 2020
%%Pages: 1
%%DocumentData: Clean7Bit
%%LanguageLevel: 2
%%BoundingBox: 13 0 371 384
%%EndComments
%%BeginProlog
50 dict begin
/q { gsave } bind def
/Q { grestore } bind def
/cm { 6 array astore concat } bind def
/w { setlinewidth } bind def
/J { setlinecap } bind def
/j { setlinejoin } bind def
/M { setmiterlimit } bind def
/d { setdash } bind def
/m { moveto } bind def
/l { lineto } bind def
/c { curveto } bind def
/h { closepath } bind def
/re { exch dup neg 3 1 roll 5 3 roll moveto 0 rlineto
      0 exch rlineto 0 rlineto closepath } bind def
/S { stroke } bind def
/f { fill } bind def
/f* { eofill } bind def
/n { newpath } bind def
/W { clip } bind def
/W* { eoclip } bind def
/BT { } bind def
/ET { } bind def
/BDC { mark 3 1 roll /BDC pdfmark } bind def
/EMC { mark /EMC pdfmark } bind def
/cairo_store_point { /cairo_point_y exch def /cairo_point_x exch def } def
/Tj { show currentpoint cairo_store_point } bind def
/TJ {
  {
    dup
    type /stringtype eq
    { show } { -0.001 mul 0 cairo_font_matrix dtransform rmoveto } ifelse
  } forall
  currentpoint cairo_store_point
} bind def
/cairo_selectfont { cairo_font_matrix aload pop pop pop 0 0 6 array astore
    cairo_font exch selectfont cairo_point_x cairo_point_y moveto } bind def
/Tf { pop /cairo_font exch def /cairo_font_matrix where
      { pop cairo_selectfont } if } bind def
/Td { matrix translate cairo_font_matrix matrix concatmatrix dup
      /cairo_font_matrix exch def dup 4 get exch 5 get cairo_store_point
      /cairo_font where { pop cairo_selectfont } if } bind def
/Tm { 2 copy 8 2 roll 6 array astore /cairo_font_matrix exch def
      cairo_store_point /cairo_font where { pop cairo_selectfont } if } bind def
/g { setgray } bind def
/rg { setrgbcolor } bind def
/d1 { setcachedevice } bind def
/cairo_data_source {
  CairoDataIndex CairoData length lt
    { CairoData CairoDataIndex get /CairoDataIndex CairoDataIndex 1 add def }
    { () } ifelse
} def
/cairo_flush_ascii85_file { cairo_ascii85_file status { cairo_ascii85_file flushfile } if } def
/cairo_image { image cairo_flush_ascii85_file } def
/cairo_imagemask { imagemask cairo_flush_ascii85_file } def
%%EndProlog
%%BeginSetup
%%EndSetup
%%Page: 1 1
%%BeginPageSetup
%%PageBoundingBox: 13 0 371 384
%%EndPageSetup
q 13 0 358 384 rectclip
1 0 0 -1 0 384 cm q
1 0.231373 0.25098 rg
347.879 102 m 331.207 73.145 297.887 58.262 265.273 65.102 c 254.898 33.418
 225.336 11.992 192 11.992 c 158.664 11.992 129.102 33.418 118.727 65.102
 c 86.109 58.258 52.789 73.145 36.125 102.008 c 19.461 130.871 23.23 167.176
 45.469 192 c 23.23 216.824 19.461 253.129 36.125 281.992 c 52.789 310.855
 86.109 325.742 118.727 318.898 c 129.102 350.582 158.664 372.008 192 372.008
 c 225.336 372.008 254.898 350.582 265.273 318.898 c 297.891 325.742 331.211
 310.855 347.875 281.992 c 364.539 253.129 360.77 216.824 338.531 192 c 
360.766 167.172 364.535 130.867 347.879 102 c h
347.879 102 m f
0.952941 0.0823529 0.141176 rg
347.879 102 m 341.578 91.078 332.68 81.875 321.973 75.215 c 322.57 76.176
 323.316 77.004 323.891 78 c 340.547 106.867 336.777 143.172 314.543 168
 c 336.785 192.824 340.555 229.133 323.887 258 c 307.219 286.863 273.891
 301.75 241.273 294.898 c 233.965 317.516 216.586 335.465 194.215 343.496
 c 171.844 351.523 147.016 348.727 126.996 335.914 c 142.844 361.227 171.914
 375.07 201.551 371.422 c 231.188 367.773 256.035 347.297 265.273 318.898
 c 297.891 325.742 331.211 310.855 347.875 281.992 c 364.539 253.129 360.77
 216.824 338.531 192 c 360.766 167.172 364.535 130.867 347.879 102 c h
347.879 102 m f
1 0.411765 0.439216 rg
60.121 306 m 43.465 277.133 47.234 240.828 69.469 216 c 47.207 191.168 
43.438 154.836 60.125 125.961 c 76.809 97.086 110.168 82.215 142.801 89.102
 c 150.105 66.488 167.48 48.543 189.844 40.512 c 212.207 32.48 237.031 35.273
 257.051 48.07 c 241.211 22.734 212.125 8.867 182.465 12.52 c 152.809 16.172
 127.949 36.676 118.727 65.102 c 86.109 58.258 52.789 73.145 36.125 102.008
 c 19.461 130.871 23.23 167.176 45.469 192 c 30.266 208.938 23.332 231.73
 26.531 254.266 c 29.73 276.797 42.734 296.762 62.051 308.797 c 61.441 307.836
 60.695 306.996 60.121 306 c h
60.121 306 m f
1 0.870588 0.223529 rg
217.715 192 m 217.715 206.203 206.203 217.715 192 217.715 c 177.797 217.715
 166.285 206.203 166.285 192 c 166.285 177.797 177.797 166.285 192 166.285
 c 206.203 166.285 217.715 177.797 217.715 192 c h
217.715 192 m f
0.952941 0.0823529 0.141176 rg
192 229.715 m 176.746 229.715 162.992 220.527 157.156 206.434 c 151.316
 192.34 154.543 176.117 165.332 165.332 c 176.117 154.543 192.34 151.316
 206.434 157.156 c 220.527 162.992 229.715 176.746 229.715 192 c 229.691
 212.82 212.82 229.691 192 229.715 c h
192 178.285 m 186.453 178.285 181.449 181.625 179.328 186.75 c 177.207 
191.875 178.379 197.777 182.301 201.699 c 186.223 205.621 192.125 206.793
 197.25 204.672 c 202.375 202.551 205.715 197.547 205.715 192 c 205.703 
184.43 199.57 178.297 192 178.285 c h
192 178.285 m f
0 g
358.273 96 m 340.918 65.844 307.57 48.578 272.93 51.816 c 258.375 20.23
 226.773 -0.004 191.992 -0.004 c 157.215 -0.004 125.613 20.23 111.059 51.816
 c 76.434 48.641 43.117 65.895 25.73 96.008 c 8.348 126.125 10.062 163.602
 30.133 192 c 10.062 220.398 8.348 257.875 25.73 287.992 c 43.117 318.105
 76.434 335.359 111.059 332.184 c 125.613 363.77 157.215 384.004 191.992
 384.004 c 226.773 384.004 258.375 363.77 272.93 332.184 c 307.559 335.367
 340.875 318.113 358.266 287.996 c 375.656 257.883 373.938 220.402 353.867
 192 c 373.992 163.617 375.711 126.105 358.273 96 c h
329.605 200.004 m 348.375 220.969 351.555 251.625 337.484 275.996 c 323.41
 300.367 295.273 312.941 267.73 307.164 c 257.219 304.957 l 253.859 315.168
 l 245.098 341.918 220.141 360.004 191.992 360.004 c 163.848 360.004 138.891
 341.918 130.129 315.168 c 126.781 304.957 l 116.27 307.164 l 88.723 312.949
 60.578 300.379 46.504 276 c 32.434 251.625 35.621 220.965 54.406 200.004
 c 61.609 192 l 54.406 183.996 l 35.59 163.039 32.383 132.359 46.461 107.965
 c 60.539 83.566 88.707 70.992 116.27 76.801 c 126.781 79.008 l 130.129 
68.797 l 138.891 42.047 163.848 23.961 191.992 23.961 c 220.141 23.961 245.098
 42.047 253.859 68.797 c 257.219 79.008 l 267.73 76.801 l 295.273 71.023
 323.41 83.598 337.484 107.969 c 351.555 132.34 348.375 162.992 329.605 
183.961 c 322.402 191.965 l h
329.605 200.004 m f
285.469 124.176 m 224.797 159.203 l 240.539 131.93 l 219.742 119.93 l 204
 147.215 l 204 77.148 l 180 77.148 l 180 147.215 l 164.242 119.93 l 143.461
 131.93 l 159.215 159.215 l 98.531 124.176 l 86.531 144.961 l 147.203 180
 l 115.715 180 l 115.715 204 l 147.203 204 l 86.531 239.039 l 98.531 259.824
 l 159.215 224.785 l 143.461 252.07 l 164.242 264.07 l 180 236.785 l 180
 306.852 l 204 306.852 l 204 236.785 l 219.742 264.07 l 240.539 252.07 l
 224.797 224.797 l 285.469 259.824 l 297.469 239.039 l 236.785 204 l 268.285
 204 l 268.285 180 l 236.785 180 l 297.469 144.961 l h
205.715 192 m 205.715 197.547 202.375 202.551 197.25 204.672 c 192.125 
206.793 186.223 205.621 182.301 201.699 c 178.379 197.777 177.207 191.875
 179.328 186.75 c 181.449 181.625 186.453 178.285 192 178.285 c 199.57 178.297
 205.703 184.43 205.715 192 c h
205.715 192 m f
Q Q
showpage
%%Trailer
end
%%EOF
