%!PS-Adobe-3.0 EPSF-3.0
%%Creator: cairo 1.16.0 (https://cairographics.org)
%%CreationDate: Tue Jan 28 07:31:57 2020
%%Pages: 1
%%DocumentData: Clean7Bit
%%LanguageLevel: 2
%%BoundingBox: 0 6 384 377
%%EndComments
%%BeginProlog
50 dict begin
/q { gsave } bind def
/Q { grestore } bind def
/cm { 6 array astore concat } bind def
/w { setlinewidth } bind def
/J { setlinecap } bind def
/j { setlinejoin } bind def
/M { setmiterlimit } bind def
/d { setdash } bind def
/m { moveto } bind def
/l { lineto } bind def
/c { curveto } bind def
/h { closepath } bind def
/re { exch dup neg 3 1 roll 5 3 roll moveto 0 rlineto
      0 exch rlineto 0 rlineto closepath } bind def
/S { stroke } bind def
/f { fill } bind def
/f* { eofill } bind def
/n { newpath } bind def
/W { clip } bind def
/W* { eoclip } bind def
/BT { } bind def
/ET { } bind def
/BDC { mark 3 1 roll /BDC pdfmark } bind def
/EMC { mark /EMC pdfmark } bind def
/cairo_store_point { /cairo_point_y exch def /cairo_point_x exch def } def
/Tj { show currentpoint cairo_store_point } bind def
/TJ {
  {
    dup
    type /stringtype eq
    { show } { -0.001 mul 0 cairo_font_matrix dtransform rmoveto } ifelse
  } forall
  currentpoint cairo_store_point
} bind def
/cairo_selectfont { cairo_font_matrix aload pop pop pop 0 0 6 array astore
    cairo_font exch selectfont cairo_point_x cairo_point_y moveto } bind def
/Tf { pop /cairo_font exch def /cairo_font_matrix where
      { pop cairo_selectfont } if } bind def
/Td { matrix translate cairo_font_matrix matrix concatmatrix dup
      /cairo_font_matrix exch def dup 4 get exch 5 get cairo_store_point
      /cairo_font where { pop cairo_selectfont } if } bind def
/Tm { 2 copy 8 2 roll 6 array astore /cairo_font_matrix exch def
      cairo_store_point /cairo_font where { pop cairo_selectfont } if } bind def
/g { setgray } bind def
/rg { setrgbcolor } bind def
/d1 { setcachedevice } bind def
/cairo_data_source {
  CairoDataIndex CairoData length lt
    { CairoData CairoDataIndex get /CairoDataIndex CairoDataIndex 1 add def }
    { () } ifelse
} def
/cairo_flush_ascii85_file { cairo_ascii85_file status { cairo_ascii85_file flushfile } if } def
/cairo_image { image cairo_flush_ascii85_file } def
/cairo_imagemask { imagemask cairo_flush_ascii85_file } def
%%EndProlog
%%BeginSetup
%%EndSetup
%%Page: 1 1
%%BeginPageSetup
%%PageBoundingBox: 0 6 384 377
%%EndPageSetup
q 0 6 384 371 rectclip
1 0 0 -1 0 384 cm q
1 0.231373 0.25098 rg
276 156 m 324 155.723 l 372 132 l 372 180 l 372 217.77 354.215 253.336 
324 276 c 372 276 l 372 322.391 334.391 360 288 360 c 272.145 360 256.438
 356.973 241.715 351.086 c 204 336 l 204 360 l 144 336 l 144 360 l 84 336
 l 84 360 l 79.703 358.285 l 46.062 344.82 24 312.234 24 276 c 138 276 l
 154.57 276 168 262.57 168 246 c 168 229.43 154.57 216 138 216 c 24 216 
l 24 144 l 180 144 l 228 120 l h
276 156 m f
0.952941 0.0823529 0.141176 rg
336 149.797 m 336 180 l 336 217.77 318.215 253.336 288 276 c 324 276 l 
354.215 253.336 372 217.77 372 180 c 372 132 l h
336 149.797 m f
264 336 m 248.145 336 232.438 332.973 217.715 327.086 c 180 312 l 180 336
 l 120 312 l 120 336 l 60 312 l 60 336 l 55.703 334.285 l 49.785 331.832
 44.148 328.734 38.902 325.055 c 48.82 340.012 63.051 351.602 79.703 358.285
 c 84 360 l 84 336 l 144 360 l 144 336 l 204 360 l 204 336 l 241.715 351.086
 l 256.438 356.973 272.145 360 288 360 c 334.391 360 372 322.391 372 276
 c 344.473 276 l 333.859 311.59 301.137 335.988 264 336 c h
264 336 m f
108 144 m 24 144 l 24 193.43 l 31.641 196.449 39.785 198 48 198 c 79.438
 199.531 106.227 175.422 108 144 c h
108 144 m f
1 0.784314 0.0392157 rg
84 144 m 84 160.57 67.883 174 48 174 c 28.117 174 12 160.57 12 144 c 12
 127.43 28.117 114 48 114 c 67.883 114 84 127.43 84 144 c h
84 144 m f
0.952941 0.0823529 0.141176 rg
204 192 m 231.816 191.961 257.121 175.906 269.004 150.758 c 228 120 l 180
 144 l 136.199 144 l 146.359 172.738 173.52 191.965 204 192 c h
204 192 m f
1 g
252 120 m 252 146.508 230.508 168 204 168 c 177.492 168 156 146.508 156
 120 c 156 93.492 177.492 72 204 72 c 230.508 72 252 93.492 252 120 c h
252 120 m f
0 g
384 112.691 m 321.168 143.734 l 302.594 143.844 l 372 64.488 l 371.797 
12 l 347.797 12.098 l 347.93 43.008 l 312 7.031 l 295.031 24 l 337.98 66.949
 l 274.297 139.715 l 262.871 131.148 l 266.266 113.496 261.566 95.258 250.07
 81.441 c 238.574 67.625 221.488 59.691 203.516 59.824 c 185.543 59.953 
168.574 68.133 157.281 82.113 c 145.984 96.094 141.551 114.402 145.199 132
 c 93.77 132 l 89.34 119.957 79.898 110.43 67.895 105.887 c 73.531 99.609
 81.562 96.016 90 96 c 119.809 95.969 143.969 71.809 144 42 c 144 24 l 120
 24 l 120 42 l 120 58.57 106.57 72 90 72 c 69.332 72.062 50.52 83.934 41.566
 102.562 c 19.234 103.895 1.402 121.672 0 144 c 0.16 154.402 4.48 164.305
 12 171.492 c 12 228 l 138 228 l 147.941 228 156 236.059 156 246 c 156 255.941
 147.941 264 138 264 c 12 264 l 12 276 l 11.871 317.188 36.973 354.258 75.266
 369.434 c 96 377.711 l 96 353.711 l 156 377.711 l 156 353.711 l 216 377.711
 l 216 353.711 l 237.254 362.219 l 253.387 368.691 270.613 372.012 288 372
 c 340.996 371.941 383.941 328.996 384 276 c 384 264 l 353.762 264 l 373.238
 240.332 383.926 210.652 384 180 c h
204 84 m 218.562 84 231.688 92.77 237.258 106.223 c 242.832 119.676 239.75
 135.16 229.457 145.457 c 219.16 155.75 203.676 158.832 190.223 153.258 
c 176.77 147.688 168 134.562 168 120 c 168 100.117 184.117 84 204 84 c h
36 128.578 m 36 144 l 60 144 l 60 128.578 l 66.684 130.914 71.379 136.949
 72 144 c 72 153.758 61.008 162 48 162 c 34.992 162 24 153.758 24 144 c 
24.621 136.949 29.316 130.914 36 128.578 c h
360 180 m 359.918 213.977 343.93 245.949 316.801 266.398 c 288 288 l 358.992
 288 l 353.09 322.617 323.117 347.949 288 348 c 273.668 348.012 259.469 
345.273 246.168 339.938 c 192 318.277 l 192 342.277 l 132 318.277 l 132 
342.277 l 72 318.277 l 72 340.992 l 53.141 329.289 40.332 309.934 36.926
 288 c 138 288 l 161.195 288 180 269.195 180 246 c 180 222.805 161.195 204
 138 204 c 36 204 l 36 184.512 l 39.934 185.457 43.957 185.953 48 186 c 
68.062 186.68 86.387 174.668 93.77 156 c 156.312 156 l 167.82 171.445 186.082
 180.379 205.34 179.984 c 224.598 179.59 242.48 169.914 253.344 154.008 
c 272.027 168 l 326.832 167.688 l 360 151.309 l h
360 180 m f
204 120 m 204 126.629 198.629 132 192 132 c 185.371 132 180 126.629 180
 120 c 180 113.371 185.371 108 192 108 c 198.629 108 204 113.371 204 120
 c h
204 120 m f
Q Q
showpage
%%Trailer
end
%%EOF
