%!PS-Adobe-3.0 EPSF-3.0
%%Creator: cairo 1.16.0 (https://cairographics.org)
%%CreationDate: Tue Jan 28 07:31:58 2020
%%Pages: 1
%%DocumentData: Clean7Bit
%%LanguageLevel: 2
%%BoundingBox: 47 0 337 384
%%EndComments
%%BeginProlog
50 dict begin
/q { gsave } bind def
/Q { grestore } bind def
/cm { 6 array astore concat } bind def
/w { setlinewidth } bind def
/J { setlinecap } bind def
/j { setlinejoin } bind def
/M { setmiterlimit } bind def
/d { setdash } bind def
/m { moveto } bind def
/l { lineto } bind def
/c { curveto } bind def
/h { closepath } bind def
/re { exch dup neg 3 1 roll 5 3 roll moveto 0 rlineto
      0 exch rlineto 0 rlineto closepath } bind def
/S { stroke } bind def
/f { fill } bind def
/f* { eofill } bind def
/n { newpath } bind def
/W { clip } bind def
/W* { eoclip } bind def
/BT { } bind def
/ET { } bind def
/BDC { mark 3 1 roll /BDC pdfmark } bind def
/EMC { mark /EMC pdfmark } bind def
/cairo_store_point { /cairo_point_y exch def /cairo_point_x exch def } def
/Tj { show currentpoint cairo_store_point } bind def
/TJ {
  {
    dup
    type /stringtype eq
    { show } { -0.001 mul 0 cairo_font_matrix dtransform rmoveto } ifelse
  } forall
  currentpoint cairo_store_point
} bind def
/cairo_selectfont { cairo_font_matrix aload pop pop pop 0 0 6 array astore
    cairo_font exch selectfont cairo_point_x cairo_point_y moveto } bind def
/Tf { pop /cairo_font exch def /cairo_font_matrix where
      { pop cairo_selectfont } if } bind def
/Td { matrix translate cairo_font_matrix matrix concatmatrix dup
      /cairo_font_matrix exch def dup 4 get exch 5 get cairo_store_point
      /cairo_font where { pop cairo_selectfont } if } bind def
/Tm { 2 copy 8 2 roll 6 array astore /cairo_font_matrix exch def
      cairo_store_point /cairo_font where { pop cairo_selectfont } if } bind def
/g { setgray } bind def
/rg { setrgbcolor } bind def
/d1 { setcachedevice } bind def
/cairo_data_source {
  CairoDataIndex CairoData length lt
    { CairoData CairoDataIndex get /CairoDataIndex CairoDataIndex 1 add def }
    { () } ifelse
} def
/cairo_flush_ascii85_file { cairo_ascii85_file status { cairo_ascii85_file flushfile } if } def
/cairo_image { image cairo_flush_ascii85_file } def
/cairo_imagemask { imagemask cairo_flush_ascii85_file } def
%%EndProlog
%%BeginSetup
%%EndSetup
%%Page: 1 1
%%BeginPageSetup
%%PageBoundingBox: 47 0 337 384
%%EndPageSetup
q 47 0 290 384 rectclip
1 0 0 -1 0 384 cm q
1 0.705882 0.0392157 rg
324 240 m 324 312.902 264.902 372 192 372 c 119.098 372 60 312.902 60 240
 c 60 167.098 119.098 108 192 108 c 264.902 108 324 167.098 324 240 c h
324 240 m f
1 0.784314 0.0392157 rg
84 264 m 83.941 213.688 112.52 167.73 157.668 145.531 c 202.816 123.328
 256.664 128.762 296.473 159.527 c 273.34 129.422 238.355 110.746 200.473
 108.277 c 162.586 105.805 125.473 119.781 98.629 146.629 c 71.781 173.473
 57.805 210.586 60.277 248.473 c 62.746 286.355 81.422 321.34 111.527 344.473
 c 93.676 321.445 83.992 293.137 84 264 c h
84 264 m f
0.27451 0.882353 0.247059 rg
288 12 m 288 12 290.398 57.492 264 84 c 237.602 110.508 192.098 108 192.098
 108 c 192.098 108 189.602 62.508 216 36 c 242.398 9.492 288 12 288 12 c
 h
288 12 m f
0.509804 0.956863 0.380392 rg
240 48 m 253.184 35.938 269.746 28.199 287.461 25.824 c 287.926 21.23 288.105
 16.613 288 12 c 288 12 242.508 9.602 216 36 c 189.492 62.398 192 107.902
 192 107.902 c 200.188 108.117 208.375 107.512 216.445 106.105 c 217.461
 84.621 225.77 64.129 240 48 c h
240 48 m f
0 g
249.77 108.191 m 258.145 104.238 265.797 98.898 272.398 92.398 c 302.398
 62.531 300 13.477 299.914 11.398 c 299.328 0.672 l 288.602 0.086 l 286.598
 -0.086 237.48 -2.398 207.602 27.602 c 198.277 37.289 191.301 48.984 187.199
 61.789 c 173.535 45.43 153.312 35.98 132 36 c 120 36 l 120 60 l 132 60 
l 154.102 60.062 173.301 75.207 178.512 96.684 c 106.27 103.422 50.305 162.82
 47.871 235.336 c 45.434 307.848 97.293 370.867 168.922 382.434 c 240.547
 394 309.605 350.512 330.121 280.918 c 350.641 211.324 316.215 137.328 249.77
 108.191 c h
224.52 44.52 m 238.785 32.266 256.766 25.18 275.555 24.406 c 274.758 43.195
 267.688 61.176 255.48 75.48 c 241.215 87.73 223.234 94.816 204.445 95.594
 c 205.238 76.801 212.305 58.82 224.52 44.52 c h
192 360 m 143.465 360 99.707 330.762 81.133 285.922 c 62.562 241.082 72.828
 189.469 107.148 155.148 c 141.469 120.828 193.082 110.562 237.922 129.133
 c 282.762 147.707 312 191.465 312 240 c 311.926 306.242 258.242 359.926
 192 360 c h
192 360 m f
117.086 252 m 113.656 255.434 112.629 260.594 114.488 265.074 c 116.348
 269.559 120.723 272.48 125.574 272.48 c 130.426 272.48 134.801 269.559 
136.66 265.074 c 138.516 260.594 137.492 255.434 134.062 252 c 131.812 249.746
 128.758 248.48 125.574 248.48 c 122.391 248.48 119.336 249.746 117.086 
252 c h
117.086 252 m f
151.031 285.938 m 147.598 289.367 146.57 294.531 148.43 299.016 c 150.285
 303.5 154.664 306.422 159.516 306.422 c 164.371 306.422 168.746 303.5 170.602
 299.016 c 172.461 294.531 171.434 289.367 168 285.938 c 163.312 281.25 
155.719 281.25 151.031 285.938 c h
151.031 285.938 m f
159.516 243.516 m 156.082 246.949 155.055 252.109 156.914 256.594 c 158.77
 261.078 163.145 264.004 168 264.004 c 172.855 264.004 177.23 261.078 179.086
 256.594 c 180.945 252.109 179.918 246.949 176.484 243.516 c 171.797 238.832
 164.203 238.832 159.516 243.516 c h
159.516 243.516 m f
Q Q
showpage
%%Trailer
end
%%EOF
