%!PS-Adobe-3.0 EPSF-3.0
%%Creator: cairo 1.16.0 (https://cairographics.org)
%%CreationDate: Mon Dec 14 10:22:49 2020
%%Pages: 1
%%DocumentData: Clean7Bit
%%LanguageLevel: 2
%%BoundingBox: 16 8 368 375
%%EndComments
%%BeginProlog
50 dict begin
/q { gsave } bind def
/Q { grestore } bind def
/cm { 6 array astore concat } bind def
/w { setlinewidth } bind def
/J { setlinecap } bind def
/j { setlinejoin } bind def
/M { setmiterlimit } bind def
/d { setdash } bind def
/m { moveto } bind def
/l { lineto } bind def
/c { curveto } bind def
/h { closepath } bind def
/re { exch dup neg 3 1 roll 5 3 roll moveto 0 rlineto
      0 exch rlineto 0 rlineto closepath } bind def
/S { stroke } bind def
/f { fill } bind def
/f* { eofill } bind def
/n { newpath } bind def
/W { clip } bind def
/W* { eoclip } bind def
/BT { } bind def
/ET { } bind def
/BDC { mark 3 1 roll /BDC pdfmark } bind def
/EMC { mark /EMC pdfmark } bind def
/cairo_store_point { /cairo_point_y exch def /cairo_point_x exch def } def
/Tj { show currentpoint cairo_store_point } bind def
/TJ {
  {
    dup
    type /stringtype eq
    { show } { -0.001 mul 0 cairo_font_matrix dtransform rmoveto } ifelse
  } forall
  currentpoint cairo_store_point
} bind def
/cairo_selectfont { cairo_font_matrix aload pop pop pop 0 0 6 array astore
    cairo_font exch selectfont cairo_point_x cairo_point_y moveto } bind def
/Tf { pop /cairo_font exch def /cairo_font_matrix where
      { pop cairo_selectfont } if } bind def
/Td { matrix translate cairo_font_matrix matrix concatmatrix dup
      /cairo_font_matrix exch def dup 4 get exch 5 get cairo_store_point
      /cairo_font where { pop cairo_selectfont } if } bind def
/Tm { 2 copy 8 2 roll 6 array astore /cairo_font_matrix exch def
      cairo_store_point /cairo_font where { pop cairo_selectfont } if } bind def
/g { setgray } bind def
/rg { setrgbcolor } bind def
/d1 { setcachedevice } bind def
/cairo_data_source {
  CairoDataIndex CairoData length lt
    { CairoData CairoDataIndex get /CairoDataIndex CairoDataIndex 1 add def }
    { () } ifelse
} def
/cairo_flush_ascii85_file { cairo_ascii85_file status { cairo_ascii85_file flushfile } if } def
/cairo_image { image cairo_flush_ascii85_file } def
/cairo_imagemask { imagemask cairo_flush_ascii85_file } def
%%EndProlog
%%BeginSetup
%%EndSetup
%%Page: 1 1
%%BeginPageSetup
%%PageBoundingBox: 16 8 368 375
%%EndPageSetup
q 16 8 352 367 rectclip
1 0 0 -1 0 384 cm q
0.760784 0.407843 0.309804 rg
68.023 213.422 m 63.586 215.473 58.328 214.441 54.992 210.867 c 51.652 
207.289 50.992 201.973 53.348 197.684 c 53.43 197.371 l 74.625 202.809 l
 74.535 203.152 l 74.539 207.547 72.004 211.551 68.023 213.422 c h
68.023 213.422 m f
315.449 213.156 m 311.762 211.184 309.461 207.336 309.465 203.152 c 309.375
 202.809 l 330.48 197.391 l 333.074 201.754 332.449 207.309 328.949 210.98
 c 325.449 214.652 319.93 215.543 315.449 213.156 c h
315.449 213.156 m f
0.780392 0.603922 0.513726 rg
330.48 197.391 m 309.375 202.809 l 307.551 203.273 l 268.148 138.301 l 
273.684 137.145 279.199 135.863 284.699 134.453 c 307.492 128.609 l 361.246
 182.535 l 363.695 184.988 362.543 189.18 359.184 190.035 c h
330.48 197.391 m f
0.909804 0.705882 0.521569 rg
268.148 138.301 m 307.551 203.273 l 284.699 209.129 l 270.785 212.699 256.68
 215.461 242.445 217.395 c 224.527 144.727 l 239.18 143.441 253.746 141.297
 268.148 138.301 c h
268.148 138.301 m f
252.977 73.922 m 307.492 128.609 l 284.699 134.453 l 279.199 135.863 273.684
 137.145 268.148 138.301 c 230.91 76.906 l 238.289 76.137 245.645 75.141
 252.977 73.922 c h
252.977 73.922 m f
0.780392 0.603922 0.513726 rg
230.91 76.906 m 268.148 138.301 l 253.746 141.297 239.18 143.441 224.527
 144.727 c 208.23 78.578 l 215.805 78.254 223.363 77.699 230.91 76.906 c
 h
230.91 76.906 m f
192 12.75 m 252.977 73.922 l 245.648 75.137 238.293 76.129 230.91 76.906
 c h
192 12.75 m f
224.527 144.727 m 242.445 217.395 l 211.645 221.602 180.438 221.941 149.551
 218.398 c 164.672 145.141 l 184.602 146.609 204.617 146.469 224.527 144.727
 c h
224.527 144.727 m f
0.909804 0.705882 0.521569 rg
192 12.75 m 230.91 76.906 l 223.363 77.691 215.805 78.25 208.23 78.578 
c h
192 12.75 m f
208.23 78.578 m 224.527 144.727 l 204.617 146.469 184.602 146.609 164.672
 145.141 c 178.387 78.684 l 188.332 79.051 198.281 79.016 208.23 78.578 
c h
208.23 78.578 m f
0.780392 0.603922 0.513726 rg
192 12.75 m 208.23 78.578 l 198.285 79.012 188.336 79.047 178.387 78.684
 c h
192 12.75 m f
0.909804 0.705882 0.521569 rg
192 12.75 m 178.387 78.684 l 170.461 78.398 162.539 77.855 154.629 77.055
 c h
192 12.75 m f
0.780392 0.603922 0.513726 rg
192 12.75 m 154.629 77.055 l 146.738 76.266 138.871 75.223 131.023 73.922
 c h
192 12.75 m f
178.387 78.684 m 164.672 145.141 l 149.23 144.012 133.879 141.918 118.703
 138.879 c 154.629 77.055 l 162.531 77.859 170.453 78.398 178.387 78.684
 c h
178.387 78.684 m f
0.909804 0.705882 0.521569 rg
164.672 145.141 m 149.551 218.398 l 132.605 216.465 115.816 213.371 99.301
 209.129 c 80.656 204.352 l 118.703 138.879 l 133.879 141.918 149.23 144.012
 164.672 145.141 c h
164.672 145.141 m f
154.629 77.055 m 118.703 138.879 l 112.207 137.578 105.738 136.105 99.301
 134.453 c 76.508 128.609 l 131.023 73.922 l 138.863 75.219 146.73 76.262
 154.629 77.055 c h
154.629 77.055 m f
0.780392 0.603922 0.513726 rg
118.703 138.879 m 80.656 204.352 l 74.625 202.809 l 53.43 197.371 l 24.816
 190.035 l 21.457 189.18 20.305 184.988 22.754 182.535 c 76.508 128.609 
l 99.301 134.453 l 105.734 136.102 112.203 137.578 118.703 138.879 c h
118.703 138.879 m f
0.678431 0.509804 0.435294 rg
178.938 35.23 m 192 12.75 l 131.023 73.922 l 136.473 74.82 141.934 75.598
 147.414 76.254 c 159.641 63.988 170.234 50.199 178.938 35.23 c h
178.938 35.23 m f
0.8 0.619608 0.47451 rg
147.414 76.254 m 141.938 75.594 136.477 74.816 131.023 73.922 c 76.508 
128.609 l 91.414 132.43 l h
147.414 76.254 m f
0.678431 0.509804 0.435294 rg
76.508 128.609 m 22.754 182.535 l 20.305 184.988 21.457 189.18 24.816 190.035
 c 32.129 191.91 l 91.414 132.434 l h
76.508 128.609 m f
0.156863 0.258824 0.407843 rg
23.699 194.395 m 47.672 200.539 l 46.891 205.129 48.172 209.824 51.176 
213.379 c 54.176 216.934 58.594 218.984 63.246 218.984 c 63.676 218.984 
64.098 218.953 64.52 218.918 c 74.035 264.418 104.031 305.109 142.52 324.625
 c 142.254 325.91 142.121 327.219 142.121 328.535 c 142.117 334.777 145.195
 340.625 150.348 344.156 c 155.5 347.688 162.059 348.449 167.883 346.195
 c 178.852 341.953 l 179.277 342.258 179.727 342.52 180.203 342.734 c 179.52
 344.348 179.16 346.082 179.152 347.832 c 179.039 361.898 l 179.023 364.262
 177.105 366.172 174.742 366.176 c 174.715 366.176 l 168.715 366.137 168.656
 375.137 174.656 375.176 c 174.742 375.176 l 182.047 375.164 187.98 369.273
 188.039 361.965 c 188.152 347.902 l 188.25 342.207 196.762 342.254 196.797
 347.949 c 196.684 362.016 l 196.781 369.039 202.062 374.906 209.039 375.734
 c 209.191 375.75 209.348 375.758 209.5 375.758 c 215.199 375.75 215.617
 367.359 209.949 366.781 c 207.605 366.402 205.832 364.449 205.684 362.078
 c 205.797 348.016 l 205.809 345.98 205.348 343.973 204.453 342.148 c 205.332
 341.574 206.09 340.836 206.684 339.973 c 215.594 344.211 l 221.293 346.922
 227.98 346.523 233.316 343.152 c 238.652 339.781 241.887 333.914 241.887
 327.602 c 241.887 326.445 241.777 325.289 241.566 324.152 c 280.164 304.434
 309.93 263.906 318.965 218.879 c 323.898 219.449 328.812 217.66 332.23 
214.055 c 335.645 210.445 337.16 205.441 336.328 200.547 c 360.301 194.398
 l 363.551 193.59 366.07 191.016 366.816 187.75 c 367.496 184.641 366.527
 181.398 364.254 179.176 c 197.434 11.828 l 195.992 10.383 194.039 9.57 
192 9.57 c 189.961 9.57 188.008 10.383 186.566 11.828 c 19.566 179.355 l
 17.293 181.641 16.414 184.965 17.27 188.074 c 18.121 191.184 20.578 193.594
 23.699 194.395 c h
63.246 209.984 m 59.484 209.969 56.445 206.914 56.449 203.152 c 56.449 
203.031 56.465 202.914 56.473 202.797 c 69.363 206.102 l 68.242 208.465 
65.859 209.977 63.242 209.984 c h
175.457 333.613 m 164.629 337.801 l 161.449 339.031 157.859 338.543 155.125
 336.508 c 152.387 334.477 150.883 331.184 151.141 327.781 c 151.395 324.383
 153.379 321.352 156.391 319.754 c 159.402 318.156 163.023 318.215 165.984
 319.906 c 175.457 325.336 l h
199.109 334.449 m 184.457 334.449 l 184.457 321.664 l 199.109 321.664 l
 h
228.508 335.539 m 225.793 337.293 222.363 337.496 219.461 336.078 c 208.105
 330.68 l 208.105 325.586 l 218.828 319.445 l 223.258 316.918 228.902 318.391
 231.531 322.762 c 234.164 327.137 232.82 332.812 228.508 335.543 c h
237.773 315.98 m 236.359 314.258 234.648 312.801 232.719 311.684 c 227.055
 308.355 220.035 308.34 214.355 311.637 c 206.621 316.059 l 205.121 313.93
 202.676 312.66 200.066 312.66 c 183.492 312.66 l 180.961 312.664 178.582
 313.855 177.066 315.887 c 170.453 312.094 l 164.602 308.699 157.379 308.719
 151.547 312.145 c 149.586 313.281 147.84 314.758 146.398 316.504 c 128.672
 307.473 112.516 293.375 99.488 275.523 c 86.426 257.688 77.395 237.227 
73.012 215.559 c 75.371 213.691 77.152 211.191 78.148 208.352 c 98.176 213.484
 l 128.832 221.332 160.355 225.297 192 225.289 c 223.645 225.297 255.164
 221.336 285.82 213.488 c 305.844 208.355 l 306.773 211.004 308.383 213.355
 310.516 215.18 c 302.5 258.234 274.398 297.148 237.773 315.98 c h
227.965 139.855 m 213.898 82.801 l 218.781 82.516 223.656 82.133 228.523
 81.656 c 260.961 135.137 l 250.035 137.211 239.035 138.781 227.965 139.855
 c h
265.934 143.324 m 300.559 200.418 l 283.586 204.77 l 271.145 207.953 258.543
 210.484 245.832 212.348 c 230.141 148.68 l 242.141 147.469 254.07 145.684
 265.934 143.324 c h
236.863 213.559 m 209.68 216.871 182.211 217.164 154.961 214.426 c 168.289
 149.871 l 176.184 150.363 184.086 150.613 192 150.613 c 201.699 150.613
 211.391 150.238 221.07 149.496 c h
161.07 140.309 m 149.254 139.32 137.492 137.762 125.789 135.633 c 157.074
 81.801 l 162.352 82.293 167.629 82.672 172.914 82.941 c h
159.242 149.184 m 145.98 213.422 l 130.625 211.5 115.406 208.609 100.414
 204.77 c 87.523 201.477 l 120.984 143.902 l 133.637 146.312 146.406 148.078
 159.242 149.184 c h
320.758 209.984 m 318.141 209.977 315.758 208.465 314.637 206.102 c 327.531
 202.797 l 327.535 202.914 327.555 203.035 327.555 203.152 c 327.559 206.914
 324.52 209.969 320.758 209.984 c h
358.066 185.676 m 309.672 198.086 l 275.258 141.348 l 278.789 140.551 282.309
 139.707 285.82 138.812 c 306.145 133.602 l h
298.766 126.203 m 283.586 130.094 l 279.184 131.223 274.766 132.262 270.328
 133.219 c 238.398 80.578 l 242.746 80.039 247.086 79.406 251.418 78.719
 c h
243.535 70.809 m 240.113 71.289 236.688 71.715 233.258 72.102 c 215.305
 42.496 l h
223.336 73.098 m 219.461 73.426 215.586 73.695 211.707 73.898 c 203.41 
40.242 l h
192.387 33.129 m 202.531 74.277 l 196.312 74.453 190.098 74.48 183.879 
74.352 c h
192 83.445 m 196.246 83.445 200.492 83.355 204.734 83.211 c 218.887 140.625
 l 202.656 141.805 186.371 141.918 170.129 140.957 c 182.031 83.297 l 185.352
 83.387 188.676 83.445 192 83.445 c h
174.758 74.023 m 170.523 73.824 166.293 73.555 162.062 73.219 c 182.008
 38.902 l h
170.637 40.555 m 152.203 72.27 l 148.293 71.844 144.387 71.355 140.48 70.805
 c h
132.594 78.715 m 137.48 79.492 142.371 80.176 147.27 80.766 c 116.441 133.812
 l 111.074 132.691 105.734 131.449 100.414 130.094 c 85.254 126.207 l h
25.941 185.711 m 77.879 133.605 l 98.18 138.812 l 102.664 139.961 107.164
 141.023 111.684 141.996 c 78.465 199.156 l 25.926 185.727 l 25.934 185.719
 25.938 185.715 25.941 185.711 c h
25.941 185.711 m f
Q Q
showpage
%%Trailer
end
%%EOF
