%!PS-Adobe-3.0 EPSF-3.0
%%Creator: cairo 1.16.0 (https://cairographics.org)
%%CreationDate: Mon Dec 14 10:23:02 2020
%%Pages: 1
%%DocumentData: Clean7Bit
%%LanguageLevel: 2
%%BoundingBox: 7 52 377 332
%%EndComments
%%BeginProlog
50 dict begin
/q { gsave } bind def
/Q { grestore } bind def
/cm { 6 array astore concat } bind def
/w { setlinewidth } bind def
/J { setlinecap } bind def
/j { setlinejoin } bind def
/M { setmiterlimit } bind def
/d { setdash } bind def
/m { moveto } bind def
/l { lineto } bind def
/c { curveto } bind def
/h { closepath } bind def
/re { exch dup neg 3 1 roll 5 3 roll moveto 0 rlineto
      0 exch rlineto 0 rlineto closepath } bind def
/S { stroke } bind def
/f { fill } bind def
/f* { eofill } bind def
/n { newpath } bind def
/W { clip } bind def
/W* { eoclip } bind def
/BT { } bind def
/ET { } bind def
/BDC { mark 3 1 roll /BDC pdfmark } bind def
/EMC { mark /EMC pdfmark } bind def
/cairo_store_point { /cairo_point_y exch def /cairo_point_x exch def } def
/Tj { show currentpoint cairo_store_point } bind def
/TJ {
  {
    dup
    type /stringtype eq
    { show } { -0.001 mul 0 cairo_font_matrix dtransform rmoveto } ifelse
  } forall
  currentpoint cairo_store_point
} bind def
/cairo_selectfont { cairo_font_matrix aload pop pop pop 0 0 6 array astore
    cairo_font exch selectfont cairo_point_x cairo_point_y moveto } bind def
/Tf { pop /cairo_font exch def /cairo_font_matrix where
      { pop cairo_selectfont } if } bind def
/Td { matrix translate cairo_font_matrix matrix concatmatrix dup
      /cairo_font_matrix exch def dup 4 get exch 5 get cairo_store_point
      /cairo_font where { pop cairo_selectfont } if } bind def
/Tm { 2 copy 8 2 roll 6 array astore /cairo_font_matrix exch def
      cairo_store_point /cairo_font where { pop cairo_selectfont } if } bind def
/g { setgray } bind def
/rg { setrgbcolor } bind def
/d1 { setcachedevice } bind def
/cairo_data_source {
  CairoDataIndex CairoData length lt
    { CairoData CairoDataIndex get /CairoDataIndex CairoDataIndex 1 add def }
    { () } ifelse
} def
/cairo_flush_ascii85_file { cairo_ascii85_file status { cairo_ascii85_file flushfile } if } def
/cairo_image { image cairo_flush_ascii85_file } def
/cairo_imagemask { imagemask cairo_flush_ascii85_file } def
%%EndProlog
%%BeginSetup
%%EndSetup
%%Page: 1 1
%%BeginPageSetup
%%PageBoundingBox: 7 52 377 332
%%EndPageSetup
q 7 52 370 280 rectclip
1 0 0 -1 0 384 cm q
0.690196 0.709804 0.792157 rg
328.172 165.863 m 342.008 149.844 351.539 129.328 349.02 103.809 c 373.035
 130.441 374.805 165.984 363.066 203.039 c 353.242 234.074 302.324 247.574
 302.324 247.574 c 299.789 246.719 297.148 245.812 294.367 244.844 c 268.598
 235.875 254.113 216.008 254.113 216.008 c 254.113 216 l 254.746 214.707
 255.223 213.344 255.523 211.934 c 255.531 211.934 l 255.531 211.934 300.473
 197.918 328.172 165.863 c h
328.172 165.863 m f
0.65098 0.670588 0.729412 rg
349.02 103.809 m 351.539 129.328 342.008 149.844 328.172 165.863 c 283.785
 89.664 246.781 118.941 185.684 113.934 c 109.934 107.73 76.996 166.02 76.996
 166.02 c 76.988 166.027 l 59.676 150.293 46.914 128.992 49.68 100.949 c
 75.609 71.297 126.789 52.664 215.219 58.418 c 284.281 61.621 326.461 78.789
 349.02 103.809 c h
349.02 103.809 m f
0.8 0.827451 0.87451 rg
237.496 250.043 m 236.715 251.641 l 235.91 253.285 234.445 254.508 232.684
 255.008 c 230.922 255.508 229.031 255.234 227.484 254.258 c 192.156 231.93
 l 150.512 203.805 l 150 203.684 106.77 193.102 76.988 166.027 c 59.676 
150.293 46.914 128.992 49.68 100.949 c 25.074 129.098 23.203 167.184 33.84
 203.812 c 41.445 230.031 89.445 248.488 89.445 248.488 c 147.246 276.047
 l 148.254 276.609 223.402 319.051 235.816 268.836 c 237.223 262.676 237.785
 256.355 237.496 250.043 c h
237.496 250.043 m f
0.788235 0.807843 0.839216 rg
367.926 279.262 m 372.125 282.133 373.258 287.832 370.469 292.086 c 351.359
 321.195 l 349.707 323.73 346.922 325.301 343.898 325.41 c 308.297 326.559
 235.816 268.836 235.816 268.836 c 237.223 262.676 237.785 256.355 237.496
 250.043 c 254.113 216.008 l 254.113 216.008 268.598 235.875 294.367 244.844
 c 297.148 245.812 299.789 246.719 302.324 247.574 c 325.762 255.539 339.879
 259.934 367.926 279.262 c h
367.926 279.262 m f
0.666667 0.694118 0.737255 rg
111.945 248.488 m 111.945 248.488 63.945 230.031 56.34 203.812 c 49.48 
180.188 47.836 155.957 54.125 134.176 c 49.996 123.621 48.473 112.223 49.68
 100.953 c 25.074 129.098 23.203 167.184 33.84 203.812 c 41.445 230.035 
89.445 248.492 89.445 248.492 c 147.246 276.047 l 147.969 276.449 186.996
 298.488 213.5 292.211 c 191.672 288.422 170.281 276.344 169.746 276.047
 c h
111.945 248.488 m f
0.690196 0.709804 0.792157 rg
147.246 276.047 m 124.547 293.504 92.879 312.613 51.441 326.184 c 48.008
 327.297 44.242 326.258 41.863 323.543 c 14.211 291.863 l 12.191 289.535
 11.504 286.332 12.395 283.379 c 13.285 280.426 15.629 278.137 18.602 277.312
 c 44.953 269.91 69.016 259.387 89.445 248.488 c 119.672 232.359 141.938
 215.391 151.891 206.477 c 192.156 231.93 l 192.156 231.93 177.848 252.496
 147.246 276.047 c h
147.246 276.047 m f
0.627451 0.647059 0.709804 rg
41.102 277.312 m 67.453 269.91 91.516 259.387 111.945 248.488 c 130.441
 238.684 148.078 227.328 164.664 214.551 c 151.891 206.477 l 141.938 215.391
 119.672 232.359 89.445 248.488 c 69.016 259.387 44.953 269.91 18.602 277.312
 c 15.629 278.137 13.285 280.426 12.395 283.379 c 11.504 286.332 12.191 
289.535 14.211 291.863 c 41.863 323.543 l 44.242 326.258 48.008 327.297 
51.441 326.184 c 55.426 324.879 59.32 323.523 63.125 322.121 c 36.711 291.863
 l 34.691 289.535 34.004 286.332 34.895 283.379 c 35.785 280.426 38.129 
278.137 41.102 277.312 c h
41.102 277.312 m f
0.878431 0.937255 0.976471 rg
254.594 201.578 m 249.637 190.199 229.328 177.434 152.617 201.098 c 151.41
 201.461 150.566 202.547 150.512 203.805 c 150.445 204.883 150.973 205.906
 151.891 206.477 c 227.484 254.258 l 229.031 255.234 230.922 255.508 232.684
 255.008 c 234.445 254.508 235.91 253.285 236.715 251.641 c 237.496 250.043
 l 254.113 216.008 l 254.113 216 l 254.746 214.707 255.223 213.344 255.523
 211.934 c 256.32 208.473 255.996 204.844 254.594 201.578 c h
254.594 201.578 m f
0.780392 0.835294 0.866667 rg
173.012 203.805 m 173.066 202.547 173.91 201.461 175.117 201.098 c 199.305
 193.637 217.879 189.801 232.141 188.395 c 216.965 186.359 192.367 188.836
 152.617 201.098 c 151.41 201.461 150.566 202.547 150.512 203.805 c 150.445
 204.883 150.973 205.906 151.891 206.477 c 227.484 254.258 l 229.031 255.234
 230.922 255.508 232.684 255.008 c 234.445 254.508 235.91 253.285 236.715
 251.641 c 237.496 250.043 l 238.867 247.23 l 174.391 206.477 l 173.473 
205.906 172.945 204.883 173.012 203.805 c h
173.012 203.805 m f
0.156863 0.258824 0.407843 rg
101.934 93.309 m 102.41 93.309 102.883 93.234 103.336 93.086 c 105.777 
92.285 108.316 91.516 110.879 90.805 c 113.297 90.16 114.727 87.66 114.055
 85.25 c 113.383 82.836 110.871 81.434 108.465 82.133 c 105.77 82.883 103.102
 83.691 100.535 84.535 c 95.676 86.129 96.82 93.301 101.934 93.309 c h
101.934 93.309 m f
126.039 87.145 m 126.328 87.145 126.613 87.117 126.895 87.062 c 151.703
 82.285 181.32 80.973 214.926 83.156 c 220.91 83.547 221.496 74.566 215.508
 74.176 c 181.141 71.941 150.754 73.305 125.195 78.227 c 119.832 79.25 120.582
 87.145 126.039 87.145 c h
126.039 87.145 m f
370.48 275.559 m 347.316 259.59 333.344 253.582 316.34 247.613 c 332.816
 241.227 360.051 227.473 367.359 204.398 c 379.223 166.926 376.383 134.047
 359.137 109.316 c 335.844 75.91 287.508 57.27 215.465 53.926 c 171.684 
51.082 134.594 54.074 105.211 62.824 c 78.367 70.816 57.707 83.641 43.809
 100.949 c 32.633 114.863 25.922 131.523 23.863 150.461 c 22.02 167.422 
23.918 185.797 29.516 205.074 c 35.625 226.125 64.273 241.961 79.043 248.879
 c 59.309 258.871 38.66 266.941 17.383 272.984 c 12.926 274.223 9.41 277.664
 8.078 282.094 c 6.75 286.527 7.785 291.336 10.824 294.824 c 38.477 326.504
 l 42.035 330.59 47.695 332.148 52.848 330.457 c 86.918 319.395 118.941 
302.816 147.637 281.379 c 155.746 285.652 180.77 297.809 203.117 297.809
 c 210.895 297.809 218.352 296.336 224.652 292.547 c 230.73 288.891 235.227
 283.465 238.125 276.316 c 255.328 289.426 311.059 329.926 342.879 329.926
 c 343.27 329.926 343.66 329.918 344.043 329.906 c 348.531 329.75 352.664
 327.422 355.125 323.668 c 374.234 294.562 l 378.406 288.27 376.73 279.793
 370.48 275.559 c h
353.711 117.426 m 367.734 139.672 369.445 167.992 358.777 201.68 c 350.637
 227.383 310.152 240.566 302.441 242.859 c 300.324 242.141 298.133 241.391
 295.844 240.594 c 276.516 233.867 263.738 220.477 259.398 215.387 c 276.574
 209.242 292.84 200.793 307.734 190.262 c 336.152 169.863 351.824 144.902
 353.711 117.426 c h
258.719 199.781 m 253.789 188.457 240.922 184.801 230.996 183.727 c 212.668
 181.742 185.848 186.141 151.289 196.801 c 150.172 197.145 149.152 197.746
 148.309 198.555 c 140.465 196.309 119.68 189.66 99.625 177.285 c 93.738
 173.688 88.125 169.656 82.836 165.227 c 89.199 156.105 96.906 148.008 105.699
 141.203 c 128.273 123.609 155.062 115.945 185.32 118.422 c 201.109 119.715
 215.52 118.754 228.234 117.906 c 264.914 115.461 291.602 113.684 322.648
 165.367 c 316.59 171.844 309.898 177.691 302.668 182.82 c 286.207 194.672
 269.105 202.07 260.277 205.457 c 260.031 203.5 259.508 201.59 258.719 199.781
 c h
54.039 102.844 m 66.695 88.863 84.734 78.305 107.777 71.445 c 136.148 63
 172.199 60.129 214.926 62.906 c 215.008 62.91 l 277.332 65.805 320.855 
80.191 344.66 105.715 c 346.184 124.68 340.852 142.203 328.754 158.098 c
 314.027 134.316 298.93 119.965 281.57 113.172 c 264.461 106.473 246.574
 107.664 227.637 108.926 c 214.629 109.793 201.176 110.691 186.055 109.449
 c 145.48 106.125 116.953 121.023 100.168 134.102 c 90.988 141.215 82.895
 149.629 76.145 159.074 c 59.789 142.688 52.375 123.859 54.039 102.844 c
 h
66.836 232.145 m 50.867 222.41 40.949 212.184 38.16 202.562 c 32.891 184.418
 31.094 167.219 32.812 151.434 c 34.293 137.797 38.418 125.5 45.078 114.73
 c 47.34 142.016 64.324 166.078 94.898 184.945 c 114.996 197.348 135.383
 204.16 144.52 206.836 c 127.273 220.762 108.766 233.051 89.242 243.547 
c 81.508 240.293 74.02 236.48 66.836 232.141 c h
50.047 321.898 m 48.328 322.465 46.441 321.945 45.254 320.582 c 17.605 
288.906 l 16.586 287.762 16.238 286.172 16.691 284.711 c 17.125 283.211 
18.309 282.051 19.816 281.648 c 80.43 264.633 130.336 230.957 152.328 212.074
 c 185.594 233.102 l 174.523 246.879 131.164 295.34 50.047 321.898 c h
220.02 284.824 m 208.215 291.93 189.938 288.262 176.68 283.934 c 169.43
 281.527 162.348 278.629 155.492 275.254 c 157.496 273.641 159.402 272.059
 161.199 270.535 c 178.285 256 188.746 243.691 193.258 237.945 c 225.074
 258.062 l 227.355 259.508 230.094 260.055 232.758 259.59 c 231.664 271.914
 227.398 280.387 220.02 284.828 c h
232.668 249.66 m 232.16 250.699 230.863 251.066 229.883 250.449 c 157.094
 204.438 l 231.883 181.883 247.309 196.117 250.469 203.371 c 251.902 206.812
 251.758 210.707 250.07 214.027 c h
366.711 289.617 m 347.602 318.723 l 346.75 320.031 345.316 320.848 343.754
 320.906 c 330.129 321.355 307.715 311.969 278.98 293.789 c 261.316 282.613
 246.246 271.223 240.801 267.016 c 241.754 261.746 242.156 256.395 242.008
 251.043 c 255.141 224.156 l 261.555 231.035 274.414 242.664 292.887 249.09
 c 296.672 250.41 300.207 251.605 303.555 252.742 c 325.613 260.223 338.926
 264.738 365.371 282.969 c 367.566 284.441 368.164 287.41 366.711 289.617
 c h
366.711 289.617 m f
Q Q
showpage
%%Trailer
end
%%EOF
