%!PS-Adobe-3.0 EPSF-3.0
%%Creator: cairo 1.16.0 (https://cairographics.org)
%%CreationDate: Mon Dec 14 10:23:04 2020
%%Pages: 1
%%DocumentData: Clean7Bit
%%LanguageLevel: 2
%%BoundingBox: 8 8 376 376
%%EndComments
%%BeginProlog
50 dict begin
/q { gsave } bind def
/Q { grestore } bind def
/cm { 6 array astore concat } bind def
/w { setlinewidth } bind def
/J { setlinecap } bind def
/j { setlinejoin } bind def
/M { setmiterlimit } bind def
/d { setdash } bind def
/m { moveto } bind def
/l { lineto } bind def
/c { curveto } bind def
/h { closepath } bind def
/re { exch dup neg 3 1 roll 5 3 roll moveto 0 rlineto
      0 exch rlineto 0 rlineto closepath } bind def
/S { stroke } bind def
/f { fill } bind def
/f* { eofill } bind def
/n { newpath } bind def
/W { clip } bind def
/W* { eoclip } bind def
/BT { } bind def
/ET { } bind def
/BDC { mark 3 1 roll /BDC pdfmark } bind def
/EMC { mark /EMC pdfmark } bind def
/cairo_store_point { /cairo_point_y exch def /cairo_point_x exch def } def
/Tj { show currentpoint cairo_store_point } bind def
/TJ {
  {
    dup
    type /stringtype eq
    { show } { -0.001 mul 0 cairo_font_matrix dtransform rmoveto } ifelse
  } forall
  currentpoint cairo_store_point
} bind def
/cairo_selectfont { cairo_font_matrix aload pop pop pop 0 0 6 array astore
    cairo_font exch selectfont cairo_point_x cairo_point_y moveto } bind def
/Tf { pop /cairo_font exch def /cairo_font_matrix where
      { pop cairo_selectfont } if } bind def
/Td { matrix translate cairo_font_matrix matrix concatmatrix dup
      /cairo_font_matrix exch def dup 4 get exch 5 get cairo_store_point
      /cairo_font where { pop cairo_selectfont } if } bind def
/Tm { 2 copy 8 2 roll 6 array astore /cairo_font_matrix exch def
      cairo_store_point /cairo_font where { pop cairo_selectfont } if } bind def
/g { setgray } bind def
/rg { setrgbcolor } bind def
/d1 { setcachedevice } bind def
/cairo_data_source {
  CairoDataIndex CairoData length lt
    { CairoData CairoDataIndex get /CairoDataIndex CairoDataIndex 1 add def }
    { () } ifelse
} def
/cairo_flush_ascii85_file { cairo_ascii85_file status { cairo_ascii85_file flushfile } if } def
/cairo_image { image cairo_flush_ascii85_file } def
/cairo_imagemask { imagemask cairo_flush_ascii85_file } def
%%EndProlog
%%BeginSetup
%%EndSetup
%%Page: 1 1
%%BeginPageSetup
%%PageBoundingBox: 8 8 376 376
%%EndPageSetup
q 8 8 368 368 rectclip
1 0 0 -1 0 384 cm q
0.988235 0.792157 0.239216 rg
299.691 120.336 m 264.031 85.539 l 260.832 82.406 255.715 82.418 252.531
 85.566 c 236.633 101.234 l 236.551 101.309 236.477 101.391 236.398 101.477
 c 233.352 104.734 233.465 109.832 236.656 112.949 c 272.211 147.758 l 275.406
 150.879 280.508 150.875 283.695 147.75 c 283.77 147.676 l 299.707 132.066
 l 300.148 131.645 300.535 131.168 300.863 130.648 c 302.977 127.371 302.484
 123.059 299.691 120.336 c h
299.691 120.336 m f
0.780392 0.603922 0.513726 rg
310.906 133.941 m 347.578 145.312 372.66 187.816 371.191 225.645 c 371.152
 226.492 371.109 227.348 371.047 228.203 c 370.555 235.379 369.133 242.465
 366.816 249.277 c 357.555 276.488 329.707 359.078 364.559 371.004 c 364.711
 371.043 364.648 371.266 364.5 371.227 c 359.145 370.172 354.098 367.914
 349.738 364.629 c 320.484 342.359 331.262 277.266 339.383 256.312 c 340.527
 253.352 341.457 250.312 342.164 247.215 c 342.863 244.145 343.332 241.023
 343.574 237.887 c 343.656 236.863 343.703 235.199 343.664 234.18 c 342.016
 193.566 314.469 162.316 283.898 147.801 c 283.77 147.676 l 299.707 132.066
 l 300.148 131.645 300.535 131.168 300.863 130.648 c 300.871 130.648 l h
310.906 133.941 m f
20.812 34.988 m 17.109 31.141 14.355 26.484 12.773 21.383 c 12.609 20.848
 13.352 20.527 13.629 21.016 c 29.969 49.816 108.938 25.184 135.637 16.777
 c 142.602 14.586 149.812 13.281 157.102 12.891 c 157.973 12.848 158.844
 12.816 159.703 12.797 c 198.141 11.863 240.969 37.133 252.016 73.395 c 
255.262 83.676 l 255.293 83.766 l 254.262 84.176 253.324 84.789 252.531 
85.566 c 236.633 101.234 l 236.551 101.309 236.477 101.391 236.398 101.477
 c 224.926 68.754 195.742 42.031 150.66 39.773 c 149.625 39.719 147.93 39.742
 146.895 39.809 c 143.703 40.004 140.531 40.426 137.398 41.07 c 134.25 41.727
 131.148 42.598 128.121 43.688 c 107.496 51.121 45.164 60.422 20.812 34.988
 c h
20.812 34.988 m f
0.647059 0.494118 0.427451 rg
364.559 371.004 m 352.172 366.762 347.711 353.59 347.516 337.152 c 335.027
 308.465 343.316 262.723 349.883 245.793 c 351.027 242.832 351.957 239.789
 352.664 236.695 c 353.359 233.625 353.832 230.504 354.074 227.363 c 354.156
 226.344 354.199 224.68 354.164 223.66 c 352.512 183.047 324.965 151.793
 294.395 137.281 c 294.391 137.277 l 283.77 147.676 l 283.898 147.801 l 
314.469 162.316 342.016 193.566 343.664 234.18 c 343.703 235.199 343.656
 236.863 343.574 237.887 c 343.332 241.023 342.863 244.145 342.164 247.215
 c 341.457 250.312 340.527 253.352 339.383 256.312 c 331.262 277.266 320.484
 342.359 349.738 364.629 c 354.098 367.914 359.145 370.172 364.5 371.227
 c 364.648 371.266 364.711 371.043 364.559 371.004 c h
364.559 371.004 m f
161.16 29.25 m 160.125 29.199 158.43 29.219 157.395 29.289 c 154.203 29.484
 151.031 29.902 147.898 30.547 c 144.75 31.203 141.648 32.078 138.621 33.164
 c 121.492 39.34 75.594 46.801 46.574 34.578 c 31.477 34.273 19.074 30.609
 13.629 21.016 c 13.352 20.527 12.609 20.848 12.773 21.383 c 14.355 26.484
 17.109 31.141 20.812 34.988 c 45.164 60.422 107.496 51.121 128.121 43.688
 c 131.148 42.598 134.25 41.727 137.398 41.07 c 140.531 40.426 143.703 40.004
 146.895 39.809 c 147.93 39.742 149.625 39.719 150.66 39.773 c 195.742 42.031
 224.926 68.754 236.398 101.477 c 236.477 101.391 236.551 101.309 236.633
 101.234 c 246.234 91.773 l 246.438 91.488 246.66 91.215 246.898 90.953 
c 235.426 58.23 206.242 31.508 161.16 29.25 c h
161.16 29.25 m f
0.866667 0.694118 0.262745 rg
294.27 137.156 m 300.75 130.809 l 294.27 137.156 l 294.195 137.23 l 291.008
 140.355 285.906 140.359 282.715 137.238 c 247.156 102.43 l 244.258 99.594
 243.867 95.066 246.234 91.773 c 236.637 101.234 l 236.555 101.309 236.48
 101.391 236.402 101.477 c 233.355 104.734 233.469 109.832 236.66 112.949
 c 272.215 147.758 l 275.41 150.879 280.512 150.875 283.699 147.75 c 283.773
 147.676 l 294.395 137.277 l h
294.27 137.156 m f
0.866667 0.92549 0.960784 rg
316.105 58.539 m 124.332 248.391 l 135.648 258.184 l 135.676 258.176 l 
327.043 68.738 l h
316.105 58.539 m f
0.988235 0.792157 0.239216 rg
351 32.871 m 292.641 58.965 l 291.438 59.504 291.613 61.273 292.906 61.559
 c 316.469 66.879 l 317.156 67.043 317.703 67.562 317.902 68.242 c 324.719
 92.586 l 325.09 93.844 326.82 93.961 327.359 92.766 c 352.875 34.672 l 
353.379 33.496 352.156 32.32 351 32.871 c h
351 32.871 m f
0.780392 0.603922 0.513726 rg
138.602 272.266 m 135.773 256.359 l 135.031 252.23 131.625 249.105 127.449
 248.723 c 111.652 247.289 l 110.43 247.238 109.238 247.699 108.367 248.559
 c 99.613 257.25 l 99.742 257.379 l 126.668 285.562 l 137.25 275.656 l 138.184
 274.785 138.68 273.539 138.602 272.266 c h
138.602 272.266 m f
0.988235 0.792157 0.239216 rg
99.742 257.379 m 126.668 285.562 l 117.211 294.414 l 90.734 266.656 l 90.434
 266.355 l 99.613 257.25 l h
99.742 257.379 m f
0.780392 0.603922 0.513726 rg
90.734 266.656 m 117.211 294.414 l 100.859 309.703 l 100.328 310.203 99.68
 310.562 98.977 310.746 c 95.039 309.898 l 94.23 309.242 93.691 308.312 
93.523 307.281 c 91.336 294.156 l 91.047 292.477 89.801 291.117 88.148 290.691
 c 77.879 287.984 l 76.211 287.562 74.953 286.191 74.676 284.488 c 74.457
 283.129 74.914 281.746 75.898 280.785 c 90.434 266.355 l h
90.734 266.656 m f
0.156863 0.258824 0.407843 rg
153.539 201.102 m 154.734 201.105 155.879 200.629 156.723 199.785 c 166.797
 189.711 l 170.969 185.469 164.672 179.172 160.43 183.348 c 150.359 193.422
 l 147.527 196.254 149.531 201.102 153.539 201.102 c h
153.539 201.102 m f
175.023 178.977 m 176.219 178.977 177.363 178.504 178.207 177.656 c 210.883
 144.98 l 215.055 140.738 208.762 134.445 204.52 138.617 c 171.844 171.293
 l 169.008 174.129 171.016 178.977 175.023 178.977 c h
175.023 178.977 m f
219.57 134.43 m 220.766 134.43 221.91 133.953 222.754 133.109 c 225.305
 130.559 l 229.477 126.316 223.184 120.023 218.941 124.195 c 216.391 126.746
 l 213.555 129.582 215.562 134.426 219.57 134.43 c h
219.57 134.43 m f
359.148 167.457 m 347.258 148.766 330.602 135.34 312.309 129.668 c 306.562
 127.781 l 306.629 127.254 306.664 126.727 306.668 126.195 c 306.676 122.773
 305.293 119.496 302.836 117.113 c 293.41 107.914 l 317.625 83.953 l 320.383
 93.797 l 321.062 96.195 323.168 97.91 325.652 98.086 c 325.789 98.094 325.93
 98.098 326.066 98.098 c 328.41 98.098 330.527 96.715 331.477 94.574 c 356.996
 36.48 l 357.969 34.246 357.465 31.641 355.727 29.93 c 353.992 28.219 351.379
 27.754 349.16 28.762 c 290.809 54.859 l 290.781 54.875 l 288.48 55.918 
287.105 58.312 287.363 60.824 c 287.621 63.336 289.457 65.402 291.918 65.953
 c 299.953 67.77 l 276.273 91.199 l 267.168 82.316 l 264.824 80.039 261.691
 78.758 258.422 78.738 c 256.316 72.086 l 250.781 53.91 237.363 37.312 218.543
 25.352 c 200.738 14.035 179.25 7.82 159.602 8.297 c 158.691 8.316 157.777
 8.352 156.867 8.402 c 149.199 8.809 141.613 10.18 134.289 12.484 c 121.617
 16.477 95.23 24.789 70.113 28.395 c 50.238 31.25 24.984 31.902 17.547 18.797
 c 14.609 13.613 6.703 17.047 8.484 22.73 c 10.141 28.07 12.93 32.992 16.668
 37.148 c 70.652 291.25 l 73.074 302.645 81.918 311.578 93.285 314.117 c
 348.348 369.18 l 352.93 372.344 358.109 374.539 363.566 375.629 c 369.238
 376.832 371.504 368.617 366.02 366.742 c 353.5 362.461 349.32 345.566 353.598
 316.527 c 357.348 291.047 366.621 263.816 371.074 250.73 c 373.512 243.547
 375.012 236.082 375.535 228.512 c 375.598 227.613 375.648 226.715 375.684
 225.816 c 376.438 206.438 370.41 185.164 359.148 167.457 c h
296.551 123.555 m 298.039 125.008 298.043 127.402 296.555 128.855 c 280.547
 144.539 l 279.102 145.938 276.805 145.938 275.359 144.539 c 265.828 135.207
 l 287.012 114.246 l h
345.508 40.254 m 326.715 83.035 l 322.234 67.027 l 321.59 64.758 319.762
 63.02 317.461 62.492 c 303.055 59.242 l h
310.371 70.117 m 313.98 70.93 l 314.852 74.039 l 137.508 249.531 l 136.273
 247.949 134.707 246.652 132.926 245.73 c h
105.906 257.316 m 111.473 251.789 l 127.039 253.203 l 129.199 253.402 130.957
 255.016 131.34 257.148 c 134.066 272.465 l 126.84 279.23 l h
120.27 285.379 m 117.383 288.078 l 96.738 266.43 l 99.52 263.66 l h
260.883 88.758 m 269.879 97.531 l 248.727 118.465 l 239.801 109.73 l 238.32
 108.281 238.316 105.898 239.793 104.441 c 255.691 88.77 l 257.137 87.363
 259.434 87.355 260.883 88.758 c h
136.992 21.066 m 143.594 18.992 150.434 17.758 157.348 17.391 c 158.172
 17.348 158.992 17.316 159.812 17.297 c 198.34 16.395 237.777 42.121 247.723
 74.754 c 249.965 81.836 l 249.766 82.008 249.562 82.176 249.375 82.363 
c 238.105 93.469 l 223.266 58.883 191.164 37.297 150.887 35.281 c 149.59
 35.215 147.723 35.254 146.621 35.32 c 139.785 35.738 133.043 37.133 126.602
 39.453 c 108.594 45.941 61.691 52.902 34.875 39.605 c 33.508 38.93 32.176
 38.184 30.883 37.371 c 58.098 43.758 102.301 31.996 136.992 21.066 c h
76.219 274.129 m 27.746 45.977 l 28.758 46.559 29.793 47.129 30.875 47.664
 c 60.449 62.336 109.801 55.07 129.648 47.926 c 135.289 45.891 141.188 44.672
 147.172 44.301 c 148.113 44.246 149.637 44.227 150.438 44.27 c 188.59 46.18
 218.652 67.258 231.355 100.801 c 228.492 105.816 229.379 112.129 233.504
 116.164 c 242.324 124.801 l 122.156 243.723 l 111.832 242.793 l 109.359
 242.691 106.957 243.625 105.199 245.367 c h
85.066 299.734 m 83.25 297.91 81.785 295.762 80.754 293.398 c 86.914 295.023
 l 88.125 302.25 l 87.027 301.512 86.004 300.668 85.066 299.734 c h
97.855 305.906 m 95.773 293.418 l 95.191 289.992 92.656 287.223 89.293 
286.344 c 79.336 283.719 l 90.348 272.773 l 110.812 294.23 l 98.242 305.992
 l h
108.945 308.301 m 140.324 278.938 l 142.246 277.152 143.266 274.602 143.102
 271.984 c 140.805 258.934 l 259.43 141.539 l 269.062 150.969 l 273.109 
154.891 279.246 155.695 284.164 152.953 c 298.652 160.309 311.258 170.891
 321.012 183.887 c 332.012 198.496 338.34 216.09 339.168 234.363 c 339.195
 235.125 339.16 236.605 339.09 237.531 c 338.633 243.41 337.316 249.188 
335.184 254.68 c 331.902 263.148 327.629 280.066 326.383 299.875 c 325.402
 315.453 326.117 337.488 335.09 353.988 c 335.77 355.238 336.492 356.426
 337.246 357.574 c h
366.691 225.469 m 366.66 226.273 366.617 227.082 366.559 227.891 c 366.09
 234.684 364.746 241.383 362.555 247.828 c 358.016 261.168 348.566 288.922
 344.695 315.219 c 342.449 330.461 342.453 342.914 344.711 352.582 c 344.113
 351.66 343.543 350.699 342.996 349.691 c 328.738 323.484 336.48 276.246
 343.574 257.934 c 346.023 251.621 347.535 244.984 348.062 238.23 c 348.164
 236.82 348.195 235.41 348.16 234 c 347.262 213.922 340.316 194.586 328.238
 178.523 c 318.402 165.32 305.816 154.414 291.348 146.555 c 302.281 135.848
 l 309.57 138.238 l 342.539 148.465 368.164 187.594 366.691 225.469 c h
366.691 225.469 m f
Q Q
showpage
%%Trailer
end
%%EOF
