%!PS-Adobe-3.0 EPSF-3.0
%%Creator: cairo 1.16.0 (https://cairographics.org)
%%CreationDate: Mon Dec 14 10:23:10 2020
%%Pages: 1
%%DocumentData: Clean7Bit
%%LanguageLevel: 2
%%BoundingBox: 11 7 373 377
%%EndComments
%%BeginProlog
50 dict begin
/q { gsave } bind def
/Q { grestore } bind def
/cm { 6 array astore concat } bind def
/w { setlinewidth } bind def
/J { setlinecap } bind def
/j { setlinejoin } bind def
/M { setmiterlimit } bind def
/d { setdash } bind def
/m { moveto } bind def
/l { lineto } bind def
/c { curveto } bind def
/h { closepath } bind def
/re { exch dup neg 3 1 roll 5 3 roll moveto 0 rlineto
      0 exch rlineto 0 rlineto closepath } bind def
/S { stroke } bind def
/f { fill } bind def
/f* { eofill } bind def
/n { newpath } bind def
/W { clip } bind def
/W* { eoclip } bind def
/BT { } bind def
/ET { } bind def
/BDC { mark 3 1 roll /BDC pdfmark } bind def
/EMC { mark /EMC pdfmark } bind def
/cairo_store_point { /cairo_point_y exch def /cairo_point_x exch def } def
/Tj { show currentpoint cairo_store_point } bind def
/TJ {
  {
    dup
    type /stringtype eq
    { show } { -0.001 mul 0 cairo_font_matrix dtransform rmoveto } ifelse
  } forall
  currentpoint cairo_store_point
} bind def
/cairo_selectfont { cairo_font_matrix aload pop pop pop 0 0 6 array astore
    cairo_font exch selectfont cairo_point_x cairo_point_y moveto } bind def
/Tf { pop /cairo_font exch def /cairo_font_matrix where
      { pop cairo_selectfont } if } bind def
/Td { matrix translate cairo_font_matrix matrix concatmatrix dup
      /cairo_font_matrix exch def dup 4 get exch 5 get cairo_store_point
      /cairo_font where { pop cairo_selectfont } if } bind def
/Tm { 2 copy 8 2 roll 6 array astore /cairo_font_matrix exch def
      cairo_store_point /cairo_font where { pop cairo_selectfont } if } bind def
/g { setgray } bind def
/rg { setrgbcolor } bind def
/d1 { setcachedevice } bind def
/cairo_data_source {
  CairoDataIndex CairoData length lt
    { CairoData CairoDataIndex get /CairoDataIndex CairoDataIndex 1 add def }
    { () } ifelse
} def
/cairo_flush_ascii85_file { cairo_ascii85_file status { cairo_ascii85_file flushfile } if } def
/cairo_image { image cairo_flush_ascii85_file } def
/cairo_imagemask { imagemask cairo_flush_ascii85_file } def
%%EndProlog
%%BeginSetup
%%EndSetup
%%Page: 1 1
%%BeginPageSetup
%%PageBoundingBox: 11 7 373 377
%%EndPageSetup
q 11 7 362 370 rectclip
1 0 0 -1 0 384 cm q
0.427451 0.454902 0.52549 rg
356.691 145.164 m 359.527 144.141 362.691 144.672 365.035 146.562 c 367.383
 148.457 368.57 151.438 368.168 154.426 c 359.055 222.141 l 358.078 229.336
 351.938 234.699 344.676 234.699 c 333.211 234.699 l 335.273 224.012 337.191
 212.664 338.797 200.934 c 339.914 192.781 340.883 184.441 341.633 176.012
 c 342.398 167.414 342.945 158.715 343.199 150.023 c h
356.691 145.164 m f
0.831373 0.882353 0.956863 rg
270.773 308.055 m 261.594 326.797 232.672 334.926 232.672 334.926 c 237.539
 352.988 l 237.539 352.988 275.82 342.082 289.402 314.047 c 282.719 314.055
 276.199 311.961 270.773 308.055 c h
270.773 308.055 m f
114.602 308.055 m 114.594 308.047 l 110.844 310.016 106.738 311.215 102.516
 311.574 c 99.66 311.82 l 97.805 311.984 95.941 311.98 94.086 311.812 c 
107.672 339.848 149.332 353.648 149.332 353.648 c 153.773 335.258 l 153.773
 335.258 123.781 326.797 114.602 308.055 c h
114.602 308.055 m f
0.427451 0.454902 0.52549 rg
46.785 200.934 m 48.586 212.559 50.699 223.926 52.941 234.699 c 39.324 
234.699 l 32.062 234.699 25.922 229.336 24.945 222.141 c 15.832 154.426 
l 15.43 151.438 16.617 148.457 18.965 146.562 c 21.309 144.672 24.473 144.141
 27.309 145.164 c 41.527 150.277 l 41.895 158.781 42.578 167.398 43.492 
176.012 c 44.387 184.371 45.504 192.719 46.785 200.934 c h
46.785 200.934 m f
0.905882 0.317647 0.388235 rg
293.309 176.012 m 341.633 176.012 l 340.883 184.441 339.914 192.781 338.797
 200.934 c 293.309 200.934 l h
293.309 176.012 m f
90.953 176.012 m 90.953 200.934 l 46.785 200.934 l 45.504 192.719 44.387
 184.371 43.492 176.012 c h
90.953 176.012 m f
0.27451 0.537255 0.827451 rg
334.066 67.551 m 328.449 49.23 310.387 35.387 285.887 26.094 c 285.879 
26.094 l 234.781 6.727 155.676 7.184 103.004 28.289 c 80.113 37.461 62.219
 50.52 53.773 67.551 c 43.027 89.227 40.172 118.957 41.527 150.277 c 41.895
 158.781 42.578 167.398 43.492 176.012 c 44.387 184.371 45.504 192.719 46.785
 200.934 c 48.586 212.559 50.699 223.926 52.941 234.699 c 57.336 255.809
 62.219 274.641 66.148 288.652 c 69.746 301.43 80.867 310.648 94.086 311.812
 c 95.941 311.98 97.805 311.984 99.66 311.82 c 102.516 311.574 l 119.027
 310.152 131.707 296.344 131.715 279.773 c 131.715 261.676 l 131.707 249.914
 123.039 239.953 111.391 238.328 c 111.277 238.305 l 99.629 236.684 90.953
 226.719 90.953 214.957 c 90.953 163.672 l 90.957 150.777 101.312 140.277
 114.203 140.094 c 269.363 137.805 l 275.68 137.707 281.77 140.148 286.273
 144.582 c 290.773 149.016 293.309 155.066 293.309 161.387 c 293.309 216.711
 l 293.305 228.016 285.281 237.723 274.184 239.863 c 262.012 242.207 253.727
 253.578 255.234 265.883 c 257.699 286.012 l 258.637 293.75 262.387 300.875
 268.23 306.031 c 269.039 306.75 269.891 307.426 270.773 308.055 c 279.281
 314.16 290.242 315.711 300.109 312.203 c 309.977 308.695 317.496 300.574
 320.242 290.469 c 324.047 276.434 328.922 257.004 333.211 234.699 c 335.273
 224.012 337.191 212.664 338.797 200.934 c 339.914 192.781 340.883 184.441
 341.633 176.012 c 342.398 167.414 342.945 158.715 343.199 150.023 c 344.039
 121.359 341.773 92.699 334.066 67.551 c h
334.066 67.551 m f
0.427451 0.454902 0.52549 rg
237.871 345.203 m 238.336 347.789 238.227 350.449 237.539 352.988 c 235.816
 359.391 230.559 364.828 223.207 367.184 c 204.035 373.34 183.457 373.598
 164.137 367.922 c 156.516 365.672 151.109 360.141 149.332 353.648 c 148.43
 350.371 148.484 346.902 149.496 343.656 c 149.656 343.133 149.82 342.609
 149.977 342.09 c 150.758 339.574 152.051 337.25 153.773 335.258 c 159.031
 329.129 168.039 326.023 177 327.898 c 188.113 330.215 199.566 330.359 210.734
 328.336 c 219.18 326.805 227.477 329.559 232.672 334.926 c 235.324 337.617
 237.109 341.039 237.797 344.754 c 237.816 344.902 237.848 345.051 237.871
 345.203 c h
237.871 345.203 m f
0.905882 0.317647 0.388235 rg
285.879 26.094 m 264.156 39.254 226.637 138.434 226.637 138.434 c 163.637
 139.363 l 163.637 139.363 124.727 41.43 103.004 28.289 c 155.676 7.184 
234.781 6.727 285.879 26.094 c h
285.879 26.094 m f
0.917647 0.87451 0.32549 rg
194.648 45.285 m 205.039 45.297 214.402 51.562 218.371 61.168 c 222.34 
70.77 220.137 81.82 212.785 89.164 c 205.434 96.508 194.383 98.703 184.785
 94.727 c 175.184 90.746 168.926 81.379 168.922 70.988 c 168.926 64.168 
171.637 57.629 176.461 52.809 c 181.285 47.984 187.828 45.281 194.648 45.285
 c h
194.648 45.285 m f
0.8 0.313726 0.396078 rg
209.48 12.211 m 172.141 10.883 133.227 16.18 103.004 28.289 c 105.34 29.703
 107.879 32.102 110.539 35.25 c 115.395 32.652 120.391 30.328 125.504 28.289
 c 149.684 18.602 179.43 13.273 209.48 12.211 c h
209.48 12.211 m f
0.227451 0.466667 0.686275 rg
103.004 28.289 m 80.113 37.461 62.219 50.52 53.773 67.551 c 43.027 89.227
 40.172 118.957 41.527 150.277 c 41.895 158.781 42.578 167.398 43.492 176.012
 c 44.387 184.371 45.504 192.719 46.785 200.934 c 48.586 212.559 50.699 
223.926 52.941 234.699 c 57.336 255.809 62.219 274.641 66.148 288.652 c 
69.746 301.43 80.867 310.648 94.086 311.812 c 95.941 311.98 97.805 311.984
 99.66 311.82 c 102.516 311.574 l 104.785 311.375 107.027 310.938 109.203
 310.266 c 99.203 306.898 91.512 298.809 88.652 288.652 c 84.723 274.641
 79.84 255.809 75.445 234.699 c 73.203 223.926 71.09 212.559 69.289 200.934
 c 68.008 192.719 66.891 184.371 65.996 176.012 c 65.082 167.398 64.398 
158.781 64.031 150.277 c 62.672 118.957 65.531 89.227 76.277 67.551 c 82.773
 54.441 94.875 43.691 110.539 35.25 c 107.879 32.102 105.34 29.699 103.004
 28.289 c h
103.004 28.289 m f
0.156863 0.258824 0.407843 rg
20.488 222.738 m 21.785 232.152 29.816 239.172 39.32 239.195 c 49.285 239.195
 l 53.422 258.586 57.949 276.07 61.82 289.867 c 65.68 303.547 77.137 313.738
 91.176 315.977 c 104.566 340.555 137.031 353.926 145.773 357.16 c 146.109
 358.016 146.496 358.852 146.926 359.664 c 150.332 365.828 156.082 370.359
 162.871 372.234 c 171.695 374.832 180.824 376.258 190.02 376.473 c 190.848
 376.492 191.676 376.5 192.5 376.5 c 203.395 376.504 214.219 374.809 224.586
 371.477 c 232.504 368.934 238.402 363.352 241.074 356.594 c 247.809 354.301
 254.332 351.414 260.559 347.969 c 275.09 339.934 285.969 329.766 292.199
 318.438 c 307.57 317.238 320.531 306.516 324.586 291.641 c 329.441 273.719
 333.562 256.199 336.93 239.195 c 344.684 239.195 l 354.184 239.168 362.215
 232.148 363.516 222.738 c 372.629 155.023 l 373.242 150.48 371.438 145.945
 367.867 143.062 c 364.301 140.18 359.488 139.371 355.172 140.926 c 347.828
 143.566 l 348.203 113.918 345.047 88.023 338.371 66.234 c 333.402 50.023
 319.117 36.074 297.062 25.895 c 277.445 16.844 252.145 10.84 223.895 8.535
 c 154.215 2.848 72.02 20.609 49.746 65.559 c 40.34 84.531 36.02 110.766
 36.812 143.801 c 28.832 140.93 l 24.516 139.375 19.703 140.184 16.137 143.066
 c 12.566 145.949 10.762 150.484 11.375 155.027 c h
48.562 180.516 m 86.453 180.516 l 86.453 196.438 l 50.684 196.438 l 49.902
 191.168 49.195 185.855 48.562 180.512 c h
70.484 287.438 m 62.879 260.457 56.738 233.082 52.086 205.438 c 86.453 
205.438 l 86.453 214.965 l 86.512 228.949 96.805 240.777 110.645 242.773
 c 110.77 242.789 l 120.172 244.141 127.168 252.176 127.211 261.676 c 127.211
 279.77 l 127.281 294.031 116.348 305.938 102.133 307.086 c 99.27 307.332
 l 86.145 308.469 74.062 300.113 70.484 287.434 c h
145.68 340.77 m 145.195 342.336 l 144.742 343.812 144.438 345.332 144.297
 346.871 c 133.781 342.426 113.016 332.105 101.859 316.148 c 102.906 316.059
 l 106.27 315.77 109.582 315.02 112.746 313.832 c 121.277 326.77 138.062
 334.406 146.879 337.691 c 146.406 338.684 146.004 339.715 145.68 340.766
 c h
221.832 362.906 m 203.52 368.789 183.863 369.031 165.41 363.605 c 160.934
 362.402 157.129 359.449 154.855 355.41 c 153.113 352.219 152.73 348.461
 153.797 344.984 c 154.281 343.418 l 156.406 336.512 163.812 331.867 171.844
 331.867 c 173.266 331.867 174.688 332.016 176.082 332.305 c 187.762 334.738
 199.801 334.898 211.543 332.77 c 216.879 331.754 222.398 332.887 226.906
 335.914 c 230.258 338.137 232.582 341.605 233.363 345.551 c 233.445 346
 l 234.742 353.215 229.859 360.328 221.832 362.902 c h
233.785 329.852 m 233.227 329.387 232.645 328.941 232.039 328.52 c 225.566
 324.133 217.621 322.477 209.934 323.914 c 199.336 325.836 188.465 325.691
 177.922 323.496 c 168.875 321.527 159.43 323.988 152.5 330.125 c 146.07
 327.93 128.859 321.18 120.754 309.621 c 130.492 302.809 136.27 291.652 
136.211 279.77 c 136.211 261.676 l 136.156 247.691 125.863 235.859 112.023
 233.867 c 111.898 233.852 l 102.492 232.5 95.496 224.461 95.453 214.957
 c 95.453 163.672 l 95.504 153.254 103.859 144.785 114.273 144.594 c 269.43
 142.309 l 274.543 142.23 279.469 144.203 283.113 147.789 c 286.758 151.375
 288.809 156.273 288.812 161.387 c 288.812 216.707 l 288.797 225.852 282.309
 233.703 273.332 235.441 c 258.855 238.27 249.016 251.785 250.766 266.43
 c 253.23 286.559 l 254.297 295.25 258.465 303.262 264.965 309.121 c 257.078
 320.992 240.008 327.715 233.785 329.852 c h
242.57 346.457 m 242.512 345.777 242.426 345.094 242.305 344.41 c 242.305
 344.398 l 242.227 343.961 l 241.805 341.609 241.012 339.336 239.883 337.23
 c 248.434 333.977 263.977 326.68 272.344 314.297 c 275.398 315.922 278.672
 317.102 282.062 317.797 c 271.488 333.512 252.426 342.602 242.57 346.453
 c h
315.898 289.289 m 312.461 301.949 300.547 310.406 287.461 309.477 c 274.375
 308.543 263.777 298.484 262.168 285.465 c 259.699 265.332 l 258.512 255.383
 265.203 246.199 275.035 244.281 c 288.246 241.723 297.793 230.164 297.812
 216.707 c 297.812 205.434 l 333.617 205.434 l 329.383 233.715 323.465 261.715
 315.898 289.289 c h
335.789 188.859 m 335.5 191.367 335.188 193.891 334.852 196.434 c 297.812
 196.434 l 297.812 180.512 l 336.684 180.512 l 336.41 183.266 336.113 186.047
 335.789 188.859 c h
347.59 153.227 m 358.219 149.398 l 361.129 148.348 364.121 150.758 363.711
 153.824 c 354.594 221.539 l 353.906 226.492 349.68 230.184 344.68 230.195
 c 338.637 230.195 l 341.184 216.379 343.223 202.918 344.73 189.891 c 346.207
 177.133 347.16 164.91 347.59 153.227 c h
286.52 31.145 m 309.617 40.363 325.031 53.418 329.766 68.875 c 338.18 96.34
 340.77 130.809 337.496 171.512 c 297.812 171.512 l 297.812 161.387 l 297.805
 145.879 285.234 133.309 269.723 133.305 c 233.23 133.84 l 244.801 104.25
 270.719 43.832 286.52 31.145 c h
121.801 26.605 m 151.484 17.988 188.43 14.672 223.164 17.504 c 243.473 
19.16 261.703 22.691 277.156 27.754 c 256.594 50.008 229.969 117.23 223.523
 133.98 c 166.66 134.82 l 159.938 118.172 132.379 51.809 111.68 29.84 c 
114.934 28.703 118.305 27.625 121.801 26.605 c h
57.805 69.555 m 65.07 54.898 80.332 42.578 102.418 33.375 c 118.316 46.105
 145.039 105.785 157 134.961 c 114.141 135.594 l 98.816 135.879 86.523 148.344
 86.453 163.672 c 86.453 171.512 l 47.59 171.512 l 43.848 133.371 45.02 
95.344 57.805 69.555 c h
21.785 150.074 m 22.902 149.156 24.426 148.898 25.781 149.398 c 37.172 
153.5 l 37.629 162.266 38.414 171.473 39.535 181.113 c 41.492 197.914 44.289
 214.559 47.422 230.199 c 39.32 230.199 l 34.32 230.188 30.09 226.492 29.406
 221.539 c 20.289 153.824 l 20.086 152.398 20.656 150.973 21.785 150.074
 c h
21.785 150.074 m f
194.645 101.188 m 206.859 101.176 217.863 93.812 222.531 82.527 c 227.195
 71.238 224.605 58.254 215.969 49.621 c 207.328 40.988 194.34 38.41 183.059
 43.086 c 171.777 47.762 164.422 58.773 164.422 70.984 c 164.445 87.664 
177.965 101.176 194.645 101.188 c h
194.645 49.785 m 203.219 49.793 210.941 54.965 214.215 62.887 c 217.488
 70.812 215.668 79.926 209.605 85.984 c 203.539 92.043 194.422 93.852 186.504
 90.57 c 178.582 87.289 173.422 79.559 173.422 70.984 c 173.438 59.273 182.934
 49.789 194.645 49.785 c h
194.645 49.785 m f
59.812 159.777 m 59.902 159.777 59.992 159.777 60.082 159.766 c 62.562 
159.621 64.457 157.488 64.309 155.008 c 62.746 128.684 64.332 106.992 69.023
 90.531 c 70.668 84.762 62.016 82.293 60.367 88.062 c 55.398 105.5 53.699
 128.203 55.324 155.543 c 55.465 157.918 57.434 159.773 59.812 159.777 c
 h
59.812 159.777 m f
68.691 77.516 m 70.848 78.754 73.598 78.012 74.836 75.855 c 76.254 73.434
 77.93 71.168 79.836 69.105 c 83.863 64.676 77.234 58.625 73.188 63.039 
c 70.844 65.586 68.781 68.379 67.039 71.371 c 65.797 73.523 66.539 76.277
 68.691 77.516 c h
68.691 77.516 m f
Q Q
showpage
%%Trailer
end
%%EOF
