%!PS-Adobe-3.0 EPSF-3.0
%%Creator: cairo 1.16.0 (https://cairographics.org)
%%CreationDate: Mon Dec 14 10:23:12 2020
%%Pages: 1
%%DocumentData: Clean7Bit
%%LanguageLevel: 2
%%BoundingBox: 26 8 358 376
%%EndComments
%%BeginProlog
50 dict begin
/q { gsave } bind def
/Q { grestore } bind def
/cm { 6 array astore concat } bind def
/w { setlinewidth } bind def
/J { setlinecap } bind def
/j { setlinejoin } bind def
/M { setmiterlimit } bind def
/d { setdash } bind def
/m { moveto } bind def
/l { lineto } bind def
/c { curveto } bind def
/h { closepath } bind def
/re { exch dup neg 3 1 roll 5 3 roll moveto 0 rlineto
      0 exch rlineto 0 rlineto closepath } bind def
/S { stroke } bind def
/f { fill } bind def
/f* { eofill } bind def
/n { newpath } bind def
/W { clip } bind def
/W* { eoclip } bind def
/BT { } bind def
/ET { } bind def
/BDC { mark 3 1 roll /BDC pdfmark } bind def
/EMC { mark /EMC pdfmark } bind def
/cairo_store_point { /cairo_point_y exch def /cairo_point_x exch def } def
/Tj { show currentpoint cairo_store_point } bind def
/TJ {
  {
    dup
    type /stringtype eq
    { show } { -0.001 mul 0 cairo_font_matrix dtransform rmoveto } ifelse
  } forall
  currentpoint cairo_store_point
} bind def
/cairo_selectfont { cairo_font_matrix aload pop pop pop 0 0 6 array astore
    cairo_font exch selectfont cairo_point_x cairo_point_y moveto } bind def
/Tf { pop /cairo_font exch def /cairo_font_matrix where
      { pop cairo_selectfont } if } bind def
/Td { matrix translate cairo_font_matrix matrix concatmatrix dup
      /cairo_font_matrix exch def dup 4 get exch 5 get cairo_store_point
      /cairo_font where { pop cairo_selectfont } if } bind def
/Tm { 2 copy 8 2 roll 6 array astore /cairo_font_matrix exch def
      cairo_store_point /cairo_font where { pop cairo_selectfont } if } bind def
/g { setgray } bind def
/rg { setrgbcolor } bind def
/d1 { setcachedevice } bind def
/cairo_data_source {
  CairoDataIndex CairoData length lt
    { CairoData CairoDataIndex get /CairoDataIndex CairoDataIndex 1 add def }
    { () } ifelse
} def
/cairo_flush_ascii85_file { cairo_ascii85_file status { cairo_ascii85_file flushfile } if } def
/cairo_image { image cairo_flush_ascii85_file } def
/cairo_imagemask { imagemask cairo_flush_ascii85_file } def
%%EndProlog
%%BeginSetup
%%EndSetup
%%Page: 1 1
%%BeginPageSetup
%%PageBoundingBox: 26 8 358 376
%%EndPageSetup
q 26 8 332 368 rectclip
1 0 0 -1 0 384 cm q
0.576471 0.631373 0.698039 rg
138.801 318.871 153.07 52.379 re f
0.47451 0.521569 0.568627 rg
138.801 318.871 22.5 52.379 re f
0.882353 0.717647 0.639216 rg
338.012 219.773 m 338.012 219.75 l 91.043 219.863 l 83.629 220.668 78.004
 226.918 77.984 234.375 c 77.984 255.137 l 78 262.824 83.969 269.191 91.641
 269.699 c 339.031 269.699 l 346.699 269.188 352.664 262.824 352.68 255.137
 c 352.68 234.375 l 352.672 230.492 351.121 226.773 348.371 224.035 c 345.617
 221.297 341.891 219.762 338.012 219.773 c h
338.012 219.773 m f
1 0.847059 0.717647 rg
314.16 53.781 m 301.477 53.781 l 305.176 53.762 308.695 52.184 311.176 
49.441 c 313.781 46.574 315.215 42.828 315.188 38.953 c 315.188 30.766 309.051
 24.129 301.477 24.129 c 206.602 24.129 l 201.422 18.309 193.215 14.477 
181.395 13.898 c 152.062 12.75 l 136.082 13.656 121.129 20.914 110.535 32.91
 c 105.473 38.648 l 100.641 44.125 93.684 47.262 86.379 47.258 c 31.32 47.258
 l 31.32 135.547 l 80.16 135.547 l 89.234 135.547 102.898 139.559 110.527
 144.457 c 113.551 146.398 l 121.051 151.219 129.777 153.781 138.691 153.781
 c 274.793 153.383 l 283.098 153.367 289.828 146.637 289.844 138.328 c 289.828
 130.48 283.789 123.957 275.961 123.336 c 300.914 123.336 l 305.254 123.312
 309.379 121.465 312.285 118.246 c 315.344 114.887 317.027 110.496 316.996
 105.953 c 316.996 96.344 309.797 88.559 300.914 88.559 c 314.16 88.559 
l 318.496 88.531 322.617 86.684 325.523 83.469 c 328.582 80.105 330.266 
75.715 330.234 71.168 c 330.234 61.566 323.031 53.781 314.16 53.781 c h
314.16 53.781 m f
0.780392 0.603922 0.513726 rg
339.031 269.699 m 91.641 269.699 l 83.969 270.203 77.996 276.566 77.984
 284.258 c 77.984 305.016 l 78.008 313.102 84.578 319.641 92.664 319.621
 c 338.012 319.621 l 341.891 319.629 345.617 318.098 348.371 315.359 c 351.121
 312.617 352.672 308.898 352.68 305.016 c 352.68 284.258 l 352.668 276.57
 346.699 270.207 339.031 269.699 c h
339.031 269.699 m f
336.227 169.891 m 94.449 169.891 l 86.363 169.875 79.793 176.414 79.777
 184.5 c 79.777 205.254 l 79.777 213.324 82.77 219.863 90.871 219.863 c 
91.043 219.863 l 338.012 219.75 l 345.352 218.871 350.883 212.648 350.895
 205.254 c 350.895 184.5 l 350.879 176.414 344.309 169.875 336.227 169.891
 c h
336.227 169.891 m f
0.909804 0.733333 0.603922 rg
31.32 47.258 22.5 88.289 re f
0.768627 0.619608 0.564706 rg
100.484 255.137 m 100.484 234.375 l 100.504 226.918 106.129 220.668 113.543
 219.863 c 91.043 219.863 l 83.629 220.668 78.004 226.918 77.984 234.375
 c 77.984 255.137 l 78 262.824 83.969 269.191 91.641 269.699 c 114.141 269.699
 l 106.469 269.191 100.5 262.824 100.484 255.137 c h
100.484 255.137 m f
0.647059 0.494118 0.427451 rg
100.484 305.016 m 100.484 284.258 l 100.496 276.566 106.469 270.203 114.141
 269.699 c 91.641 269.699 l 83.969 270.203 77.996 276.566 77.984 284.258
 c 77.984 305.016 l 78.008 313.102 84.578 319.641 92.664 319.621 c 115.164
 319.621 l 107.078 319.641 100.508 313.102 100.484 305.016 c h
100.484 305.016 m f
102.277 205.254 m 102.277 184.5 l 102.293 176.414 108.863 169.875 116.949
 169.891 c 94.449 169.891 l 86.363 169.875 79.793 176.414 79.777 184.5 c
 79.777 205.254 l 79.777 213.324 82.77 219.863 90.871 219.863 c 91.043 219.863
 l 113.176 219.852 l 105.227 219.746 102.277 213.254 102.277 205.254 c h
102.277 205.254 m f
0.156863 0.258824 0.407843 rg
349.453 219.059 m 353.246 215.469 355.391 210.48 355.395 205.262 c 355.395
 184.5 l 355.363 173.938 346.789 165.391 336.227 165.395 c 94.449 165.395
 l 83.883 165.387 75.309 173.934 75.277 184.5 c 75.277 205.258 l 75.277 
211.695 76.977 216.719 80.059 220 c 75.887 223.613 73.492 228.859 73.488
 234.379 c 73.488 255.137 l 73.492 260.754 75.973 266.082 80.27 269.699 
c 75.973 273.316 73.492 278.645 73.488 284.258 c 73.488 305.016 l 73.52 
315.582 82.094 324.129 92.66 324.121 c 134.305 324.121 l 134.305 371.25 
l 134.305 373.734 136.316 375.75 138.805 375.75 c 291.867 375.75 l 294.352
 375.75 296.367 373.734 296.367 371.25 c 296.367 324.121 l 338.012 324.121
 l 348.574 324.125 357.152 315.578 357.184 305.016 c 357.184 284.258 l 357.18
 278.645 354.695 273.316 350.398 269.699 c 354.695 266.082 357.18 260.754
 357.18 255.141 c 357.18 234.379 l 357.176 228.336 354.312 222.652 349.453
 219.059 c h
84.277 184.5 m 84.305 178.902 88.855 174.383 94.449 174.395 c 336.227 174.395
 l 341.82 174.383 346.367 178.906 346.395 184.5 c 346.395 205.258 l 346.367
 210.852 341.82 215.371 336.227 215.359 c 90.836 215.359 l 89.012 215.359
 84.277 215.301 84.277 205.258 c h
287.367 366.75 m 143.305 366.75 l 143.305 324.121 l 287.367 324.121 l h
348.184 305.016 m 348.156 310.613 343.605 315.133 338.012 315.121 c 92.66
 315.121 l 87.062 315.133 82.512 310.613 82.488 305.016 c 82.488 284.258
 l 82.508 279.074 86.438 274.738 91.594 274.207 c 339.074 274.207 l 344.23
 274.738 348.16 279.074 348.18 284.258 c h
348.184 255.137 m 348.16 260.32 344.234 264.656 339.078 265.188 c 91.594
 265.188 l 86.438 264.656 82.508 260.32 82.488 255.137 c 82.488 234.379 
l 82.512 229.277 86.32 224.988 91.383 224.359 c 338.031 224.273 l 343.621
 224.273 348.156 228.789 348.184 234.379 c h
348.184 255.137 m f
183.496 194.156 m 197.738 194.156 l 203.738 194.156 203.738 185.156 197.738
 185.156 c 183.496 185.156 l 177.496 185.156 177.496 194.156 183.496 194.156
 c h
183.496 194.156 m f
120.691 194.609 m 166.902 194.609 l 172.902 194.609 172.902 185.609 166.902
 185.609 c 120.691 185.609 l 114.691 185.609 114.691 194.609 120.691 194.609
 c h
120.691 194.609 m f
100.297 194.609 m 103.902 194.609 l 109.902 194.609 109.902 185.609 103.902
 185.609 c 100.297 185.609 l 94.297 185.609 94.297 194.609 100.297 194.609
 c h
100.297 194.609 m f
108.094 148.246 m 111.121 150.188 l 119.348 155.48 128.922 158.289 138.703
 158.277 c 274.805 157.879 l 285.582 157.844 294.312 149.109 294.344 138.328
 c 294.348 134.609 293.277 130.965 291.27 127.836 c 300.918 127.836 l 312.262
 127.836 321.492 118.016 321.492 105.949 c 321.512 101.238 320.062 96.641
 317.348 92.793 c 327.184 91.156 334.734 82.086 334.734 71.172 c 334.734
 60.035 326.879 50.824 316.754 49.465 c 318.684 46.301 319.703 42.66 319.691
 38.953 c 319.691 28.297 311.523 19.625 301.48 19.625 c 208.457 19.625 l
 202.164 13.551 193.027 9.961 181.574 9.398 c 151.801 8.258 l 134.637 9.277
 118.578 17.074 107.16 29.934 c 102.098 35.672 l 98.117 40.18 92.391 42.762
 86.375 42.758 c 31.316 42.758 l 28.832 42.758 26.816 44.773 26.816 47.258
 c 26.816 135.551 l 26.816 138.035 28.832 140.051 31.316 140.051 c 80.164
 140.051 l 88.391 140.051 101.18 143.801 108.094 148.246 c h
35.816 51.758 m 86.379 51.758 l 94.977 51.758 103.16 48.07 108.848 41.625
 c 113.914 35.887 l 123.684 24.879 137.414 18.184 152.105 17.254 c 181.176
 18.391 l 204.539 19.539 209.344 33.695 209.262 45.391 c 209.098 98.488 
l 209.047 104.312 204.371 109.039 198.551 109.148 c 192.727 109.258 187.875
 104.715 187.605 98.898 c 186.031 60.898 l 185.926 58.418 183.828 56.488
 181.348 56.59 c 178.863 56.695 176.934 58.793 177.039 61.273 c 177.539 
73.418 l 175.996 76.734 168.207 90.605 146.484 89.254 c 140.492 88.879 139.934
 97.863 145.922 98.238 c 147.094 98.312 148.234 98.344 149.352 98.344 c 
150.668 98.344 151.941 98.289 153.18 98.195 c 154.371 98.582 165.582 102.5
 167.066 113.004 c 167.379 115.223 169.277 116.871 171.516 116.875 c 171.73
 116.875 171.941 116.859 172.152 116.828 c 174.613 116.48 176.328 114.203
 175.977 111.742 c 175.008 105.168 171.496 99.234 166.195 95.223 c 170.613
 93.449 174.66 90.867 178.129 87.609 c 178.609 99.273 l 179.09 109.973 188.012
 118.34 198.723 118.137 c 209.43 117.934 218.027 109.23 218.098 98.52 c 
218.262 45.438 l 218.402 39.648 217.242 33.906 214.863 28.629 c 301.477 
28.629 l 306.559 28.629 310.691 33.262 310.691 38.957 c 310.691 44.652 306.559
 49.285 301.477 49.285 c 232.68 49.285 l 226.68 49.285 226.68 58.285 232.68
 58.285 c 314.156 58.285 l 320.539 58.285 325.734 64.066 325.734 71.172 
c 325.734 78.277 320.539 84.059 314.156 84.059 c 233.176 84.059 l 227.176
 84.059 227.176 93.059 233.176 93.059 c 300.785 93.059 l 300.828 93.059 
300.871 93.066 300.914 93.066 c 307.297 93.066 312.492 98.844 312.492 105.949
 c 312.492 113.055 307.297 118.836 300.914 118.836 c 219.934 118.836 l 213.934
 118.836 213.934 127.836 219.934 127.836 c 275.82 127.836 l 281.422 128.387
 285.605 133.234 285.328 138.855 c 285.047 144.477 280.406 148.891 274.777
 148.883 c 138.688 149.277 l 130.637 149.285 122.758 146.973 115.984 142.617
 c 112.957 140.676 l 104.559 135.277 90.152 131.051 80.164 131.051 c 35.816
 131.051 l h
35.816 51.758 m f
Q Q
showpage
%%Trailer
end
%%EOF
