%!PS-Adobe-3.0 EPSF-3.0
%%Creator: cairo 1.16.0 (https://cairographics.org)
%%CreationDate: Mon Dec 14 10:23:15 2020
%%Pages: 1
%%DocumentData: Clean7Bit
%%LanguageLevel: 2
%%BoundingBox: 7 79 377 305
%%EndComments
%%BeginProlog
50 dict begin
/q { gsave } bind def
/Q { grestore } bind def
/cm { 6 array astore concat } bind def
/w { setlinewidth } bind def
/J { setlinecap } bind def
/j { setlinejoin } bind def
/M { setmiterlimit } bind def
/d { setdash } bind def
/m { moveto } bind def
/l { lineto } bind def
/c { curveto } bind def
/h { closepath } bind def
/re { exch dup neg 3 1 roll 5 3 roll moveto 0 rlineto
      0 exch rlineto 0 rlineto closepath } bind def
/S { stroke } bind def
/f { fill } bind def
/f* { eofill } bind def
/n { newpath } bind def
/W { clip } bind def
/W* { eoclip } bind def
/BT { } bind def
/ET { } bind def
/BDC { mark 3 1 roll /BDC pdfmark } bind def
/EMC { mark /EMC pdfmark } bind def
/cairo_store_point { /cairo_point_y exch def /cairo_point_x exch def } def
/Tj { show currentpoint cairo_store_point } bind def
/TJ {
  {
    dup
    type /stringtype eq
    { show } { -0.001 mul 0 cairo_font_matrix dtransform rmoveto } ifelse
  } forall
  currentpoint cairo_store_point
} bind def
/cairo_selectfont { cairo_font_matrix aload pop pop pop 0 0 6 array astore
    cairo_font exch selectfont cairo_point_x cairo_point_y moveto } bind def
/Tf { pop /cairo_font exch def /cairo_font_matrix where
      { pop cairo_selectfont } if } bind def
/Td { matrix translate cairo_font_matrix matrix concatmatrix dup
      /cairo_font_matrix exch def dup 4 get exch 5 get cairo_store_point
      /cairo_font where { pop cairo_selectfont } if } bind def
/Tm { 2 copy 8 2 roll 6 array astore /cairo_font_matrix exch def
      cairo_store_point /cairo_font where { pop cairo_selectfont } if } bind def
/g { setgray } bind def
/rg { setrgbcolor } bind def
/d1 { setcachedevice } bind def
/cairo_data_source {
  CairoDataIndex CairoData length lt
    { CairoData CairoDataIndex get /CairoDataIndex CairoDataIndex 1 add def }
    { () } ifelse
} def
/cairo_flush_ascii85_file { cairo_ascii85_file status { cairo_ascii85_file flushfile } if } def
/cairo_image { image cairo_flush_ascii85_file } def
/cairo_imagemask { imagemask cairo_flush_ascii85_file } def
%%EndProlog
%%BeginSetup
%%EndSetup
%%Page: 1 1
%%BeginPageSetup
%%PageBoundingBox: 7 79 377 305
%%EndPageSetup
q 7 79 370 226 rectclip
1 0 0 -1 0 384 cm q
0.929412 0.717647 0.25098 rg
12 203.25 m 12 229.988 l 12.012 238.793 19.16 245.922 27.969 245.91 c 77.852
 245.91 l 92.34 245.906 106.07 252.379 115.289 263.559 c 134.113 286.395
 162.16 299.625 191.758 299.625 c 221.352 299.625 249.398 286.395 268.223
 263.559 c 277.441 252.379 291.172 245.906 305.664 245.91 c 356.031 245.91
 l 364.84 245.922 371.988 238.793 372 229.988 c 372 203.25 l h
12 203.25 m f
0.976471 0.831373 0.219608 rg
356.031 161.949 m 310.238 161.949 l 294.871 161.938 280.414 154.656 271.254
 142.32 c 252.559 117.188 223.078 102.375 191.758 102.375 c 160.434 102.375
 130.953 117.188 112.262 142.32 c 103.098 154.656 88.641 161.938 73.273 
161.949 c 27.969 161.949 l 23.738 161.941 19.68 163.613 16.684 166.602 c
 13.691 169.586 12.004 173.641 12 177.871 c 12 203.805 l 372 203.805 l 372
 177.871 l 371.996 173.641 370.309 169.586 367.316 166.602 c 364.32 163.613
 360.262 161.941 356.031 161.949 c h
356.031 161.949 m f
0.780392 0.603922 0.513726 rg
372 202.469 m 372 222.383 l 322.883 222.383 l 317.633 222.383 312.602 220.297
 308.891 216.586 c 305.18 212.875 303.094 207.844 303.094 202.594 c 303.094
 197.344 305.18 192.312 308.891 188.602 c 312.602 184.891 317.633 182.805
 322.883 182.805 c 372 182.805 l h
372 202.469 m f
0.984314 0.403922 0.443137 rg
265.867 202.59 m 265.027 242.551 232.273 274.68 192 274.68 c 151.727 274.68
 118.973 242.551 118.133 202.59 c 118.117 202.059 118.109 201.531 118.109
 201 c 118.109 160.305 151.191 127.32 192 127.32 c 232.809 127.32 265.891
 160.305 265.891 201 c 265.891 201.531 265.883 202.059 265.867 202.59 c 
h
265.867 202.59 m f
0.780392 0.603922 0.513726 rg
12 202.469 m 12 182.805 l 60.609 182.805 l 71.535 182.805 80.395 191.664
 80.395 202.594 c 80.395 213.523 71.535 222.383 60.609 222.383 c 12 222.383
 l h
12 202.469 m f
0.188235 0.564706 0.988235 rg
222.703 192.797 m 224.117 193.062 224.539 194.875 223.395 195.742 c 209.391
 208.809 l 208.922 209.16 208.676 209.738 208.746 210.324 c 211.336 229.641
 l 211.422 231.082 209.887 232.047 208.629 231.344 c 191.047 222.547 l 190.48
 222.27 189.816 222.277 189.254 222.562 c 172.898 231.121 l 171.602 231.875
 170 230.824 170.184 229.336 c 173.961 210.336 l 174.078 209.75 173.859 
209.145 173.391 208.77 c 159.75 197.273 l 158.691 196.391 159.109 194.68
 160.453 194.387 c 178.98 189.203 l 179.449 189.074 179.852 188.766 180.09
 188.34 c 188.551 171.383 l 189.285 170.141 191.078 170.133 191.828 171.367
 c 201.375 188.332 l 201.621 188.762 202.035 189.07 202.516 189.188 c h
222.703 192.797 m f
0.760784 0.407843 0.309804 rg
60.375 197.129 m 65.125 197.141 67.496 202.887 64.133 206.242 c 60.773 
209.598 55.031 207.219 55.027 202.469 c 55.027 199.52 57.422 197.125 60.375
 197.129 c h
60.375 197.129 m f
324.359 197.129 m 329.109 197.148 331.473 202.891 328.109 206.246 c 324.746
 209.598 319.008 207.219 319.004 202.469 c 319.004 199.516 321.406 197.121
 324.359 197.129 c h
324.359 197.129 m f
0.866667 0.372549 0.419608 rg
140.633 202.59 m 140.617 202.059 140.609 201.531 140.609 201 c 140.652 
164.59 167.258 133.66 203.25 128.168 c 199.527 127.602 195.766 127.32 192
 127.32 c 151.191 127.32 118.109 160.305 118.109 201 c 118.109 201.531 118.117
 202.059 118.133 202.59 c 118.973 242.551 151.727 274.68 192 274.68 c 195.766
 274.68 199.527 274.398 203.25 273.832 c 167.852 268.43 141.445 238.387 
140.633 202.59 c h
140.633 202.59 m f
0.156863 0.258824 0.407843 rg
156.848 200.715 m 169.215 211.133 l 165.766 228.453 l 165.301 230.777 166.223
 233.16 168.133 234.562 c 170.125 236.043 172.785 236.254 174.984 235.109
 c 190.191 227.152 l 206.617 235.371 l 208.754 236.441 211.309 236.246 213.254
 234.855 c 215.117 233.539 216.094 231.301 215.797 229.039 c 213.406 211.219
 l 226.359 199.125 l 228.094 197.684 228.887 195.406 228.43 193.199 c 227.938
 190.859 226.148 189.004 223.828 188.434 c 223.719 188.406 223.609 188.379
 223.496 188.359 c 204.66 185.004 l 195.75 169.156 l 194.598 167.16 192.461
 165.934 190.152 165.945 c 187.844 165.961 185.723 167.215 184.598 169.227
 c 184.57 169.277 184.543 169.324 184.52 169.379 c 176.637 185.188 l 159.242
 190.055 l 157.004 190.664 155.289 192.465 154.785 194.73 c 154.309 196.953
 155.102 199.258 156.848 200.715 c h
180.191 193.535 m 181.832 193.082 183.215 191.988 184.039 190.5 c 184.066
 190.453 184.094 190.402 184.117 190.352 c 190.332 177.887 l 197.449 190.547
 l 198.301 192.039 199.723 193.121 201.387 193.547 c 201.496 193.574 201.609
 193.598 201.719 193.621 c 216.285 196.223 l 206.422 205.426 l 204.824 206.777
 204.02 208.848 204.285 210.922 c 206.188 225.09 l 193.062 218.523 l 191.203
 217.598 189.016 217.617 187.176 218.578 c 175.719 224.57 l 178.379 211.215
 l 178.809 209.02 178.012 206.762 176.297 205.328 c 166.762 197.297 l h
180.191 193.535 m f
356.031 157.445 m 310.238 157.445 l 296.301 157.406 283.195 150.805 274.863
 139.633 c 265.383 126.914 253.125 116.523 239.02 109.258 c 209.336 94.086
 174.176 94.086 144.492 109.258 c 130.391 116.523 118.129 126.914 108.648
 139.633 c 100.316 150.805 87.211 157.406 73.273 157.445 c 27.969 157.445
 l 16.684 157.445 7.527 166.582 7.5 177.871 c 7.5 229.988 l 7.523 241.273
 16.684 250.41 27.969 250.41 c 77.852 250.41 l 91 250.383 103.469 256.262
 111.816 266.422 c 131.496 290.297 160.816 304.125 191.758 304.125 c 222.699
 304.125 252.02 290.297 271.699 266.422 c 280.047 256.262 292.516 250.383
 305.664 250.41 c 356.031 250.41 l 367.32 250.41 376.477 241.273 376.5 229.988
 c 376.5 177.871 l 376.473 166.582 367.316 157.445 356.031 157.445 c h
16.5 206.965 m 51.625 206.965 l 53.703 211.004 58.277 213.098 62.691 212.027
 c 67.102 210.961 70.211 207.008 70.211 202.465 c 70.211 197.926 67.102 
193.973 62.691 192.906 c 58.277 191.836 53.703 193.926 51.625 197.965 c 
16.5 197.965 l 16.5 187.301 l 60.609 187.301 l 64.684 187.273 68.598 188.871
 71.488 191.742 c 74.379 194.613 76.008 198.52 76.008 202.594 c 76.008 206.664
 74.379 210.57 71.488 213.441 c 68.598 216.312 64.684 217.91 60.609 217.883
 c 16.5 217.883 l h
59.523 202.465 m 59.512 201.703 60.43 201.305 60.977 201.84 c 61.52 202.375
 61.141 203.305 60.379 203.305 c 59.91 203.309 59.531 202.934 59.523 202.465
 c h
367.5 229.988 m 367.48 236.305 362.352 241.414 356.031 241.41 c 305.664
 241.41 l 289.824 241.379 274.805 248.461 264.75 260.699 c 246.781 282.5
 220.008 295.129 191.754 295.129 c 163.504 295.129 136.73 282.5 118.762 
260.699 c 108.703 248.461 93.688 241.383 77.848 241.41 c 27.969 241.41 l
 21.648 241.418 16.52 236.305 16.5 229.988 c 16.5 226.883 l 60.609 226.883
 l 72.297 226.875 82.336 218.57 84.531 207.094 c 113.844 207.094 l 116.973
 247.367 150.832 279.18 192 279.18 c 233.168 279.18 267.027 247.363 270.156
 207.094 c 298.961 207.094 l 301.156 218.574 311.195 226.879 322.883 226.883
 c 367.5 226.883 l h
122.609 201 m 122.609 162.855 153.734 131.82 192 131.82 c 230.266 131.82
 261.391 162.855 261.391 201 c 261.391 239.145 230.266 270.18 192 270.18
 c 153.734 270.18 122.609 239.145 122.609 201 c h
367.5 197.965 m 333.109 197.965 l 331.031 193.926 326.461 191.836 322.047
 192.906 c 317.633 193.973 314.523 197.926 314.523 202.465 c 314.523 207.008
 317.633 210.961 322.047 212.027 c 326.461 213.098 331.031 211.004 333.109
 206.965 c 367.5 206.965 l 367.5 217.883 l 322.883 217.883 l 318.809 217.91
 314.891 216.312 312 213.441 c 309.109 210.57 307.484 206.664 307.484 202.594
 c 307.484 198.52 309.109 194.613 312 191.742 c 314.891 188.871 318.809 
187.273 322.883 187.301 c 367.5 187.301 l h
325.211 202.465 m 325.223 203.23 324.305 203.625 323.758 203.09 c 323.215
 202.555 323.594 201.629 324.355 201.629 c 324.824 201.625 325.207 202 325.211
 202.465 c h
367.5 178.301 m 322.883 178.301 l 311.191 178.309 301.152 186.609 298.957
 198.094 c 270.332 198.094 l 268.793 156.328 234.25 122.82 192 122.82 c 
149.75 122.82 115.207 156.328 113.668 198.094 c 84.531 198.094 l 82.336 
186.613 72.297 178.309 60.609 178.301 c 16.5 178.301 l 16.5 177.871 l 16.52
 171.551 21.648 166.441 27.969 166.445 c 73.273 166.445 l 90.059 166.398
 105.836 158.457 115.871 145.004 c 133.719 121.012 161.855 106.875 191.758
 106.875 c 221.656 106.875 249.797 121.012 267.641 145.004 c 277.676 158.457
 293.457 166.398 310.238 166.445 c 356.031 166.445 l 362.352 166.441 367.48
 171.551 367.5 177.871 c h
367.5 178.301 m f
183.703 89.152 m 183.809 89.152 183.914 89.152 184.02 89.145 c 186.59 88.965
 189.195 88.875 191.758 88.875 c 197.758 88.875 197.758 79.875 191.758 79.875
 c 188.984 79.875 186.176 79.973 183.398 80.164 c 177.613 80.559 177.906
 89.152 183.703 89.152 c h
183.703 89.152 m f
95.129 135.188 m 97.125 136.672 99.941 136.258 101.426 134.262 c 111.73
 120.438 125.055 109.148 140.383 101.25 c 149.195 96.734 158.566 93.406 
168.254 91.355 c 174.125 90.105 172.25 81.301 166.379 82.551 c 155.914 84.77
 145.789 88.367 136.27 93.242 c 119.715 101.773 105.328 113.965 94.203 128.895
 c 92.719 130.887 93.137 133.707 95.129 135.188 c h
95.129 135.188 m f
Q Q
showpage
%%Trailer
end
%%EOF
