%!PS-Adobe-3.0 EPSF-3.0
%%Creator: cairo 1.16.0 (https://cairographics.org)
%%CreationDate: Mon Dec 14 10:23:17 2020
%%Pages: 1
%%DocumentData: Clean7Bit
%%LanguageLevel: 2
%%BoundingBox: 7 7 377 377
%%EndComments
%%BeginProlog
50 dict begin
/q { gsave } bind def
/Q { grestore } bind def
/cm { 6 array astore concat } bind def
/w { setlinewidth } bind def
/J { setlinecap } bind def
/j { setlinejoin } bind def
/M { setmiterlimit } bind def
/d { setdash } bind def
/m { moveto } bind def
/l { lineto } bind def
/c { curveto } bind def
/h { closepath } bind def
/re { exch dup neg 3 1 roll 5 3 roll moveto 0 rlineto
      0 exch rlineto 0 rlineto closepath } bind def
/S { stroke } bind def
/f { fill } bind def
/f* { eofill } bind def
/n { newpath } bind def
/W { clip } bind def
/W* { eoclip } bind def
/BT { } bind def
/ET { } bind def
/BDC { mark 3 1 roll /BDC pdfmark } bind def
/EMC { mark /EMC pdfmark } bind def
/cairo_store_point { /cairo_point_y exch def /cairo_point_x exch def } def
/Tj { show currentpoint cairo_store_point } bind def
/TJ {
  {
    dup
    type /stringtype eq
    { show } { -0.001 mul 0 cairo_font_matrix dtransform rmoveto } ifelse
  } forall
  currentpoint cairo_store_point
} bind def
/cairo_selectfont { cairo_font_matrix aload pop pop pop 0 0 6 array astore
    cairo_font exch selectfont cairo_point_x cairo_point_y moveto } bind def
/Tf { pop /cairo_font exch def /cairo_font_matrix where
      { pop cairo_selectfont } if } bind def
/Td { matrix translate cairo_font_matrix matrix concatmatrix dup
      /cairo_font_matrix exch def dup 4 get exch 5 get cairo_store_point
      /cairo_font where { pop cairo_selectfont } if } bind def
/Tm { 2 copy 8 2 roll 6 array astore /cairo_font_matrix exch def
      cairo_store_point /cairo_font where { pop cairo_selectfont } if } bind def
/g { setgray } bind def
/rg { setrgbcolor } bind def
/d1 { setcachedevice } bind def
/cairo_data_source {
  CairoDataIndex CairoData length lt
    { CairoData CairoDataIndex get /CairoDataIndex CairoDataIndex 1 add def }
    { () } ifelse
} def
/cairo_flush_ascii85_file { cairo_ascii85_file status { cairo_ascii85_file flushfile } if } def
/cairo_image { image cairo_flush_ascii85_file } def
/cairo_imagemask { imagemask cairo_flush_ascii85_file } def
%%EndProlog
%%BeginSetup
%%EndSetup
%%Page: 1 1
%%BeginPageSetup
%%PageBoundingBox: 7 7 377 377
%%EndPageSetup
q 7 7 370 370 rectclip
1 0 0 -1 0 384 cm q
0.427451 0.454902 0.52549 rg
372 27 m 372 357 l 372 360.98 370.422 364.793 367.609 367.609 c 364.793
 370.422 360.98 372 357 372 c 27 372 l 23.02 372 19.207 370.422 16.391 367.609
 c 13.578 364.793 12 360.98 12 357 c 12 27 l 12 23.02 13.578 19.207 16.391
 16.391 c 19.207 13.578 23.02 12 27 12 c 357 12 l 360.98 12 364.793 13.578
 367.609 16.391 c 370.422 19.207 372 23.02 372 27 c h
372 27 m f
0.690196 0.709804 0.792157 rg
340.738 50.762 m 340.738 333.238 l 340.738 337.383 337.383 340.738 333.238
 340.738 c 50.762 340.738 l 46.617 340.738 43.262 337.383 43.262 333.238
 c 43.262 50.762 l 43.262 46.617 46.617 43.262 50.762 43.262 c 333.238 43.262
 l 337.383 43.262 340.738 46.617 340.738 50.762 c h
340.738 50.762 m f
0.427451 0.454902 0.52549 rg
319.672 294.906 m 319.672 318.637 l 319.672 319.465 319 320.137 318.172
 320.137 c 294.434 320.137 l 293.605 320.137 292.934 319.465 292.934 318.637
 c 292.934 294.906 l 292.934 294.078 293.605 293.406 294.434 293.406 c 318.172
 293.406 l 319 293.406 319.672 294.078 319.672 294.906 c h
319.672 294.906 m f
319.672 65.363 m 319.672 89.094 l 319.672 89.922 319 90.594 318.172 90.594
 c 294.434 90.594 l 293.605 90.594 292.934 89.922 292.934 89.094 c 292.934
 65.363 l 292.934 64.535 293.605 63.863 294.434 63.863 c 318.172 63.863 
l 319 63.863 319.672 64.535 319.672 65.363 c h
319.672 65.363 m f
0.917647 0.87451 0.32549 rg
281.25 192 m 311.953 192 l 311.953 258.25 258.25 311.953 192 311.953 c 
192 281.25 l 241.293 281.25 281.25 241.293 281.25 192 c h
281.25 192 m f
0.984314 0.403922 0.443137 rg
311.953 192 m 281.25 192 l 281.25 142.707 241.293 102.75 192 102.75 c 192
 72.047 l 258.25 72.047 311.953 125.75 311.953 192 c h
311.953 192 m f
0.607843 0.882353 0.278431 rg
192 102.75 m 228.098 102.75 260.641 124.496 274.457 157.844 c 288.27 191.195
 280.633 229.582 255.109 255.109 c 229.582 280.633 191.195 288.27 157.844
 274.457 c 124.496 260.641 102.75 228.098 102.75 192 c 102.75 142.707 142.707
 102.75 192 102.75 c h
192 102.75 m f
0.333333 0.847059 0.847059 rg
192 281.25 m 192 311.953 l 125.75 311.953 72.047 258.25 72.047 192 c 102.75
 192 l 102.75 241.293 142.707 281.25 192 281.25 c h
192 281.25 m f
0.286275 0.741176 1 rg
192 72.047 m 192 102.75 l 142.707 102.75 102.75 142.707 102.75 192 c 72.047
 192 l 72.047 125.75 125.75 72.047 192 72.047 c h
192 72.047 m f
0.427451 0.454902 0.52549 rg
65.828 293.406 m 89.566 293.406 l 90.395 293.406 91.066 294.078 91.066 
294.906 c 91.066 318.637 l 91.066 319.469 90.395 320.137 89.566 320.137 
c 65.828 320.137 l 64.996 320.137 64.328 319.469 64.328 318.637 c 64.328
 294.906 l 64.328 294.078 64.996 293.406 65.828 293.406 c h
65.828 293.406 m f
65.828 63.863 m 89.566 63.863 l 90.395 63.863 91.066 64.531 91.066 65.363
 c 91.066 89.094 l 91.066 89.922 90.395 90.594 89.566 90.594 c 65.828 90.594
 l 64.996 90.594 64.328 89.922 64.328 89.094 c 64.328 65.363 l 64.328 64.531
 64.996 63.863 65.828 63.863 c h
65.828 63.863 m f
0.831373 0.882353 0.956863 rg
207.059 158.234 m 223.785 158.234 l 224.617 158.234 225.285 158.902 225.285
 159.734 c 225.285 224.266 l 225.285 225.098 224.617 225.766 223.785 225.766
 c 207.059 225.766 l 206.23 225.766 205.559 225.098 205.559 224.266 c 205.559
 159.734 l 205.559 158.902 206.23 158.234 207.059 158.234 c h
207.059 158.234 m f
160.215 158.234 m 176.941 158.234 l 177.77 158.234 178.441 158.902 178.441
 159.734 c 178.441 224.266 l 178.441 225.098 177.77 225.766 176.941 225.766
 c 160.215 225.766 l 159.383 225.766 158.715 225.098 158.715 224.266 c 158.715
 159.734 l 158.715 158.902 159.383 158.234 160.215 158.234 c h
160.215 158.234 m f
0.341176 0.364706 0.419608 rg
34.5 357 m 34.5 27 l 34.5 23.02 36.078 19.207 38.891 16.391 c 41.707 13.578
 45.52 12 49.5 12 c 27 12 l 23.02 12 19.207 13.578 16.391 16.391 c 13.578
 19.207 12 23.02 12 27 c 12 357 l 12 360.98 13.578 364.793 16.391 367.609
 c 19.207 370.422 23.02 372 27 372 c 49.5 372 l 45.52 372 41.707 370.422
 38.891 367.609 c 36.078 364.793 34.5 360.98 34.5 357 c h
34.5 357 m f
0.541176 0.74902 0.239216 rg
125.25 192 m 125.254 147.059 158.668 109.125 203.25 103.453 c 177.832 100.242
 152.262 108.109 133.043 125.055 c 113.824 141.996 102.816 166.379 102.816
 192 c 102.816 217.621 113.824 242.004 133.043 258.945 c 152.262 275.891
 177.832 283.758 203.25 280.547 c 158.668 274.875 125.254 236.941 125.25
 192 c h
125.25 192 m f
0.156863 0.258824 0.407843 rg
192 67.543 m 123.375 67.543 67.543 123.375 67.543 192 c 67.543 260.625 
123.375 316.457 192 316.457 c 260.625 316.457 316.457 260.625 316.457 192
 c 316.457 123.375 260.625 67.543 192 67.543 c h
196.5 76.641 m 256.59 78.953 305.047 127.41 307.359 187.5 c 285.641 187.5
 l 283.262 139.289 244.711 100.738 196.5 98.359 c h
187.5 76.641 m 187.5 98.359 l 139.289 100.738 100.738 139.289 98.359 187.5
 c 76.641 187.5 l 78.953 127.41 127.41 78.953 187.5 76.641 c h
187.5 307.359 m 127.41 305.047 78.953 256.59 76.641 196.5 c 98.359 196.5
 l 100.738 244.711 139.289 283.262 187.5 285.641 c h
107.25 192 m 107.25 157.723 127.898 126.82 159.566 113.703 c 191.238 100.582
 227.688 107.836 251.926 132.074 c 276.164 156.312 283.418 192.762 270.297
 224.434 c 257.18 256.102 226.277 276.75 192 276.75 c 145.215 276.695 107.305
 238.785 107.25 192 c h
196.5 307.359 m 196.5 285.641 l 244.711 283.262 283.262 244.711 285.641
 196.5 c 307.359 196.5 l 305.047 256.59 256.59 305.047 196.5 307.359 c h
196.5 307.359 m f
176.941 153.734 m 160.215 153.734 l 156.902 153.738 154.219 156.422 154.215
 159.734 c 154.215 224.266 l 154.219 227.578 156.902 230.262 160.215 230.266
 c 176.941 230.266 l 180.254 230.262 182.938 227.578 182.941 224.266 c 182.941
 159.734 l 182.938 156.422 180.254 153.738 176.941 153.734 c h
173.941 221.266 m 163.215 221.266 l 163.215 162.734 l 173.941 162.734 l
 h
173.941 221.266 m f
223.785 153.734 m 207.062 153.734 l 203.75 153.738 201.066 156.422 201.062
 159.734 c 201.062 224.266 l 201.066 227.578 203.75 230.262 207.062 230.266
 c 223.785 230.266 l 227.098 230.262 229.781 227.578 229.785 224.266 c 229.785
 159.734 l 229.781 156.422 227.098 153.738 223.785 153.734 c h
220.785 221.266 m 210.062 221.266 l 210.062 162.734 l 220.785 162.734 l
 h
220.785 221.266 m f
357 7.5 m 27 7.5 l 16.234 7.512 7.512 16.234 7.5 27 c 7.5 357 l 7.512 367.766
 16.234 376.488 27 376.5 c 357 376.5 l 367.766 376.488 376.488 367.766 376.5
 357 c 376.5 27 l 376.488 16.234 367.766 7.512 357 7.5 c h
367.5 357 m 367.492 362.797 362.797 367.492 357 367.5 c 27 367.5 l 21.203
 367.492 16.508 362.797 16.5 357 c 16.5 27 l 16.508 21.203 21.203 16.508
 27 16.5 c 357 16.5 l 362.797 16.508 367.492 21.203 367.5 27 c h
367.5 357 m f
333.242 38.758 m 50.758 38.758 l 44.133 38.766 38.766 44.133 38.758 50.758
 c 38.758 333.242 l 38.766 339.867 44.133 345.234 50.758 345.242 c 333.242
 345.242 l 339.867 345.234 345.234 339.867 345.242 333.242 c 345.242 50.758
 l 345.234 44.133 339.867 38.766 333.242 38.758 c h
336.242 333.242 m 336.242 334.898 334.898 336.242 333.242 336.242 c 50.758
 336.242 l 49.102 336.242 47.758 334.898 47.758 333.242 c 47.758 50.758 
l 47.758 49.102 49.102 47.758 50.758 47.758 c 333.242 47.758 l 334.898 47.758
 336.242 49.102 336.242 50.758 c h
336.242 333.242 m f
65.828 95.094 m 89.562 95.094 l 92.875 95.09 95.559 92.406 95.562 89.094
 c 95.562 65.359 l 95.559 62.047 92.875 59.363 89.562 59.359 c 65.828 59.359
 l 62.516 59.363 59.832 62.047 59.828 65.359 c 59.828 89.094 l 59.832 92.406
 62.516 95.09 65.828 95.094 c h
68.828 68.359 m 86.562 68.359 l 86.562 86.094 l 68.828 86.094 l h
68.828 68.359 m f
318.172 59.359 m 294.438 59.359 l 291.125 59.363 288.441 62.047 288.438
 65.359 c 288.438 89.094 l 288.441 92.406 291.125 95.09 294.438 95.094 c
 318.172 95.094 l 321.484 95.09 324.168 92.406 324.172 89.094 c 324.172 
65.359 l 324.168 62.047 321.484 59.363 318.172 59.359 c h
315.172 86.094 m 297.438 86.094 l 297.438 68.359 l 315.172 68.359 l h
315.172 86.094 m f
89.562 288.906 m 65.828 288.906 l 62.516 288.91 59.832 291.594 59.828 294.906
 c 59.828 318.641 l 59.832 321.953 62.516 324.637 65.828 324.641 c 89.562
 324.641 l 92.875 324.637 95.559 321.953 95.562 318.641 c 95.562 294.906
 l 95.559 291.594 92.875 288.91 89.562 288.906 c h
86.562 315.641 m 68.828 315.641 l 68.828 297.906 l 86.562 297.906 l h
86.562 315.641 m f
318.172 288.906 m 294.438 288.906 l 291.125 288.91 288.441 291.594 288.438
 294.906 c 288.438 318.641 l 288.441 321.953 291.125 324.637 294.438 324.641
 c 318.172 324.641 l 321.484 324.637 324.168 321.953 324.172 318.641 c 324.172
 294.906 l 324.168 291.594 321.484 288.91 318.172 288.906 c h
315.172 315.641 m 297.438 315.641 l 297.438 297.906 l 315.172 297.906 l
 h
315.172 315.641 m f
27.246 142.656 m 24.762 142.656 22.746 144.668 22.746 147.156 c 22.746 
161.398 l 22.746 167.398 31.746 167.398 31.746 161.398 c 31.746 147.156 
l 31.746 144.668 29.73 142.656 27.246 142.656 c h
27.246 142.656 m f
26.793 135.062 m 29.277 135.062 31.293 133.047 31.293 130.562 c 31.293 
84.352 l 31.293 78.352 22.293 78.352 22.293 84.352 c 22.293 130.562 l 22.293
 133.047 24.305 135.062 26.793 135.062 c h
26.793 135.062 m f
26.793 72.062 m 29.277 72.062 31.293 70.047 31.293 67.562 c 31.293 63.957
 l 31.293 57.957 22.293 57.957 22.293 63.957 c 22.293 67.562 l 22.293 70.047
 24.305 72.062 26.793 72.062 c h
26.793 72.062 m f
Q Q
showpage
%%Trailer
end
%%EOF
