%!PS-Adobe-3.0 EPSF-3.0
%%Creator: cairo 1.16.0 (https://cairographics.org)
%%CreationDate: Mon Dec 14 10:23:19 2020
%%Pages: 1
%%DocumentData: Clean7Bit
%%LanguageLevel: 2
%%BoundingBox: 5 8 379 376
%%EndComments
%%BeginProlog
50 dict begin
/q { gsave } bind def
/Q { grestore } bind def
/cm { 6 array astore concat } bind def
/w { setlinewidth } bind def
/J { setlinecap } bind def
/j { setlinejoin } bind def
/M { setmiterlimit } bind def
/d { setdash } bind def
/m { moveto } bind def
/l { lineto } bind def
/c { curveto } bind def
/h { closepath } bind def
/re { exch dup neg 3 1 roll 5 3 roll moveto 0 rlineto
      0 exch rlineto 0 rlineto closepath } bind def
/S { stroke } bind def
/f { fill } bind def
/f* { eofill } bind def
/n { newpath } bind def
/W { clip } bind def
/W* { eoclip } bind def
/BT { } bind def
/ET { } bind def
/BDC { mark 3 1 roll /BDC pdfmark } bind def
/EMC { mark /EMC pdfmark } bind def
/cairo_store_point { /cairo_point_y exch def /cairo_point_x exch def } def
/Tj { show currentpoint cairo_store_point } bind def
/TJ {
  {
    dup
    type /stringtype eq
    { show } { -0.001 mul 0 cairo_font_matrix dtransform rmoveto } ifelse
  } forall
  currentpoint cairo_store_point
} bind def
/cairo_selectfont { cairo_font_matrix aload pop pop pop 0 0 6 array astore
    cairo_font exch selectfont cairo_point_x cairo_point_y moveto } bind def
/Tf { pop /cairo_font exch def /cairo_font_matrix where
      { pop cairo_selectfont } if } bind def
/Td { matrix translate cairo_font_matrix matrix concatmatrix dup
      /cairo_font_matrix exch def dup 4 get exch 5 get cairo_store_point
      /cairo_font where { pop cairo_selectfont } if } bind def
/Tm { 2 copy 8 2 roll 6 array astore /cairo_font_matrix exch def
      cairo_store_point /cairo_font where { pop cairo_selectfont } if } bind def
/g { setgray } bind def
/rg { setrgbcolor } bind def
/d1 { setcachedevice } bind def
/cairo_data_source {
  CairoDataIndex CairoData length lt
    { CairoData CairoDataIndex get /CairoDataIndex CairoDataIndex 1 add def }
    { () } ifelse
} def
/cairo_flush_ascii85_file { cairo_ascii85_file status { cairo_ascii85_file flushfile } if } def
/cairo_image { image cairo_flush_ascii85_file } def
/cairo_imagemask { imagemask cairo_flush_ascii85_file } def
%%EndProlog
%%BeginSetup
%%EndSetup
%%Page: 1 1
%%BeginPageSetup
%%PageBoundingBox: 5 8 379 376
%%EndPageSetup
q 5 8 374 368 rectclip
1 0 0 -1 0 384 cm q
0.984314 0.403922 0.443137 rg
364.637 141.789 m 359.527 136.695 l 350.176 146.039 l 342.41 153.789 329.836
 153.789 322.074 146.039 c 240.797 64.836 l 237.066 61.109 234.969 56.051
 234.969 50.777 c 234.969 45.504 237.066 40.449 240.797 36.719 c 249.906
 27.613 l 242.355 20.34 l 239.352 17.332 234.496 17.285 231.434 20.234 c
 188.152 62.273 218.258 107.633 220.02 125.699 c 221.844 144.277 206.91 
163.238 206.527 163.711 c 206.527 163.719 l 162.465 204.344 l 162.465 204.344
 146.324 223.59 127.516 221.578 c 109.402 219.645 61.695 186.121 19.184 
231.383 c 16.309 234.449 16.391 239.242 19.363 242.211 c 24.473 247.305 
l 33.824 237.961 l 41.59 230.211 54.16 230.211 61.926 237.961 c 143.203 
319.164 l 146.934 322.891 149.031 327.949 149.031 333.223 c 149.031 338.496
 146.934 343.551 143.203 347.281 c 134.094 356.387 l 141.645 363.66 l 144.648
 366.668 149.504 366.715 152.566 363.766 c 195.848 321.727 165.742 276.367
 163.98 258.301 c 162.137 239.488 178.117 219.988 178.117 219.988 c 221.82
 178.996 l 221.82 178.996 237.676 160.41 256.484 162.422 c 274.598 164.355
 322.305 197.879 364.816 152.617 c 367.691 149.551 367.609 144.758 364.637
 141.789 c h
364.637 141.789 m f
0.866667 0.368627 0.415686 rg
142.516 236.578 m 161.324 238.59 177.465 219.344 177.465 219.344 c 221.527
 178.719 l 221.527 178.711 l 221.91 178.238 236.844 159.277 235.02 140.699
 c 233.445 124.535 209.188 86.527 235.09 48.594 c 235.574 44.098 237.59 
39.906 240.797 36.719 c 249.906 27.613 l 242.355 20.34 l 239.352 17.332 
234.496 17.285 231.434 20.234 c 188.152 62.273 218.258 107.633 220.02 125.699
 c 221.844 144.277 206.91 163.238 206.527 163.711 c 206.527 163.719 l 162.465
 204.344 l 162.465 204.344 146.324 223.59 127.516 221.578 c 109.402 219.645
 61.695 186.121 19.184 231.383 c 16.309 234.449 16.391 239.242 19.363 242.211
 c 24.473 247.305 l 33.824 237.961 l 38.348 233.438 44.77 231.371 51.082
 232.41 c 88.688 209.371 126.777 234.898 142.516 236.578 c h
142.516 236.578 m f
0.866667 0.92549 0.960784 rg
368.355 99.766 m 287.078 18.555 l 279.309 10.816 266.742 10.816 258.977
 18.555 c 240.797 36.719 l 237.066 40.449 234.969 45.504 234.969 50.777 
c 234.969 56.051 237.066 61.109 240.797 64.836 c 322.074 146.039 l 329.836
 153.789 342.41 153.789 350.176 146.039 c 368.355 127.875 l 372.086 124.148
 374.184 119.094 374.184 113.82 c 374.184 108.547 372.086 103.492 368.355
 99.766 c h
357.023 116.52 m 338.844 134.684 l 337.34 136.188 334.902 136.188 333.398
 134.684 c 252.121 53.484 l 250.629 51.988 250.629 49.57 252.121 48.074 
c 270.309 29.91 l 271.812 28.41 274.246 28.41 275.754 29.91 c 357.023 111.113
 l 358.523 112.602 358.523 115.031 357.023 116.52 c h
357.023 116.52 m f
143.203 319.164 m 61.926 237.961 l 54.16 230.211 41.59 230.211 33.824 237.961
 c 15.645 256.125 l 11.914 259.852 9.816 264.906 9.816 270.18 c 9.816 275.453
 11.914 280.508 15.645 284.234 c 96.922 365.445 l 104.691 373.184 117.258
 373.184 125.023 365.445 c 143.203 347.281 l 146.934 343.551 149.031 338.496
 149.031 333.223 c 149.031 327.949 146.934 322.891 143.203 319.164 c h
131.879 335.926 m 113.691 354.09 l 112.188 355.59 109.754 355.59 108.246
 354.09 c 26.977 272.887 l 25.477 271.398 25.477 268.969 26.977 267.48 c
 45.156 249.316 l 46.664 247.816 49.098 247.816 50.602 249.316 c 131.879
 330.516 l 133.371 332.012 133.371 334.43 131.879 335.926 c h
131.879 335.926 m f
0.301961 0.670588 1 rg
228.336 185.504 m 197.574 154.762 l 194.363 151.566 189.176 151.566 185.969
 154.762 c 155.203 185.504 l 153.668 187.039 152.805 189.125 152.805 191.297
 c 152.805 193.473 153.668 195.555 155.203 197.094 c 185.969 227.836 l 189.176
 231.039 194.367 231.039 197.574 227.836 c 228.336 197.094 l 229.875 195.555
 230.738 193.473 230.738 191.297 c 230.738 189.125 229.875 187.039 228.336
 185.504 c h
228.336 185.504 m f
0.917647 0.87451 0.32549 rg
207.645 188.781 m 209.031 190.172 209.031 192.426 207.645 193.816 c 194.289
 207.156 l 192.898 208.547 190.645 208.547 189.254 207.156 c 175.906 193.816
 l 174.512 192.426 174.512 190.172 175.906 188.781 c 189.254 175.441 l 190.645
 174.051 192.898 174.051 194.289 175.441 c h
207.645 188.781 m f
0.156863 0.258824 0.407843 rg
53.781 246.129 m 50.52 242.871 45.238 242.871 41.977 246.129 c 23.797 264.293
 l 22.23 265.852 21.352 267.973 21.352 270.18 c 21.352 272.391 22.23 274.508
 23.797 276.066 c 105.07 357.273 l 108.332 360.523 113.613 360.523 116.875
 357.273 c 135.059 339.109 l 136.621 337.547 137.5 335.43 137.5 333.219 
c 137.5 331.012 136.621 328.895 135.059 327.332 c h
110.973 350.453 m 30.637 270.18 l 47.879 252.953 l 128.215 333.219 l h
110.973 350.453 m f
290.262 15.375 m 280.734 5.879 265.32 5.879 255.797 15.375 c 249.852 21.312
 l 245.508 17.129 l 240.75 12.438 233.121 12.383 228.301 17.012 c 192.176
 52.094 204.441 89.734 211.77 112.227 c 213.621 117.902 215.223 122.801 
215.543 126.141 c 216.707 138.016 209.977 150.457 205.922 156.742 c 200.754
 151.582 l 195.789 146.633 187.758 146.633 182.793 151.582 c 152.023 182.324
 l 149.641 184.707 148.305 187.934 148.305 191.305 c 148.305 194.672 149.641
 197.902 152.023 200.281 c 156.176 204.426 l 151.133 209.316 140.004 218.395
 127.988 217.109 c 124.629 216.75 119.523 214.926 113.605 212.82 c 90.301
 204.512 51.301 190.613 15.898 228.301 c 11.328 233.129 11.457 240.727 16.188
 245.398 c 18.102 247.309 l 12.465 252.941 l 7.887 257.512 5.316 263.711
 5.316 270.18 c 5.316 276.648 7.887 282.852 12.465 287.422 c 93.738 368.625
 l 103.266 378.121 118.68 378.121 128.203 368.625 c 134.148 362.688 l 138.492
 366.871 l 143.25 371.562 150.879 371.613 155.699 366.988 c 191.824 331.906
 179.559 294.266 172.23 271.773 c 170.379 266.098 168.777 261.199 168.457
 257.855 c 167.285 245.906 174.449 233.215 178.672 226.898 c 182.797 231.016
 l 187.762 235.965 195.793 235.965 200.758 231.016 c 231.523 200.277 l 233.906
 197.895 235.246 194.664 235.246 191.297 c 235.246 187.93 233.906 184.699
 231.523 182.32 c 228.16 178.957 l 233.191 174.23 244.133 165.621 256.016
 166.895 c 259.371 167.254 264.48 169.074 270.395 171.18 c 281.844 175.262
 297.082 180.695 313.82 180.691 c 331.152 180.691 350.094 174.867 368.102
 155.695 c 372.672 150.867 372.547 143.27 367.816 138.598 c 365.902 136.688
 l 371.539 131.055 l 376.113 126.484 378.684 120.281 378.684 113.816 c 378.684
 107.348 376.113 101.145 371.539 96.574 c h
121.844 362.262 m 115.832 368.246 106.113 368.246 100.102 362.262 c 18.824
 281.055 l 15.938 278.172 14.316 274.258 14.316 270.18 c 14.316 266.098 
15.938 262.188 18.824 259.305 c 37.008 241.137 l 43.016 235.148 52.738 235.148
 58.75 241.137 c 140.023 322.352 l 142.91 325.234 144.531 329.145 144.531
 333.227 c 144.531 337.305 142.91 341.215 140.023 344.102 c h
159.496 258.738 m 159.922 263.055 161.66 268.387 163.672 274.562 c 170.785
 296.387 181.531 329.359 149.43 360.531 c 148.129 361.766 146.086 361.738
 144.82 360.473 c 144.762 360.414 l 140.52 356.324 l 146.387 350.461 l 150.961
 345.887 153.531 339.688 153.531 333.219 c 153.531 326.75 150.961 320.551
 146.387 315.977 c 65.109 234.773 l 55.586 225.281 40.172 225.281 30.648
 234.773 c 24.469 240.945 l 22.547 239.031 l 21.281 237.785 21.246 235.758
 22.461 234.465 c 53.828 201.066 87.984 213.238 110.586 221.293 c 117.043
 223.594 122.617 225.582 127.031 226.051 c 142.812 227.738 156.457 216.711
 162.547 210.789 c 172.184 220.418 l 167.504 227.09 157.945 242.879 159.496
 258.738 c h
225.16 193.914 m 194.395 224.652 l 192.945 226.094 190.602 226.094 189.152
 224.652 c 158.387 193.914 l 156.941 192.469 156.941 190.129 158.387 188.688
 c 189.152 157.949 l 190.602 156.508 192.945 156.508 194.395 157.949 c 225.16
 188.688 l 226.602 190.133 226.602 192.473 225.16 193.914 c h
361.539 149.539 m 330.172 182.934 296.016 170.762 273.414 162.707 c 266.961
 160.406 261.387 158.422 256.969 157.949 c 241.258 156.266 227.809 166.844
 221.773 172.582 c 212.43 163.246 l 216.93 156.637 226.051 141.066 224.504
 125.266 c 224.078 120.945 222.344 115.613 220.328 109.438 c 213.219 87.613
 202.473 54.641 234.57 23.469 c 235.871 22.234 237.914 22.262 239.18 23.527
 c 239.238 23.586 l 243.484 27.68 l 237.613 33.543 l 233.039 38.113 230.469
 44.316 230.469 50.781 c 230.469 57.25 233.039 63.453 237.613 68.023 c 318.891
 149.227 l 328.414 158.723 343.828 158.723 353.352 149.227 c 359.531 143.055
 l 361.453 144.969 l 362.719 146.215 362.758 148.246 361.539 149.539 c h
365.172 124.695 m 346.992 142.859 l 340.98 148.844 331.262 148.844 325.25
 142.859 c 243.977 61.652 l 241.09 58.77 239.469 54.859 239.469 50.777 c
 239.469 46.699 241.09 42.789 243.977 39.902 c 262.156 21.738 l 268.168 
15.746 277.891 15.746 283.898 21.738 c 365.176 102.945 l 368.062 105.828
 369.684 109.738 369.684 113.82 c 369.684 117.898 368.062 121.812 365.176
 124.695 c h
365.172 124.695 m f
278.93 26.727 m 275.668 23.473 270.387 23.473 267.125 26.727 c 248.941 
44.895 l 247.379 46.453 246.5 48.574 246.5 50.781 c 246.5 52.992 247.379
 55.109 248.941 56.668 c 330.219 137.871 l 333.48 141.125 338.762 141.125
 342.023 137.871 c 360.203 119.707 l 361.77 118.148 362.648 116.027 362.648
 113.82 c 362.648 111.609 361.77 109.492 360.203 107.934 c h
336.121 131.047 m 255.785 50.781 l 273.027 33.551 l 353.363 113.82 l h
336.121 131.047 m f
197.477 172.262 m 194.324 169.117 189.227 169.117 186.074 172.262 c 172.727
 185.602 l 171.211 187.113 170.363 189.164 170.363 191.301 c 170.363 193.438
 171.211 195.488 172.727 196.996 c 186.074 210.34 l 189.227 213.48 194.324
 213.48 197.477 210.34 c 210.824 197 l 212.34 195.488 213.188 193.438 213.188
 191.297 c 213.188 189.16 212.34 187.109 210.824 185.598 c h
191.773 203.309 m 179.754 191.297 l 191.773 179.289 l 203.797 191.301 l
 h
191.773 203.309 m f
Q Q
showpage
%%Trailer
end
%%EOF
