%!PS-Adobe-3.0 EPSF-3.0
%%Creator: cairo 1.16.0 (https://cairographics.org)
%%CreationDate: Mon Dec 14 10:23:39 2020
%%Pages: 1
%%DocumentData: Clean7Bit
%%LanguageLevel: 2
%%BoundingBox: 22 7 362 377
%%EndComments
%%BeginProlog
50 dict begin
/q { gsave } bind def
/Q { grestore } bind def
/cm { 6 array astore concat } bind def
/w { setlinewidth } bind def
/J { setlinecap } bind def
/j { setlinejoin } bind def
/M { setmiterlimit } bind def
/d { setdash } bind def
/m { moveto } bind def
/l { lineto } bind def
/c { curveto } bind def
/h { closepath } bind def
/re { exch dup neg 3 1 roll 5 3 roll moveto 0 rlineto
      0 exch rlineto 0 rlineto closepath } bind def
/S { stroke } bind def
/f { fill } bind def
/f* { eofill } bind def
/n { newpath } bind def
/W { clip } bind def
/W* { eoclip } bind def
/BT { } bind def
/ET { } bind def
/BDC { mark 3 1 roll /BDC pdfmark } bind def
/EMC { mark /EMC pdfmark } bind def
/cairo_store_point { /cairo_point_y exch def /cairo_point_x exch def } def
/Tj { show currentpoint cairo_store_point } bind def
/TJ {
  {
    dup
    type /stringtype eq
    { show } { -0.001 mul 0 cairo_font_matrix dtransform rmoveto } ifelse
  } forall
  currentpoint cairo_store_point
} bind def
/cairo_selectfont { cairo_font_matrix aload pop pop pop 0 0 6 array astore
    cairo_font exch selectfont cairo_point_x cairo_point_y moveto } bind def
/Tf { pop /cairo_font exch def /cairo_font_matrix where
      { pop cairo_selectfont } if } bind def
/Td { matrix translate cairo_font_matrix matrix concatmatrix dup
      /cairo_font_matrix exch def dup 4 get exch 5 get cairo_store_point
      /cairo_font where { pop cairo_selectfont } if } bind def
/Tm { 2 copy 8 2 roll 6 array astore /cairo_font_matrix exch def
      cairo_store_point /cairo_font where { pop cairo_selectfont } if } bind def
/g { setgray } bind def
/rg { setrgbcolor } bind def
/d1 { setcachedevice } bind def
/cairo_data_source {
  CairoDataIndex CairoData length lt
    { CairoData CairoDataIndex get /CairoDataIndex CairoDataIndex 1 add def }
    { () } ifelse
} def
/cairo_flush_ascii85_file { cairo_ascii85_file status { cairo_ascii85_file flushfile } if } def
/cairo_image { image cairo_flush_ascii85_file } def
/cairo_imagemask { imagemask cairo_flush_ascii85_file } def
%%EndProlog
%%BeginSetup
%%EndSetup
%%Page: 1 1
%%BeginPageSetup
%%PageBoundingBox: 22 7 362 377
%%EndPageSetup
q 22 7 340 370 rectclip
1 0 0 -1 0 384 cm q
0.780392 0.603922 0.513726 rg
26.699 31.418 m 26.641 31.418 l 26.641 49.539 l 26.641 59.895 35.035 68.289
 45.391 68.289 c 338.609 68.289 l 348.965 68.289 357.359 59.895 357.359 
49.539 c 357.359 29.324 l h
26.699 31.418 m f
0.882353 0.717647 0.639216 rg
357.359 11.961 m 357.359 29.324 l 26.699 31.418 l 26.641 31.418 l 26.641
 14.684 l h
357.359 11.961 m f
0.690196 0.709804 0.792157 rg
297.781 185.152 m 308.266 204.078 313.742 225.367 313.695 247.004 c 313.695
 316.059 259.207 372.039 192 372.039 c 124.793 372.039 70.305 316.059 70.305
 247.004 c 70.258 225.367 75.734 204.078 86.219 185.152 c 90.82 176.852 
96.352 169.105 102.703 162.059 c 124.934 137.406 156.711 121.973 192 121.973
 c 227.203 121.973 258.914 137.332 281.137 161.887 c 287.559 168.98 293.141
 176.785 297.781 185.152 c h
297.781 185.152 m f
0.929412 0.717647 0.25098 rg
297.781 90.434 m 297.781 185.152 l 293.141 176.785 287.559 168.98 281.137
 161.887 c 281.297 161.746 l 281.297 90.434 l h
297.781 90.434 m f
102.703 90.434 m 102.703 162.059 l 96.352 169.105 90.82 176.852 86.219 
185.152 c 86.219 90.434 l h
102.703 90.434 m f
0.8 0.827451 0.87451 rg
191.934 145.801 m 245.586 145.801 289.078 190.484 289.078 245.609 c 289.078
 300.734 245.586 345.414 191.934 345.414 c 138.277 345.414 94.793 300.727
 94.793 245.609 c 94.793 190.492 138.285 145.801 191.934 145.801 c h
191.934 145.801 m f
0.690196 0.709804 0.792157 rg
191.934 177.629 m 229.215 177.629 259.434 208.066 259.434 245.609 c 259.434
 283.156 229.215 313.582 191.934 313.582 c 154.648 313.582 124.434 283.148
 124.434 245.609 c 124.434 208.074 154.656 177.629 191.934 177.629 c h
191.934 177.629 m f
0.290196 0.317647 0.376471 rg
192.301 210.773 m 211.305 210.773 226.711 226.598 226.711 246.129 c 226.711
 265.656 211.305 281.477 192.301 281.477 c 173.297 281.477 157.891 265.648
 157.891 246.129 c 157.891 226.605 173.297 210.773 192.301 210.773 c h
192.301 210.773 m f
0.737255 0.368627 0.317647 rg
324.969 68.289 m 324.969 82.574 l 324.969 84.66 324.141 86.66 322.668 88.133
 c 321.191 89.609 319.191 90.438 317.109 90.434 c 300.531 90.434 l 300.531
 68.289 l h
324.969 68.289 m f
0.498039 0.239216 0.196078 rg
275.941 68.289 24.59 22.145 re f
0.737255 0.368627 0.317647 rg
251.348 68.289 24.594 22.145 re f
0.498039 0.239216 0.196078 rg
226.746 68.289 24.602 22.145 re f
0.737255 0.368627 0.317647 rg
202.156 68.289 24.59 22.145 re f
0.498039 0.239216 0.196078 rg
177.562 68.289 24.594 22.145 re f
0.737255 0.368627 0.317647 rg
152.969 68.289 24.594 22.145 re f
0.498039 0.239216 0.196078 rg
128.379 68.289 24.59 22.145 re f
0.737255 0.368627 0.317647 rg
103.785 68.289 24.594 22.145 re f
0.498039 0.239216 0.196078 rg
79.191 68.289 24.594 22.145 re f
0.737255 0.368627 0.317647 rg
79.191 68.289 m 79.191 90.434 l 65.43 90.434 l 63.344 90.438 61.344 89.609
 59.871 88.133 c 58.398 86.66 57.57 84.66 57.57 82.574 c 57.57 68.289 l 
h
79.191 68.289 m f
0.768627 0.631373 0.580392 rg
26.641 14.684 m 26.641 31.418 l 26.699 31.418 l 49.141 31.277 l 49.141 
14.684 l h
26.641 14.684 m f
0.678431 0.537255 0.47451 rg
49.141 49.539 m 49.141 31.418 l 49.199 31.418 l 49.141 31.277 l 26.699 
31.418 l 26.641 31.418 l 26.641 49.539 l 26.641 59.895 35.035 68.289 45.391
 68.289 c 67.891 68.289 l 57.535 68.289 49.141 59.895 49.141 49.539 c h
49.141 49.539 m f
0.588235 0.607843 0.666667 rg
92.805 247.004 m 92.758 225.367 98.234 204.078 108.719 185.152 c 113.32
 176.852 118.852 169.105 125.203 162.059 c 145.043 140.059 172.492 125.41
 203.25 122.512 c 199.547 122.16 195.793 121.973 192 121.973 c 156.715 121.973
 124.938 137.406 102.707 162.059 c 96.352 169.105 90.82 176.852 86.223 185.152
 c 75.734 204.078 70.258 225.367 70.305 247.004 c 70.305 316.059 124.793
 372.039 192 372.039 c 195.797 372.039 199.547 371.852 203.25 371.5 c 141.316
 365.668 92.805 312.16 92.805 247.004 c h
92.805 247.004 m f
0.156863 0.258824 0.407843 rg
191.938 141.301 m 135.891 141.301 90.293 188.094 90.293 245.609 c 90.293
 303.125 135.891 349.918 191.938 349.918 c 247.98 349.918 293.582 303.125
 293.582 245.609 c 293.582 188.094 247.984 141.301 191.938 141.301 c h
191.938 340.918 m 140.852 340.918 99.293 298.164 99.293 245.609 c 99.293
 193.055 140.852 150.301 191.938 150.301 c 243.023 150.301 284.582 193.051
 284.582 245.605 c 284.582 298.164 243.02 340.914 191.938 340.914 c h
191.938 340.918 m f
192.301 206.273 m 170.852 206.273 153.391 224.148 153.391 246.125 c 153.391
 268.098 170.844 285.977 192.301 285.977 c 213.754 285.977 231.207 268.098
 231.207 246.125 c 231.207 224.148 213.754 206.273 192.301 206.273 c h
192.301 276.977 m 175.809 276.977 162.391 263.137 162.391 246.125 c 162.391
 229.113 175.809 215.273 192.301 215.273 c 208.789 215.273 222.207 229.113
 222.207 246.125 c 222.207 263.137 208.789 276.977 192.301 276.977 c h
192.301 276.977 m f
191.938 173.129 m 152.234 173.129 119.938 205.641 119.938 245.605 c 119.938
 285.57 152.234 318.086 191.938 318.086 c 231.637 318.086 263.938 285.57
 263.938 245.605 c 263.938 205.641 231.637 173.129 191.938 173.129 c h
191.938 309.086 m 157.199 309.086 128.938 280.609 128.938 245.605 c 128.938
 210.605 157.199 182.129 191.938 182.129 c 226.676 182.129 254.938 210.605
 254.938 245.605 c 254.938 280.609 226.676 309.086 191.938 309.086 c h
191.938 309.086 m f
357.328 7.465 m 26.598 10.184 l 24.129 10.207 22.137 12.215 22.137 14.684
 c 22.137 49.535 l 22.152 62.371 32.551 72.773 45.387 72.785 c 53.07 72.785
 l 53.07 82.574 l 53.078 89.398 58.605 94.93 65.43 94.938 c 81.719 94.938
 l 81.719 184.109 l 71.238 203.414 65.77 225.039 65.805 247.004 c 65.805
 318.43 122.418 376.535 192 376.535 c 261.582 376.535 318.195 318.43 318.195
 247.004 c 318.23 225.039 312.762 203.414 302.281 184.109 c 302.281 94.938
 l 317.109 94.938 l 323.93 94.93 329.457 89.398 329.465 82.574 c 329.465
 72.785 l 338.617 72.785 l 351.449 72.773 361.852 62.371 361.867 49.535 
c 361.867 11.961 l 361.867 10.762 361.387 9.609 360.535 8.766 c 359.676 
7.93 358.523 7.465 357.328 7.465 c h
74.691 85.938 m 65.43 85.938 l 63.574 85.934 62.07 84.43 62.07 82.574 c
 62.07 72.785 l 74.691 72.785 l h
309.195 247.004 m 309.195 313.465 256.617 367.535 192 367.535 c 127.383
 367.535 74.805 313.465 74.805 247.004 c 74.805 180.547 127.379 126.477 
192 126.477 c 256.621 126.477 309.195 180.547 309.195 247.004 c h
83.691 85.938 m 83.691 72.785 l 99.285 72.785 l 99.285 85.938 l h
98.203 94.938 m 98.203 160.449 l 95.57 163.449 93.078 166.574 90.719 169.824
 c 90.719 94.938 l h
276.797 94.938 m 276.797 151.156 l 229.184 106.246 154.816 106.246 107.203
 151.156 c 107.203 94.938 l h
108.285 85.938 m 108.285 72.785 l 123.875 72.785 l 123.875 85.938 l h
132.875 85.938 m 132.875 72.785 l 148.473 72.785 l 148.473 85.938 l h
157.473 85.938 m 157.473 72.785 l 173.062 72.785 l 173.062 85.938 l h
182.062 85.938 m 182.062 72.785 l 197.656 72.785 l 197.656 85.938 l h
206.656 85.938 m 206.656 72.785 l 222.25 72.785 l 222.25 85.938 l h
231.25 85.938 m 231.25 72.785 l 246.844 72.785 l 246.844 85.938 l h
255.844 85.938 m 255.844 72.785 l 271.438 72.785 l 271.438 85.938 l h
280.438 85.938 m 280.438 72.785 l 296.031 72.785 l 296.031 85.938 l h
293.281 94.938 m 293.281 169.824 l 290.93 166.578 288.434 163.453 285.797
 160.449 c 285.797 94.938 l h
320.465 82.574 m 320.465 84.43 318.961 85.934 317.109 85.938 c 305.031 
85.938 l 305.031 72.785 l 320.465 72.785 l h
352.867 49.535 m 352.855 57.402 346.48 63.777 338.617 63.785 c 45.387 63.785
 l 37.52 63.777 31.145 57.402 31.137 49.535 c 31.137 35.887 l 352.863 33.848
 l h
352.867 24.852 m 31.137 26.887 l 31.137 19.148 l 352.863 16.5 l h
352.867 24.852 m f
52.336 54.75 m 56.312 54.75 l 62.312 54.75 62.312 45.75 56.312 45.75 c 
52.336 45.75 l 46.336 45.75 46.336 54.75 52.336 54.75 c h
52.336 54.75 m f
71.316 54.75 m 128.332 54.75 l 134.332 54.75 134.332 45.75 128.332 45.75
 c 71.316 45.75 l 65.316 45.75 65.316 54.75 71.316 54.75 c h
71.316 54.75 m f
Q Q
showpage
%%Trailer
end
%%EOF
