%!PS-Adobe-3.0 EPSF-3.0
%%Creator: cairo 1.16.0 (https://cairographics.org)
%%CreationDate: Mon Dec 14 10:23:41 2020
%%Pages: 1
%%DocumentData: Clean7Bit
%%LanguageLevel: 2
%%BoundingBox: 8 12 376 372
%%EndComments
%%BeginProlog
50 dict begin
/q { gsave } bind def
/Q { grestore } bind def
/cm { 6 array astore concat } bind def
/w { setlinewidth } bind def
/J { setlinecap } bind def
/j { setlinejoin } bind def
/M { setmiterlimit } bind def
/d { setdash } bind def
/m { moveto } bind def
/l { lineto } bind def
/c { curveto } bind def
/h { closepath } bind def
/re { exch dup neg 3 1 roll 5 3 roll moveto 0 rlineto
      0 exch rlineto 0 rlineto closepath } bind def
/S { stroke } bind def
/f { fill } bind def
/f* { eofill } bind def
/n { newpath } bind def
/W { clip } bind def
/W* { eoclip } bind def
/BT { } bind def
/ET { } bind def
/BDC { mark 3 1 roll /BDC pdfmark } bind def
/EMC { mark /EMC pdfmark } bind def
/cairo_store_point { /cairo_point_y exch def /cairo_point_x exch def } def
/Tj { show currentpoint cairo_store_point } bind def
/TJ {
  {
    dup
    type /stringtype eq
    { show } { -0.001 mul 0 cairo_font_matrix dtransform rmoveto } ifelse
  } forall
  currentpoint cairo_store_point
} bind def
/cairo_selectfont { cairo_font_matrix aload pop pop pop 0 0 6 array astore
    cairo_font exch selectfont cairo_point_x cairo_point_y moveto } bind def
/Tf { pop /cairo_font exch def /cairo_font_matrix where
      { pop cairo_selectfont } if } bind def
/Td { matrix translate cairo_font_matrix matrix concatmatrix dup
      /cairo_font_matrix exch def dup 4 get exch 5 get cairo_store_point
      /cairo_font where { pop cairo_selectfont } if } bind def
/Tm { 2 copy 8 2 roll 6 array astore /cairo_font_matrix exch def
      cairo_store_point /cairo_font where { pop cairo_selectfont } if } bind def
/g { setgray } bind def
/rg { setrgbcolor } bind def
/d1 { setcachedevice } bind def
/cairo_data_source {
  CairoDataIndex CairoData length lt
    { CairoData CairoDataIndex get /CairoDataIndex CairoDataIndex 1 add def }
    { () } ifelse
} def
/cairo_flush_ascii85_file { cairo_ascii85_file status { cairo_ascii85_file flushfile } if } def
/cairo_image { image cairo_flush_ascii85_file } def
/cairo_imagemask { imagemask cairo_flush_ascii85_file } def
%%EndProlog
%%BeginSetup
%%EndSetup
%%Page: 1 1
%%BeginPageSetup
%%PageBoundingBox: 8 12 376 372
%%EndPageSetup
q 8 12 368 360 rectclip
1 0 0 -1 0 384 cm q
0.709804 0.509804 0.419608 rg
263.789 49.246 22.711 21.957 re f
0.984314 0.403922 0.443137 rg
274.844 16.762 m 242.789 49.996 l 308.723 49.996 l h
274.844 16.762 m f
0.690196 0.709804 0.792157 rg
285.285 285.629 m 297.363 288.828 307.359 297.301 312.492 308.695 c 317.629
 320.086 317.355 333.188 311.75 344.355 c 306.145 355.523 295.805 363.57
 283.602 366.262 c 271.398 368.953 258.633 366.004 248.852 358.23 c 248.844
 358.176 l 253.957 357.418 258.953 356.004 263.707 353.977 c 266.535 352.781
 269.234 351.312 271.777 349.59 c 272.648 349.004 273.453 348.324 274.176
 347.566 c 274.344 347.574 274.508 347.574 274.672 347.574 c 283.434 347.574
 291.344 342.336 294.766 334.27 c 298.188 326.207 296.457 316.875 290.367
 310.578 c 284.277 304.281 275.012 302.23 266.836 305.379 c 258.66 308.527
 253.156 316.258 252.863 325.012 c 249.523 326.781 l 244.574 329.402 239.152
 331.004 233.574 331.492 c 233.312 329.59 233.184 327.668 233.184 325.746
 c 233.191 312.875 239.172 300.73 249.371 292.879 c 259.57 285.023 272.836
 282.348 285.285 285.629 c h
285.285 285.629 m f
0.709804 0.509804 0.419608 rg
262.59 124.184 m 262.59 285.652 l 262.695 286.02 l 270.047 283.812 277.863
 283.676 285.285 285.629 c 285.309 285.547 l 285.309 124.184 l h
262.59 124.184 m f
273.684 325.922 m 268.906 321.324 261.719 320.316 255.863 323.422 c 252.863
 325.012 l 249.523 326.781 l 244.574 329.402 239.152 331.004 233.574 331.492
 c 232.352 331.598 231.129 331.648 229.898 331.648 c 213.953 331.648 l 213.953
 358.914 l 239.004 358.914 l 242.297 358.914 245.586 358.672 248.844 358.176
 c 253.957 357.418 258.953 356.004 263.707 353.977 c 266.535 352.781 269.234
 351.312 271.777 349.59 c 272.648 349.004 273.453 348.324 274.176 347.566
 c 280.004 341.445 279.781 331.766 273.684 325.922 c h
273.684 325.922 m f
0.533333 0.807843 0.847059 rg
213.953 358.809 m 213.953 358.914 l 191.543 358.914 l 191.543 331.648 l
 213.953 331.648 l h
213.953 358.809 m f
0.709804 0.509804 0.419608 rg
191.543 358.809 m 191.543 358.914 l 140.289 358.914 l 116.078 358.914 96.488
 339.594 96.613 315.848 c 97.77 112.207 l 97.77 96.121 84.473 83.82 68.078
 83.82 c 60.293 83.754 52.777 86.672 47.078 91.98 c 41.496 97.223 38.344
 104.551 38.379 112.207 c 38.379 188.527 l 12.75 188.527 l 12.75 111.719
 l 12.75 81.219 37.957 56.488 69.047 56.488 c 83.926 56.445 98.223 62.258
 108.855 72.668 c 119.395 82.926 125.344 97.012 125.348 111.719 c 125.348
 312.352 l 125.449 323.109 134.254 331.75 145.012 331.648 c 191.543 331.648
 l h
191.543 358.809 m f
38.379 210.93 m 38.379 241.859 l 38.344 245.227 36.977 248.441 34.574 250.801
 c 32.168 253.156 28.926 254.465 25.559 254.43 c 22.176 254.438 18.922 253.113
 16.5 250.746 c 14.102 248.414 12.75 245.207 12.75 241.859 c 12.75 210.93
 l h
38.379 210.93 m f
0.533333 0.807843 0.847059 rg
12.75 188.527 25.629 22.402 re f
0.984314 0.403922 0.443137 rg
254.566 99.441 m 254.566 118.102 l 254.566 122.227 257.91 125.57 262.035
 125.574 c 287.109 125.574 l 291.234 125.57 294.578 122.227 294.578 118.102
 c 294.578 99.441 l h
254.566 99.441 m f
0.866667 0.92549 0.960784 rg
335.887 70.453 m 213.414 70.453 l 191.625 70.453 175.027 89.594 178.516
 110.691 c 186.898 174.227 l 187.137 175.781 189.355 175.836 189.668 174.293
 c 200.707 115.59 l 203.5 105.977 212.332 99.383 222.344 99.441 c 327.891
 99.441 l 337.566 99.387 346.188 105.547 349.266 114.719 c 359.82 171.234
 l 360.141 172.77 362.352 172.715 362.594 171.164 c 370.926 109.793 l 373.801
 88.98 357.301 70.453 335.887 70.453 c h
335.887 70.453 m f
0.764706 0.819608 0.847059 rg
235.914 70.453 m 213.414 70.453 l 191.625 70.453 175.027 89.594 178.516
 110.691 c 186.898 174.227 l 187.137 175.781 189.355 175.836 189.668 174.293
 c 200.707 115.59 l 200.902 114.898 201.137 114.23 201.395 113.574 c 201.016
 110.691 l 197.527 89.594 214.125 70.453 235.914 70.453 c h
235.914 70.453 m f
0.156863 0.258824 0.407843 rg
246.996 223.402 m 244.512 223.402 242.496 225.418 242.496 227.902 c 242.496
 242.148 l 242.496 248.148 251.496 248.148 251.496 242.148 c 251.496 227.902
 l 251.496 225.418 249.48 223.402 246.996 223.402 c h
246.996 223.402 m f
242.043 211.312 m 242.043 217.312 251.043 217.312 251.043 211.312 c 251.043
 165.102 l 251.043 159.102 242.043 159.102 242.043 165.102 c h
242.043 211.312 m f
246.543 140.207 m 244.055 140.207 242.043 142.223 242.043 144.707 c 242.043
 148.312 l 242.043 154.312 251.043 154.312 251.043 148.312 c 251.043 144.707
 l 251.043 142.223 249.027 140.207 246.543 140.207 c h
246.543 140.207 m f
69.047 51.992 m 35.523 51.992 8.25 78.785 8.25 111.723 c 8.25 241.859 l
 8.391 251.324 16.102 258.922 25.562 258.922 c 35.027 258.922 42.738 251.324
 42.875 241.859 c 42.875 112.211 l 42.875 98.816 53.945 88.32 68.078 88.32
 c 82.207 88.32 93.277 98.816 93.277 112.184 c 92.117 315.824 l 92.039 328.328
 96.984 340.344 105.844 349.168 c 114.949 358.344 127.359 363.477 140.289
 363.418 c 239 363.418 l 241.855 363.414 244.707 363.234 247.539 362.887
 c 255.402 368.672 264.914 371.777 274.672 371.738 c 297.109 371.742 316.273
 355.551 320.02 333.426 c 323.762 311.305 310.992 289.711 289.805 282.328
 c 289.805 129.754 l 295.227 128.496 299.066 123.672 299.074 118.105 c 299.074
 103.941 l 327.895 103.941 l 335.527 103.871 342.359 108.66 344.898 115.855
 c 355.398 172.055 l 355.941 174.895 358.457 176.926 361.348 176.855 c 364.234
 176.781 366.648 174.633 367.051 171.77 c 375.379 110.41 l 376.898 99.305
 373.535 88.082 366.156 79.645 c 358.52 70.918 347.48 65.926 335.887 65.953
 c 291.004 65.953 l 291.004 54.5 l 308.723 54.5 l 312.754 54.5 314.75 49.605
 311.871 46.785 c 277.996 13.551 l 276.211 11.801 273.34 11.84 271.605 13.641
 c 239.551 46.875 l 236.793 49.734 238.82 54.5 242.789 54.5 c 259.289 54.5
 l 259.289 65.953 l 213.41 65.953 l 201.633 65.918 190.438 71.07 182.805
 80.043 c 175.434 88.688 172.238 100.133 174.062 111.348 c 182.441 174.812
 l 182.816 177.688 185.234 179.855 188.133 179.918 c 188.188 179.918 188.242
 179.918 188.297 179.918 c 191.137 179.934 193.574 177.914 194.094 175.125
 c 205.094 116.625 l 207.41 109.051 214.422 103.891 222.344 103.934 c 250.062
 103.934 l 250.062 118.102 l 250.074 123.184 253.289 127.711 258.09 129.387
 c 258.09 282.859 l 240.383 289.723 228.703 306.754 228.68 325.742 c 228.68
 326.211 228.688 326.68 228.703 327.148 c 145.016 327.148 l 136.742 327.242
 129.957 320.621 129.844 312.348 c 129.844 111.723 l 129.844 78.785 102.57
 51.992 69.047 51.992 c h
33.875 241.859 m 33.75 246.359 30.062 249.941 25.562 249.941 c 21.062 249.941
 17.379 246.359 17.25 241.859 c 17.25 215.43 l 33.875 215.43 l h
33.875 206.43 m 17.25 206.43 l 17.25 193.023 l 33.875 193.023 l h
290.078 118.105 m 290.074 119.746 288.746 121.074 287.109 121.074 c 262.031
 121.074 l 260.395 121.074 259.066 119.746 259.062 118.105 c 259.062 103.941
 l 290.074 103.941 l h
280.809 130.074 m 280.809 280.18 l 276.25 279.555 271.625 279.629 267.094
 280.398 c 267.094 130.074 l h
253.379 45.5 m 274.934 23.152 l 297.711 45.5 l h
282.004 54.5 m 282.004 65.953 l 268.289 65.953 l 268.289 54.5 l h
222.344 94.941 m 210.324 94.906 199.734 102.828 196.379 114.367 c 196.34
 114.496 196.309 114.629 196.285 114.758 c 188.828 154.434 l 182.973 110.102
 l 182.969 110.051 182.961 110.004 182.953 109.957 c 181.535 101.328 183.992
 92.516 189.664 85.863 c 195.59 78.91 204.277 74.918 213.41 74.953 c 335.887
 74.953 l 344.879 74.926 353.441 78.793 359.367 85.559 c 365.039 92.039 
367.625 100.656 366.461 109.191 c 360.715 151.52 l 353.684 113.895 l 353.648
 113.699 353.598 113.508 353.535 113.32 c 349.871 102.285 339.516 94.863
 327.891 94.941 c h
274.672 288.762 m 285.734 288.773 296.211 293.738 303.223 302.289 c 310.238
 310.844 313.059 322.086 310.91 332.938 c 308.762 343.785 301.867 353.105
 292.121 358.34 c 282.375 363.57 270.801 364.164 260.57 359.961 c 262.23
 359.406 263.875 358.801 265.484 358.109 c 268.574 356.797 271.531 355.191
 274.312 353.309 c 274.891 352.914 275.445 352.488 275.98 352.035 c 286.172
 351.527 295.152 345.172 299.023 335.73 c 302.898 326.289 300.965 315.461
 294.062 307.941 c 287.164 300.422 276.539 297.57 266.801 300.621 c 257.062
 303.668 249.965 312.074 248.586 322.184 c 247.418 322.801 l 244.355 324.418
 241.078 325.598 237.688 326.312 c 237.688 326.125 237.68 325.938 237.68
 325.746 c 237.707 305.328 254.254 288.781 274.672 288.762 c h
276.801 322.672 m 272.191 318.234 265.723 316.297 259.43 317.469 c 262.062
 312.621 266.844 309.316 272.309 308.566 c 277.773 307.816 283.27 309.711
 287.109 313.672 c 290.949 317.633 292.676 323.184 291.754 328.625 c 290.836
 334.062 287.383 338.738 282.457 341.219 c 282.637 340.387 282.766 339.543
 282.84 338.691 c 283.355 332.715 281.137 326.824 276.801 322.672 c h
218.453 336.152 m 229.895 336.152 l 237.473 336.148 244.938 334.297 251.637
 330.758 c 257.973 327.398 l 262.109 325.199 267.191 325.91 270.566 329.16
 c 272.938 331.434 274.148 334.66 273.863 337.938 c 273.605 341.141 271.91
 344.059 269.25 345.867 c 266.945 347.426 264.492 348.754 261.93 349.84 
c 254.68 352.914 246.875 354.469 239 354.414 c 218.449 354.414 l h
196.047 336.152 m 209.453 336.152 l 209.453 354.414 l 196.043 354.414 l
 h
145.016 336.152 m 187.047 336.152 l 187.047 354.414 l 140.285 354.414 l
 129.754 354.469 119.641 350.289 112.219 342.82 c 105.059 335.688 101.059
 325.98 101.121 315.871 c 102.273 112.211 l 102.273 93.77 87.254 79.32 68.074
 79.32 c 48.895 79.32 33.875 93.77 33.875 112.211 c 33.875 184.023 l 17.25
 184.023 l 17.25 111.727 l 17.25 83.75 40.484 60.996 69.047 60.996 c 97.609
 60.996 120.844 83.754 120.844 111.727 c 120.844 312.355 l 120.844 325.477
 131.688 336.148 145.016 336.148 c h
145.016 336.152 m f
Q Q
showpage
%%Trailer
end
%%EOF
