%!PS-Adobe-3.0 EPSF-3.0
%%Creator: cairo 1.16.0 (https://cairographics.org)
%%CreationDate: Mon Dec 14 10:23:44 2020
%%Pages: 1
%%DocumentData: Clean7Bit
%%LanguageLevel: 2
%%BoundingBox: 38 7 346 377
%%EndComments
%%BeginProlog
50 dict begin
/q { gsave } bind def
/Q { grestore } bind def
/cm { 6 array astore concat } bind def
/w { setlinewidth } bind def
/J { setlinecap } bind def
/j { setlinejoin } bind def
/M { setmiterlimit } bind def
/d { setdash } bind def
/m { moveto } bind def
/l { lineto } bind def
/c { curveto } bind def
/h { closepath } bind def
/re { exch dup neg 3 1 roll 5 3 roll moveto 0 rlineto
      0 exch rlineto 0 rlineto closepath } bind def
/S { stroke } bind def
/f { fill } bind def
/f* { eofill } bind def
/n { newpath } bind def
/W { clip } bind def
/W* { eoclip } bind def
/BT { } bind def
/ET { } bind def
/BDC { mark 3 1 roll /BDC pdfmark } bind def
/EMC { mark /EMC pdfmark } bind def
/cairo_store_point { /cairo_point_y exch def /cairo_point_x exch def } def
/Tj { show currentpoint cairo_store_point } bind def
/TJ {
  {
    dup
    type /stringtype eq
    { show } { -0.001 mul 0 cairo_font_matrix dtransform rmoveto } ifelse
  } forall
  currentpoint cairo_store_point
} bind def
/cairo_selectfont { cairo_font_matrix aload pop pop pop 0 0 6 array astore
    cairo_font exch selectfont cairo_point_x cairo_point_y moveto } bind def
/Tf { pop /cairo_font exch def /cairo_font_matrix where
      { pop cairo_selectfont } if } bind def
/Td { matrix translate cairo_font_matrix matrix concatmatrix dup
      /cairo_font_matrix exch def dup 4 get exch 5 get cairo_store_point
      /cairo_font where { pop cairo_selectfont } if } bind def
/Tm { 2 copy 8 2 roll 6 array astore /cairo_font_matrix exch def
      cairo_store_point /cairo_font where { pop cairo_selectfont } if } bind def
/g { setgray } bind def
/rg { setrgbcolor } bind def
/d1 { setcachedevice } bind def
/cairo_data_source {
  CairoDataIndex CairoData length lt
    { CairoData CairoDataIndex get /CairoDataIndex CairoDataIndex 1 add def }
    { () } ifelse
} def
/cairo_flush_ascii85_file { cairo_ascii85_file status { cairo_ascii85_file flushfile } if } def
/cairo_image { image cairo_flush_ascii85_file } def
/cairo_imagemask { imagemask cairo_flush_ascii85_file } def
%%EndProlog
%%BeginSetup
%%EndSetup
%%Page: 1 1
%%BeginPageSetup
%%PageBoundingBox: 38 7 346 377
%%EndPageSetup
q 38 7 308 370 rectclip
1 0 0 -1 0 384 cm q
0.8 0.827451 0.87451 rg
340.922 336.473 m 278.414 50.969 l 278.297 50.426 278.031 49.922 277.641
 49.523 c 277.07 48.902 276.266 48.547 275.422 48.539 c 238.027 48.441 l
 302.664 365.488 l 313.699 362.137 324.301 357.504 334.262 351.684 c 339.547
 348.598 342.238 342.449 340.922 336.473 c h
340.922 336.473 m f
224.129 166.613 m 207.988 158.484 l 209.453 167.113 208.426 192.961 206.586
 224.535 c 216.27 356.574 l 217.195 362.27 221.496 366.832 227.129 368.094
 c 232.16 369.234 237.242 370.113 242.363 370.727 c h
224.129 166.613 m f
0.690196 0.709804 0.792157 rg
207.988 158.484 m 196.559 139.801 l 159.629 165.922 l 139.59 371.797 l 
152.266 372.371 164.965 371.711 177.512 369.824 c 189.605 368.023 198.734
 357.906 199.289 345.691 c 200.844 310.941 204.328 263.398 206.586 224.535
 c 208.426 192.961 209.453 167.113 207.988 158.484 c h
207.988 158.484 m f
0.8 0.827451 0.87451 rg
139.785 48.172 m 78.988 358.828 l 98.332 366.473 118.812 370.855 139.59
 371.797 c 159.629 165.922 l 173.363 48.262 l h
139.785 48.172 m f
0.690196 0.709804 0.792157 rg
139.785 48.172 m 78.988 358.828 l 70.992 355.668 63.215 351.969 55.719 
347.762 c 45.867 342.199 40.852 330.812 43.402 319.793 c 105.227 50.488 
l 105.32 50.062 105.512 49.66 105.781 49.312 c 106.363 48.535 107.281 48.082
 108.254 48.09 c h
139.785 48.172 m f
238.027 48.441 m 220.379 48.406 l 224.129 166.613 l 242.363 370.727 l 258.094
 372.629 274.027 371.984 289.551 368.812 c 294.148 367.875 298.523 366.75
 302.664 365.488 c h
238.027 48.441 m f
0.290196 0.317647 0.376471 rg
263.297 158.82 m 221.039 52.059 l 197.109 52.809 l 197.109 52.809 184.941
 106.102 196.559 139.801 c 199.102 147.18 202.785 153.66 207.988 158.484
 c 212.496 162.656 218.094 165.477 224.129 166.613 c 233.617 168.523 245.707
 167.199 261.047 161.363 c 261.504 161.191 261.961 161.012 262.426 160.828
 c 263.219 160.516 263.609 159.617 263.297 158.82 c h
263.297 158.82 m f
0.427451 0.454902 0.52549 rg
197.109 52.809 m 173.363 50.559 l 129.832 158.82 l 129.512 159.613 129.898
 160.516 130.695 160.828 c 141.984 165.27 151.539 167.301 159.629 167.422
 c 180.008 167.738 191.012 155.926 196.559 139.801 c 184.941 106.102 197.109
 52.809 197.109 52.809 c h
197.109 52.809 m f
271.469 16.695 m 111.961 16.695 l 110.32 16.695 108.746 17.348 107.59 18.508
 c 106.43 19.668 105.777 21.242 105.781 22.883 c 105.781 49.312 l 106.363
 48.535 107.281 48.082 108.254 48.09 c 275.422 48.539 l 276.266 48.547 277.07
 48.902 277.641 49.523 c 277.648 49.516 l 277.648 22.883 l 277.652 21.242
 277 19.668 275.844 18.508 c 274.684 17.348 273.109 16.695 271.469 16.695
 c h
271.469 16.695 m f
0.984314 0.403922 0.443137 rg
221.129 12 m 176.363 12 l 174.707 12 173.363 13.344 173.363 15 c 173.363
 50.559 l 173.363 52.215 174.707 53.559 176.363 53.559 c 221.129 53.559 
l 222.785 53.559 224.129 52.215 224.129 50.559 c 224.129 15 l 224.129 13.344
 222.785 12 221.129 12 c h
221.129 12 m f
0.588235 0.607843 0.666667 rg
65.902 319.793 m 127.727 50.488 l 127.82 50.062 128.012 49.66 128.281 49.312
 c 128.742 48.703 129.414 48.285 130.168 48.148 c 108.254 48.09 l 107.281
 48.082 106.363 48.535 105.781 49.312 c 105.512 49.66 105.32 50.062 105.227
 50.488 c 43.402 319.793 l 40.852 330.812 45.867 342.199 55.719 347.762 
c 63.215 351.969 70.992 355.668 78.988 358.828 c 80.871 349.223 l 79.969
 348.734 79.086 348.246 78.219 347.762 c 68.367 342.199 63.352 330.812 65.902
 319.793 c h
65.902 319.793 m f
0.290196 0.317647 0.376471 rg
111.961 16.695 m 110.32 16.695 108.746 17.348 107.59 18.508 c 106.43 19.668
 105.777 21.242 105.781 22.883 c 105.781 49.312 l 106.363 48.535 107.281
 48.082 108.254 48.09 c 128.281 48.145 l 128.281 22.883 l 128.277 21.242
 128.93 19.668 130.09 18.508 c 131.246 17.348 132.82 16.695 134.461 16.695
 c h
111.961 16.695 m f
0.156863 0.258824 0.407843 rg
53.512 351.68 m 82.465 367.973 115.133 376.527 148.355 376.516 c 158.34
 376.508 168.305 375.758 178.176 374.273 c 192.387 372.129 203.109 360.25
 203.785 345.895 c 204.516 329.633 205.68 310.359 206.93 290.715 c 211.785
 356.906 l 211.793 357.035 211.809 357.168 211.828 357.297 c 213.035 364.812
 218.707 370.832 226.141 372.48 c 237.281 375.02 248.668 376.305 260.094
 376.312 c 286.961 376.297 313.344 369.137 336.531 355.57 c 343.516 351.508
 347.066 343.395 345.316 335.508 c 282.812 50.004 l 282.672 49.363 282.449
 48.742 282.152 48.156 c 282.152 22.883 l 282.145 16.984 277.367 12.207 
271.469 12.199 c 228.082 12.199 l 226.938 9.363 224.188 7.504 221.129 7.5
 c 176.363 7.5 l 173.305 7.504 170.555 9.363 169.41 12.199 c 111.961 12.199
 l 106.062 12.203 101.285 16.984 101.277 22.883 c 101.277 48.148 l 101.09
 48.582 100.945 49.027 100.84 49.488 c 39.016 318.789 l 36.074 331.75 41.961
 345.105 53.512 351.68 c h
100.398 361.184 m 94.906 359.707 89.484 357.973 84.137 355.98 c 143.492
 52.68 l 167.633 52.746 l 125.652 157.145 l 125.055 158.641 125.074 160.312
 125.711 161.793 c 126.352 163.27 127.551 164.434 129.051 165.023 c 138.375
 168.688 146.926 170.887 154.699 171.625 c 135.531 367.059 l 123.656 366.242
 111.891 364.273 100.398 361.184 c h
194.797 345.492 m 194.316 355.551 186.801 363.875 176.84 365.371 c 166.152
 366.98 155.344 367.68 144.535 367.461 c 163.727 171.797 l 168.867 171.539
 173.914 170.324 178.613 168.211 c 186.094 164.758 192.105 158.941 196.57
 150.887 c 198.449 154.34 200.781 157.531 203.5 160.371 c h
228.125 363.703 m 224.344 362.871 221.434 359.844 220.742 356.031 c 211.098
 224.543 l 212.488 200.594 213.398 180.113 213.129 167.543 c 215.305 168.656
 217.582 169.555 219.934 170.227 c 237.375 365.48 l 234.289 364.984 231.203
 364.402 228.125 363.703 c h
288.645 364.406 m 274.793 367.254 260.594 368.012 246.516 366.656 c 229.109
 171.801 l 230.273 171.875 231.457 171.922 232.664 171.922 c 240.16 171.922
 248.496 170.398 257.676 167.348 c 297.426 362.316 l 294.523 363.102 291.598
 363.801 288.645 364.406 c h
336.523 337.438 m 337.43 341.508 335.598 345.699 331.996 347.797 c 323.77
 352.602 315.082 356.578 306.07 359.66 c 266.113 163.691 l 267.84 161.977
 268.375 159.398 267.469 157.141 c 261.254 141.656 l 243.516 52.957 l 274.266
 53.039 l h
228.629 21.199 m 271.469 21.199 l 272.398 21.199 273.152 21.953 273.152
 22.883 c 273.152 44.035 l 228.629 43.918 l h
228.238 52.918 m 234.336 52.934 l 242.969 96.105 l 226.695 55.574 l 227.387
 54.805 227.91 53.898 228.238 52.918 c h
258 157.703 m 237.469 165.215 221.945 164.602 211.828 155.875 c 197.594
 143.598 195.453 117.051 196.16 96.945 c 196.703 83.887 198.242 70.887 200.766
 58.062 c 218 58.062 l h
177.863 16.5 m 219.629 16.5 l 219.629 49.062 l 177.863 49.062 l h
175.238 57.965 m 175.609 58.027 175.984 58.059 176.363 58.062 c 191.578
 58.062 l 188.809 72.422 182.762 111.312 191.82 139.676 c 188.09 149.703
 182.387 156.559 174.84 160.039 c 165.055 164.555 151.703 163.77 135.129
 157.703 c h
110.277 22.883 m 110.277 21.953 111.031 21.199 111.957 21.199 c 168.863
 21.199 l 168.863 43.746 l 110.277 43.598 l h
47.789 320.801 m 109.355 52.594 l 134.324 52.66 l 75.629 352.574 l 69.574
 349.977 63.664 347.059 57.918 343.832 c 49.836 339.227 45.723 329.871 47.789
 320.801 c h
47.789 320.801 m f
Q Q
showpage
%%Trailer
end
%%EOF
