%!PS-Adobe-3.0 EPSF-3.0
%%Creator: cairo 1.16.0 (https://cairographics.org)
%%CreationDate: Mon Dec 14 10:23:49 2020
%%Pages: 1
%%DocumentData: Clean7Bit
%%LanguageLevel: 2
%%BoundingBox: 7 13 377 371
%%EndComments
%%BeginProlog
50 dict begin
/q { gsave } bind def
/Q { grestore } bind def
/cm { 6 array astore concat } bind def
/w { setlinewidth } bind def
/J { setlinecap } bind def
/j { setlinejoin } bind def
/M { setmiterlimit } bind def
/d { setdash } bind def
/m { moveto } bind def
/l { lineto } bind def
/c { curveto } bind def
/h { closepath } bind def
/re { exch dup neg 3 1 roll 5 3 roll moveto 0 rlineto
      0 exch rlineto 0 rlineto closepath } bind def
/S { stroke } bind def
/f { fill } bind def
/f* { eofill } bind def
/n { newpath } bind def
/W { clip } bind def
/W* { eoclip } bind def
/BT { } bind def
/ET { } bind def
/BDC { mark 3 1 roll /BDC pdfmark } bind def
/EMC { mark /EMC pdfmark } bind def
/cairo_store_point { /cairo_point_y exch def /cairo_point_x exch def } def
/Tj { show currentpoint cairo_store_point } bind def
/TJ {
  {
    dup
    type /stringtype eq
    { show } { -0.001 mul 0 cairo_font_matrix dtransform rmoveto } ifelse
  } forall
  currentpoint cairo_store_point
} bind def
/cairo_selectfont { cairo_font_matrix aload pop pop pop 0 0 6 array astore
    cairo_font exch selectfont cairo_point_x cairo_point_y moveto } bind def
/Tf { pop /cairo_font exch def /cairo_font_matrix where
      { pop cairo_selectfont } if } bind def
/Td { matrix translate cairo_font_matrix matrix concatmatrix dup
      /cairo_font_matrix exch def dup 4 get exch 5 get cairo_store_point
      /cairo_font where { pop cairo_selectfont } if } bind def
/Tm { 2 copy 8 2 roll 6 array astore /cairo_font_matrix exch def
      cairo_store_point /cairo_font where { pop cairo_selectfont } if } bind def
/g { setgray } bind def
/rg { setrgbcolor } bind def
/d1 { setcachedevice } bind def
/cairo_data_source {
  CairoDataIndex CairoData length lt
    { CairoData CairoDataIndex get /CairoDataIndex CairoDataIndex 1 add def }
    { () } ifelse
} def
/cairo_flush_ascii85_file { cairo_ascii85_file status { cairo_ascii85_file flushfile } if } def
/cairo_image { image cairo_flush_ascii85_file } def
/cairo_imagemask { imagemask cairo_flush_ascii85_file } def
%%EndProlog
%%BeginSetup
%%EndSetup
%%Page: 1 1
%%BeginPageSetup
%%PageBoundingBox: 7 13 377 371
%%EndPageSetup
q 7 13 370 358 rectclip
1 0 0 -1 0 384 cm q
0.27451 0.537255 0.827451 rg
131.852 45.977 m 131.25 46.801 130.727 47.625 130.199 48.449 c 114.449 
41.926 l 111.602 41.023 110.102 37.949 111 35.176 c 111.301 34.352 111.75
 33.602 112.352 33 c 117.301 28.125 l 119.398 26.023 122.852 26.023 124.949
 28.199 c 125.699 28.949 126.227 29.926 126.449 31.051 c h
131.852 45.977 m f
1 0.847059 0.717647 rg
43.801 36.449 m 32.926 23.102 l 28.801 18 21.375 17.25 16.352 21.375 c 
11.926 24.977 10.727 31.199 13.5 36.227 c 28.125 62.773 l 42.898 58.875 
l 46.125 46.949 l 47.102 43.273 46.199 39.375 43.801 36.449 c h
43.801 36.449 m f
304.426 204.676 m 293.699 191.102 l 291.375 188.102 287.699 186.449 283.875
 186.602 c 271.574 187.199 l 264.602 200.773 l 287.324 220.727 l 289.5 222.602
 292.273 223.648 295.125 223.648 c 301.648 223.648 306.898 218.398 306.898
 211.875 c 306.977 209.25 306.074 206.699 304.426 204.676 c h
304.426 204.676 m f
371.25 353.926 m 371.25 354.676 371.176 355.426 370.949 356.176 c 369.676
 360.301 365.398 362.625 361.273 361.352 c 361.199 361.352 l 347.398 359.023
 l 341.625 358.574 335.773 358.801 330.074 359.699 c 327.602 360.148 325.051
 359.773 322.801 358.574 c 316.574 355.199 316.727 349.875 317.699 346.273
 c 317.699 346.051 308.102 336.301 308.102 336.074 c 318.977 327 l 320.176
 326.023 321.074 324.602 321.449 323.023 c 337.727 335.773 l 339.824 337.426
 342.074 338.926 344.477 340.199 c 346.352 341.176 l 349.125 342.602 352.125
 343.648 355.199 344.398 c 358.273 345.227 361.352 345.75 364.5 346.199 
c 368.324 346.727 371.25 350.023 371.25 353.926 c h
371.25 353.926 m f
0.427451 0.454902 0.52549 rg
319.949 315.75 m 270.898 271.574 240 262.051 202.801 239.773 c 199.574 
237.824 196.648 235.426 194.25 232.574 c 114.602 227.926 l 81.824 226.801
 l 80.699 228.449 79.352 229.949 77.625 231.074 c 42.375 253.125 l 34.648
 258.227 31.051 267.602 33.301 276.523 c 40.5 302.477 l 42.523 310.352 45
 318.75 45.375 326.852 c 45.375 327.074 45.375 327.301 45.449 327.523 c 
45.977 333 50.102 336.898 50.852 337.426 c 51.977 337.949 l 56.852 340.273
 62.551 340.273 67.426 337.875 c 69 337.125 70.051 335.625 70.273 333.898
 c 76.426 294.449 l 76.801 292.125 78.375 290.25 80.625 289.5 c 119.102 
273.523 l 133.574 268.648 149.324 269.477 163.199 275.926 c 297.602 339.898
 l 300.227 341.102 303.301 340.648 305.551 338.852 c 308.926 336.074 l 319.801
 327 l 322.949 324.375 323.398 319.648 320.773 316.5 c 320.477 316.199 320.25
 315.977 319.949 315.75 c h
319.949 315.75 m f
0.690196 0.709804 0.792157 rg
269.176 178.727 m 258.301 174.523 248.023 169.199 238.426 162.676 c 227.551
 155.324 217.648 146.551 209.023 136.574 c 201.523 127.949 192.977 120.375
 183.449 114.074 c 183.449 114.074 158.699 171.375 141.676 190.648 c 156.523
 193.574 173.324 195.449 186.523 192.824 c 192 183.75 200.625 171.977 200.625
 171.977 c 257.773 202.352 l 260.398 203.773 263.699 203.023 265.5 200.699
 c 272.551 187.051 l 274.051 184.051 272.852 180.375 269.852 178.875 c 269.551
 178.875 269.324 178.801 269.176 178.727 c h
269.176 178.727 m f
0.905882 0.317647 0.388235 rg
169.949 106.273 m 174.602 108.602 179.023 111.227 183.375 114.074 c 183.375
 114.074 158.625 171.375 141.602 190.648 c 135.676 189.523 130.125 188.176
 125.176 186.898 c 132.148 180.602 139.273 169.949 145.801 158.398 c 149.023
 152.625 152.102 146.625 154.949 140.773 c 163.801 122.398 169.949 106.273
 169.949 106.273 c h
169.949 106.273 m f
0.878431 0.937255 0.976471 rg
165.375 104.176 m 149.398 102.301 l 141.602 101.625 l 154.949 140.773 l
 163.801 122.398 169.949 106.273 169.949 106.273 c h
165.375 104.176 m f
0.984314 0.403922 0.443137 rg
141.523 101.625 m 154.875 140.773 l 152.102 146.551 148.949 152.551 145.727
 158.398 c 124.648 100.199 l h
141.523 101.625 m f
0.8 0.827451 0.87451 rg
124.727 100.125 m 74.324 95.699 l 69.074 95.023 64.648 91.5 62.852 86.551
 c 53.852 62.25 l 52.5 58.727 48.75 56.699 45 57.602 c 29.102 61.727 l 28.273
 61.949 27.449 62.398 26.773 63 c 24.75 65.023 23.926 68.023 24.898 70.875
 c 36.75 104.176 l 38.25 108.301 41.176 111.824 45 113.926 c 89.852 138.824
 l 97.352 142.949 102.523 150.301 103.875 158.773 c 106.574 175.273 l 106.801
 177.227 106.648 179.25 105.977 181.199 c 106.273 181.273 114 184.051 125.176
 186.977 c 132.148 180.676 139.273 170.023 145.801 158.477 c h
124.727 100.125 m f
1 0.847059 0.717647 rg
70.5 341.176 m 72.898 344.926 70.801 350.023 66.523 351.301 c 58.574 353.699
 l 54.75 354.824 51.148 356.551 47.852 358.801 c 40.5 363.824 l 36.977 366.227
 32.102 365.324 29.699 361.801 c 29.699 361.801 29.699 361.801 29.699 361.727
 c 27.301 358.199 28.273 353.398 31.801 351 c 32.176 350.773 32.551 350.551
 33 350.324 c 38.102 348 42.676 344.852 46.648 340.875 c 51 336.523 l 52.125
 337.051 l 57 339.375 62.699 339.375 67.574 336.977 c 70.352 340.5 l 70.273
 340.875 70.352 341.023 70.5 341.176 c h
70.5 341.176 m f
0.690196 0.709804 0.792157 rg
194.25 232.574 m 135 247.648 l 121.426 230.398 133.125 210.449 133.125 
210.449 c 149.625 213.977 166.648 214.727 183.375 212.551 c 184.648 216.676
 186.977 221.699 190.875 228 c 191.852 229.574 192.977 231.148 194.25 232.574
 c h
194.25 232.574 m f
0.905882 0.317647 0.388235 rg
135 247.648 m 124.801 250.273 l 123 250.727 121.125 250.051 120.148 248.477
 c 116.477 242.25 114.602 235.199 114.602 228 c 114.602 220.648 116.324 
213.375 119.477 206.773 c 123.898 208.199 128.477 209.477 133.051 210.449
 c 133.051 210.449 121.426 230.398 135 247.648 c h
135 247.648 m f
0.8 0.827451 0.87451 rg
119.551 206.773 m 116.324 213.375 114.676 220.648 114.676 228 c 81.898 
226.875 l 83.023 225.227 83.852 223.426 84.301 221.477 c 86.25 210.523 91.801
 203.25 96.898 196.5 c 96.824 196.5 104.926 201.977 119.551 206.773 c h
119.551 206.773 m f
0.329412 0.356863 0.407843 rg
62.023 327.523 m 62.023 327.301 61.949 327.074 61.949 326.852 c 61.648 
318.676 59.102 310.352 57.074 302.477 c 49.801 276.523 l 47.551 267.602 
51.148 258.227 58.875 253.125 c 94.125 231.074 l 95.625 230.102 96.898 228.824
 97.875 227.398 c 81.75 226.875 l 80.625 228.523 79.273 230.023 77.551 231.148
 c 42.301 253.199 l 34.574 258.301 30.977 267.676 33.227 276.602 c 40.426
 302.551 l 42.449 310.426 44.926 318.824 45.301 326.926 c 45.301 327.148
 45.301 327.375 45.375 327.602 c 45.898 333.074 50.023 336.977 50.773 337.5
 c 51.898 338.023 l 56.773 340.352 62.477 340.352 67.352 337.949 c 67.801
 337.727 l 67.352 337.5 l 66.676 336.898 62.551 333.074 62.023 327.523 c
 h
62.023 327.523 m f
0.67451 0.705882 0.756863 rg
121.574 178.199 m 118.875 161.699 l 117.449 153.227 112.352 145.949 104.852
 141.75 c 60 117 l 56.176 114.824 53.176 111.375 51.75 107.25 c 39.977 73.875
 l 39 71.023 39.75 68.023 41.773 66 c 42.449 65.398 43.273 64.949 44.102
 64.727 c 53.773 62.25 l 52.426 58.727 48.676 56.773 45 57.602 c 28.051 
62.023 l 25.051 63.898 23.773 67.574 24.898 70.875 c 36.75 104.176 l 38.25
 108.301 41.176 111.824 45 113.926 c 89.852 138.824 l 97.352 142.949 102.523
 150.301 103.875 158.773 c 106.574 175.273 l 106.801 177.227 106.648 179.25
 105.977 181.125 c 106.199 181.199 111.977 183.227 120.75 185.699 c 121.273
 183.227 121.801 179.625 121.574 178.199 c h
121.574 178.199 m f
109.273 202.875 m 104.926 201.074 100.801 198.977 96.824 196.426 c 91.727
 203.176 86.176 210.375 84.227 221.398 c 83.773 223.352 83.023 225.148 81.824
 226.801 c 98.176 227.398 l 98.625 226.426 99 225.449 99.148 224.398 c 100.875
 215.25 105 208.727 109.273 202.875 c h
109.273 202.875 m f
0.290196 0.317647 0.376471 rg
186.375 192.898 m 173.176 195.449 156.375 193.648 141.523 190.727 c 135.602
 189.602 130.051 188.25 125.102 186.977 c 113.926 184.051 106.199 181.352
 105.898 181.199 c 104.773 185.023 102.375 188.852 100.352 191.699 c 99.227
 193.352 98.023 194.926 96.75 196.574 c 96.75 196.574 104.852 202.051 119.398
 206.852 c 123.824 208.273 128.398 209.551 132.977 210.523 c 149.477 214.051
 166.5 214.801 183.227 212.625 c 180.375 202.727 183.449 197.699 186.375
 192.898 c h
186.375 192.898 m f
0.235294 0.254902 0.286275 rg
120.977 185.773 m 112.125 183.301 106.273 181.273 106.051 181.125 c 104.852
 184.949 102.523 188.773 100.5 191.625 c 99.375 193.199 98.176 194.852 96.898
 196.5 c 100.875 198.977 105.074 201.148 109.352 202.949 c 111.824 200.25
 114.75 197.176 115.426 196.199 c 117.449 193.273 119.773 189.523 120.977
 185.773 c h
120.977 185.773 m f
1 0.847059 0.717647 rg
161.551 30.977 m 151.426 30.977 141.75 35.102 134.852 42.449 c 127.051 
54.75 l 125.477 58.875 124.727 63.227 124.727 67.648 c 124.727 83.25 134.625
 97.125 149.398 102.301 c 153.301 103.648 157.426 104.324 161.551 104.324
 c 162.824 104.324 164.102 104.25 165.375 104.102 c 179.25 102.676 191.102
 93.523 196.051 80.477 c 198.375 66.074 l 197.477 46.5 181.273 30.977 161.551
 30.977 c h
161.551 30.977 m f
0.372549 0.658824 0.929412 rg
198.375 66.148 m 187.199 64.199 176.25 61.199 165.602 57.227 c 154.875 
53.324 144.602 48.301 134.852 42.375 c 133.801 43.5 132.824 44.699 131.926
 45.898 c 131.324 46.727 130.801 47.551 130.273 48.375 c 129 50.398 127.949
 52.5 127.125 54.75 c 138.449 61.273 150.301 66.75 162.602 71.176 c 173.477
 75.148 184.727 78.227 196.051 80.551 c 197.625 76.426 198.375 72.074 198.375
 67.648 c 198.375 67.199 198.375 66.676 198.375 66.148 c h
198.375 66.148 m f
0.156863 0.258824 0.407843 rg
365.773 341.773 m 360.898 341.176 353.699 339.602 349.199 337.273 c 347.324
 336.301 l 345.148 335.176 343.125 333.824 341.25 332.324 c 326.926 321.074
 l 326.852 317.773 325.426 314.625 322.949 312.375 c 286.801 279.824 260.176
 265.727 234.375 252.074 c 224.926 247.051 215.176 241.875 205.125 235.875
 c 200.852 233.324 197.25 229.801 194.625 225.602 c 183 207 186.301 201.523
 190.199 195.227 c 193.801 189.227 198.898 181.949 201.824 177.898 c 255.523
 206.477 l 258.523 208.125 262.125 208.125 265.125 206.625 c 285.074 224.176
 l 291.824 230.102 302.102 229.5 308.023 222.75 c 313.199 216.824 313.5 
208.051 308.625 201.898 c 297.898 188.324 l 294.676 184.199 289.574 181.875
 284.398 182.176 c 277.352 182.477 l 277.199 181.875 277.051 181.199 276.824
 180.602 c 275.773 177.824 273.523 175.574 270.676 174.523 c 248.176 165.898
 228.074 151.801 212.25 133.648 c 202.5 122.398 190.875 112.875 177.898 
105.523 c 198.75 96.449 208.273 72.148 199.199 51.301 c 190.125 30.449 165.824
 20.926 144.977 30 c 140.773 31.875 136.875 34.352 133.5 37.5 c 130.727 
29.852 l 129.523 24.523 124.199 21.148 118.875 22.352 c 117.074 22.727 115.426
 23.625 114.074 24.977 c 109.125 29.852 l 105.227 33.676 105.148 39.898 
108.977 43.801 c 109.875 44.773 111 45.523 112.273 45.977 c 107.699 46.426
 l 105.227 46.727 103.426 48.898 103.727 51.375 c 103.949 53.625 105.898
 55.426 108.227 55.426 c 117.375 54.523 l 110.176 65.25 l 108.824 67.352
 109.352 70.125 111.375 71.477 c 113.477 72.824 116.25 72.301 117.602 70.273
 c 120.227 66.375 l 120.227 67.727 l 120.227 78.375 124.426 88.648 131.852
 96.301 c 74.773 91.273 l 71.25 90.824 68.25 88.426 67.051 85.051 c 58.051
 60.75 l 56.551 56.773 53.102 53.852 48.898 53.102 c 50.477 47.398 l 51.824
 42.301 50.699 36.898 47.398 32.852 c 36.375 19.5 l 30.75 12.523 20.477 
11.398 13.5 17.102 c 7.352 22.051 5.699 30.75 9.523 37.648 c 22.5 61.125
 l 20.023 64.273 19.352 68.551 20.773 72.301 c 32.551 105.676 l 34.352 110.852
 38.023 115.199 42.898 117.898 c 87.75 142.801 l 94.051 146.25 98.398 152.398
 99.523 159.523 c 102.227 176.023 l 102.449 177.375 102.375 181.273 96.824
 189.074 c 95.699 190.648 94.574 192.148 93.301 193.801 c 87.977 200.773
 82.051 208.648 79.875 220.648 c 79.199 223.273 77.625 225.676 75.375 227.25
 c 40.125 249.301 l 40.125 249.301 40.051 249.375 40.051 249.375 c 30.75
 255.523 26.398 266.852 29.102 277.648 c 29.102 277.727 l 36.301 303.602
 l 36.602 304.801 36.898 306 37.273 307.273 c 39 313.801 40.801 320.625 
41.023 327 c 41.023 327.301 41.023 327.602 41.102 327.898 c 41.477 331.273
 42.75 334.5 44.773 337.199 c 43.426 338.551 l 39.898 342.148 35.699 345
 31.125 347.102 c 24.977 349.875 22.199 357.148 25.051 363.301 c 26.699 
366.898 30 369.523 33.898 370.273 c 34.648 370.426 35.477 370.5 36.227 370.5
 c 38.699 370.5 41.102 369.75 43.125 368.324 c 50.477 363.301 l 53.398 361.273
 56.625 359.773 60 358.801 c 67.949 356.398 l 71.398 355.352 74.25 352.727
 75.449 349.273 c 76.648 346.051 76.273 342.375 74.398 339.449 c 74.25 339.148
 74.023 338.926 73.875 338.699 c 73.5 338.25 l 74.176 337.125 74.625 335.926
 74.852 334.574 c 81 295.125 l 81.074 294.449 81.523 293.926 82.199 293.699
 c 82.273 293.699 82.426 293.625 82.5 293.625 c 120.824 277.727 l 134.176
 273.227 148.648 274.051 161.398 279.977 c 295.801 343.949 l 295.875 343.949
 l 300.074 345.824 304.949 345.148 308.551 342.227 c 308.625 342.148 l 309.301
 342.824 309.977 343.574 310.727 344.324 c 311.699 345.375 312.898 346.574
 313.801 347.477 c 312.898 353.773 315.676 359.102 321.602 362.324 c 324.75
 363.977 328.352 364.574 331.801 363.898 c 337.051 363.074 342.375 362.852
 347.699 363.227 c 361.125 365.477 l 364.199 366.375 367.426 366 370.199
 364.5 c 376.125 361.352 378.449 353.926 375.227 348 c 373.199 344.625 369.75
 342.301 365.773 341.773 c h
275.176 191.625 m 284.852 191.176 l 287.176 191.102 289.426 192.074 290.926
 193.949 c 301.648 207.523 l 304.125 210.676 303.602 215.25 300.449 217.727
 c 299.773 218.25 299.023 218.625 298.199 218.926 c 295.727 219.75 293.023
 219.148 291.074 217.5 c 271.051 199.875 l h
115.875 37.648 m 115.574 37.574 115.352 37.352 115.273 36.977 c 115.199
 36.676 115.273 36.375 115.5 36.148 c 120.449 31.273 l 120.602 31.125 120.824
 30.977 121.051 30.977 c 121.125 30.977 121.273 30.977 121.352 31.051 c 
121.648 31.125 121.875 31.426 121.949 31.727 c 125.398 41.551 l h
186.75 229.875 m 136.875 242.551 l 130.199 231.977 133.426 220.801 135.602
 215.625 c 144.977 217.426 154.5 218.324 164.102 218.324 c 169.5 218.324
 174.977 218.023 180.301 217.5 c 182.102 221.773 184.199 225.898 186.75 
229.875 c h
127.801 244.875 m 123.824 245.852 l 116.023 232.352 119.625 218.551 122.023
 212.25 c 123.523 212.699 125.102 213.148 126.75 213.523 c 124.199 220.426
 121.426 232.648 127.801 244.875 c h
103.5 195.074 m 103.727 194.773 103.949 194.477 104.176 194.176 c 105.898
 191.773 107.324 189.301 108.602 186.676 c 119.102 190.051 147.602 198.523
 172.199 198.523 c 174.449 198.523 176.625 198.449 178.801 198.301 c 177.75
 201.602 177.449 205.125 177.977 208.574 c 140.102 212.023 113.25 200.324
 103.5 195.074 c h
172.273 112.574 m 174.074 113.551 175.875 114.676 177.676 115.727 c 172.273
 127.875 153.676 168.449 139.801 185.699 c 137.699 185.25 135.75 184.801
 133.727 184.352 c 150.676 164.551 166.875 126.074 172.273 112.574 c h
155.551 128.773 m 148.051 106.727 l 148.5 106.801 l 152.699 108.227 157.125
 108.898 161.551 108.898 c 162.375 108.898 163.273 108.898 164.102 108.824
 c 162.375 113.023 159.375 120.301 155.551 128.773 c h
185.25 120.898 m 192.676 126.375 199.5 132.602 205.5 139.574 c 214.426 
149.773 224.551 158.852 235.801 166.426 c 245.699 173.102 256.352 178.648
 267.523 182.926 c 267.977 183.074 268.273 183.449 268.5 183.824 c 268.648
 184.199 268.648 184.727 268.426 185.102 c 261.977 197.773 l 261.75 198.148
 261.449 198.449 261 198.602 c 260.551 198.75 260.102 198.676 259.727 198.449
 c 195.523 164.324 l 193.352 163.125 190.574 164.023 189.449 166.199 c 188.25
 168.375 189.148 171.148 191.324 172.273 c 193.801 173.625 l 191.102 177.449
 186.977 183.375 183.602 188.773 c 173.477 190.352 161.324 189.449 149.699
 187.574 c 163.426 168.602 179.477 133.875 185.25 120.898 c h
161.551 35.477 m 176.625 35.477 189.676 45.898 193.051 60.523 c 184.199
 58.648 175.574 56.176 167.102 53.023 c 158.625 49.875 150.375 46.125 142.426
 41.625 c 148.051 37.648 154.727 35.477 161.551 35.477 c h
135.824 48.227 m 144.824 53.477 154.273 57.898 164.023 61.5 c 173.699 65.102
 183.676 67.949 193.801 69.898 c 193.648 71.699 193.426 73.574 192.977 75.375
 c 183.148 73.273 173.551 70.426 164.102 67.051 c 153.375 63.148 142.949
 58.426 132.898 52.949 c 133.727 51.227 134.699 49.727 135.824 48.227 c 
h
129.227 67.648 m 129.227 65.551 129.449 63.449 129.824 61.426 c 139.875
 66.824 150.301 71.551 161.023 75.449 c 170.324 78.824 179.852 81.602 189.523
 83.773 c 180.523 99.227 160.727 104.477 145.352 95.477 c 135.375 89.699
 129.301 79.125 129.227 67.648 c h
138.227 105.824 m 150.074 140.477 l 148.949 142.727 147.824 145.051 146.625
 147.375 c 131.398 105.227 l h
17.398 33.301 m 16.125 31.051 16.199 28.273 17.551 26.102 c 19.648 22.648
 24.074 21.523 27.523 23.625 c 28.273 24.074 28.875 24.602 29.398 25.273
 c 40.352 38.625 l 41.852 40.426 42.375 42.824 41.699 45.148 c 39.148 54.449
 l 30.148 56.551 l h
92.023 134.926 m 47.176 110.023 l 44.25 108.449 42.074 105.824 40.949 102.676
 c 29.25 69.375 l 28.949 68.551 29.023 67.727 29.477 66.977 c 29.852 66.227
 30.602 65.699 31.426 65.477 c 46.125 62.023 l 47.625 61.648 49.125 62.477
 49.648 63.898 c 58.648 88.199 l 61.051 94.727 66.898 99.375 73.801 100.199
 c 73.949 100.199 l 121.5 104.324 l 140.926 157.875 l 135.523 167.398 129.676
 176.023 123.977 181.801 c 118.574 180.301 114.074 178.949 111.227 178.051
 c 111.301 176.852 111.301 175.648 111.074 174.449 c 108.375 157.949 l 106.727
 148.199 100.727 139.727 92.023 134.926 c h
88.648 222.227 m 90.148 213.977 93.898 207.977 97.949 202.426 c 102.898
 205.199 108.074 207.523 113.398 209.477 c 111.75 213.898 110.699 218.625
 110.25 223.352 c 88.574 222.602 l 88.648 222.449 88.648 222.301 88.648 
222.227 c h
66.898 346.199 m 66.602 346.949 66 347.551 65.25 347.773 c 57.301 350.176
 l 53.023 351.449 48.977 353.398 45.301 355.875 c 37.949 360.898 l 36.449
 361.949 34.426 361.5 33.375 360.074 c 32.398 358.574 32.773 356.625 34.273
 355.574 c 34.426 355.5 34.574 355.352 34.727 355.273 c 40.273 352.727 45.375
 349.273 49.727 344.926 c 51.898 342.75 l 56.398 344.477 61.273 344.625 
65.926 343.273 c 66.602 344.176 l 66.676 344.25 66.676 344.324 66.75 344.324
 c 67.051 344.926 67.125 345.602 66.898 346.199 c h
302.625 335.398 m 301.727 336.148 300.523 336.301 299.477 335.852 c 165.074
 271.875 l 150.148 264.977 133.199 264.074 117.676 269.324 c 117.602 269.324
 117.449 269.398 117.375 269.398 c 79.051 285.301 l 75.301 286.648 72.602
 289.875 72 293.773 c 65.852 333.227 l 65.852 333.449 65.699 333.676 65.477
 333.824 c 61.875 335.625 57.602 335.625 54 333.824 c 53.398 333.523 l 52.5
 332.625 50.324 330.074 50.023 327 c 50.023 326.852 50.023 326.699 50.023
 326.551 c 49.727 319.199 47.852 311.926 45.977 304.875 c 45.676 303.676
 45.301 302.398 45 301.199 c 45 301.125 l 37.801 275.25 l 36.074 268.199
 38.926 260.773 44.926 256.801 c 80.176 234.75 l 81.676 233.773 82.949 232.574
 84.148 231.227 c 110.398 232.125 l 111 238.648 113.023 244.949 116.324 
250.574 c 117.898 253.199 120.75 254.773 123.75 254.773 c 124.5 254.773 
125.25 254.699 125.926 254.477 c 192.898 237.449 l 195.227 239.773 197.852
 241.801 200.625 243.449 c 210.824 249.523 220.727 254.773 230.25 259.875
 c 255.523 273.301 281.699 287.102 317.023 318.898 c 318.227 320.023 318.375
 321.898 317.25 323.102 c 317.176 323.176 317.023 323.324 316.949 323.398
 c h
367.352 354.824 m 367.125 355.648 366.523 356.324 365.773 356.773 c 365.023
 357.227 364.125 357.301 363.227 357 c 363 356.926 362.852 356.926 362.625
 356.852 c 348.824 354.523 l 348.75 354.523 348.676 354.523 348.602 354.523
 c 342.375 354.074 336.148 354.301 330 355.273 c 328.5 355.574 327 355.352
 325.648 354.676 c 323.551 353.551 321.523 351.75 322.727 347.551 c 323.398
 345 322.051 343.574 320.25 341.625 c 319.352 340.727 318.148 339.449 316.949
 338.25 c 315.375 336.602 l 322.574 330.602 l 322.875 330.375 323.102 330.074
 323.398 329.852 c 335.699 339.523 l 338.023 341.324 340.5 342.977 343.125
 344.324 c 345 345.301 l 350.551 348.227 358.727 350.023 364.648 350.773
 c 365.625 350.926 366.449 351.449 366.977 352.199 c 367.5 352.949 367.648
 353.926 367.352 354.824 c h
367.352 354.824 m f
269.102 291.301 m 254.023 281.477 240.227 274.125 226.875 267.074 c 223.051
 265.051 219.148 262.949 215.25 260.852 c 213.074 259.648 210.301 260.477
 209.176 262.648 c 207.977 264.824 208.801 267.602 210.977 268.727 c 214.875
 270.824 218.852 272.926 222.676 274.949 c 235.875 281.926 249.449 289.125
 264.148 298.801 c 266.25 300.148 269.023 299.551 270.375 297.523 c 271.801
 295.5 271.199 292.648 269.102 291.301 c h
269.102 291.301 m f
202.727 253.875 m 201 252.898 199.352 251.926 197.625 250.875 c 195.523
 249.602 192.75 250.199 191.398 252.375 c 190.051 254.551 190.727 257.25
 192.898 258.602 c 192.898 258.602 192.977 258.676 192.977 258.676 c 194.699
 259.727 196.5 260.773 198.227 261.75 c 200.398 263.023 203.102 262.273 
204.375 260.176 c 205.648 258.074 204.977 255.148 202.727 253.875 c 202.801
 253.875 202.801 253.875 202.727 253.875 c h
202.727 253.875 m f
Q Q
showpage
%%Trailer
end
%%EOF
