%!PS-Adobe-3.0 EPSF-3.0
%%Creator: cairo 1.16.0 (https://cairographics.org)
%%CreationDate: Mon Dec 14 10:23:51 2020
%%Pages: 1
%%DocumentData: Clean7Bit
%%LanguageLevel: 2
%%BoundingBox: 7 22 377 362
%%EndComments
%%BeginProlog
50 dict begin
/q { gsave } bind def
/Q { grestore } bind def
/cm { 6 array astore concat } bind def
/w { setlinewidth } bind def
/J { setlinecap } bind def
/j { setlinejoin } bind def
/M { setmiterlimit } bind def
/d { setdash } bind def
/m { moveto } bind def
/l { lineto } bind def
/c { curveto } bind def
/h { closepath } bind def
/re { exch dup neg 3 1 roll 5 3 roll moveto 0 rlineto
      0 exch rlineto 0 rlineto closepath } bind def
/S { stroke } bind def
/f { fill } bind def
/f* { eofill } bind def
/n { newpath } bind def
/W { clip } bind def
/W* { eoclip } bind def
/BT { } bind def
/ET { } bind def
/BDC { mark 3 1 roll /BDC pdfmark } bind def
/EMC { mark /EMC pdfmark } bind def
/cairo_store_point { /cairo_point_y exch def /cairo_point_x exch def } def
/Tj { show currentpoint cairo_store_point } bind def
/TJ {
  {
    dup
    type /stringtype eq
    { show } { -0.001 mul 0 cairo_font_matrix dtransform rmoveto } ifelse
  } forall
  currentpoint cairo_store_point
} bind def
/cairo_selectfont { cairo_font_matrix aload pop pop pop 0 0 6 array astore
    cairo_font exch selectfont cairo_point_x cairo_point_y moveto } bind def
/Tf { pop /cairo_font exch def /cairo_font_matrix where
      { pop cairo_selectfont } if } bind def
/Td { matrix translate cairo_font_matrix matrix concatmatrix dup
      /cairo_font_matrix exch def dup 4 get exch 5 get cairo_store_point
      /cairo_font where { pop cairo_selectfont } if } bind def
/Tm { 2 copy 8 2 roll 6 array astore /cairo_font_matrix exch def
      cairo_store_point /cairo_font where { pop cairo_selectfont } if } bind def
/g { setgray } bind def
/rg { setrgbcolor } bind def
/d1 { setcachedevice } bind def
/cairo_data_source {
  CairoDataIndex CairoData length lt
    { CairoData CairoDataIndex get /CairoDataIndex CairoDataIndex 1 add def }
    { () } ifelse
} def
/cairo_flush_ascii85_file { cairo_ascii85_file status { cairo_ascii85_file flushfile } if } def
/cairo_image { image cairo_flush_ascii85_file } def
/cairo_imagemask { imagemask cairo_flush_ascii85_file } def
%%EndProlog
%%BeginSetup
%%EndSetup
%%Page: 1 1
%%BeginPageSetup
%%PageBoundingBox: 7 22 377 362
%%EndPageSetup
q 7 22 370 340 rectclip
1 0 0 -1 0 384 cm q
0.27451 0.537255 0.827451 rg
74.551 34.949 m 82.574 47.625 l 82.199 48.449 81.824 49.352 81.523 50.176
 c 65.773 47.398 l 63 47.102 60.977 44.625 61.273 41.852 c 61.352 41.023
 61.648 40.273 62.102 39.602 c 65.699 34.125 l 67.199 31.801 70.352 31.125
 72.75 32.625 c 73.5 33.227 74.176 33.977 74.551 34.949 c h
74.551 34.949 m f
1 0.847059 0.717647 rg
51.602 323.625 m 53.926 327.148 51.898 331.949 47.852 333.148 c 40.426 
335.398 l 36.824 336.449 33.449 338.102 30.301 340.199 c 23.398 344.926 
l 20.102 347.25 15.602 346.426 13.273 343.125 c 10.949 339.824 11.773 335.324
 15.074 333 c 15.449 332.699 15.898 332.477 16.273 332.324 c 21.074 330.148
 25.426 327.148 29.102 323.477 c 33.227 319.352 l 34.273 319.875 l 38.852
 322.051 44.176 322.051 48.75 319.801 c 51.301 323.176 l 51.449 323.324 
51.523 323.477 51.602 323.625 c h
51.602 323.625 m f
306.074 348.977 m 306.074 349.648 306 350.398 305.773 351.074 c 304.574
 354.898 300.523 357.074 296.699 355.949 c 296.699 355.949 296.699 355.949
 296.625 355.949 c 283.648 353.773 l 278.25 353.398 272.773 353.551 267.375
 354.449 c 265.051 354.898 262.648 354.523 260.551 353.398 c 254.699 350.25
 254.852 345.227 255.75 341.852 c 255.75 341.625 247.273 333.148 247.273
 332.926 c 259.273 320.023 l 274.648 332.102 l 276.676 333.676 278.773 335.023
 281.023 336.227 c 282.75 337.125 l 285.375 338.477 288.148 339.449 291 
340.125 c 293.852 340.875 296.773 341.398 299.699 341.773 c 303.301 342.227
 306.074 345.301 306.074 348.977 c h
306.074 348.977 m f
0.427451 0.454902 0.52549 rg
260.773 314.852 m 245.25 288.977 235.5 252.375 167.926 211.051 c 166.352
 210.074 163.574 207.375 160.426 204 c 91.352 208.051 l 63.074 212.773 l
 62.023 214.352 60.75 215.699 59.25 216.75 c 25.273 240.898 l 18.074 245.699
 14.625 254.477 16.727 262.875 c 23.551 287.25 l 25.426 294.676 27.824 302.551
 28.125 310.125 c 28.125 310.352 28.125 310.574 28.199 310.801 c 28.727 
315.977 32.625 319.648 33.301 320.102 c 34.352 320.625 l 38.926 322.801 
44.25 322.801 48.824 320.551 c 50.25 319.801 51.301 318.449 51.523 316.801
 c 62.176 279.75 l 62.551 277.574 64.051 275.773 66.148 275.102 c 107.699
 246.301 l 118.5 242.625 147.301 253.352 165.148 260.926 c 172.199 263.926
 178.574 268.426 183.75 274.125 c 239.398 335.625 l 241.273 337.5 244.273
 337.5 246.148 335.699 c 246.301 335.551 l 260.324 320.477 l 261.602 318.977
 261.824 316.648 260.773 314.852 c h
260.773 314.852 m f
0.34902 0.376471 0.439216 rg
43.051 317.699 m 42.75 310.051 40.426 302.25 38.477 294.824 c 31.648 270.449
 l 29.551 262.051 32.926 253.199 40.199 248.477 c 74.25 224.324 l 75.75 
223.273 77.023 221.926 78.074 220.352 c 78.977 219 79.648 217.574 80.023
 216 c 80.477 213.898 81.227 211.875 82.199 209.926 c 63.074 212.852 l 62.023
 214.426 60.75 215.773 59.25 216.824 c 25.273 240.977 l 18.074 245.773 14.625
 254.551 16.727 262.949 c 23.551 287.324 l 25.426 294.75 27.824 302.625 
28.125 310.199 c 28.125 310.426 28.125 310.648 28.199 310.875 c 28.727 316.051
 32.625 319.727 33.301 320.176 c 34.352 320.699 l 37.426 322.199 40.875 
322.648 44.25 322.125 c 43.727 320.926 43.426 319.727 43.273 318.375 c 43.125
 318.148 43.125 317.926 43.051 317.699 c h
43.051 317.699 m f
1 0.847059 0.717647 rg
239.398 136.875 m 228.301 131.551 l 225.824 130.352 222.977 130.5 220.648
 131.773 c 212.625 136.352 l 212.625 147.227 l 216.375 148.199 l 233.551
 152.551 l 236.398 153.301 239.477 152.551 241.648 150.449 c 243.301 148.875
 244.199 146.699 244.199 144.449 c 244.199 141.227 242.324 138.301 239.398
 136.875 c h
239.398 136.875 m f
0.690196 0.709804 0.792157 rg
207.676 127.949 m 188.551 124.273 l 183.898 123.375 179.477 121.727 175.5
 119.324 c 151.727 105.227 l 148.949 103.574 145.949 102.301 142.875 101.324
 c 127.648 96.676 l 126 114.148 120.301 130.273 114.227 143.324 c 109.125
 154.273 102.977 164.699 95.699 174.301 c 91.273 197.176 l 90.75 201 90.602
 204.824 90.824 208.727 c 91.273 216.227 92.773 223.352 94.352 225.301 c
 95.852 227.176 97.801 228.602 99.977 227.699 c 160.5 204.074 l 155.926 
199.125 150.676 192.898 147.602 188.852 c 146.176 187.051 145.352 184.801
 145.273 182.477 c 144.449 171.75 l 144.449 171.602 l 150.301 166.574 150
 149.176 149.699 143.477 c 149.699 142.875 150.148 142.352 150.75 142.352
 c 150.898 142.352 151.125 142.352 151.273 142.426 c 158.176 145.574 184.875
 157.273 195.449 155.324 c 211.426 150.148 l 212.625 149.773 213.449 148.648
 213.449 147.301 c 213.449 134.926 l 213.375 131.477 210.977 128.625 207.676
 127.949 c h
207.676 127.949 m f
0.878431 0.937255 0.976471 rg
122.25 95.023 m 98.926 92.477 l 90.898 96.898 l 91.273 97.5 109.727 126.977
 114.227 143.324 c 120.301 130.352 126 114.148 127.648 96.676 c h
122.25 95.023 m f
0.8 0.827451 0.87451 rg
114.148 143.324 m 109.727 127.051 91.273 97.574 90.824 96.898 c 70.5 108.148
 l 69 109.199 67.574 110.324 66.227 111.602 c 72.75 193.949 l 66.148 202.727
 65.926 205.5 65.023 208.5 c 64.574 210 63.898 211.5 63.074 212.852 c 90.75
 208.648 l 90.449 204.824 90.602 200.926 91.199 197.102 c 95.625 174.227
 l 102.898 164.625 109.125 154.273 114.148 143.324 c h
114.148 143.324 m f
0.721569 0.74902 0.788235 rg
81.227 119.102 m 82.574 117.824 84 116.699 85.5 115.648 c 97.949 108.75
 l 94.051 102 91.051 97.125 90.898 96.824 c 70.574 108.074 l 69.074 109.125
 67.648 110.25 66.301 111.523 c 69.977 115.949 73.125 120.824 75.676 126
 c 77.176 123.449 79.051 121.125 81.227 119.102 c h
81.227 119.102 m f
0.713726 0.741176 0.776471 rg
87.75 201.449 m 86.102 180.227 l 83.398 182.625 l 80.625 184.273 77.102
 183.824 74.773 181.574 c 71.551 178.352 l 72.75 193.949 l 66.148 202.727
 65.926 205.5 65.023 208.5 c 64.574 210 63.898 211.5 63.074 212.852 c 82.199
 209.926 l 83.852 206.926 85.648 204.074 87.75 201.449 c h
87.75 201.449 m f
1 0.847059 0.717647 rg
147.676 52.648 m 145.352 44.023 139.801 36.602 132.148 32.023 c 115.801
 22.125 94.5 27.375 84.602 43.727 c 79.949 56.625 l 79.352 60.75 79.5 64.875
 80.398 68.926 c 84.523 87.523 102.977 99.301 121.648 95.102 c 121.801 95.023
 122.023 95.023 122.25 94.949 c 136.051 91.648 146.477 80.324 148.5 66.301
 c h
147.676 52.648 m f
0.372549 0.658824 0.929412 rg
147.977 54 m 148.875 58.051 149.023 62.25 148.426 66.301 c 137.551 66.523
 126.602 65.926 115.801 64.5 c 103.648 62.926 91.648 60.227 79.875 56.625
 c 80.176 54.449 80.699 52.273 81.449 50.176 c 81.75 49.273 82.125 48.449
 82.5 47.551 c 83.102 46.199 83.773 44.926 84.523 43.727 c 94.648 47.176
 105.148 49.648 115.727 51.148 c 126.301 52.648 136.949 53.176 147.602 52.648
 c 147.824 53.102 147.898 53.551 147.977 54 c h
147.977 54 m f
1 0.847059 0.717647 rg
96.148 187.051 m 96 186.602 95.852 186.074 95.625 185.625 c 90.523 174.449
 l 89.398 171.977 87.148 170.176 84.523 169.648 c 75.75 168 l 67.648 175.051
 l 75.301 185.625 l 79.273 191.102 l 81.227 193.801 l 82.801 196.051 85.352
 197.398 88.125 197.398 c 92.773 197.398 96.523 193.648 96.523 189 c 96.449
 188.398 96.375 187.727 96.148 187.051 c h
96.148 187.051 m f
0.690196 0.709804 0.792157 rg
73.801 154.574 m 73.801 154.574 90.523 141.75 66.227 111.602 c 63.375 114.148
 61.125 117.301 59.477 120.75 c 43.727 150.301 l 42.301 153.449 42.898 157.125
 45.375 159.602 c 59.699 174 l 61.949 176.324 65.551 176.699 68.324 175.051
 c 76.426 168 l 76.648 167.852 l 79.574 165.301 79.801 160.801 77.25 157.875
 c 77.102 157.727 76.949 157.574 76.801 157.426 c h
73.801 154.574 m f
0.607843 0.631373 0.698039 rg
74.477 128.25 m 74.852 127.5 75.227 126.75 75.602 126.074 c 73.051 120.898
 69.898 116.023 66.227 111.602 c 63.375 114.148 61.125 117.301 59.477 120.75
 c 43.727 150.301 l 42.301 153.449 42.898 157.125 45.375 159.602 c 59.699
 174 l 61.949 176.324 65.551 176.699 68.324 175.051 c 60.375 167.023 l 57.977
 164.551 57.301 160.875 58.727 157.727 c h
74.477 128.25 m f
0.156863 0.258824 0.407843 rg
303.449 102.074 m 304.199 104.398 306.75 105.75 309.148 104.926 c 343.574
 93.602 l 345.898 92.852 347.25 90.301 346.426 87.898 c 345.676 85.574 343.125
 84.227 340.727 85.051 c 306.301 96.375 l 303.977 97.199 302.699 99.75 303.449
 102.074 c h
303.449 102.074 m f
370.727 110.25 m 352.5 115.727 l 350.102 116.477 348.75 118.949 349.5 121.352
 c 350.25 123.75 352.727 125.102 355.125 124.352 c 373.352 118.875 l 375.75
 118.199 377.102 115.648 376.426 113.324 c 375.75 111 373.199 109.574 370.875
 110.25 c 370.727 110.25 370.727 110.25 370.727 110.25 c h
370.727 110.25 m f
370.648 93.898 m 244.801 134.551 l 243.977 133.875 243.074 133.273 242.102
 132.824 c 231 127.5 l 227.25 125.699 222.824 125.852 219.148 127.875 c 
216.449 129.375 l 214.801 126.301 211.875 124.125 208.5 123.523 c 189.375
 119.852 l 185.25 119.023 181.352 117.523 177.75 115.426 c 153.977 101.324
 l 150.898 99.523 147.602 98.023 144.148 96.977 c 135.301 94.273 l 149.102
 85.426 155.852 69 152.398 53.023 c 147.676 31.949 126.676 18.676 105.602
 23.477 c 96.227 25.574 87.977 31.051 82.352 38.926 c 78.523 32.852 l 76.273
 28.051 70.574 26.023 65.773 28.273 c 64.199 29.023 62.773 30.227 61.801
 31.727 c 58.199 37.199 l 55.352 41.625 56.551 47.477 60.977 50.398 c 61.727
 50.852 62.551 51.301 63.375 51.523 c 60.227 52.727 l 57.898 53.551 56.699
 56.176 57.523 58.5 c 58.352 60.824 60.977 62.023 63.301 61.199 c 63.375
 61.199 l 75.301 56.699 l 73.574 70.352 79.199 83.852 90 92.25 c 68.25 104.25
 l 68.102 104.324 67.949 104.398 67.875 104.477 c 62.102 108.523 57.898 
113.324 55.352 118.727 c 39.75 148.199 l 39.676 148.273 39.676 148.352 39.676
 148.426 c 37.426 153.301 38.477 159 42.227 162.824 c 56.551 177.227 l 59.176
 179.852 62.926 181.125 66.676 180.449 c 70.949 186.375 l 69.375 190.5 l
 60.523 193.949 l 58.199 194.852 57.074 197.477 57.977 199.801 c 58.648 
201.523 60.301 202.648 62.176 202.648 c 62.324 202.648 l 61.801 203.926 
61.426 205.125 61.051 206.477 c 60.977 206.773 60.898 207.074 60.824 207.375
 c 60.148 209.773 58.727 211.801 56.699 213.227 c 22.727 237.301 l 13.949
 243.148 9.824 253.875 12.375 264.148 c 12.375 264.227 l 19.125 288.523 
l 19.426 289.648 19.727 290.773 20.023 291.977 c 21.602 298.125 23.324 304.5
 23.551 310.5 c 23.551 310.801 23.551 311.102 23.625 311.398 c 24 314.551
 25.125 317.551 27 320.102 c 25.949 321.148 l 22.648 324.449 18.75 327.148
 14.477 329.102 c 8.551 331.801 5.926 338.699 8.551 344.625 c 10.125 348.148
 13.273 350.625 17.102 351.375 c 17.852 351.523 18.602 351.602 19.352 351.602
 c 21.75 351.602 24 350.852 25.949 349.574 c 32.852 344.852 l 35.551 342.977
 38.551 341.551 41.699 340.648 c 49.125 338.398 l 52.5 337.352 55.125 334.875
 56.398 331.574 c 57.602 328.426 57.227 324.898 55.426 322.125 c 55.273 
321.898 55.051 321.602 54.898 321.375 c 54.676 321.074 l 55.199 320.102 
55.574 319.125 55.801 318 c 66.449 281.176 l 66.523 281.023 66.523 280.801
 66.602 280.648 c 66.676 280.125 67.051 279.676 67.574 279.523 c 67.949 
279.375 68.324 279.227 68.699 278.926 c 109.648 250.5 l 119.398 247.949 
149.176 258.449 173.398 269.551 c 236.023 338.773 l 236.176 338.926 l 237.898
 340.648 240.301 341.699 242.773 341.699 c 242.926 341.699 l 244.727 341.699
 246.449 341.102 247.949 340.125 c 249.227 341.477 l 250.051 342.301 250.949
 343.273 251.699 344.023 c 250.949 350.023 253.574 355.051 259.199 358.125
 c 262.199 359.699 265.648 360.227 268.949 359.625 c 273.898 358.875 278.852
 358.648 283.801 359.023 c 296.398 361.199 l 299.324 362.023 302.477 361.648
 305.102 360.227 c 310.801 357.148 312.977 350.023 309.977 344.324 c 308.176
 340.949 304.875 338.625 301.051 338.176 c 296.477 337.574 289.727 336.148
 285.602 333.977 c 283.875 333.074 l 281.852 332.023 279.977 330.75 278.176
 329.398 c 265.727 319.574 l 266.324 317.25 265.949 314.699 264.676 312.602
 c 262.125 308.324 259.648 303.676 257.102 298.727 c 243.898 273.523 227.551
 242.25 170.398 207.301 c 167.551 205.574 156.824 193.574 151.199 186.148
 c 150.375 185.023 149.852 183.676 149.773 182.324 c 149.773 182.25 149.773
 182.25 149.773 182.176 c 149.25 175.125 l 217.426 153 l 233.324 156.977
 l 234.375 157.273 235.5 157.426 236.625 157.426 c 243.75 157.426 249.523
 151.727 249.523 144.602 c 249.523 143.926 249.449 143.324 249.375 142.648
 c 373.426 102.523 l 375.824 101.773 377.102 99.227 376.352 96.824 c 375.523
 94.426 372.977 93.148 370.648 93.898 c h
66.227 42.898 m 66 42.898 65.852 42.75 65.773 42.602 c 65.699 42.449 65.699
 42.227 65.773 42.074 c 69.375 36.602 l 69.449 36.449 69.676 36.301 69.824
 36.301 c 69.898 36.301 l 70.125 36.301 70.273 36.449 70.352 36.676 c 75.227
 44.551 l h
107.773 32.25 m 121.352 29.25 135.148 35.852 141.301 48.301 c 132.977 48.375
 124.727 47.852 116.477 46.648 c 108.148 45.523 99.977 43.727 91.949 41.324
 c 96.148 36.75 101.625 33.523 107.773 32.25 c h
86.773 49.199 m 96.074 52.125 105.523 54.301 115.199 55.574 c 123.449 56.699
 131.699 57.301 140.023 57.301 c 141.375 57.301 142.727 57.301 144 57.227
 c 144.227 58.727 144.301 60.301 144.301 61.801 c 135 61.801 125.699 61.199
 116.398 60 c 105.824 58.574 95.398 56.398 85.125 53.398 c 85.574 52.051
 86.102 50.625 86.773 49.199 c h
84.824 67.949 m 84.449 66.148 84.227 64.352 84.148 62.551 c 94.352 65.477
 104.773 67.574 115.273 69 c 124.426 70.199 133.574 70.801 142.801 70.875
 c 137.551 86.699 120.449 95.176 104.625 89.926 c 94.648 86.551 87.148 78.227
 84.824 67.949 c h
122.773 99.898 m 121.273 110.625 118.5 121.125 114.523 131.176 c 109.273
 119.023 101.25 105.301 97.199 98.625 c 99.148 97.574 l 106.352 100.574 
114.375 101.398 122.023 99.75 c h
72.977 111.977 m 89.324 102.898 l 94.125 110.926 105.523 130.426 109.426
 142.875 c 104.926 152.25 99.676 161.176 93.602 169.574 c 91.727 167.324
 89.102 165.824 86.25 165.227 c 83.398 164.699 l 83.551 164.023 83.625 163.352
 83.625 162.676 c 83.625 159.523 82.352 156.449 80.102 154.199 c 82.125 
151.125 83.398 147.602 83.773 143.926 c 84.898 134.551 81.074 123.898 72.523
 112.199 c 72.602 112.199 72.75 112.051 72.977 111.977 c h
92.102 191.102 m 91.426 192.227 90.301 192.898 89.023 192.977 c 87.676 
193.051 86.324 192.449 85.5 191.324 c 85.5 191.25 l 74.398 175.875 l 77.773
 172.875 l 84.375 174.148 l 85.574 174.375 86.625 175.199 87.148 176.324
 c 92.25 187.5 l 92.852 188.625 92.773 189.977 92.102 191.102 c h
66.449 170.926 m 65.477 171.824 63.898 171.75 62.926 170.852 c 48.602 156.449
 l 47.551 155.324 47.176 153.75 47.773 152.324 c 63.449 122.926 l 63.523
 122.852 63.523 122.773 63.523 122.699 c 64.199 121.273 64.949 119.926 65.926
 118.727 c 77.102 134.398 75.523 143.625 73.273 148.051 c 72.898 147.75 
l 71.102 146.023 68.25 146.023 66.523 147.824 c 64.801 149.625 64.801 152.477
 66.602 154.199 c 66.75 154.352 l 73.648 160.875 l 74.699 161.852 74.699
 163.426 73.801 164.477 c 73.727 164.551 73.727 164.625 73.648 164.625 c
 h
75.602 197.625 m 78.301 196.574 l 80.176 199.199 83.023 201 86.176 201.676
 c 86.102 202.648 86.102 203.699 86.102 204.75 c 70.051 207.148 l 70.727
 205.199 71.926 202.727 75.602 197.625 c h
48 328.352 m 47.773 328.949 47.25 329.477 46.574 329.699 c 39.148 331.949
 l 35.102 333.148 31.273 334.949 27.824 337.352 c 20.926 342.074 l 19.648
 342.977 17.926 342.602 17.023 341.324 c 16.574 340.648 16.426 339.824 16.648
 339.074 c 16.875 338.324 17.398 337.648 18.148 337.273 c 23.398 334.875
 28.199 331.574 32.324 327.449 c 34.199 325.5 l 38.398 327.074 42.898 327.227
 47.176 325.949 c 47.699 326.625 l 47.699 326.699 47.773 326.699 47.773 
326.773 c 48.148 327.301 48.148 327.824 48 328.352 c h
260.477 326.773 m 272.551 336.301 l 274.727 338.023 277.125 339.523 279.602
 340.875 c 281.324 341.773 l 287.926 345.227 297.148 346.648 299.852 346.949
 c 300.676 347.023 301.426 347.477 301.875 348.227 c 302.324 348.898 302.477
 349.727 302.176 350.477 c 301.949 351.148 301.5 351.75 300.824 352.125 
c 300.148 352.5 299.398 352.574 298.648 352.352 c 298.426 352.273 298.273
 352.273 298.051 352.199 c 285.074 350.023 l 285 350.023 284.926 350.023
 284.852 350.023 c 279 349.574 273.074 349.801 267.301 350.699 c 265.949
 351 264.602 350.773 263.398 350.176 c 261.449 349.125 259.727 347.551 260.773
 343.801 c 261.449 341.25 260.023 339.824 258.449 338.102 c 257.699 337.273
 256.648 336.227 255.523 335.102 c 254.102 333.676 l h
165.602 214.875 m 220.574 248.477 236.398 278.625 249 302.773 c 251.625
 307.801 254.176 312.602 256.875 317.102 c 256.949 317.176 256.949 317.324
 256.875 317.398 c 242.852 332.477 l 242.773 332.551 242.699 332.551 242.699
 332.551 c 242.625 332.551 242.625 332.551 242.551 332.477 c 179.398 262.727
 l 179.023 262.273 178.5 261.898 177.977 261.676 c 173.773 259.727 159 253.051
 143.551 247.801 c 125.324 241.574 113.102 239.699 106.199 242.023 c 105.824
 242.176 105.449 242.324 105.074 242.625 c 63.977 271.125 l 60.75 272.477
 58.352 275.324 57.75 278.773 c 47.102 315.602 l 47.023 315.75 47.023 315.977
 46.949 316.125 c 46.949 316.273 46.875 316.426 46.727 316.5 c 43.352 318.148
 39.523 318.148 36.148 316.5 c 35.625 316.273 l 33.977 314.699 32.926 312.602
 32.551 310.352 c 32.551 310.199 32.551 310.125 32.551 309.977 c 32.25 303
 30.449 296.176 28.727 289.574 c 28.426 288.449 28.125 287.25 27.824 286.125
 c 27.824 286.051 l 21.074 261.75 l 19.426 255.227 22.125 248.398 27.75 
244.648 c 27.824 244.648 27.824 244.574 27.898 244.574 c 61.875 220.5 l 
63.227 219.523 64.5 218.324 65.551 217.051 c 86.625 213.824 l 87.375 220.125
 88.875 225.75 90.75 228.074 c 93.523 231.523 96.301 232.426 98.551 232.426
 c 99.602 232.426 100.574 232.199 101.551 231.824 c 159.227 209.25 l 161.176
 211.352 163.273 213.227 165.602 214.875 c h
152.773 202.199 m 98.699 223.352 l 98.398 223.125 98.102 222.824 97.875
 222.523 c 96.602 220.426 94.5 209.324 95.324 200.25 c 98.852 198.148 101.176
 194.551 101.625 190.426 c 140.324 177.898 l 140.699 182.773 l 140.852 186
 141.977 189 143.926 191.551 c 145.727 193.875 149.102 198 152.773 202.199
 c h
98.176 178.648 m 110.023 178.199 l 99.523 181.574 l h
152.699 164.324 m 153.824 159.148 154.273 153.898 154.199 148.648 c 161.324
 151.801 168.602 154.5 175.949 156.824 c h
208.875 146.176 m 194.398 150.898 l 187.426 152.023 168.602 145.426 153
 138.301 c 150.148 137.023 146.852 138.227 145.574 141.074 c 145.199 141.898
 145.051 142.801 145.051 143.699 c 145.648 155.324 144.227 165.148 141.676
 167.926 c 104.699 169.426 l 112.801 157.352 127.273 132.227 131.477 102.523
 c 141.602 105.602 l 144.375 106.426 147 107.625 149.477 109.051 c 173.25
 123.148 l 177.75 125.852 182.625 127.648 187.801 128.699 c 206.926 132.375
 l 208.125 132.602 209.023 133.648 209.023 134.852 c h
239.25 147.227 m 238.273 148.199 236.852 148.574 235.5 148.199 c 235.426
 148.199 l 217.875 143.773 l 217.875 138.977 l 223.574 135.75 l 224.699 
135.148 225.977 135.074 227.176 135.676 c 238.273 141 l 240.227 141.898 
241.051 144.227 240.074 146.176 c 239.852 146.551 239.625 146.926 239.25
 147.227 c h
239.25 147.227 m f
Q Q
showpage
%%Trailer
end
%%EOF
