%!PS-Adobe-3.0 EPSF-3.0
%%Creator: cairo 1.16.0 (https://cairographics.org)
%%CreationDate: Mon Dec 14 10:23:56 2020
%%Pages: 1
%%DocumentData: Clean7Bit
%%LanguageLevel: 2
%%BoundingBox: 29 11 355 373
%%EndComments
%%BeginProlog
50 dict begin
/q { gsave } bind def
/Q { grestore } bind def
/cm { 6 array astore concat } bind def
/w { setlinewidth } bind def
/J { setlinecap } bind def
/j { setlinejoin } bind def
/M { setmiterlimit } bind def
/d { setdash } bind def
/m { moveto } bind def
/l { lineto } bind def
/c { curveto } bind def
/h { closepath } bind def
/re { exch dup neg 3 1 roll 5 3 roll moveto 0 rlineto
      0 exch rlineto 0 rlineto closepath } bind def
/S { stroke } bind def
/f { fill } bind def
/f* { eofill } bind def
/n { newpath } bind def
/W { clip } bind def
/W* { eoclip } bind def
/BT { } bind def
/ET { } bind def
/BDC { mark 3 1 roll /BDC pdfmark } bind def
/EMC { mark /EMC pdfmark } bind def
/cairo_store_point { /cairo_point_y exch def /cairo_point_x exch def } def
/Tj { show currentpoint cairo_store_point } bind def
/TJ {
  {
    dup
    type /stringtype eq
    { show } { -0.001 mul 0 cairo_font_matrix dtransform rmoveto } ifelse
  } forall
  currentpoint cairo_store_point
} bind def
/cairo_selectfont { cairo_font_matrix aload pop pop pop 0 0 6 array astore
    cairo_font exch selectfont cairo_point_x cairo_point_y moveto } bind def
/Tf { pop /cairo_font exch def /cairo_font_matrix where
      { pop cairo_selectfont } if } bind def
/Td { matrix translate cairo_font_matrix matrix concatmatrix dup
      /cairo_font_matrix exch def dup 4 get exch 5 get cairo_store_point
      /cairo_font where { pop cairo_selectfont } if } bind def
/Tm { 2 copy 8 2 roll 6 array astore /cairo_font_matrix exch def
      cairo_store_point /cairo_font where { pop cairo_selectfont } if } bind def
/g { setgray } bind def
/rg { setrgbcolor } bind def
/d1 { setcachedevice } bind def
/cairo_data_source {
  CairoDataIndex CairoData length lt
    { CairoData CairoDataIndex get /CairoDataIndex CairoDataIndex 1 add def }
    { () } ifelse
} def
/cairo_flush_ascii85_file { cairo_ascii85_file status { cairo_ascii85_file flushfile } if } def
/cairo_image { image cairo_flush_ascii85_file } def
/cairo_imagemask { imagemask cairo_flush_ascii85_file } def
%%EndProlog
%%BeginSetup
%%EndSetup
%%Page: 1 1
%%BeginPageSetup
%%PageBoundingBox: 29 11 355 373
%%EndPageSetup
q 29 11 326 362 rectclip
1 0 0 -1 0 384 cm q
0.8 0.827451 0.87451 rg
222.629 170.699 m 38.871 152.527 l 41.953 161.355 l 49.223 182.18 48.629
 204.941 40.281 225.359 c 35.844 236.223 33.562 247.848 33.562 259.582 c
 33.562 262.516 33.703 265.449 33.988 268.387 c 36.188 290.805 l 222.516
 277.477 l 224.723 277.32 226.434 275.48 226.434 273.27 c 226.434 174.898
 l 226.434 172.73 224.789 170.914 222.629 170.699 c h
222.629 170.699 m f
1 0.847059 0.717647 rg
346.387 54.652 m 348.969 61.191 351.309 68.918 350.121 77.961 c 347.535
 97.828 340.957 123.871 336.398 143.391 c 334.273 152.461 332.789 182.934
 340.035 201.195 c 343.762 210.602 345.488 220.719 344.316 230.766 c 342.047
 250.215 327.113 271.605 282.301 254.488 c 273.062 250.918 263.078 249.727
 253.262 251.031 c 226.434 254.797 l 226.434 191.527 l 237.516 193.344 250.223
 189.188 257.301 180.449 c 272.738 161.398 297.391 120.449 308.754 44.453
 c 309.855 37.117 309.098 28.973 315.375 20.812 c 320.82 13.734 339.531 
10.719 341.738 34.98 c 342.344 41.727 343.91 48.348 346.387 54.652 c h
346.387 54.652 m f
0.709804 0.737255 0.776471 rg
56.062 259.582 m 56.062 247.848 58.344 236.223 62.781 225.359 c 71.129 
204.941 71.723 182.18 64.453 161.355 c 62.176 154.828 l 38.871 152.527 l
 41.953 161.355 l 49.223 182.18 48.629 204.941 40.281 225.359 c 35.844 236.223
 33.562 247.848 33.562 259.582 c 33.562 262.516 33.703 265.449 33.988 268.387
 c 36.188 290.805 l 58.531 289.207 l 56.488 268.387 l 56.203 265.453 56.062
 262.52 56.062 259.582 c h
56.062 259.582 m f
0.156863 0.258824 0.407843 rg
346.219 34.574 m 344.727 18.168 336.371 13.359 331.52 11.953 c 323.547 
9.637 315.414 13.375 311.805 18.062 c 306.082 25.504 305.406 32.781 304.812
 39.199 c 304.66 40.812 304.52 42.336 304.305 43.789 c 299.406 76.539 286.332
 137.469 253.805 177.613 c 248.711 183.898 239.699 187.664 230.93 187.438
 c 230.93 174.898 l 230.945 170.414 227.539 166.656 223.074 166.227 c 39.32
 148.051 l 36.047 147.727 33.543 150.906 34.625 154.012 c 37.707 162.844
 l 44.621 182.629 44.055 204.258 36.117 223.656 c 30.289 237.957 28.023 
253.457 29.516 268.828 c 31.711 291.242 l 31.938 293.547 33.871 295.301 
36.184 295.305 c 36.293 295.305 36.402 295.305 36.512 295.293 c 222.836 
281.965 l 227.391 281.625 230.914 277.84 230.93 273.273 c 230.93 258.711
 l 253.867 255.488 l 262.938 254.293 272.16 255.395 280.691 258.688 c 292.148
 263.062 302.359 265.254 311.254 265.254 c 319.223 265.254 326.141 263.492
 331.941 259.977 c 341.305 254.301 347.285 244.113 348.781 231.289 c 349.984
 221.055 348.402 210.074 344.219 199.531 c 337.445 182.457 338.734 153.16
 340.777 144.414 c 341.496 141.332 342.266 138.086 343.062 134.73 c 347.43
 116.34 352.375 95.496 354.586 78.543 c 355.914 68.359 353.305 59.914 350.574
 52.996 c 348.254 47.094 346.785 40.891 346.219 34.574 c h
221.93 273.008 m 40.238 286.004 l 38.477 267.949 l 37.125 254.035 39.176
 240.004 44.453 227.062 c 53.223 205.633 53.848 181.734 46.211 159.875 c
 45.449 157.699 l 221.934 175.156 l h
345.664 77.383 m 343.508 93.875 338.621 114.477 334.305 132.656 c 333.508
 136.027 332.73 139.281 332.012 142.375 c 329.957 151.184 328.023 183.121
 335.852 202.859 c 339.488 212.02 340.867 221.492 339.844 230.25 c 339.168
 236.047 336.637 246.617 327.277 252.285 c 317.633 258.137 302.633 257.441
 283.902 250.285 c 273.953 246.453 263.203 245.18 252.633 246.582 c 230.93
 249.629 l 230.93 196.438 l 242.426 196.68 253.957 191.73 260.801 183.281
 c 271.23 170.406 280.613 154.359 288.691 135.582 c 299.867 109.594 308.117
 79.156 313.207 45.117 c 313.461 43.414 313.621 41.695 313.773 40.027 c 
314.305 34.32 314.805 28.93 318.941 23.551 c 320.727 21.23 325.199 19.488
 329.012 20.594 c 333.582 21.918 336.512 27.172 337.254 35.387 c 337.902
 42.559 339.566 49.602 342.207 56.301 c 344.512 62.152 346.727 69.23 345.664
 77.383 c h
345.664 77.383 m f
243.102 29.805 m 249.102 29.805 249.102 20.805 243.102 20.805 c 230.762
 20.805 l 224.762 20.805 224.762 29.805 230.762 29.805 c h
243.102 29.805 m f
216.57 20.805 m 95.656 20.805 l 93.172 20.805 91.156 22.816 91.156 25.305
 c 91.156 27.789 93.172 29.805 95.656 29.805 c 216.57 29.805 l 222.57 29.805
 222.57 20.805 216.57 20.805 c h
216.57 20.805 m f
196.91 75.254 m 196.91 77.738 198.922 79.754 201.41 79.754 c 269.758 79.754
 l 275.758 79.754 275.758 70.754 269.758 70.754 c 201.41 70.754 l 198.922
 70.754 196.91 72.77 196.91 75.254 c h
196.91 75.254 m f
165.414 70.754 m 159.414 70.754 159.414 79.754 165.414 79.754 c 184.852
 79.754 l 190.852 79.754 190.852 70.754 184.852 70.754 c h
165.414 70.754 m f
280.586 363.75 m 265.355 363.75 l 259.355 363.75 259.355 372.75 265.355
 372.75 c 280.586 372.75 l 286.586 372.75 286.586 363.75 280.586 363.75 
c h
280.586 363.75 m f
251.164 363.75 m 159.355 363.75 l 153.355 363.75 153.355 372.75 159.355
 372.75 c 251.164 372.75 l 257.164 372.75 257.164 363.75 251.164 363.75 
c h
251.164 363.75 m f
146.047 363.75 m 133.137 363.75 l 127.137 363.75 127.137 372.75 133.137
 372.75 c 146.047 372.75 l 152.047 372.75 152.047 363.75 146.047 363.75 
c h
146.047 363.75 m f
307.242 313.801 m 299.797 313.801 l 293.797 313.801 293.797 322.801 299.797
 322.801 c 307.242 322.801 l 313.242 322.801 313.242 313.801 307.242 313.801
 c h
307.242 313.801 m f
284.609 313.801 m 202.895 313.801 l 196.895 313.801 196.895 322.801 202.895
 322.801 c 284.609 322.801 l 290.609 322.801 290.609 313.801 284.609 313.801
 c h
284.609 313.801 m f
95.047 254.156 m 109.293 254.156 l 115.293 254.156 115.293 245.156 109.293
 245.156 c 95.047 245.156 l 89.047 245.156 89.047 254.156 95.047 254.156
 c h
95.047 254.156 m f
125.883 253.699 m 172.094 253.699 l 178.094 253.699 178.094 244.699 172.094
 244.699 c 125.883 244.699 l 119.883 244.699 119.883 253.699 125.883 253.699
 c h
125.883 253.699 m f
188.883 253.699 m 192.488 253.699 l 198.488 253.699 198.488 244.699 192.488
 244.699 c 188.883 244.699 l 182.883 244.699 182.883 253.699 188.883 253.699
 c h
188.883 253.699 m f
Q Q
showpage
%%Trailer
end
%%EOF
