%!PS-Adobe-3.0 EPSF-3.0
%%Creator: cairo 1.16.0 (https://cairographics.org)
%%CreationDate: Mon Dec 14 10:24:00 2020
%%Pages: 1
%%DocumentData: Clean7Bit
%%LanguageLevel: 2
%%BoundingBox: 7 55 377 329
%%EndComments
%%BeginProlog
50 dict begin
/q { gsave } bind def
/Q { grestore } bind def
/cm { 6 array astore concat } bind def
/w { setlinewidth } bind def
/J { setlinecap } bind def
/j { setlinejoin } bind def
/M { setmiterlimit } bind def
/d { setdash } bind def
/m { moveto } bind def
/l { lineto } bind def
/c { curveto } bind def
/h { closepath } bind def
/re { exch dup neg 3 1 roll 5 3 roll moveto 0 rlineto
      0 exch rlineto 0 rlineto closepath } bind def
/S { stroke } bind def
/f { fill } bind def
/f* { eofill } bind def
/n { newpath } bind def
/W { clip } bind def
/W* { eoclip } bind def
/BT { } bind def
/ET { } bind def
/BDC { mark 3 1 roll /BDC pdfmark } bind def
/EMC { mark /EMC pdfmark } bind def
/cairo_store_point { /cairo_point_y exch def /cairo_point_x exch def } def
/Tj { show currentpoint cairo_store_point } bind def
/TJ {
  {
    dup
    type /stringtype eq
    { show } { -0.001 mul 0 cairo_font_matrix dtransform rmoveto } ifelse
  } forall
  currentpoint cairo_store_point
} bind def
/cairo_selectfont { cairo_font_matrix aload pop pop pop 0 0 6 array astore
    cairo_font exch selectfont cairo_point_x cairo_point_y moveto } bind def
/Tf { pop /cairo_font exch def /cairo_font_matrix where
      { pop cairo_selectfont } if } bind def
/Td { matrix translate cairo_font_matrix matrix concatmatrix dup
      /cairo_font_matrix exch def dup 4 get exch 5 get cairo_store_point
      /cairo_font where { pop cairo_selectfont } if } bind def
/Tm { 2 copy 8 2 roll 6 array astore /cairo_font_matrix exch def
      cairo_store_point /cairo_font where { pop cairo_selectfont } if } bind def
/g { setgray } bind def
/rg { setrgbcolor } bind def
/d1 { setcachedevice } bind def
/cairo_data_source {
  CairoDataIndex CairoData length lt
    { CairoData CairoDataIndex get /CairoDataIndex CairoDataIndex 1 add def }
    { () } ifelse
} def
/cairo_flush_ascii85_file { cairo_ascii85_file status { cairo_ascii85_file flushfile } if } def
/cairo_image { image cairo_flush_ascii85_file } def
/cairo_imagemask { imagemask cairo_flush_ascii85_file } def
%%EndProlog
%%BeginSetup
%%EndSetup
%%Page: 1 1
%%BeginPageSetup
%%PageBoundingBox: 7 55 377 329
%%EndPageSetup
q 7 55 370 274 rectclip
1 0 0 -1 0 384 cm q
0.780392 0.603922 0.513726 rg
248.152 124.387 m 247.906 267.121 l 271.133 267.121 l 271.281 124.035 l
 h
248.152 124.387 m f
135.977 143.211 m 112.719 143.773 l 112.859 267.121 l 136.086 267.121 l
 h
135.977 143.211 m f
0.290196 0.317647 0.376471 rg
66.375 85.605 31.816 36.883 re f
52.312 186 26.789 36.367 re f
0.427451 0.454902 0.52549 rg
45.637 85.605 20.738 36.883 re f
37.477 186 14.836 36.367 re f
0.290196 0.317647 0.376471 rg
45.637 85.605 m 45.637 122.488 l 30.48 122.488 l 25.59 122.488 20.898 120.547
 17.438 117.09 c 13.98 113.629 12.039 108.938 12.039 104.047 c 12.039 99.156
 13.98 94.465 17.438 91.008 c 20.898 87.547 25.59 85.605 30.48 85.605 c 
h
45.637 85.605 m f
37.477 186 m 37.477 222.367 l 20.137 222.367 l 15.738 222.371 12.164 218.809
 12.156 214.41 c 12.156 193.957 l 12.164 189.559 15.738 185.996 20.137 186
 c h
37.477 186 m f
0.498039 0.239216 0.196078 rg
275.219 265.621 m 108.781 265.621 l 89.258 265.621 73.434 281.773 73.434
 301.262 c 310.566 301.262 l 310.566 281.773 294.742 265.621 275.219 265.621
 c h
275.219 265.621 m f
0.690196 0.709804 0.792157 rg
101.535 205.461 m 101.535 229.867 l 339.426 229.867 l 343.559 229.867 345.352
 229.066 346.598 227.664 c 363.18 209.016 l 364.273 207.793 364.863 206.199
 364.828 204.555 c h
101.535 205.461 m f
0.8 0.827451 0.87451 rg
363.277 200.414 m 346.605 180.816 l 345.352 179.348 343.52 178.5 341.586
 178.5 c 101.535 178.5 l 101.535 205.461 l 364.828 204.555 l 364.816 203.035
 364.266 201.57 363.277 200.414 c h
363.277 200.414 m f
370.012 79.734 m 371.488 79.73 372.445 81.285 371.781 82.605 c 366.891 
92.266 l 366.57 92.91 366.234 93.539 365.879 94.172 c 137.707 94.172 l 137.707
 79.734 l h
370.012 79.734 m f
0.690196 0.709804 0.792157 rg
137.707 94.172 m 137.707 126.668 l 316.094 123.977 l 336.832 123.676 355.82
 112.305 365.879 94.172 c h
137.707 94.172 m f
0.27451 0.537255 0.827451 rg
97.785 171 m 82.852 171 l 80.367 171 78.352 173.016 78.352 175.5 c 78.352
 232.867 l 78.352 235.352 80.367 237.367 82.852 237.367 c 97.785 237.367
 l 100.27 237.367 102.285 235.352 102.285 232.867 c 102.285 175.5 l 102.285
 173.016 100.27 171 97.785 171 c h
97.785 171 m f
0.929412 0.717647 0.25098 rg
132.105 60.375 m 116.715 60.375 l 116.715 146.023 l 132.105 146.023 l 133.789
 146.027 135.406 145.355 136.598 144.164 c 137.789 142.973 138.457 141.359
 138.457 139.672 c 138.457 66.727 l 138.457 65.043 137.789 63.426 136.598
 62.234 c 135.406 61.043 133.789 60.375 132.105 60.375 c h
132.105 60.375 m f
0.976471 0.831373 0.219608 rg
103.793 60.375 m 102.109 60.375 100.492 61.043 99.301 62.234 c 98.109 63.426
 97.438 65.043 97.441 66.727 c 97.441 139.672 l 97.441 143.18 100.285 146.023
 103.793 146.023 c 116.715 146.023 l 116.715 60.375 l h
103.793 60.375 m f
0.407843 0.188235 0.160784 rg
131.281 265.621 m 108.781 265.621 l 89.258 265.621 73.434 281.773 73.434
 301.262 c 95.934 301.262 l 95.934 281.773 111.758 265.621 131.281 265.621
 c h
131.281 265.621 m f
0.737255 0.368627 0.317647 rg
329.031 301.262 m 54.969 301.262 l 50.742 301.254 46.688 302.93 43.695 
305.914 c 40.703 308.898 39.02 312.949 39.016 317.176 c 39.016 320.445 l
 39.016 322.203 40.445 323.629 42.203 323.625 c 341.797 323.422 l 343.559
 323.426 344.988 321.996 344.984 320.234 c 344.984 317.176 l 344.98 312.949
 343.297 308.898 340.305 305.914 c 337.312 302.93 333.258 301.254 329.031
 301.262 c h
329.031 301.262 m f
0.639216 0.329412 0.294118 rg
61.516 320.445 m 61.516 317.176 l 61.52 312.949 63.203 308.898 66.195 305.914
 c 69.188 302.93 73.242 301.254 77.469 301.262 c 54.969 301.262 l 50.742
 301.254 46.688 302.93 43.695 305.914 c 40.703 308.898 39.02 312.949 39.016
 317.176 c 39.016 320.445 l 39.016 322.203 40.445 323.629 42.203 323.625
 c 64.551 323.609 l 62.855 323.535 61.52 322.141 61.516 320.445 c h
61.516 320.445 m f
0.156863 0.258824 0.407843 rg
238.414 196.727 m 252.66 196.727 l 258.66 196.727 258.66 187.727 252.66
 187.727 c 238.414 187.727 l 232.414 187.727 232.414 196.727 238.414 196.727
 c h
238.414 196.727 m f
269.25 196.273 m 315.461 196.273 l 321.461 196.273 321.461 187.273 315.461
 187.273 c 269.25 187.273 l 263.25 187.273 263.25 196.273 269.25 196.273
 c h
269.25 196.273 m f
332.25 196.273 m 335.855 196.273 l 341.855 196.273 341.855 187.273 335.855
 187.273 c 332.25 187.273 l 326.25 187.273 326.25 196.273 332.25 196.273
 c h
332.25 196.273 m f
156.031 115.703 m 170.273 115.703 l 176.273 115.703 176.273 106.703 170.273
 106.703 c 156.031 106.703 l 150.031 106.703 150.031 115.703 156.031 115.703
 c h
156.031 115.703 m f
186.867 115.25 m 233.078 115.25 l 239.078 115.25 239.078 106.25 233.078
 106.25 c 186.867 106.25 l 180.867 106.25 180.867 115.25 186.867 115.25 
c h
186.867 115.25 m f
249.867 115.25 m 253.473 115.25 l 259.473 115.25 259.473 106.25 253.473
 106.25 c 249.867 106.25 l 243.867 106.25 243.867 115.25 249.867 115.25 
c h
249.867 115.25 m f
370.012 75.23 m 142.961 75.23 l 142.961 66.73 l 142.953 60.738 138.098 
55.883 132.105 55.875 c 103.793 55.875 l 97.801 55.883 92.945 60.738 92.938
 66.73 c 92.938 81.102 l 30.484 81.102 l 24.375 81.07 18.508 83.469 14.176
 87.777 c 9.844 92.082 7.41 97.938 7.41 104.047 c 7.41 110.152 9.844 116.008
 14.176 120.316 c 18.508 124.621 24.375 127.023 30.484 126.988 c 92.938 
126.988 l 92.938 139.668 l 92.945 145.66 97.801 150.52 103.793 150.523 c
 108.219 150.523 l 108.219 174 l 106.648 174 l 105.918 169.676 102.172 166.508
 97.785 166.5 c 82.852 166.5 l 77.887 166.504 73.859 170.531 73.852 175.5
 c 73.852 181.5 l 20.137 181.5 l 13.254 181.504 7.672 187.074 7.66 193.957
 c 7.66 214.41 l 7.676 221.289 13.254 226.863 20.137 226.867 c 73.852 226.867
 l 73.852 232.867 l 73.859 237.836 77.887 241.859 82.852 241.867 c 97.785
 241.867 l 102.172 241.859 105.914 238.691 106.648 234.367 c 108.359 234.367
 l 108.359 261.133 l 88.188 261.434 71.395 276.707 69.188 296.758 c 54.965
 296.758 l 43.688 296.762 34.535 305.895 34.512 317.176 c 34.512 320.441
 l 34.52 324.684 37.961 328.121 42.203 328.125 c 341.801 327.922 l 346.043
 327.914 349.48 324.48 349.488 320.238 c 349.488 317.176 l 349.465 305.895
 340.316 296.762 329.035 296.758 c 314.812 296.758 l 312.605 276.699 295.809
 261.43 275.633 261.133 c 275.633 234.363 l 339.43 234.363 l 344.492 234.363
 347.645 233.254 349.961 230.648 c 366.543 212.004 l 370.188 207.879 370.258
 201.703 366.703 197.496 c 350.031 177.898 l 347.93 175.422 344.84 173.996
 341.59 174 c 275.785 174 l 275.785 129.086 l 316.164 128.477 l 339.355 
128.176 360.457 115 370.914 94.297 c 375.801 84.641 l 376.816 82.633 376.719
 80.238 375.539 78.316 c 374.359 76.398 372.266 75.23 370.012 75.23 c h
41.137 117.988 m 30.484 117.988 l 26.77 118.016 23.195 116.559 20.559 113.941
 c 17.922 111.324 16.441 107.762 16.441 104.047 c 16.441 100.332 17.922 
96.77 20.559 94.152 c 23.195 91.531 26.77 90.078 30.484 90.102 c 41.137 
90.102 l h
61.875 117.988 m 50.137 117.988 l 50.137 90.102 l 61.875 90.102 l h
92.938 117.988 m 70.875 117.988 l 70.875 90.102 l 92.938 90.102 l h
32.98 217.867 m 20.137 217.867 l 18.223 217.867 16.668 216.32 16.66 214.406
 c 16.66 193.957 l 16.668 192.043 18.223 190.496 20.137 190.5 c 32.98 190.5
 l h
47.816 217.867 m 41.98 217.867 l 41.98 190.5 l 47.816 190.5 l h
73.852 217.867 m 56.816 217.867 l 56.816 190.5 l 73.852 190.5 l h
97.785 232.867 m 82.852 232.867 l 82.852 175.5 l 97.785 175.5 l h
140.477 146.574 m 142.086 144.633 142.965 142.191 142.961 139.668 c 142.961
 131.102 l 243.656 129.574 l 243.656 174 l 140.477 174 l h
121.219 64.875 m 132.105 64.875 l 133.129 64.875 133.957 65.707 133.961
 66.73 c 133.961 139.668 l 133.957 140.691 133.129 141.523 132.105 141.523
 c 121.219 141.523 l h
117.215 150.523 m 131.477 150.523 l 131.477 174 l 117.219 174 l h
103.789 141.523 m 102.766 141.523 101.938 140.695 101.934 139.672 c 101.934
 66.73 l 101.938 65.707 102.766 64.875 103.789 64.875 c 112.215 64.875 l
 112.215 141.523 l h
329.035 305.758 m 335.348 305.754 340.469 310.863 340.488 317.176 c 340.488
 318.922 l 43.512 319.125 l 43.512 317.176 l 43.531 310.863 48.652 305.754
 54.965 305.758 c h
305.742 296.758 m 78.258 296.758 l 80.418 281.535 93.41 270.199 108.781
 270.121 c 275.219 270.121 l 290.59 270.199 303.582 281.535 305.742 296.758
 c h
117.359 261.121 m 117.359 234.367 l 131.586 234.367 l 131.586 261.121 l
 h
140.586 261.121 m 140.586 234.367 l 243.406 234.367 l 243.406 261.121 l
 h
252.406 261.121 m 252.406 234.367 l 266.633 234.367 l 266.633 261.121 l
 h
343.234 224.672 m 342.824 225.137 341.543 225.371 339.43 225.371 c 106.785
 225.371 l 106.785 209.945 l 357.102 209.082 l h
340.84 183 m 341.676 182.996 342.492 183.25 343.176 183.73 c 357.086 200.082
 l 106.785 200.945 l 106.785 183 l h
252.652 174 m 252.652 129.438 l 266.785 129.223 l 266.785 174 l h
316.027 119.477 m 142.961 122.102 l 142.961 98.668 l 357.562 98.668 l 347.629
 111.594 332.324 119.258 316.027 119.477 c h
363.164 89.668 m 142.961 89.668 l 142.961 84.23 l 365.918 84.23 l h
363.164 89.668 m f
Q Q
showpage
%%Trailer
end
%%EOF
