%!PS-Adobe-3.0 EPSF-3.0
%%Creator: cairo 1.16.0 (https://cairographics.org)
%%CreationDate: Mon Dec 14 10:24:03 2020
%%Pages: 1
%%DocumentData: Clean7Bit
%%LanguageLevel: 2
%%BoundingBox: 7 11 377 373
%%EndComments
%%BeginProlog
50 dict begin
/q { gsave } bind def
/Q { grestore } bind def
/cm { 6 array astore concat } bind def
/w { setlinewidth } bind def
/J { setlinecap } bind def
/j { setlinejoin } bind def
/M { setmiterlimit } bind def
/d { setdash } bind def
/m { moveto } bind def
/l { lineto } bind def
/c { curveto } bind def
/h { closepath } bind def
/re { exch dup neg 3 1 roll 5 3 roll moveto 0 rlineto
      0 exch rlineto 0 rlineto closepath } bind def
/S { stroke } bind def
/f { fill } bind def
/f* { eofill } bind def
/n { newpath } bind def
/W { clip } bind def
/W* { eoclip } bind def
/BT { } bind def
/ET { } bind def
/BDC { mark 3 1 roll /BDC pdfmark } bind def
/EMC { mark /EMC pdfmark } bind def
/cairo_store_point { /cairo_point_y exch def /cairo_point_x exch def } def
/Tj { show currentpoint cairo_store_point } bind def
/TJ {
  {
    dup
    type /stringtype eq
    { show } { -0.001 mul 0 cairo_font_matrix dtransform rmoveto } ifelse
  } forall
  currentpoint cairo_store_point
} bind def
/cairo_selectfont { cairo_font_matrix aload pop pop pop 0 0 6 array astore
    cairo_font exch selectfont cairo_point_x cairo_point_y moveto } bind def
/Tf { pop /cairo_font exch def /cairo_font_matrix where
      { pop cairo_selectfont } if } bind def
/Td { matrix translate cairo_font_matrix matrix concatmatrix dup
      /cairo_font_matrix exch def dup 4 get exch 5 get cairo_store_point
      /cairo_font where { pop cairo_selectfont } if } bind def
/Tm { 2 copy 8 2 roll 6 array astore /cairo_font_matrix exch def
      cairo_store_point /cairo_font where { pop cairo_selectfont } if } bind def
/g { setgray } bind def
/rg { setrgbcolor } bind def
/d1 { setcachedevice } bind def
/cairo_data_source {
  CairoDataIndex CairoData length lt
    { CairoData CairoDataIndex get /CairoDataIndex CairoDataIndex 1 add def }
    { () } ifelse
} def
/cairo_flush_ascii85_file { cairo_ascii85_file status { cairo_ascii85_file flushfile } if } def
/cairo_image { image cairo_flush_ascii85_file } def
/cairo_imagemask { imagemask cairo_flush_ascii85_file } def
%%EndProlog
%%BeginSetup
%%EndSetup
%%Page: 1 1
%%BeginPageSetup
%%PageBoundingBox: 7 11 377 373
%%EndPageSetup
q 7 11 370 362 rectclip
1 0 0 -1 0 384 cm q
0.909804 0.705882 0.521569 rg
152.691 282.023 m 102.594 233.203 l 99.734 230.266 95.594 228.965 91.57
 229.734 c 87.547 230.508 84.18 233.25 82.613 237.039 c 77.379 249.703 l
 75.449 254.355 76.59 259.711 80.242 263.176 c 124.371 305.078 l 127.91 
308.434 133.109 309.355 137.586 307.426 c 149.453 302.297 l 153.273 300.648
 155.988 297.16 156.645 293.051 c 157.301 288.941 155.809 284.781 152.691
 282.023 c h
152.691 282.023 m f
0.780392 0.603922 0.513726 rg
116.625 297.719 m 74.391 336.594 l 59.781 321.996 l 101.086 282.969 l h
116.625 297.719 m f
0.709804 0.509804 0.419608 rg
101.086 282.969 m 59.781 321.996 l 45.238 307.461 l 86.34 268.965 l h
101.086 282.969 m f
0.909804 0.705882 0.521569 rg
74.391 336.594 m 58.727 351.016 l 29.707 322.02 l 29.699 322.012 l 45.238
 307.461 l 59.781 321.996 l h
74.391 336.594 m f
0.709804 0.509804 0.419608 rg
58.727 351.016 m 46.273 362.477 l 38.012 370.156 25.086 369.684 17.402 
361.422 c 9.723 353.156 10.195 340.23 18.457 332.551 c 29.699 322.012 l 
29.707 322.02 l h
58.727 351.016 m f
0.819608 0.627451 0.470588 rg
102.594 233.203 m 99.734 230.266 95.594 228.965 91.57 229.734 c 87.547 
230.508 84.18 233.25 82.613 237.039 c 77.379 249.703 l 75.449 254.355 76.59
 259.711 80.242 263.176 c 93 275.285 l 91.184 272.039 90.957 268.141 92.379
 264.703 c 97.617 252.039 l 99.184 248.25 102.547 245.508 106.574 244.734
 c 110.598 243.965 114.738 245.266 117.594 248.203 c h
102.594 233.203 m f
0.709804 0.509804 0.419608 rg
372 347.453 m 371.996 355.562 367.195 362.898 359.77 366.156 c 352.34 369.41
 343.691 367.965 337.727 362.477 c 325.273 351.016 l 354.301 322.012 l 365.543
 332.551 l 369.664 336.41 372.004 341.805 372 347.453 c h
372 347.453 m f
0.988235 0.792157 0.239216 rg
367.566 20.039 m 370.355 22.684 371.953 26.344 372 30.184 c 372.043 34.027
 370.531 37.723 367.809 40.434 c 357.879 50.309 l 337.746 29.992 l 347.82
 20.168 l 353.301 14.828 362.02 14.77 367.566 20.039 c h
367.566 20.039 m f
0.564706 0.819608 0.772549 rg
337.746 29.992 m 357.879 50.309 l 274.02 133.785 l 252.488 113.121 l h
337.746 29.992 m f
0.909804 0.705882 0.521569 rg
354.301 322.012 m 325.273 351.016 l 309.613 336.602 l 309.691 336.516 l
 338.746 307.477 l 338.762 307.461 l h
354.301 322.012 m f
0.780392 0.603922 0.513726 rg
338.762 307.461 m 338.746 307.477 l 324.219 321.996 l 282.914 282.969 l
 297.66 268.965 l h
338.762 307.461 m f
0.709804 0.509804 0.419608 rg
324.219 321.996 m 309.691 336.516 l 309.613 336.602 l 267.375 297.719 l
 282.914 282.969 l h
324.219 321.996 m f
0.909804 0.705882 0.521569 rg
306.621 249.703 m 301.387 237.039 l 299.82 233.25 296.453 230.508 292.43
 229.734 c 288.406 228.965 284.266 230.266 281.406 233.203 c 231.309 282.023
 l 228.191 284.781 226.699 288.941 227.355 293.051 c 228.012 297.16 230.727
 300.648 234.547 302.297 c 246.414 307.426 l 250.891 309.355 256.09 308.434
 259.629 305.078 c 303.758 263.176 l 307.41 259.711 308.551 254.355 306.621
 249.703 c h
306.621 249.703 m f
0.988235 0.792157 0.239216 rg
274.02 133.785 m 258.434 149.297 l 237.039 128.184 l 252.488 113.121 l 
h
274.02 133.785 m f
0.564706 0.819608 0.772549 rg
237.039 128.184 m 142.441 220.418 l 164.371 242.918 l 258.434 149.297 l
 h
237.039 128.184 m f
0.988235 0.792157 0.239216 rg
135.059 116.578 m 113.953 137.738 l 99.383 123.234 l 120.512 102.398 l 
120.516 102.391 l h
135.059 116.578 m f
0.678431 0.941176 0.898039 rg
120.516 102.391 m 120.512 102.398 l 99.383 123.234 l 26.121 50.316 l 46.254
 29.992 l h
120.516 102.391 m f
0.988235 0.792157 0.239216 rg
46.254 29.992 m 26.121 50.316 l 16.191 40.434 l 10.652 34.902 10.617 25.938
 16.113 20.367 c 21.609 14.793 30.574 14.703 36.18 20.168 c h
46.254 29.992 m f
268.395 246.578 m 271.211 249.32 272.766 253.109 272.691 257.043 c 272.613
 260.973 270.91 264.699 267.988 267.328 c 265.508 269.574 l 259.887 274.637
 251.285 274.422 245.926 269.086 c 218.918 242.203 l 241.559 220.418 l h
268.395 246.578 m f
142.441 220.418 m 164.371 242.918 l 138.074 269.086 l 132.715 274.422 124.113
 274.637 118.492 269.574 c 116.012 267.328 l 113.09 264.699 111.387 260.973
 111.309 257.043 c 111.234 253.109 112.789 249.32 115.605 246.578 c h
142.441 220.418 m f
0.678431 0.941176 0.898039 rg
135.059 116.578 m 113.953 137.738 l 218.918 242.203 l 241.559 220.418 l
 h
135.059 116.578 m f
0.156863 0.258824 0.407843 rg
376.5 30.133 m 376.41 22.641 371.859 15.918 364.938 13.051 c 358.012 10.184
 350.043 11.715 344.68 16.949 c 192 165.809 l 39.32 16.949 l 31.93 9.832
 20.191 9.984 12.988 17.289 c 5.781 24.594 5.797 36.336 13.016 43.625 c 
163.602 193.5 l 115.688 240.215 l 105.816 230.062 l 101.902 226.039 96.23
 224.254 90.719 225.312 c 85.207 226.371 80.598 230.129 78.453 235.312 c
 73.215 247.988 l 70.609 254.359 72.168 261.68 77.141 266.438 c 79.785 268.945
 l 15.383 329.27 l 8.062 336.129 5.57 346.715 9.059 356.121 c 12.551 365.531
 21.344 371.93 31.371 372.352 c 31.734 372.367 32.098 372.375 32.461 372.375
 c 38.715 372.387 44.738 370.031 49.324 365.785 c 116.578 303.879 l 121.277
 308.34 l 126.117 312.941 133.242 314.207 139.375 311.555 c 151.238 306.426
 l 156.473 304.164 160.188 299.387 161.09 293.754 c 161.988 288.125 159.945
 282.426 155.676 278.648 c 144.648 268.898 l 192 221.766 l 239.352 268.895
 l 228.324 278.645 l 224.055 282.422 222.012 288.121 222.91 293.75 c 223.809
 299.383 227.527 304.16 232.758 306.422 c 244.625 311.551 l 250.758 314.203
 257.883 312.938 262.723 308.336 c 267.422 303.875 l 334.676 365.781 l 339.262
 370.027 345.285 372.383 351.539 372.371 c 351.902 372.371 352.266 372.363
 352.629 372.348 c 362.656 371.926 371.449 365.527 374.941 356.121 c 378.43
 346.711 375.938 336.125 368.617 329.266 c 304.215 268.941 l 306.859 266.434
 l 311.832 261.672 313.391 254.355 310.785 247.984 c 305.547 235.309 l 303.402
 230.121 298.793 226.363 293.281 225.309 c 287.77 224.25 282.098 226.035
 278.184 230.059 c 268.312 240.207 l 220.402 193.5 l 370.984 43.625 l 374.582
 40.066 376.574 35.195 376.5 30.133 c h
19.363 37.246 m 15.578 33.465 15.559 27.332 19.316 23.523 c 23.074 19.715
 29.207 19.656 33.039 23.391 c 39.863 30.047 l 26.102 43.949 l h
32.477 50.297 m 46.309 36.328 l 114.086 102.414 l 99.395 116.898 l h
105.773 123.25 m 120.531 108.699 l 128.664 116.625 l 113.941 131.375 l 
h
86.324 275.152 m 94.547 282.957 l 59.871 315.723 l 51.715 307.57 l h
43.23 359.164 m 36.777 365.051 26.785 364.637 20.836 358.242 c 14.887 351.844
 15.199 341.852 21.535 335.84 c 29.605 328.273 l 52.227 350.879 l h
58.852 344.785 m 36.18 322.125 l 45.141 313.727 l 67.891 336.461 l h
74.52 330.359 m 66.238 322.086 l 101.078 289.16 l 110.035 297.664 l h
149.711 285.391 m 151.676 287.129 152.613 289.75 152.199 292.336 c 151.785
 294.926 150.078 297.125 147.668 298.164 c 135.805 303.289 l 132.98 304.516
 129.703 303.93 127.473 301.812 c 83.34 259.91 l 81.051 257.719 80.336 254.355
 81.531 251.426 c 86.77 238.754 l 87.758 236.367 89.879 234.637 92.418 234.148
 c 94.953 233.664 97.562 234.484 99.363 236.336 c 109.633 246.895 l 104.844
 254.586 106.262 264.605 112.996 270.668 c 115.477 272.91 l 121.668 278.492
 130.801 279.312 137.891 274.926 c h
134.902 265.898 m 131.234 269.551 125.352 269.695 121.508 266.227 c 119.02
 263.988 l 117.023 262.188 115.863 259.641 115.812 256.957 c 115.758 254.27
 116.82 251.68 118.746 249.805 c 142.355 226.781 l 158.039 242.871 l h
164.418 236.52 m 148.801 220.5 l 169.98 199.852 l 185.625 215.418 l h
273.965 297.668 m 282.922 289.164 l 317.762 322.086 l 309.48 330.363 l 
h
362.465 335.836 m 368.801 341.848 369.113 351.844 363.164 358.238 c 357.215
 364.637 347.227 365.047 340.77 359.16 c 331.777 350.883 l 354.395 328.273
 l h
347.82 322.125 m 325.148 344.785 l 316.109 336.457 l 338.859 313.727 l 
h
332.285 307.574 m 324.129 315.727 l 289.457 282.961 l 297.68 275.164 l 
h
268.523 272.918 m 271.004 270.676 l 277.738 264.613 279.156 254.594 274.367
 246.902 c 284.637 236.348 l 286.438 234.496 289.047 233.672 291.582 234.16
 c 294.121 234.648 296.242 236.375 297.23 238.762 c 302.469 251.438 l 303.664
 254.367 302.949 257.73 300.66 259.918 c 256.527 301.82 l 254.297 303.941
 251.02 304.523 248.195 303.301 c 236.328 298.172 l 233.922 297.133 232.215
 294.938 231.801 292.348 c 231.387 289.758 232.324 287.137 234.289 285.398
 c 246.109 274.941 l 253.199 279.328 262.332 278.504 268.523 272.922 c h
265.254 249.809 m 267.18 251.684 268.242 254.273 268.188 256.961 c 268.137
 259.648 266.977 262.195 264.98 263.992 c 262.492 266.234 l 258.648 269.699
 252.766 269.555 249.098 265.906 c 225.348 242.266 l 241.543 226.688 l h
235.094 220.402 m 218.969 235.918 l 120.32 137.727 l 135.105 122.91 l h
213.957 187.223 m 198.449 172.094 l 237.023 134.484 l 252.047 149.309 l
 h
258.422 142.965 m 243.465 128.207 l 252.508 119.391 l 267.578 133.852 l
 h
273.961 127.5 m 258.961 113.102 l 337.691 36.328 l 351.523 50.293 l h
364.637 37.246 m 357.906 43.941 l 344.137 30.047 l 350.961 23.391 l 354.789
 19.617 360.949 19.656 364.727 23.484 c 368.5 27.309 368.461 33.473 364.633
 37.246 c h
364.637 37.246 m f
100.246 151.605 m 104.258 151.605 106.266 146.758 103.43 143.922 c 93.355
 133.852 l 91.602 132.07 88.734 132.059 86.965 133.824 c 85.199 135.59 85.211
 138.461 86.992 140.215 c 97.062 150.285 l 97.906 151.133 99.051 151.605
 100.246 151.605 c h
100.246 151.605 m f
78.121 130.125 m 82.129 130.125 84.137 125.277 81.301 122.441 c 48.629 
89.766 l 44.383 85.59 38.09 91.887 42.262 96.129 c 74.938 128.805 l 75.781
 129.648 76.926 130.125 78.121 130.125 c h
78.121 130.125 m f
33.574 85.574 m 37.582 85.574 39.59 80.727 36.754 77.895 c 34.203 75.344
 l 32.453 73.562 29.582 73.551 27.816 75.316 c 26.047 77.086 26.059 79.953
 27.84 81.707 c 30.391 84.258 l 31.234 85.102 32.379 85.578 33.574 85.574
 c h
33.574 85.574 m f
Q Q
showpage
%%Trailer
end
%%EOF
