%!PS-Adobe-3.0 EPSF-3.0
%%Creator: cairo 1.16.0 (https://cairographics.org)
%%CreationDate: Mon Dec 14 10:24:05 2020
%%Pages: 1
%%DocumentData: Clean7Bit
%%LanguageLevel: 2
%%BoundingBox: 13 12 371 372
%%EndComments
%%BeginProlog
50 dict begin
/q { gsave } bind def
/Q { grestore } bind def
/cm { 6 array astore concat } bind def
/w { setlinewidth } bind def
/J { setlinecap } bind def
/j { setlinejoin } bind def
/M { setmiterlimit } bind def
/d { setdash } bind def
/m { moveto } bind def
/l { lineto } bind def
/c { curveto } bind def
/h { closepath } bind def
/re { exch dup neg 3 1 roll 5 3 roll moveto 0 rlineto
      0 exch rlineto 0 rlineto closepath } bind def
/S { stroke } bind def
/f { fill } bind def
/f* { eofill } bind def
/n { newpath } bind def
/W { clip } bind def
/W* { eoclip } bind def
/BT { } bind def
/ET { } bind def
/BDC { mark 3 1 roll /BDC pdfmark } bind def
/EMC { mark /EMC pdfmark } bind def
/cairo_store_point { /cairo_point_y exch def /cairo_point_x exch def } def
/Tj { show currentpoint cairo_store_point } bind def
/TJ {
  {
    dup
    type /stringtype eq
    { show } { -0.001 mul 0 cairo_font_matrix dtransform rmoveto } ifelse
  } forall
  currentpoint cairo_store_point
} bind def
/cairo_selectfont { cairo_font_matrix aload pop pop pop 0 0 6 array astore
    cairo_font exch selectfont cairo_point_x cairo_point_y moveto } bind def
/Tf { pop /cairo_font exch def /cairo_font_matrix where
      { pop cairo_selectfont } if } bind def
/Td { matrix translate cairo_font_matrix matrix concatmatrix dup
      /cairo_font_matrix exch def dup 4 get exch 5 get cairo_store_point
      /cairo_font where { pop cairo_selectfont } if } bind def
/Tm { 2 copy 8 2 roll 6 array astore /cairo_font_matrix exch def
      cairo_store_point /cairo_font where { pop cairo_selectfont } if } bind def
/g { setgray } bind def
/rg { setrgbcolor } bind def
/d1 { setcachedevice } bind def
/cairo_data_source {
  CairoDataIndex CairoData length lt
    { CairoData CairoDataIndex get /CairoDataIndex CairoDataIndex 1 add def }
    { () } ifelse
} def
/cairo_flush_ascii85_file { cairo_ascii85_file status { cairo_ascii85_file flushfile } if } def
/cairo_image { image cairo_flush_ascii85_file } def
/cairo_imagemask { imagemask cairo_flush_ascii85_file } def
%%EndProlog
%%BeginSetup
%%EndSetup
%%Page: 1 1
%%BeginPageSetup
%%PageBoundingBox: 13 12 371 372
%%EndPageSetup
q 13 12 358 360 rectclip
1 0 0 -1 0 384 cm q
0.878431 0.937255 0.976471 rg
85.273 65.488 m 85.246 65.332 85.242 65.168 85.266 65.012 c 85.254 65.004
 l 18.652 242.227 l 17.148 246.242 17.305 250.691 19.086 254.594 c 20.863
 258.492 24.121 261.527 28.141 263.023 c 60.699 275.168 l 64.758 276.68 
69.258 276.5 73.184 274.664 c 77.109 272.828 80.129 269.488 81.57 265.402
 c 107.379 192.129 l h
85.273 65.488 m f
0.788235 0.85098 0.886275 rg
41.152 242.227 m 92.344 106 l 85.273 65.488 l 85.246 65.332 85.242 65.168
 85.266 65.012 c 85.254 65.004 l 18.652 242.227 l 17.148 246.242 17.305 
250.691 19.086 254.594 c 20.863 258.492 24.121 261.527 28.141 263.023 c 
60.699 275.168 l 66.02 277.156 71.996 276.195 76.43 272.645 c 50.641 263.023
 l 46.621 261.527 43.363 258.492 41.586 254.594 c 39.805 250.691 39.648 
246.242 41.152 242.227 c h
41.152 242.227 m f
0.878431 0.937255 0.976471 rg
241.641 25.508 m 243.898 28.734 l 221.062 56.461 202.215 81.898 186.801
 104.488 c 174.039 92.273 137.656 28.734 137.656 28.734 c 140.34 25.043 
l 144.035 19.973 149.938 16.98 156.211 16.996 c 225.684 17.184 l 232.039
 17.199 237.992 20.305 241.641 25.508 c h
241.641 25.508 m f
0.690196 0.709804 0.792157 rg
137.656 28.734 m 85.906 63.996 l 85.566 64.234 85.336 64.602 85.266 65.012
 c 85.242 65.168 85.246 65.332 85.273 65.488 c 109.906 206.602 l 110.754
 211.492 115 215.059 119.961 215.055 c 124.746 215.055 l 124.98 214.395 
140.461 172.336 186.801 104.488 c 174.039 92.273 137.656 28.734 137.656 
28.734 c h
137.656 28.734 m f
0.878431 0.937255 0.976471 rg
365.301 241.531 m 366.84 245.547 366.711 250.012 364.945 253.934 c 363.18
 257.855 359.922 260.91 355.898 262.426 c 321.562 275.324 l 313.297 278.426
 304.074 274.316 300.848 266.102 c 273.727 196.957 l 273.727 196.949 l 297.426
 65.504 l 297.473 65.25 297.453 64.984 297.367 64.738 c h
365.301 241.531 m f
0.6 0.615686 0.678431 rg
107.766 65.012 m 107.836 64.602 108.066 64.234 108.406 63.996 c 144.043
 39.711 l 140.145 33.078 137.656 28.734 137.656 28.734 c 85.906 63.996 l
 85.566 64.234 85.336 64.602 85.266 65.012 c 85.242 65.168 85.246 65.332
 85.273 65.488 c 109.906 206.602 l 110.754 211.492 115 215.059 119.961 215.055
 c 124.746 215.055 l 124.828 214.824 126.773 209.543 131.234 199.887 c 107.773
 65.488 l 107.746 65.332 107.742 65.168 107.766 65.012 c h
107.766 65.012 m f
0.8 0.827451 0.87451 rg
301.859 330.238 m 267.238 242.379 l 261.93 215.055 l 266.867 215.051 271.098
 211.52 271.98 206.664 c 297.426 65.504 l 297.473 65.25 297.453 64.984 297.367
 64.738 c 297.258 64.434 297.055 64.172 296.781 63.988 c 243.898 28.734 
l 221.062 56.461 202.215 81.898 186.801 104.488 c 140.461 172.336 124.98
 214.395 124.746 215.055 c 117.031 245.34 l 80.82 326.977 l 76.957 336.164
 82.531 345.676 91.949 348.953 c 145.254 367.508 228.848 377.047 292.875
 351.156 c 301.102 347.828 305.109 338.496 301.859 330.238 c h
301.859 330.238 m f
0.290196 0.317647 0.376471 rg
257.559 301.184 m 214.973 243.906 l 214.973 244.254 l 198.262 247.484 l
 229.363 321.383 l 229.746 322.332 230.945 322.629 231.727 321.969 c 257.324
 303.219 l 257.926 302.707 258.027 301.816 257.559 301.184 c h
257.559 301.184 m f
0.427451 0.454902 0.52549 rg
167.102 244.254 m 123.594 301.254 l 123.039 301.977 123.254 303.027 124.051
 303.473 c 147.93 316.836 l 148.66 317.25 149.59 316.98 149.984 316.238 
c 186.809 247.484 l h
167.102 244.254 m f
0.682353 0.713726 0.756863 rg
103.32 326.977 m 139.531 245.34 l 147.246 215.055 l 147.48 214.395 162.961
 172.336 209.301 104.488 c 222.895 84.566 239.164 62.426 258.48 38.453 c
 243.898 28.734 l 221.062 56.461 202.215 81.898 186.801 104.488 c 140.461
 172.336 124.98 214.395 124.746 215.055 c 117.031 245.34 l 80.82 326.977
 l 76.957 336.164 82.531 345.676 91.949 348.953 c 124.758 360.371 169.039
 368.379 213.176 366.801 c 176.793 365.551 141.676 358.426 114.449 348.953
 c 105.031 345.676 99.457 336.164 103.32 326.977 c h
103.32 326.977 m f
0.427451 0.454902 0.52549 rg
266.168 214.133 m 264.836 214.742 263.391 215.055 261.93 215.055 c 119.961
 215.055 l 118.969 215.055 117.98 214.91 117.031 214.629 c 117.031 245.34
 l 214.973 243.906 l 267.238 242.379 l h
266.168 214.133 m f
0.27451 0.537255 0.827451 rg
211.746 208.133 m 170.332 208.133 l 168.547 208.133 167.102 209.578 167.102
 211.363 c 167.102 244.254 l 167.102 246.039 168.547 247.484 170.332 247.484
 c 211.746 247.484 l 213.531 247.48 214.973 246.035 214.973 244.254 c 214.973
 211.363 l 214.973 209.582 213.531 208.137 211.746 208.133 c h
211.746 208.133 m f
0.352941 0.376471 0.427451 rg
124.746 215.055 m 119.961 215.055 l 118.969 215.055 117.98 214.91 117.031
 214.629 c 117.031 245.34 l 139.531 245.012 l 139.531 215.055 l h
124.746 215.055 m f
0.156863 0.258824 0.407843 rg
274.785 211.965 m 296.66 267.742 l 299.801 275.648 307.449 280.844 315.961
 280.84 c 318.414 280.84 320.848 280.398 323.148 279.535 c 357.477 266.641
 l 362.629 264.707 366.793 260.797 369.051 255.777 c 371.309 250.762 371.473
 245.051 369.504 239.914 c 301.566 63.125 l 301.555 63.129 l 301.117 61.957
 300.324 60.949 299.281 60.25 c 247.102 25.453 l 245.324 22.926 l 240.828
 16.527 233.508 12.711 225.691 12.684 c 156.227 12.496 l 148.512 12.488 
141.258 16.164 136.707 22.391 c 134.48 25.449 l 83.371 60.277 l 82.27 61.035
 81.449 62.141 81.047 63.422 c 81.039 63.422 l 14.438 240.656 l 12.52 245.789
 12.719 251.477 14.992 256.465 c 17.266 261.453 21.43 265.332 26.566 267.246
 c 59.121 279.391 l 64.316 281.328 70.074 281.094 75.094 278.746 c 80.117
 276.395 83.98 272.125 85.824 266.898 c 106.027 209.531 l 107.152 212.902
 109.465 215.754 112.535 217.551 c 112.535 244.387 l 76.707 325.152 l 76.695
 325.176 76.684 325.203 76.672 325.23 c 74.512 330.277 74.559 335.996 76.805
 341.008 c 79.488 346.777 84.434 351.184 90.469 353.199 c 119.855 363.43
 154.562 369.828 188.207 371.219 c 192.812 371.41 197.371 371.504 201.887
 371.504 c 236.426 371.504 268.234 365.973 294.562 355.328 c 305.051 351.051
 310.164 339.145 306.047 328.594 c 271.707 241.438 l 270.766 216.594 l 272.414
 215.352 273.785 213.773 274.785 211.965 c h
361.102 243.137 m 362.211 246.035 362.117 249.254 360.844 252.086 c 359.566
 254.914 357.219 257.117 354.312 258.211 c 319.984 271.105 l 314.02 273.316
 307.383 270.363 305.039 264.449 c 278.383 196.492 l 299.074 81.73 l h
143.98 27.688 m 146.82 23.801 151.344 21.5 156.16 21.496 c 156.199 21.496
 l 225.668 21.684 l 230.562 21.699 235.145 24.09 237.961 28.094 c 238.258
 28.52 l 217.762 53.551 200.59 76.648 186.383 97.184 c 179.605 88.652 165.422
 67.98 143.012 29.02 c h
77.328 263.902 m 76.289 266.855 74.109 269.266 71.277 270.59 c 68.445 271.914
 65.195 272.047 62.266 270.953 c 29.711 258.812 l 26.812 257.73 24.465 255.543
 23.18 252.73 c 21.898 249.918 21.785 246.707 22.867 243.812 c 83.617 82.152
 l 102.742 191.738 l h
90.039 66.625 m 136.184 35.18 l 144.039 48.719 168.602 90.457 181.074 104.938
 c 165.75 127.566 154.199 146.762 145.898 161.562 c 131.578 187.102 124.281
 204.051 121.66 210.555 c 119.961 210.555 l 117.184 210.559 114.809 208.566
 114.336 205.828 c h
210.477 242.984 m 171.602 242.984 l 171.602 212.633 l 210.477 212.633 l
 h
211.746 251.984 m 212.824 251.984 213.891 251.758 214.875 251.316 c 252.141
 301.438 l 232.047 316.152 l 205.039 251.984 l h
179.293 251.984 m 147.461 311.418 l 129.266 301.234 l 167.324 251.375 l
 168.277 251.777 169.297 251.984 170.332 251.984 c h
162.602 239.852 m 121.531 240.742 l 121.531 219.555 l 162.602 219.555 l
 h
297.676 331.891 m 300.004 337.848 297.113 344.57 291.191 346.984 c 230.082
 371.691 147.836 363.641 93.434 344.703 c 89.742 343.504 86.707 340.844 
85.031 337.344 c 83.797 334.621 83.77 331.5 84.957 328.754 c 119.988 249.781
 l 157.852 248.957 l 120.012 298.523 l 118.957 299.906 118.555 301.676 118.906
 303.379 c 119.258 305.082 120.332 306.551 121.852 307.398 c 145.734 320.766
 l 147.137 321.551 148.801 321.742 150.348 321.289 c 151.895 320.84 153.191
 319.785 153.953 318.367 c 189.504 251.992 l 195.273 251.992 l 225.191 323.078
 l 225.898 324.828 227.391 326.145 229.215 326.629 c 231.043 327.113 232.988
 326.707 234.473 325.539 c 259.98 306.855 l 260.07 306.793 260.156 306.727
 260.238 306.656 c 262.641 304.605 263.047 301.043 261.168 298.504 c 223.738
 248.156 l 264.211 246.969 l h
219.477 239.273 m 219.477 219.555 l 261.871 219.555 l 262.57 238.008 l 
h
267.551 205.863 m 267.062 208.578 264.695 210.559 261.934 210.555 c 219.434
 210.555 l 219.012 206.625 215.699 203.641 211.746 203.633 c 170.328 203.633
 l 166.375 203.641 163.062 206.625 162.641 210.555 c 131.426 210.555 l 139.789
 190.957 170.895 125.086 244.801 34.734 c 292.648 66.645 l h
267.551 205.863 m f
107.48 81.191 m 109.93 80.762 111.566 78.434 111.141 75.984 c 109.957 69.219
 l 109.547 66.754 107.207 65.098 104.746 65.527 c 102.285 65.957 100.645
 68.309 101.094 70.766 c 102.273 77.531 l 102.699 79.98 105.031 81.617 107.48
 81.191 c h
107.48 81.191 m f
118.266 147.508 m 121.062 147.512 123.184 144.988 122.703 142.234 c 113.484
 89.422 l 113.074 86.957 110.734 85.301 108.273 85.73 c 105.812 86.16 104.172
 88.512 104.617 90.969 c 113.836 143.781 l 114.211 145.934 116.082 147.504
 118.266 147.508 c h
118.266 147.508 m f
Q Q
showpage
%%Trailer
end
%%EOF
