%!PS-Adobe-3.0 EPSF-3.0
%%Creator: cairo 1.16.0 (https://cairographics.org)
%%CreationDate: Mon Dec 14 10:24:09 2020
%%Pages: 1
%%DocumentData: Clean7Bit
%%LanguageLevel: 2
%%BoundingBox: 23 5 361 379
%%EndComments
%%BeginProlog
50 dict begin
/q { gsave } bind def
/Q { grestore } bind def
/cm { 6 array astore concat } bind def
/w { setlinewidth } bind def
/J { setlinecap } bind def
/j { setlinejoin } bind def
/M { setmiterlimit } bind def
/d { setdash } bind def
/m { moveto } bind def
/l { lineto } bind def
/c { curveto } bind def
/h { closepath } bind def
/re { exch dup neg 3 1 roll 5 3 roll moveto 0 rlineto
      0 exch rlineto 0 rlineto closepath } bind def
/S { stroke } bind def
/f { fill } bind def
/f* { eofill } bind def
/n { newpath } bind def
/W { clip } bind def
/W* { eoclip } bind def
/BT { } bind def
/ET { } bind def
/BDC { mark 3 1 roll /BDC pdfmark } bind def
/EMC { mark /EMC pdfmark } bind def
/cairo_store_point { /cairo_point_y exch def /cairo_point_x exch def } def
/Tj { show currentpoint cairo_store_point } bind def
/TJ {
  {
    dup
    type /stringtype eq
    { show } { -0.001 mul 0 cairo_font_matrix dtransform rmoveto } ifelse
  } forall
  currentpoint cairo_store_point
} bind def
/cairo_selectfont { cairo_font_matrix aload pop pop pop 0 0 6 array astore
    cairo_font exch selectfont cairo_point_x cairo_point_y moveto } bind def
/Tf { pop /cairo_font exch def /cairo_font_matrix where
      { pop cairo_selectfont } if } bind def
/Td { matrix translate cairo_font_matrix matrix concatmatrix dup
      /cairo_font_matrix exch def dup 4 get exch 5 get cairo_store_point
      /cairo_font where { pop cairo_selectfont } if } bind def
/Tm { 2 copy 8 2 roll 6 array astore /cairo_font_matrix exch def
      cairo_store_point /cairo_font where { pop cairo_selectfont } if } bind def
/g { setgray } bind def
/rg { setrgbcolor } bind def
/d1 { setcachedevice } bind def
/cairo_data_source {
  CairoDataIndex CairoData length lt
    { CairoData CairoDataIndex get /CairoDataIndex CairoDataIndex 1 add def }
    { () } ifelse
} def
/cairo_flush_ascii85_file { cairo_ascii85_file status { cairo_ascii85_file flushfile } if } def
/cairo_image { image cairo_flush_ascii85_file } def
/cairo_imagemask { imagemask cairo_flush_ascii85_file } def
%%EndProlog
%%BeginSetup
%%EndSetup
%%Page: 1 1
%%BeginPageSetup
%%PageBoundingBox: 23 5 361 379
%%EndPageSetup
q 23 5 338 374 rectclip
1 0 0 -1 0 384 cm q
0.984314 0.403922 0.443137 rg
58.875 303.789 m 39.121 324 l 78.637 362.551 l 97.746 342.75 l h
58.875 303.789 m f
0.247059 0.247059 0.447059 rg
78.637 362.551 m 74.258 367.078 l 70.062 371.426 64.297 373.902 58.258 
373.953 c 52.215 374.004 46.41 371.625 42.141 367.352 c 34.906 360.098 l
 26.203 351.379 26.133 337.285 34.738 328.477 c 39.121 324 l h
78.637 362.551 m f
0.831373 0.882353 0.956863 rg
341.859 16.012 m 351.488 29.328 356.328 45.512 355.598 61.926 c 159.383
 258.594 l 124.199 223.328 l 336.988 10.043 l 338.75 11.918 340.375 13.91
 341.859 16.012 c h
341.859 16.012 m f
0.654902 0.729412 0.819608 rg
159.383 258.594 m 355.598 61.926 l 354.824 80.473 347.113 98.055 333.996
 111.188 c 173.16 272.391 l h
159.383 258.594 m f
0.337255 0.337255 0.54902 rg
141.254 272.73 m 153.496 284.992 l 97.746 342.75 l 84.57 329.543 l h
141.254 272.73 m f
0.247059 0.247059 0.447059 rg
127.312 258.758 m 141.254 272.73 l 84.57 329.543 l 70.629 315.57 l h
127.312 258.758 m f
0.337255 0.337255 0.54902 rg
114.988 246.406 m 127.312 258.758 l 70.629 315.57 l 58.875 303.789 l h
114.988 246.406 m f
0.698039 0.756863 0.827451 rg
341.859 16.012 m 340.375 13.91 338.75 11.918 336.988 10.043 c 124.199 223.328
 l 139.199 238.328 l 348.93 28.113 l 346.965 23.859 344.598 19.809 341.859
 16.012 c h
341.859 16.012 m f
0.427451 0.454902 0.52549 rg
174.18 273.422 m 124.199 223.328 l 119.738 218.875 112.516 218.887 108.062
 223.348 c 103.613 227.809 103.621 235.031 108.082 239.484 c 158.062 289.574
 l 162.523 294.027 169.746 294.016 174.199 289.555 c 178.648 285.094 178.641
 277.871 174.18 273.422 c h
174.18 273.422 m f
0.329412 0.356863 0.407843 rg
124.199 223.328 m 119.738 218.875 112.516 218.887 108.062 223.348 c 103.613
 227.809 103.621 235.031 108.082 239.484 c 123.082 254.484 l 118.531 250.129
 118.375 242.91 122.727 238.363 c 127.082 233.812 134.297 233.656 138.848
 238.008 c h
124.199 223.328 m f
0.156863 0.258824 0.407843 rg
38.957 370.527 m 44.008 375.621 50.891 378.477 58.062 378.457 c 58.293 
378.457 l 65.547 378.418 72.473 375.441 77.496 370.207 c 153.543 291.418
 l 154.875 292.754 l 157.848 295.75 161.895 297.434 166.117 297.422 c 166.281
 297.422 l 170.559 297.391 174.641 295.625 177.59 292.527 c 182.73 287.094
 183.441 278.836 179.301 272.609 c 337.184 114.367 l 350.289 101.219 358.332
 83.867 359.895 65.367 c 361.461 46.875 356.359 28.43 345.508 13.375 c 343.891
 11.09 342.113 8.918 340.191 6.879 c 339.352 6.027 338.203 5.547 337.004
 5.543 c 336.992 5.543 l 335.797 5.543 334.652 6.02 333.809 6.863 c 123.742
 217.414 l 117.547 214.043 109.875 215.152 104.895 220.145 c 98.703 226.371
 98.703 236.434 104.895 242.66 c 108.664 246.434 l 31.527 325.328 l 21.242
 335.918 21.328 352.793 31.719 363.277 c h
97.695 336.324 m 90.926 329.539 l 141.254 279.102 l 147.188 285.047 l h
84.57 323.168 m 76.984 315.57 l 127.312 265.129 l 134.895 272.727 l h
330.812 108.012 m 173.16 266.023 l 165.742 258.59 l 349.34 74.57 l 346.398
 87.223 339.98 98.805 330.812 108.012 c h
336.734 16.676 m 337.191 17.262 337.691 17.922 338.215 18.648 c 346.883
 30.68 351.418 45.195 351.141 60.023 c 159.383 252.219 l 130.559 223.324
 l h
111.266 226.5 m 112.559 225.203 114.312 224.477 116.141 224.477 c 117.973
 224.477 119.727 225.203 121.016 226.5 c 171 276.602 l 173.645 279.277 173.688
 283.57 171.098 286.301 c 169.816 287.637 168.051 288.402 166.195 288.422
 c 164.344 288.441 162.562 287.711 161.254 286.398 c 111.27 236.297 l 108.574
 233.59 108.574 229.211 111.266 226.5 c h
115.016 252.805 m 120.953 258.754 l 70.629 309.195 l 65.203 303.754 l h
58.91 310.195 m 91.441 342.801 l 78.543 356.168 l 45.488 323.926 l h
37.961 331.621 m 39.195 330.355 l 72.289 362.645 l 71.02 363.957 l 67.664
 367.434 63.051 369.414 58.219 369.457 c 53.387 369.496 48.742 367.594 45.328
 364.172 c 38.09 356.918 l 31.164 349.93 31.105 338.68 37.961 331.621 c 
h
37.961 331.621 m f
251.891 126.961 m 253.082 126.965 254.227 126.488 255.07 125.645 c 265.145
 115.57 l 269.316 111.328 263.023 105.035 258.777 109.207 c 248.707 119.281
 l 245.871 122.117 247.879 126.961 251.891 126.961 c h
251.891 126.961 m f
273.375 104.836 m 274.57 104.84 275.715 104.363 276.559 103.52 c 309.234
 70.844 l 313.406 66.602 307.109 60.305 302.867 64.48 c 270.191 97.152 l
 267.355 99.988 269.367 104.836 273.375 104.836 c h
273.375 104.836 m f
317.918 60.289 m 319.113 60.289 320.258 59.816 321.102 58.969 c 323.652
 56.422 l 327.895 52.176 321.531 45.812 317.289 50.055 c 314.738 52.605 
l 311.902 55.441 313.91 60.289 317.918 60.289 c h
317.918 60.289 m f
Q Q
showpage
%%Trailer
end
%%EOF
