%!PS-Adobe-3.0 EPSF-3.0
%%Creator: cairo 1.16.0 (https://cairographics.org)
%%CreationDate: Mon Dec 14 10:24:12 2020
%%Pages: 1
%%DocumentData: Clean7Bit
%%LanguageLevel: 2
%%BoundingBox: 7 7 377 377
%%EndComments
%%BeginProlog
50 dict begin
/q { gsave } bind def
/Q { grestore } bind def
/cm { 6 array astore concat } bind def
/w { setlinewidth } bind def
/J { setlinecap } bind def
/j { setlinejoin } bind def
/M { setmiterlimit } bind def
/d { setdash } bind def
/m { moveto } bind def
/l { lineto } bind def
/c { curveto } bind def
/h { closepath } bind def
/re { exch dup neg 3 1 roll 5 3 roll moveto 0 rlineto
      0 exch rlineto 0 rlineto closepath } bind def
/S { stroke } bind def
/f { fill } bind def
/f* { eofill } bind def
/n { newpath } bind def
/W { clip } bind def
/W* { eoclip } bind def
/BT { } bind def
/ET { } bind def
/BDC { mark 3 1 roll /BDC pdfmark } bind def
/EMC { mark /EMC pdfmark } bind def
/cairo_store_point { /cairo_point_y exch def /cairo_point_x exch def } def
/Tj { show currentpoint cairo_store_point } bind def
/TJ {
  {
    dup
    type /stringtype eq
    { show } { -0.001 mul 0 cairo_font_matrix dtransform rmoveto } ifelse
  } forall
  currentpoint cairo_store_point
} bind def
/cairo_selectfont { cairo_font_matrix aload pop pop pop 0 0 6 array astore
    cairo_font exch selectfont cairo_point_x cairo_point_y moveto } bind def
/Tf { pop /cairo_font exch def /cairo_font_matrix where
      { pop cairo_selectfont } if } bind def
/Td { matrix translate cairo_font_matrix matrix concatmatrix dup
      /cairo_font_matrix exch def dup 4 get exch 5 get cairo_store_point
      /cairo_font where { pop cairo_selectfont } if } bind def
/Tm { 2 copy 8 2 roll 6 array astore /cairo_font_matrix exch def
      cairo_store_point /cairo_font where { pop cairo_selectfont } if } bind def
/g { setgray } bind def
/rg { setrgbcolor } bind def
/d1 { setcachedevice } bind def
/cairo_data_source {
  CairoDataIndex CairoData length lt
    { CairoData CairoDataIndex get /CairoDataIndex CairoDataIndex 1 add def }
    { () } ifelse
} def
/cairo_flush_ascii85_file { cairo_ascii85_file status { cairo_ascii85_file flushfile } if } def
/cairo_image { image cairo_flush_ascii85_file } def
/cairo_imagemask { imagemask cairo_flush_ascii85_file } def
%%EndProlog
%%BeginSetup
%%EndSetup
%%Page: 1 1
%%BeginPageSetup
%%PageBoundingBox: 7 7 377 377
%%EndPageSetup
q 7 7 370 370 rectclip
1 0 0 -1 0 384 cm q
0.929412 0.717647 0.25098 rg
371.324 12.652 m 371.969 13.277 372.172 14.227 371.844 15.059 c 302.648
 195.352 l 302.059 196.891 301.078 198.246 299.805 199.289 c 299.797 199.289
 l 214.23 171.383 l h
371.324 12.652 m f
0.976471 0.831373 0.219608 rg
371.324 12.652 m 214.23 171.383 l 185.281 86.121 l 186.215 85.133 187.352
 84.359 188.617 83.859 c 368.918 12.164 l 369.746 11.828 370.695 12.02 371.324
 12.652 c h
371.324 12.652 m f
0.27451 0.537255 0.827451 rg
214.23 171.383 m 299.797 199.289 l 298.809 200.102 297.668 200.703 296.438
 201.059 c 191.324 231.457 l 173.348 212.684 l h
214.23 171.383 m f
0.372549 0.658824 0.929412 rg
185.281 86.121 m 214.23 171.383 l 173.348 212.684 l 153 191.43 l 183.039
 89.977 l 183.465 88.531 184.234 87.207 185.281 86.121 c h
185.281 86.121 m f
0.690196 0.709804 0.792157 rg
156.309 228.023 m 169.156 241.223 l 97.434 315.398 l 95.438 308.918 91.961
 302.992 87.277 298.086 c h
156.309 228.023 m f
0.8 0.827451 0.87451 rg
141.391 212.684 m 156.309 228.023 l 87.277 298.086 l 82.391 292.961 76.328
 289.102 69.613 286.836 c h
141.391 212.684 m f
0.427451 0.454902 0.52549 rg
87.277 298.086 m 102.461 314.035 103.359 338.805 89.367 355.809 c 75.379
 372.812 50.898 376.703 32.324 364.875 c 13.75 353.043 6.926 329.215 16.422
 309.348 c 25.914 289.477 48.742 279.816 69.613 286.836 c 76.328 289.102
 82.391 292.961 87.277 298.086 c h
87.277 298.086 m f
0.290196 0.317647 0.376471 rg
55.898 305.496 m 65.203 305.488 73.598 311.086 77.164 319.684 c 80.734 
328.277 78.77 338.176 72.191 344.758 c 65.617 351.34 55.723 353.312 47.121
 349.754 c 38.523 346.195 32.918 337.805 32.918 328.5 c 32.914 315.805 43.199
 305.504 55.898 305.496 c h
55.898 305.496 m f
0.866667 0.745098 0.227451 rg
339.098 45.215 m 371.324 12.652 l 370.695 12.02 369.746 11.828 368.918 
12.164 c 188.617 83.859 l 187.352 84.359 186.215 85.133 185.281 86.121 c
 195.578 116.457 l f
0.372549 0.658824 0.929412 rg
173.348 212.684 m 173.672 212.355 l 173.328 212.664 l h
173.348 212.684 m f
0.333333 0.592157 0.807843 rg
185.281 86.121 m 184.234 87.207 183.465 88.531 183.039 89.977 c 153 191.43
 l 167.516 206.594 l 195.578 116.457 l h
185.281 86.121 m f
0.780392 0.603922 0.513726 rg
153 191.43 m 141.148 204.766 l 139.113 207.051 139.219 210.527 141.391 
212.684 c 171.18 243.309 l 172.305 244.426 173.84 245.035 175.422 244.984
 c 177.008 244.938 178.504 244.238 179.559 243.051 c 191.324 231.457 l h
153 191.43 m f
0.678431 0.509804 0.435294 rg
156.148 219.766 m 167.691 206.773 l 153 191.43 l 141.148 204.766 l 139.113
 207.051 139.219 210.527 141.391 212.684 c 156.391 227.684 l 154.219 225.527
 154.113 222.051 156.148 219.766 c h
156.148 219.766 m f
0.156863 0.258824 0.407843 rg
55.898 301 m 44.773 300.992 34.742 307.688 30.477 317.965 c 26.215 328.242
 28.566 340.074 36.43 347.941 c 44.293 355.812 56.125 358.168 66.402 353.91
 c 76.68 349.656 83.383 339.625 83.383 328.5 c 83.367 313.324 71.074 301.023
 55.898 301 c h
55.898 347 m 48.414 347.008 41.664 342.508 38.793 335.594 c 35.926 328.68
 37.504 320.719 42.793 315.426 c 48.082 310.129 56.039 308.543 62.957 311.406
 c 69.871 314.27 74.383 321.016 74.383 328.5 c 74.375 338.707 66.105 346.984
 55.898 347 c h
55.898 347 m f
367.254 7.984 m 186.953 79.684 l 182.965 81.258 179.926 84.586 178.719 
88.703 c 148.965 189.191 l 137.785 201.773 l 135.305 204.57 134.535 208.488
 135.773 212.016 c 68.281 281.75 l 47.281 276.043 25.059 285.105 14.039 
303.871 c 3.02 322.641 5.93 346.461 21.145 362.02 c 36.363 377.578 60.113
 381.023 79.121 370.422 c 98.129 359.824 107.684 337.809 102.445 316.688
 c 169.285 247.562 l 171.027 248.809 173.113 249.484 175.254 249.488 c 175.355
 249.488 175.457 249.488 175.562 249.484 c 178.324 249.395 180.934 248.199
 182.809 246.168 c 193.668 235.465 l 297.684 205.387 l 301.883 204.16 305.27
 201.047 306.848 196.969 c 376.051 16.676 l 377.008 14.172 376.398 11.34
 374.492 9.457 c 372.586 7.574 369.75 6.996 367.258 7.984 c h
355.34 22.406 m 216.148 163.039 l 190.633 87.898 l h
184.984 99.254 m 209.074 170.191 l 173.398 206.234 l 158.051 190.207 l 
h
141.395 219.148 m 150.012 228.004 l 87.145 291.816 l 84.176 289.246 80.906
 287.047 77.402 285.27 c h
55.684 367.5 m 39.816 367.516 25.508 357.969 19.426 343.316 c 13.348 328.664
 16.691 311.789 27.906 300.566 c 39.117 289.344 55.988 285.98 70.648 292.051
 c 85.305 298.117 94.863 312.418 94.863 328.285 c 94.848 349.922 77.32 367.465
 55.684 367.5 c h
99.035 307.266 m 97.484 304.082 95.586 301.078 93.379 298.309 c 156.289
 234.457 l 162.887 241.234 l h
176.398 239.852 m 176.324 239.922 176.258 239.992 176.195 240.066 c 175.73
 240.59 174.93 240.637 174.406 240.176 c 144.562 209.5 l 144.082 209.023
 144.062 208.254 144.512 207.75 c 153.121 198.066 l 185.004 231.367 l h
192.688 226.383 m 179.625 212.738 l 215.477 176.52 l 285.789 199.457 l 
h
298.445 193.746 m 298.402 193.859 298.348 193.965 298.297 194.074 c 222.559
 169.363 l 361.801 28.676 l h
298.445 193.746 m f
218.672 91.93 m 269.523 71.711 l 271.844 70.801 272.984 68.176 272.062 
65.855 c 271.141 63.539 268.512 62.414 266.195 63.348 c 215.348 83.57 l 
213.008 84.469 211.855 87.105 212.781 89.43 c 213.707 91.758 216.355 92.883
 218.672 91.93 c h
218.672 91.93 m f
287.707 64.137 m 288.277 64.137 288.84 64.027 289.367 63.816 c 300.148 
59.531 l 302.492 58.637 303.652 55.996 302.727 53.664 c 301.797 51.336 299.145
 50.211 296.824 51.168 c 286.043 55.453 l 281.43 57.285 282.742 64.141 287.707
 64.137 c h
287.707 64.137 m f
Q Q
showpage
%%Trailer
end
%%EOF
