%!PS-Adobe-3.0 EPSF-3.0
%%Creator: cairo 1.16.0 (https://cairographics.org)
%%CreationDate: Mon Dec 14 10:24:14 2020
%%Pages: 1
%%DocumentData: Clean7Bit
%%LanguageLevel: 2
%%BoundingBox: 8 7 376 377
%%EndComments
%%BeginProlog
50 dict begin
/q { gsave } bind def
/Q { grestore } bind def
/cm { 6 array astore concat } bind def
/w { setlinewidth } bind def
/J { setlinecap } bind def
/j { setlinejoin } bind def
/M { setmiterlimit } bind def
/d { setdash } bind def
/m { moveto } bind def
/l { lineto } bind def
/c { curveto } bind def
/h { closepath } bind def
/re { exch dup neg 3 1 roll 5 3 roll moveto 0 rlineto
      0 exch rlineto 0 rlineto closepath } bind def
/S { stroke } bind def
/f { fill } bind def
/f* { eofill } bind def
/n { newpath } bind def
/W { clip } bind def
/W* { eoclip } bind def
/BT { } bind def
/ET { } bind def
/BDC { mark 3 1 roll /BDC pdfmark } bind def
/EMC { mark /EMC pdfmark } bind def
/cairo_store_point { /cairo_point_y exch def /cairo_point_x exch def } def
/Tj { show currentpoint cairo_store_point } bind def
/TJ {
  {
    dup
    type /stringtype eq
    { show } { -0.001 mul 0 cairo_font_matrix dtransform rmoveto } ifelse
  } forall
  currentpoint cairo_store_point
} bind def
/cairo_selectfont { cairo_font_matrix aload pop pop pop 0 0 6 array astore
    cairo_font exch selectfont cairo_point_x cairo_point_y moveto } bind def
/Tf { pop /cairo_font exch def /cairo_font_matrix where
      { pop cairo_selectfont } if } bind def
/Td { matrix translate cairo_font_matrix matrix concatmatrix dup
      /cairo_font_matrix exch def dup 4 get exch 5 get cairo_store_point
      /cairo_font where { pop cairo_selectfont } if } bind def
/Tm { 2 copy 8 2 roll 6 array astore /cairo_font_matrix exch def
      cairo_store_point /cairo_font where { pop cairo_selectfont } if } bind def
/g { setgray } bind def
/rg { setrgbcolor } bind def
/d1 { setcachedevice } bind def
/cairo_data_source {
  CairoDataIndex CairoData length lt
    { CairoData CairoDataIndex get /CairoDataIndex CairoDataIndex 1 add def }
    { () } ifelse
} def
/cairo_flush_ascii85_file { cairo_ascii85_file status { cairo_ascii85_file flushfile } if } def
/cairo_image { image cairo_flush_ascii85_file } def
/cairo_imagemask { imagemask cairo_flush_ascii85_file } def
%%EndProlog
%%BeginSetup
%%EndSetup
%%Page: 1 1
%%BeginPageSetup
%%PageBoundingBox: 8 7 376 377
%%EndPageSetup
q 8 7 368 370 rectclip
1 0 0 -1 0 384 cm q
0.427451 0.454902 0.52549 rg
370.59 120.398 m 371.469 120.926 371.473 122.203 370.598 122.738 c 336.742
 143.543 l 336.734 143.543 l 341.18 129.781 341.754 115.062 338.398 100.996
 c 338.406 100.996 l h
370.59 120.398 m f
341.879 196.305 m 342.137 197.297 341.254 198.215 340.254 197.992 c 298.898
 188.617 l 312.887 181.18 324.301 169.688 331.641 155.648 c 331.648 155.656
 l h
341.879 196.305 m f
338.16 44.445 m 339.164 44.234 340.035 45.156 339.773 46.148 c 330.48 80.805
 l 330.473 80.805 l 323.801 68.977 314.184 59.078 302.559 52.066 c h
338.16 44.445 m f
286.949 193.738 m 266.273 230.184 l 265.77 231.074 264.5 231.121 263.934
 230.266 c 240.457 194.672 l 255.695 199.055 271.902 198.73 286.949 193.738
 c h
286.949 193.738 m f
265.914 12.699 m 283.094 43.695 l 270.125 40.129 256.453 39.941 243.391
 43.156 c 243.383 43.125 l 263.574 12.613 l 264.141 11.762 265.406 11.805
 265.914 12.699 c h
265.914 12.699 m f
181.184 45.938 m 221.055 52.551 l 208.59 60.27 198.527 71.312 192.008 84.441
 c 192 84.441 l 179.746 47.789 l 179.387 46.828 180.164 45.824 181.184 45.938
 c h
181.184 45.938 m f
0.780392 0.603922 0.513726 rg
198.645 165.172 m 88.852 275.496 l 108.141 293.879 l 217.387 183.645 l 
217.387 183.637 l h
198.645 165.172 m f
0.427451 0.454902 0.52549 rg
186.773 140.594 m 153.961 125.266 l 153.027 124.836 152.875 123.57 153.684
 122.934 c 186.441 99.254 l 182.883 112.82 182.996 127.09 186.773 140.594
 c h
186.773 140.594 m f
113.82 299.289 m 82.828 269.766 l 81.633 268.621 79.734 268.664 78.594 
269.863 c 57.391 292.004 l 91.574 326.227 l 113.887 303.562 l 115.066 302.371
 115.035 300.441 113.82 299.289 c h
113.82 299.289 m f
0.290196 0.317647 0.376471 rg
57.391 292.004 m 91.574 326.227 l 74.836 343.223 l 40.891 309.238 l h
57.391 292.004 m f
0.427451 0.454902 0.52549 rg
40.891 309.238 m 74.836 343.223 l 58.102 360.227 l 58.094 360.219 l 24.383
 326.469 l h
40.891 309.238 m f
0.290196 0.317647 0.376471 rg
58.102 360.227 m 53.488 364.906 l 44.297 374.195 29.336 374.336 19.969 
365.219 c 10.602 356.105 10.336 341.145 19.371 331.703 c 24.383 326.469 
l 58.094 360.219 l h
58.102 360.227 m f
0.690196 0.709804 0.792157 rg
340.953 119.176 m 340.953 162.668 305.695 197.926 262.203 197.926 c 218.711
 197.926 183.453 162.668 183.453 119.176 c 183.453 75.684 218.711 40.426
 262.203 40.426 c 305.695 40.426 340.953 75.684 340.953 119.176 c h
340.953 119.176 m f
0.427451 0.454902 0.52549 rg
262.207 98.715 m 270.875 98.703 278.695 103.918 282.02 111.922 c 285.344
 119.926 283.516 129.145 277.395 135.277 c 271.27 141.41 262.055 143.25 
254.043 139.934 c 246.035 136.621 240.812 128.809 240.809 120.141 c 240.805
 108.316 250.383 98.727 262.207 98.715 c h
262.207 98.715 m f
0.615686 0.635294 0.698039 rg
205.953 119.176 m 205.957 80.027 234.711 46.828 273.453 41.227 c 251.816
 38.113 229.859 44.133 212.836 57.848 c 195.809 71.559 185.254 91.73 183.688
 113.535 c 182.121 135.34 189.691 156.812 204.582 172.816 c 219.473 188.82
 240.344 197.918 262.203 197.926 c 265.969 197.926 269.727 197.656 273.453
 197.121 c 234.711 191.523 205.957 158.32 205.953 119.176 c h
205.953 119.176 m f
0.156863 0.258824 0.407843 rg
109.574 238.898 m 110.77 238.898 111.914 238.426 112.758 237.578 c 122.828
 227.508 l 124.625 225.758 124.645 222.875 122.871 221.102 c 121.098 219.328
 118.215 219.348 116.465 221.145 c 106.395 231.215 l 103.559 234.051 105.566
 238.898 109.574 238.898 c h
109.574 238.898 m f
131.059 216.773 m 132.254 216.773 133.398 216.301 134.242 215.453 c 166.918
 182.777 l 168.699 181.027 168.711 178.156 166.945 176.391 c 165.176 174.621
 162.309 174.633 160.555 176.414 c 127.879 209.09 l 125.043 211.926 127.051
 216.773 131.059 216.773 c h
131.059 216.773 m f
178.789 170.906 m 181.34 168.355 l 183.121 166.605 183.133 163.734 181.367
 161.969 c 179.598 160.199 176.73 160.211 174.977 161.992 c 172.426 164.543
 l 168.184 168.785 174.547 175.148 178.789 170.906 c h
178.789 170.906 m f
372.91 116.539 m 342.301 98.09 l 340.664 91.898 338.305 85.914 335.281 
80.266 c 344.117 47.312 l 344.648 45.34 344.113 43.23 342.703 41.746 c 341.297
 40.266 339.219 39.621 337.219 40.047 c 303.285 47.309 l 297.871 44.199 
292.117 41.719 286.141 39.91 c 269.832 10.496 l 268.832 8.711 266.973 7.578
 264.926 7.504 c 262.883 7.43 260.945 8.426 259.816 10.133 c 240.547 39.254
 l 233.41 41.195 226.566 44.086 220.203 47.852 c 181.918 41.496 l 181.836
 41.484 181.758 41.473 181.676 41.461 c 179.664 41.242 177.68 42.07 176.426
 43.66 c 175.168 45.246 174.82 47.367 175.5 49.273 c 187.168 84.18 l 185.293
 88.164 183.746 92.293 182.535 96.523 c 151.051 119.289 l 151 119.324 150.953
 119.363 150.906 119.398 c 149.301 120.66 148.465 122.664 148.703 124.691
 c 148.938 126.719 150.207 128.48 152.055 129.344 c 183.055 143.816 l 185.336
 151.172 188.637 158.176 192.855 164.617 c 88.766 269.203 l 85.934 266.504
 l 82.938 263.656 78.207 263.766 75.344 266.746 c 16.117 328.586 l 5.219
 339.793 5.465 357.711 16.668 368.613 c 27.875 379.512 45.793 379.266 56.695
 368.062 c 117.098 306.723 l 118.508 305.289 119.285 303.348 119.254 301.336
 c 119.219 299.324 118.383 297.41 116.926 296.023 c 114.57 293.781 l 218.008
 189.41 l 224.109 193.285 230.691 196.34 237.59 198.496 c 260.176 232.75
 l 261.258 234.398 263.098 235.387 265.066 235.383 c 265.145 235.383 265.211
 235.383 265.285 235.379 c 267.328 235.312 269.188 234.184 270.184 232.402
 c 290.039 197.414 l 293.262 196.258 296.41 194.906 299.461 193.363 c 339.266
 202.383 l 339.691 202.48 340.129 202.531 340.57 202.531 c 342.379 202.523
 344.082 201.684 345.191 200.254 c 346.301 198.828 346.688 196.965 346.246
 195.215 c 336.414 156.148 l 337.965 153.035 339.316 149.828 340.457 146.543
 c 372.969 126.57 l 374.711 125.492 375.762 123.586 375.75 121.543 c 375.738
 119.496 374.664 117.602 372.91 116.543 c h
160.676 123.434 m 179.938 109.508 l 179.02 117.215 179.191 125.008 180.438
 132.664 c h
334.102 49.918 m 328.734 69.938 l 324.391 64.09 319.301 58.836 313.598 
54.305 c h
264.477 19.398 m 274.387 37.273 l 267.27 36.219 260.047 36.09 252.895 36.898
 c h
185.645 51.238 m 209.672 55.227 l 203.273 60.492 197.695 66.68 193.117 
73.59 c h
50.281 361.746 m 42.824 369.285 30.684 369.398 23.086 362.004 c 15.492 
354.605 15.281 342.469 22.617 334.812 c 24.449 332.902 l 51.762 360.242 
l h
58.078 353.832 m 30.676 326.398 l 40.949 315.676 l 68.496 343.25 l h
74.812 336.832 m 47.176 309.168 l 57.449 298.441 l 85.234 326.25 l h
91.551 319.836 m 63.68 291.938 l 80.809 274.051 l 109.613 301.492 l h
108.051 287.574 m 95.281 275.414 l 198.25 171.953 l 201.93 176.426 206.062
 180.5 210.586 184.117 c h
264.875 223.527 m 250.266 201.371 l 259.414 202.703 268.719 202.496 277.797
 200.754 c h
262.207 193.234 m 232.297 193.27 205.312 175.277 193.844 147.652 c 182.375
 120.031 188.684 88.219 209.82 67.059 c 230.957 45.898 262.762 39.559 290.398
 50.996 c 318.031 62.434 336.055 89.395 336.055 119.305 c 336.031 160.094
 302.992 193.168 262.203 193.234 c h
310.512 186.637 m 318.008 181.234 324.555 174.625 329.887 167.078 c 336.277
 192.473 l h
343.762 133.949 m 345.172 126.027 345.43 117.938 344.523 109.941 c 363.863
 121.598 l h
343.762 133.949 m f
262.203 94.219 m 251.719 94.211 242.262 100.52 238.242 110.207 c 234.223
 119.891 236.434 131.043 243.848 138.461 c 251.258 145.879 262.41 148.102
 272.098 144.09 c 281.785 140.078 288.105 130.625 288.102 120.141 c 288.094
 105.836 276.508 94.242 262.203 94.219 c h
262.203 137.059 m 255.359 137.066 249.184 132.953 246.555 126.629 c 243.93
 120.309 245.371 113.027 250.211 108.184 c 255.047 103.336 262.328 101.887
 268.652 104.504 c 274.98 107.121 279.102 113.293 279.102 120.141 c 279.098
 129.473 271.539 137.043 262.203 137.059 c h
262.203 137.059 m f
228.859 104.941 m 227.605 102.797 224.848 102.07 222.703 103.324 c 205.527
 113.355 l 202.555 115.094 202.555 119.391 205.527 121.129 c 222.703 131.156
 l 224.852 132.43 227.625 131.711 228.883 129.555 c 230.141 127.398 229.402
 124.629 227.242 123.383 c 216.719 117.242 l 227.242 111.098 l 229.387 109.844
 230.109 107.09 228.859 104.941 c h
228.859 104.941 m f
321.117 117.242 m 321.117 115.641 320.266 114.16 318.887 113.355 c 301.711
 103.324 l 299.562 102.055 296.789 102.773 295.531 104.93 c 294.273 107.086
 295.008 109.852 297.172 111.098 c 307.695 117.242 l 297.172 123.383 l 295.008
 124.629 294.273 127.398 295.531 129.555 c 296.789 131.711 299.562 132.43
 301.711 131.156 c 318.887 121.129 l 320.266 120.32 321.117 118.84 321.117
 117.242 c h
321.117 117.242 m f
250.887 86.754 m 253.031 88.004 255.785 87.277 257.035 85.133 c 263.168
 74.609 l 269.297 85.133 l 272.316 90.316 280.094 85.785 277.074 80.602 
c 267.055 63.406 l 265.32 60.426 261.016 60.426 259.277 63.406 c 249.262
 80.602 l 248.012 82.75 248.738 85.504 250.887 86.754 c h
250.887 86.754 m f
275.453 153.523 m 273.309 152.273 270.551 153 269.301 155.148 c 263.172
 165.672 l 257.039 155.148 l 253.984 150.094 246.375 154.527 249.262 159.676
 c 259.281 176.871 l 261.02 179.852 265.324 179.852 267.059 176.871 c 277.078
 159.676 l 278.328 157.527 277.602 154.777 275.453 153.523 c h
275.453 153.523 m f
Q Q
showpage
%%Trailer
end
%%EOF
