%!PS-Adobe-3.0 EPSF-3.0
%%Creator: cairo 1.16.0 (https://cairographics.org)
%%CreationDate: Mon Dec 14 10:24:17 2020
%%Pages: 1
%%DocumentData: Clean7Bit
%%LanguageLevel: 2
%%BoundingBox: 7 111 377 274
%%EndComments
%%BeginProlog
50 dict begin
/q { gsave } bind def
/Q { grestore } bind def
/cm { 6 array astore concat } bind def
/w { setlinewidth } bind def
/J { setlinecap } bind def
/j { setlinejoin } bind def
/M { setmiterlimit } bind def
/d { setdash } bind def
/m { moveto } bind def
/l { lineto } bind def
/c { curveto } bind def
/h { closepath } bind def
/re { exch dup neg 3 1 roll 5 3 roll moveto 0 rlineto
      0 exch rlineto 0 rlineto closepath } bind def
/S { stroke } bind def
/f { fill } bind def
/f* { eofill } bind def
/n { newpath } bind def
/W { clip } bind def
/W* { eoclip } bind def
/BT { } bind def
/ET { } bind def
/BDC { mark 3 1 roll /BDC pdfmark } bind def
/EMC { mark /EMC pdfmark } bind def
/cairo_store_point { /cairo_point_y exch def /cairo_point_x exch def } def
/Tj { show currentpoint cairo_store_point } bind def
/TJ {
  {
    dup
    type /stringtype eq
    { show } { -0.001 mul 0 cairo_font_matrix dtransform rmoveto } ifelse
  } forall
  currentpoint cairo_store_point
} bind def
/cairo_selectfont { cairo_font_matrix aload pop pop pop 0 0 6 array astore
    cairo_font exch selectfont cairo_point_x cairo_point_y moveto } bind def
/Tf { pop /cairo_font exch def /cairo_font_matrix where
      { pop cairo_selectfont } if } bind def
/Td { matrix translate cairo_font_matrix matrix concatmatrix dup
      /cairo_font_matrix exch def dup 4 get exch 5 get cairo_store_point
      /cairo_font where { pop cairo_selectfont } if } bind def
/Tm { 2 copy 8 2 roll 6 array astore /cairo_font_matrix exch def
      cairo_store_point /cairo_font where { pop cairo_selectfont } if } bind def
/g { setgray } bind def
/rg { setrgbcolor } bind def
/d1 { setcachedevice } bind def
/cairo_data_source {
  CairoDataIndex CairoData length lt
    { CairoData CairoDataIndex get /CairoDataIndex CairoDataIndex 1 add def }
    { () } ifelse
} def
/cairo_flush_ascii85_file { cairo_ascii85_file status { cairo_ascii85_file flushfile } if } def
/cairo_image { image cairo_flush_ascii85_file } def
/cairo_imagemask { imagemask cairo_flush_ascii85_file } def
%%EndProlog
%%BeginSetup
%%EndSetup
%%Page: 1 1
%%BeginPageSetup
%%PageBoundingBox: 7 111 377 274
%%EndPageSetup
q 7 111 370 163 rectclip
1 0 0 -1 0 384 cm q
0.372549 0.658824 0.929412 rg
114.781 126.359 m 115.793 129.336 116.949 132.434 118.266 135.629 c 48.984
 113.25 21.074 152.121 21.074 152.121 c 16.004 153.527 12.492 158.141 12.488
 163.402 c 12.488 163.402 -0.164 104.754 103.449 117.246 c 108.664 117.855
 113.066 121.398 114.781 126.359 c h
114.781 126.359 m f
280.051 118.922 m 382.656 106.539 371.789 161.086 371.574 162.141 c 371.012
 157.125 367.312 153.023 362.379 151.957 c 362.379 151.953 362.375 151.949
 362.371 151.949 c 361.793 151.184 333.781 115.027 265.32 137.078 c 266.602
 133.965 267.727 130.934 268.719 128.023 c 270.434 123.066 274.836 119.527
 280.051 118.922 c h
280.051 118.922 m f
0.309804 0.607843 0.698039 rg
362.371 151.949 m 360.465 151.535 358.484 151.605 356.609 152.145 c 347.496
 154.754 334.387 165.211 318.211 161.488 c 296.176 156.426 282.113 159.922
 255.816 170.852 c 251.637 172.621 247.273 173.922 242.805 174.734 c 249.121
 166.777 255.773 157.891 261.977 144.699 c 263.199 142.109 264.312 139.57
 265.32 137.078 c 333.781 115.027 361.793 151.184 362.371 151.949 c h
362.371 151.949 m f
0.32549 0.756863 0.827451 rg
371.574 162.141 m 371.012 157.125 367.312 153.023 362.379 151.957 c 362.379
 151.953 362.375 151.949 362.371 151.949 c 360.465 151.535 358.484 151.605
 356.609 152.145 c 347.496 154.754 334.387 165.211 318.211 161.488 c 296.176
 156.426 282.113 159.922 255.816 170.852 c 251.637 172.621 247.273 173.922
 242.805 174.734 c 235.215 176.086 227.488 175.844 218.102 174.523 c 216.098
 174.246 214.066 174.812 212.496 176.086 c 210.926 177.359 209.953 179.227
 209.812 181.246 c 208.98 192.766 205.598 212.805 192.066 214.352 c 192.059
 214.352 l 178.523 212.805 175.141 192.766 174.316 181.246 c 174.172 179.227
 173.199 177.359 171.625 176.086 c 170.055 174.812 168.023 174.246 166.02
 174.523 c 156.578 175.852 148.824 176.086 141.188 174.711 c 136.766 173.902
 132.441 172.605 128.301 170.852 c 102.008 159.922 87.953 156.426 65.91 
161.488 c 49.738 165.211 36.629 154.754 27.512 152.145 c 23.965 151.125 
20.148 151.824 17.195 154.035 c 14.246 156.246 12.504 159.715 12.488 163.402
 c 12.488 174.668 l 12.488 208.402 26.512 226.98 55.703 233.289 c 73.801
 237.195 90.285 242.184 109.117 253.641 c 117.062 258.332 125.684 261.773
 134.676 263.844 c 153.391 268.41 173.461 268.5 189.961 268.5 c 192.059 
268.5 l 209.191 268.5 230.543 268.605 250.289 263.633 c 258.98 261.559 267.312
 258.191 275.004 253.641 c 293.844 242.184 310.32 237.195 328.418 233.289
 c 357.609 226.98 371.633 208.402 371.633 174.668 c 371.633 163.402 l 371.633
 162.977 371.609 162.555 371.574 162.141 c h
371.574 162.141 m f
0.309804 0.607843 0.698039 rg
141.188 174.703 m 141.188 174.711 l 136.766 173.902 132.441 172.605 128.301
 170.852 c 102.008 159.922 87.953 156.426 65.91 161.488 c 49.738 165.211
 36.629 154.754 27.512 152.145 c 25.41 151.539 23.18 151.531 21.074 152.121
 c 21.074 152.121 48.984 113.25 118.266 135.629 c 119.25 138.047 120.336
 140.512 121.523 143.031 c 126.836 154.312 133.434 164.941 141.188 174.703
 c h
141.188 174.703 m f
0.282353 0.670588 0.709804 rg
131.617 253.641 m 112.785 242.184 96.301 237.195 78.203 233.289 c 49.012
 226.98 34.988 208.402 34.988 174.668 c 34.988 163.402 l 34.98 160.836 35.828
 158.34 37.395 156.309 c 33.719 154.598 30.41 152.977 27.512 152.145 c 23.965
 151.125 20.148 151.824 17.195 154.035 c 14.246 156.246 12.504 159.715 12.488
 163.402 c 12.488 174.668 l 12.488 208.402 26.512 226.98 55.703 233.289 
c 73.801 237.195 90.285 242.184 109.117 253.641 c 117.062 258.332 125.684
 261.773 134.676 263.844 c 153.391 268.41 173.461 268.5 189.961 268.5 c 
192.059 268.5 l 195.617 268.5 199.359 268.5 203.227 268.465 c 188.773 268.32
 172.523 267.59 157.176 263.844 c 148.184 261.773 139.562 258.332 131.617
 253.641 c h
131.617 253.641 m f
0.972549 0.823529 0.772549 rg
243.164 242.527 m 242.918 242.281 242.664 242.039 242.406 241.809 c 236.438
 236.504 228.066 234.844 220.523 237.465 c 202.316 243.605 182.602 243.602
 164.398 237.449 c 156.922 234.852 148.625 236.477 142.68 241.703 c 137.586
 246.277 134.676 252.801 134.676 259.648 c 134.676 263.844 l 153.391 268.41
 173.461 268.5 189.961 268.5 c 192.059 268.5 l 209.191 268.5 230.543 268.605
 250.289 263.633 c 250.289 259.648 l 250.297 253.219 247.73 247.055 243.164
 242.527 c h
243.164 242.527 m f
0.156863 0.258824 0.407843 rg
366.59 131.184 m 351.766 114.898 322.469 109.266 279.516 114.449 c 272.59
 115.285 266.75 119.992 264.457 126.578 c 262.578 132.098 260.391 137.508
 257.91 142.785 c 252.207 154.902 246.148 163.219 240.371 170.562 c 234.059
 171.461 227.266 171.266 218.73 170.066 c 215.492 169.617 212.211 170.527
 209.672 172.586 c 207.133 174.645 205.559 177.664 205.324 180.926 c 203.613
 204.723 195.848 209.109 192.066 209.805 c 188.281 209.109 180.516 204.723
 178.805 180.926 c 178.57 177.664 176.996 174.645 174.457 172.586 c 171.918
 170.527 168.637 169.617 165.398 170.066 c 156.82 171.266 150.004 171.465
 143.668 170.547 c 132.977 156.812 124.652 141.387 119.047 124.91 c 116.758
 118.32 110.914 113.613 103.992 112.777 c 61.926 107.707 33.008 113.465 
18.031 129.895 c 5.258 143.906 7.426 160.613 7.988 163.82 c 7.988 174.668
 l 7.988 210.277 23.289 230.891 54.754 237.688 c 72.875 241.602 88.66 246.461
 106.781 257.488 c 131.945 272.785 165.27 273 189.945 273 c 194.18 273 l
 218.855 273 252.18 272.785 277.34 257.484 c 295.465 246.465 311.246 241.602
 329.367 237.684 c 360.836 230.891 376.137 210.273 376.137 174.668 c 376.102
 162.367 l 377.746 151.074 374.258 139.633 366.59 131.184 c h
272.977 129.477 m 274.141 126.16 277.094 123.793 280.59 123.383 c 307.934
 120.086 343.879 119.793 359.824 137.125 c 362.836 140.367 365.055 144.266
 366.309 148.508 c 365.852 148.312 365.391 148.141 364.922 147.984 c 362.309
 145.02 354.797 137.527 341.492 131.992 c 318.082 122.254 292.449 125.035
 272.703 130.234 c 272.793 129.984 272.891 129.73 272.977 129.477 c h
266.051 146.617 m 266.957 144.688 267.816 142.727 268.656 140.754 c 294.859
 132.664 318.625 132.422 337.492 140.078 c 342.91 142.25 347.996 145.176
 352.594 148.77 c 350.555 149.555 348.434 150.543 346.227 151.574 c 338.34
 155.266 329.398 159.445 319.219 157.105 c 296.055 151.781 281.113 155.492
 254.605 166.48 c 258.965 160.188 262.793 153.543 266.051 146.617 c h
117.449 144.945 m 120.984 152.441 125.074 159.66 129.688 166.547 c 103.074
 155.508 88.117 151.766 64.906 157.105 c 54.723 159.445 45.781 155.266 37.898
 151.574 c 35.48 150.445 33.164 149.363 30.949 148.543 c 35.516 144.789 
40.594 141.699 46.027 139.371 c 64.91 131.203 88.699 131.188 114.938 139.297
 c 115.742 141.203 116.574 143.09 117.449 144.945 c h
24.777 135.852 m 37.539 121.977 64.555 117.09 102.91 121.715 c 106.402 
122.125 109.359 124.492 110.523 127.809 c 110.633 128.137 110.758 128.457
 110.871 128.785 c 78.438 120.246 55.641 125.277 41.871 131.371 c 28.434
 137.32 20.918 145.254 18.395 148.277 c 18.164 148.367 17.934 148.457 17.703
 148.559 c 19.016 143.82 21.441 139.465 24.777 135.852 c h
245.793 260.043 m 228.215 263.91 209.457 264 194.16 264 c 189.961 264 l
 174.914 264 156.512 263.914 139.18 260.227 c 139.18 259.648 l 139.191 254.082
 141.559 248.773 145.695 245.047 c 150.426 240.902 157.027 239.629 162.961
 241.715 c 182.094 248.18 202.82 248.188 221.957 241.734 c 227.953 239.621
 234.625 240.926 239.383 245.141 c 239.586 245.324 239.785 245.516 239.988
 245.719 c 243.715 249.398 245.805 254.418 245.793 259.648 c h
367.137 174.668 m 367.137 206.242 354.902 222.965 327.469 228.891 c 308.457
 232.996 291.863 238.121 272.664 249.797 c 267.031 253.156 261.004 255.812
 254.719 257.699 c 254.266 250.762 251.285 244.23 246.34 239.344 c 246.039
 239.047 245.742 238.762 245.445 238.488 c 238.27 232.074 228.18 230.051
 219.086 233.207 c 201.812 239.031 183.105 239.023 165.836 233.188 c 156.816
 230.062 146.816 232.039 139.664 238.363 c 134.074 243.406 130.688 250.441
 130.23 257.957 c 123.652 256.047 117.344 253.305 111.453 249.797 c 92.254
 238.125 75.664 232.996 56.652 228.891 c 29.219 222.965 16.984 206.242 16.984
 174.672 c 16.984 163.406 l 16.977 161.145 18.043 159.016 19.855 157.664
 c 21.684 156.273 24.062 155.836 26.27 156.477 c 28.945 157.375 31.559 158.465
 34.078 159.734 c 42.367 163.609 53.715 168.918 66.918 165.883 c 87.52 161.148
 100.457 164.16 126.57 175.008 c 139 180.172 150.234 181.285 166.641 178.98
 c 167.406 178.875 168.18 179.09 168.777 179.574 c 169.391 180.066 169.77
 180.789 169.82 181.57 c 171.445 204.18 179.16 217.41 191.543 218.824 c 
191.715 218.844 191.883 218.855 192.055 218.855 c 192.062 218.855 l 192.234
 218.855 192.402 218.844 192.574 218.824 c 204.957 217.41 212.672 204.18
 214.297 181.57 c 214.348 180.789 214.727 180.066 215.336 179.574 c 215.934
 179.086 216.711 178.871 217.477 178.98 c 233.887 181.285 245.117 180.168
 257.543 175.008 c 283.66 164.156 296.598 161.148 317.199 165.883 c 330.402
 168.922 341.75 163.613 350.039 159.734 c 352.562 158.465 355.172 157.375
 357.848 156.477 c 360.055 155.836 362.434 156.273 364.262 157.664 c 366.074
 159.016 367.141 161.145 367.133 163.406 c h
367.137 174.668 m f
75.18 213.465 m 75.121 213.465 75.066 213.465 75.008 213.465 c 67.027 213.465
 59.707 209.156 54.965 205.527 c 50.211 201.977 44.824 209.023 49.5 212.68
 c 57.996 219.172 66.574 222.465 75 222.465 c 75.207 222.465 l 77.691 222.457
 79.699 220.438 79.691 217.949 c 79.684 215.465 77.664 213.457 75.18 213.465
 c h
75.18 213.465 m f
41.277 193.516 m 37.59 188.812 30.523 194.312 34.176 199.043 c 35.574 200.777
 37.074 202.434 38.668 203.992 c 40.43 205.746 43.277 205.734 45.031 203.973
 c 46.781 202.211 46.773 199.359 45.012 197.609 c 43.691 196.316 42.445 
194.949 41.277 193.516 c h
41.277 193.516 m f
Q Q
showpage
%%Trailer
end
%%EOF
