%!PS-Adobe-3.0 EPSF-3.0
%%Creator: cairo 1.16.0 (https://cairographics.org)
%%CreationDate: Mon Dec 14 10:24:19 2020
%%Pages: 1
%%DocumentData: Clean7Bit
%%LanguageLevel: 2
%%BoundingBox: 9 8 375 376
%%EndComments
%%BeginProlog
50 dict begin
/q { gsave } bind def
/Q { grestore } bind def
/cm { 6 array astore concat } bind def
/w { setlinewidth } bind def
/J { setlinecap } bind def
/j { setlinejoin } bind def
/M { setmiterlimit } bind def
/d { setdash } bind def
/m { moveto } bind def
/l { lineto } bind def
/c { curveto } bind def
/h { closepath } bind def
/re { exch dup neg 3 1 roll 5 3 roll moveto 0 rlineto
      0 exch rlineto 0 rlineto closepath } bind def
/S { stroke } bind def
/f { fill } bind def
/f* { eofill } bind def
/n { newpath } bind def
/W { clip } bind def
/W* { eoclip } bind def
/BT { } bind def
/ET { } bind def
/BDC { mark 3 1 roll /BDC pdfmark } bind def
/EMC { mark /EMC pdfmark } bind def
/cairo_store_point { /cairo_point_y exch def /cairo_point_x exch def } def
/Tj { show currentpoint cairo_store_point } bind def
/TJ {
  {
    dup
    type /stringtype eq
    { show } { -0.001 mul 0 cairo_font_matrix dtransform rmoveto } ifelse
  } forall
  currentpoint cairo_store_point
} bind def
/cairo_selectfont { cairo_font_matrix aload pop pop pop 0 0 6 array astore
    cairo_font exch selectfont cairo_point_x cairo_point_y moveto } bind def
/Tf { pop /cairo_font exch def /cairo_font_matrix where
      { pop cairo_selectfont } if } bind def
/Td { matrix translate cairo_font_matrix matrix concatmatrix dup
      /cairo_font_matrix exch def dup 4 get exch 5 get cairo_store_point
      /cairo_font where { pop cairo_selectfont } if } bind def
/Tm { 2 copy 8 2 roll 6 array astore /cairo_font_matrix exch def
      cairo_store_point /cairo_font where { pop cairo_selectfont } if } bind def
/g { setgray } bind def
/rg { setrgbcolor } bind def
/d1 { setcachedevice } bind def
/cairo_data_source {
  CairoDataIndex CairoData length lt
    { CairoData CairoDataIndex get /CairoDataIndex CairoDataIndex 1 add def }
    { () } ifelse
} def
/cairo_flush_ascii85_file { cairo_ascii85_file status { cairo_ascii85_file flushfile } if } def
/cairo_image { image cairo_flush_ascii85_file } def
/cairo_imagemask { imagemask cairo_flush_ascii85_file } def
%%EndProlog
%%BeginSetup
%%EndSetup
%%Page: 1 1
%%BeginPageSetup
%%PageBoundingBox: 9 8 375 376
%%EndPageSetup
q 9 8 366 368 rectclip
1 0 0 -1 0 384 cm q
0.301961 0.670588 1 rg
369.496 324.781 m 369.516 325.289 369.523 325.809 369.523 326.324 c 369.52
 338.246 364.781 349.68 356.344 358.105 c 347.91 366.531 336.469 371.262
 324.547 371.25 c 229.41 371.25 l 227.5 371.25 225.672 370.492 224.32 369.145
 c 222.969 367.797 222.211 365.965 222.211 364.059 c 222.211 309.277 l 226.934
 309.203 l 228.566 310.082 230.434 310.434 232.273 310.207 c 276.344 304.883
 l 281.004 304.32 285.398 302.426 289.004 299.422 c 289.02 299.414 l 309.27
 288.465 l 336.555 275.836 368.484 294.758 369.496 324.781 c h
369.496 324.781 m f
0.258824 0.627451 0.898039 rg
283.59 113.738 m 283.926 114.559 283.156 115.402 282.309 115.148 c 278.746
 114.09 270.996 112.477 262.828 115.254 c 251.676 119.039 238.711 101.812
 238.711 101.812 c 239.621 101.414 240.445 100.852 241.148 100.148 c 243.113
 98.184 243.898 95.332 243.219 92.637 c 242.535 89.945 240.488 87.809 237.824
 87.016 c 238.027 86.496 238.23 85.98 238.418 85.461 c 238.824 85.656 251.707
 91.566 261.816 88.199 c 261.863 88.328 l 261.863 88.328 277.98 99.586 283.59
 113.738 c h
283.59 113.738 m f
0.301961 0.670588 1 rg
280.605 41.543 m 281.371 41.543 281.883 42.324 281.578 43.027 c 280.078
 46.418 276.414 55.883 273.195 73.363 c 271.566 82.199 267.066 86.453 261.816
 88.199 c 251.707 91.566 238.824 85.656 238.418 85.461 c 241.469 77.258 
242.988 68.566 242.895 59.812 c 246.773 51.781 256.23 41.586 280.605 41.543
 c h
280.605 41.543 m f
0.780392 0.603922 0.513726 rg
149.633 68.504 m 149.453 69.852 149.367 71.211 149.371 72.57 c 149.371 
86.684 l 147.27 86.684 l 146.145 86.684 145.031 86.926 144.008 87.391 c 
141.441 80.949 l 136.215 67.797 136.215 53.141 141.441 39.988 c 141.848 
38.984 l 143.152 35.703 146.324 33.547 149.859 33.547 c 152.617 33.547 155.262
 32.449 157.211 30.5 c 159.16 28.547 160.254 25.902 160.254 23.145 c 160.254
 18.324 163.57 14.137 168.262 13.027 c 169.406 12.773 170.59 12.727 171.75
 12.891 c 179.211 13.824 222.555 18.898 237.676 12.75 c 237.676 18.051 l
 237.68 21.266 236.797 24.418 235.133 27.164 c 235.133 27.172 l 237.676 
33.547 l 241.02 41.906 242.789 50.812 242.895 59.812 c 242.988 68.566 241.469
 77.258 238.418 85.461 c 238.23 85.98 238.027 86.496 237.824 87.016 c 237.094
 86.793 236.336 86.684 235.574 86.684 c 233.477 86.684 l 233.477 72.57 l
 233.477 71.469 233.418 70.371 233.301 69.277 c 232.895 64.812 231.246 60.551
 228.547 56.969 c 225.426 52.816 220.98 49.559 215.699 46.77 c 213.309 56.184
 202.449 59.617 189.422 59.617 c 177.414 59.617 167.242 57.254 163.852 48.938
 c 163.801 48.797 l 156.18 54.047 150.855 59.578 149.633 68.504 c h
149.633 68.504 m f
1 0.929412 0.870588 rg
233.301 69.277 m 149.633 68.504 l 150.855 59.578 156.18 54.047 163.801 
48.797 c 163.852 48.938 l 167.242 57.254 177.414 59.617 189.422 59.617 c
 202.449 59.617 213.309 56.184 215.699 46.77 c 220.98 49.559 225.426 52.816
 228.547 56.969 c 231.246 60.551 232.895 64.812 233.301 69.277 c h
233.301 69.277 m f
0.8 0.827451 0.87451 rg
284.586 171.023 m 282.285 168.684 l 272.715 158.957 259.59 153.562 245.949
 153.75 c 135.141 155.355 l 121.566 155.559 108.656 161.277 99.383 171.195
 c 96.227 174.59 93.547 178.398 91.426 182.52 c 87.816 189.57 85.938 197.371
 85.934 205.289 c 87.074 281.391 l 87.426 293.445 96.539 303.43 108.512 
304.883 c 152.574 310.207 l 154.414 310.434 156.281 310.082 157.914 309.203
 c 162.637 309.277 l 162.637 330.719 l 222.211 330.719 l 222.211 309.277
 l 226.934 309.203 l 228.566 310.082 230.434 310.434 232.273 310.207 c 276.344
 304.883 l 281.004 304.32 285.398 302.426 289.004 299.422 c 289.02 299.414
 l 294.395 294.945 297.586 288.379 297.781 281.391 c 298.898 206.781 l 299.102
 193.43 293.945 180.551 284.586 171.023 c h
284.586 171.023 m f
1 0.929412 0.870588 rg
162.637 330.719 m 162.637 364.059 l 162.637 365.965 161.879 367.797 160.527
 369.145 c 159.176 370.492 157.348 371.25 155.438 371.25 c 212.258 371.25
 l 212.258 330.719 l h
162.637 330.719 m f
0.301961 0.670588 1 rg
162.637 330.719 m 162.637 364.059 l 162.637 365.965 161.879 367.797 160.527
 369.145 c 159.176 370.492 157.348 371.25 155.438 371.25 c 59.453 371.25
 l 47.531 371.262 36.09 366.531 27.656 358.105 c 19.219 349.68 14.48 338.246
 14.477 326.324 c 14.477 325.809 14.484 325.289 14.504 324.781 c 15.523 
294.613 47.828 275.789 75.047 288.898 c 98.715 301.484 l 98.723 301.477 
l 101.703 303.305 105.039 304.465 108.512 304.883 c 152.574 310.207 l 154.414
 310.434 156.281 310.082 157.914 309.203 c 162.637 309.277 l h
162.637 330.719 m f
0.713726 0.792157 0.827451 rg
95.453 152.672 m 106.898 164.617 l 104.176 166.551 101.66 168.754 99.383
 171.195 c 96.227 174.59 93.547 178.398 91.426 182.52 c 78.816 169.754 l
 95.406 152.625 l h
95.453 152.672 m f
0.301961 0.670588 1 rg
95.145 140.266 m 91.859 137.207 86.77 137.195 83.469 140.234 c 65.664 158.281
 l 64.039 159.93 63.148 162.164 63.191 164.477 c 63.234 166.793 64.203 168.992
 65.887 170.578 c 66.051 170.738 l 69.477 173.969 74.859 173.852 78.137 
170.469 c 95.477 152.551 l 97.082 150.887 97.953 148.648 97.891 146.34 c
 97.828 144.027 96.84 141.84 95.145 140.266 c h
95.145 140.266 m f
0.917647 0.87451 0.32549 rg
71.859 128.617 m 83.469 140.234 l 83.363 140.332 83.266 140.43 83.168 140.527
 c 68.641 155.266 l 56.625 143.859 l h
71.859 128.617 m f
0.984314 0.403922 0.443137 rg
71.859 128.617 m 56.625 143.859 l 46.637 134.371 l 62.121 118.883 l h
71.859 128.617 m f
0.917647 0.87451 0.32549 rg
62.121 118.883 m 46.637 134.371 l 37.078 125.301 l 35.344 123.652 34.73
 121.145 35.508 118.879 c 36.285 116.617 38.312 115.016 40.695 114.781 c
 53.578 113.504 l 55.402 113.324 57.211 113.973 58.508 115.266 c h
62.121 118.883 m f
0.968627 0.823529 0.717647 rg
169.215 141.645 m 169.215 160.824 l 169.215 173.363 179.383 183.531 191.926
 183.531 c 204.469 183.531 214.637 173.363 214.637 160.824 c 214.637 140.902
 l h
169.215 141.645 m f
0.878431 0.360784 0.411765 rg
282.285 168.684 m 284.586 171.023 l 208.582 249.629 l 208.5 249.703 l 192.352
 233.355 l 192.488 233.219 l 265.043 157.777 l 265.223 157.328 l 271.637
 159.891 277.445 163.758 282.285 168.684 c h
282.285 168.684 m f
0.427451 0.454902 0.52549 rg
237.824 87.016 m 241.582 88.129 243.953 91.832 243.391 95.711 c 242.824
 99.59 239.496 102.465 235.574 102.457 c 233.477 102.457 l 233.477 103.926
 l 232.59 104.234 231.66 104.594 230.699 105 c 216.539 111.051 201.637 108.891
 191.879 95.398 c 191.531 94.918 190.816 94.918 190.469 95.398 c 180.691
 108.891 165.504 111.051 151.344 105 c 150.773 104.762 150.219 104.535 149.676
 104.332 c 149.371 104.332 l 149.371 102.457 l 147.27 102.457 l 142.914 
102.457 139.383 98.926 139.383 94.57 c 139.383 90.215 142.914 86.684 147.27
 86.684 c 149.371 86.684 l 149.371 72.57 l 149.367 71.211 149.453 69.852
 149.633 68.504 c 233.301 69.277 l 233.418 70.371 233.477 71.469 233.477
 72.57 c 233.477 86.684 l 235.574 86.684 l 236.336 86.684 237.094 86.793
 237.824 87.016 c h
237.824 87.016 m f
1 0.929412 0.870588 rg
233.477 103.926 m 233.477 107.242 l 233.477 118.395 229.043 129.09 221.156
 136.977 c 213.273 144.863 202.574 149.297 191.422 149.297 c 180.27 149.297
 169.574 144.863 161.688 136.977 c 153.801 129.09 149.371 118.395 149.371
 107.242 c 149.371 104.332 l 149.676 104.332 l 150.219 104.535 150.773 104.762
 151.344 105 c 165.504 111.051 180.691 108.891 190.469 95.398 c 190.816 
94.918 191.531 94.918 191.879 95.398 c 201.637 108.891 216.539 111.051 230.699
 105 c 231.66 104.594 232.59 104.234 233.477 103.926 c h
233.477 103.926 m f
226.934 309.203 m 222.211 309.277 l 210.328 309.465 l 210.039 309.465 l
 201.359 309.465 194.281 303.254 194.281 295.566 c 194.281 289.824 198.227
 284.895 203.859 282.773 c 205.836 282.035 207.934 281.656 210.047 281.664
 c 222.211 281.664 l 222.211 301.297 l 222.207 304.602 224.023 307.641 226.934
 309.203 c h
226.934 309.203 m f
174.637 281.664 m 183.254 281.664 190.238 287.887 190.238 295.566 c 190.238
 303.246 183.238 309.465 174.645 309.465 c 174.352 309.465 l 162.637 309.277
 l 157.914 309.203 l 160.824 307.641 162.641 304.602 162.637 301.297 c 162.637
 281.664 l h
174.637 281.664 m f
0.968627 0.823529 0.717647 rg
229.41 371.25 m 212.258 371.25 l 201.066 371.25 191.992 362.176 191.992
 350.984 c 191.992 339.793 201.066 330.719 212.258 330.719 c 222.211 330.719
 l 222.211 364.059 l 222.211 365.965 222.969 367.797 224.32 369.145 c 225.672
 370.492 227.5 371.25 229.41 371.25 c h
229.41 371.25 m f
0.694118 0.733333 0.788235 rg
131.012 304.883 m 119.039 303.43 109.926 293.445 109.574 281.391 c 108.434
 205.289 l 108.438 197.371 110.316 189.57 113.926 182.52 c 119.621 171.398
 129.285 162.82 141 158.477 c 146.328 156.492 151.957 155.438 157.641 155.355
 c 135.141 155.355 l 121.566 155.559 108.656 161.277 99.383 171.195 c 96.227
 174.59 93.547 178.398 91.426 182.52 c 87.816 189.57 85.938 197.371 85.934
 205.289 c 87.074 281.391 l 87.426 293.445 96.539 303.43 108.512 304.883
 c 152.574 310.207 l 154.414 310.434 156.281 310.082 157.914 309.203 c h
131.012 304.883 m f
0.270588 0.6 0.807843 rg
36.977 326.324 m 36.977 325.809 36.984 325.289 37.004 324.781 c 37.656 
305.477 51.121 290.82 67.863 286.199 c 42.453 279.148 15.438 297.234 14.504
 324.781 c 14.484 325.289 14.477 325.809 14.477 326.324 c 14.48 338.246 
19.219 349.68 27.656 358.105 c 36.09 366.531 47.531 371.262 59.453 371.25
 c 81.953 371.25 l 70.031 371.262 58.59 366.531 50.156 358.105 c 41.719 
349.68 36.98 338.246 36.977 326.324 c h
36.977 326.324 m f
0.984314 0.403922 0.443137 rg
118.566 158.648 m 118.5 158.477 l 111.227 161.172 104.68 165.527 99.383
 171.195 c 98.219 172.441 97.125 173.742 96.098 175.102 c 203.859 282.773
 l 205.836 282.035 207.934 281.656 210.047 281.664 c 222.211 281.664 l 222.211
 277.883 224.582 274.512 228.137 273.227 c 230.781 272.266 l h
118.566 158.648 m f
0.866667 0.368627 0.415686 rg
118.598 175.102 m 120.922 172.02 123.609 169.223 126.602 166.777 c 118.566
 158.648 l 118.5 158.477 l 111.227 161.172 104.68 165.527 99.383 171.195
 c 98.219 172.441 97.125 173.742 96.098 175.102 c 110.879 189.871 l 111.699
 187.348 112.719 184.887 113.926 182.523 c 115.258 179.914 116.82 177.43
 118.598 175.102 c h
118.598 175.102 m f
0.156863 0.258824 0.407843 rg
352.027 287.055 m 338.543 278.719 321.77 277.715 307.383 284.383 c 307.297
 284.422 307.215 284.461 307.133 284.508 c 301.434 287.59 l 301.938 285.582
 302.223 283.527 302.281 281.461 c 303.398 206.852 l 303.578 192.301 297.965
 178.277 287.797 167.867 c 285.496 165.531 l 275.062 154.934 260.758 149.055
 245.887 149.25 c 219.133 149.625 l 219.133 144.633 l 230.797 135.992 237.758
 122.402 237.957 107.887 c 239.75 109.867 241.676 111.715 243.723 113.426
 c 250.109 118.707 255.43 120.289 259.52 120.289 c 261.141 120.297 262.746
 120.035 264.281 119.52 c 271.16 117.184 277.723 118.484 281.023 119.465
 c 283.066 120.074 285.277 119.461 286.715 117.887 c 288.156 116.316 288.566
 114.059 287.777 112.078 c 283.828 102.117 275.367 93.664 269.785 88.867
 c 273.805 85.543 276.441 80.625 277.625 74.18 c 280.77 57.082 284.316 47.973
 285.699 44.848 c 286.457 43.129 286.293 41.145 285.27 39.57 c 284.242 37.996
 282.492 37.051 280.613 37.051 c 280.602 37.051 l 263.512 37.082 252.91 
41.891 246.328 47.855 c 245.406 42.391 243.906 37.039 241.859 31.891 c 240.086
 27.43 l 241.465 24.5 242.18 21.297 242.176 18.055 c 242.176 12.75 l 242.176
 9.555 238.938 7.379 235.98 8.582 c 225.141 12.992 194.91 11.254 172.312
 8.426 c 170.621 8.199 168.906 8.27 167.242 8.645 c 160.496 10.207 155.73
 16.227 155.758 23.148 c 155.754 26.402 153.117 29.043 149.859 29.047 c 
144.48 29.027 139.637 32.316 137.668 37.324 c 137.266 38.328 l 131.586 52.543
 131.586 68.398 137.266 82.613 c 138.535 85.805 l 135.285 89.031 134.086
 93.789 135.41 98.172 c 136.738 102.555 140.379 105.848 144.871 106.73 c
 144.871 107.242 l 144.879 122.418 152.285 136.641 164.719 145.348 c 164.719
 150.578 l 135.082 150.859 l 125.371 151.02 115.875 153.77 107.578 158.824
 c 101.156 152.121 l 103.461 147.195 102.484 141.355 98.703 137.449 c 94.918
 133.539 89.117 132.375 84.117 134.52 c 61.691 112.09 l 59.449 109.832 56.309
 108.711 53.141 109.031 c 40.25 110.305 l 36.117 110.715 32.602 113.496 
31.254 117.426 c 29.906 121.355 30.973 125.711 33.984 128.57 c 62.23 155.391
 l 57.297 160.648 57.551 168.906 62.793 173.855 c 62.961 174.012 l 67.172
 177.965 73.473 178.703 78.484 175.828 c 86 183.438 l 82.871 190.582 81.316
 198.32 81.441 206.121 c 82.574 281.52 l 82.641 283.836 82.992 286.133 83.617
 288.363 c 77.156 284.926 l 77.102 284.898 77.051 284.875 76.996 284.848
 c 62.656 277.926 45.789 278.746 32.188 287.023 c 18.895 294.984 10.543 
309.145 10.004 324.629 c 9.984 325.191 9.977 325.754 9.977 326.324 c 10.02
 353.625 32.156 375.734 59.453 375.75 c 324.547 375.75 l 351.844 375.734
 373.98 353.625 374.023 326.324 c 374.023 325.758 374.016 325.191 373.996
 324.629 c 373.453 309.207 365.199 295.094 352.027 287.055 c h
276.277 109.398 m 271.258 108.859 266.18 109.402 261.387 110.992 c 257.625
 112.273 252.887 109.301 249.574 106.582 c 248.016 105.289 246.539 103.895
 245.156 102.41 c 246.973 100.203 247.965 97.434 247.961 94.574 c 247.961
 94.062 247.922 93.547 247.855 93.039 c 250.18 93.477 252.535 93.703 254.898
 93.715 c 256.871 93.723 258.84 93.527 260.773 93.125 c 263.906 95.551 271.328
 101.723 276.273 109.398 c h
247.387 60.949 m 252.062 52.133 261.492 47.184 275.5 46.219 c 272.566 54.805
 270.32 63.609 268.773 72.551 c 267.789 77.918 265.613 81.406 262.125 83.207
 c 256.828 85.945 249.078 84.449 244.059 82.82 c 246.227 75.73 247.348 68.363
 247.383 60.945 c h
294.402 206.719 m 293.285 281.27 l 292.949 291.074 285.547 299.191 275.809
 300.414 c 231.742 305.738 l 229.074 306.066 226.719 303.984 226.715 301.297
 c 226.715 281.672 l 226.719 279.785 227.898 278.105 229.668 277.457 c 262.445
 265.586 l 268.086 263.543 265.02 255.082 259.379 257.125 c 255.289 258.605
 l 253.887 247.766 l 253.062 241.883 244.258 243.023 244.961 248.922 c 246.621
 261.746 l 231.965 267.055 l 214.801 249.676 l 284.445 177.645 l 291.012
 185.898 294.527 196.168 294.398 206.715 c h
278.285 171.07 m 208.477 243.277 l 198.645 233.316 l 266.453 162.812 l 
270.812 164.914 274.805 167.703 278.281 171.07 c h
145.625 41.652 m 146.023 40.648 l 146.645 39.074 148.164 38.043 149.859
 38.047 c 158.082 38.039 164.746 31.375 164.754 23.148 c 164.742 20.41 166.625
 18.027 169.293 17.406 c 169.918 17.281 170.559 17.266 171.188 17.359 c 
181.863 18.695 214.895 22.32 233.156 18.691 c 232.812 25.656 227.07 31.133
 220.094 31.141 c 214.094 31.141 214.094 40.141 220.094 40.141 c 224.988
 40.145 229.738 38.512 233.602 35.508 c 237.828 46.207 239.277 57.801 237.812
 69.211 c 236.418 54.355 225.871 47.055 217.797 42.797 c 215.223 41.434 
212.055 42.844 211.336 45.664 c 209.246 53.891 196.711 55.117 189.422 55.117
 c 177.199 55.117 170.203 52.547 168.031 47.262 c 167.992 47.152 l 166.934
 44.457 163.637 43.449 161.25 45.09 c 152.742 50.953 144.871 58.336 144.871
 72.57 c 144.871 77.242 l 140.812 65.68 141.082 53.035 145.625 41.652 c 
h
227.684 64.719 m 155.469 64.062 l 156.734 61.211 158.91 58.387 162.535 
55.375 c 169.871 64.117 184.234 64.117 189.422 64.117 c 206.184 64.117 214.129
 58.953 217.777 53.207 c 222.859 56.551 226.062 60.262 227.684 64.719 c 
h
149.371 97.961 m 147.27 97.961 l 142.754 97.961 142.754 91.188 147.27 91.188
 c 149.371 91.188 l 151.855 91.188 153.871 89.172 153.871 86.688 c 153.871
 73.051 l 228.973 73.734 l 228.973 86.691 l 228.973 89.176 230.988 91.191
 233.473 91.191 c 235.57 91.191 l 235.785 91.191 235.996 91.211 236.203 
91.254 c 236.379 91.316 236.559 91.367 236.738 91.41 c 240.285 92.711 239.352
 97.969 235.57 97.965 c 233.473 97.965 l 231.668 97.965 230.035 99.043 229.328
 100.703 c 229.195 100.762 229.059 100.812 228.93 100.867 c 215.559 106.582
 203.387 103.629 195.527 92.762 c 194.516 91.371 192.898 90.543 191.176 
90.539 c 189.453 90.543 187.836 91.367 186.824 92.762 c 179.016 103.539 
166.949 106.555 153.66 101.09 c 153.062 99.227 151.328 97.961 149.371 97.961
 c h
154.043 110.793 m 168.129 115.188 181.738 111.832 191.164 101.641 c 197.438
 108.738 206.469 112.781 215.941 112.742 c 220.328 112.707 224.676 111.957
 228.82 110.523 c 227.133 129.867 210.973 144.73 191.555 144.801 c 172.141
 144.871 155.871 130.125 154.043 110.793 c h
210.133 149.863 m 210.133 160.82 l 210.133 165.648 208.215 170.281 204.801
 173.695 c 201.387 177.109 196.754 179.027 191.926 179.027 c 187.098 179.027
 182.465 177.109 179.051 173.695 c 175.637 170.281 173.715 165.648 173.715
 160.82 c 173.715 150.301 l 185.406 155.125 198.562 154.965 210.133 149.867
 c h
135.188 159.855 m 164.715 159.578 l 164.715 160.82 l 164.715 168.035 167.582
 174.957 172.688 180.059 c 177.789 185.16 184.707 188.027 191.926 188.027
 c 199.141 188.027 206.062 185.16 211.164 180.059 c 216.266 174.957 219.133
 168.035 219.133 160.82 c 219.133 158.621 l 246.012 158.246 l 249.762 158.199
 253.504 158.617 257.152 159.492 c 192.312 226.91 l 126.977 160.75 l 129.68
 160.199 132.43 159.898 135.188 159.855 c h
40.18 122.039 m 39.176 121.086 39.758 119.395 41.133 119.258 c 54.027 117.98
 l 54.508 117.934 54.984 118.105 55.324 118.445 c 55.754 118.875 l 46.551
 128.086 l h
56.543 137.574 m 53.082 134.285 l 62.117 125.246 l 65.492 128.621 l h
71.855 134.984 m 77.121 140.25 l 68.535 148.961 l 63.074 143.773 l h
74.902 167.336 m 73.336 168.941 70.773 168.996 69.141 167.465 c 68.973 
167.309 l 67.301 165.727 67.254 163.078 68.871 161.441 c 86.375 143.688 
l 90.199 139.84 96 145.516 92.238 149.422 c h
85.113 169.727 m 95.387 159.109 l 100.227 164.16 l 98.781 165.406 97.402
 166.73 96.098 168.125 c 94.047 170.324 92.18 172.691 90.52 175.195 c h
158.141 364.059 m 158.133 365.547 156.926 366.75 155.438 366.75 c 59.453
 366.75 l 37.125 366.738 19.016 348.656 18.977 326.324 c 18.977 325.859 
18.984 325.395 19 324.934 c 19.352 312.461 26.094 301.051 36.844 294.723
 c 47.82 288.043 61.426 287.367 73.012 292.922 c 96.605 305.461 l 96.625
 305.43 l 100.082 307.527 103.949 308.867 107.969 309.355 c 153.652 314.773
 l 155.18 314.77 156.699 314.508 158.141 313.996 c h
158.25 268.996 m 138.234 261.746 l 139.891 248.922 l 140.238 246.441 138.496
 244.156 136.012 243.832 c 133.531 243.512 131.262 245.277 130.969 247.766
 c 129.562 258.605 l 125.473 257.125 l 119.832 255.082 116.766 263.543 122.41
 265.586 c 155.184 277.457 l 156.957 278.102 158.137 279.785 158.141 281.672
 c 158.141 301.301 l 158.137 303.988 155.781 306.066 153.113 305.742 c 109.047
 300.414 l 99.328 299.199 91.926 291.113 91.574 281.324 c 90.441 205.98 
l 90.305 197.602 92.5 189.348 96.781 182.141 c 196.562 281.844 l 194.859
 283.215 193.406 284.871 192.273 286.738 c 188.469 280.688 181.785 277.055
 174.637 277.164 c 166.352 277.164 l 165 273.371 162.031 270.375 158.25 
268.996 c h
210.047 313.973 m 210.406 313.973 l 217.711 313.852 l 217.711 326.227 l
 167.141 326.227 l 167.141 313.852 l 174.277 313.969 l 174.637 313.969 l
 180.121 314.008 185.406 311.902 189.363 308.102 c 190.484 307 191.461 305.758
 192.273 304.41 c 193.074 305.738 194.039 306.961 195.148 308.047 c 199.152
 311.891 204.496 314.016 210.047 313.973 c h
167.141 301.301 m 167.141 286.164 l 174.641 286.164 l 180.762 286.164 185.742
 290.383 185.742 295.566 c 185.711 297.887 184.738 300.094 183.055 301.688
 c 180.723 303.879 177.625 305.059 174.43 304.969 c 166.648 304.844 l 166.969
 303.688 167.133 302.496 167.141 301.301 c h
193.18 366.75 m 166.812 366.75 l 167.027 365.867 167.137 364.965 167.141
 364.059 c 167.141 335.223 l 193.18 335.223 l 185.605 344.367 185.605 357.605
 193.18 366.75 c h
212.258 366.75 m 203.594 366.691 196.602 359.648 196.602 350.984 c 196.602
 342.32 203.594 335.281 212.258 335.223 c 217.711 335.223 l 217.711 364.059
 l 217.715 364.965 217.824 365.867 218.035 366.75 c h
210.258 304.969 m 207.004 305.059 203.84 303.859 201.461 301.637 c 199.785
 300.059 198.82 297.867 198.781 295.566 c 198.781 290.383 203.836 286.164
 210.043 286.164 c 217.711 286.164 l 217.711 301.301 l 217.719 302.496 217.883
 303.688 218.203 304.84 c h
218.504 277.164 m 210.043 277.164 l 208.398 277.164 206.762 277.344 205.156
 277.707 c 102.18 174.82 l 102.348 174.637 102.504 174.445 102.672 174.27
 c 106.82 169.84 111.812 166.289 117.352 163.816 c 223.102 270.895 l 220.988
 272.492 219.391 274.668 218.504 277.164 c h
324.547 366.75 m 229.41 366.75 l 227.922 366.75 226.715 365.547 226.711
 364.059 c 226.711 313.996 l 228.152 314.508 229.668 314.77 231.195 314.773
 c 276.883 309.348 l 282.133 308.707 287.105 306.621 291.246 303.328 c 311.285
 292.492 l 322.91 287.156 336.434 287.992 347.312 294.723 c 357.973 301.113
 364.641 312.5 365 324.93 c 365.016 325.391 365.023 325.855 365.023 326.324
 c 364.984 348.652 346.875 366.738 324.547 366.75 c h
324.547 366.75 m f
64.75 268.312 m 64.75 274.312 73.75 274.312 73.75 268.312 c 73.75 222.102
 l 73.75 216.102 64.75 216.102 64.75 222.102 c h
64.75 268.312 m f
69.25 209.812 m 71.734 209.812 73.75 207.797 73.75 205.312 c 73.75 201.707
 l 73.75 195.707 64.75 195.707 64.75 201.707 c 64.75 205.312 l 64.75 207.797
 66.766 209.812 69.25 209.812 c h
69.25 209.812 m f
Q Q
showpage
%%Trailer
end
%%EOF
