%!PS-Adobe-3.0 EPSF-3.0
%%Creator: cairo 1.16.0 (https://cairographics.org)
%%CreationDate: Mon Dec 14 10:24:21 2020
%%Pages: 1
%%DocumentData: Clean7Bit
%%LanguageLevel: 2
%%BoundingBox: 8 47 376 337
%%EndComments
%%BeginProlog
50 dict begin
/q { gsave } bind def
/Q { grestore } bind def
/cm { 6 array astore concat } bind def
/w { setlinewidth } bind def
/J { setlinecap } bind def
/j { setlinejoin } bind def
/M { setmiterlimit } bind def
/d { setdash } bind def
/m { moveto } bind def
/l { lineto } bind def
/c { curveto } bind def
/h { closepath } bind def
/re { exch dup neg 3 1 roll 5 3 roll moveto 0 rlineto
      0 exch rlineto 0 rlineto closepath } bind def
/S { stroke } bind def
/f { fill } bind def
/f* { eofill } bind def
/n { newpath } bind def
/W { clip } bind def
/W* { eoclip } bind def
/BT { } bind def
/ET { } bind def
/BDC { mark 3 1 roll /BDC pdfmark } bind def
/EMC { mark /EMC pdfmark } bind def
/cairo_store_point { /cairo_point_y exch def /cairo_point_x exch def } def
/Tj { show currentpoint cairo_store_point } bind def
/TJ {
  {
    dup
    type /stringtype eq
    { show } { -0.001 mul 0 cairo_font_matrix dtransform rmoveto } ifelse
  } forall
  currentpoint cairo_store_point
} bind def
/cairo_selectfont { cairo_font_matrix aload pop pop pop 0 0 6 array astore
    cairo_font exch selectfont cairo_point_x cairo_point_y moveto } bind def
/Tf { pop /cairo_font exch def /cairo_font_matrix where
      { pop cairo_selectfont } if } bind def
/Td { matrix translate cairo_font_matrix matrix concatmatrix dup
      /cairo_font_matrix exch def dup 4 get exch 5 get cairo_store_point
      /cairo_font where { pop cairo_selectfont } if } bind def
/Tm { 2 copy 8 2 roll 6 array astore /cairo_font_matrix exch def
      cairo_store_point /cairo_font where { pop cairo_selectfont } if } bind def
/g { setgray } bind def
/rg { setrgbcolor } bind def
/d1 { setcachedevice } bind def
/cairo_data_source {
  CairoDataIndex CairoData length lt
    { CairoData CairoDataIndex get /CairoDataIndex CairoDataIndex 1 add def }
    { () } ifelse
} def
/cairo_flush_ascii85_file { cairo_ascii85_file status { cairo_ascii85_file flushfile } if } def
/cairo_image { image cairo_flush_ascii85_file } def
/cairo_imagemask { imagemask cairo_flush_ascii85_file } def
%%EndProlog
%%BeginSetup
%%EndSetup
%%Page: 1 1
%%BeginPageSetup
%%PageBoundingBox: 8 47 376 337
%%EndPageSetup
q 8 47 368 290 rectclip
1 0 0 -1 0 384 cm q
0.258824 0.819608 0.803922 rg
368.691 306.098 m 367.602 301.969 363.375 299.504 359.242 300.586 c 314.445
 312.359 l 312.461 312.879 310.766 314.168 309.73 315.938 c 308.695 317.711
 308.41 319.82 308.934 321.801 c 311.488 331.539 l 371.25 315.832 l h
368.691 306.098 m f
0.984314 0.403922 0.443137 rg
357.359 296.355 m 358.523 300.773 l 315.164 312.172 l 307.539 283.164 l
 h
357.359 296.355 m f
0.188235 0.564706 0.988235 rg
346.582 255.375 m 357.359 296.355 l 307.539 283.164 l 296.762 242.184 l
 h
346.582 255.375 m f
0.984314 0.403922 0.443137 rg
335.812 214.402 m 346.582 255.375 l 296.762 242.184 l 285.984 201.203 l
 h
335.812 214.402 m f
0.188235 0.564706 0.988235 rg
327.188 181.621 m 335.812 214.402 l 285.984 201.203 l 277.363 168.422 l
 h
327.188 181.621 m f
0.984314 0.403922 0.443137 rg
318.809 149.754 m 327.188 181.621 l 277.363 168.422 l 275.453 161.145 l
 h
318.809 149.754 m f
108.547 161.145 m 106.637 168.422 l 56.812 181.621 l 65.191 149.754 l h
108.547 161.145 m f
0.188235 0.564706 0.988235 rg
106.637 168.422 m 98.016 201.203 l 48.188 214.402 l 56.812 181.621 l h
106.637 168.422 m f
0.984314 0.403922 0.443137 rg
98.016 201.203 m 87.238 242.184 l 37.418 255.375 l 48.188 214.402 l h
98.016 201.203 m f
0.188235 0.564706 0.988235 rg
87.238 242.184 m 76.461 283.164 l 26.641 296.355 l 37.418 255.375 l h
87.238 242.184 m f
0.984314 0.403922 0.443137 rg
76.461 283.164 m 68.836 312.172 l 25.477 300.773 l 26.641 296.355 l h
76.461 283.164 m f
0.258824 0.819608 0.803922 rg
69.555 312.359 m 24.758 300.586 l 20.625 299.504 16.398 301.969 15.309 
306.098 c 12.75 315.832 l 72.512 331.539 l 75.066 321.801 l 75.59 319.82
 75.305 317.711 74.27 315.938 c 73.234 314.168 71.539 312.879 69.555 312.359
 c h
69.555 312.359 m f
0.839216 0.337255 0.384314 rg
80.145 153.684 m 65.191 149.754 l 56.812 181.621 l 73.992 177.066 l h
80.145 153.684 m f
0.188235 0.529412 0.839216 rg
73.992 177.066 m 56.812 181.621 l 48.188 214.402 l 65.371 209.852 l h
73.992 177.066 m f
0.839216 0.337255 0.384314 rg
65.371 209.852 m 48.188 214.402 l 37.418 255.375 l 54.598 250.828 l h
65.371 209.852 m f
0.188235 0.529412 0.839216 rg
54.598 250.828 m 37.418 255.375 l 26.641 296.355 l 43.82 291.805 l h
54.598 250.828 m f
0.839216 0.337255 0.384314 rg
26.641 296.355 m 25.477 300.773 l 40.477 304.523 l 43.82 291.805 l h
26.641 296.355 m f
0.227451 0.686275 0.662745 rg
24.758 300.586 m 20.625 299.504 16.398 301.969 15.309 306.098 c 12.75 315.832
 l 27.75 319.582 l 30.309 309.848 l 31.238 306.34 34.477 303.949 38.102 
304.094 c h
24.758 300.586 m f
0.156863 0.258824 0.407843 rg
373.043 304.957 m 371.684 299.828 367.18 296.156 361.883 295.859 c 323.164
 148.609 l 322.531 146.207 320.07 144.77 317.668 145.402 c 299.137 150.27
 l 298.152 144.395 296.684 138.609 294.75 132.977 c 296.766 131.777 l 299.375
 130.23 301.258 127.711 302.008 124.773 c 302.758 121.836 302.309 118.723
 300.762 116.117 c 289.199 96.648 l 285.973 91.23 278.969 89.441 273.543
 92.652 c 271.305 93.984 l 269.016 91.523 266.621 89.176 264.121 86.934 
c 264.867 85.676 l 266.414 83.07 266.863 79.953 266.109 77.016 c 265.359
 74.078 263.473 71.559 260.867 70.016 c 241.379 58.465 l 235.949 55.254 
228.949 57.043 225.723 62.465 c 224.621 64.32 l 221.281 63.254 217.895 62.348
 214.461 61.602 c 214.461 59.395 l 214.453 53.086 209.344 47.973 203.035
 47.965 c 180.375 47.965 l 174.066 47.973 168.953 53.086 168.945 59.395 
c 168.945 61.543 l 165.426 62.293 161.953 63.219 158.527 64.316 c 157.426
 62.457 l 154.199 57.039 147.199 55.25 141.77 58.457 c 122.281 70.008 l 
119.672 71.555 117.785 74.074 117.035 77.012 c 116.285 79.949 116.734 83.062
 118.281 85.672 c 119.027 86.926 l 116.523 89.164 114.129 91.516 111.844
 93.977 c 109.605 92.648 l 104.18 89.438 97.176 91.223 93.949 96.641 c 82.383
 116.113 l 80.836 118.719 80.387 121.836 81.137 124.773 c 81.883 127.711
 83.77 130.23 86.379 131.777 c 88.395 132.973 l 86.484 138.539 85.027 144.246
 84.043 150.047 c 66.336 145.398 l 63.934 144.766 61.473 146.203 60.84 148.605
 c 22.117 295.859 l 16.82 296.156 12.316 299.828 10.957 304.957 c 8.398 
314.688 l 7.766 317.094 9.203 319.555 11.609 320.188 c 71.367 335.887 l 
73.77 336.52 76.23 335.082 76.863 332.68 c 79.422 322.945 l 80.773 317.812
 78.656 312.395 74.184 309.535 c 112.902 162.289 l 113.535 159.887 112.098
 157.426 109.695 156.793 c 92.785 152.352 l 93.594 147.375 94.777 142.469
 96.328 137.672 c 101.727 140.637 108.5 138.785 111.645 133.492 c 123.207
 114.02 l 126.309 108.812 124.789 102.082 119.75 98.711 c 121.035 97.383
 122.359 96.094 123.719 94.844 c 123.977 95.277 l 127.199 100.699 134.207
 102.492 139.633 99.277 c 159.121 87.727 l 164.465 84.562 166.301 77.703
 163.246 72.297 c 165.133 71.734 167.035 71.219 168.957 70.77 c 169.074 
76.996 174.148 81.98 180.375 81.992 c 203.035 81.992 l 209.238 81.98 214.301
 77.027 214.449 70.828 c 216.281 71.262 218.098 71.758 219.902 72.297 c 
216.848 77.703 218.68 84.562 224.027 87.727 c 243.516 99.277 l 248.941 102.492
 255.949 100.699 259.172 95.277 c 259.43 94.844 l 260.785 96.098 262.109
 97.387 263.398 98.711 c 258.359 102.082 256.84 108.812 259.941 114.02 c
 271.5 133.492 l 274.645 138.785 281.418 140.637 286.816 137.672 c 288.387
 142.539 289.582 147.52 290.395 152.566 c 274.309 156.793 l 271.906 157.426
 270.469 159.887 271.102 162.289 c 309.82 309.535 l 305.348 312.395 303.23
 317.812 304.582 322.945 c 307.141 332.68 l 307.773 335.082 310.234 336.52
 312.637 335.887 c 372.395 320.188 l 374.801 319.555 376.238 317.094 375.605
 314.688 c h
70.719 320.656 m 69.301 326.039 l 18.246 312.625 l 19.66 307.246 l 20.121
 305.52 21.887 304.488 23.613 304.941 c 68.41 316.711 l 70.137 317.164 71.168
 318.93 70.715 320.656 c h
35.324 298.711 m 70.148 289.488 l 65.625 306.676 l h
72.781 279.48 m 32.953 290.023 l 41.102 259.059 l 80.926 248.512 l h
83.551 238.504 m 43.727 249.051 l 51.871 218.078 l 91.695 207.535 l h
94.324 197.527 m 54.5 208.07 l 60.488 185.297 l 100.316 174.75 l h
103.047 164.355 m 102.945 164.742 l 63.121 175.289 l 68.398 155.25 l h
115.465 109.426 m 103.898 128.895 l 103.215 130.047 101.727 130.426 100.574
 129.742 c 99.512 129.113 l 100.07 127.816 100.652 126.523 101.262 125.238
 c 102.41 122.984 101.48 120.23 99.199 119.137 c 96.918 118.043 94.188 119.043
 93.148 121.352 c 92.652 122.387 92.18 123.434 91.715 124.484 c 90.965 124.039
 l 89.812 123.355 89.434 121.867 90.117 120.711 c 101.684 101.242 l 102.367
 100.09 103.855 99.711 105.008 100.391 c 105.895 100.918 l 105.465 101.465
 105.023 102.004 104.602 102.562 c 103.098 104.543 103.488 107.367 105.469
 108.867 c 107.449 110.371 110.273 109.98 111.777 108 c 112.402 107.176 
113.051 106.363 113.703 105.555 c 114.617 106.098 l 115.773 106.781 116.152
 108.273 115.469 109.426 c h
155.641 78.496 m 155.484 79.121 155.082 79.656 154.527 79.984 c 135.039
 91.531 l 133.887 92.215 132.398 91.836 131.711 90.684 c 130.68 88.941 l
 131.742 88.121 132.824 87.32 133.922 86.539 c 135.965 85.109 136.453 82.289
 135.012 80.254 c 133.57 78.219 130.75 77.746 128.723 79.195 c 127.82 79.832
 126.941 80.492 126.062 81.156 c 126.012 81.078 l 125.328 79.922 125.711
 78.434 126.863 77.75 c 146.352 66.199 l 147.504 65.516 148.992 65.898 149.676
 67.051 c 149.926 67.473 l 148.344 68.129 146.773 68.824 145.215 69.559 
c 142.969 70.621 142.004 73.305 143.066 75.551 c 144.129 77.801 146.812 
78.762 149.062 77.699 c 150.879 76.844 152.727 76.059 154.582 75.316 c 155.379
 76.66 l 155.707 77.211 155.805 77.871 155.645 78.496 c h
205.453 60.047 m 204.801 59.961 204.145 59.879 203.484 59.805 c 201.016
 59.527 198.789 61.309 198.516 63.777 c 198.238 66.246 200.016 68.473 202.488
 68.75 c 203.48 68.859 204.469 69.004 205.453 69.141 c 205.453 70.559 l 
205.453 71.898 204.367 72.984 203.027 72.988 c 180.375 72.988 l 179.035 
72.984 177.949 71.898 177.945 70.559 c 177.945 69.105 l 178.848 68.98 179.746
 68.848 180.652 68.746 c 183.125 68.473 184.902 66.246 184.625 63.777 c 
184.352 61.305 182.125 59.527 179.652 59.805 c 179.086 59.867 178.516 59.938
 177.945 60.012 c 177.945 59.395 l 177.949 58.055 179.035 56.969 180.375
 56.965 c 203.035 56.965 l 204.375 56.969 205.461 58.055 205.461 59.395 
c h
257.121 81.082 m 257.074 81.156 l 256.195 80.496 255.312 79.832 254.414
 79.195 c 249.516 75.727 244.312 83.074 249.211 86.539 c 250.312 87.32 251.391
 88.117 252.457 88.941 c 251.422 90.684 l 250.734 91.836 249.246 92.219 
248.094 91.535 c 228.605 79.984 l 227.453 79.301 227.074 77.809 227.758 
76.656 c 228.555 75.312 l 230.414 76.059 232.258 76.84 234.074 77.699 c 
239.5 80.262 243.344 72.121 237.918 69.559 c 236.363 68.824 234.789 68.129
 233.207 67.473 c 233.457 67.051 l 234.141 65.898 235.629 65.52 236.785 
66.203 c 256.27 77.75 l 257.422 78.438 257.805 79.926 257.121 81.082 c h
289.992 121.352 m 288.93 119.086 286.227 118.121 283.973 119.203 c 281.719
 120.281 280.777 122.992 281.875 125.238 c 282.488 126.516 283.066 127.809
 283.625 129.113 c 282.562 129.742 l 281.41 130.426 279.922 130.047 279.238
 128.895 c 267.676 109.426 l 266.992 108.273 267.371 106.781 268.523 106.098
 c 269.441 105.555 l 270.09 106.359 270.738 107.172 271.367 108 c 272.867
 109.98 275.688 110.371 277.668 108.871 c 279.652 107.371 280.043 104.547
 278.539 102.566 c 278.121 102.008 277.68 101.469 277.246 100.922 c 278.133
 100.398 l 279.285 99.715 280.773 100.094 281.461 101.246 c 293.023 120.715
 l 293.711 121.867 293.332 123.359 292.176 124.043 c 291.426 124.484 l 290.961
 123.438 290.488 122.391 289.992 121.352 c h
280.949 164.355 m 315.605 155.25 l 320.875 175.289 l 281.047 164.746 l 
h
283.684 174.75 m 323.508 185.297 l 329.496 208.07 l 289.672 197.523 l h
292.305 207.531 m 332.129 218.078 l 340.273 249.047 l 300.445 238.504 l
 h
311.223 279.48 m 303.074 248.512 l 342.898 259.059 l 351.047 290.023 l 
h
348.68 298.711 m 318.375 306.676 l 313.855 289.492 l h
314.703 326.039 m 313.285 320.656 l 312.832 318.93 313.867 317.16 315.594
 316.711 c 360.391 304.941 l 362.117 304.484 363.887 305.516 364.34 307.246
 c 365.758 312.625 l h
314.703 326.039 m f
95.754 263.898 m 92.176 277.684 l 91.551 280.09 92.996 282.547 95.398 283.172
 c 97.805 283.793 100.262 282.352 100.887 279.945 c 104.465 266.156 l 105.102
 263.75 103.656 261.281 101.246 260.656 c 98.832 260.031 96.371 261.484 
95.754 263.898 c h
95.754 263.898 m f
111.094 202.996 m 99.484 247.727 l 98.848 250.133 100.293 252.602 102.703
 253.227 c 105.117 253.852 107.578 252.398 108.195 249.984 c 119.805 205.258
 l 121.316 199.453 112.602 197.191 111.094 202.996 c h
111.094 202.996 m f
118.539 192.23 m 120.945 192.855 123.402 191.41 124.023 189.008 c 124.93
 185.516 l 125.566 183.105 124.121 180.641 121.711 180.016 c 119.297 179.391
 116.84 180.844 116.219 183.254 c 115.312 186.742 l 114.688 189.148 116.133
 191.605 118.539 192.23 c h
118.539 192.23 m f
Q Q
showpage
%%Trailer
end
%%EOF
