%!PS-Adobe-3.0 EPSF-3.0
%%Creator: cairo 1.16.0 (https://cairographics.org)
%%CreationDate: Mon Dec 14 10:24:24 2020
%%Pages: 1
%%DocumentData: Clean7Bit
%%LanguageLevel: 2
%%BoundingBox: 116 8 268 376
%%EndComments
%%BeginProlog
50 dict begin
/q { gsave } bind def
/Q { grestore } bind def
/cm { 6 array astore concat } bind def
/w { setlinewidth } bind def
/J { setlinecap } bind def
/j { setlinejoin } bind def
/M { setmiterlimit } bind def
/d { setdash } bind def
/m { moveto } bind def
/l { lineto } bind def
/c { curveto } bind def
/h { closepath } bind def
/re { exch dup neg 3 1 roll 5 3 roll moveto 0 rlineto
      0 exch rlineto 0 rlineto closepath } bind def
/S { stroke } bind def
/f { fill } bind def
/f* { eofill } bind def
/n { newpath } bind def
/W { clip } bind def
/W* { eoclip } bind def
/BT { } bind def
/ET { } bind def
/BDC { mark 3 1 roll /BDC pdfmark } bind def
/EMC { mark /EMC pdfmark } bind def
/cairo_store_point { /cairo_point_y exch def /cairo_point_x exch def } def
/Tj { show currentpoint cairo_store_point } bind def
/TJ {
  {
    dup
    type /stringtype eq
    { show } { -0.001 mul 0 cairo_font_matrix dtransform rmoveto } ifelse
  } forall
  currentpoint cairo_store_point
} bind def
/cairo_selectfont { cairo_font_matrix aload pop pop pop 0 0 6 array astore
    cairo_font exch selectfont cairo_point_x cairo_point_y moveto } bind def
/Tf { pop /cairo_font exch def /cairo_font_matrix where
      { pop cairo_selectfont } if } bind def
/Td { matrix translate cairo_font_matrix matrix concatmatrix dup
      /cairo_font_matrix exch def dup 4 get exch 5 get cairo_store_point
      /cairo_font where { pop cairo_selectfont } if } bind def
/Tm { 2 copy 8 2 roll 6 array astore /cairo_font_matrix exch def
      cairo_store_point /cairo_font where { pop cairo_selectfont } if } bind def
/g { setgray } bind def
/rg { setrgbcolor } bind def
/d1 { setcachedevice } bind def
/cairo_data_source {
  CairoDataIndex CairoData length lt
    { CairoData CairoDataIndex get /CairoDataIndex CairoDataIndex 1 add def }
    { () } ifelse
} def
/cairo_flush_ascii85_file { cairo_ascii85_file status { cairo_ascii85_file flushfile } if } def
/cairo_image { image cairo_flush_ascii85_file } def
/cairo_imagemask { imagemask cairo_flush_ascii85_file } def
%%EndProlog
%%BeginSetup
%%EndSetup
%%Page: 1 1
%%BeginPageSetup
%%PageBoundingBox: 116 8 268 376
%%EndPageSetup
q 116 8 152 368 rectclip
1 0 0 -1 0 384 cm q
0.701961 0.819608 0.905882 rg
263.371 12.562 m 263.371 20.062 l 263.371 24.043 261.793 27.855 258.977
 30.672 c 256.164 33.484 252.348 35.062 248.371 35.062 c 135.629 35.062 
l 131.652 35.062 127.836 33.484 125.023 30.672 c 122.207 27.855 120.629 
24.043 120.629 20.062 c 120.629 12.562 l h
263.371 12.562 m f
0.27451 0.537255 0.827451 rg
225.016 148.68 m 158.977 148.68 l 146.812 149.031 137.137 158.996 137.137
 171.164 c 137.137 348.938 l 137.137 361.363 147.211 371.438 159.637 371.438
 c 224.363 371.438 l 236.789 371.438 246.863 361.363 246.863 348.938 c 246.863
 171.164 l 246.867 158.992 237.184 149.027 225.016 148.68 c h
225.016 148.68 m f
0.690196 0.709804 0.792157 rg
185.234 117.18 m 177.312 113.711 173.297 104.816 175.934 96.578 c 178.566
 88.344 187.004 83.434 195.465 85.207 c 203.93 86.98 209.684 94.863 208.789
 103.465 c 207.898 112.066 200.648 118.602 192 118.598 c 189.672 118.602
 187.367 118.121 185.234 117.18 c h
185.234 117.18 m f
0.258824 0.501961 0.717647 rg
159.637 348.938 m 159.637 171.164 l 159.637 158.996 169.312 149.031 181.477
 148.68 c 158.977 148.68 l 146.812 149.031 137.137 158.996 137.137 171.164
 c 137.137 348.938 l 137.137 361.363 147.211 371.438 159.637 371.438 c 182.137
 371.438 l 169.711 371.438 159.637 361.363 159.637 348.938 c h
159.637 348.938 m f
0.905882 0.317647 0.388235 rg
137.137 307.613 109.727 30.785 re f
137.137 192.129 109.727 32.457 re f
0.788235 0.309804 0.388235 rg
137.137 307.613 22.5 30.785 re f
137.137 192.129 22.5 32.457 re f
0.156863 0.258824 0.407843 rg
168.895 288.16 m 171.379 288.16 173.395 286.145 173.395 283.66 c 173.395
 245.324 l 173.395 239.324 164.395 239.324 164.395 245.324 c 164.395 283.66
 l 164.395 286.145 166.41 288.16 168.895 288.16 c h
168.895 288.16 m f
216.961 288.16 m 219.445 288.16 221.461 286.145 221.461 283.66 c 221.461
 245.324 l 221.461 239.324 212.461 239.324 212.461 245.324 c 212.461 283.66
 l 212.461 286.145 214.477 288.16 216.961 288.16 c h
216.961 288.16 m f
121.5 277.523 m 123.984 277.523 126 275.508 126 273.023 c 126 258.777 l
 126 252.777 117 252.777 117 258.777 c 117 273.023 l 117 275.508 119.016
 277.523 121.5 277.523 c h
121.5 277.523 m f
116.543 242.188 m 116.543 248.188 125.543 248.188 125.543 242.188 c 125.543
 195.977 l 125.543 189.977 116.543 189.977 116.543 195.977 c h
116.543 242.188 m f
121.043 183.688 m 123.527 183.688 125.543 181.672 125.543 179.188 c 125.543
 175.582 l 125.543 169.582 116.543 169.582 116.543 175.582 c 116.543 179.188
 l 116.543 181.672 118.555 183.688 121.043 183.688 c h
121.043 183.688 m f
248.371 39.562 m 259.133 39.551 267.859 30.828 267.871 20.062 c 267.871
 12.562 l 267.871 10.078 265.855 8.062 263.371 8.062 c 120.629 8.062 l 118.145
 8.062 116.129 10.078 116.129 12.562 c 116.129 20.062 l 116.141 30.828 124.867
 39.551 135.629 39.562 c 187.762 39.562 l 187.762 44.324 l 187.539 45.797
 187.93 47.297 188.844 48.469 c 189.758 49.645 191.113 50.391 192.594 50.531
 c 194.867 50.758 196.863 52.137 197.875 54.18 c 198.891 56.223 198.781 
58.645 197.59 60.59 c 196.395 62.535 194.285 63.73 192 63.75 c 189.719 63.77
 187.586 62.613 186.359 60.691 c 183.082 55.828 175.734 60.539 178.785 65.547
 c 180.801 68.715 183.898 71.043 187.5 72.105 c 187.5 80.832 l 179.477 82.562
 173.152 88.73 171.227 96.711 c 169.305 104.688 172.121 113.062 178.477 
118.258 c 156.742 144.324 l 143.039 145.816 132.652 157.383 132.637 171.164
 c 132.637 348.938 l 132.652 363.844 144.73 375.922 159.637 375.938 c 224.363
 375.938 l 239.266 375.922 251.344 363.844 251.363 348.938 c 251.363 171.16
 l 251.344 157.391 240.977 145.832 227.285 144.324 c 205.848 117.98 l 212.039
 112.711 214.703 104.383 212.719 96.5 c 210.734 88.617 204.445 82.543 196.5
 80.832 c 196.5 72.066 l 201.469 70.547 205.359 66.656 206.879 61.688 c 
208.395 56.719 207.344 51.32 204.07 47.281 c 202.176 44.934 199.637 43.188
 196.762 42.258 c 196.762 39.562 l h
242.363 348.938 m 242.352 358.875 234.301 366.926 224.363 366.938 c 159.637
 366.938 l 149.703 366.926 141.648 358.875 141.637 348.938 c 141.637 342.898
 l 242.363 342.898 l h
242.363 333.898 m 141.637 333.898 l 141.637 312.113 l 242.363 312.113 l
 h
242.363 303.113 m 141.637 303.113 l 141.637 229.09 l 242.363 229.09 l h
242.363 220.09 m 141.637 220.09 l 141.637 196.625 l 242.363 196.625 l h
242.363 171.16 m 242.363 187.625 l 141.637 187.625 l 141.637 171.16 l 141.648
 161.227 149.703 153.172 159.637 153.16 c 224.363 153.16 l 234.301 153.172
 242.352 161.227 242.363 171.16 c h
215.555 144.16 m 168.594 144.16 l 186.711 122.43 l 190.344 123.359 194.156
 123.312 197.762 122.301 c h
204.363 101.723 m 204.359 106.723 201.348 111.23 196.727 113.141 c 192.105
 115.051 186.789 113.992 183.254 110.457 c 179.719 106.918 178.664 101.602
 180.578 96.984 c 182.492 92.363 187 89.352 192 89.352 c 198.828 89.363 
204.359 94.895 204.363 101.723 c h
135.629 30.562 m 129.832 30.555 125.137 25.859 125.129 20.062 c 125.129
 17.062 l 258.871 17.062 l 258.871 20.062 l 258.863 25.859 254.168 30.555
 248.371 30.562 c h
135.629 30.562 m f
Q Q
showpage
%%Trailer
end
%%EOF
