%!PS-Adobe-3.0 EPSF-3.0
%%Creator: cairo 1.16.0 (https://cairographics.org)
%%CreationDate: Mon Dec 14 10:24:26 2020
%%Pages: 1
%%DocumentData: Clean7Bit
%%LanguageLevel: 2
%%BoundingBox: 7 11 377 373
%%EndComments
%%BeginProlog
50 dict begin
/q { gsave } bind def
/Q { grestore } bind def
/cm { 6 array astore concat } bind def
/w { setlinewidth } bind def
/J { setlinecap } bind def
/j { setlinejoin } bind def
/M { setmiterlimit } bind def
/d { setdash } bind def
/m { moveto } bind def
/l { lineto } bind def
/c { curveto } bind def
/h { closepath } bind def
/re { exch dup neg 3 1 roll 5 3 roll moveto 0 rlineto
      0 exch rlineto 0 rlineto closepath } bind def
/S { stroke } bind def
/f { fill } bind def
/f* { eofill } bind def
/n { newpath } bind def
/W { clip } bind def
/W* { eoclip } bind def
/BT { } bind def
/ET { } bind def
/BDC { mark 3 1 roll /BDC pdfmark } bind def
/EMC { mark /EMC pdfmark } bind def
/cairo_store_point { /cairo_point_y exch def /cairo_point_x exch def } def
/Tj { show currentpoint cairo_store_point } bind def
/TJ {
  {
    dup
    type /stringtype eq
    { show } { -0.001 mul 0 cairo_font_matrix dtransform rmoveto } ifelse
  } forall
  currentpoint cairo_store_point
} bind def
/cairo_selectfont { cairo_font_matrix aload pop pop pop 0 0 6 array astore
    cairo_font exch selectfont cairo_point_x cairo_point_y moveto } bind def
/Tf { pop /cairo_font exch def /cairo_font_matrix where
      { pop cairo_selectfont } if } bind def
/Td { matrix translate cairo_font_matrix matrix concatmatrix dup
      /cairo_font_matrix exch def dup 4 get exch 5 get cairo_store_point
      /cairo_font where { pop cairo_selectfont } if } bind def
/Tm { 2 copy 8 2 roll 6 array astore /cairo_font_matrix exch def
      cairo_store_point /cairo_font where { pop cairo_selectfont } if } bind def
/g { setgray } bind def
/rg { setrgbcolor } bind def
/d1 { setcachedevice } bind def
/cairo_data_source {
  CairoDataIndex CairoData length lt
    { CairoData CairoDataIndex get /CairoDataIndex CairoDataIndex 1 add def }
    { () } ifelse
} def
/cairo_flush_ascii85_file { cairo_ascii85_file status { cairo_ascii85_file flushfile } if } def
/cairo_image { image cairo_flush_ascii85_file } def
/cairo_imagemask { imagemask cairo_flush_ascii85_file } def
%%EndProlog
%%BeginSetup
%%EndSetup
%%Page: 1 1
%%BeginPageSetup
%%PageBoundingBox: 7 11 377 373
%%EndPageSetup
q 7 11 370 362 rectclip
1 0 0 -1 0 384 cm q
0.8 0.827451 0.87451 rg
267.051 17.039 m 294.465 28.828 377.836 76.949 371.676 224.453 c 371.672
 224.453 l 320.543 111.238 226.418 58.418 226.418 58.418 c 253.434 20.844
 l 256.516 16.535 262.184 14.953 267.051 17.039 c h
267.051 17.039 m f
0.301961 0.670588 1 rg
371.672 224.453 m 371.676 224.453 l 371.199 235.914 370.176 247.973 368.551
 260.672 c 336.301 192.914 292.305 144.129 259.305 113.992 c 259.305 113.984
 l 249.504 105.039 240.676 97.734 233.406 92.055 c 229.078 88.68 225.309
 85.883 222.219 83.664 c 219.781 81.914 218.137 79.266 217.648 76.305 c 
217.164 73.344 217.871 70.312 219.621 67.875 c 226.418 58.418 l 226.418 
58.418 320.543 111.238 371.672 224.453 c h
371.672 224.453 m f
0.988235 0.792157 0.239216 rg
353.152 338.102 m 356.238 341.836 357.707 346.648 357.23 351.473 c 356.758
 356.297 354.383 360.73 350.629 363.797 c 346.875 366.863 342.055 368.305
 337.23 367.805 c 332.41 367.305 327.988 364.902 324.945 361.133 c 315.465
 349.434 l 315.473 349.434 l 342.781 325.5 l h
353.152 338.102 m f
0.984314 0.403922 0.443137 rg
330.141 310.156 m 302.633 333.594 l 315.465 349.434 l 315.473 349.434 l
 342.781 325.5 l h
330.141 310.156 m f
275.527 243.816 m 247.836 265.965 l 260.258 281.289 l 287.43 258.262 l 
h
275.527 243.816 m f
259.305 113.984 m 259.305 113.992 l 245.281 131.297 l 219.75 108.652 l 
233.406 92.055 l 240.676 97.734 249.504 105.039 259.305 113.984 c h
259.305 113.984 m f
0.780392 0.603922 0.513726 rg
163.836 108.148 m 138.719 131.297 l 247.836 265.965 l 275.527 243.816 l
 h
163.836 108.148 m f
0.301961 0.670588 1 rg
164.379 67.875 m 166.129 70.312 166.836 73.344 166.352 76.305 c 165.863
 79.266 164.219 81.914 161.781 83.664 c 158.691 85.883 154.922 88.68 150.594
 92.055 c 143.324 97.734 134.496 105.039 124.695 113.984 c 124.695 113.992
 l 91.695 144.129 47.699 192.914 15.449 260.672 c 13.824 247.973 12.801 
235.914 12.324 224.453 c 12.328 224.453 l 63.457 111.238 157.582 58.418 
157.582 58.418 c h
164.379 67.875 m f
0.984314 0.403922 0.443137 rg
150.594 92.055 m 163.836 108.148 l 138.719 131.297 l 124.695 113.992 l 
124.695 113.984 l 134.496 105.039 143.324 97.734 150.594 92.055 c h
150.594 92.055 m f
0.8 0.827451 0.87451 rg
130.566 20.844 m 157.582 58.418 l 157.582 58.418 63.457 111.238 12.328 
224.453 c 12.324 224.453 l 6.164 76.949 89.535 28.828 116.949 17.039 c 121.816
 14.953 127.484 16.535 130.566 20.844 c h
130.566 20.844 m f
0.984314 0.403922 0.443137 rg
108.473 243.816 m 96.57 258.262 l 123.742 281.289 l 136.164 265.965 l h
108.473 243.816 m f
53.859 310.156 m 41.219 325.5 l 68.527 349.434 l 68.535 349.434 l 81.367
 333.594 l h
53.859 310.156 m f
0.988235 0.792157 0.239216 rg
68.535 349.434 m 59.055 361.133 l 56.012 364.902 51.59 367.305 46.77 367.805
 c 41.945 368.305 37.125 366.863 33.371 363.797 c 29.617 360.73 27.242 356.297
 26.77 351.473 c 26.293 346.648 27.762 341.836 30.848 338.102 c 41.219 325.5
 l 68.527 349.434 l h
68.535 349.434 m f
0.686275 0.494118 0.411765 rg
219.75 108.652 m 108.473 243.816 l 136.164 265.965 l 245.281 131.297 l 
h
219.75 108.652 m f
0.988235 0.792157 0.239216 rg
287.43 258.262 m 330.141 310.156 l 316.387 321.871 l 273.84 269.773 l h
287.43 258.262 m f
0.819608 0.631373 0.215686 rg
273.84 269.773 m 316.387 321.871 l 302.633 333.594 l 260.258 281.289 l 
h
273.84 269.773 m f
123.742 281.289 m 81.367 333.594 l 67.613 321.871 l 110.16 269.773 l h
123.742 281.289 m f
0.988235 0.792157 0.239216 rg
110.16 269.773 m 67.613 321.871 l 53.859 310.156 l 96.57 258.262 l h
110.16 269.773 m f
0.266667 0.615686 0.878431 rg
35.719 180.816 m 26.953 194.82 19.137 209.398 12.328 224.453 c 12.324 224.453
 l 12.801 235.914 13.824 247.973 15.449 260.672 c 21.539 247.879 28.051 
235.77 34.816 224.324 c 34.18 209.82 34.48 195.285 35.719 180.816 c h
35.719 180.816 m f
0.666667 0.698039 0.74902 rg
35.719 180.816 m 44.719 78.602 101.605 36.301 130.793 21.156 c 130.566 
20.844 l 127.48 16.535 121.816 14.953 116.945 17.039 c 89.535 28.828 6.164
 76.949 12.324 224.453 c 12.328 224.453 l 19.137 209.398 26.953 194.82 35.719
 180.816 c h
35.719 180.816 m f
0.156863 0.258824 0.407843 rg
48.75 115.609 m 46.477 114.602 43.82 115.629 42.812 117.898 c 41.879 120.008
 40.969 122.168 40.098 124.328 c 39.168 126.633 40.285 129.254 42.59 130.184
 c 44.895 131.113 47.516 129.996 48.445 127.691 c 49.277 125.625 50.152 
123.559 51.043 121.547 c 52.051 119.273 51.023 116.613 48.75 115.609 c h
48.75 115.609 m f
115.648 40.336 m 114.316 38.238 111.535 37.617 109.438 38.953 c 92.582 
49.664 68.645 69.422 50.34 102.691 c 49.141 104.867 49.934 107.605 52.113
 108.805 c 54.289 110 57.027 109.207 58.223 107.031 c 75.609 75.43 98.297
 56.695 114.266 46.547 c 116.363 45.215 116.984 42.434 115.648 40.336 c 
h
115.648 40.336 m f
268.832 12.906 m 262.02 10.023 254.121 12.223 249.781 18.211 c 215.965 
65.25 l 213.52 68.656 212.527 72.895 213.207 77.035 c 213.887 81.172 216.188
 84.871 219.594 87.316 c 221.703 88.828 224.188 90.66 226.98 92.785 c 192
 135.273 l 157.02 92.785 l 159.812 90.66 162.297 88.828 164.406 87.316 c
 167.812 84.871 170.109 81.172 170.793 77.035 c 171.473 72.895 170.48 68.656
 168.035 65.25 c 134.219 18.211 l 129.879 12.223 121.98 10.023 115.168 12.906
 c 84.926 25.914 -11.973 82.266 10.988 261.246 c 11.559 265.699 17.582 266.66
 19.512 262.605 c 40.195 219.422 67.367 179.664 100.086 144.707 c 108.477
 135.691 116.617 127.641 124.223 120.555 c 163.855 169.461 l 27.371 335.242
 l 19.578 344.809 20.797 358.832 30.125 366.91 c 34.219 370.441 39.449 372.383
 44.855 372.375 c 45.555 372.375 46.258 372.344 46.961 372.277 c 53.07 371.746
 58.703 368.742 62.551 363.961 c 192 204.199 l 321.449 363.961 l 325.297
 368.742 330.926 371.746 337.039 372.281 c 337.742 372.348 338.445 372.379
 339.145 372.379 c 344.551 372.383 349.777 370.441 353.871 366.91 c 363.199
 358.832 364.418 344.809 356.629 335.242 c 220.145 169.461 l 259.777 120.555
 l 267.383 127.645 275.523 135.691 283.914 144.707 c 316.633 179.664 343.805
 219.426 364.488 262.609 c 366.418 266.664 372.441 265.699 373.012 261.246
 c 395.973 82.266 299.074 25.914 268.832 12.906 c h
118.727 21.172 m 119.559 20.816 120.453 20.633 121.359 20.633 c 123.559
 20.633 125.621 21.688 126.91 23.465 c 151.07 57.074 l 142.887 62.16 123.914
 74.797 101.094 95.664 c 76.23 118.391 42.523 155.129 16.547 205.418 c 18.027
 75.625 93.234 32.137 118.727 21.172 c h
93.5 138.578 m 63.691 170.453 38.371 206.242 18.23 244.961 c 17.602 238.215
 17.164 231.684 16.883 225.32 c 42.914 168.16 80.191 127.004 106.949 102.496
 c 129.645 81.719 148.801 69.082 156.34 64.406 c 160.727 70.5 l 161.777 
71.969 162.203 73.797 161.906 75.578 c 161.613 77.359 160.621 78.953 159.148
 80.004 c 146.605 89.02 121.391 108.613 93.5 138.578 c h
130.879 114.469 m 137.883 108.188 144.316 102.805 149.922 98.324 c 157.66
 107.723 l 139.199 124.738 l h
144.875 131.746 m 163.391 114.684 l 186.172 142.355 l 169.691 162.375 l
 h
97.145 264.648 m 103.879 270.355 l 67.031 315.465 l 60.141 309.602 l h
55.555 358.297 m 53.223 361.172 49.828 362.984 46.145 363.32 c 42.457 363.656
 38.789 362.484 35.98 360.074 c 30.352 355.203 29.613 346.734 34.316 340.961
 c 41.742 331.945 l 62.309 349.961 l h
67.977 342.965 m 47.465 324.996 l 54.422 316.547 l 75.105 334.172 l h
80.773 327.176 m 73.883 321.305 l 110.746 276.176 l 117.477 281.875 l h
123.141 274.883 m 102.867 257.699 l 109.125 250.098 l 129.816 266.648 l
 h
266.523 281.879 m 273.254 276.18 l 310.117 321.309 l 303.227 327.18 l h
349.68 340.961 m 354.383 346.734 353.648 355.203 348.02 360.074 c 345.207
 362.484 341.543 363.656 337.855 363.32 c 334.168 362.984 330.773 361.172
 328.441 358.297 c 321.691 349.961 l 342.258 331.945 l h
336.535 324.996 m 316.023 342.965 l 308.898 334.168 l 329.582 316.543 l
 h
323.859 309.602 m 316.969 315.469 l 280.125 270.355 l 286.855 264.648 l
 h
281.133 257.699 m 260.859 274.883 l 254.184 266.648 l 274.875 250.102 l
 h
269.156 243.148 m 248.52 259.656 l 197.793 197.051 l 214.367 176.598 l 
h
135.48 259.656 m 114.844 243.148 l 220.254 115.113 l 239.074 131.805 l 
h
244.746 124.805 m 225.98 108.16 l 234.074 98.324 l 239.684 102.805 246.113
 108.188 253.117 114.473 c h
365.773 244.965 m 345.637 206.246 320.312 170.453 290.504 138.578 c 262.613
 108.613 237.398 89.02 224.848 80.004 c 223.379 78.953 222.387 77.363 222.09
 75.578 c 221.797 73.797 222.223 71.969 223.273 70.5 c 227.66 64.402 l 235.168
 69.051 254.188 81.59 276.836 102.297 c 303.676 126.84 341.055 168.074 367.137
 225.363 c 366.848 231.781 366.395 238.316 365.773 244.965 c h
367.492 205.5 m 341.508 155.168 307.781 118.402 282.906 95.66 c 260.086
 74.793 241.113 62.156 232.93 57.074 c 257.09 23.469 l 258.379 21.691 260.441
 20.637 262.641 20.637 c 263.547 20.637 264.441 20.82 265.273 21.176 c 280.695
 27.809 310.074 44.277 333.586 80.086 c 355.664 113.707 367 155.746 367.492
 205.5 c h
367.492 205.5 m f
Q Q
showpage
%%Trailer
end
%%EOF
