%!PS-Adobe-3.0 EPSF-3.0
%%Creator: cairo 1.16.0 (https://cairographics.org)
%%CreationDate: Mon Dec 14 10:24:39 2020
%%Pages: 1
%%DocumentData: Clean7Bit
%%LanguageLevel: 2
%%BoundingBox: 7 8 377 376
%%EndComments
%%BeginProlog
50 dict begin
/q { gsave } bind def
/Q { grestore } bind def
/cm { 6 array astore concat } bind def
/w { setlinewidth } bind def
/J { setlinecap } bind def
/j { setlinejoin } bind def
/M { setmiterlimit } bind def
/d { setdash } bind def
/m { moveto } bind def
/l { lineto } bind def
/c { curveto } bind def
/h { closepath } bind def
/re { exch dup neg 3 1 roll 5 3 roll moveto 0 rlineto
      0 exch rlineto 0 rlineto closepath } bind def
/S { stroke } bind def
/f { fill } bind def
/f* { eofill } bind def
/n { newpath } bind def
/W { clip } bind def
/W* { eoclip } bind def
/BT { } bind def
/ET { } bind def
/BDC { mark 3 1 roll /BDC pdfmark } bind def
/EMC { mark /EMC pdfmark } bind def
/cairo_store_point { /cairo_point_y exch def /cairo_point_x exch def } def
/Tj { show currentpoint cairo_store_point } bind def
/TJ {
  {
    dup
    type /stringtype eq
    { show } { -0.001 mul 0 cairo_font_matrix dtransform rmoveto } ifelse
  } forall
  currentpoint cairo_store_point
} bind def
/cairo_selectfont { cairo_font_matrix aload pop pop pop 0 0 6 array astore
    cairo_font exch selectfont cairo_point_x cairo_point_y moveto } bind def
/Tf { pop /cairo_font exch def /cairo_font_matrix where
      { pop cairo_selectfont } if } bind def
/Td { matrix translate cairo_font_matrix matrix concatmatrix dup
      /cairo_font_matrix exch def dup 4 get exch 5 get cairo_store_point
      /cairo_font where { pop cairo_selectfont } if } bind def
/Tm { 2 copy 8 2 roll 6 array astore /cairo_font_matrix exch def
      cairo_store_point /cairo_font where { pop cairo_selectfont } if } bind def
/g { setgray } bind def
/rg { setrgbcolor } bind def
/d1 { setcachedevice } bind def
/cairo_data_source {
  CairoDataIndex CairoData length lt
    { CairoData CairoDataIndex get /CairoDataIndex CairoDataIndex 1 add def }
    { () } ifelse
} def
/cairo_flush_ascii85_file { cairo_ascii85_file status { cairo_ascii85_file flushfile } if } def
/cairo_image { image cairo_flush_ascii85_file } def
/cairo_imagemask { imagemask cairo_flush_ascii85_file } def
%%EndProlog
%%BeginSetup
%%EndSetup
%%Page: 1 1
%%BeginPageSetup
%%PageBoundingBox: 7 8 377 376
%%EndPageSetup
q 7 8 370 368 rectclip
1 0 0 -1 0 384 cm q
0.917647 0.87451 0.32549 rg
372.18 334.215 m 372.18 339.969 l 372.18 346.102 369.742 351.988 365.402
 356.324 c 361.062 360.664 355.18 363.098 349.043 363.098 c 345.262 363.098
 l 332.488 363.098 322.133 352.742 322.133 339.969 c 322.133 334.215 l h
372.18 334.215 m f
0.301961 0.670588 1 rg
322.133 305.918 50.047 28.297 re f
0.917647 0.87451 0.32549 rg
322.133 277.629 50.047 28.289 re f
0.301961 0.670588 1 rg
322.133 251.438 50.047 26.191 re f
0.917647 0.87451 0.32549 rg
61.867 334.215 m 61.867 339.969 l 61.867 352.742 51.512 363.098 38.738 
363.098 c 34.957 363.098 l 28.82 363.098 22.938 360.664 18.598 356.324 c
 14.258 351.988 11.82 346.102 11.82 339.969 c 11.82 334.215 l h
61.867 334.215 m f
0.301961 0.670588 1 rg
11.82 305.918 50.047 28.297 re f
0.917647 0.87451 0.32549 rg
11.82 277.629 50.047 28.289 re f
0.301961 0.670588 1 rg
11.82 251.438 50.047 26.191 re f
0.984314 0.403922 0.443137 rg
355.883 231.578 16.297 19.859 re f
0.917647 0.87451 0.32549 rg
338.258 231.578 17.625 19.859 re f
0.984314 0.403922 0.443137 rg
322.133 231.578 16.125 19.859 re f
45.156 231.578 16.711 19.859 re f
0.917647 0.87451 0.32549 rg
27.523 231.578 17.633 19.859 re f
0.984314 0.403922 0.443137 rg
11.82 231.578 15.703 19.859 re f
0.788235 0.737255 0.286275 rg
34.32 339.969 m 34.32 334.215 l 11.82 334.215 l 11.82 339.969 l 11.82 346.102
 14.258 351.988 18.598 356.324 c 22.938 360.664 28.82 363.098 34.957 363.098
 c 38.738 363.098 l 41.961 363.102 45.148 362.426 48.094 361.117 c 39.723
 357.414 34.32 349.121 34.32 339.969 c h
34.32 339.969 m f
11.82 277.629 22.5 28.289 re f
0.290196 0.619608 0.866667 rg
11.82 305.918 22.5 28.297 re f
11.82 251.438 22.5 26.191 re f
0.156863 0.258824 0.407843 rg
53.203 218.648 m 55.691 218.648 57.703 216.633 57.703 214.148 c 57.703 
199.902 l 57.703 193.902 48.703 193.902 48.703 199.902 c 48.703 214.148 
l 48.703 216.633 50.719 218.648 53.203 218.648 c h
53.203 218.648 m f
48.25 183.312 m 48.25 189.312 57.25 189.312 57.25 183.312 c 57.25 137.102
 l 57.25 131.102 48.25 131.102 48.25 137.102 c h
48.25 183.312 m f
52.75 124.812 m 55.234 124.812 57.25 122.797 57.25 120.312 c 57.25 116.707
 l 57.25 110.707 48.25 110.707 48.25 116.707 c 48.25 120.312 l 48.25 122.797
 50.266 124.812 52.75 124.812 c h
52.75 124.812 m f
372.176 227.078 m 351.75 227.078 l 351.75 60.125 l 351.75 31.543 328.582
 8.375 300 8.375 c 271.418 8.375 248.25 31.543 248.25 60.125 c 248.25 311.125
 l 248.25 341.777 223.402 366.625 192.75 366.625 c 162.098 366.625 137.25
 341.777 137.25 311.125 c 137.25 60.125 l 137.219 31.559 114.066 8.406 85.5
 8.375 c 84 8.375 l 55.434 8.406 32.281 31.559 32.25 60.125 c 32.25 227.074
 l 11.824 227.074 l 9.34 227.074 7.324 229.09 7.324 231.574 c 7.324 339.965
 l 7.34 355.219 19.703 367.582 34.957 367.598 c 38.734 367.598 l 53.988 
367.582 66.352 355.219 66.367 339.965 c 66.367 231.578 l 66.367 229.09 64.355
 227.078 61.867 227.078 c 41.25 227.078 l 41.25 60.125 l 41.277 36.527 60.402
 17.402 84 17.375 c 85.5 17.375 l 109.098 17.402 128.223 36.527 128.25 60.125
 c 128.25 311.125 l 128.25 346.746 157.129 375.625 192.75 375.625 c 228.371
 375.625 257.25 346.746 257.25 311.125 c 257.25 60.125 l 257.25 36.516 276.391
 17.375 300 17.375 c 323.609 17.375 342.75 36.516 342.75 60.125 c 342.75
 227.074 l 322.133 227.074 l 319.645 227.074 317.633 229.09 317.633 231.574
 c 317.633 339.965 l 317.648 355.219 330.012 367.582 345.266 367.598 c 349.043
 367.598 l 364.297 367.582 376.66 355.219 376.676 339.965 c 376.676 231.578
 l 376.676 229.09 374.66 227.078 372.176 227.078 c h
32.027 236.078 m 40.656 236.078 l 40.656 246.938 l 32.023 246.938 l h
16.324 236.078 m 23.023 236.078 l 23.023 246.938 l 16.324 246.938 l h
57.367 339.965 m 57.355 350.254 49.02 358.59 38.734 358.602 c 34.957 358.602
 l 24.672 358.59 16.336 350.254 16.324 339.965 c 16.324 338.711 l 57.367
 338.711 l h
57.367 329.711 m 16.324 329.711 l 16.324 310.418 l 57.367 310.418 l h
57.367 301.418 m 16.324 301.418 l 16.324 282.125 l 57.367 282.125 l h
49.656 236.078 m 57.367 236.078 l 57.367 246.938 l 49.656 246.938 l h
57.367 255.938 m 57.367 273.125 l 16.324 273.125 l 16.324 255.938 l h
342.754 236.078 m 351.383 236.078 l 351.383 246.938 l 342.754 246.938 l
 h
326.629 236.078 m 333.754 236.078 l 333.754 246.938 l 326.629 246.938 l
 h
367.676 339.965 m 367.664 350.254 359.328 358.59 349.043 358.602 c 345.262
 358.602 l 334.977 358.59 326.641 350.254 326.629 339.965 c 326.629 338.711
 l 367.676 338.711 l h
367.676 329.711 m 326.633 329.711 l 326.633 310.418 l 367.676 310.418 l
 h
367.676 301.418 m 326.633 301.418 l 326.633 282.125 l 367.676 282.125 l
 h
367.676 273.125 m 326.633 273.125 l 326.633 255.938 l 367.676 255.938 l
 h
367.676 246.938 m 360.383 246.938 l 360.383 236.078 l 367.676 236.078 l
 h
367.676 246.938 m f
Q Q
showpage
%%Trailer
end
%%EOF
