%!PS-Adobe-3.0 EPSF-3.0
%%Creator: cairo 1.16.0 (https://cairographics.org)
%%CreationDate: Mon Dec 14 10:24:41 2020
%%Pages: 1
%%DocumentData: Clean7Bit
%%LanguageLevel: 2
%%BoundingBox: 7 15 377 369
%%EndComments
%%BeginProlog
50 dict begin
/q { gsave } bind def
/Q { grestore } bind def
/cm { 6 array astore concat } bind def
/w { setlinewidth } bind def
/J { setlinecap } bind def
/j { setlinejoin } bind def
/M { setmiterlimit } bind def
/d { setdash } bind def
/m { moveto } bind def
/l { lineto } bind def
/c { curveto } bind def
/h { closepath } bind def
/re { exch dup neg 3 1 roll 5 3 roll moveto 0 rlineto
      0 exch rlineto 0 rlineto closepath } bind def
/S { stroke } bind def
/f { fill } bind def
/f* { eofill } bind def
/n { newpath } bind def
/W { clip } bind def
/W* { eoclip } bind def
/BT { } bind def
/ET { } bind def
/BDC { mark 3 1 roll /BDC pdfmark } bind def
/EMC { mark /EMC pdfmark } bind def
/cairo_store_point { /cairo_point_y exch def /cairo_point_x exch def } def
/Tj { show currentpoint cairo_store_point } bind def
/TJ {
  {
    dup
    type /stringtype eq
    { show } { -0.001 mul 0 cairo_font_matrix dtransform rmoveto } ifelse
  } forall
  currentpoint cairo_store_point
} bind def
/cairo_selectfont { cairo_font_matrix aload pop pop pop 0 0 6 array astore
    cairo_font exch selectfont cairo_point_x cairo_point_y moveto } bind def
/Tf { pop /cairo_font exch def /cairo_font_matrix where
      { pop cairo_selectfont } if } bind def
/Td { matrix translate cairo_font_matrix matrix concatmatrix dup
      /cairo_font_matrix exch def dup 4 get exch 5 get cairo_store_point
      /cairo_font where { pop cairo_selectfont } if } bind def
/Tm { 2 copy 8 2 roll 6 array astore /cairo_font_matrix exch def
      cairo_store_point /cairo_font where { pop cairo_selectfont } if } bind def
/g { setgray } bind def
/rg { setrgbcolor } bind def
/d1 { setcachedevice } bind def
/cairo_data_source {
  CairoDataIndex CairoData length lt
    { CairoData CairoDataIndex get /CairoDataIndex CairoDataIndex 1 add def }
    { () } ifelse
} def
/cairo_flush_ascii85_file { cairo_ascii85_file status { cairo_ascii85_file flushfile } if } def
/cairo_image { image cairo_flush_ascii85_file } def
/cairo_imagemask { imagemask cairo_flush_ascii85_file } def
%%EndProlog
%%BeginSetup
%%EndSetup
%%Page: 1 1
%%BeginPageSetup
%%PageBoundingBox: 7 15 377 369
%%EndPageSetup
q 7 15 370 354 rectclip
1 0 0 -1 0 384 cm q
0.27451 0.537255 0.827451 rg
277.352 37.051 m 279.449 39.074 279.449 42.449 277.426 44.477 c 276.824
 45.074 276.074 45.523 275.324 45.824 c 259.875 52.199 l 259.352 51.375 
258.824 50.551 258.227 49.801 c 263.551 35.102 l 264.074 32.176 266.852 
30.301 269.773 30.824 c 270.824 31.051 271.801 31.5 272.551 32.25 c h
277.352 37.051 m f
0.8 0.827451 0.87451 rg
235.426 142.801 m 226.727 124.801 220.648 108.977 220.648 108.977 c 206.023
 116.324 193.051 126.449 182.324 138.676 c 175.051 147 165.523 156.074 153.375
 164.25 c 142.5 171.602 132.074 176.551 123.074 180 c 119.773 181.273 118.273
 185.102 119.852 188.25 c 119.852 188.324 l 126.148 200.699 l 126.301 201
 126.523 201.301 126.75 201.602 c 128.477 203.852 131.699 204.676 134.324
 203.25 c 153.074 193.352 171.824 183.375 190.5 173.398 c 190.5 173.398 
198.898 184.949 204.375 193.801 c 222.523 197.324 247.574 192.375 264.602
 187.949 c 254.398 178.801 243.75 159.824 235.426 142.801 c h
235.426 142.801 m f
1 0.847059 0.717647 rg
120.676 188.324 m 108.602 187.727 l 105.602 187.648 102.75 188.699 100.426
 190.574 c 88.5 205.5 l 86.852 207.523 86.023 210 86.023 212.625 c 86.023
 219 91.199 224.25 97.648 224.176 c 100.5 224.176 103.199 223.125 105.301
 221.25 c 118.727 209.551 l 127.727 201.676 l h
120.676 188.324 m f
371.176 48 m 369.148 31.199 l 368.398 25.352 363.523 21 357.602 21 c 351.523
 21 346.426 25.801 346.051 31.875 c 344.25 62.25 l 358.727 65.852 l 367.5
 57.898 l 370.273 55.352 371.625 51.676 371.176 48 c h
371.176 48 m f
0.690196 0.709804 0.792157 rg
359.477 65.102 m 345 61.5 l 343.5 61.125 l 339.898 60.301 336.148 62.25
 334.875 65.699 c 326.023 89.551 l 324.227 94.426 319.875 97.875 314.699
 98.477 c 248.551 104.25 l 235.426 142.648 l 243.676 159.676 254.398 178.648
 264.676 187.875 c 275.852 184.949 283.574 182.25 283.574 182.25 c 282.977
 180.375 282.75 178.426 282.977 176.477 c 285.602 160.273 l 286.949 152.023
 292.051 144.824 299.398 140.773 c 343.5 116.398 l 347.324 114.301 350.176
 110.852 351.602 106.801 c 363.148 74.102 l 364.5 70.648 362.852 66.75 359.477
 65.102 c h
359.477 65.102 m f
1 0.847059 0.717647 rg
355.5 349.273 m 350.477 347.023 345.977 343.875 342.074 340.051 c 337.801
 335.773 l 336.75 336.301 l 331.949 338.625 326.324 338.625 321.602 336.227
 c 318.898 339.676 l 318.75 339.824 318.676 339.977 318.602 340.125 c 316.199
 343.875 318.301 348.824 322.5 350.102 c 330.301 352.426 l 334.051 353.551
 337.648 355.273 340.875 357.449 c 348.074 362.398 l 351.602 364.801 356.324
 363.898 358.727 360.375 c 361.051 356.926 360.148 352.199 356.699 349.875
 c 356.25 349.648 355.875 349.426 355.5 349.273 c h
355.5 349.273 m f
0.427451 0.454902 0.52549 rg
346.051 252.977 m 311.398 231.301 l 309.75 230.176 308.398 228.75 307.273
 227.102 c 272.852 226.727 l 196.801 232.727 l 194.398 235.5 191.551 237.898
 188.398 239.773 c 151.801 261.602 121.5 270.977 73.199 314.324 c 72.898
 314.551 72.676 314.852 72.449 315.074 c 69.898 318.227 70.273 322.801 73.426
 325.426 c 84.148 334.273 l 87.449 336.977 l 89.625 338.773 92.625 339.148
 95.25 338.023 c 227.398 275.25 l 241.051 268.949 256.574 268.125 270.75
 272.926 c 308.551 288.602 l 310.727 289.352 312.301 291.227 312.676 293.477
 c 318.676 332.176 l 318.898 333.824 319.949 335.324 321.449 336.074 c 326.25
 338.398 331.801 338.398 336.602 336.148 c 337.648 335.625 l 338.324 335.102
 342.449 331.352 342.977 325.949 c 342.977 325.727 342.977 325.5 343.051
 325.273 c 343.352 317.25 345.824 309.074 347.852 301.352 c 354.977 275.926
 l 357.227 267.227 353.625 258 346.051 252.977 c h
346.051 252.977 m f
0.878431 0.937255 0.976471 rg
248.625 104.398 m 235.5 142.801 l 226.801 124.801 220.727 108.977 220.727
 108.977 c 225.227 106.949 l 230.551 107.477 235.875 106.875 240.977 105.148
 c h
248.625 104.398 m f
1 0.847059 0.717647 rg
84.074 334.352 m 73.352 325.5 l 72.148 324.523 71.324 323.176 70.949 321.602
 c 54.977 334.125 l 52.875 335.773 50.699 337.199 48.301 338.477 c 46.426
 339.449 l 43.648 340.801 40.727 341.852 37.727 342.602 c 34.727 343.352
 31.648 343.949 28.574 344.324 c 24.449 344.852 21.449 348.602 21.977 352.801
 c 22.5 356.926 26.25 359.926 30.449 359.398 c 30.898 359.324 31.352 359.25
 31.801 359.102 c 45.375 356.773 l 51.074 356.324 56.773 356.551 62.398 
357.449 c 64.875 357.898 67.352 357.523 69.602 356.398 c 75.676 353.102 
75.602 347.852 74.625 344.398 c 74.699 344.176 84.074 334.648 84.074 334.352
 c h
84.074 334.352 m f
0.427451 0.454902 0.52549 rg
124.051 213.75 m 121.875 212.477 119.852 211.125 117.898 209.551 c 110.773
 204 104.25 196.352 99.75 190.648 c 96.148 186 93.898 182.699 93.898 182.699
 c 82.5 191.398 l 82.5 191.398 86.398 195.375 91.352 200.926 c 96.75 206.852
 101.773 213.074 106.426 219.602 c 108 221.773 109.426 224.023 110.699 226.426
 c 110.699 231.977 116.102 234.301 121.727 234.301 c 127.352 234.301 131.398
 231.227 131.398 225.676 c 131.398 220.125 130.426 214.648 124.051 213.75
 c h
124.051 213.75 m f
0.866667 0.92549 0.960784 rg
40.125 92.324 m 39.449 91.199 38.398 90.301 37.125 89.926 c 13.727 82.648
 l 13.051 82.426 12.301 82.801 12.074 83.551 c 12 83.852 12 84.227 12.148
 84.523 c 15.898 91.648 18.898 99.074 21.227 106.727 c 23.398 113.852 24.898
 121.125 25.801 128.477 c 26.023 129.227 26.398 129.898 26.926 130.426 c
 82.426 191.398 l 93.824 182.699 l h
40.125 92.324 m f
0.341176 0.368627 0.427451 rg
88.352 327 m 85.199 324.449 84.824 319.801 87.375 316.648 c 87.602 316.352
 87.824 316.125 88.125 315.898 c 136.352 272.551 166.727 263.176 203.324
 241.352 c 205.801 239.926 208.648 238.352 210.676 236.324 c 196.801 232.801
 l 194.398 235.574 191.551 237.977 188.398 239.852 c 151.801 261.676 121.5
 271.051 73.199 314.398 c 70.199 317.102 69.977 321.75 72.676 324.75 c 72.898
 325.051 73.199 325.273 73.426 325.5 c 84.148 334.352 l 87.449 337.051 l
 89.625 338.852 92.625 339.227 95.25 338.102 c 99.449 336.074 l 99.148 335.773
 l h
88.352 327 m f
0.721569 0.74902 0.788235 rg
195.523 180.375 m 198.301 184.352 201.75 189.449 204.523 193.949 c 209.398
 194.852 214.352 195.227 219.301 195.148 c 216.75 191.023 213.676 186.449
 211.051 182.625 c 208.051 178.273 202.199 176.852 197.477 179.324 c h
195.523 180.375 m f
220.727 108.898 m 206.102 116.25 193.125 126.301 182.398 138.602 c 173.926
 148.352 164.176 156.977 153.449 164.176 c 144 170.551 133.801 175.875 123.148
 179.926 c 120.074 181.051 118.5 184.5 119.699 187.574 c 126.898 201.523
 l 128.699 203.852 131.926 204.523 134.477 203.176 c 140.324 200.023 l 135
 189.676 l 135 189.602 l 133.5 186.676 134.699 183.074 137.625 181.574 c
 137.852 181.5 138 181.426 138.227 181.352 c 148.875 177.301 159.074 171.977
 168.523 165.602 c 179.25 158.324 189 149.773 197.477 140.023 c 205.199 
131.176 214.199 123.375 224.102 117 c 221.926 112.051 220.727 108.898 220.727
 108.898 c h
220.727 108.898 m f
1 0.847059 0.717647 rg
262.875 58.426 m 255.227 46.352 l 248.398 39.148 238.875 35.102 228.977
 35.102 c 209.625 35.023 193.648 50.25 192.824 69.602 c 195.074 83.773 l
 202.125 102.074 222.449 111.523 240.977 105.074 c 241.273 105 241.574 104.852
 241.875 104.773 c 260.477 97.727 269.852 76.949 262.875 58.426 c h
262.875 58.426 m f
0.372549 0.658824 0.929412 rg
259.801 52.199 m 259.273 51.375 258.75 50.551 258.148 49.801 c 257.25 48.602
 256.273 47.398 255.227 46.352 c 245.625 52.125 235.5 57 225 60.824 c 214.574
 64.727 203.773 67.648 192.75 69.523 c 192.75 71.023 l 192.75 75.375 193.5
 79.648 195.074 83.699 c 206.25 81.449 217.273 78.375 228 74.551 c 240.074
 70.199 251.773 64.801 262.875 58.426 c 262.051 56.25 261 54.148 259.801
 52.199 c h
259.801 52.199 m f
0.690196 0.709804 0.792157 rg
307.273 227.176 m 274.352 228.301 l 273.977 222.074 272.477 215.926 269.926
 210.227 c 284.398 204.602 292.574 197.398 292.574 197.398 c 297.602 204
 303.074 211.125 304.949 221.852 c 305.398 223.801 306.148 225.602 307.273
 227.176 c h
307.273 227.176 m f
0.427451 0.454902 0.52549 rg
292.574 197.398 m 292.574 197.398 284.398 204.602 269.926 210.227 c 255.074
 216 233.625 220.125 207.523 213.227 c 210.449 203.551 207.449 198.676 204.523
 193.875 c 222.676 197.398 247.727 192.449 264.75 188.023 c 275.926 185.102
 283.648 182.398 283.648 182.398 c 284.773 186.148 287.102 189.898 289.125
 192.676 c 290.176 194.25 291.375 195.824 292.574 197.398 c h
292.574 197.398 m f
0.8 0.827451 0.87451 rg
274.352 228.301 m 274.727 234.676 273.75 241.949 269.699 248.398 c 268.727
 249.898 266.926 250.648 265.125 250.199 c 196.801 232.875 l 198 231.449
 199.125 229.949 200.176 228.375 c 204 222.227 206.324 217.352 207.523 213.227
 c 233.699 220.125 255.148 216 269.926 210.227 c 272.477 215.926 273.977
 222.074 274.352 228.301 c h
274.352 228.301 m f
0.360784 0.380392 0.427451 rg
204.523 193.875 m 207.449 198.676 210.449 203.551 207.523 213.227 c 212.25
 214.5 217.125 215.398 222 216 c 223.875 208.949 222.898 201.449 219.375
 195.074 c 214.352 195.148 209.398 194.773 204.523 193.875 c h
204.523 193.875 m f
0.721569 0.74902 0.788235 rg
222.074 216.074 m 217.125 215.477 212.324 214.5 207.523 213.227 c 206.25
 217.273 204 222.227 200.176 228.375 c 199.199 229.949 198.074 231.449 196.801
 232.875 c 210.676 236.398 l 212.176 234 214.5 230.926 215.102 229.875 c
 217.949 225.523 220.273 220.875 222.074 216.074 c h
222.074 216.074 m f
0.156863 0.258824 0.407843 rg
376.352 46.727 m 374.324 29.926 l 373.273 21.074 365.25 14.852 356.398 
15.898 c 348.676 16.801 342.75 23.102 342.301 30.898 c 340.801 56.625 l 
336.227 57 332.25 60 330.676 64.352 c 321.824 88.199 l 320.625 91.426 317.699
 93.75 314.25 94.273 c 258.375 99.148 l 265.648 91.648 269.625 81.602 269.699
 71.176 c 269.699 70.273 269.625 69.375 269.625 68.551 c 271.801 73.199 
l 272.852 75.449 275.551 76.426 277.801 75.375 c 280.051 74.324 281.023 
71.625 279.977 69.375 c 274.125 56.852 l 282.227 58.426 l 284.699 58.426
 286.727 56.398 286.727 53.926 c 286.727 51.824 285.227 49.949 283.125 49.5
 c 279.449 48.75 l 283.801 45.602 284.773 39.523 281.625 35.176 c 281.324
 34.727 280.949 34.352 280.574 33.977 c 275.699 29.176 l 271.801 25.352 
265.648 25.426 261.824 29.324 c 260.551 30.602 259.648 32.25 259.273 34.051
 c 256.574 41.477 l 240.148 26.25 214.5 27.148 199.199 43.574 c 183.898 
60 184.875 85.648 201.301 100.949 c 204.676 104.102 208.5 106.574 212.699
 108.449 c 200.023 115.648 188.625 124.949 179.023 135.977 c 170.773 145.426
 161.324 153.75 150.977 160.801 c 141.824 167.023 131.926 172.125 121.574
 176.102 c 118.801 177.148 116.551 179.398 115.5 182.176 c 115.273 182.773
 115.125 183.301 114.977 183.898 c 108.074 183.602 l 105.602 183.523 103.125
 183.977 100.875 185.023 c 100.574 184.648 100.273 184.273 100.051 183.898
 c 101.023 183.148 l 102.977 181.648 103.352 178.801 101.773 176.852 c 100.273
 174.898 97.5 174.523 95.551 176.023 c 95.102 176.324 l 44.023 90.074 l 
42.824 87.898 40.801 86.324 38.477 85.574 c 15.074 78.301 l 12 77.324 8.773
 79.051 7.801 82.125 c 7.352 83.625 7.5 85.199 8.176 86.551 c 11.773 93.375
 14.699 100.574 16.949 108 c 19.051 114.824 20.477 121.875 21.375 129 c 
21.375 129.301 21.449 129.602 21.602 129.824 c 22.051 131.176 22.727 132.375
 23.699 133.426 c 75.898 190.801 l 74.023 192.375 73.727 195.227 75.301 
197.176 c 76.801 198.977 79.5 199.352 81.375 197.926 c 81.977 197.477 l 
82.949 198.523 84.074 199.727 85.426 201.227 c 84.227 202.727 l 78.75 209.699
 79.949 219.75 86.852 225.227 c 89.699 227.477 93.148 228.676 96.824 228.676
 c 99.824 228.676 102.824 227.852 105.375 226.199 c 105.676 226.727 105.977
 227.176 106.199 227.699 c 106.875 234.375 112.949 238.801 121.648 238.801
 c 129.977 238.801 135.824 233.398 135.824 225.676 c 135.824 222.148 135.824
 211.574 125.551 209.477 c 125.398 209.398 125.25 209.25 125.102 209.176
 c 127.051 207.449 l 128.477 208.125 130.051 208.5 131.625 208.5 c 133.352
 208.5 135 208.051 136.574 207.301 c 189.301 179.324 l 192.148 183.375 197.102
 190.5 200.699 196.352 c 204.449 202.5 207.676 207.824 196.273 226.051 c
 193.727 230.176 190.199 233.625 186 236.102 c 176.176 241.949 166.5 247.051
 157.199 252 c 131.852 265.426 105.602 279.227 70.051 311.176 c 67.648 313.352
 66.227 316.426 66.148 319.727 c 52.125 330.75 l 50.25 332.25 48.227 333.523
 46.125 334.648 c 44.324 335.625 l 39.977 337.949 32.852 339.449 28.051 
340.051 c 21.449 340.875 16.727 346.949 17.551 353.551 c 18.375 360.148 
24.449 364.875 31.051 364.051 c 31.648 363.977 32.25 363.824 32.852 363.676
 c 46.051 361.426 l 51.301 361.051 56.551 361.273 61.648 362.102 c 65.102
 362.699 68.625 362.176 71.773 360.523 c 77.625 357.375 80.324 352.125 79.5
 345.898 c 80.398 345 81.523 343.801 82.5 342.824 c 83.176 342.148 83.852
 341.398 84.523 340.801 c 88.051 343.727 92.926 344.324 97.051 342.449 c
 97.125 342.449 l 229.273 279.75 l 241.801 273.977 256.125 273.148 269.176
 277.574 c 306.824 293.176 l 306.898 293.25 307.051 293.25 307.125 293.25
 c 307.727 293.477 308.176 293.926 308.25 294.602 c 314.25 333.301 l 314.477
 334.574 314.926 335.773 315.523 336.824 c 315.227 337.199 l 315 337.426
 314.852 337.727 314.699 337.949 c 312.824 340.801 312.449 344.398 313.648
 347.625 c 314.926 351 317.699 353.625 321.074 354.676 c 328.875 357 l 332.176
 357.977 335.324 359.477 338.176 361.426 c 345.375 366.375 l 347.398 367.727
 349.727 368.477 352.199 368.477 c 352.949 368.477 353.773 368.398 354.523
 368.25 c 361.051 366.977 365.398 360.676 364.125 354.148 c 363.375 350.25
 360.824 347.023 357.227 345.375 c 352.727 343.352 348.602 340.5 345.148
 337.051 c 343.875 335.773 l 345.824 333.074 347.102 329.926 347.477 326.625
 c 347.477 326.324 347.551 326.023 347.551 325.727 c 347.773 319.426 349.574
 312.824 351.227 306.375 c 359.25 277.426 l 359.25 277.352 l 361.949 266.699
 357.602 255.523 348.449 249.523 c 348.449 249.523 348.375 249.449 348.375
 249.449 c 313.648 227.773 l 311.477 226.199 309.977 223.875 309.227 221.324
 c 307.125 209.477 301.199 201.75 296.023 194.926 c 294.824 193.352 293.625
 191.773 292.574 190.273 c 287.176 182.625 287.102 178.801 287.324 177.523
 c 289.949 161.324 l 291.074 154.426 295.352 148.352 301.5 144.977 c 345.602
 120.602 l 350.324 117.977 354 113.699 355.801 108.602 c 367.352 75.898 
l 368.477 72.75 368.176 69.227 366.602 66.301 c 366.449 66 366.227 65.699
 366 65.398 c 371.102 60.75 l 375.074 57 377.023 51.824 376.352 46.727 c
 h
267.898 35.852 m 267.977 35.551 268.125 35.324 268.426 35.25 c 268.5 35.25
 268.574 35.176 268.727 35.176 c 268.949 35.176 269.102 35.25 269.25 35.398
 c 274.125 40.199 l 274.352 40.352 274.426 40.648 274.352 40.949 c 274.273
 41.25 274.125 41.477 273.824 41.551 c 264.523 45.375 l h
228.977 39.602 m 235.648 39.602 242.176 41.699 247.574 45.602 c 239.852
 49.949 231.75 53.625 223.426 56.699 c 215.176 59.773 206.699 62.25 198.074
 64.051 c 201.449 49.648 214.199 39.523 228.977 39.602 c h
198.148 78.449 m 197.699 76.727 197.477 75 197.324 73.273 c 207.301 71.324
 217.051 68.551 226.574 65.023 c 236.176 61.5 245.398 57.148 254.25 52.051
 c 255.301 53.398 256.199 54.898 257.023 56.398 c 247.199 61.801 236.926
 66.375 226.426 70.199 c 217.199 73.648 207.75 76.352 198.148 78.449 c h
201.602 86.926 m 211.051 84.824 220.426 82.051 229.5 78.75 c 240 74.926
 250.199 70.352 260.102 65.023 c 260.477 66.977 260.699 69 260.699 71.023
 c 260.551 88.574 246.227 102.676 228.75 102.523 c 217.5 102.449 207.227
 96.523 201.602 86.926 c h
242.102 109.426 m 234.824 130.727 l 231.148 122.625 228.227 115.648 226.574
 111.449 c 227.398 111.523 228.148 111.523 228.977 111.523 c 233.324 111.523
 237.676 110.852 241.801 109.426 c h
107.699 192.301 m 117.148 192.75 l 121.199 200.699 l 117.824 203.699 l 
113.926 200.176 110.25 196.426 106.949 192.375 c 107.176 192.301 107.398
 192.301 107.699 192.301 c h
83.023 185.324 m 30.301 127.352 l 30.301 127.352 30.227 127.273 30.227 
127.273 c 29.324 119.852 27.75 112.5 25.574 105.375 c 23.926 99.824 21.824
 94.352 19.426 89.102 c 35.773 94.199 l 36 94.273 36.148 94.426 36.301 94.648
 c 87.977 181.5 l h
94.574 219.301 m 90.898 218.102 88.875 214.125 90.074 210.449 c 90.301 
209.625 90.75 208.949 91.273 208.273 c 91.5 207.977 l 94.426 211.426 97.5
 215.102 100.273 218.773 c 98.477 219.676 96.449 219.898 94.574 219.301 
c h
126.824 225.676 m 126.824 228.375 125.102 229.801 121.648 229.801 c 120.977
 229.801 115.125 229.727 115.125 226.426 c 115.125 225.676 114.977 225 114.602
 224.324 c 108.977 213.75 95.551 198.824 89.176 191.926 c 92.926 189.074
 l 98.102 196.125 109.727 210.75 121.875 217.648 c 122.324 217.949 122.926
 218.102 123.449 218.176 c 125.023 218.398 126.824 218.699 126.824 225.676
 c h
197.324 175.051 m 199.648 173.773 l 201.824 172.574 202.648 169.875 201.523
 167.699 c 200.324 165.523 197.625 164.699 195.449 165.824 c 132.375 199.273
 l 132 199.5 131.625 199.5 131.176 199.352 c 130.801 199.199 130.5 198.977
 130.273 198.602 c 123.898 186.148 l 123.676 185.773 123.676 185.398 123.824
 185.023 c 123.977 184.648 124.273 184.273 124.727 184.125 c 135.676 179.926
 146.176 174.449 155.926 167.926 c 166.949 160.426 177 151.574 185.773 141.523
 c 195 130.875 206.023 121.949 218.398 115.199 c 223.727 128.477 239.625
 165.977 256.125 185.477 c 240.898 189 221.926 192.074 207.301 189.75 c 
204 184.574 200.023 178.801 197.324 175.051 c h
212.852 209.852 m 213.449 206.324 213.227 202.727 212.25 199.352 c 214.273
 199.5 216.375 199.574 218.551 199.574 c 242.699 199.574 270.676 191.324
 281.023 187.949 c 286.352 196.5 l 277.273 202.801 250.426 218.25 212.852
 209.852 c h
266.023 245.773 m 204.301 230.102 l 206.625 226.426 208.648 222.523 210.301
 218.551 c 218.324 220.426 226.574 221.324 234.824 221.398 c 245.926 221.398
 256.875 219.602 267.375 216.074 c 269.477 222.375 272.477 235.352 266.023
 245.773 c h
76.051 336.375 m 74.852 337.574 73.727 338.773 72.824 339.75 c 70.949 341.699
 69.602 343.125 70.352 345.602 c 71.477 349.648 69.523 351.375 67.5 352.5
 c 66.227 353.176 64.727 353.398 63.227 353.102 c 57.148 352.125 51 351.898
 44.926 352.426 c 30.523 354.898 l 29.699 355.125 28.875 355.051 28.125 
354.676 c 27.375 354.301 26.852 353.625 26.625 352.875 c 26.324 352.051 
26.477 351.074 27 350.324 c 27.523 349.574 28.352 349.051 29.25 348.898 
c 35.023 348.148 43.125 346.352 48.602 343.5 c 50.398 342.523 l 52.949 341.176
 55.426 339.602 57.75 337.801 c 69.75 328.352 l 77.551 334.875 l 77.023 
335.324 76.5 335.852 76.051 336.375 c h
353.625 353.324 m 354.449 353.699 355.125 354.449 355.352 355.273 c 355.574
 356.176 355.426 357.074 354.977 357.824 c 354 359.25 352.051 359.625 350.625
 358.648 c 343.426 353.699 l 339.824 351.227 335.852 349.352 331.648 348.074
 c 323.852 345.75 l 323.102 345.523 322.5 345 322.273 344.25 c 322.051 343.727
 322.125 343.051 322.426 342.523 c 322.5 342.449 322.5 342.375 322.574 342.375
 c 323.25 341.551 l 327.75 342.898 332.551 342.676 336.977 341.023 c 339.074
 343.125 l 343.125 347.477 348.148 350.926 353.625 353.324 c h
309 235.199 m 343.648 256.801 l 349.574 260.699 352.352 267.977 350.625
 274.801 c 342.602 303.898 l 340.801 310.801 338.926 317.926 338.625 325.199
 c 338.625 325.574 l 338.324 328.574 336.227 331.051 335.324 331.949 c 334.801
 332.25 l 331.273 333.977 327.074 333.898 323.551 332.25 c 323.324 332.102
 323.25 331.949 323.25 331.727 c 317.25 293.023 l 316.648 289.125 313.949
 285.898 310.273 284.625 c 272.551 269.023 l 272.477 268.949 272.324 268.949
 272.25 268.949 c 256.949 263.773 240.227 264.676 225.523 271.5 c 93.375
 334.199 l 92.398 334.648 91.199 334.5 90.375 333.75 c 76.352 322.125 l 
75.148 321.148 75 319.352 75.977 318.148 c 76.051 318.074 76.199 317.926
 76.273 317.852 c 111 286.648 136.727 273.074 161.625 259.949 c 171 255 
180.75 249.824 190.801 243.824 c 193.574 242.176 196.125 240.227 198.375
 237.898 c 264.148 254.625 l 264.824 254.773 265.574 254.926 266.324 254.926
 c 269.25 254.926 272.023 253.426 273.602 250.949 c 276.977 245.477 278.852
 239.25 279 232.801 c 305.25 231.898 l 306.227 233.102 307.574 234.227 309
 235.199 c h
291.75 203.773 m 295.574 209.023 299.176 214.801 300.523 222.676 c 300.523
 222.75 300.523 222.824 300.602 222.898 c 278.398 223.648 l 277.875 219.898
 276.977 216.301 275.773 212.699 c 281.398 210.301 286.727 207.301 291.75
 203.773 c h
359.023 72.676 m 347.477 105.375 l 346.426 108.449 344.25 111 341.398 112.5
 c 297.301 136.875 l 288.75 141.602 282.824 150 281.25 159.602 c 278.625
 175.801 l 278.477 176.926 278.398 178.125 278.477 179.25 c 275.625 180.148
 271.273 181.5 266.023 182.926 c 257.102 173.926 247.801 157.574 240.375
 142.352 c 252 108.449 l 315.227 102.898 l 315.375 102.898 l 322.199 102.074
 327.977 97.5 330.301 91.051 c 339.148 67.199 l 339.676 65.852 341.102 65.102
 342.523 65.398 c 357 68.773 l 357.824 68.926 358.5 69.449 358.875 70.199
 c 359.176 71.102 359.25 71.926 359.023 72.676 c h
365.176 53.852 m 358.352 60.074 l 349.727 58.051 l 351.301 31.426 l 351.523
 27.523 354.898 24.602 358.801 24.824 c 362.176 25.051 364.949 27.676 365.398
 31.051 c 367.426 47.852 l 367.727 50.023 366.898 52.273 365.176 53.852 
c h
365.176 53.852 m f
105.898 300.074 m 104.25 301.352 102.676 302.625 101.023 303.898 c 99.074
 305.477 98.773 308.324 100.352 310.199 c 101.926 312.148 104.773 312.449
 106.648 310.875 c 108.227 309.602 109.801 308.398 111.375 307.125 c 113.324
 305.625 113.699 302.773 112.199 300.824 c 110.699 298.875 107.852 298.5
 105.898 300.074 c h
105.898 300.074 m f
177 256.426 m 174.676 257.699 172.352 258.898 170.023 260.102 c 154.727
 268.199 138.824 276.602 120.977 288.898 c 118.949 290.324 118.426 293.102
 119.852 295.125 c 121.273 297.148 124.051 297.676 126.074 296.25 c 143.477
 284.176 159.074 275.926 174.148 267.977 c 176.477 266.773 178.801 265.5
 181.125 264.301 c 183.301 263.102 184.125 260.398 182.926 258.227 c 181.875
 256.125 179.176 255.301 177 256.426 c h
177 256.426 m f
Q Q
showpage
%%Trailer
end
%%EOF
