%!PS-Adobe-3.0 EPSF-3.0
%%Creator: cairo 1.16.0 (https://cairographics.org)
%%CreationDate: Mon Dec 14 10:24:42 2020
%%Pages: 1
%%DocumentData: Clean7Bit
%%LanguageLevel: 2
%%BoundingBox: 77 7 307 377
%%EndComments
%%BeginProlog
50 dict begin
/q { gsave } bind def
/Q { grestore } bind def
/cm { 6 array astore concat } bind def
/w { setlinewidth } bind def
/J { setlinecap } bind def
/j { setlinejoin } bind def
/M { setmiterlimit } bind def
/d { setdash } bind def
/m { moveto } bind def
/l { lineto } bind def
/c { curveto } bind def
/h { closepath } bind def
/re { exch dup neg 3 1 roll 5 3 roll moveto 0 rlineto
      0 exch rlineto 0 rlineto closepath } bind def
/S { stroke } bind def
/f { fill } bind def
/f* { eofill } bind def
/n { newpath } bind def
/W { clip } bind def
/W* { eoclip } bind def
/BT { } bind def
/ET { } bind def
/BDC { mark 3 1 roll /BDC pdfmark } bind def
/EMC { mark /EMC pdfmark } bind def
/cairo_store_point { /cairo_point_y exch def /cairo_point_x exch def } def
/Tj { show currentpoint cairo_store_point } bind def
/TJ {
  {
    dup
    type /stringtype eq
    { show } { -0.001 mul 0 cairo_font_matrix dtransform rmoveto } ifelse
  } forall
  currentpoint cairo_store_point
} bind def
/cairo_selectfont { cairo_font_matrix aload pop pop pop 0 0 6 array astore
    cairo_font exch selectfont cairo_point_x cairo_point_y moveto } bind def
/Tf { pop /cairo_font exch def /cairo_font_matrix where
      { pop cairo_selectfont } if } bind def
/Td { matrix translate cairo_font_matrix matrix concatmatrix dup
      /cairo_font_matrix exch def dup 4 get exch 5 get cairo_store_point
      /cairo_font where { pop cairo_selectfont } if } bind def
/Tm { 2 copy 8 2 roll 6 array astore /cairo_font_matrix exch def
      cairo_store_point /cairo_font where { pop cairo_selectfont } if } bind def
/g { setgray } bind def
/rg { setrgbcolor } bind def
/d1 { setcachedevice } bind def
/cairo_data_source {
  CairoDataIndex CairoData length lt
    { CairoData CairoDataIndex get /CairoDataIndex CairoDataIndex 1 add def }
    { () } ifelse
} def
/cairo_flush_ascii85_file { cairo_ascii85_file status { cairo_ascii85_file flushfile } if } def
/cairo_image { image cairo_flush_ascii85_file } def
/cairo_imagemask { imagemask cairo_flush_ascii85_file } def
%%EndProlog
%%BeginSetup
%%EndSetup
%%Page: 1 1
%%BeginPageSetup
%%PageBoundingBox: 77 7 307 377
%%EndPageSetup
q 77 7 230 370 rectclip
1 0 0 -1 0 384 cm q
0.498039 0.239216 0.196078 rg
179.25 283.109 25.5 67.141 re f
0.258824 0.537255 0.423529 rg
301.875 121.996 m 301.906 159.262 283.051 194.008 251.789 214.297 c 238.492
 222.828 228.051 235.148 221.82 249.668 c 216.613 261.977 l 201.105 261.977
 l 202.957 249.668 l 205.148 235.094 208.711 222.801 213.637 214.297 c 257.559
 138.516 261.473 78.496 213.773 14.168 c 213.773 14.16 l 265.051 24.578 
301.891 69.672 301.875 121.996 c h
301.875 121.996 m f
0.298039 0.662745 0.529412 rg
213.773 14.168 m 261.473 78.496 257.559 138.516 213.637 214.297 c 208.711
 222.801 205.148 235.094 202.957 249.668 c 201.105 261.977 l 184.801 261.977
 l 180.734 242.371 l 178.449 231.375 175.809 221.594 171.473 215.113 c 120.539
 138.961 121.289 77.926 166.281 15.059 c 174.191 13.137 182.293 12.113 190.434
 12.008 c 198.266 11.891 206.09 12.613 213.773 14.16 c h
213.773 14.168 m f
0.372549 0.803922 0.643137 rg
180.734 242.371 m 184.801 261.977 l 170.879 261.977 l 159.465 242.371 l
 153.129 231.328 144.223 221.98 133.5 215.113 c 101.32 194.859 81.891 159.41
 82.125 121.387 c 82.402 70.078 118.32 26.684 166.281 15.059 c 121.289 77.926
 120.539 138.961 171.473 215.113 c 175.809 221.594 178.449 231.375 180.734
 242.371 c h
180.734 242.371 m f
0.478431 0.929412 0.745098 rg
156 215.113 m 123.82 194.859 104.391 159.41 104.625 121.387 c 104.84 81.977
 126.082 47.238 157.66 27.977 c 160.328 23.676 163.203 19.371 166.285 15.059
 c 118.32 26.684 82.402 70.078 82.125 121.387 c 81.891 159.41 101.32 194.859
 133.5 215.113 c 144.223 221.98 153.129 231.328 159.465 242.371 c 170.879
 261.977 l 184.801 261.977 l 180.734 242.371 l 180.52 241.332 180.297 240.305
 180.074 239.289 c 173.918 229.566 165.699 221.312 156 215.113 c h
156 215.113 m f
0.780392 0.603922 0.513726 rg
222.809 349.5 m 161.191 349.5 l 157.211 349.5 153.395 351.078 150.582 353.891
 c 147.77 356.707 146.188 360.52 146.191 364.5 c 146.191 372 l 237.809 372
 l 237.809 364.5 l 237.812 360.52 236.23 356.707 233.418 353.891 c 230.605
 351.078 226.789 349.5 222.809 349.5 c h
222.809 349.5 m f
157.695 261.977 m 226.305 261.977 l 231.66 261.977 235.973 266.285 235.973
 271.641 c 235.973 274.191 l 235.973 279.547 231.66 283.859 226.305 283.859
 c 157.695 283.859 l 152.34 283.859 148.027 279.547 148.027 274.191 c 148.027
 271.641 l 148.027 266.285 152.34 261.977 157.695 261.977 c h
157.695 261.977 m f
0.658824 0.498039 0.427451 rg
183.691 349.5 m 161.191 349.5 l 157.211 349.5 153.395 351.078 150.582 353.891
 c 147.77 356.707 146.188 360.52 146.191 364.5 c 146.191 372 l 168.691 372
 l 168.691 364.5 l 168.688 360.52 170.27 356.707 173.082 353.891 c 175.895
 351.078 179.711 349.5 183.691 349.5 c h
183.691 349.5 m f
157.695 283.859 m 180.195 283.859 l 174.859 283.855 170.531 279.531 170.527
 274.191 c 170.527 271.641 l 170.527 269.078 171.547 266.621 173.359 264.805
 c 175.172 262.992 177.633 261.977 180.195 261.977 c 157.695 261.977 l 155.133
 261.977 152.672 262.992 150.859 264.805 c 149.047 266.621 148.027 269.078
 148.027 271.641 c 148.027 274.191 l 148.031 279.531 152.359 283.855 157.695
 283.859 c h
157.695 283.859 m f
0.156863 0.258824 0.407843 rg
190.367 7.512 m 128.137 8.621 78.125 59.125 77.625 121.363 c 77.285 160.969
 97.531 197.906 131.102 218.926 c 141.203 225.41 149.598 234.23 155.582 
244.637 c 163.059 257.48 l 157.695 257.48 l 149.875 257.488 143.539 263.824
 143.531 271.645 c 143.531 274.195 l 143.539 282.016 149.875 288.355 157.695
 288.363 c 174.75 288.363 l 174.75 345 l 161.188 345 l 150.426 345.012 141.699
 353.734 141.688 364.5 c 141.688 372 l 141.688 374.484 143.703 376.5 146.188
 376.5 c 237.812 376.5 l 240.297 376.5 242.312 374.484 242.312 372 c 242.312
 364.5 l 242.301 353.734 233.574 345.012 222.812 345 c 209.25 345 l 209.25
 288.355 l 226.305 288.355 l 234.125 288.348 240.465 282.012 240.473 274.191
 c 240.473 271.641 l 240.465 263.82 234.125 257.48 226.305 257.473 c 223.406
 257.473 l 225.965 251.414 l 231.84 237.719 241.691 226.098 254.246 218.066
 c 297.035 190.297 316.297 137.578 301.488 88.766 c 286.68 39.953 241.371
 6.824 190.367 7.508 c h
190.492 16.512 m 191 16.504 191.504 16.5 192.012 16.5 c 198.438 16.5 204.848
 17.082 211.172 18.238 c 233.445 48.734 244.051 78.723 243.562 109.867 c
 243.086 140.59 232.34 173.055 209.746 212.039 c 204.66 220.812 200.879 
233.246 198.508 248.996 c 197.23 257.477 l 188.465 257.477 l 185.141 241.457
 l 182.953 230.906 180.234 220.113 175.219 212.613 c 150.32 175.383 137.945
 141.828 137.406 110.027 c 136.891 79.668 147.219 49.902 168.961 19.078 
c 176.027 17.473 183.246 16.613 190.492 16.512 c h
135.898 211.309 m 104.969 191.941 86.312 157.906 86.625 121.414 c 86.867
 76.691 115.555 38.113 155.383 23.145 c 115.711 85.328 119.715 145.824 167.734
 217.617 c 171.906 223.852 174.418 234.09 176.324 243.285 c 179.27 257.477
 l 173.469 257.477 l 163.359 240.109 l 156.645 228.445 147.227 218.57 135.898
 211.309 c h
222.812 354 m 228.609 354.008 233.305 358.703 233.312 364.5 c 233.312 367.5
 l 150.688 367.5 l 150.688 364.5 l 150.695 358.703 155.391 354.008 161.188
 354 c h
183.75 345 m 183.75 288.355 l 200.25 288.355 l 200.25 345 l h
226.305 266.477 m 229.156 266.48 231.469 268.789 231.473 271.641 c 231.473
 274.191 l 231.469 277.043 229.156 279.355 226.305 279.359 c 157.695 279.359
 l 154.844 279.355 152.531 277.043 152.527 274.191 c 152.527 271.641 l 152.531
 268.789 154.844 266.48 157.695 266.477 c h
249.336 210.523 m 235.277 219.539 224.246 232.566 217.672 247.918 c 213.633
 257.477 l 206.332 257.477 l 207.406 250.336 l 209.582 235.918 213.078 224.238
 217.531 216.551 c 261.754 140.246 264.066 81.215 224.469 21.578 c 263.156
 34.176 291.168 67.875 296.477 108.211 c 301.785 148.551 283.449 188.348
 249.336 210.523 c h
249.336 210.523 m f
109.125 121.414 m 109.168 112.977 110.23 104.574 112.285 96.391 c 112.902
 93.977 111.438 91.523 109.023 90.918 c 106.609 90.309 104.16 91.777 103.559
 94.195 c 96.594 121.992 100.297 151.387 113.938 176.586 c 116.801 181.859
 124.711 177.566 121.848 172.293 c 113.402 156.672 109.023 139.172 109.125
 121.414 c h
109.125 121.414 m f
110.363 86.715 m 112.68 87.617 115.289 86.465 116.184 84.148 c 116.898 
82.312 117.672 80.473 118.488 78.672 c 119.539 76.406 118.539 73.715 116.262
 72.684 c 113.988 71.648 111.305 72.668 110.293 74.953 c 109.406 76.902 
108.566 78.902 107.793 80.895 c 106.895 83.211 108.043 85.816 110.363 86.715
 c h
110.363 86.715 m f
Q Q
showpage
%%Trailer
end
%%EOF
