%!PS-Adobe-3.0 EPSF-3.0
%%Creator: cairo 1.16.0 (https://cairographics.org)
%%CreationDate: Mon Dec 14 10:24:47 2020
%%Pages: 1
%%DocumentData: Clean7Bit
%%LanguageLevel: 2
%%BoundingBox: 47 7 337 377
%%EndComments
%%BeginProlog
50 dict begin
/q { gsave } bind def
/Q { grestore } bind def
/cm { 6 array astore concat } bind def
/w { setlinewidth } bind def
/J { setlinecap } bind def
/j { setlinejoin } bind def
/M { setmiterlimit } bind def
/d { setdash } bind def
/m { moveto } bind def
/l { lineto } bind def
/c { curveto } bind def
/h { closepath } bind def
/re { exch dup neg 3 1 roll 5 3 roll moveto 0 rlineto
      0 exch rlineto 0 rlineto closepath } bind def
/S { stroke } bind def
/f { fill } bind def
/f* { eofill } bind def
/n { newpath } bind def
/W { clip } bind def
/W* { eoclip } bind def
/BT { } bind def
/ET { } bind def
/BDC { mark 3 1 roll /BDC pdfmark } bind def
/EMC { mark /EMC pdfmark } bind def
/cairo_store_point { /cairo_point_y exch def /cairo_point_x exch def } def
/Tj { show currentpoint cairo_store_point } bind def
/TJ {
  {
    dup
    type /stringtype eq
    { show } { -0.001 mul 0 cairo_font_matrix dtransform rmoveto } ifelse
  } forall
  currentpoint cairo_store_point
} bind def
/cairo_selectfont { cairo_font_matrix aload pop pop pop 0 0 6 array astore
    cairo_font exch selectfont cairo_point_x cairo_point_y moveto } bind def
/Tf { pop /cairo_font exch def /cairo_font_matrix where
      { pop cairo_selectfont } if } bind def
/Td { matrix translate cairo_font_matrix matrix concatmatrix dup
      /cairo_font_matrix exch def dup 4 get exch 5 get cairo_store_point
      /cairo_font where { pop cairo_selectfont } if } bind def
/Tm { 2 copy 8 2 roll 6 array astore /cairo_font_matrix exch def
      cairo_store_point /cairo_font where { pop cairo_selectfont } if } bind def
/g { setgray } bind def
/rg { setrgbcolor } bind def
/d1 { setcachedevice } bind def
/cairo_data_source {
  CairoDataIndex CairoData length lt
    { CairoData CairoDataIndex get /CairoDataIndex CairoDataIndex 1 add def }
    { () } ifelse
} def
/cairo_flush_ascii85_file { cairo_ascii85_file status { cairo_ascii85_file flushfile } if } def
/cairo_image { image cairo_flush_ascii85_file } def
/cairo_imagemask { imagemask cairo_flush_ascii85_file } def
%%EndProlog
%%BeginSetup
%%EndSetup
%%Page: 1 1
%%BeginPageSetup
%%PageBoundingBox: 47 7 337 377
%%EndPageSetup
q 47 7 290 370 rectclip
1 0 0 -1 0 384 cm q
0.27451 0.537255 0.827451 rg
74.102 184.352 m 67.051 199.125 l 65.926 201.898 62.773 203.176 60 202.051
 c 59.324 201.75 58.648 201.301 58.125 200.773 c 53.477 195.898 l 51.523
 193.801 51.676 190.574 53.699 188.699 c 54.523 187.949 55.574 187.5 56.625
 187.352 c 71.625 182.773 l 72.523 183.301 73.273 183.824 74.102 184.352
 c h
74.102 184.352 m f
1 0.847059 0.717647 rg
325.273 21.074 m 319.5 20.551 l 315.602 19.949 311.852 18.75 308.324 17.023
 c 300.977 13.5 l 297 11.551 292.051 13.648 291.227 17.926 c 291.148 18.074
 291.148 18.301 291.148 18.449 c 291 24.074 l 290.926 26.25 290.398 28.352
 289.426 30.227 c 283.125 42.227 l 300.523 50.773 l 299.398 44.25 303.449
 38.699 306.074 35.852 c 307.426 34.426 309.301 33.676 311.25 33.75 c 313.727
 33.824 319.125 34.574 323.477 35.176 c 323.852 35.25 324.227 35.25 324.602
 35.25 c 327.898 35.25 330.824 33.074 331.727 29.852 c 331.801 29.477 331.875
 29.102 331.875 28.727 c 332.102 24.75 329.176 21.375 325.273 21.074 c h
325.273 21.074 m f
224.176 338.023 m 221.551 347.324 l 220.574 350.699 217.949 353.398 214.648
 354.523 c 210.301 356.023 205.648 356.773 201.074 356.773 c 200.551 356.773
 200.023 356.773 199.574 356.773 c 199.125 356.773 l 194.926 357 191.625
 360.602 191.852 364.801 c 192 368.324 194.926 371.023 198.449 371.023 c
 198.75 371.023 199.125 371.023 199.426 370.949 c 207.523 370.574 l 211.125
 370.051 214.801 370.125 218.324 370.727 c 229.648 371.25 l 233.625 371.926
 237.676 368.625 237.449 364.5 c 237.449 364.352 237.449 364.125 237.375
 363.977 c 237.375 360.977 l 237.375 354.602 235.426 348.227 239.25 342.977
 c 240.523 341.102 242.176 339.523 244.051 338.25 c h
224.176 338.023 m f
0.427451 0.454902 0.52549 rg
301.949 51 m 288.898 42.602 l 287.176 41.477 285.074 41.102 283.051 41.477
 c 280.5 41.926 278.324 43.648 277.273 46.051 c 236.852 140.477 l 238.574
 208.949 l 223.426 237 l 217.426 330.898 l 217.273 334.648 219.75 337.949
 223.426 338.773 c 247.199 339 l 251.324 339.074 254.699 335.926 255.074
 331.875 c 262.574 217.199 l 305.25 59.25 l 306.074 56.023 304.727 52.727
 301.949 51 c h
301.949 51 m f
0.392157 0.411765 0.458824 rg
298.574 48.75 m 288.898 42.523 l 287.176 41.398 285.074 41.023 283.051 
41.398 c 280.5 41.852 278.324 43.574 277.273 45.977 c 236.852 140.398 l 
238.574 208.875 l 223.426 237 l 217.426 330.898 l 217.273 334.648 219.75
 337.949 223.426 338.773 c 247.199 339 l 247.801 339 248.324 338.926 248.926
 338.773 c 245.926 338.773 l 242.25 337.949 239.699 334.648 239.926 330.898
 c 245.324 246.148 l 245.699 240.074 247.426 234.227 250.273 228.898 c 261.074
 208.949 l 259.574 149.551 l 259.426 143.551 260.551 137.625 262.949 132.074
 c h
298.574 48.75 m f
0.8 0.827451 0.87451 rg
189.602 202.574 m 186.148 195.824 180.148 189.227 173.176 183.148 c 158.625
 180.074 118.273 191.25 117.523 191.398 c 117.602 193.574 117.977 195.676
 118.574 197.699 c 118.801 198.301 119.023 198.977 119.25 199.648 c 178.199
 213.676 l 179.699 214.051 181.125 214.801 182.176 216 c 204.824 229.949
 l 205.051 230.25 210.523 237.898 223.273 237 c 238.426 208.949 l h
189.602 202.574 m f
0.878431 0.937255 0.976471 rg
173.176 183.148 m 158.625 180.074 118.273 191.25 117.523 191.398 c 117.523
 190.352 117.523 189.301 117.676 188.324 c 118.199 181.648 l 125.699 175.426
 130.199 166.273 130.574 156.602 c 130.574 156.148 130.574 155.699 130.574
 155.25 c 130.574 155.176 154.949 167.25 173.176 183.148 c h
173.176 183.148 m f
0.690196 0.709804 0.792157 rg
236.852 140.477 m 236.25 141.375 235.5 142.125 234.676 142.727 c 223.125
 151.5 l 222.148 143.926 l 221.324 137.852 216.523 133.051 210.375 132.227
 c 164.625 125.625 l 160.875 125.102 157.051 126 154.051 128.25 c 129.523
 146.773 l 130.199 149.477 130.574 152.324 130.574 155.102 c 130.574 155.102
 154.949 167.102 173.176 183 c 180.074 189.074 186.148 195.676 189.602 202.426
 c 210.074 209.102 l 211.426 209.625 212.625 210.602 213.523 211.801 c 243.148
 208.273 l 244.574 208.051 245.699 207 246.074 205.648 c 257.551 173.25 
236.852 140.477 236.852 140.477 c h
236.852 140.477 m f
186.449 227.398 m 183.977 219 l 183.676 217.875 183.074 216.824 182.25 
216 c 181.199 214.875 179.773 214.051 178.273 213.676 c 119.324 199.648 
l 124.352 213.676 139.801 242.852 180.074 236.926 c 183.375 236.477 186.074
 233.926 186.676 230.625 c 186.824 229.574 186.75 228.449 186.449 227.398
 c h
186.449 227.398 m f
1 0.847059 0.717647 rg
130.574 155.176 m 130.574 156.523 l 130.125 166.273 125.625 175.352 118.199
 181.574 c 111.148 187.5 102.148 190.574 92.926 190.199 c 88.574 190.051
 84.301 189.148 80.25 187.5 c 87.074 177 93 165.898 97.875 154.273 c 102.227
 144.074 105.75 133.5 108.449 122.699 c 118.949 126.898 126.75 135.824 129.602
 146.699 c 130.273 149.625 130.574 152.398 130.574 155.176 c h
130.574 155.176 m f
94.273 120.074 m 91.875 130.648 88.5 141 84.227 150.977 c 79.875 161.023
 74.625 170.699 68.398 179.699 c 61.5 172.875 57.75 163.5 58.125 153.824
 c 58.875 134.926 74.926 120.148 94.273 120.074 c h
94.273 120.074 m f
224.551 177.824 m 219.074 171.898 l 218.699 172.051 218.324 172.125 217.949
 172.125 c 210.824 173.102 l 210.375 173.176 209.926 173.176 209.477 173.176
 c 208.648 192.977 l 208.574 195.676 209.926 198.148 212.176 199.574 c 213.449
 200.324 214.875 200.773 216.301 200.773 c 219.824 200.852 222.977 198.449
 223.801 195 c 226.273 184.426 l 226.875 182.023 226.199 179.551 224.551
 177.824 c h
224.551 177.824 m f
213.523 211.949 m 212.625 210.75 211.426 209.852 210.074 209.25 c 207.449
 208.199 204.449 208.574 202.199 210.227 c 185.023 222.602 l 186.449 227.398
 l 186.75 228.449 186.824 229.574 186.676 230.699 c 198.074 232.352 l 200.625
 232.648 203.176 231.75 204.977 229.949 c 212.926 221.699 l 214.273 220.273
 215.023 218.398 215.102 216.449 c 215.023 214.801 214.5 213.227 213.523
 211.949 c h
213.523 211.949 m f
0.427451 0.454902 0.52549 rg
212.176 199.574 m 210.074 209.25 l 207.449 208.199 204.449 208.574 202.199
 210.227 c 185.023 222.602 l 183.977 219 l 183.676 217.875 183.074 216.824
 182.25 216 c 182.25 216 185.625 210.375 189.602 202.574 c 195.449 191.25
 202.426 175.352 201.824 166.352 c 202.273 170.25 205.574 173.176 209.477
 173.176 c 208.648 192.977 l 208.574 195.676 209.926 198.227 212.176 199.574
 c h
212.176 199.574 m f
0.886275 0.729412 0.611765 rg
76.051 153.824 m 76.574 142.199 82.949 131.551 92.926 125.551 c 93.375 
123.676 93.824 121.875 94.273 120.074 c 74.926 120.148 58.875 134.926 58.125
 153.824 c 57.75 163.5 61.5 172.949 68.398 179.699 c 71.699 174.898 74.699
 169.949 77.477 164.852 c 76.426 161.324 75.898 157.574 76.051 153.824 c
 h
76.051 153.824 m f
0.615686 0.635294 0.698039 rg
147.824 161.926 m 148.125 162.074 l 147.824 161.926 l 147.824 159.898 147.676
 157.875 147.301 155.926 c 147.074 154.426 147.676 152.926 148.875 152.023
 c 171.375 135.074 l 174.449 132.824 178.199 131.852 181.949 132.449 c 219.75
 137.926 l 217.5 134.852 214.125 132.824 210.375 132.301 c 164.625 125.699
 l 160.875 125.176 157.051 126.074 154.051 128.324 c 129.523 146.852 l 130.199
 149.551 130.574 152.398 130.574 155.176 c 130.574 155.176 138 158.852 147.676
 164.773 c 147.75 164.25 147.75 163.801 147.75 163.273 c 147.824 162.898
 147.824 162.449 147.824 161.926 c h
147.824 161.926 m f
0.819608 0.878431 0.909804 rg
130.574 155.176 m 130.574 156.523 l 130.125 166.273 125.625 175.352 118.199
 181.574 c 117.676 188.25 l 117.523 189.301 117.523 190.352 117.523 191.324
 c 117.824 191.25 126.602 188.852 137.324 186.523 c 143.324 180.75 147 173.023
 147.676 164.699 c 138 158.852 130.574 155.176 130.574 155.176 c h
130.574 155.176 m f
0.701961 0.729412 0.768627 rg
134.926 195.074 m 135.449 188.398 l 136.125 187.801 136.727 187.273 137.398
 186.602 c 126.676 188.852 117.898 191.324 117.602 191.398 c 117.676 193.574
 118.051 195.676 118.648 197.699 c 118.875 198.301 119.102 198.977 119.324
 199.648 c 135.676 203.551 l 134.852 200.773 134.625 197.926 134.926 195.074
 c h
134.926 195.074 m f
0.615686 0.635294 0.698039 rg
136.574 206.398 m 136.352 205.727 136.125 205.051 135.898 204.449 c 135.824
 204.148 135.75 203.852 135.676 203.551 c 119.324 199.648 l 123.375 210.977
 134.25 232.125 159.449 236.773 c 146.176 228.301 139.5 214.727 136.574 
206.398 c h
136.574 206.398 m f
0.372549 0.658824 0.929412 rg
108.449 122.852 m 105.75 133.648 102.227 144.148 97.875 154.426 c 93 165.977
 87.074 177.074 80.25 187.648 c 78.074 186.75 76.051 185.699 74.102 184.426
 c 73.273 183.898 72.523 183.375 71.773 182.773 c 70.574 181.875 69.449 
180.898 68.398 179.852 c 74.625 170.852 79.949 161.176 84.227 151.125 c 
88.574 141.148 91.875 130.801 94.273 120.227 c 95.773 120.227 l 100.125 
120.301 104.398 121.199 108.449 122.852 c h
108.449 122.852 m f
0.156863 0.258824 0.407843 rg
325.648 15.824 m 320.023 15.301 l 316.648 14.773 313.352 13.727 310.199
 12.227 c 302.926 8.699 l 299.625 7.125 295.801 7.125 292.574 8.773 c 289.574
 10.273 287.398 13.051 286.727 16.352 c 286.648 16.648 286.648 16.949 286.574
 17.25 c 286.574 17.625 l 286.426 23.25 l 286.352 24.676 285.977 26.176 
285.301 27.449 c 279.898 37.801 l 276.824 39 274.352 41.324 273.074 44.398
 c 233.773 136.949 l 233.398 137.926 232.727 138.75 231.898 139.352 c 226.574
 143.398 l 225.375 135.375 219.074 129.148 211.051 128.023 c 165.301 121.426
 l 160.352 120.75 155.398 121.949 151.352 124.949 c 131.699 139.727 l 129.898
 135.75 127.5 132.074 124.574 128.926 c 117.148 120.898 106.801 116.176 
95.852 115.801 c 73.426 114.977 54.375 132 53.477 153.824 c 53.102 163.727
 56.477 173.324 63 180.824 c 55.648 183.074 l 52.199 183.676 49.273 186.074
 48.074 189.375 c 46.875 192.75 47.699 196.5 50.176 199.125 c 54.824 204.074
 l 56.699 206.023 59.25 207.148 62.023 207.148 c 62.699 207.148 63.301 207.074
 63.977 207 c 66.898 206.477 69.375 204.602 70.727 202.051 c 71.176 206.102
 l 71.398 208.352 73.352 210.148 75.676 210.148 c 76.125 210.148 l 78.602
 209.852 80.398 207.676 80.102 205.199 c 78.75 192.375 l 78.75 192.301 78.75
 192.227 78.676 192.148 c 83.102 193.949 87.898 194.926 92.699 195.074 c
 94.273 195.074 l 100.801 195.074 107.176 193.574 113.023 190.648 c 112.949
 193.574 113.398 196.574 114.375 199.352 c 116.477 205.875 121.648 218.25
 132 228.074 c 142.199 237.676 154.875 242.551 169.727 242.551 c 173.398
 242.551 177.074 242.25 180.75 241.727 c 184.273 241.199 187.426 239.176
 189.375 236.176 c 189.449 236.102 189.449 236.023 189.523 235.875 c 197.398
 237 l 197.477 237 l 199.801 237.301 202.199 236.926 204.301 235.949 c 208.352
 239.25 213.375 241.273 218.551 241.648 c 212.852 330.824 l 212.625 334.125
 213.824 337.352 216.074 339.75 c 216.676 340.352 217.273 340.949 217.949
 341.398 c 216.375 347.023 l 215.773 348.977 214.273 350.551 212.324 351.148
 c 207.977 352.648 203.398 353.324 198.824 353.102 c 192.074 352.949 186.523
 358.273 186.375 364.949 c 186.375 365.926 l 186.75 372 191.926 376.648 
198.074 376.352 c 198.375 376.352 198.602 376.273 198.898 376.273 c 206.852
 375.898 l 207 375.898 207.148 375.898 207.301 375.824 c 210.449 375.375
 213.602 375.449 216.75 375.977 c 216.898 375.977 217.125 376.051 217.352
 376.051 c 228.375 376.574 l 228.898 376.648 229.426 376.648 229.949 376.648
 c 232.727 376.648 235.352 375.602 237.375 373.801 c 239.926 371.625 241.273
 368.398 241.125 365.102 c 241.125 364.949 241.125 364.727 241.051 364.5
 c 241.051 361.801 l 241.051 359.926 240.898 358.125 240.75 356.398 c 240.375
 351.824 240.227 348.898 242.023 346.5 c 242.773 345.449 243.602 344.477
 244.574 343.648 c 247.125 343.648 l 253.574 343.727 258.977 338.773 259.5
 332.324 c 267 218.102 l 309.523 60.602 l 310.801 55.727 308.926 50.551 
304.801 47.699 c 304.949 43.727 307.648 40.273 309.375 38.398 c 309.824 
37.949 310.426 37.648 311.102 37.727 c 312.148 37.727 315.074 38.023 322.801
 39.074 c 328.727 39.977 334.426 36.301 336 30.449 c 336.824 27.227 336.227
 23.773 334.273 21.074 c 332.25 18 329.102 16.125 325.648 15.824 c h
227.852 174.75 m 225.977 172.727 l 228.375 170.176 229.5 166.648 229.125
 163.125 c 227.926 153.523 l 235.648 147.602 l 240.523 157.426 249.898 180.977
 241.875 204 c 215.25 207.148 l 215.25 207.148 215.176 207.074 215.176 207.074
 c 215.551 205.199 l 216.301 205.199 l 217.949 205.199 219.523 204.898 221.023
 204.227 c 224.625 202.801 227.25 199.648 228.148 195.898 c 230.625 185.324
 l 231.602 181.574 230.551 177.602 227.852 174.75 c h
221.926 183.375 m 219.449 193.949 l 219.227 194.852 218.551 195.676 217.648
 195.977 c 216.602 196.426 215.477 196.273 214.574 195.75 c 213.676 195.227
 213.148 194.25 213.148 193.199 c 213.824 177.301 l 217.5 176.773 l 221.25
 180.898 l 221.852 181.5 222.148 182.477 221.926 183.375 c h
62.852 197.477 m 62.773 197.699 62.551 197.926 62.25 197.926 c 61.949 198
 61.648 197.926 61.426 197.699 c 56.773 192.75 l 56.625 192.602 56.551 192.375
 56.625 192.227 c 56.699 191.926 57 191.773 57.301 191.773 c 66.977 188.852
 l h
67.949 172.273 m 64.199 166.949 62.324 160.574 62.625 154.051 c 63.227 
139.574 74.25 127.801 88.426 125.176 c 86.25 133.426 83.477 141.449 80.102
 149.25 c 76.648 157.199 72.602 164.926 67.949 172.273 c h
78.602 181.801 m 77.102 180.977 75.676 180 74.324 178.949 c 79.801 170.625
 84.449 161.852 88.352 152.773 c 92.25 143.699 95.398 134.324 97.801 124.801
 c 99.523 124.949 101.324 125.324 103.051 125.773 c 100.574 134.926 97.5
 143.926 93.75 152.625 c 89.477 162.75 84.375 172.5 78.602 181.801 c h
93.074 185.773 m 91.051 185.699 89.102 185.477 87.148 185.023 c 92.773 
175.801 97.801 166.125 102 156.148 c 105.676 147.449 108.824 138.449 111.301
 129.375 c 113.773 130.875 116.023 132.75 118.051 134.852 c 123.523 140.699
 126.375 148.426 126.074 156.375 c 125.398 173.25 110.551 186.449 93.074
 185.773 c h
122.551 183.75 m 128.699 178.051 132.898 170.551 134.477 162.301 c 139.051
 164.773 145.801 168.676 153.074 173.477 c 155.551 175.125 157.875 176.773
 160.125 178.426 c 147.148 179.551 131.25 183.227 122.477 185.477 c h
181.801 231.074 m 181.273 231.898 180.449 232.426 179.477 232.574 c 176.324
 233.023 173.176 233.25 170.023 233.25 c 145.875 233.25 133.273 218.324 
127.051 206.176 c 177.301 218.102 l 178.426 218.324 179.398 219.227 179.699
 220.273 c 182.176 228.676 l 182.398 229.426 182.25 230.324 181.801 231.074
 c h
180.676 209.699 m 122.773 195.824 l 122.699 195.449 122.551 195.074 122.477
 194.699 c 135.227 191.398 160.352 185.773 171.148 187.273 c 177.148 192.602
 181.648 197.773 184.5 202.574 c 183.148 205.273 181.801 207.676 180.676
 209.699 c h
135 152.398 m 134.926 151.199 134.773 149.926 134.551 148.727 c 156.824
 131.926 l 158.926 130.426 161.551 129.75 164.102 130.125 c 209.852 136.727
 l 213.977 137.25 217.199 140.398 217.801 144.523 c 220.273 164.25 l 220.426
 165.977 219.148 167.551 217.426 167.699 c 210.301 168.676 l 209.324 168.824
 208.352 168.602 207.602 168 c 206.926 167.477 206.551 166.727 206.398 165.898
 c 205.125 153.824 l 204.676 149.625 201.148 146.324 196.875 146.176 c 196.426
 146.176 l 189.148 145.875 175.5 145.352 170.176 139.125 c 168.523 137.25
 165.676 137.023 163.801 138.676 c 161.926 140.324 161.699 143.176 163.352
 145.051 c 171.227 154.199 186.75 154.801 196.051 155.176 c 196.199 155.176
 l 197.398 166.727 l 197.773 172.875 193.801 183.449 189.148 193.426 c 174.449
 173.852 143.852 157.051 135 152.398 c h
188.176 214.801 m 190.199 211.273 193.352 205.426 196.5 198.824 c 200.477
 190.574 203.176 183.449 204.824 177.602 c 204.227 192.898 l 204.074 195.977
 205.199 199.051 207.301 201.301 c 206.699 204.227 l 204.148 204.301 201.75
 205.125 199.648 206.625 c h
209.625 218.477 m 201.676 226.801 l 200.852 227.625 199.727 228 198.602
 227.852 c 190.875 226.727 l 190.199 224.324 l 204.75 213.824 l 205.801 
213.074 207.148 212.926 208.352 213.375 c 209.398 213.75 210.148 214.648
 210.375 215.699 c 210.676 216.75 210.375 217.801 209.625 218.477 c h
211.273 229.727 m 216.074 224.699 l 218.398 222.301 219.602 219.074 219.449
 215.699 c 230.477 214.426 l 220.648 232.5 l 217.352 232.5 214.125 231.523
 211.273 229.727 c h
231.898 357 m 232.051 358.648 232.125 360.148 232.125 361.648 c 232.125
 365.398 l 232.125 366 231.824 366.523 231.375 366.898 c 230.852 367.352
 230.25 367.574 229.574 367.5 c 229.426 367.5 229.199 367.426 228.977 367.426
 c 217.949 366.898 l 214.051 366.301 210.148 366.227 206.25 366.75 c 198.375
 367.125 l 198.227 367.125 198.074 367.125 197.926 367.199 c 197.324 367.273
 196.727 367.125 196.199 366.75 c 195.75 366.375 195.449 365.773 195.449
 365.25 c 195.375 364.426 195.75 363.523 196.352 362.926 c 196.949 362.324
 197.699 361.949 198.602 361.949 c 204.301 362.176 209.926 361.352 215.324
 359.477 c 220.125 357.898 223.801 354.074 225.148 349.199 c 226.727 343.426
 l 233.324 343.426 l 231.148 348 231.523 352.727 231.898 357 c h
300.898 58.051 m 258.227 216 l 258.148 216.301 258.074 216.602 258.074 
216.898 c 250.574 331.574 l 250.352 333.301 248.926 334.574 247.199 334.5
 c 225.301 334.5 l 224.324 334.5 223.426 334.125 222.75 333.449 c 222.148
 332.852 221.926 332.023 221.926 331.273 c 227.852 238.352 l 241.426 213.227
 l 243.676 212.926 l 246.75 212.477 249.375 210.301 250.273 207.301 c 260.699
 177.824 246.676 148.801 242.023 140.398 c 242.023 140.324 242.023 140.324
 242.102 140.25 c 281.398 47.699 l 281.773 46.801 282.523 46.125 283.5 45.898
 c 284.551 45.602 285.602 45.75 286.5 46.273 c 299.551 54.75 l 300.676 55.426
 301.199 56.773 300.898 58.051 c h
327.301 27.977 m 326.852 29.324 325.5 30.227 324.074 29.926 c 317.852 29.023
 313.574 28.574 311.398 28.426 c 308.176 28.273 304.949 29.625 302.773 32.023
 c 300 34.949 297.977 38.398 296.699 42.227 c 291.375 38.852 l 290.926 38.551
 290.398 38.324 289.949 38.102 c 293.324 31.574 l 294.676 29.102 295.352
 26.324 295.426 23.477 c 295.574 18.074 l 295.574 18 l 295.727 17.477 296.102
 17.023 296.551 16.801 c 297.301 16.426 298.199 16.426 298.949 16.801 c 
306.227 20.324 l 310.199 22.273 314.398 23.551 318.676 24.227 c 318.977 
24.227 l 324.75 24.75 l 325.574 24.824 326.398 25.273 326.852 25.949 c 327.301
 26.551 327.449 27.301 327.301 27.977 c h
327.301 27.977 m f
245.699 79.574 m 247.949 80.551 250.648 79.5 251.625 77.25 c 263.398 49.727
 l 264.375 47.477 263.324 44.773 261 43.801 c 258.75 42.824 256.051 43.875
 255.074 46.199 c 243.301 73.727 l 242.398 75.898 243.449 78.602 245.699
 79.574 c h
245.699 79.574 m f
313.125 92.176 m 310.727 91.648 308.324 93.148 307.727 95.551 c 301.273
 123.75 l 300.75 126.148 302.25 128.551 304.648 129.148 c 307.051 129.676
 309.449 128.176 310.051 125.773 c 316.5 97.574 l 317.023 95.176 315.523
 92.773 313.125 92.176 c h
313.125 92.176 m f
317.926 71.023 m 315.523 70.5 313.125 72 312.523 74.398 c 310.648 82.648
 l 310.125 85.051 311.625 87.449 314.023 88.051 c 316.426 88.574 318.824
 87.074 319.426 84.676 c 321.301 76.426 l 321.898 74.023 320.398 71.625 
317.926 71.023 c h
317.926 71.023 m f
239.477 83.852 m 238.125 87.301 l 237.148 89.625 238.273 92.25 240.523 
93.227 c 242.852 94.199 245.477 93.074 246.449 90.824 c 246.449 90.824 246.449
 90.75 246.523 90.75 c 247.875 87.301 l 248.852 85.051 247.801 82.352 245.551
 81.375 c 243.301 80.398 240.602 81.449 239.625 83.699 c 239.477 83.699 
239.477 83.773 239.477 83.852 c h
239.477 83.852 m f
Q Q
showpage
%%Trailer
end
%%EOF
