%!PS-Adobe-3.0 EPSF-3.0
%%Creator: cairo 1.16.0 (https://cairographics.org)
%%CreationDate: Mon Dec 14 10:24:50 2020
%%Pages: 1
%%DocumentData: Clean7Bit
%%LanguageLevel: 2
%%BoundingBox: 7 7 377 377
%%EndComments
%%BeginProlog
50 dict begin
/q { gsave } bind def
/Q { grestore } bind def
/cm { 6 array astore concat } bind def
/w { setlinewidth } bind def
/J { setlinecap } bind def
/j { setlinejoin } bind def
/M { setmiterlimit } bind def
/d { setdash } bind def
/m { moveto } bind def
/l { lineto } bind def
/c { curveto } bind def
/h { closepath } bind def
/re { exch dup neg 3 1 roll 5 3 roll moveto 0 rlineto
      0 exch rlineto 0 rlineto closepath } bind def
/S { stroke } bind def
/f { fill } bind def
/f* { eofill } bind def
/n { newpath } bind def
/W { clip } bind def
/W* { eoclip } bind def
/BT { } bind def
/ET { } bind def
/BDC { mark 3 1 roll /BDC pdfmark } bind def
/EMC { mark /EMC pdfmark } bind def
/cairo_store_point { /cairo_point_y exch def /cairo_point_x exch def } def
/Tj { show currentpoint cairo_store_point } bind def
/TJ {
  {
    dup
    type /stringtype eq
    { show } { -0.001 mul 0 cairo_font_matrix dtransform rmoveto } ifelse
  } forall
  currentpoint cairo_store_point
} bind def
/cairo_selectfont { cairo_font_matrix aload pop pop pop 0 0 6 array astore
    cairo_font exch selectfont cairo_point_x cairo_point_y moveto } bind def
/Tf { pop /cairo_font exch def /cairo_font_matrix where
      { pop cairo_selectfont } if } bind def
/Td { matrix translate cairo_font_matrix matrix concatmatrix dup
      /cairo_font_matrix exch def dup 4 get exch 5 get cairo_store_point
      /cairo_font where { pop cairo_selectfont } if } bind def
/Tm { 2 copy 8 2 roll 6 array astore /cairo_font_matrix exch def
      cairo_store_point /cairo_font where { pop cairo_selectfont } if } bind def
/g { setgray } bind def
/rg { setrgbcolor } bind def
/d1 { setcachedevice } bind def
/cairo_data_source {
  CairoDataIndex CairoData length lt
    { CairoData CairoDataIndex get /CairoDataIndex CairoDataIndex 1 add def }
    { () } ifelse
} def
/cairo_flush_ascii85_file { cairo_ascii85_file status { cairo_ascii85_file flushfile } if } def
/cairo_image { image cairo_flush_ascii85_file } def
/cairo_imagemask { imagemask cairo_flush_ascii85_file } def
%%EndProlog
%%BeginSetup
%%EndSetup
%%Page: 1 1
%%BeginPageSetup
%%PageBoundingBox: 7 7 377 377
%%EndPageSetup
q 7 7 370 370 rectclip
1 0 0 -1 0 384 cm q
0.427451 0.454902 0.52549 rg
372 27 m 372 357 l 372 360.98 370.422 364.793 367.609 367.609 c 364.793
 370.422 360.98 372 357 372 c 27 372 l 23.02 372 19.207 370.422 16.391 367.609
 c 13.578 364.793 12 360.98 12 357 c 12 27 l 12 23.02 13.578 19.207 16.391
 16.391 c 19.207 13.578 23.02 12 27 12 c 357 12 l 360.98 12 364.793 13.578
 367.609 16.391 c 370.422 19.207 372 23.02 372 27 c h
372 27 m f
0.917647 0.87451 0.32549 rg
255.75 113.25 m 259.73 113.25 263.543 114.828 266.359 117.641 c 269.172
 120.457 270.75 124.27 270.75 128.25 c 270.75 349.5 l 334.5 349.5 l 338.48
 349.5 342.293 347.922 345.109 345.109 c 347.922 342.293 349.5 338.48 349.5
 334.5 c 349.5 113.25 l h
255.75 113.25 m f
0.286275 0.741176 1 rg
113.25 255.75 m 113.25 34.5 l 49.5 34.5 l 45.52 34.5 41.707 36.078 38.891
 38.891 c 36.078 41.707 34.5 45.52 34.5 49.5 c 34.5 270.75 l 128.25 270.75
 l 124.27 270.75 120.457 269.172 117.641 266.359 c 114.828 263.543 113.25
 259.73 113.25 255.75 c h
113.25 255.75 m f
0.984314 0.403922 0.443137 rg
334.5 34.5 m 113.25 34.5 l 113.25 128.25 l 113.25 124.27 114.828 120.457
 117.641 117.641 c 120.457 114.828 124.27 113.25 128.25 113.25 c 349.5 113.25
 l 349.5 49.5 l 349.5 45.52 347.922 41.707 345.109 38.891 c 342.293 36.078
 338.48 34.5 334.5 34.5 c h
334.5 34.5 m f
0.333333 0.847059 0.847059 rg
255.75 270.75 m 34.5 270.75 l 34.5 334.5 l 34.5 338.48 36.078 342.293 38.891
 345.109 c 41.707 347.922 45.52 349.5 49.5 349.5 c 270.75 349.5 l 270.75
 255.75 l 270.75 259.73 269.172 263.543 266.359 266.359 c 263.543 269.172
 259.73 270.75 255.75 270.75 c h
255.75 270.75 m f
0.607843 0.882353 0.278431 rg
128.25 113.25 m 255.75 113.25 l 264.059 113.25 270.75 119.941 270.75 128.25
 c 270.75 255.75 l 270.75 264.059 264.059 270.75 255.75 270.75 c 128.25 
270.75 l 119.941 270.75 113.25 264.059 113.25 255.75 c 113.25 128.25 l 113.25
 119.941 119.941 113.25 128.25 113.25 c h
128.25 113.25 m f
0.266667 0.666667 0.847059 rg
72 34.5 m 49.5 34.5 l 45.52 34.5 41.707 36.078 38.891 38.891 c 36.078 41.707
 34.5 45.52 34.5 49.5 c 34.5 270.75 l 57 270.75 l 57 49.5 l 57 45.52 58.578
 41.707 61.391 38.891 c 64.207 36.078 68.02 34.5 72 34.5 c h
72 34.5 m f
0.282353 0.709804 0.698039 rg
57 334.5 m 57 270.75 l 34.5 270.75 l 34.5 334.5 l 34.5 338.48 36.078 342.293
 38.891 345.109 c 41.707 347.922 45.52 349.5 49.5 349.5 c 72 349.5 l 68.02
 349.5 64.207 347.922 61.391 345.109 c 58.578 342.293 57 338.48 57 334.5
 c h
57 334.5 m f
0.156863 0.258824 0.407843 rg
27 376.5 m 357 376.5 l 367.766 376.488 376.488 367.766 376.5 357 c 376.5
 27 l 376.488 16.234 367.766 7.512 357 7.5 c 27 7.5 l 16.234 7.512 7.512
 16.234 7.5 27 c 7.5 357 l 7.512 367.766 16.234 376.488 27 376.5 c h
16.5 27 m 16.508 21.203 21.203 16.508 27 16.5 c 357 16.5 l 362.797 16.508
 367.492 21.203 367.5 27 c 367.5 357 l 367.492 362.797 362.797 367.492 357
 367.5 c 27 367.5 l 21.203 367.492 16.508 362.797 16.5 357 c h
16.5 27 m f
55.703 140.441 m 53.219 140.441 51.203 142.457 51.203 144.941 c 51.203 
159.188 l 51.203 165.188 60.203 165.188 60.203 159.188 c 60.203 144.941 
l 60.203 142.457 58.188 140.441 55.703 140.441 c h
55.703 140.441 m f
55.25 132.848 m 57.734 132.848 59.75 130.836 59.75 128.348 c 59.75 82.141
 l 59.75 76.141 50.75 76.141 50.75 82.141 c 50.75 128.348 l 50.75 130.836
 52.766 132.848 55.25 132.848 c h
55.25 132.848 m f
55.25 69.848 m 57.734 69.848 59.75 67.836 59.75 65.348 c 59.75 61.746 l
 59.75 55.746 50.75 55.746 50.75 61.746 c 50.75 65.348 l 50.75 67.836 52.766
 69.848 55.25 69.848 c h
55.25 69.848 m f
49.5 354 m 334.5 354 l 345.266 353.988 353.988 345.266 354 334.5 c 354 
49.5 l 353.988 38.734 345.266 30.012 334.5 30 c 49.5 30 l 38.734 30.012 
30.012 38.734 30 49.5 c 30 334.5 l 30.012 345.266 38.734 353.988 49.5 354
 c h
345 334.5 m 344.992 340.297 340.297 344.992 334.5 345 c 275.25 345 l 275.25
 128.25 l 275.254 124.527 274.184 120.883 272.168 117.75 c 345 117.75 l 
h
117.75 39 m 334.5 39 l 340.297 39.008 344.992 43.703 345 49.5 c 345 108.75
 l 128.25 108.75 l 124.527 108.746 120.883 109.816 117.75 111.832 c h
117.75 128.25 m 117.758 122.453 122.453 117.758 128.25 117.75 c 255.75 
117.75 l 261.547 117.758 266.242 122.453 266.25 128.25 c 266.25 255.75 l
 266.242 261.547 261.547 266.242 255.75 266.25 c 128.25 266.25 l 122.453
 266.242 117.758 261.547 117.75 255.75 c h
39 49.5 m 39.008 43.703 43.703 39.008 49.5 39 c 108.75 39 l 108.75 255.75
 l 108.746 259.473 109.816 263.117 111.832 266.25 c 39 266.25 l h
39 275.25 m 255.75 275.25 l 259.473 275.254 263.117 274.184 266.25 272.168
 c 266.25 345 l 49.5 345 l 43.703 344.992 39.008 340.297 39 334.5 c h
39 275.25 m f
Q Q
showpage
%%Trailer
end
%%EOF
