%!PS-Adobe-3.0 EPSF-3.0
%%Creator: cairo 1.16.0 (https://cairographics.org)
%%CreationDate: Mon Dec 14 10:24:54 2020
%%Pages: 1
%%DocumentData: Clean7Bit
%%LanguageLevel: 2
%%BoundingBox: 8 11 376 373
%%EndComments
%%BeginProlog
50 dict begin
/q { gsave } bind def
/Q { grestore } bind def
/cm { 6 array astore concat } bind def
/w { setlinewidth } bind def
/J { setlinecap } bind def
/j { setlinejoin } bind def
/M { setmiterlimit } bind def
/d { setdash } bind def
/m { moveto } bind def
/l { lineto } bind def
/c { curveto } bind def
/h { closepath } bind def
/re { exch dup neg 3 1 roll 5 3 roll moveto 0 rlineto
      0 exch rlineto 0 rlineto closepath } bind def
/S { stroke } bind def
/f { fill } bind def
/f* { eofill } bind def
/n { newpath } bind def
/W { clip } bind def
/W* { eoclip } bind def
/BT { } bind def
/ET { } bind def
/BDC { mark 3 1 roll /BDC pdfmark } bind def
/EMC { mark /EMC pdfmark } bind def
/cairo_store_point { /cairo_point_y exch def /cairo_point_x exch def } def
/Tj { show currentpoint cairo_store_point } bind def
/TJ {
  {
    dup
    type /stringtype eq
    { show } { -0.001 mul 0 cairo_font_matrix dtransform rmoveto } ifelse
  } forall
  currentpoint cairo_store_point
} bind def
/cairo_selectfont { cairo_font_matrix aload pop pop pop 0 0 6 array astore
    cairo_font exch selectfont cairo_point_x cairo_point_y moveto } bind def
/Tf { pop /cairo_font exch def /cairo_font_matrix where
      { pop cairo_selectfont } if } bind def
/Td { matrix translate cairo_font_matrix matrix concatmatrix dup
      /cairo_font_matrix exch def dup 4 get exch 5 get cairo_store_point
      /cairo_font where { pop cairo_selectfont } if } bind def
/Tm { 2 copy 8 2 roll 6 array astore /cairo_font_matrix exch def
      cairo_store_point /cairo_font where { pop cairo_selectfont } if } bind def
/g { setgray } bind def
/rg { setrgbcolor } bind def
/d1 { setcachedevice } bind def
/cairo_data_source {
  CairoDataIndex CairoData length lt
    { CairoData CairoDataIndex get /CairoDataIndex CairoDataIndex 1 add def }
    { () } ifelse
} def
/cairo_flush_ascii85_file { cairo_ascii85_file status { cairo_ascii85_file flushfile } if } def
/cairo_image { image cairo_flush_ascii85_file } def
/cairo_imagemask { imagemask cairo_flush_ascii85_file } def
%%EndProlog
%%BeginSetup
%%EndSetup
%%Page: 1 1
%%BeginPageSetup
%%PageBoundingBox: 8 11 376 373
%%EndPageSetup
q 8 11 368 362 rectclip
1 0 0 -1 0 384 cm q
0.929412 0.717647 0.25098 rg
290.227 118.344 32.281 28.492 re f
214.738 118.344 32.273 28.492 re f
136.988 118.344 32.273 28.492 re f
94.582 118.344 m 93.773 146.836 l 61.492 146.836 l 62.301 118.344 l h
94.582 118.344 m f
0.760784 0.407843 0.309804 rg
324.375 165.789 m 300.172 165.789 l 317.301 367.934 l 341.484 367.621 l
 h
324.375 165.789 m f
0.847059 0.643137 0.239216 rg
300.172 165.789 m 302.812 196.934 l 302.715 196.941 l 279.188 196.941 l
 279.188 165.789 l h
300.172 165.789 m f
0.929412 0.717647 0.25098 rg
257.391 165.789 21.797 31.152 re f
0.847059 0.643137 0.239216 rg
235.59 165.789 21.801 31.152 re f
0.929412 0.717647 0.25098 rg
213.797 165.789 21.793 31.152 re f
0.847059 0.643137 0.239216 rg
192 165.789 21.797 31.152 re f
0.929412 0.717647 0.25098 rg
170.203 165.789 21.797 31.152 re f
0.847059 0.643137 0.239216 rg
148.41 165.789 21.793 31.152 re f
0.929412 0.717647 0.25098 rg
126.609 165.789 21.801 31.152 re f
0.847059 0.643137 0.239216 rg
104.812 165.789 21.797 31.152 re f
0.929412 0.717647 0.25098 rg
104.812 165.789 m 104.812 196.941 l 84.57 196.941 l 87.562 165.789 l h
104.812 165.789 m f
0.760784 0.407843 0.309804 rg
63.367 165.789 m 42.531 367.441 l 68.145 368.086 l 87.562 165.789 l h
63.367 165.789 m f
0.8 0.607843 0.227451 rg
62.301 118.344 m 61.492 146.836 l 83.992 146.836 l 84.801 118.344 l h
62.301 118.344 m f
0.658824 0.333333 0.258824 rg
85.867 165.789 m 63.367 165.789 l 42.531 367.441 l 68.145 368.086 l 68.199
 367.52 l 65.031 367.441 l h
85.867 165.789 m f
0.760784 0.407843 0.309804 rg
344.086 55.32 m 330.016 64.223 313.523 71.691 295.215 77.551 c 264.914 
87.238 229.613 92.52 192 92.52 c 131.625 92.52 77.211 78.922 39.84 55.273
 c 39.84 102.699 l 39.836 106.844 41.477 110.82 44.402 113.754 c 47.328 
116.688 51.305 118.34 55.449 118.344 c 328.551 118.344 l 332.695 118.34 
336.672 116.688 339.598 113.754 c 342.523 110.82 344.164 106.844 344.16 
102.699 c 344.16 55.441 l h
344.086 55.32 m f
0.686275 0.352941 0.27451 rg
62.34 102.699 m 62.34 67.379 l 54.574 63.855 47.059 59.812 39.84 55.273
 c 39.84 102.699 l 39.836 106.844 41.477 110.82 44.402 113.754 c 47.328 
116.688 51.305 118.34 55.449 118.344 c 77.949 118.344 l 73.805 118.34 69.828
 116.688 66.902 113.754 c 63.977 110.82 62.336 106.844 62.34 102.699 c h
62.34 102.699 m f
0.427451 0.454902 0.52549 rg
39.84 55.273 m 31.047 49.797 22.891 43.352 15.523 36.066 c 11.824 32.355
 11.824 26.348 15.523 22.637 c 22.23 15.914 l 28.934 22.637 l 44.797 38.527
 68.723 51.621 98.109 60.504 c 126.277 69.016 158.746 73.516 192 73.516 
c 225.254 73.516 257.723 69.016 285.891 60.504 c 315.277 51.621 339.203 
38.527 355.066 22.637 c 361.77 15.914 l 368.477 22.637 l 372.172 26.348 
372.172 32.352 368.477 36.066 c 361.09 43.375 352.91 49.832 344.086 55.32
 c 330.016 64.223 313.523 71.691 295.215 77.551 c 264.914 87.238 229.613
 92.52 192 92.52 c 131.625 92.52 77.211 78.922 39.84 55.273 c h
39.84 55.273 m f
0.337255 0.356863 0.407843 rg
35.25 47.355 m 35.25 44.836 36.246 42.418 38.023 40.637 c 43.664 34.984
 l 38.418 31.289 33.488 27.156 28.934 22.637 c 22.23 15.914 l 15.523 22.637
 l 11.824 26.348 11.824 32.355 15.523 36.066 c 22.402 42.871 29.973 48.934
 38.113 54.156 c 38.086 54.125 38.055 54.098 38.023 54.066 c 36.246 52.285
 35.25 49.871 35.25 47.355 c h
35.25 47.355 m f
0.780392 0.603922 0.513726 rg
53.836 146.836 m 330.164 146.836 l 335.41 146.836 339.629 151.055 339.629
 156.301 c 339.629 156.324 l 339.629 161.566 335.41 165.789 330.164 165.789
 c 53.836 165.789 l 48.59 165.789 44.371 161.566 44.371 156.324 c 44.371
 156.301 l 44.371 151.055 48.59 146.836 53.836 146.836 c h
53.836 146.836 m f
0.666667 0.509804 0.443137 rg
66.871 156.324 m 66.871 156.301 l 66.871 153.789 67.867 151.383 69.641 
149.605 c 71.418 147.832 73.824 146.836 76.336 146.836 c 53.836 146.836 
l 48.609 146.836 44.371 151.074 44.371 156.301 c 44.371 156.324 l 44.371
 158.832 45.367 161.238 47.141 163.016 c 48.918 164.789 51.324 165.789 53.836
 165.789 c 76.336 165.789 l 73.824 165.789 71.418 164.789 69.641 163.016
 c 67.867 161.238 66.871 158.832 66.871 156.324 c h
66.871 156.324 m f
0.156863 0.258824 0.407843 rg
364.949 12.734 m 363.191 10.973 360.336 10.973 358.578 12.734 c 351.875
 19.453 l 336.535 34.824 313.27 47.527 284.59 56.195 c 256.84 64.578 224.82
 69.012 191.996 69.012 c 159.176 69.012 127.156 64.578 99.406 56.195 c 70.73
 47.527 47.465 34.824 32.125 19.453 c 25.418 12.734 l 23.66 10.973 20.805
 10.973 19.047 12.734 c 12.344 19.453 l 6.895 24.93 6.895 33.777 12.344 
39.25 c 19.348 46.188 27.055 52.375 35.336 57.719 c 35.336 102.703 l 35.34
 113.809 44.336 122.82 55.445 122.84 c 57.676 122.84 l 57.121 142.336 l 
53.832 142.336 l 46.152 142.391 39.957 148.633 39.957 156.312 c 39.957 163.992
 46.152 170.23 53.832 170.289 c 58.375 170.289 l 38.055 366.98 l 37.785 
369.59 39.797 371.875 42.418 371.938 c 68.035 372.582 l 68.148 372.582 l
 70.465 372.582 72.402 370.82 72.625 368.516 c 88.66 201.441 l 298.68 201.441
 l 312.816 368.312 l 313.012 370.641 314.961 372.43 317.297 372.43 c 317.359
 372.43 l 341.539 372.113 l 344.152 372.082 346.188 369.836 345.965 367.234
 c 329.27 170.285 l 330.168 170.285 l 337.848 170.23 344.043 163.988 344.043
 156.309 c 344.043 148.629 337.848 142.391 330.168 142.332 c 327.004 142.332
 l 327.004 122.84 l 328.555 122.84 l 339.664 122.82 348.66 113.809 348.664
 102.703 c 348.664 57.719 l 356.945 52.375 364.652 46.188 371.656 39.25 
c 377.105 33.777 377.105 24.93 371.656 19.453 c h
64.066 363.48 m 47.508 363.066 l 67.426 170.289 l 82.609 170.289 l h
100.312 192.445 m 89.523 192.445 l 91.648 170.289 l 100.312 170.289 l h
122.109 192.445 m 109.312 192.445 l 109.312 170.289 l 122.109 170.289 l
 h
143.906 192.445 m 131.109 192.445 l 131.109 170.289 l 143.906 170.289 l
 h
165.703 192.445 m 152.906 192.445 l 152.906 170.289 l 165.703 170.289 l
 h
187.5 192.445 m 174.703 192.445 l 174.703 170.289 l 187.5 170.289 l h
209.297 192.445 m 196.5 192.445 l 196.5 170.289 l 209.297 170.289 l h
231.094 192.445 m 218.297 192.445 l 218.297 170.289 l 231.094 170.289 l
 h
252.891 192.445 m 240.094 192.445 l 240.094 170.289 l 252.891 170.289 l
 h
274.688 192.445 m 261.891 192.445 l 261.891 170.289 l 274.688 170.289 l
 h
283.688 192.445 m 283.688 170.289 l 296.039 170.289 l 297.914 192.445 l
 h
336.59 363.18 m 321.43 363.379 l 305.074 170.289 l 320.238 170.289 l h
330.168 151.336 m 336.723 151.418 336.723 161.207 330.168 161.289 c 53.832
 161.289 l 47.277 161.207 47.277 151.418 53.832 151.336 c h
66.125 142.336 m 66.68 122.84 l 89.949 122.84 l 89.398 142.336 l h
98.402 142.336 m 98.953 122.84 l 132.484 122.84 l 132.484 142.336 l h
141.484 142.336 m 141.484 122.84 l 164.762 122.84 l 164.762 142.336 l h
173.762 142.336 m 173.762 122.84 l 210.238 122.84 l 210.238 142.336 l h
219.238 142.336 m 219.238 122.84 l 242.516 122.84 l 242.516 142.336 l h
251.516 142.336 m 251.516 122.84 l 285.727 122.84 l 285.727 142.336 l h
294.727 142.336 m 294.727 122.84 l 318.004 122.84 l 318.004 142.336 l h
339.664 102.703 m 339.664 108.844 334.695 113.824 328.555 113.84 c 55.445
 113.84 l 49.305 113.824 44.336 108.844 44.336 102.703 c 44.336 63.211 l
 82.082 84.746 134.414 97.016 192 97.016 c 249.586 97.016 301.918 84.746
 339.664 63.211 c h
365.289 32.891 m 330.836 67.41 266.059 88.016 192 88.016 c 117.941 88.016
 53.164 67.41 18.711 32.891 c 16.766 30.934 16.766 27.77 18.711 25.812 c
 22.234 22.285 l 25.754 25.812 l 42.141 42.23 66.707 55.715 96.805 64.812
 c 125.391 73.449 158.305 78.016 192 78.016 c 225.695 78.016 258.609 73.449
 287.195 64.812 c 317.293 55.719 341.859 42.238 358.246 25.816 c 361.766
 22.289 l 365.289 25.816 l 367.234 27.773 367.234 30.934 365.289 32.891 
c h
365.289 32.891 m f
156.488 98.297 m 142.246 98.297 l 136.246 98.297 136.246 107.297 142.246
 107.297 c 156.488 107.297 l 162.488 107.297 162.488 98.297 156.488 98.297
 c h
156.488 98.297 m f
125.652 98.75 m 79.441 98.75 l 73.441 98.75 73.441 107.75 79.441 107.75
 c 125.652 107.75 l 131.652 107.75 131.652 98.75 125.652 98.75 c h
125.652 98.75 m f
62.652 98.75 m 59.047 98.75 l 53.047 98.75 53.047 107.75 59.047 107.75 
c 62.652 107.75 l 68.652 107.75 68.652 98.75 62.652 98.75 c h
62.652 98.75 m f
Q Q
showpage
%%Trailer
end
%%EOF
