%!PS-Adobe-3.0 EPSF-3.0
%%Creator: cairo 1.16.0 (https://cairographics.org)
%%CreationDate: Mon Dec 14 10:24:56 2020
%%Pages: 1
%%DocumentData: Clean7Bit
%%LanguageLevel: 2
%%BoundingBox: 7 7 377 377
%%EndComments
%%BeginProlog
50 dict begin
/q { gsave } bind def
/Q { grestore } bind def
/cm { 6 array astore concat } bind def
/w { setlinewidth } bind def
/J { setlinecap } bind def
/j { setlinejoin } bind def
/M { setmiterlimit } bind def
/d { setdash } bind def
/m { moveto } bind def
/l { lineto } bind def
/c { curveto } bind def
/h { closepath } bind def
/re { exch dup neg 3 1 roll 5 3 roll moveto 0 rlineto
      0 exch rlineto 0 rlineto closepath } bind def
/S { stroke } bind def
/f { fill } bind def
/f* { eofill } bind def
/n { newpath } bind def
/W { clip } bind def
/W* { eoclip } bind def
/BT { } bind def
/ET { } bind def
/BDC { mark 3 1 roll /BDC pdfmark } bind def
/EMC { mark /EMC pdfmark } bind def
/cairo_store_point { /cairo_point_y exch def /cairo_point_x exch def } def
/Tj { show currentpoint cairo_store_point } bind def
/TJ {
  {
    dup
    type /stringtype eq
    { show } { -0.001 mul 0 cairo_font_matrix dtransform rmoveto } ifelse
  } forall
  currentpoint cairo_store_point
} bind def
/cairo_selectfont { cairo_font_matrix aload pop pop pop 0 0 6 array astore
    cairo_font exch selectfont cairo_point_x cairo_point_y moveto } bind def
/Tf { pop /cairo_font exch def /cairo_font_matrix where
      { pop cairo_selectfont } if } bind def
/Td { matrix translate cairo_font_matrix matrix concatmatrix dup
      /cairo_font_matrix exch def dup 4 get exch 5 get cairo_store_point
      /cairo_font where { pop cairo_selectfont } if } bind def
/Tm { 2 copy 8 2 roll 6 array astore /cairo_font_matrix exch def
      cairo_store_point /cairo_font where { pop cairo_selectfont } if } bind def
/g { setgray } bind def
/rg { setrgbcolor } bind def
/d1 { setcachedevice } bind def
/cairo_data_source {
  CairoDataIndex CairoData length lt
    { CairoData CairoDataIndex get /CairoDataIndex CairoDataIndex 1 add def }
    { () } ifelse
} def
/cairo_flush_ascii85_file { cairo_ascii85_file status { cairo_ascii85_file flushfile } if } def
/cairo_image { image cairo_flush_ascii85_file } def
/cairo_imagemask { imagemask cairo_flush_ascii85_file } def
%%EndProlog
%%BeginSetup
%%EndSetup
%%Page: 1 1
%%BeginPageSetup
%%PageBoundingBox: 7 7 377 377
%%EndPageSetup
q 7 7 370 370 rectclip
1 0 0 -1 0 384 cm q
0.678431 0.517647 0.45098 rg
367.371 16.629 m 370.336 19.59 372 23.605 372 27.797 c 372 31.984 370.336
 36 367.371 38.961 c 336.344 69.996 l 314.004 47.656 l 345.039 16.629 l 
348 13.664 352.016 12 356.203 12 c 360.395 12 364.41 13.664 367.371 16.629
 c h
367.371 16.629 m f
0.780392 0.603922 0.513726 rg
367.371 345.039 m 370.363 347.992 372.051 352.02 372.062 356.223 c 372.074
 360.43 370.41 364.465 367.438 367.438 c 364.465 370.41 360.43 372.074 356.223
 372.062 c 352.02 372.051 347.992 370.363 345.039 367.371 c 318.301 340.641
 l 318.301 340.637 l 340.074 317.738 l h
367.371 345.039 m f
0.27451 0.537255 0.827451 rg
340.074 317.738 m 318.301 340.637 l 291.602 313.934 l 313.461 291.129 l
 h
340.074 317.738 m f
0.984314 0.403922 0.443137 rg
290.57 71.074 m 313.961 47.684 l 336.301 70.023 l 312.91 93.414 l h
290.57 71.074 m f
0.678431 0.517647 0.45098 rg
290.609 71.047 m 70.066 291.602 l 92.398 313.934 l 312.953 93.391 l h
290.609 71.047 m f
0.27451 0.537255 0.827451 rg
93.328 70.996 m 71.047 93.383 l 47.664 69.996 l 69.996 47.664 l h
93.328 70.996 m f
0.984314 0.403922 0.443137 rg
92.398 313.934 m 65.773 340.559 l 43.926 317.73 l 70.066 291.602 l h
92.398 313.934 m f
0.780392 0.603922 0.513726 rg
69.996 47.664 m 47.664 69.996 l 47.656 69.996 l 16.629 38.961 l 10.52 32.785
 10.551 22.836 16.691 16.691 c 22.836 10.551 32.785 10.52 38.961 16.629 
c h
69.996 47.664 m f
0.678431 0.517647 0.45098 rg
43.926 317.73 m 65.773 340.559 l 38.961 367.371 l 36.008 370.363 31.98 
372.051 27.777 372.062 c 23.57 372.074 19.535 370.41 16.562 367.438 c 13.59
 364.465 11.926 360.43 11.938 356.223 c 11.949 352.02 13.637 347.992 16.629
 345.039 c h
43.926 317.73 m f
0.780392 0.603922 0.513726 rg
93.328 70.996 m 71.047 93.383 l 71.047 93.391 l 291.602 313.934 l 313.461
 291.129 l h
93.328 70.996 m f
0.352941 0.639216 0.898039 rg
303.344 301.684 m 291.602 313.934 l 318.301 340.637 l 329.996 328.336 l
 h
303.344 301.684 m f
59.66 58 m 47.664 69.996 l 71.047 93.383 l 83.016 81.355 l h
59.66 58 m f
0.866667 0.670588 0.580392 rg
368.203 360 m 364.012 360.004 359.992 358.34 357.035 355.371 c 329.992 
328.336 l 318.301 340.637 l 318.301 340.641 l 345.039 367.371 l 349.113 
371.453 355.09 372.988 360.625 371.371 c 366.164 369.754 370.375 365.246
 371.617 359.617 c 370.496 359.867 369.352 359.996 368.203 360 c h
368.203 360 m f
59.652 58 m 28.625 26.965 l 24.809 23.152 23.207 17.648 24.383 12.383 c
 18.75 13.625 14.242 17.84 12.629 23.375 c 11.012 28.91 12.547 34.887 16.629
 38.961 c 47.656 69.996 l 47.664 69.996 l 59.664 57.996 l h
59.652 58 m f
83.047 81.391 m 83.047 81.383 l 71.047 93.383 l 71.047 93.391 l 291.602
 313.934 l 303.344 301.684 l h
83.047 81.391 m f
0.156863 0.258824 0.407843 rg
376.5 27.797 m 376.5 19.586 371.555 12.184 363.969 9.043 c 356.387 5.902
 347.656 7.637 341.852 13.445 c 192 163.297 l 42.148 13.445 l 34.223 5.52
 21.371 5.52 13.445 13.445 c 5.52 21.371 5.52 34.223 13.445 42.148 c 163.297
 192 l 13.445 341.852 l 5.52 349.777 5.52 362.629 13.445 370.555 c 21.371
 378.48 34.223 378.48 42.148 370.555 c 192 220.703 l 341.852 370.555 l 349.777
 378.48 362.629 378.48 370.555 370.555 c 378.48 362.629 378.48 349.777 370.555
 341.852 c 220.703 192 l 370.555 42.148 l 374.375 38.352 376.516 33.184 
376.5 27.797 c h
19.809 35.785 m 15.398 31.371 15.398 24.219 19.809 19.809 c 24.219 15.398
 31.371 15.398 35.785 19.809 c 63.633 47.656 l 47.656 63.633 l h
54.023 69.996 m 69.996 54.023 l 86.973 70.996 l 71.039 87.016 l h
35.785 364.191 m 33.664 366.309 30.793 367.5 27.797 367.5 c 24.801 367.5
 21.926 366.309 19.809 364.191 c 17.691 362.074 16.5 359.199 16.5 356.203
 c 16.5 353.207 17.691 350.336 19.809 348.215 c 43.855 324.168 l 59.48 340.492
 l h
65.852 334.125 m 50.223 317.805 l 70.062 297.961 l 86.039 313.938 l h
92.398 307.574 m 76.426 291.602 l 169.66 198.363 l 185.637 214.34 l h
364.188 348.219 m 368.598 352.633 368.598 359.785 364.188 364.195 c 359.777
 368.605 352.625 368.605 348.215 364.195 c 324.582 340.57 l 340.156 324.18
 l h
333.785 317.816 m 318.227 334.199 l 297.898 313.875 l 313.535 297.559 l
 h
307.16 291.191 m 291.527 307.508 l 77.402 93.383 l 93.332 77.363 l h
214.34 185.637 m 198.363 169.66 l 290.613 77.41 l 306.59 93.387 l h
312.949 87.023 m 296.977 71.047 l 314 54.023 l 329.977 70 l h
364.191 35.785 m 336.344 63.633 l 320.367 47.656 l 348.215 19.809 l 350.336
 17.691 353.207 16.5 356.203 16.5 c 359.199 16.5 362.074 17.691 364.191 
19.809 c 366.309 21.926 367.5 24.801 367.5 27.797 c 367.5 30.793 366.309
 33.664 364.191 35.785 c h
364.191 35.785 m f
133.43 90.953 m 135.188 92.711 138.035 92.711 139.793 90.953 c 141.551 
89.195 141.551 86.344 139.793 84.59 c 129.723 74.516 l 127.969 72.734 125.098
 72.723 123.332 74.488 c 121.562 76.258 121.574 79.129 123.359 80.879 c 
h
133.43 90.953 m f
111.305 69.469 m 115.547 73.641 121.84 67.348 117.668 63.105 c 84.992 30.43
 l 80.75 26.188 74.387 32.551 78.629 36.793 c h
111.305 69.469 m f
66.758 24.922 m 71 29.164 77.363 22.801 73.121 18.559 c 70.57 16.008 l 
66.328 11.766 59.965 18.129 64.207 22.371 c h
66.758 24.922 m f
Q Q
showpage
%%Trailer
end
%%EOF
