%!PS-Adobe-3.0 EPSF-3.0
%%Creator: cairo 1.16.0 (https://cairographics.org)
%%CreationDate: Mon Dec 14 10:25:10 2020
%%Pages: 1
%%DocumentData: Clean7Bit
%%LanguageLevel: 2
%%BoundingBox: 38 7 346 377
%%EndComments
%%BeginProlog
50 dict begin
/q { gsave } bind def
/Q { grestore } bind def
/cm { 6 array astore concat } bind def
/w { setlinewidth } bind def
/J { setlinecap } bind def
/j { setlinejoin } bind def
/M { setmiterlimit } bind def
/d { setdash } bind def
/m { moveto } bind def
/l { lineto } bind def
/c { curveto } bind def
/h { closepath } bind def
/re { exch dup neg 3 1 roll 5 3 roll moveto 0 rlineto
      0 exch rlineto 0 rlineto closepath } bind def
/S { stroke } bind def
/f { fill } bind def
/f* { eofill } bind def
/n { newpath } bind def
/W { clip } bind def
/W* { eoclip } bind def
/BT { } bind def
/ET { } bind def
/BDC { mark 3 1 roll /BDC pdfmark } bind def
/EMC { mark /EMC pdfmark } bind def
/cairo_store_point { /cairo_point_y exch def /cairo_point_x exch def } def
/Tj { show currentpoint cairo_store_point } bind def
/TJ {
  {
    dup
    type /stringtype eq
    { show } { -0.001 mul 0 cairo_font_matrix dtransform rmoveto } ifelse
  } forall
  currentpoint cairo_store_point
} bind def
/cairo_selectfont { cairo_font_matrix aload pop pop pop 0 0 6 array astore
    cairo_font exch selectfont cairo_point_x cairo_point_y moveto } bind def
/Tf { pop /cairo_font exch def /cairo_font_matrix where
      { pop cairo_selectfont } if } bind def
/Td { matrix translate cairo_font_matrix matrix concatmatrix dup
      /cairo_font_matrix exch def dup 4 get exch 5 get cairo_store_point
      /cairo_font where { pop cairo_selectfont } if } bind def
/Tm { 2 copy 8 2 roll 6 array astore /cairo_font_matrix exch def
      cairo_store_point /cairo_font where { pop cairo_selectfont } if } bind def
/g { setgray } bind def
/rg { setrgbcolor } bind def
/d1 { setcachedevice } bind def
/cairo_data_source {
  CairoDataIndex CairoData length lt
    { CairoData CairoDataIndex get /CairoDataIndex CairoDataIndex 1 add def }
    { () } ifelse
} def
/cairo_flush_ascii85_file { cairo_ascii85_file status { cairo_ascii85_file flushfile } if } def
/cairo_image { image cairo_flush_ascii85_file } def
/cairo_imagemask { imagemask cairo_flush_ascii85_file } def
%%EndProlog
%%BeginSetup
%%EndSetup
%%Page: 1 1
%%BeginPageSetup
%%PageBoundingBox: 38 7 346 377
%%EndPageSetup
q 38 7 308 370 rectclip
1 0 0 -1 0 384 cm q
0.878431 0.698039 0.564706 rg
222.195 183.832 m 148.582 183.832 l 148.477 214.387 l 148.836 214.5 149.203
 214.629 149.566 214.77 c 158.387 218.281 169.059 223.238 176.676 229.086
 c 178.84 230.75 181.488 231.648 184.215 231.652 c 184.328 231.652 184.441
 231.652 184.547 231.645 c 184.648 231.637 184.77 231.645 184.875 231.637
 c 187.59 231.5 190.184 230.465 192.246 228.699 c 199.133 222.789 209.887
 217.566 218.949 213.824 c 220.023 213.375 221.148 213.059 222.301 212.879
 c h
222.195 183.832 m f
0.301961 0.670588 1 rg
333.57 171.098 m 298.141 171.098 l 294.109 171.098 290.844 174.367 290.844
 178.395 c 290.844 178.559 l 290.926 182.531 294.168 185.711 298.141 185.715
 c 333.57 185.715 l 337.605 185.715 340.879 182.441 340.879 178.406 c 340.879
 174.371 337.605 171.098 333.57 171.098 c h
333.57 171.098 m f
0.984314 0.403922 0.443137 rg
324.863 222.684 m 324.863 232.566 l 324.863 234.855 323.953 237.051 322.336
 238.672 c 320.715 240.289 318.52 241.199 316.23 241.199 c 313.941 241.199
 311.746 240.289 310.125 238.672 c 308.508 237.051 307.598 234.855 307.598
 232.566 c 307.598 222.684 l h
324.863 222.684 m f
0.917647 0.87451 0.32549 rg
307.598 204.195 17.266 18.488 re f
0.427451 0.454902 0.52549 rg
265.926 168.105 m 270.137 188.789 262.539 214.254 248.648 228.219 c 239.602
 223.523 l 240.242 223.199 240.578 222.48 240.422 221.781 c 239.281 216.824
 l 237.512 209.137 230.09 204.133 222.301 205.379 c 222.301 186.945 l 222.195
 186.832 l 230.352 179.297 235.98 169.426 238.305 158.566 c 238.461 158.566
 l 239.152 188.109 l 243.562 180.066 254.031 157.41 258.691 131.684 c 258.898
 131.723 l h
265.926 168.105 m f
0.290196 0.317647 0.376471 rg
166.711 34.867 m 179.309 32.008 192.402 32.16 204.93 35.309 c 207.188 35.863
 209.426 36.516 211.641 37.266 c 260.348 53.723 265.199 95.707 258.691 131.684
 c 254.031 157.41 243.562 180.066 239.152 188.109 c 238.461 158.566 l 237.039
 97.941 l 237.031 96.648 236.008 95.59 234.711 95.543 c 216.816 94.734 209.887
 81.414 207.547 74.805 c 207.137 73.629 205.492 73.574 205.004 74.723 c 
201.645 82.5 185.191 103.516 174.074 111.219 c 173.543 111.59 172.844 111.07
 173.047 110.453 c 174.969 104.691 180.898 87.637 179.234 80.258 c 179.125
 79.785 178.488 79.707 178.266 80.137 c 165.594 103.883 143.145 107.121 
135.945 107.543 c 134.656 107.621 133.648 108.695 133.656 109.988 c 132.457
 158.566 l 131.723 188.102 l 127.426 180.246 117.977 159.75 113.191 135.93
 c 112.117 130.609 111.328 125.234 110.828 119.828 c 108.277 91.621 114.547
 61.777 144.059 43.996 c 151.078 39.77 158.723 36.691 166.711 34.867 c h
166.711 34.867 m f
0.866667 0.356863 0.407843 rg
222.301 205.379 m 230.09 204.133 237.512 209.137 239.281 216.824 c 240.422
 221.781 l 240.578 222.48 240.242 223.199 239.602 223.523 c 191.348 247.875
 l 189.504 248.812 187.461 249.301 185.391 249.301 c 185.348 249.301 l 185.203
 249.301 185.062 249.297 184.922 249.285 c 184.547 224.145 l 184.656 224.145
 184.77 224.145 184.875 224.137 c 187.59 224 190.184 222.965 192.246 221.199
 c 199.133 215.289 209.887 210.066 218.949 206.324 c 220.023 205.875 221.148
 205.559 222.301 205.379 c h
222.301 205.379 m f
1 0.847059 0.717647 rg
237.039 97.941 m 238.461 158.566 l 238.305 158.566 l 234.324 176.926 221.109
 191.91 203.395 198.16 c 185.676 204.414 165.988 201.035 151.363 189.238
 c 150.414 188.469 149.488 187.664 148.582 186.832 c 140.43 179.293 134.805
 169.422 132.473 158.566 c 132.457 158.566 l 133.656 109.988 l 133.648 108.695
 134.656 107.621 135.945 107.543 c 143.145 107.121 165.594 103.883 178.266
 80.137 c 178.488 79.707 179.125 79.785 179.234 80.258 c 180.898 87.637 
174.969 104.691 173.047 110.453 c 172.844 111.07 173.543 111.59 174.074 
111.219 c 185.191 103.516 201.645 82.5 205.004 74.723 c 205.492 73.574 207.137
 73.629 207.547 74.805 c 209.887 81.414 216.816 94.734 234.711 95.543 c 
236.008 95.59 237.031 96.648 237.039 97.941 c h
237.039 97.941 m f
0.188235 0.564706 0.988235 rg
319.215 275.086 m 313.273 265.301 304.758 257.34 294.602 252.066 c 248.648
 228.219 l 239.602 223.523 l 191.348 247.875 l 189.504 248.812 187.461 249.301
 185.391 249.301 c 185.348 249.301 l 185.203 249.301 185.062 249.297 184.922
 249.285 c 182.984 249.227 181.082 248.738 179.355 247.859 c 129.473 222.496
 l 123.129 226.133 l 77.34 252.406 l 68.23 257.629 60.586 265.066 55.109
 274.027 c 54.906 274.359 l 49.441 283.312 46.32 293.5 45.824 303.984 c 
43.133 372 l 328.289 372 l 328.289 307.516 l 328.289 296.078 325.148 284.859
 319.215 275.086 c h
319.215 275.086 m f
0.984314 0.403922 0.443137 rg
148.477 206.887 m 148.836 207 149.203 207.129 149.566 207.27 c 158.387 
210.781 169.059 215.738 176.676 221.586 c 178.84 223.25 181.488 224.148 
184.215 224.152 c 184.328 224.152 184.441 224.152 184.547 224.145 c 184.922
 249.285 l 182.984 249.227 181.082 248.738 179.355 247.859 c 129.473 222.496
 l 128.824 222.16 128.492 221.418 128.672 220.711 c 129.531 217.426 l 130.566
 213.465 133.176 210.098 136.754 208.109 c 140.332 206.117 144.566 205.68
 148.477 206.887 c h
148.477 206.887 m f
0.427451 0.454902 0.52549 rg
185.836 16.004 m 175.375 16.012 166.859 24.41 166.711 34.867 c 158.723 
36.691 151.078 39.77 144.059 43.996 c 114.547 61.777 108.277 91.621 110.828
 119.828 c 100.574 132.414 80.773 139.387 74.34 134.16 c 72.898 132.988 
71.73 131.25 72.727 131.012 c 94.508 125.664 93.391 89.977 93.652 78.172
 c 95.609 -7.949 185.836 16.004 185.836 16.004 c h
185.836 16.004 m f
148.582 186.832 m 148.477 186.945 l 148.477 206.887 l 144.566 205.68 140.332
 206.117 136.754 208.109 c 133.176 210.098 130.566 213.465 129.531 217.426
 c 128.672 220.711 l 128.492 221.418 128.824 222.16 129.473 222.496 c 123.129
 226.133 l 109.477 213.637 102.129 189.27 106.117 169.637 c 112.973 135.977
 l 113.191 135.93 l 117.977 159.75 127.426 180.246 131.723 188.102 c 132.457
 158.566 l 132.473 158.566 l 134.805 169.422 140.43 179.293 148.582 186.832
 c h
148.582 186.832 m f
0.780392 0.603922 0.513726 rg
209.977 270.488 m 210.336 265.289 218.113 265.754 217.852 270.957 c 217.594
 276.16 209.809 275.844 209.969 270.637 c 209.969 270.586 209.973 270.539
 209.977 270.488 c h
209.977 270.488 m f
209.977 308.664 m 210.328 303.449 218.125 303.898 217.879 309.117 c 217.629
 314.336 209.824 314.043 209.969 308.82 c 209.969 308.766 209.973 308.715
 209.977 308.664 c h
209.977 308.664 m f
209.969 346.066 m 209.973 342.449 214.348 340.641 216.902 343.195 c 219.461
 345.754 217.652 350.125 214.035 350.129 c 211.789 350.129 209.969 348.309
 209.969 346.066 c h
209.969 346.066 m f
154.516 266.574 m 158.137 266.566 159.961 270.945 157.398 273.508 c 154.84
 276.074 150.457 274.262 150.457 270.637 c 150.461 268.395 152.273 266.578
 154.516 266.574 c h
154.516 266.574 m f
154.516 304.754 m 158.137 304.75 159.961 309.129 157.398 311.691 c 154.84
 314.258 150.457 312.441 150.457 308.82 c 150.457 306.578 152.273 304.758
 154.516 304.754 c h
154.516 304.754 m f
154.516 342 m 158.137 341.992 159.961 346.371 157.398 348.938 c 154.84 
351.5 150.457 349.688 150.457 346.066 c 150.457 343.824 152.273 342.004 
154.516 342 c h
154.516 342 m f
0.984314 0.403922 0.443137 rg
185.094 260.918 m 188.965 260.914 192.457 263.246 193.938 266.82 c 195.422
 270.395 194.605 274.512 191.871 277.25 c 189.133 279.992 185.016 280.812
 181.441 279.328 c 177.863 277.848 175.531 274.359 175.531 270.488 c 175.527
 267.949 176.535 265.516 178.328 263.719 c 180.121 261.926 182.555 260.918
 185.094 260.918 c h
185.094 260.918 m f
185.094 299.094 m 188.965 299.09 192.457 301.418 193.938 304.996 c 195.422
 308.57 194.605 312.688 191.871 315.426 c 189.133 318.164 185.016 318.984
 181.441 317.504 c 177.863 316.023 175.531 312.535 175.531 308.664 c 175.527
 306.125 176.535 303.691 178.328 301.895 c 180.121 300.102 182.555 299.094
 185.094 299.094 c h
185.094 299.094 m f
185.094 336.496 m 188.961 336.492 192.449 338.824 193.934 342.398 c 195.414
 345.973 194.598 350.086 191.863 352.824 c 189.129 355.559 185.016 356.379
 181.438 354.902 c 177.863 353.422 175.531 349.934 175.531 346.066 c 175.527
 343.527 176.535 341.094 178.328 339.297 c 180.121 337.504 182.555 336.496
 185.094 336.496 c h
185.094 336.496 m f
0.866667 0.92549 0.960784 rg
333.449 34.238 m 333.879 34.832 334.082 35.562 334.027 36.293 c 323.234
 171.098 l 309.227 171.098 l 284.723 51.504 l 284.566 50.629 284.789 49.727
 285.336 49.027 c 313.305 13.199 l 314.582 11.566 317.07 11.609 318.285 
13.289 c h
333.449 34.238 m f
0.984314 0.403922 0.443137 rg
324.863 185.754 m 324.863 204.195 l 307.598 204.195 l 307.598 185.715 l
 324.863 185.715 l h
324.863 185.754 m f
0.866667 0.356863 0.407843 rg
204.969 35.16 m 204.93 35.309 l 192.402 32.16 179.309 32.008 166.711 34.867
 c 166.836 24.336 175.453 15.891 185.984 15.969 c 196.516 16.051 205 24.629
 204.969 35.16 c h
204.969 35.16 m f
0.207843 0.505882 0.729412 rg
77.406 274.359 m 77.609 274.027 l 83.086 265.066 90.73 257.629 99.84 252.406
 c 141.398 228.559 l 129.473 222.496 l 123.129 226.133 l 77.34 252.406 l
 68.23 257.629 60.586 265.066 55.109 274.027 c 54.91 274.359 l 49.441 283.312
 46.32 293.5 45.824 303.984 c 43.133 372 l 65.633 372 l 68.324 303.984 l
 68.82 293.5 71.941 283.312 77.406 274.359 c h
77.406 274.359 m f
0.839216 0.372549 0.419608 rg
149.566 207.27 m 149.203 207.129 148.836 207 148.477 206.887 c 144.566 
205.68 140.332 206.117 136.754 208.109 c 133.176 210.098 130.566 213.465
 129.531 217.426 c 128.672 220.711 l 128.492 221.418 128.824 222.16 129.473
 222.496 c 151.973 233.746 l 151.324 233.41 150.992 232.668 151.172 231.961
 c 152.031 228.676 l 153.066 224.715 155.676 221.348 159.254 219.359 c 162.832
 217.367 167.066 216.93 170.977 218.137 c 171.336 218.25 171.703 218.379
 172.066 218.52 c 172.258 218.594 172.457 218.68 172.652 218.758 c 165.562
 214.137 156.922 210.199 149.566 207.27 c h
149.566 207.27 m f
0.156863 0.258824 0.407843 rg
280.316 52.406 m 303.707 166.598 l 298.145 166.598 l 294.969 166.598 291.926
 167.879 289.707 170.148 c 287.488 172.418 286.273 175.484 286.344 178.66
 c 286.516 185.066 291.738 190.18 298.145 190.215 c 303.094 190.215 l 303.094
 232.566 l 303.066 236.066 304.438 239.434 306.906 241.918 c 309.371 244.402
 312.727 245.801 316.227 245.801 c 319.727 245.801 323.082 244.402 325.551
 241.918 c 328.016 239.434 329.387 236.066 329.359 232.566 c 329.359 190.215
 l 333.566 190.215 l 340.09 190.215 345.375 184.93 345.375 178.406 c 345.375
 171.883 340.09 166.598 333.566 166.598 c 328.105 166.598 l 338.52 36.613
 l 338.648 34.828 338.141 33.051 337.094 31.602 c 321.93 10.648 l 320.523
 8.711 318.293 7.547 315.898 7.5 c 313.508 7.457 311.234 8.543 309.762 10.43
 c 281.785 46.254 l 280.449 47.969 279.906 50.172 280.293 52.309 c 280.305
 52.34 280.312 52.375 280.316 52.406 c h
320.359 232.566 m 320.391 234.871 318.531 236.758 316.227 236.758 c 313.922
 236.758 312.062 234.871 312.094 232.566 c 312.094 227.184 l 320.359 227.184
 l h
320.359 218.184 m 312.094 218.184 l 312.094 208.695 l 320.359 208.695 l
 h
320.359 199.695 m 312.094 199.695 l 312.094 190.215 l 320.359 190.215 l
 h
333.566 175.598 m 337.312 175.598 337.312 181.215 333.566 181.215 c 298.145
 181.215 l 296.621 181.207 295.383 179.988 295.34 178.469 c 295.305 176.895
 296.57 175.598 298.145 175.598 c h
315.719 17.422 m 329.5 36.465 l 319.074 166.598 l 312.891 166.598 l 289.273
 51.289 l h
315.719 17.422 m f
43.129 376.5 m 328.289 376.5 l 330.773 376.5 332.789 374.484 332.789 372
 c 332.789 307.512 l 332.789 282.512 318.863 259.594 296.672 248.074 c 255.852
 226.883 l 268.359 211.195 274.391 187.137 270.344 167.254 c 263.359 131.074
 l 267.109 109.441 265.953 90.613 259.863 74.996 c 252.059 54.984 236.32
 40.855 213.082 33.008 c 211.805 32.574 210.516 32.18 209.227 31.805 c 207.586
 20.406 197.977 11.848 186.465 11.523 c 181.16 10.207 140.941 1.148 113.582
 21.703 c 97.957 33.445 89.738 52.41 89.156 78.07 c 89.141 78.887 89.125
 79.809 89.113 80.828 c 88.953 93.293 88.574 122.488 71.656 126.637 c 69.82
 127.07 68.395 128.512 67.977 130.352 c 67.246 133.617 69.871 136.328 71.504
 137.652 c 73.844 139.555 76.984 140.402 80.555 140.402 c 88.82 140.402 
99.355 135.859 107.465 129.367 c 107.777 131.375 108.121 133.367 108.504
 135.352 c 101.707 168.738 l 97.84 187.742 103.875 210.816 115.91 225.086
 c 75.098 248.5 l 65.336 254.109 57.145 262.082 51.27 271.684 c 51.066 272.012
 l 45.207 281.629 41.859 292.562 41.328 303.809 c 38.633 371.82 l 38.531
 374.375 40.574 376.5 43.129 376.5 c h
185.09 351.133 m 180.57 351.137 178.301 345.68 181.496 342.48 c 184.688
 339.285 190.148 341.547 190.148 346.062 c 190.148 348.859 187.887 351.125
 185.09 351.133 c h
170.582 114.805 m 172.367 116.145 174.809 116.191 176.641 114.918 c 186.25
 108.258 199.484 92.41 205.961 82.227 c 209.91 89.418 217.777 98.535 232.586
 99.91 c 233.938 157.625 l 233.91 157.621 l 228.977 180.375 208.891 196.645
 185.605 196.746 c 162.324 196.844 142.098 180.75 136.973 158.035 c 138.113
 111.887 l 145.23 111.176 160.586 108.102 173.055 95.051 c 172.082 98.766
 170.762 103.117 169.09 108.102 c 168.781 109.027 l 168.07 111.141 168.797
 113.469 170.582 114.805 c h
229.465 210.852 m 232.215 212.27 234.199 214.824 234.891 217.836 c 235.516
 220.543 l 189.336 243.852 l 189.102 227.926 l 191.336 227.258 193.402 226.129
 195.176 224.613 c 200.453 220.082 209.27 215.195 220.668 210.48 c 223.512
 209.305 226.73 209.438 229.465 210.852 c h
173.934 225.156 m 175.766 226.559 177.863 227.57 180.102 228.129 c 180.328
 243.305 l 133.629 219.555 l 133.887 218.562 l 134.652 215.648 136.625 213.203
 139.312 211.844 c 141.984 210.473 145.121 210.328 147.906 211.453 c 159.023
 215.879 168.027 220.617 173.934 225.156 c h
179.418 218.023 m 173.09 213.16 164.199 208.379 152.977 203.797 c 152.977
 195.977 l 172.621 209 198.156 209 217.801 195.977 c 217.801 201.945 l 217.609
 202.02 217.418 202.086 217.23 202.164 c 204.785 207.309 195.395 212.562
 189.316 217.785 c 186.48 220.184 182.359 220.281 179.414 218.02 c h
185.09 265.422 m 189.605 265.414 191.879 270.875 188.684 274.07 c 185.492
 277.27 180.031 275.008 180.031 270.488 c 180.031 267.695 182.293 265.426
 185.09 265.418 c h
185.09 303.598 m 189.609 303.59 191.879 309.051 188.688 312.246 c 185.496
 315.445 180.031 313.184 180.031 308.668 c 180.031 305.871 182.293 303.602
 185.09 303.594 c h
292.527 256.062 m 311.734 266.035 323.789 285.875 323.789 307.516 c 323.789
 367.5 l 277.59 367.5 l 277.59 306.027 l 277.59 300.027 268.59 300.027 268.59
 306.027 c 268.59 367.5 l 189.59 367.5 l 189.59 359.379 l 193.734 357.965
 196.988 354.711 198.398 350.562 c 206.762 350.562 l 208.773 353.82 212.707
 355.348 216.391 354.305 c 220.074 353.258 222.617 349.895 222.617 346.062
 c 222.617 342.234 220.074 338.867 216.391 337.824 c 212.707 336.777 208.773
 338.305 206.762 341.562 c 198.398 341.562 l 196.988 337.418 193.734 334.16
 189.59 332.746 c 189.59 321.98 l 193.734 320.566 196.988 317.312 198.398
 313.164 c 206.672 313.164 l 208.613 316.461 212.512 318.07 216.215 317.098
 c 219.918 316.129 222.527 312.82 222.609 308.992 c 222.688 305.164 220.215
 301.75 216.555 300.625 c 212.895 299.504 208.934 300.949 206.855 304.164
 c 198.398 304.164 l 196.988 300.02 193.734 296.762 189.59 295.352 c 189.59
 283.805 l 193.734 282.391 196.988 279.133 198.398 274.988 c 206.672 274.988
 l 208.613 278.285 212.512 279.891 216.215 278.918 c 219.918 277.949 222.527
 274.641 222.605 270.812 c 222.684 266.984 220.211 263.57 216.555 262.449
 c 212.895 261.328 208.934 262.773 206.855 265.988 c 198.398 265.988 l 196.984
 261.82 193.707 258.555 189.535 257.152 c 189.477 253.316 l 190.828 252.996
 192.137 252.52 193.379 251.895 c 239.578 228.578 l h
213.594 346.062 m 213.59 345.672 214.066 345.473 214.344 345.75 c 214.621
 346.023 214.426 346.5 214.035 346.5 c 213.793 346.5 213.598 346.305 213.594
 346.062 c h
213.594 308.82 m 213.59 308.426 214.066 308.227 214.344 308.504 c 214.621
 308.777 214.426 309.254 214.035 309.254 c 213.793 309.254 213.598 309.059
 213.594 308.816 c h
213.594 270.645 m 213.594 270.25 214.066 270.051 214.344 270.328 c 214.621
 270.605 214.426 271.078 214.035 271.078 c 213.793 271.078 213.594 270.883
 213.594 270.641 c h
261.516 169.008 m 265.137 186.805 259.23 209.176 247.676 222.645 c 244.883
 221.195 l 244.859 221.055 244.836 220.914 244.805 220.773 c 243.66 215.816
 l 241.805 207.738 235.039 201.715 226.801 200.809 c 226.801 188.625 l 229.664
 185.766 232.223 182.617 234.441 179.234 c 234.648 188.207 l 234.758 192.809
 240.883 194.301 243.094 190.266 c 249.406 178.199 254.508 165.535 258.32
 152.461 c h
210.203 41.531 m 230.801 48.492 244.688 60.852 251.48 78.27 c 258.051 95.121
 258.203 116.461 251.93 141.691 c 249.633 150.852 246.715 159.84 243.191
 168.598 c 241.535 97.875 l 241.496 94.199 238.586 91.199 234.918 91.047
 c 220.027 90.375 214.031 79.641 211.785 73.301 c 210.98 71.023 208.863 
69.477 206.453 69.395 c 204.039 69.316 201.824 70.719 200.871 72.938 c 198.641
 78.102 189.934 89.785 181.418 98.66 c 183.473 91.086 184.691 83.996 183.621
 79.266 c 182.594 74.727 176.48 73.906 174.297 78.016 c 162.648 99.84 141.797
 102.691 135.684 103.051 c 132.043 103.27 129.195 106.266 129.16 109.91 
c 127.707 168.633 l 122.672 155.984 117.543 139.414 115.617 122.434 c 111.672
 87.625 122.023 62.527 146.387 47.844 c 157.98 40.898 171.25 37.254 184.766
 37.305 c 193.418 37.32 202.012 38.746 210.203 41.531 c h
185.836 20.508 m 191.75 20.516 197.082 24.078 199.352 29.539 c 190.469 
28.027 181.402 27.914 172.484 29.203 c 174.832 23.926 180.062 20.52 185.836
 20.508 c h
106.199 118.301 m 99.328 125.891 89.059 130.43 82.574 131.312 c 97.605 
120.258 97.949 93.422 98.113 80.945 c 98.125 79.957 98.137 79.062 98.156
 78.273 c 98.672 55.527 105.668 38.922 118.957 28.926 c 134.441 17.273 155.566
 16.668 169.645 17.957 c 165.883 21.496 163.383 26.172 162.531 31.266 c 
155.223 33.254 148.227 36.238 141.738 40.145 c 115.727 55.82 103.508 82.781
 106.199 118.301 c h
110.535 170.535 m 113.586 155.547 l 118.23 170.652 123.957 183.285 127.781
 190.262 c 129.992 194.293 136.113 192.809 136.227 188.211 c 136.445 179.395
 l 138.637 182.719 141.16 185.812 143.977 188.625 c 143.977 201.719 l 135.133
 201.742 127.414 207.723 125.18 216.281 c 124.32 219.566 l 124.254 219.82
 124.207 220.082 124.176 220.34 c 123.871 220.516 l 112.918 208.551 107.109
 187.34 110.531 170.535 c h
50.32 304.199 m 50.785 294.473 53.684 285.02 58.754 276.707 c 58.953 276.379
 l 64.035 268.066 71.129 261.164 79.578 256.309 c 129.602 227.609 l 177.316
 251.875 l 178.328 252.387 179.383 252.801 180.473 253.109 c 180.535 257.195
 l 176.414 258.617 173.184 261.863 171.781 265.992 c 161.695 265.992 l 159.617
 262.773 155.652 261.328 151.992 262.449 c 148.328 263.57 145.855 266.988
 145.934 270.816 c 146.012 274.648 148.625 277.961 152.332 278.93 c 156.035
 279.898 159.938 278.289 161.879 274.992 c 171.781 274.992 l 173.191 279.137
 176.445 282.395 180.59 283.809 c 180.59 295.352 l 176.445 296.762 173.191
 300.02 171.781 304.168 c 161.695 304.168 l 159.617 300.949 155.652 299.504
 151.992 300.625 c 148.328 301.746 145.855 305.164 145.934 308.992 c 146.012
 312.824 148.625 316.137 152.332 317.105 c 156.035 318.074 159.938 316.465
 161.879 313.168 c 171.781 313.168 l 173.191 317.312 176.445 320.57 180.59
 321.98 c 180.59 332.746 l 176.445 334.16 173.191 337.418 171.781 341.562
 c 161.789 341.562 l 159.777 338.305 155.844 336.777 152.16 337.824 c 148.477
 338.871 145.934 342.234 145.934 346.062 c 145.934 349.895 148.477 353.258
 152.16 354.305 c 155.844 355.348 159.777 353.824 161.789 350.562 c 171.781
 350.562 l 173.191 354.711 176.445 357.969 180.59 359.379 c 180.59 367.5
 l 98.555 367.5 l 98.555 306.027 l 98.555 300.027 89.555 300.027 89.555 
306.027 c 89.555 367.5 l 47.812 367.5 l h
154.953 270.645 m 154.957 271.035 154.484 271.234 154.207 270.957 c 153.93
 270.684 154.125 270.207 154.516 270.207 c 154.758 270.207 154.953 270.398
 154.953 270.641 c h
154.953 308.82 m 154.957 309.211 154.484 309.41 154.207 309.133 c 153.93
 308.859 154.125 308.383 154.516 308.383 c 154.758 308.383 154.953 308.578
 154.953 308.816 c h
154.953 346.062 m 154.957 346.457 154.484 346.652 154.207 346.379 c 153.93
 346.102 154.125 345.629 154.516 345.629 c 154.758 345.629 154.953 345.82
 154.953 346.062 c h
154.953 346.062 m f
120.336 285.586 m 122.82 285.586 124.836 283.57 124.836 281.086 c 124.836
 277.109 l 124.836 271.109 115.836 271.109 115.836 277.109 c 115.836 281.086
 l 115.836 283.57 117.852 285.586 120.336 285.586 c h
120.336 285.586 m f
120.336 357.609 m 122.82 357.609 124.836 355.594 124.836 353.109 c 124.836
 296.09 l 124.836 290.09 115.836 290.09 115.836 296.09 c 115.836 353.109
 l 115.836 355.594 117.852 357.609 120.336 357.609 c h
120.336 357.609 m f
Q Q
showpage
%%Trailer
end
%%EOF
