%!PS-Adobe-3.0 EPSF-3.0
%%Creator: cairo 1.16.0 (https://cairographics.org)
%%CreationDate: Fri Feb  5 09:59:11 2021
%%Pages: 1
%%DocumentData: Clean7Bit
%%LanguageLevel: 2
%%BoundingBox: 37 0 347 384
%%EndComments
%%BeginProlog
50 dict begin
/q { gsave } bind def
/Q { grestore } bind def
/cm { 6 array astore concat } bind def
/w { setlinewidth } bind def
/J { setlinecap } bind def
/j { setlinejoin } bind def
/M { setmiterlimit } bind def
/d { setdash } bind def
/m { moveto } bind def
/l { lineto } bind def
/c { curveto } bind def
/h { closepath } bind def
/re { exch dup neg 3 1 roll 5 3 roll moveto 0 rlineto
      0 exch rlineto 0 rlineto closepath } bind def
/S { stroke } bind def
/f { fill } bind def
/f* { eofill } bind def
/n { newpath } bind def
/W { clip } bind def
/W* { eoclip } bind def
/BT { } bind def
/ET { } bind def
/BDC { mark 3 1 roll /BDC pdfmark } bind def
/EMC { mark /EMC pdfmark } bind def
/cairo_store_point { /cairo_point_y exch def /cairo_point_x exch def } def
/Tj { show currentpoint cairo_store_point } bind def
/TJ {
  {
    dup
    type /stringtype eq
    { show } { -0.001 mul 0 cairo_font_matrix dtransform rmoveto } ifelse
  } forall
  currentpoint cairo_store_point
} bind def
/cairo_selectfont { cairo_font_matrix aload pop pop pop 0 0 6 array astore
    cairo_font exch selectfont cairo_point_x cairo_point_y moveto } bind def
/Tf { pop /cairo_font exch def /cairo_font_matrix where
      { pop cairo_selectfont } if } bind def
/Td { matrix translate cairo_font_matrix matrix concatmatrix dup
      /cairo_font_matrix exch def dup 4 get exch 5 get cairo_store_point
      /cairo_font where { pop cairo_selectfont } if } bind def
/Tm { 2 copy 8 2 roll 6 array astore /cairo_font_matrix exch def
      cairo_store_point /cairo_font where { pop cairo_selectfont } if } bind def
/g { setgray } bind def
/rg { setrgbcolor } bind def
/d1 { setcachedevice } bind def
/cairo_data_source {
  CairoDataIndex CairoData length lt
    { CairoData CairoDataIndex get /CairoDataIndex CairoDataIndex 1 add def }
    { () } ifelse
} def
/cairo_flush_ascii85_file { cairo_ascii85_file status { cairo_ascii85_file flushfile } if } def
/cairo_image { image cairo_flush_ascii85_file } def
/cairo_imagemask { imagemask cairo_flush_ascii85_file } def
%%EndProlog
%%BeginSetup
%%EndSetup
%%Page: 1 1
%%BeginPageSetup
%%PageBoundingBox: 37 0 347 384
%%EndPageSetup
q 37 0 310 384 rectclip
1 0 0 -1 0 384 cm q
0.937255 0.937255 0.976471 rg
198.426 378.375 m 185.574 378.375 l 182.262 378.375 179.574 375.688 179.574
 372.375 c 179.574 308 l 204.426 308 l 204.426 372.375 l 204.426 375.688
 201.738 378.375 198.426 378.375 c h
198.426 378.375 m f
0.87451 0.870588 0.960784 rg
187.176 308 m 187.176 372.375 l 187.176 374.91 185.598 377.074 183.375 
377.953 c 184.055 378.223 184.797 378.375 185.574 378.375 c 198.426 378.375
 l 201.738 378.375 204.426 375.688 204.426 372.375 c 204.426 308 l h
187.176 308 m f
0.980392 0.368627 0.592157 rg
216.852 291.398 m 227.145 291.398 235.488 299.742 235.488 310.035 c 235.488
 313.469 232.707 316.25 229.277 316.25 c 154.723 316.25 l 151.293 316.25
 148.512 313.465 148.512 310.035 c 148.512 299.742 156.855 291.398 167.148
 291.398 c 192 278.973 l h
216.852 291.398 m f
0.85098 0.309804 0.533333 rg
216.852 291.398 m 192 278.973 l 183.375 283.285 l 199.602 291.398 l 209.895
 291.398 218.238 299.742 218.238 310.035 c 218.238 313.469 215.457 316.25
 212.027 316.25 c 229.277 316.25 l 232.707 316.25 235.488 313.469 235.488
 310.035 c 235.488 299.742 227.145 291.398 216.852 291.398 c h
216.852 291.398 m f
0.980392 0.368627 0.592157 rg
216.852 266.547 m 216.852 266.547 292.93 214.902 323.5 154.719 c 345.383
 111.641 350.883 65.305 316.5 31.195 c 283.469 -1.578 230.715 -2.859 196.137
 27.348 c 193.77 29.414 190.23 29.414 187.863 27.348 c 153.285 -2.859 100.531
 -1.578 67.496 31.195 c 33.117 65.305 38.617 111.641 60.5 154.719 c 91.07
 214.902 167.148 266.547 167.148 266.547 c 192 278.973 l h
216.852 266.547 m f
0.85098 0.309804 0.533333 rg
316.5 31.195 m 297.121 11.969 270.953 3.586 245.652 6.035 c 265.219 7.941
 284.266 16.328 299.25 31.195 c 333.633 65.305 328.133 111.641 306.25 154.719
 c 275.68 214.902 199.602 266.547 199.602 266.547 c 183.375 274.66 l 192
 278.973 l 216.852 266.547 l 216.852 266.547 292.93 214.902 323.5 154.719
 c 345.383 111.641 350.883 65.305 316.5 31.195 c h
316.5 31.195 m f
0.937255 0.937255 0.976471 rg
216.852 266.547 m 214.586 266.547 169.414 266.547 167.148 266.547 c 160.285
 266.547 154.723 272.109 154.723 278.973 c 154.723 285.836 160.285 291.398
 167.148 291.398 c 216.852 291.398 l 223.715 291.398 229.277 285.836 229.277
 278.973 c 229.277 272.109 223.715 266.547 216.852 266.547 c h
216.852 266.547 m f
0.87451 0.870588 0.960784 rg
216.852 266.547 m 215.965 266.547 208.496 266.547 199.602 266.547 c 206.461
 266.547 212.027 272.109 212.027 278.973 c 212.027 285.836 206.461 291.398
 199.602 291.398 c 216.852 291.398 l 223.711 291.398 229.277 285.836 229.277
 278.973 c 229.277 272.109 223.715 266.547 216.852 266.547 c h
216.852 266.547 m f
0.937255 0.937255 0.976471 rg
240.281 87.77 m 266.965 114.457 266.965 157.719 240.281 184.402 c 213.598
 211.086 170.332 211.086 143.648 184.402 c 116.965 157.719 116.965 114.457
 143.648 87.77 c 170.332 61.086 213.598 61.086 240.281 87.77 c h
240.281 87.77 m f
0.87451 0.870588 0.960784 rg
192 67.742 m 189.078 67.742 186.199 67.926 183.375 68.281 c 217.047 72.523
 243.09 101.262 243.09 136.082 c 243.09 170.902 217.047 199.641 183.375 
203.879 c 186.199 204.234 189.078 204.422 192 204.422 c 229.742 204.422 
260.34 173.824 260.34 136.082 c 260.34 98.34 229.742 67.742 192 67.742 c
 h
192 67.742 m f
0 g
222.477 117.445 m 222.477 100.641 208.805 86.969 192 86.969 c 175.195 86.969
 161.523 100.641 161.523 117.445 c 161.523 132.324 172.25 144.742 186.375
 147.391 c 186.375 155.309 l 179.574 155.309 l 176.469 155.309 173.949 157.824
 173.949 160.934 c 173.949 164.039 176.469 166.559 179.574 166.559 c 186.375
 166.559 l 186.375 179.57 l 186.375 182.676 188.895 185.195 192 185.195 
c 195.105 185.195 197.625 182.676 197.625 179.57 c 197.625 166.559 l 204.426
 166.559 l 207.531 166.559 210.051 164.039 210.051 160.934 c 210.051 157.824
 207.531 155.309 204.426 155.309 c 197.625 155.309 l 197.625 147.391 l 211.75
 144.742 222.477 132.324 222.477 117.445 c h
172.773 117.445 m 172.773 106.844 181.398 98.219 192 98.219 c 202.602 98.219
 211.227 106.844 211.227 117.445 c 211.227 128.043 202.602 136.668 192 136.668
 c 181.398 136.668 172.773 128.043 172.773 117.445 c h
172.773 117.445 m f
135.066 97.852 m 132.355 96.336 128.926 97.305 127.41 100.016 c 121.277
 110.977 118.035 123.449 118.035 136.082 c 118.035 176.863 151.215 210.047
 192 210.047 c 232.785 210.047 265.965 176.867 265.965 136.082 c 265.965
 95.297 232.785 62.117 192 62.117 c 173.793 62.117 156.301 68.789 142.738
 80.91 c 140.418 82.98 140.219 86.535 142.289 88.852 c 144.359 91.168 147.914
 91.367 150.23 89.301 c 161.73 79.023 176.562 73.367 192 73.367 c 226.582
 73.367 254.715 101.5 254.715 136.082 c 254.715 170.66 226.582 198.797 192
 198.797 c 157.418 198.797 129.285 170.664 129.285 136.082 c 129.285 125.367
 132.031 114.797 137.23 105.508 c 138.746 102.797 137.777 99.367 135.066
 97.852 c h
135.066 97.852 m f
320.465 27.203 m 285.617 -7.367 229.383 -9.164 192.434 23.109 c 192.188
 23.328 191.812 23.328 191.566 23.109 c 159.98 -4.48 113.395 -7.707 78.277
 15.266 c 75.676 16.969 74.949 20.453 76.648 23.055 c 78.348 25.652 81.836
 26.383 84.434 24.68 c 115.352 4.457 156.359 7.293 184.164 31.582 c 188.629
 35.484 195.367 35.484 199.836 31.582 c 232.359 3.172 281.867 4.758 312.539
 35.191 c 348.465 70.832 335.602 118.477 318.488 152.172 c 291.18 205.93
 225.477 253.605 215.086 260.922 c 168.914 260.922 l 158.523 253.609 92.848
 205.98 65.512 152.172 c 49.066 119.789 36.207 73.77 68.359 38.426 c 70.449
 36.129 70.281 32.57 67.984 30.48 c 65.688 28.387 62.129 28.555 60.039 30.855
 c 44.629 47.789 36.973 68.293 37.277 91.789 c 37.543 111.973 43.668 134.004
 55.484 157.266 c 80.605 206.723 134.594 249.707 155.539 265.164 c 151.605
 268.48 149.098 273.438 149.098 278.973 c 149.098 283.25 150.598 287.18 
153.094 290.277 c 146.922 294.68 142.887 301.895 142.887 310.035 c 142.887
 316.562 148.195 321.875 154.723 321.875 c 173.949 321.875 l 173.949 372.375
 l 173.949 378.785 179.164 384 185.574 384 c 198.426 384 l 204.836 384 210.051
 378.785 210.051 372.375 c 210.051 321.875 l 229.277 321.875 l 235.805 321.875
 241.113 316.562 241.113 310.035 c 241.113 301.895 237.078 294.68 230.906
 290.277 c 233.402 287.184 234.902 283.25 234.902 278.973 c 234.902 273.438
 232.395 268.48 228.461 265.164 c 249.406 249.707 303.395 206.723 328.516
 157.266 c 340.781 133.121 346.91 110.336 346.727 89.547 c 346.512 65.254
 337.676 44.277 320.465 27.203 c h
198.426 372.75 m 185.574 372.75 l 185.367 372.75 185.199 372.582 185.199
 372.375 c 185.199 346.723 l 198.801 346.723 l 198.801 372.375 l 198.801
 372.582 198.633 372.75 198.426 372.75 c h
198.801 335.473 m 185.199 335.473 l 185.199 321.875 l 198.801 321.875 l
 h
229.277 310.625 m 154.723 310.625 l 154.398 310.625 154.137 310.359 154.137
 310.035 c 154.137 302.859 159.973 297.023 167.148 297.023 c 216.852 297.023
 l 224.027 297.023 229.863 302.859 229.863 310.035 c 229.863 310.359 229.602
 310.625 229.277 310.625 c h
167.148 285.773 m 163.398 285.773 160.348 282.723 160.348 278.973 c 160.348
 275.227 163.395 272.18 167.141 272.172 c 167.145 272.172 l 167.148 272.172
 167.152 272.172 167.156 272.172 c 216.848 272.172 l 216.852 272.172 216.852
 272.172 216.855 272.172 c 220.602 272.176 223.648 275.227 223.648 278.973
 c 223.648 282.723 220.602 285.773 216.852 285.773 c h
167.148 285.773 m f
Q Q
showpage
%%Trailer
end
%%EOF
