%!PS-Adobe-3.0 EPSF-3.0
%%Creator: cairo 1.16.0 (https://cairographics.org)
%%CreationDate: Fri Feb  5 09:59:12 2021
%%Pages: 1
%%DocumentData: Clean7Bit
%%LanguageLevel: 2
%%BoundingBox: 12 0 372 384
%%EndComments
%%BeginProlog
50 dict begin
/q { gsave } bind def
/Q { grestore } bind def
/cm { 6 array astore concat } bind def
/w { setlinewidth } bind def
/J { setlinecap } bind def
/j { setlinejoin } bind def
/M { setmiterlimit } bind def
/d { setdash } bind def
/m { moveto } bind def
/l { lineto } bind def
/c { curveto } bind def
/h { closepath } bind def
/re { exch dup neg 3 1 roll 5 3 roll moveto 0 rlineto
      0 exch rlineto 0 rlineto closepath } bind def
/S { stroke } bind def
/f { fill } bind def
/f* { eofill } bind def
/n { newpath } bind def
/W { clip } bind def
/W* { eoclip } bind def
/BT { } bind def
/ET { } bind def
/BDC { mark 3 1 roll /BDC pdfmark } bind def
/EMC { mark /EMC pdfmark } bind def
/cairo_store_point { /cairo_point_y exch def /cairo_point_x exch def } def
/Tj { show currentpoint cairo_store_point } bind def
/TJ {
  {
    dup
    type /stringtype eq
    { show } { -0.001 mul 0 cairo_font_matrix dtransform rmoveto } ifelse
  } forall
  currentpoint cairo_store_point
} bind def
/cairo_selectfont { cairo_font_matrix aload pop pop pop 0 0 6 array astore
    cairo_font exch selectfont cairo_point_x cairo_point_y moveto } bind def
/Tf { pop /cairo_font exch def /cairo_font_matrix where
      { pop cairo_selectfont } if } bind def
/Td { matrix translate cairo_font_matrix matrix concatmatrix dup
      /cairo_font_matrix exch def dup 4 get exch 5 get cairo_store_point
      /cairo_font where { pop cairo_selectfont } if } bind def
/Tm { 2 copy 8 2 roll 6 array astore /cairo_font_matrix exch def
      cairo_store_point /cairo_font where { pop cairo_selectfont } if } bind def
/g { setgray } bind def
/rg { setrgbcolor } bind def
/d1 { setcachedevice } bind def
/cairo_data_source {
  CairoDataIndex CairoData length lt
    { CairoData CairoDataIndex get /CairoDataIndex CairoDataIndex 1 add def }
    { () } ifelse
} def
/cairo_flush_ascii85_file { cairo_ascii85_file status { cairo_ascii85_file flushfile } if } def
/cairo_image { image cairo_flush_ascii85_file } def
/cairo_imagemask { imagemask cairo_flush_ascii85_file } def
%%EndProlog
%%BeginSetup
%%EndSetup
%%Page: 1 1
%%BeginPageSetup
%%PageBoundingBox: 12 0 372 384
%%EndPageSetup
q 12 0 360 384 rectclip
1 0 0 -1 0 384 cm q
0.87451 0.870588 0.960784 rg
18.051 328.676 m 18.051 353.527 l 18.051 367.25 29.176 378.375 42.898 378.375
 c 341.102 378.375 l 354.824 378.375 365.949 367.25 365.949 353.527 c 365.949
 328.676 l h
18.051 328.676 m f
0.72549 0.713726 0.92549 rg
348.699 328.676 m 348.699 353.527 l 348.699 367.25 337.574 378.375 323.852
 378.375 c 341.102 378.375 l 354.824 378.375 365.949 367.25 365.949 353.527
 c 365.949 328.676 l h
348.699 328.676 m f
0.94902 0.94902 0.988235 rg
18.051 117.449 m 18.051 328.676 l 18.051 342.398 29.176 353.523 42.898 
353.523 c 341.102 353.523 l 354.824 353.523 365.949 342.398 365.949 328.676
 c 365.949 117.449 l 192 92.602 l h
18.051 117.449 m f
0.87451 0.870588 0.960784 rg
348.699 328.676 m 348.699 342.398 337.574 353.523 323.852 353.523 c 341.102
 353.523 l 354.824 353.523 365.949 342.398 365.949 328.676 c 365.949 117.449
 l 348.699 114.984 l h
348.699 328.676 m f
0.980392 0.368627 0.592157 rg
341.102 30.477 m 42.898 30.477 l 29.176 30.477 18.051 41.602 18.051 55.324
 c 18.051 117.449 l 365.949 117.449 l 365.949 55.324 l 365.949 41.602 354.824
 30.477 341.102 30.477 c h
341.102 30.477 m f
0.85098 0.309804 0.533333 rg
348.699 55.324 m 348.699 117.449 l 365.949 117.449 l 365.949 55.324 l 365.949
 41.602 354.824 30.477 341.102 30.477 c 323.852 30.477 l 337.574 30.477 
348.699 41.602 348.699 55.324 c h
348.699 55.324 m f
0.992157 0.74902 0 rg
92.602 55.324 m 92.602 62.188 98.164 67.75 105.027 67.75 c 111.887 67.75
 117.449 62.188 117.449 55.324 c 117.449 18.051 l 117.449 11.188 111.887
 5.625 105.027 5.625 c 98.164 5.625 92.602 11.188 92.602 18.051 c h
92.602 55.324 m f
266.551 55.324 m 266.551 62.188 272.113 67.75 278.977 67.75 c 285.836 67.75
 291.402 62.188 291.402 55.324 c 291.402 18.051 l 291.402 11.188 285.836
 5.625 278.977 5.625 c 272.113 5.625 266.551 11.188 266.551 18.051 c h
266.551 55.324 m f
1 0.568627 0 rg
278.977 5.625 m 275.621 5.625 272.586 6.961 270.352 9.117 c 272.691 11.379
 274.152 14.539 274.152 18.051 c 274.152 55.324 l 274.152 58.836 272.691
 61.996 270.352 64.258 c 272.586 66.414 275.621 67.75 278.977 67.75 c 285.836
 67.75 291.402 62.188 291.402 55.324 c 291.402 18.051 l 291.398 11.188 285.836
 5.625 278.977 5.625 c h
278.977 5.625 m f
105.023 5.625 m 101.672 5.625 98.633 6.961 96.398 9.117 c 98.738 11.379
 100.199 14.539 100.199 18.051 c 100.199 55.324 l 100.199 58.832 98.738 
61.996 96.398 64.258 c 98.633 66.414 101.672 67.75 105.023 67.75 c 111.887
 67.75 117.449 62.188 117.449 55.324 c 117.449 18.047 l 117.449 11.188 111.887
 5.625 105.023 5.625 c h
105.023 5.625 m f
0.411765 0.486275 0.52549 rg
225.555 220.887 m 233.551 212.535 238.48 201.227 238.48 188.777 c 238.48
 163.152 217.629 142.301 192 142.301 c 166.371 142.301 145.523 163.152 145.523
 188.777 c 145.523 201.227 150.449 212.535 158.445 220.887 c 143.008 231.57
 132.867 249.391 132.867 269.539 c 132.867 302.148 159.395 328.676 192 328.676
 c 224.605 328.676 251.133 302.148 251.133 269.539 c 251.133 249.391 240.996
 231.57 225.555 220.887 c h
170.371 188.777 m 170.371 176.852 180.074 167.148 192 167.148 c 203.926
 167.148 213.629 176.852 213.629 188.777 c 213.629 200.703 203.926 210.406
 192 210.406 c 180.074 210.406 170.371 200.703 170.371 188.777 c h
192 303.824 m 173.094 303.824 157.715 288.445 157.715 269.539 c 157.715
 250.637 173.094 235.258 192 235.258 c 210.906 235.258 226.285 250.637 226.285
 269.539 c 226.285 288.445 210.906 303.824 192 303.824 c h
192 303.824 m f
0.980392 0.368627 0.592157 rg
309.199 203.809 m 308.059 204.801 307.066 205.898 306.227 207.07 c 305.062
 208.699 302.59 208.699 301.422 207.07 c 300.586 205.898 299.594 204.801
 298.449 203.809 c 291.469 197.746 280.863 197.793 273.938 203.914 c 265.809
 211.098 265.52 223.527 273.074 231.082 c 299.434 257.438 l 301.859 259.863
 305.793 259.863 308.219 257.438 c 334.574 231.082 l 342.129 223.527 341.844
 211.098 333.715 203.914 c 326.785 197.793 316.18 197.746 309.199 203.809
 c h
309.199 203.809 m f
0.85098 0.309804 0.533333 rg
333.715 203.914 m 327.883 198.762 319.457 197.93 312.773 201.402 c 314.078
 202.082 315.324 202.906 316.465 203.914 c 324.594 211.098 324.879 223.527
 317.324 231.082 c 295.199 253.207 l 299.434 257.438 l 301.859 259.867 305.793
 259.867 308.219 257.438 c 334.574 231.082 l 342.129 223.527 341.844 211.098
 333.715 203.914 c h
333.715 203.914 m f
0.980392 0.368627 0.592157 rg
85.551 203.809 m 84.406 204.801 83.414 205.898 82.578 207.07 c 81.41 208.699
 78.941 208.699 77.773 207.07 c 76.934 205.898 75.941 204.801 74.801 203.809
 c 67.82 197.746 57.215 197.793 50.285 203.914 c 42.156 211.098 41.871 223.527
 49.426 231.082 c 75.781 257.438 l 78.207 259.863 82.141 259.863 84.566 
257.438 c 110.926 231.082 l 118.48 223.527 118.191 211.098 110.062 203.914
 c 103.137 197.793 92.531 197.746 85.551 203.809 c h
85.551 203.809 m f
0.85098 0.309804 0.533333 rg
110.062 203.914 m 104.234 198.762 95.809 197.93 89.121 201.402 c 90.43 
202.082 91.676 202.906 92.812 203.914 c 100.941 211.098 101.23 223.527 93.676
 231.082 c 71.551 253.207 l 75.781 257.438 l 78.207 259.867 82.141 259.867
 84.566 257.438 c 110.926 231.082 l 118.48 223.527 118.191 211.098 110.062
 203.914 c h
110.062 203.914 m f
0 g
341.102 24.852 m 297.023 24.852 l 297.023 18.051 l 297.023 8.098 288.93
 0 278.977 0 c 269.023 0 260.926 8.098 260.926 18.051 c 260.926 24.852 l
 123.074 24.852 l 123.074 18.051 l 123.074 8.098 114.977 0 105.023 0 c 95.07
 0 86.977 8.098 86.977 18.051 c 86.977 24.852 l 42.898 24.852 l 26.098 24.852
 12.426 38.52 12.426 55.324 c 12.426 353.523 l 12.426 370.328 26.098 384
 42.898 384 c 68.926 384 l 72.031 384 74.551 381.48 74.551 378.375 c 74.551
 375.27 72.031 372.75 68.926 372.75 c 42.898 372.75 l 32.301 372.75 23.676
 364.125 23.676 353.527 c 23.676 352.301 l 28.922 356.578 35.617 359.148
 42.898 359.148 c 341.102 359.148 l 348.383 359.148 355.078 356.578 360.324
 352.301 c 360.324 353.527 l 360.324 364.125 351.699 372.75 341.102 372.75
 c 91.426 372.75 l 88.32 372.75 85.801 375.27 85.801 378.375 c 85.801 381.48
 88.32 384 91.426 384 c 341.102 384 l 357.902 384 371.574 370.328 371.574
 353.527 c 371.574 55.324 l 371.574 38.52 357.902 24.852 341.102 24.852 
c h
278.977 11.25 m 282.723 11.25 285.773 14.301 285.773 18.051 c 285.773 55.324
 l 285.773 59.074 282.723 62.125 278.977 62.125 c 275.227 62.125 272.176
 59.074 272.176 55.324 c 272.176 30.48 l 272.176 30.48 272.176 30.477 272.176
 30.477 c 272.176 30.473 272.176 30.469 272.176 30.469 c 272.176 18.051 
l 272.176 14.301 275.227 11.25 278.977 11.25 c h
98.227 18.051 m 98.227 14.301 101.277 11.25 105.023 11.25 c 108.773 11.25
 111.824 14.301 111.824 18.051 c 111.824 55.324 l 111.824 59.074 108.773
 62.125 105.023 62.125 c 101.277 62.125 98.227 59.074 98.227 55.324 c h
42.898 36.102 m 86.977 36.102 l 86.977 49.699 l 80.176 49.699 l 77.07 49.699
 74.551 52.219 74.551 55.324 c 74.551 58.43 77.07 60.949 80.176 60.949 c
 87.879 60.949 l 90.246 68.156 97.035 73.375 105.027 73.375 c 113.016 73.375
 119.805 68.156 122.172 60.949 c 129.875 60.949 l 132.98 60.949 135.5 58.43
 135.5 55.324 c 135.5 52.219 132.98 49.699 129.875 49.699 c 123.074 49.699
 l 123.074 36.102 l 260.926 36.102 l 260.926 49.699 l 254.125 49.699 l 251.02
 49.699 248.5 52.219 248.5 55.324 c 248.5 58.43 251.02 60.949 254.125 60.949
 c 261.828 60.949 l 264.195 68.156 270.984 73.375 278.977 73.375 c 286.965
 73.375 293.754 68.156 296.125 60.949 c 303.824 60.949 l 306.934 60.949 
309.449 58.43 309.449 55.324 c 309.449 52.219 306.934 49.699 303.824 49.699
 c 297.027 49.699 l 297.027 36.102 l 341.102 36.102 l 351.699 36.102 360.324
 44.723 360.324 55.324 c 360.324 86.973 l 91.426 86.973 l 88.32 86.973 85.801
 89.492 85.801 92.598 c 85.801 95.707 88.32 98.223 91.426 98.223 c 360.324
 98.223 l 360.324 111.824 l 23.676 111.824 l 23.676 98.227 l 68.926 98.227
 l 72.031 98.227 74.551 95.707 74.551 92.602 c 74.551 89.492 72.031 86.977
 68.926 86.977 c 23.676 86.977 l 23.676 55.324 l 23.676 44.723 32.301 36.102
 42.898 36.102 c h
341.102 347.898 m 42.898 347.898 l 32.301 347.898 23.676 339.273 23.676
 328.676 c 23.676 123.074 l 360.324 123.074 l 360.324 328.676 l 360.324 
339.277 351.699 347.898 341.102 347.898 c h
341.102 347.898 m f
192 216.031 m 207.027 216.031 219.254 203.805 219.254 188.777 c 219.254
 173.75 207.027 161.523 192 161.523 c 176.973 161.523 164.746 173.75 164.746
 188.777 c 164.746 203.805 176.973 216.031 192 216.031 c h
192 172.773 m 200.824 172.773 208.004 179.953 208.004 188.777 c 208.004
 197.602 200.824 204.781 192 204.781 c 183.176 204.781 175.996 197.602 175.996
 188.777 c 175.996 179.953 183.176 172.773 192 172.773 c h
192 172.773 m f
233.668 220.016 m 240.438 211.027 244.105 200.145 244.105 188.777 c 244.105
 160.047 220.73 136.676 192 136.676 c 163.27 136.676 139.898 160.047 139.898
 188.777 c 139.898 200.145 143.566 211.027 150.332 220.016 c 135.773 232.277
 127.242 250.375 127.242 269.539 c 127.242 305.25 156.293 334.301 192 334.301
 c 227.711 334.301 256.758 305.25 256.758 269.539 c 256.758 250.375 248.227
 232.277 233.668 220.016 c h
192 323.051 m 162.496 323.051 138.492 299.047 138.492 269.539 c 138.492
 252.004 147.145 235.543 161.645 225.512 c 163 224.574 163.875 223.094 164.039
 221.453 c 164.207 219.816 163.645 218.188 162.508 216.996 c 155.184 209.344
 151.148 199.324 151.148 188.777 c 151.148 166.25 169.473 147.926 192 147.926
 c 214.527 147.926 232.855 166.25 232.855 188.777 c 232.855 199.324 228.82
 209.344 221.492 216.996 c 220.355 218.188 219.797 219.816 219.961 221.453
 c 220.129 223.094 221.004 224.578 222.355 225.512 c 236.855 235.543 245.512
 252.004 245.512 269.539 c 245.508 299.047 221.504 323.051 192 323.051 c
 h
192 323.051 m f
192 229.633 m 169.996 229.633 152.09 247.535 152.09 269.539 c 152.09 291.547
 169.996 309.449 192 309.449 c 214.004 309.449 231.91 291.547 231.91 269.539
 c 231.91 247.535 214.004 229.633 192 229.633 c h
192 298.199 m 176.199 298.199 163.34 285.344 163.34 269.539 c 163.34 253.738
 176.199 240.883 192 240.883 c 207.801 240.883 220.66 253.738 220.66 269.539
 c 220.66 285.344 207.801 298.199 192 298.199 c h
192 298.199 m f
113.789 199.699 m 104.723 191.688 90.996 191.625 81.863 199.562 c 81.273
 200.074 80.711 200.613 80.176 201.176 c 79.641 200.613 79.078 200.074 78.488
 199.562 c 69.355 191.629 55.629 191.688 46.562 199.699 c 41.477 204.195
 38.562 210.391 38.352 217.152 c 38.148 223.82 40.734 230.344 45.445 235.059
 c 71.805 261.418 l 74.113 263.727 77.145 264.879 80.176 264.879 c 83.207
 264.879 86.238 263.727 88.547 261.418 c 114.902 235.059 l 119.617 230.348
 122.203 223.82 121.996 217.152 c 121.789 210.391 118.875 204.195 113.789
 199.699 c h
106.949 227.105 m 80.59 253.461 l 80.363 253.691 79.988 253.691 79.758 
253.461 c 53.402 227.105 l 50.836 224.539 49.484 221.129 49.598 217.5 c 
49.707 213.875 51.277 210.547 54.012 208.129 c 56.414 206.004 59.512 204.941
 62.605 204.941 c 65.664 204.941 68.719 205.977 71.109 208.055 c 72.852 
209.566 74.117 211.418 74.871 213.555 c 75.664 215.805 77.789 217.305 80.176
 217.305 c 82.559 217.305 84.684 215.805 85.477 213.555 c 86.234 211.418
 87.5 209.566 89.242 208.055 c 94.051 203.875 101.562 203.91 106.34 208.129
 c 109.074 210.547 110.641 213.875 110.754 217.5 c 110.863 221.129 109.512
 224.539 106.949 227.105 c h
106.949 227.105 m f
337.438 199.699 m 328.371 191.688 314.645 191.629 305.512 199.562 c 304.922
 200.074 304.359 200.613 303.824 201.176 c 303.289 200.613 302.727 200.074
 302.137 199.562 c 293.004 191.629 279.281 191.688 270.211 199.699 c 265.125
 204.195 262.211 210.395 262.004 217.152 c 261.797 223.82 264.383 230.348
 269.098 235.059 c 295.453 261.418 l 297.762 263.727 300.793 264.879 303.824
 264.879 c 306.855 264.879 309.887 263.727 312.195 261.418 c 338.555 235.059
 l 343.266 230.344 345.852 223.82 345.648 217.152 c 345.438 210.391 342.523
 204.195 337.438 199.699 c h
330.598 227.105 m 304.238 253.461 l 304.012 253.691 303.641 253.691 303.41
 253.461 c 277.051 227.105 l 274.484 224.539 273.133 221.129 273.246 217.5
 c 273.359 213.875 274.926 210.547 277.66 208.129 c 280.066 206.004 283.16
 204.941 286.258 204.941 c 289.312 204.941 292.367 205.977 294.758 208.055
 c 296.5 209.566 297.766 211.418 298.52 213.555 c 299.316 215.805 301.441
 217.305 303.824 217.305 c 306.211 217.305 308.336 215.805 309.129 213.555
 c 309.883 211.418 311.148 209.566 312.891 208.055 c 317.699 203.875 325.211
 203.906 329.988 208.129 c 332.723 210.547 334.289 213.875 334.402 217.5
 c 334.516 221.129 333.164 224.539 330.598 227.105 c h
330.598 227.105 m f
Q Q
showpage
%%Trailer
end
%%EOF
