%!PS-Adobe-3.0 EPSF-3.0
%%Creator: cairo 1.16.0 (https://cairographics.org)
%%CreationDate: Fri Feb  5 09:59:12 2021
%%Pages: 1
%%DocumentData: Clean7Bit
%%LanguageLevel: 2
%%BoundingBox: 0 0 384 384
%%EndComments
%%BeginProlog
50 dict begin
/q { gsave } bind def
/Q { grestore } bind def
/cm { 6 array astore concat } bind def
/w { setlinewidth } bind def
/J { setlinecap } bind def
/j { setlinejoin } bind def
/M { setmiterlimit } bind def
/d { setdash } bind def
/m { moveto } bind def
/l { lineto } bind def
/c { curveto } bind def
/h { closepath } bind def
/re { exch dup neg 3 1 roll 5 3 roll moveto 0 rlineto
      0 exch rlineto 0 rlineto closepath } bind def
/S { stroke } bind def
/f { fill } bind def
/f* { eofill } bind def
/n { newpath } bind def
/W { clip } bind def
/W* { eoclip } bind def
/BT { } bind def
/ET { } bind def
/BDC { mark 3 1 roll /BDC pdfmark } bind def
/EMC { mark /EMC pdfmark } bind def
/cairo_store_point { /cairo_point_y exch def /cairo_point_x exch def } def
/Tj { show currentpoint cairo_store_point } bind def
/TJ {
  {
    dup
    type /stringtype eq
    { show } { -0.001 mul 0 cairo_font_matrix dtransform rmoveto } ifelse
  } forall
  currentpoint cairo_store_point
} bind def
/cairo_selectfont { cairo_font_matrix aload pop pop pop 0 0 6 array astore
    cairo_font exch selectfont cairo_point_x cairo_point_y moveto } bind def
/Tf { pop /cairo_font exch def /cairo_font_matrix where
      { pop cairo_selectfont } if } bind def
/Td { matrix translate cairo_font_matrix matrix concatmatrix dup
      /cairo_font_matrix exch def dup 4 get exch 5 get cairo_store_point
      /cairo_font where { pop cairo_selectfont } if } bind def
/Tm { 2 copy 8 2 roll 6 array astore /cairo_font_matrix exch def
      cairo_store_point /cairo_font where { pop cairo_selectfont } if } bind def
/g { setgray } bind def
/rg { setrgbcolor } bind def
/d1 { setcachedevice } bind def
/cairo_data_source {
  CairoDataIndex CairoData length lt
    { CairoData CairoDataIndex get /CairoDataIndex CairoDataIndex 1 add def }
    { () } ifelse
} def
/cairo_flush_ascii85_file { cairo_ascii85_file status { cairo_ascii85_file flushfile } if } def
/cairo_image { image cairo_flush_ascii85_file } def
/cairo_imagemask { imagemask cairo_flush_ascii85_file } def
%%EndProlog
%%BeginSetup
%%EndSetup
%%Page: 1 1
%%BeginPageSetup
%%PageBoundingBox: 0 0 384 384
%%EndPageSetup
q 0 0 384 384 rectclip
1 0 0 -1 0 384 cm q
0.784314 0.427451 0.211765 rg
18.051 152.191 m 18.051 303.824 l 18.051 317.551 29.176 328.676 42.898 
328.676 c 341.102 328.676 l 354.824 328.676 365.949 317.551 365.949 303.824
 c 365.949 152.191 l h
18.051 152.191 m f
0.741176 0.345098 0.2 rg
348.699 152.191 m 348.699 303.824 l 348.699 317.551 337.574 328.676 323.852
 328.676 c 341.102 328.676 l 354.824 328.676 365.949 317.551 365.949 303.824
 c 365.949 152.191 l h
348.699 152.191 m f
0.94902 0.94902 0.988235 rg
278.977 67.75 m 254.125 67.75 l 254.125 36.688 l 254.125 33.258 251.344
 30.477 247.914 30.477 c 136.09 30.477 l 132.656 30.477 129.875 33.258 129.875
 36.688 c 129.875 67.75 l 105.027 67.75 l 105.027 18.051 l 105.027 11.188
 110.59 5.625 117.453 5.625 c 266.551 5.625 l 273.414 5.625 278.977 11.188
 278.977 18.051 c h
278.977 67.75 m f
0.87451 0.870588 0.960784 rg
266.551 5.625 m 249.301 5.625 l 256.164 5.625 261.727 11.188 261.727 18.051
 c 261.727 67.75 l 278.977 67.75 l 278.977 18.051 l 278.977 11.188 273.41
 5.625 266.551 5.625 c h
266.551 5.625 m f
0.992157 0.74902 0 rg
142.301 83.176 m 92.598 83.176 l 92.598 61.324 l 92.598 58.012 95.285 55.324
 98.598 55.324 c 136.301 55.324 l 139.613 55.324 142.301 58.012 142.301 
61.324 c h
142.301 83.176 m f
291.398 83.176 m 241.699 83.176 l 241.699 61.324 l 241.699 58.012 244.387
 55.324 247.699 55.324 c 285.398 55.324 l 288.715 55.324 291.398 58.012 
291.398 61.324 c h
291.398 83.176 m f
1 0.568627 0 rg
285.398 55.324 m 268.148 55.324 l 271.465 55.324 274.148 58.012 274.148
 61.324 c 274.148 83.176 l 291.398 83.176 l 291.398 61.324 l 291.398 58.012
 288.715 55.324 285.398 55.324 c h
285.398 55.324 m f
136.301 55.324 m 119.051 55.324 l 122.363 55.324 125.051 58.012 125.051
 61.324 c 125.051 83.176 l 142.301 83.176 l 142.301 61.324 l 142.301 58.012
 139.613 55.324 136.301 55.324 c h
136.301 55.324 m f
0.862745 0.529412 0.345098 rg
365.949 167.148 m 372.812 167.148 378.375 161.586 378.375 154.727 c 378.375
 105.023 l 378.375 91.301 367.25 80.176 353.523 80.176 c 30.477 80.176 l
 16.75 80.176 5.625 91.301 5.625 105.023 c 5.625 154.727 l 5.625 161.586
 11.188 167.148 18.051 167.148 c h
365.949 167.148 m f
0.94902 0.94902 0.988235 rg
92.812 303.824 m 55.113 303.824 l 51.797 303.824 49.113 301.137 49.113 
297.824 c 49.113 284.977 l 49.113 281.66 51.797 278.977 55.113 278.977 c
 92.812 278.977 l 96.125 278.977 98.812 281.66 98.812 284.977 c 98.812 297.824
 l 98.812 301.137 96.125 303.824 92.812 303.824 c h
92.812 303.824 m f
0.992157 0.74902 0 rg
167.148 80.176 49.703 54.906 re f
167.148 197.102 49.703 55.809 re f
1 0.568627 0 rg
199.602 80.176 17.25 54.906 re f
199.602 197.102 17.25 55.809 re f
0.94902 0.94902 0.988235 rg
229.699 204.426 m 154.301 204.426 l 147.672 204.426 142.301 199.055 142.301
 192.426 c 142.301 141.875 l 142.301 135.246 147.672 129.875 154.301 129.875
 c 229.699 129.875 l 236.328 129.875 241.699 135.246 241.699 141.875 c 241.699
 192.426 l 241.699 199.051 236.328 204.426 229.699 204.426 c h
229.699 204.426 m f
0.992157 0.74902 0 rg
210.852 179.574 m 173.148 179.574 l 169.836 179.574 167.148 176.887 167.148
 173.574 c 167.148 160.727 l 167.148 157.41 169.836 154.727 173.148 154.727
 c 210.852 154.727 l 214.164 154.727 216.852 157.41 216.852 160.727 c 216.852
 173.574 l 216.852 176.891 214.164 179.574 210.852 179.574 c h
210.852 179.574 m f
0.87451 0.870588 0.960784 rg
229.699 129.875 m 212.449 129.875 l 219.078 129.875 224.449 135.246 224.449
 141.875 c 224.449 192.426 l 224.449 199.055 219.078 204.426 212.449 204.426
 c 229.699 204.426 l 236.328 204.426 241.699 199.055 241.699 192.426 c 241.699
 141.875 l 241.699 135.246 236.328 129.875 229.699 129.875 c h
229.699 129.875 m f
1 0.568627 0 rg
210.852 154.727 m 193.602 154.727 l 196.914 154.727 199.602 157.41 199.602
 160.727 c 199.602 173.574 l 199.602 176.887 196.914 179.574 193.602 179.574
 c 210.852 179.574 l 214.164 179.574 216.852 176.887 216.852 173.574 c 216.852
 160.727 l 216.852 157.41 214.164 154.727 210.852 154.727 c h
210.852 154.727 m f
0.784314 0.427451 0.211765 rg
353.523 80.176 m 336.273 80.176 l 350 80.176 361.125 91.301 361.125 105.023
 c 361.125 154.727 l 361.125 161.586 355.562 167.148 348.699 167.148 c 365.949
 167.148 l 372.809 167.148 378.375 161.586 378.375 154.727 c 378.375 105.023
 l 378.375 91.301 367.25 80.176 353.523 80.176 c h
353.523 80.176 m f
0.87451 0.870588 0.960784 rg
92.812 278.977 m 75.562 278.977 l 78.875 278.977 81.562 281.66 81.562 284.977
 c 81.562 297.824 l 81.562 301.137 78.875 303.824 75.562 303.824 c 92.812
 303.824 l 96.125 303.824 98.812 301.137 98.812 297.824 c 98.812 284.977
 l 98.812 281.66 96.125 278.977 92.812 278.977 c h
92.812 278.977 m f
0.937255 0.937255 0.976471 rg
240.262 261.711 m 266.945 288.395 266.945 331.656 240.262 358.34 c 213.578
 385.023 170.316 385.023 143.633 358.34 c 116.949 331.656 116.949 288.395
 143.633 261.711 c 156.445 248.895 173.824 241.699 191.945 241.699 c 210.066
 241.699 227.445 248.895 240.262 261.711 c h
240.262 261.711 m f
0.87451 0.870588 0.960784 rg
192 241.699 m 189.078 241.699 186.199 241.883 183.375 242.242 c 217.043
 246.48 243.086 275.219 243.086 310.039 c 243.086 344.859 217.043 373.594
 183.375 377.836 c 186.199 378.191 189.078 378.375 192 378.375 c 229.742
 378.375 260.336 347.781 260.336 310.039 c 260.336 272.297 229.742 241.699
 192 241.699 c h
192 241.699 m f
0 g
192 260.926 m 175.195 260.926 161.523 274.598 161.523 291.398 c 161.523
 306.281 172.25 318.699 186.375 321.348 c 186.375 329.262 l 179.574 329.262
 l 176.469 329.262 173.949 331.781 173.949 334.887 c 173.949 337.996 176.469
 340.512 179.574 340.512 c 186.375 340.512 l 186.375 353.523 l 186.375 356.633
 188.895 359.148 192 359.148 c 195.105 359.148 197.625 356.633 197.625 353.523
 c 197.625 340.512 l 204.426 340.512 l 207.531 340.512 210.051 337.996 210.051
 334.887 c 210.051 331.781 207.531 329.262 204.426 329.262 c 197.625 329.262
 l 197.625 321.348 l 211.75 318.699 222.477 306.281 222.477 291.398 c 222.477
 274.598 208.805 260.926 192 260.926 c h
192 310.625 m 181.398 310.625 172.773 302 172.773 291.402 c 172.773 280.801
 181.398 272.176 192 272.176 c 202.602 272.176 211.227 280.801 211.227 291.402
 c 211.227 302 202.602 310.625 192 310.625 c h
192 310.625 m f
353.523 74.551 m 297.023 74.551 l 297.023 61.324 l 297.023 54.914 291.809
 49.699 285.398 49.699 c 284.602 49.699 l 284.602 18.051 l 284.602 8.098
 276.504 0 266.551 0 c 165.977 0 l 162.867 0 160.352 2.52 160.352 5.625 
c 160.352 8.73 162.867 11.25 165.977 11.25 c 266.551 11.25 l 270.301 11.25
 273.352 14.301 273.352 18.051 c 273.352 49.699 l 259.75 49.699 l 259.75
 36.688 l 259.75 30.16 254.441 24.852 247.914 24.852 c 136.086 24.852 l 
129.559 24.852 124.25 30.16 124.25 36.688 c 124.25 49.699 l 110.648 49.699
 l 110.648 18.051 l 110.648 14.301 113.699 11.25 117.449 11.25 c 143.477
 11.25 l 146.582 11.25 149.102 8.73 149.102 5.625 c 149.102 2.52 146.582
 0 143.477 0 c 117.449 0 l 107.496 0 99.398 8.098 99.398 18.051 c 99.398
 49.699 l 98.602 49.699 l 92.191 49.699 86.977 54.914 86.977 61.324 c 86.977
 74.551 l 30.477 74.551 l 13.672 74.551 0 88.223 0 105.023 c 0 154.727 l
 0 162.715 5.219 169.504 12.426 171.871 c 12.426 303.824 l 12.426 320.629
 26.098 334.301 42.898 334.301 c 56.5 334.301 l 59.605 334.301 62.125 331.781
 62.125 328.676 c 62.125 325.566 59.605 323.051 56.5 323.051 c 42.898 323.051
 l 32.297 323.051 23.676 314.426 23.676 303.824 c 23.676 172.773 l 136.676
 172.773 l 136.676 192.426 l 136.676 202.145 144.582 210.051 154.301 210.051
 c 161.523 210.051 l 161.523 242.648 l 135.902 254.281 118.039 280.113 118.039
 310.039 c 118.039 314.477 118.434 318.824 119.184 323.051 c 79 323.051 
l 75.895 323.051 73.375 325.566 73.375 328.676 c 73.375 331.781 75.895 334.301
 79 334.301 c 122.129 334.301 l 132.195 363.203 159.711 384 192 384 c 224.289
 384 251.805 363.203 261.871 334.301 c 341.102 334.301 l 357.902 334.301
 371.574 320.629 371.574 303.824 c 371.574 171.871 l 378.781 169.504 384
 162.715 384 154.727 c 384 105.023 l 384 88.223 370.328 74.551 353.523 74.551
 c h
278.977 60.949 m 285.398 60.949 l 285.605 60.949 285.773 61.117 285.773
 61.324 c 285.773 74.551 l 247.324 74.551 l 247.324 61.324 l 247.324 61.117
 247.492 60.949 247.699 60.949 c h
98.227 61.324 m 98.227 61.117 98.395 60.949 98.602 60.949 c 136.301 60.949
 l 136.508 60.949 136.676 61.117 136.676 61.324 c 136.676 74.551 l 98.223
 74.551 l 98.223 61.324 l h
136.301 49.699 m 135.5 49.699 l 135.5 36.688 l 135.5 36.363 135.762 36.102
 136.086 36.102 c 247.914 36.102 l 248.238 36.102 248.5 36.363 248.5 36.688
 c 248.5 49.699 l 247.699 49.699 l 241.289 49.699 236.074 54.914 236.074
 61.324 c 236.074 74.551 l 147.926 74.551 l 147.926 61.324 l 147.926 54.914
 142.711 49.699 136.301 49.699 c h
211.227 124.25 m 172.773 124.25 l 172.773 85.801 l 211.227 85.801 l h
18.051 161.523 m 14.301 161.523 11.25 158.477 11.25 154.727 c 11.25 105.023
 l 11.25 94.426 19.875 85.801 30.477 85.801 c 161.523 85.801 l 161.523 124.25
 l 154.301 124.25 l 144.582 124.25 136.676 132.156 136.676 141.875 c 136.676
 161.523 l h
147.926 192.426 m 147.926 141.875 l 147.926 138.359 150.785 135.5 154.301
 135.5 c 229.699 135.5 l 233.215 135.5 236.074 138.359 236.074 141.875 c
 236.074 192.426 l 236.074 195.941 233.215 198.801 229.699 198.801 c 154.301
 198.801 l 150.785 198.801 147.926 195.941 147.926 192.426 c h
172.773 210.051 m 211.227 210.051 l 211.227 238.613 l 205.094 236.961 198.648
 236.074 192 236.074 c 185.352 236.074 178.91 236.961 172.777 238.613 c 
172.777 210.051 l h
192 372.75 m 157.422 372.75 129.289 344.617 129.289 310.039 c 129.289 275.457
 157.418 247.324 192 247.324 c 226.582 247.324 254.711 275.457 254.711 310.039
 c 254.711 344.617 226.578 372.75 192 372.75 c h
341.102 323.051 m 264.816 323.051 l 265.57 318.824 265.961 314.477 265.961
 310.039 c 265.961 280.113 248.098 254.281 222.477 242.648 c 222.477 210.051
 l 229.699 210.051 l 239.418 210.051 247.324 202.145 247.324 192.426 c 247.324
 172.773 l 360.324 172.773 l 360.324 303.824 l 360.324 314.426 351.699 323.051
 341.102 323.051 c h
372.75 154.727 m 372.75 158.473 369.699 161.523 365.949 161.523 c 247.324
 161.523 l 247.324 141.875 l 247.324 132.156 239.418 124.25 229.699 124.25
 c 222.477 124.25 l 222.477 85.801 l 353.523 85.801 l 364.125 85.801 372.75
 94.426 372.75 105.023 c h
372.75 154.727 m f
104.438 297.824 m 104.438 284.977 l 104.438 278.566 99.223 273.352 92.812
 273.352 c 55.113 273.352 l 48.703 273.352 43.488 278.566 43.488 284.977
 c 43.488 297.824 l 43.488 304.234 48.703 309.449 55.113 309.449 c 92.812
 309.449 l 99.223 309.449 104.438 304.234 104.438 297.824 c h
54.738 297.824 m 54.738 284.977 l 54.738 284.77 54.906 284.602 55.113 284.602
 c 92.812 284.602 l 93.02 284.602 93.188 284.77 93.188 284.977 c 93.188 
297.824 l 93.188 298.031 93.02 298.199 92.812 298.199 c 55.113 298.199 l
 54.906 298.199 54.738 298.031 54.738 297.824 c h
54.738 297.824 m f
210.852 185.199 m 217.262 185.199 222.477 179.984 222.477 173.574 c 222.477
 160.727 l 222.477 154.316 217.262 149.102 210.852 149.102 c 173.148 149.102
 l 166.738 149.102 161.523 154.316 161.523 160.727 c 161.523 173.574 l 161.523
 179.984 166.738 185.199 173.148 185.199 c h
172.773 173.574 m 172.773 160.727 l 172.773 160.52 172.941 160.352 173.148
 160.352 c 210.852 160.352 l 211.059 160.352 211.227 160.52 211.227 160.727
 c 211.227 173.574 l 211.227 173.781 211.059 173.949 210.852 173.949 c 173.148
 173.949 l 172.941 173.949 172.773 173.781 172.773 173.574 c h
172.773 173.574 m f
Q Q
showpage
%%Trailer
end
%%EOF
