%!PS-Adobe-3.0 EPSF-3.0
%%Creator: cairo 1.16.0 (https://cairographics.org)
%%CreationDate: Fri Feb  5 09:59:13 2021
%%Pages: 1
%%DocumentData: Clean7Bit
%%LanguageLevel: 2
%%BoundingBox: 0 0 384 384
%%EndComments
%%BeginProlog
50 dict begin
/q { gsave } bind def
/Q { grestore } bind def
/cm { 6 array astore concat } bind def
/w { setlinewidth } bind def
/J { setlinecap } bind def
/j { setlinejoin } bind def
/M { setmiterlimit } bind def
/d { setdash } bind def
/m { moveto } bind def
/l { lineto } bind def
/c { curveto } bind def
/h { closepath } bind def
/re { exch dup neg 3 1 roll 5 3 roll moveto 0 rlineto
      0 exch rlineto 0 rlineto closepath } bind def
/S { stroke } bind def
/f { fill } bind def
/f* { eofill } bind def
/n { newpath } bind def
/W { clip } bind def
/W* { eoclip } bind def
/BT { } bind def
/ET { } bind def
/BDC { mark 3 1 roll /BDC pdfmark } bind def
/EMC { mark /EMC pdfmark } bind def
/cairo_store_point { /cairo_point_y exch def /cairo_point_x exch def } def
/Tj { show currentpoint cairo_store_point } bind def
/TJ {
  {
    dup
    type /stringtype eq
    { show } { -0.001 mul 0 cairo_font_matrix dtransform rmoveto } ifelse
  } forall
  currentpoint cairo_store_point
} bind def
/cairo_selectfont { cairo_font_matrix aload pop pop pop 0 0 6 array astore
    cairo_font exch selectfont cairo_point_x cairo_point_y moveto } bind def
/Tf { pop /cairo_font exch def /cairo_font_matrix where
      { pop cairo_selectfont } if } bind def
/Td { matrix translate cairo_font_matrix matrix concatmatrix dup
      /cairo_font_matrix exch def dup 4 get exch 5 get cairo_store_point
      /cairo_font where { pop cairo_selectfont } if } bind def
/Tm { 2 copy 8 2 roll 6 array astore /cairo_font_matrix exch def
      cairo_store_point /cairo_font where { pop cairo_selectfont } if } bind def
/g { setgray } bind def
/rg { setrgbcolor } bind def
/d1 { setcachedevice } bind def
/cairo_data_source {
  CairoDataIndex CairoData length lt
    { CairoData CairoDataIndex get /CairoDataIndex CairoDataIndex 1 add def }
    { () } ifelse
} def
/cairo_flush_ascii85_file { cairo_ascii85_file status { cairo_ascii85_file flushfile } if } def
/cairo_image { image cairo_flush_ascii85_file } def
/cairo_imagemask { imagemask cairo_flush_ascii85_file } def
%%EndProlog
%%BeginSetup
%%EndSetup
%%Page: 1 1
%%BeginPageSetup
%%PageBoundingBox: 0 0 384 384
%%EndPageSetup
q 0 0 384 384 rectclip
1 0 0 -1 0 384 cm q
0.980392 0.368627 0.592157 rg
204.426 291.395 m 204.426 313.141 l 204.426 314.855 205.816 316.246 207.531
 316.246 c 235.484 316.246 l 238.918 316.246 241.699 319.027 241.699 322.457
 c 241.699 334.883 l 241.699 338.312 238.918 341.094 235.484 341.094 c 207.531
 341.094 l 205.816 341.094 204.426 342.484 204.426 344.199 c 204.426 372.156
 l 204.426 375.586 201.645 378.367 198.211 378.367 c 185.789 378.367 l 182.355
 378.367 179.574 375.586 179.574 372.156 c 179.574 344.199 l 179.574 342.484
 178.184 341.094 176.469 341.094 c 148.516 341.094 l 145.082 341.094 142.301
 338.312 142.301 334.883 c 142.301 322.457 l 142.301 319.027 145.082 316.246
 148.516 316.246 c 176.469 316.246 l 178.184 316.246 179.574 314.855 179.574
 313.141 c 179.574 291.395 l 121.723 204.426 l 96.387 183.926 80.18 152.582
 80.18 117.453 c 80.18 55.695 130.242 5.633 192 5.633 c 253.758 5.633 303.82
 55.695 303.82 117.453 c 303.82 152.582 287.617 183.926 262.277 204.426 
c h
204.426 291.395 m f
0.85098 0.309804 0.533333 rg
187.176 344.199 m 187.176 372.156 l 187.176 374.73 185.609 376.938 183.375
 377.883 c 184.117 378.195 184.934 378.367 185.789 378.367 c 198.211 378.367
 l 201.645 378.367 204.426 375.586 204.426 372.156 c 204.426 344.199 l 204.426
 342.484 205.816 341.094 207.531 341.094 c 190.281 341.094 l 188.566 341.094
 187.176 342.484 187.176 344.199 c h
187.176 344.199 m f
192 5.633 m 189.098 5.633 186.223 5.742 183.375 5.961 c 241.102 10.363 
286.57 58.598 286.57 117.453 c 286.57 152.586 270.367 183.926 245.027 204.426
 c 187.176 291.398 l 187.176 313.141 l 187.176 314.855 188.566 316.246 190.281
 316.246 c 207.531 316.246 l 205.816 316.246 204.426 314.855 204.426 313.141
 c 204.426 291.398 l 262.277 204.426 l 287.617 183.926 303.82 152.586 303.82
 117.453 c 303.82 55.695 253.758 5.633 192 5.633 c h
192 5.633 m f
235.484 316.246 m 218.238 316.246 l 221.668 316.246 224.449 319.027 224.449
 322.457 c 224.449 334.883 l 224.449 338.312 221.668 341.094 218.238 341.094
 c 235.484 341.094 l 238.918 341.094 241.699 338.312 241.699 334.883 c 241.699
 322.457 l 241.699 319.027 238.918 316.246 235.484 316.246 c h
235.484 316.246 m f
0.45098 0.737255 1 rg
278.973 117.453 m 278.973 165.488 240.035 204.426 192 204.426 c 143.969
 204.426 105.027 165.488 105.027 117.453 c 105.027 69.422 143.969 30.48 
192 30.48 c 240.035 30.48 278.973 69.422 278.973 117.453 c h
278.973 117.453 m f
0.45098 0.494118 0.901961 rg
192 30.48 m 189.09 30.48 186.211 30.629 183.375 30.906 c 227.359 35.238
 261.723 72.332 261.723 117.453 c 261.723 162.574 227.359 199.668 183.375
 204 c 186.211 204.281 189.09 204.426 192 204.426 c 240.035 204.426 278.973
 165.488 278.973 117.453 c 278.973 69.422 240.031 30.48 192 30.48 c h
192 30.48 m f
1 0.568627 0 rg
372.145 229.258 m 377.449 229.258 380.312 235.484 376.859 239.512 c 355.309
 264.656 l 351.32 269.312 351.32 276.176 355.309 280.828 c 376.859 305.977
 l 380.312 310.004 377.449 316.23 372.145 316.23 c 291.395 316.23 l 284.535
 316.23 278.973 310.668 278.973 303.805 c 278.973 287.629 l 105.027 287.629
 l 105.027 303.805 l 105.027 310.668 99.465 316.23 92.605 316.23 c 11.855
 316.23 l 6.551 316.23 3.688 310.004 7.141 305.977 c 28.691 280.828 l 32.68
 276.176 32.68 269.312 28.691 264.656 c 7.141 239.512 l 3.688 235.484 6.551
 229.258 11.855 229.258 c h
372.145 229.258 m f
1 0.364706 0 rg
87.781 303.805 m 87.781 310.668 82.219 316.23 75.355 316.23 c 92.605 316.23
 l 99.465 316.23 105.027 310.668 105.027 303.805 c 105.027 287.629 l 87.781
 287.629 l h
87.781 303.805 m f
355.309 280.828 m 351.32 276.176 351.32 269.312 355.309 264.656 c 376.859
 239.512 l 380.312 235.484 377.449 229.258 372.145 229.258 c 354.895 229.258
 l 360.203 229.258 363.066 235.484 359.609 239.512 c 338.059 264.656 l 334.07
 269.312 334.07 276.176 338.059 280.828 c 359.609 305.977 l 363.066 310.004
 360.203 316.23 354.895 316.23 c 372.145 316.23 l 377.449 316.23 380.312
 310.004 376.859 305.977 c h
355.309 280.828 m f
0.992157 0.74902 0 rg
304.246 291.383 m 79.754 291.383 l 73.129 291.383 67.754 286.008 67.754
 279.383 c 67.754 216.41 l 67.754 209.781 73.129 204.41 79.754 204.41 c 
304.246 204.41 l 310.871 204.41 316.246 209.781 316.246 216.41 c 316.246
 279.383 l 316.246 286.008 310.871 291.383 304.246 291.383 c h
304.246 291.383 m f
1 0.568627 0 rg
304.246 204.41 m 286.996 204.41 l 293.625 204.41 298.996 209.781 298.996
 216.41 c 298.996 279.383 l 298.996 286.008 293.625 291.383 286.996 291.383
 c 304.246 291.383 l 310.871 291.383 316.246 286.008 316.246 279.383 c 316.246
 216.41 l 316.246 209.781 310.871 204.41 304.246 204.41 c h
304.246 204.41 m f
0 g
359.578 277.184 m 357.379 274.621 357.379 270.898 359.578 268.332 c 381.129
 243.188 l 384.176 239.637 384.852 234.789 382.898 230.539 c 380.941 226.289
 376.82 223.648 372.145 223.648 c 321.871 223.648 l 321.871 216.41 l 321.871
 206.691 313.965 198.785 304.246 198.785 c 276.715 198.785 l 297.66 177.016
 309.445 148.098 309.445 117.453 c 309.445 52.695 256.758 0.008 192 0.008
 c 164.984 0.008 138.605 9.406 117.723 26.473 c 115.32 28.438 114.961 31.984
 116.93 34.387 c 118.895 36.793 122.438 37.148 124.844 35.184 c 143.719 
19.754 167.57 11.258 192 11.258 c 250.555 11.258 298.195 58.898 298.195 
117.453 c 298.195 148.996 284.391 178.523 260.262 198.785 c 236.23 198.785
 l 265.02 183.066 284.598 152.504 284.598 117.453 c 284.598 66.395 243.059
 24.855 192 24.855 c 140.941 24.855 99.402 66.395 99.402 117.453 c 99.402
 152.504 118.98 183.066 147.77 198.785 c 123.738 198.785 l 99.609 178.523
 85.805 148.996 85.805 117.453 c 85.805 93.023 94.301 69.176 109.73 50.297
 c 111.695 47.891 111.34 44.348 108.934 42.383 c 106.527 40.418 102.984 
40.773 101.02 43.18 c 83.953 64.059 74.555 90.438 74.555 117.453 c 74.555
 148.098 86.336 177.016 107.285 198.785 c 79.754 198.785 l 70.035 198.785
 62.129 206.691 62.129 216.41 c 62.129 223.648 l 47.945 223.648 l 44.836
 223.648 42.32 226.168 42.32 229.273 c 42.32 232.379 44.836 234.898 47.945
 234.898 c 62.129 234.898 l 62.129 279.383 l 62.129 289.102 70.035 297.004
 79.754 297.004 c 99.402 297.004 l 99.402 303.82 l 99.402 307.57 96.355 
310.621 92.605 310.621 c 11.855 310.621 l 11.727 310.621 11.48 310.621 11.324
 310.277 c 11.164 309.938 11.324 309.75 11.41 309.648 c 32.961 284.508 l
 38.797 277.699 38.797 267.82 32.961 261.012 c 11.41 235.867 l 11.324 235.77
 11.164 235.582 11.324 235.242 c 11.48 234.898 11.727 234.898 11.855 234.898
 c 25.445 234.898 l 28.551 234.898 31.07 232.379 31.07 229.273 c 31.07 226.168
 28.551 223.648 25.445 223.648 c 11.855 223.648 l 7.18 223.648 3.059 226.289
 1.102 230.539 c -0.852 234.789 -0.176 239.637 2.867 243.188 c 24.422 268.332
 l 26.621 270.898 26.621 274.621 24.422 277.184 c 2.871 302.328 l -0.176
 305.883 -0.852 310.727 1.102 314.977 c 3.059 319.23 7.18 321.871 11.855
 321.871 c 92.605 321.871 l 102.559 321.871 110.652 313.773 110.652 303.82
 c 110.652 297.004 l 173.949 297.004 l 173.949 310.621 l 148.516 310.621
 l 141.988 310.621 136.676 315.93 136.676 322.457 c 136.676 334.883 l 136.676
 341.41 141.988 346.719 148.516 346.719 c 173.949 346.719 l 173.949 372.156
 l 173.949 378.684 179.262 383.992 185.789 383.992 c 198.211 383.992 l 204.738
 383.992 210.047 378.68 210.047 372.156 c 210.047 346.719 l 235.484 346.719
 l 242.012 346.719 247.32 341.41 247.32 334.883 c 247.32 322.457 l 247.32
 315.93 242.012 310.621 235.484 310.621 c 210.047 310.621 l 210.047 297.004
 l 273.348 297.004 l 273.348 303.82 l 273.348 313.773 281.441 321.871 291.395
 321.871 c 372.141 321.871 l 376.82 321.871 380.941 319.23 382.895 314.977
 c 384.852 310.727 384.176 305.883 381.129 302.328 c h
235.484 321.871 m 235.809 321.871 236.074 322.133 236.074 322.457 c 236.074
 334.883 l 236.074 335.207 235.809 335.469 235.484 335.469 c 207.531 335.469
 l 202.715 335.469 198.801 339.387 198.801 344.199 c 198.801 372.156 l 198.801
 372.48 198.535 372.742 198.211 372.742 c 185.789 372.742 l 185.465 372.742
 185.199 372.477 185.199 372.156 c 185.199 344.199 l 185.199 339.387 181.285
 335.469 176.469 335.469 c 148.516 335.469 l 148.191 335.469 147.926 335.203
 147.926 334.883 c 147.926 322.457 l 147.926 322.133 148.191 321.871 148.516
 321.871 c 176.469 321.871 l 181.285 321.871 185.199 317.953 185.199 313.137
 c 185.199 297.02 l 198.801 297.02 l 198.801 313.137 l 198.801 317.953 202.719
 321.871 207.531 321.871 c h
110.852 123.078 m 142.977 123.078 l 143.395 136.781 145.324 149.594 148.461
 160.957 c 141.262 162.941 134.57 165.426 128.598 168.355 c 118.48 155.777
 112.023 140.145 110.852 123.078 c h
128.598 66.555 m 134.57 69.48 141.262 71.965 148.461 73.953 c 145.324 85.312
 143.395 98.125 142.977 111.828 c 110.852 111.828 l 112.023 94.762 118.48
 79.129 128.598 66.555 c h
273.148 111.828 m 241.023 111.828 l 240.605 98.125 238.68 85.312 235.539
 73.953 c 242.738 71.965 249.43 69.48 255.402 66.555 c 265.52 79.129 271.977
 94.762 273.148 111.828 c h
255.402 168.355 m 249.43 165.426 242.738 162.941 235.539 160.957 c 238.676
 149.594 240.605 136.781 241.023 123.078 c 273.148 123.078 l 271.977 140.145
 265.52 155.777 255.402 168.355 c h
166.281 58.469 m 173.391 44.258 182.762 36.105 192 36.105 c 201.238 36.105
 210.613 44.258 217.719 58.469 c 218.875 60.785 219.949 63.23 220.949 65.766
 c 211.789 67.445 201.996 68.344 192 68.344 c 182.004 68.344 172.211 67.445
 163.051 65.766 c 164.055 63.23 165.125 60.785 166.281 58.469 c h
151.93 63.258 m 146.465 61.77 141.332 59.98 136.645 57.902 c 144.445 50.648
 153.668 44.898 163.844 41.133 c 159.215 47.145 155.188 54.629 151.93 63.258
 c h
220.156 41.133 m 230.332 44.898 239.555 50.648 247.355 57.902 c 242.668
 59.98 237.535 61.77 232.07 63.258 c 228.812 54.629 224.785 47.145 220.156
 41.133 c h
192 79.594 m 203.219 79.594 214.25 78.527 224.555 76.523 c 227.562 87.254
 229.348 99.254 229.758 111.828 c 154.242 111.828 l 154.652 99.254 156.438
 87.254 159.445 76.523 c 169.754 78.531 180.781 79.594 192 79.594 c h
229.758 123.078 m 229.348 135.652 227.562 147.652 224.555 158.383 c 214.25
 156.375 203.219 155.316 192 155.316 c 180.781 155.316 169.754 156.375 159.449
 158.383 c 156.438 147.652 154.652 135.652 154.242 123.078 c h
192 166.562 m 202 166.562 211.789 167.461 220.949 169.141 c 219.949 171.676
 218.875 174.121 217.719 176.434 c 210.754 190.363 201.617 198.461 192.559
 198.785 c 191.441 198.785 l 182.387 198.461 173.246 190.363 166.281 176.434
 c 165.125 174.121 164.055 171.676 163.051 169.141 c 172.211 167.461 182.004
 166.562 192 166.562 c h
232.07 171.648 m 237.535 173.137 242.668 174.93 247.355 177.004 c 239.555
 184.262 230.332 190.008 220.156 193.773 c 224.785 187.762 228.812 180.277
 232.07 171.648 c h
163.844 193.773 m 153.668 190.008 144.445 184.262 136.648 177.004 c 141.332
 174.93 146.465 173.137 151.934 171.648 c 155.188 180.277 159.215 187.762
 163.844 193.773 c h
73.379 279.383 m 73.379 216.41 l 73.379 212.895 76.238 210.035 79.754 210.035
 c 304.246 210.035 l 307.762 210.035 310.621 212.895 310.621 216.41 c 310.621
 279.383 l 310.621 282.898 307.762 285.758 304.246 285.758 c 79.754 285.758
 l 76.238 285.758 73.379 282.898 73.379 279.383 c h
372.676 310.277 m 372.52 310.621 372.273 310.621 372.145 310.621 c 291.395
 310.621 l 287.648 310.621 284.598 307.57 284.598 303.82 c 284.598 297.004
 l 304.246 297.004 l 313.965 297.004 321.871 289.102 321.871 279.383 c 321.871
 234.898 l 372.145 234.898 l 372.273 234.898 372.52 234.898 372.676 235.242
 c 372.836 235.582 372.676 235.77 372.59 235.867 c 351.039 261.012 l 345.203
 267.82 345.203 277.699 351.039 284.504 c 372.59 309.648 l 372.676 309.75
 372.836 309.938 372.676 310.277 c h
372.676 310.277 m f
281.801 229.848 m 278.695 229.875 276.199 232.418 276.23 235.523 c 276.297
 242.449 l 269.305 232.32 l 267.906 230.297 265.352 229.414 263 230.148 
c 260.652 230.879 259.051 233.055 259.051 235.516 c 259.051 260.32 l 259.051
 263.426 261.566 265.945 264.676 265.945 c 267.781 265.945 270.301 263.426
 270.301 260.32 c 270.301 253.562 l 276.816 263 l 278.348 265.211 281.039
 266.176 283.52 265.402 c 286.027 264.617 287.715 262.238 287.715 259.43
 c 287.48 235.418 l 287.449 232.309 284.895 229.789 281.801 229.848 c h
281.801 229.848 m f
217.301 234.793 m 216.738 232.043 214.387 230.012 211.586 229.855 c 208.777
 229.695 206.223 231.453 205.355 234.125 c 205.336 234.188 205.316 234.254
 205.297 234.316 c 203.227 241.582 l 201.066 234.262 l 201.047 234.199 201.027
 234.133 201.008 234.07 c 200.113 231.406 197.527 229.672 194.73 229.859
 c 191.926 230.047 189.598 232.105 189.055 234.93 c 184.688 259.129 l 184.137
 262.184 186.168 265.109 189.223 265.66 c 192.277 266.211 195.207 264.184
 195.758 261.125 c 196.328 257.957 l 197.383 261.527 l 197.402 261.598 197.426
 261.668 197.449 261.734 c 198.301 264.258 200.652 265.945 203.309 265.945
 c 203.348 265.945 l 206.02 265.93 208.371 264.211 209.195 261.668 c 209.215
 261.605 209.234 261.539 209.254 261.473 c 210.27 257.918 l 210.895 261.184
 l 211.477 264.234 214.426 266.234 217.473 265.652 c 220.523 265.07 222.523
 262.121 221.941 259.07 c h
217.301 234.793 m f
245.605 241.32 m 248.715 241.32 251.23 238.805 251.23 235.699 c 251.23 
232.59 248.715 230.074 245.605 230.074 c 235.23 230.074 l 232.125 230.074
 229.605 232.59 229.605 235.699 c 229.605 260.32 l 229.605 263.426 232.125
 265.945 235.23 265.945 c 245.605 265.945 l 248.715 265.945 251.23 263.426
 251.23 260.32 c 251.23 257.215 248.715 254.695 245.605 254.695 c 240.855
 254.695 l 240.855 253.633 l 244.84 253.633 l 247.949 253.633 250.465 251.113
 250.465 248.008 c 250.465 244.902 247.949 242.383 244.84 242.383 c 240.855
 242.383 l 240.855 241.324 l 245.605 241.324 l h
245.605 241.32 m f
129.93 230 m 126.887 229.395 123.922 231.371 123.316 234.418 c 122.383 
239.117 l 120.75 233.816 l 119.832 230.848 116.684 229.18 113.719 230.094
 c 111.773 230.695 110.395 232.254 109.926 234.09 c 108.367 239.121 l 107.43
 234.379 l 106.828 231.332 103.871 229.352 100.82 229.953 c 97.773 230.555
 95.793 233.516 96.395 236.562 c 101.238 261.039 l 101.289 261.305 101.363
 261.57 101.453 261.828 c 102.332 264.297 104.668 265.945 107.281 265.945
 c 107.324 265.945 l 109.953 265.926 112.289 264.242 113.137 261.754 c 113.156
 261.703 113.172 261.652 113.188 261.602 c 115.367 254.559 l 117.535 261.602
 l 117.559 261.68 117.586 261.754 117.613 261.828 c 118.488 264.297 120.828
 265.945 123.441 265.945 c 123.48 265.945 l 126.113 265.926 128.449 264.242
 129.297 261.754 c 129.375 261.52 129.441 261.277 129.488 261.035 c 134.352
 236.613 l 134.957 233.566 132.977 230.605 129.93 230 c h
129.93 230 m f
159.551 229.848 m 149.598 229.848 141.504 237.941 141.504 247.895 c 141.504
 257.848 149.598 265.945 159.551 265.945 c 169.504 265.945 177.602 257.848
 177.602 247.895 c 177.602 237.941 169.504 229.848 159.551 229.848 c h
159.551 254.695 m 155.801 254.695 152.754 251.645 152.754 247.895 c 152.754
 244.145 155.801 241.094 159.551 241.094 c 163.301 241.094 166.352 244.145
 166.352 247.895 c 166.352 251.645 163.301 254.695 159.551 254.695 c h
159.551 254.695 m f
Q Q
showpage
%%Trailer
end
%%EOF
