%!PS-Adobe-3.0 EPSF-3.0
%%Creator: cairo 1.16.0 (https://cairographics.org)
%%CreationDate: Fri Feb  5 09:59:15 2021
%%Pages: 1
%%DocumentData: Clean7Bit
%%LanguageLevel: 2
%%BoundingBox: 0 0 384 384
%%EndComments
%%BeginProlog
50 dict begin
/q { gsave } bind def
/Q { grestore } bind def
/cm { 6 array astore concat } bind def
/w { setlinewidth } bind def
/J { setlinecap } bind def
/j { setlinejoin } bind def
/M { setmiterlimit } bind def
/d { setdash } bind def
/m { moveto } bind def
/l { lineto } bind def
/c { curveto } bind def
/h { closepath } bind def
/re { exch dup neg 3 1 roll 5 3 roll moveto 0 rlineto
      0 exch rlineto 0 rlineto closepath } bind def
/S { stroke } bind def
/f { fill } bind def
/f* { eofill } bind def
/n { newpath } bind def
/W { clip } bind def
/W* { eoclip } bind def
/BT { } bind def
/ET { } bind def
/BDC { mark 3 1 roll /BDC pdfmark } bind def
/EMC { mark /EMC pdfmark } bind def
/cairo_store_point { /cairo_point_y exch def /cairo_point_x exch def } def
/Tj { show currentpoint cairo_store_point } bind def
/TJ {
  {
    dup
    type /stringtype eq
    { show } { -0.001 mul 0 cairo_font_matrix dtransform rmoveto } ifelse
  } forall
  currentpoint cairo_store_point
} bind def
/cairo_selectfont { cairo_font_matrix aload pop pop pop 0 0 6 array astore
    cairo_font exch selectfont cairo_point_x cairo_point_y moveto } bind def
/Tf { pop /cairo_font exch def /cairo_font_matrix where
      { pop cairo_selectfont } if } bind def
/Td { matrix translate cairo_font_matrix matrix concatmatrix dup
      /cairo_font_matrix exch def dup 4 get exch 5 get cairo_store_point
      /cairo_font where { pop cairo_selectfont } if } bind def
/Tm { 2 copy 8 2 roll 6 array astore /cairo_font_matrix exch def
      cairo_store_point /cairo_font where { pop cairo_selectfont } if } bind def
/g { setgray } bind def
/rg { setrgbcolor } bind def
/d1 { setcachedevice } bind def
/cairo_data_source {
  CairoDataIndex CairoData length lt
    { CairoData CairoDataIndex get /CairoDataIndex CairoDataIndex 1 add def }
    { () } ifelse
} def
/cairo_flush_ascii85_file { cairo_ascii85_file status { cairo_ascii85_file flushfile } if } def
/cairo_image { image cairo_flush_ascii85_file } def
/cairo_imagemask { imagemask cairo_flush_ascii85_file } def
%%EndProlog
%%BeginSetup
%%EndSetup
%%Page: 1 1
%%BeginPageSetup
%%PageBoundingBox: 0 0 384 384
%%EndPageSetup
q 0 0 384 384 rectclip
1 0 0 -1 0 384 cm q
0.411765 0.486275 0.52549 rg
18.051 18.059 347.898 24.848 re f
0.980392 0.368627 0.592157 rg
291.398 64.008 m 92.602 64.008 l 82.996 192.008 l 92.598 338.766 l 182.383
 376.445 l 188.535 379.027 195.465 379.027 201.617 376.445 c 291.398 338.766
 l 303.824 192.008 l h
291.398 64.008 m f
0.87451 0.870588 0.960784 rg
308.633 331.531 m 313.246 329.598 316.25 325.078 316.25 320.074 c 316.25
 64.008 l 291.398 64.008 l 291.398 338.766 l h
308.633 331.531 m f
67.75 320.074 m 67.75 325.078 70.754 329.598 75.367 331.531 c 92.598 338.766
 l 92.598 64.008 l 67.75 64.008 l h
67.75 320.074 m f
0.72549 0.713726 0.92549 rg
299 64.008 m 299 327.453 l 299 331.863 296.668 335.891 292.961 338.109 
c 308.633 331.531 l 313.246 329.598 316.25 325.078 316.25 320.074 c 316.25
 64.008 l h
299 64.008 m f
0.992157 0.74902 0 rg
5.625 42.906 m 5.625 49.77 11.188 55.332 18.051 55.332 c 24.91 55.332 30.477
 49.77 30.477 42.906 c 30.477 18.059 l 30.477 11.195 24.914 5.633 18.051
 5.633 c 11.188 5.633 5.625 11.195 5.625 18.059 c h
5.625 42.906 m f
353.523 42.906 m 353.523 49.77 359.09 55.332 365.949 55.332 c 372.812 55.332
 378.375 49.77 378.375 42.906 c 378.375 18.059 l 378.375 11.195 372.812 
5.633 365.949 5.633 c 359.09 5.633 353.523 11.195 353.523 18.059 c h
353.523 42.906 m f
1 0.568627 0 rg
365.949 5.633 m 362.598 5.633 359.559 6.965 357.324 9.125 c 359.664 11.387
 361.125 14.547 361.125 18.059 c 361.125 42.906 l 361.125 46.418 359.664
 49.582 357.324 51.84 c 359.559 53.996 362.598 55.332 365.949 55.332 c 372.812
 55.332 378.375 49.77 378.375 42.906 c 378.375 18.059 l 378.375 11.195 372.812
 5.633 365.949 5.633 c h
365.949 5.633 m f
0.94902 0.94902 0.988235 rg
316.676 5.633 m 291.398 5.633 l 193.41 27.742 l 92.602 5.633 l 67.324 5.633
 l 60.699 5.633 55.324 11.004 55.324 17.633 c 55.324 61.758 l 55.324 65.07
 58.012 67.758 61.324 67.758 c 92.602 67.758 l 192 53.672 l 291.398 67.758
 l 322.676 67.758 l 325.988 67.758 328.676 65.07 328.676 61.758 c 328.676
 17.633 l 328.676 11.004 323.301 5.633 316.676 5.633 c h
316.676 5.633 m f
0.87451 0.870588 0.960784 rg
316.676 5.633 m 299.426 5.633 l 306.051 5.633 311.426 11.004 311.426 17.633
 c 311.426 61.758 l 311.426 65.07 308.738 67.758 305.426 67.758 c 322.676
 67.758 l 325.988 67.758 328.676 65.07 328.676 61.758 c 328.676 17.633 l
 328.676 11.004 323.301 5.633 316.676 5.633 c h
316.676 5.633 m f
0.964706 0.545098 0.596078 rg
92.602 5.633 198.801 62.125 re f
0.937255 0.937255 0.976471 rg
260.336 210.645 m 260.336 248.387 229.742 278.984 192 278.984 c 154.258
 278.984 123.664 248.387 123.664 210.645 c 123.664 172.902 154.258 142.309
 192 142.309 c 210.125 142.309 227.508 149.508 240.32 162.324 c 253.137 
175.141 260.336 192.52 260.336 210.645 c h
260.336 210.645 m f
0.87451 0.870588 0.960784 rg
192 142.309 m 189.078 142.309 186.199 142.492 183.375 142.848 c 217.043
 147.09 243.086 175.824 243.086 210.645 c 243.086 245.465 217.043 274.203
 183.375 278.441 c 186.199 278.797 189.078 278.984 192 278.984 c 229.742
 278.984 260.336 248.387 260.336 210.645 c 260.336 172.902 229.742 142.309
 192 142.309 c h
192 142.309 m f
0.980392 0.368627 0.592157 rg
222.477 192.008 m 222.477 175.203 208.805 161.531 192 161.531 c 175.195
 161.531 161.523 175.203 161.523 192.008 c 161.523 206.891 172.25 219.305
 186.375 221.953 c 186.375 229.871 l 179.574 229.871 l 176.469 229.871 173.949
 232.391 173.949 235.496 c 173.949 238.602 176.469 241.121 179.574 241.121
 c 186.375 241.121 l 186.375 254.133 l 186.375 257.238 188.891 259.758 192
 259.758 c 195.105 259.758 197.625 257.238 197.625 254.133 c 197.625 241.121
 l 204.426 241.121 l 207.531 241.121 210.051 238.602 210.051 235.496 c 210.051
 232.391 207.531 229.871 204.426 229.871 c 197.625 229.871 l 197.625 221.953
 l 211.75 219.305 222.477 206.891 222.477 192.008 c h
172.773 192.008 m 172.773 181.406 181.398 172.781 192 172.781 c 202.602
 172.781 211.227 181.406 211.227 192.008 c 211.227 202.609 202.602 211.23
 192 211.23 c 181.398 211.234 172.773 202.609 172.773 192.008 c h
172.773 192.008 m f
0 g
192 161.531 m 175.195 161.531 161.523 175.203 161.523 192.008 c 161.523
 206.891 172.25 219.305 186.375 221.953 c 186.375 229.871 l 179.574 229.871
 l 176.469 229.871 173.949 232.387 173.949 235.496 c 173.949 238.602 176.469
 241.121 179.574 241.121 c 186.375 241.121 l 186.375 254.133 l 186.375 257.238
 188.895 259.758 192 259.758 c 195.105 259.758 197.625 257.238 197.625 254.133
 c 197.625 241.121 l 204.426 241.121 l 207.531 241.121 210.051 238.602 210.051
 235.496 c 210.051 232.387 207.531 229.871 204.426 229.871 c 197.625 229.871
 l 197.625 221.953 l 211.75 219.305 222.477 206.891 222.477 192.008 c 222.477
 175.203 208.805 161.531 192 161.531 c h
192 211.234 m 181.398 211.234 172.773 202.609 172.773 192.008 c 172.773
 181.406 181.398 172.785 192 172.785 c 202.602 172.785 211.227 181.406 211.227
 192.008 c 211.227 202.609 202.602 211.234 192 211.234 c h
192 211.234 m f
192 136.684 m 151.219 136.684 118.039 169.863 118.039 210.645 c 118.039
 251.43 151.215 284.609 192 284.609 c 232.785 284.609 265.961 251.43 265.961
 210.645 c 265.961 169.863 232.781 136.684 192 136.684 c h
192 273.359 m 157.422 273.359 129.289 245.227 129.289 210.645 c 129.289
 176.066 157.418 147.934 192 147.934 c 226.582 147.934 254.711 176.066 254.711
 210.645 c 254.711 245.227 226.578 273.359 192 273.359 c h
192 273.359 m f
365.949 0.008 m 357.961 0.008 351.172 5.227 348.801 12.434 c 333.516 12.434
 l 331.293 5.246 324.586 0.008 316.676 0.008 c 266.875 0.008 l 263.766 0.008
 261.25 2.527 261.25 5.633 c 261.25 8.738 263.766 11.258 266.875 11.258 
c 285.777 11.258 l 285.777 62.133 l 98.227 62.133 l 98.227 11.258 l 244.375
 11.258 l 247.48 11.258 250 8.738 250 5.633 c 250 2.527 247.48 0.008 244.375
 0.008 c 67.324 0.008 l 59.414 0.008 52.707 5.246 50.484 12.434 c 35.199
 12.434 l 32.828 5.227 26.039 0.008 18.051 0.008 c 8.098 0.008 0 8.105 0
 18.059 c 0 42.906 l 0 52.859 8.098 60.957 18.051 60.957 c 26.039 60.957
 32.828 55.738 35.199 48.531 c 49.699 48.531 l 49.699 61.758 l 49.699 68.168
 54.914 73.383 61.324 73.383 c 62.125 73.383 l 62.125 111.832 l 62.125 114.938
 64.645 117.457 67.75 117.457 c 70.855 117.457 73.375 114.938 73.375 111.832
 c 73.375 98.234 l 86.973 98.234 l 86.973 330.305 l 77.543 326.348 l 75.012
 325.285 73.375 322.82 73.375 320.074 c 73.375 134.227 l 73.375 131.121 
70.855 128.602 67.75 128.602 c 64.645 128.602 62.125 131.121 62.125 134.227
 c 62.125 320.074 l 62.125 327.367 66.469 333.898 73.191 336.719 c 180.207
 381.633 l 183.953 383.207 187.977 383.992 192 383.992 c 196.023 383.992
 200.047 383.207 203.793 381.633 c 310.812 336.719 l 317.531 333.898 321.875
 327.363 321.875 320.074 c 321.875 73.383 l 322.676 73.383 l 329.086 73.383
 334.301 68.168 334.301 61.758 c 334.301 48.531 l 348.801 48.531 l 351.172
 55.738 357.961 60.957 365.949 60.957 c 375.902 60.957 384 52.859 384 42.906
 c 384 18.059 l 384 8.105 375.902 0.008 365.949 0.008 c h
98.227 73.383 m 285.773 73.383 l 285.773 86.984 l 98.227 86.984 l h
18.051 49.707 m 14.301 49.707 11.25 46.656 11.25 42.91 c 11.25 18.059 l
 11.25 14.309 14.301 11.258 18.051 11.258 c 21.801 11.258 24.852 14.309 
24.852 18.059 c 24.852 42.906 l 24.852 46.656 21.801 49.707 18.051 49.707
 c h
36.102 37.281 m 36.102 23.684 l 49.699 23.684 l 49.699 37.281 l h
60.949 61.758 m 60.949 17.633 l 60.949 14.117 63.809 11.258 67.324 11.258
 c 86.977 11.258 l 86.977 62.133 l 61.324 62.133 l 61.117 62.133 60.949 
61.965 60.949 61.758 c h
73.375 86.984 m 73.375 73.383 l 86.973 73.383 l 86.973 86.984 l h
199.441 371.258 m 194.711 373.246 189.289 373.246 184.559 371.258 c 98.227
 335.027 l 98.227 98.234 l 285.773 98.234 l 285.773 335.027 l h
306.457 326.348 m 297.023 330.305 l 297.023 98.234 l 310.625 98.234 l 310.625
 320.074 l 310.625 322.82 308.988 325.285 306.457 326.348 c h
310.625 86.984 m 297.023 86.984 l 297.023 73.383 l 310.625 73.383 l h
323.051 61.758 m 323.051 61.965 322.883 62.133 322.676 62.133 c 297.023
 62.133 l 297.023 11.258 l 316.676 11.258 l 320.191 11.258 323.051 14.117
 323.051 17.633 c h
334.301 23.684 m 347.898 23.684 l 347.898 37.281 l 334.301 37.281 l h
372.75 42.906 m 372.75 46.656 369.699 49.707 365.949 49.707 c 362.199 49.707
 359.148 46.656 359.148 42.906 c 359.148 18.059 l 359.148 14.309 362.199
 11.258 365.949 11.258 c 369.699 11.258 372.75 14.309 372.75 18.059 c h
372.75 42.906 m f
Q Q
showpage
%%Trailer
end
%%EOF
