%!PS-Adobe-3.0 EPSF-3.0
%%Creator: cairo 1.16.0 (https://cairographics.org)
%%CreationDate: Fri Feb  5 09:59:15 2021
%%Pages: 1
%%DocumentData: Clean7Bit
%%LanguageLevel: 2
%%BoundingBox: 0 0 384 384
%%EndComments
%%BeginProlog
50 dict begin
/q { gsave } bind def
/Q { grestore } bind def
/cm { 6 array astore concat } bind def
/w { setlinewidth } bind def
/J { setlinecap } bind def
/j { setlinejoin } bind def
/M { setmiterlimit } bind def
/d { setdash } bind def
/m { moveto } bind def
/l { lineto } bind def
/c { curveto } bind def
/h { closepath } bind def
/re { exch dup neg 3 1 roll 5 3 roll moveto 0 rlineto
      0 exch rlineto 0 rlineto closepath } bind def
/S { stroke } bind def
/f { fill } bind def
/f* { eofill } bind def
/n { newpath } bind def
/W { clip } bind def
/W* { eoclip } bind def
/BT { } bind def
/ET { } bind def
/BDC { mark 3 1 roll /BDC pdfmark } bind def
/EMC { mark /EMC pdfmark } bind def
/cairo_store_point { /cairo_point_y exch def /cairo_point_x exch def } def
/Tj { show currentpoint cairo_store_point } bind def
/TJ {
  {
    dup
    type /stringtype eq
    { show } { -0.001 mul 0 cairo_font_matrix dtransform rmoveto } ifelse
  } forall
  currentpoint cairo_store_point
} bind def
/cairo_selectfont { cairo_font_matrix aload pop pop pop 0 0 6 array astore
    cairo_font exch selectfont cairo_point_x cairo_point_y moveto } bind def
/Tf { pop /cairo_font exch def /cairo_font_matrix where
      { pop cairo_selectfont } if } bind def
/Td { matrix translate cairo_font_matrix matrix concatmatrix dup
      /cairo_font_matrix exch def dup 4 get exch 5 get cairo_store_point
      /cairo_font where { pop cairo_selectfont } if } bind def
/Tm { 2 copy 8 2 roll 6 array astore /cairo_font_matrix exch def
      cairo_store_point /cairo_font where { pop cairo_selectfont } if } bind def
/g { setgray } bind def
/rg { setrgbcolor } bind def
/d1 { setcachedevice } bind def
/cairo_data_source {
  CairoDataIndex CairoData length lt
    { CairoData CairoDataIndex get /CairoDataIndex CairoDataIndex 1 add def }
    { () } ifelse
} def
/cairo_flush_ascii85_file { cairo_ascii85_file status { cairo_ascii85_file flushfile } if } def
/cairo_image { image cairo_flush_ascii85_file } def
/cairo_imagemask { imagemask cairo_flush_ascii85_file } def
%%EndProlog
%%BeginSetup
%%EndSetup
%%Page: 1 1
%%BeginPageSetup
%%PageBoundingBox: 0 0 384 384
%%EndPageSetup
q 0 0 384 384 rectclip
1 0 0 -1 0 384 cm q
1 0.568627 0 rg
5.625 328.676 m 5.625 365.949 l 5.625 372.812 11.188 378.375 18.051 378.375
 c 55.324 378.375 l 192 364.836 l 328.676 378.375 l 365.949 378.375 l 372.812
 378.375 378.375 372.812 378.375 365.949 c 378.375 328.676 l h
5.625 328.676 m f
0.85098 0.309804 0.533333 rg
55.324 341.102 273.352 37.273 re f
1 0.364706 0 rg
361.125 328.676 m 361.125 365.949 l 361.125 372.812 355.562 378.375 348.699
 378.375 c 365.949 378.375 l 372.812 378.375 378.375 372.812 378.375 365.949
 c 378.375 328.676 l h
361.125 328.676 m f
1 0.568627 0 rg
167.148 341.102 49.703 37.273 re f
1 0.364706 0 rg
199.602 341.102 17.25 37.273 re f
0.980392 0.368627 0.592157 rg
378.375 167.148 m 192 142.301 l 5.625 167.148 l 5.625 303.824 l 55.324 
353.523 l 167.148 353.523 l 192 337.301 l 216.852 353.523 l 328.676 353.523
 l 378.375 303.824 l h
378.375 167.148 m f
0.992157 0.74902 0 rg
167.148 321.074 49.703 32.449 re f
1 0.568627 0 rg
199.602 321.074 17.25 32.449 re f
0.85098 0.309804 0.533333 rg
378.375 303.824 m 378.375 167.148 l 361.125 164.852 l 361.125 321.074 l
 h
378.375 303.824 m f
0.992157 0.74902 0 rg
365.949 117.449 m 18.051 117.449 l 11.188 117.449 5.625 123.012 5.625 129.875
 c 5.625 167.148 l 378.375 167.148 l 378.375 129.875 l 378.375 123.012 372.812
 117.449 365.949 117.449 c h
365.949 117.449 m f
1 0.568627 0 rg
365.949 117.449 m 348.699 117.449 l 355.562 117.449 361.125 123.012 361.125
 129.875 c 361.125 167.148 l 378.375 167.148 l 378.375 129.875 l 378.375
 123.012 372.812 117.449 365.949 117.449 c h
365.949 117.449 m f
0.992157 0.74902 0 rg
30.477 303.824 m 5.625 303.824 l 5.625 341.102 l 5.625 347.961 11.188 353.523
 18.051 353.523 c 55.324 353.523 l 55.324 328.676 l h
30.477 303.824 m f
378.375 341.102 m 378.375 303.824 l 353.523 303.824 l 328.676 328.676 l
 328.676 353.523 l 365.949 353.523 l 372.812 353.523 378.375 347.961 378.375
 341.102 c h
378.375 341.102 m f
0.94902 0.94902 0.988235 rg
30.477 266.551 m 30.477 316.25 l 30.477 323.113 36.039 328.676 42.898 328.676
 c 341.102 328.676 l 347.961 328.676 353.523 323.113 353.523 316.25 c 353.523
 266.551 l h
30.477 266.551 m f
0.87451 0.870588 0.960784 rg
336.273 266.551 m 336.273 316.25 l 336.273 323.113 330.711 328.676 323.852
 328.676 c 341.102 328.676 l 347.961 328.676 353.523 323.113 353.523 316.25
 c 353.523 266.551 l h
336.273 266.551 m f
167.148 278.977 m 30.477 266.551 l 30.477 268.117 l 149.898 278.977 l 163.625
 278.977 174.75 290.102 174.75 303.824 c 174.75 328.676 l 192 328.676 l 
192 303.824 l 192 290.102 180.875 278.977 167.148 278.977 c h
167.148 278.977 m f
341.102 92.602 m 42.898 92.602 l 36.039 92.602 30.477 98.164 30.477 105.027
 c 30.477 266.551 l 30.477 273.414 36.039 278.977 42.898 278.977 c 167.148
 278.977 l 177.477 278.977 186.328 285.273 190.078 294.238 c 190.402 295.012
 191.164 295.508 192 295.508 c 192.836 295.508 193.598 295.012 193.922 294.238
 c 197.672 285.273 206.523 278.977 216.852 278.977 c 341.102 278.977 l 347.961
 278.977 353.523 273.414 353.523 266.551 c 353.523 105.023 l 353.523 98.164
 347.961 92.602 341.102 92.602 c h
341.102 92.602 m f
0.411765 0.486275 0.52549 rg
310.25 167.148 m 247.699 167.148 l 244.387 167.148 241.699 164.465 241.699
 161.148 c 241.699 148.301 l 241.699 144.988 244.387 142.301 247.699 142.301
 c 310.25 142.301 l 313.562 142.301 316.25 144.988 316.25 148.301 c 316.25
 161.148 l 316.25 164.465 313.562 167.148 310.25 167.148 c h
310.25 167.148 m f
0.980392 0.368627 0.592157 rg
116.613 166.531 m 115.469 167.527 114.477 168.625 113.641 169.797 c 112.473
 171.426 110.004 171.426 108.836 169.797 c 107.996 168.625 107.004 167.527
 105.863 166.531 c 98.883 160.469 88.277 160.516 81.348 166.641 c 73.219
 173.824 72.934 186.254 80.488 193.809 c 106.844 220.164 l 109.27 222.59
 113.203 222.59 115.629 220.164 c 141.988 193.809 l 149.543 186.25 149.258
 173.824 141.125 166.641 c 134.199 160.516 123.594 160.469 116.613 166.531
 c h
116.613 166.531 m f
0.278431 0.309804 0.329412 rg
310.25 142.301 m 293 142.301 l 296.312 142.301 299 144.984 299 148.301 
c 299 161.148 l 299 164.465 296.312 167.148 293 167.148 c 310.25 167.148
 l 313.562 167.148 316.25 164.465 316.25 161.148 c 316.25 148.301 l 316.25
 144.984 313.562 142.301 310.25 142.301 c h
310.25 142.301 m f
0.85098 0.309804 0.533333 rg
141.125 166.641 m 135.297 161.488 126.871 160.656 120.184 164.129 c 121.492
 164.805 122.734 165.633 123.875 166.641 c 132.008 173.824 132.293 186.254
 124.738 193.809 c 102.613 215.934 l 106.844 220.164 l 109.27 222.59 113.203
 222.59 115.629 220.164 c 141.988 193.809 l 149.543 186.254 149.258 173.824
 141.125 166.641 c h
141.125 166.641 m f
0.72549 0.713726 0.92549 rg
341.102 92.602 m 323.852 92.602 l 330.711 92.602 336.273 98.164 336.273
 105.027 c 336.273 266.551 l 336.273 273.414 330.711 278.977 323.852 278.977
 c 341.102 278.977 l 347.961 278.977 353.523 273.414 353.523 266.551 c 353.523
 105.023 l 353.523 98.164 347.961 92.602 341.102 92.602 c h
341.102 92.602 m f
1 0.568627 0 rg
361.125 303.824 m 361.125 341.102 l 361.125 347.961 355.562 353.523 348.699
 353.523 c 365.949 353.523 l 372.812 353.523 378.375 347.961 378.375 341.102
 c 378.375 303.824 l h
361.125 303.824 m f
0.937255 0.937255 0.976471 rg
240.285 25.66 m 266.969 52.344 266.969 95.605 240.285 122.289 c 213.602
 148.973 170.34 148.973 143.656 122.289 c 116.973 95.605 116.973 52.344 
143.656 25.66 c 156.473 12.848 173.852 5.648 191.973 5.648 c 210.094 5.648
 227.473 12.848 240.285 25.66 c h
240.285 25.66 m f
0.87451 0.870588 0.960784 rg
192 5.625 m 189.078 5.625 186.199 5.809 183.375 6.164 c 217.043 10.406 
243.086 39.141 243.086 73.961 c 243.086 108.781 217.043 137.52 183.375 141.758
 c 186.199 142.117 189.078 142.301 192 142.301 c 229.742 142.301 260.336
 111.703 260.336 73.961 c 260.336 36.219 229.742 5.625 192 5.625 c h
192 5.625 m f
0 g
197.625 117.449 m 197.625 104.438 l 204.426 104.438 l 207.531 104.438 210.051
 101.918 210.051 98.812 c 210.051 95.707 207.531 93.188 204.426 93.188 c
 197.625 93.188 l 197.625 85.27 l 211.75 82.625 222.477 70.207 222.477 55.324
 c 222.477 38.523 208.805 24.852 192 24.852 c 175.195 24.852 161.523 38.523
 161.523 55.324 c 161.523 70.207 172.25 82.625 186.375 85.27 c 186.375 93.188
 l 179.574 93.188 l 176.469 93.188 173.949 95.707 173.949 98.812 c 173.949
 101.918 176.469 104.438 179.574 104.438 c 186.375 104.438 l 186.375 117.449
 l 186.375 120.555 188.895 123.074 192 123.074 c 195.105 123.074 197.625
 120.555 197.625 117.449 c h
172.773 55.324 m 172.773 44.727 181.398 36.102 192 36.102 c 202.602 36.102
 211.227 44.727 211.227 55.324 c 211.227 65.926 202.602 74.551 192 74.551
 c 181.398 74.551 172.773 65.926 172.773 55.324 c h
172.773 55.324 m f
236.074 148.301 m 236.074 161.148 l 236.074 167.559 241.289 172.773 247.699
 172.773 c 310.25 172.773 l 316.66 172.773 321.875 167.559 321.875 161.148
 c 321.875 148.301 l 321.875 141.891 316.66 136.676 310.25 136.676 c 247.699
 136.676 l 241.289 136.676 236.074 141.891 236.074 148.301 c h
247.324 148.301 m 247.324 148.094 247.492 147.926 247.699 147.926 c 310.25
 147.926 l 310.457 147.926 310.625 148.094 310.625 148.301 c 310.625 161.148
 l 310.625 161.355 310.457 161.523 310.25 161.523 c 247.699 161.523 l 247.492
 161.523 247.324 161.355 247.324 161.148 c h
247.324 148.301 m f
365.949 111.824 m 359.152 111.824 l 359.152 105.023 l 359.152 95.07 351.055
 86.977 341.102 86.977 c 264.816 86.977 l 265.57 82.75 265.961 78.402 265.961
 73.961 c 265.961 33.18 232.785 0 192 0 c 151.219 0 118.039 33.18 118.039
 73.961 c 118.039 78.402 118.43 82.75 119.184 86.977 c 86.277 86.977 l 83.172
 86.977 80.652 89.492 80.652 92.602 c 80.652 95.707 83.172 98.227 86.277
 98.227 c 122.129 98.227 l 131.605 125.434 156.547 145.457 186.375 147.711
 c 186.375 280.199 l 181.125 275.922 174.434 273.352 167.148 273.352 c 42.898
 273.352 l 39.148 273.352 36.102 270.301 36.102 266.551 c 36.102 105.023
 l 36.102 101.277 39.148 98.227 42.898 98.227 c 63.777 98.227 l 66.883 98.227
 69.402 95.707 69.402 92.602 c 69.402 89.492 66.883 86.977 63.777 86.977
 c 42.898 86.977 l 32.945 86.977 24.852 95.07 24.852 105.023 c 24.852 111.824
 l 18.051 111.824 l 8.098 111.824 0 119.922 0 129.875 c 0 190.273 l 0 193.379
 2.52 195.898 5.625 195.898 c 8.73 195.898 11.25 193.379 11.25 190.273 c
 11.25 172.773 l 24.852 172.773 l 24.852 298.199 l 11.25 298.199 l 11.25
 212.77 l 11.25 209.664 8.73 207.145 5.625 207.145 c 2.52 207.145 0 209.664
 0 212.77 c 0 365.949 l 0 375.902 8.098 384 18.051 384 c 365.949 384 l 375.902
 384 384 375.902 384 365.949 c 384 129.875 l 384 119.922 375.902 111.824
 365.949 111.824 c h
36.102 309.449 m 185.785 309.449 l 185.984 309.449 186.18 309.441 186.375
 309.418 c 186.375 323.051 l 42.898 323.051 l 39.148 323.051 36.102 320 
36.102 316.25 c h
216.852 284.602 m 341.102 284.602 l 343.504 284.602 345.801 284.125 347.898
 283.266 c 347.898 298.199 l 198.465 298.199 l 200.879 290.336 208.207 284.602
 216.852 284.602 c h
323.051 347.898 m 222.477 347.898 l 222.477 334.301 l 323.051 334.301 l
 h
197.625 323.051 m 197.625 309.418 l 197.816 309.441 198.016 309.449 198.211
 309.449 c 347.898 309.449 l 347.898 316.25 l 347.898 320 344.852 323.051
 341.102 323.051 c h
359.148 172.773 m 372.75 172.773 l 372.75 298.199 l 359.148 298.199 l h
161.523 334.301 m 161.523 347.898 l 60.949 347.898 l 60.949 334.301 l h
60.949 359.148 m 161.523 359.148 l 161.523 372.75 l 60.949 372.75 l h
172.773 334.301 m 211.227 334.301 l 211.227 347.898 l 172.773 347.898 l
 h
222.477 359.148 m 323.051 359.148 l 323.051 372.75 l 222.477 372.75 l h
334.301 334.301 m 341.098 334.301 l 351.051 334.301 359.148 326.203 359.148
 316.25 c 359.148 309.449 l 372.75 309.449 l 372.75 341.102 l 372.75 344.848
 369.699 347.898 365.949 347.898 c 334.301 347.898 l h
365.949 123.074 m 369.699 123.074 372.75 126.125 372.75 129.875 c 372.75
 161.523 l 359.148 161.523 l 359.148 123.074 l h
341.102 98.227 m 344.852 98.227 347.898 101.277 347.898 105.023 c 347.898
 117.438 l 347.898 117.441 347.898 117.445 347.898 117.449 c 347.898 117.453
 347.898 117.461 347.898 117.465 c 347.898 266.551 l 347.898 270.301 344.852
 273.352 341.102 273.352 c 216.852 273.352 l 209.566 273.352 202.875 275.922
 197.625 280.199 c 197.625 147.711 l 227.453 145.457 252.395 125.434 261.871
 98.227 c h
129.289 73.961 m 129.289 39.383 157.422 11.25 192 11.25 c 226.578 11.25
 254.711 39.383 254.711 73.961 c 254.711 108.543 226.578 136.676 192 136.676
 c 157.422 136.676 129.289 108.543 129.289 73.961 c h
42.898 284.602 m 167.148 284.602 l 175.793 284.602 183.121 290.336 185.535
 298.199 c 36.102 298.199 l 36.102 283.266 l 38.199 284.125 40.496 284.602
 42.898 284.602 c h
11.25 161.523 m 11.25 129.875 l 11.25 126.125 14.301 123.074 18.051 123.074
 c 24.852 123.074 l 24.852 161.527 l 11.25 161.527 l h
24.852 309.449 m 24.852 316.25 l 24.852 326.203 32.945 334.301 42.898 334.301
 c 49.699 334.301 l 49.699 347.898 l 18.051 347.898 l 14.301 347.898 11.25
 344.848 11.25 341.098 c 11.25 309.449 l h
11.25 365.949 m 11.25 357.816 l 13.352 358.672 15.645 359.148 18.051 359.148
 c 49.699 359.148 l 49.699 372.75 l 18.051 372.75 l 14.301 372.75 11.25 
369.699 11.25 365.949 c h
172.773 372.75 m 172.773 359.148 l 211.227 359.148 l 211.227 372.75 l h
365.949 372.75 m 334.301 372.75 l 334.301 359.148 l 365.949 359.148 l 368.355
 359.148 370.648 358.676 372.75 357.816 c 372.75 365.949 l 372.75 369.699
 369.699 372.75 365.949 372.75 c h
365.949 372.75 m f
102.867 224.141 m 105.176 226.449 108.207 227.602 111.238 227.602 c 114.27
 227.602 117.301 226.449 119.609 224.141 c 145.965 197.785 l 150.68 193.07
 153.266 186.543 153.059 179.879 c 152.852 173.117 149.938 166.918 144.852
 162.426 c 135.781 154.41 122.059 154.352 112.926 162.285 c 112.336 162.797
 111.773 163.336 111.238 163.898 c 110.703 163.336 110.141 162.797 109.551
 162.285 c 100.418 154.352 86.691 154.41 77.625 162.422 c 72.539 166.918
 69.625 173.117 69.414 179.875 c 69.211 186.543 71.797 193.07 76.512 197.785
 c h
85.074 170.855 m 87.477 168.73 90.574 167.668 93.668 167.668 c 96.727 167.668
 99.781 168.703 102.172 170.781 c 103.914 172.293 105.18 174.141 105.934
 176.281 c 106.727 178.527 108.852 180.031 111.238 180.031 c 113.621 180.031
 115.746 178.527 116.539 176.281 c 117.297 174.141 118.562 172.293 120.301
 170.781 c 125.113 166.602 132.625 166.633 137.402 170.855 c 140.137 173.273
 141.703 176.598 141.816 180.223 c 141.926 183.852 140.574 187.266 138.008
 189.832 c 111.652 216.188 l 111.422 216.418 111.051 216.418 110.82 216.188
 c 84.465 189.832 l 81.898 187.266 80.547 183.852 80.66 180.223 c 80.77 
176.598 82.34 173.27 85.074 170.855 c h
85.074 170.855 m f
Q Q
showpage
%%Trailer
end
%%EOF
