%!PS-Adobe-3.0 EPSF-3.0
%%Creator: cairo 1.16.0 (https://cairographics.org)
%%CreationDate: Fri Feb  5 09:59:17 2021
%%Pages: 1
%%DocumentData: Clean7Bit
%%LanguageLevel: 2
%%BoundingBox: 12 0 372 384
%%EndComments
%%BeginProlog
50 dict begin
/q { gsave } bind def
/Q { grestore } bind def
/cm { 6 array astore concat } bind def
/w { setlinewidth } bind def
/J { setlinecap } bind def
/j { setlinejoin } bind def
/M { setmiterlimit } bind def
/d { setdash } bind def
/m { moveto } bind def
/l { lineto } bind def
/c { curveto } bind def
/h { closepath } bind def
/re { exch dup neg 3 1 roll 5 3 roll moveto 0 rlineto
      0 exch rlineto 0 rlineto closepath } bind def
/S { stroke } bind def
/f { fill } bind def
/f* { eofill } bind def
/n { newpath } bind def
/W { clip } bind def
/W* { eoclip } bind def
/BT { } bind def
/ET { } bind def
/BDC { mark 3 1 roll /BDC pdfmark } bind def
/EMC { mark /EMC pdfmark } bind def
/cairo_store_point { /cairo_point_y exch def /cairo_point_x exch def } def
/Tj { show currentpoint cairo_store_point } bind def
/TJ {
  {
    dup
    type /stringtype eq
    { show } { -0.001 mul 0 cairo_font_matrix dtransform rmoveto } ifelse
  } forall
  currentpoint cairo_store_point
} bind def
/cairo_selectfont { cairo_font_matrix aload pop pop pop 0 0 6 array astore
    cairo_font exch selectfont cairo_point_x cairo_point_y moveto } bind def
/Tf { pop /cairo_font exch def /cairo_font_matrix where
      { pop cairo_selectfont } if } bind def
/Td { matrix translate cairo_font_matrix matrix concatmatrix dup
      /cairo_font_matrix exch def dup 4 get exch 5 get cairo_store_point
      /cairo_font where { pop cairo_selectfont } if } bind def
/Tm { 2 copy 8 2 roll 6 array astore /cairo_font_matrix exch def
      cairo_store_point /cairo_font where { pop cairo_selectfont } if } bind def
/g { setgray } bind def
/rg { setrgbcolor } bind def
/d1 { setcachedevice } bind def
/cairo_data_source {
  CairoDataIndex CairoData length lt
    { CairoData CairoDataIndex get /CairoDataIndex CairoDataIndex 1 add def }
    { () } ifelse
} def
/cairo_flush_ascii85_file { cairo_ascii85_file status { cairo_ascii85_file flushfile } if } def
/cairo_image { image cairo_flush_ascii85_file } def
/cairo_imagemask { imagemask cairo_flush_ascii85_file } def
%%EndProlog
%%BeginSetup
%%EndSetup
%%Page: 1 1
%%BeginPageSetup
%%PageBoundingBox: 12 0 372 384
%%EndPageSetup
q 12 0 360 384 rectclip
1 0 0 -1 0 384 cm q
0.784314 0.427451 0.211765 rg
210.637 372.164 m 210.637 375.594 207.855 378.375 204.426 378.375 c 179.574
 378.375 l 176.145 378.375 173.363 375.594 173.363 372.164 c 173.363 287.797
 l 210.637 287.797 l h
210.637 372.164 m f
0.741176 0.345098 0.2 rg
193.387 287.793 m 193.387 372.16 l 193.387 375.594 190.605 378.375 187.176
 378.375 c 204.426 378.375 l 207.855 378.375 210.637 375.594 210.637 372.16
 c 210.637 287.793 l h
193.387 287.793 m f
0.862745 0.529412 0.345098 rg
300.75 353.523 m 83.25 353.523 l 90.637 328.676 l 293.363 328.676 l h
300.75 353.523 m f
0.784314 0.427451 0.211765 rg
293.363 328.676 m 272.078 328.676 l 279.461 353.523 l 300.75 353.523 l 
h
293.363 328.676 m f
0.862745 0.529412 0.345098 rg
105.023 291.543 m 105.023 287.793 l 67.75 287.793 l 67.75 291.543 l 45.168
 370.453 l 44.031 374.422 47.012 378.375 51.141 378.375 c 75.492 378.375
 l 78.266 378.375 80.699 376.539 81.465 373.871 c h
105.023 291.543 m f
278.977 291.543 m 278.977 287.793 l 316.25 287.793 l 316.25 291.543 l 338.832
 370.453 l 339.969 374.422 336.988 378.375 332.859 378.375 c 308.508 378.375
 l 305.738 378.375 303.301 376.535 302.535 373.871 c h
278.977 291.543 m f
0.784314 0.427451 0.211765 rg
338.832 370.453 m 316.25 291.547 l 316.25 287.797 l 299 287.797 l 299 291.547
 l 321.582 370.453 l 322.719 374.422 319.738 378.375 315.609 378.375 c 332.859
 378.375 l 336.988 378.375 339.969 374.422 338.832 370.453 c h
338.832 370.453 m f
87.773 287.793 m 87.773 291.543 l 64.215 373.871 l 63.449 376.539 61.012
 378.375 58.242 378.375 c 75.492 378.375 l 78.262 378.375 80.699 376.539
 81.465 373.871 c 105.023 291.547 l 105.023 287.797 l 87.773 287.797 l h
87.773 287.793 m f
210.637 39.75 m 210.637 11.836 l 210.637 8.406 207.855 5.625 204.426 5.625
 c 179.574 5.625 l 176.145 5.625 173.363 8.406 173.363 11.836 c 173.363 
39.75 l h
210.637 39.75 m f
0.741176 0.345098 0.2 rg
204.426 5.625 m 187.176 5.625 l 190.605 5.625 193.387 8.406 193.387 11.836
 c 193.387 39.75 l 210.637 39.75 l 210.637 11.836 l 210.637 8.406 207.855
 5.625 204.426 5.625 c h
204.426 5.625 m f
0.937255 0.937255 0.976471 rg
30.477 51.207 323.047 219.461 re f
0.87451 0.870588 0.960784 rg
336.273 51.207 17.25 219.461 re f
0.862745 0.529412 0.345098 rg
359.949 55.324 m 24.051 55.324 l 20.738 55.324 18.051 52.641 18.051 49.324
 c 18.051 36.477 l 18.051 33.16 20.738 30.477 24.051 30.477 c 359.949 30.477
 l 363.262 30.477 365.949 33.16 365.949 36.477 c 365.949 49.324 l 365.949
 52.641 363.266 55.324 359.949 55.324 c h
359.949 55.324 m f
359.949 266.551 m 24.051 266.551 l 20.738 266.551 18.051 269.238 18.051
 272.551 c 18.051 285.398 l 18.051 288.715 20.738 291.398 24.051 291.398
 c 142.301 291.398 l 192 272.762 l 241.699 291.398 l 359.949 291.398 l 363.262
 291.398 365.949 288.715 365.949 285.398 c 365.949 272.551 l 365.949 269.238
 363.266 266.551 359.949 266.551 c h
359.949 266.551 m f
0.992157 0.74902 0 rg
241.699 291.402 m 241.699 260.336 l 241.699 256.906 238.918 254.125 235.488
 254.125 c 148.512 254.125 l 145.082 254.125 142.301 256.906 142.301 260.336
 c 142.301 291.402 l h
241.699 291.402 m f
0.784314 0.427451 0.211765 rg
359.949 30.477 m 342.699 30.477 l 346.012 30.477 348.699 33.16 348.699 
36.477 c 348.699 49.324 l 348.699 52.637 346.012 55.324 342.699 55.324 c
 359.949 55.324 l 363.262 55.324 365.949 52.637 365.949 49.324 c 365.949
 36.477 l 365.949 33.16 363.266 30.477 359.949 30.477 c h
359.949 30.477 m f
359.949 266.551 m 342.699 266.551 l 346.012 266.551 348.699 269.238 348.699
 272.551 c 348.699 285.398 l 348.699 288.715 346.012 291.398 342.699 291.398
 c 359.949 291.398 l 363.262 291.398 365.949 288.715 365.949 285.398 c 365.949
 272.551 l 365.949 269.238 363.266 266.551 359.949 266.551 c h
359.949 266.551 m f
1 0.568627 0 rg
235.488 254.125 m 218.238 254.125 l 221.668 254.125 224.449 256.906 224.449
 260.336 c 224.449 291.398 l 241.699 291.398 l 241.699 260.336 l 241.699
 256.906 238.918 254.125 235.488 254.125 c h
235.488 254.125 m f
0 g
359.949 60.949 m 366.359 60.949 371.574 55.734 371.574 49.324 c 371.574
 36.477 l 371.574 30.066 366.359 24.852 359.949 24.852 c 216.262 24.852 
l 216.262 11.836 l 216.262 5.309 210.953 0 204.426 0 c 179.574 0 l 173.047
 0 167.738 5.309 167.738 11.836 c 167.738 24.852 l 24.051 24.852 l 17.641
 24.852 12.426 30.066 12.426 36.477 c 12.426 49.324 l 12.426 55.734 17.641
 60.949 24.051 60.949 c 24.852 60.949 l 24.852 74.883 l 24.852 77.988 27.367
 80.508 30.477 80.508 c 33.582 80.508 36.102 77.988 36.102 74.883 c 36.102
 60.949 l 347.898 60.949 l 347.898 260.926 l 247.324 260.926 l 247.324 260.336
 l 247.324 253.809 242.016 248.5 235.488 248.5 c 148.512 248.5 l 141.984
 248.5 136.676 253.809 136.676 260.336 c 136.676 260.926 l 36.102 260.926
 l 36.102 97.383 l 36.102 94.277 33.582 91.758 30.477 91.758 c 27.367 91.758
 24.852 94.277 24.852 97.383 c 24.852 260.926 l 24.051 260.926 l 17.641 
260.926 12.426 266.141 12.426 272.551 c 12.426 285.398 l 12.426 291.809 
17.641 297.023 24.051 297.023 c 60.332 297.023 l 39.758 368.906 l 38.727
 372.512 39.43 376.297 41.691 379.289 c 43.945 382.285 47.391 384 51.141
 384 c 75.492 384 l 80.746 384 85.426 380.473 86.871 375.418 c 91.527 359.148
 l 167.738 359.148 l 167.738 372.164 l 167.738 378.691 173.047 384 179.574
 384 c 204.426 384 l 210.953 384 216.262 378.691 216.262 372.164 c 216.262
 359.148 l 292.473 359.148 l 297.129 375.418 l 298.574 380.473 303.254 384
 308.508 384 c 332.859 384 l 336.609 384 340.055 382.285 342.312 379.289
 c 344.57 376.297 345.273 372.512 344.242 368.906 c 323.668 297.023 l 359.949
 297.023 l 366.359 297.023 371.574 291.809 371.574 285.398 c 371.574 272.551
 l 371.574 266.141 366.359 260.926 359.949 260.926 c 359.148 260.926 l 359.148
 60.949 l h
147.926 260.336 m 147.926 260.016 148.188 259.75 148.512 259.75 c 235.488
 259.75 l 235.812 259.75 236.074 260.016 236.074 260.336 c 236.074 285.777
 l 147.926 285.777 l h
205.012 323.051 m 178.988 323.051 l 178.988 297.168 l 205.012 297.168 l
 h
23.676 285.398 m 23.676 272.551 l 23.676 272.344 23.844 272.176 24.051 
272.176 c 136.676 272.176 l 136.676 285.773 l 24.051 285.773 l 23.844 285.773
 23.676 285.605 23.676 285.398 c h
75.492 372.75 m 51.141 372.75 l 51.066 372.75 50.848 372.75 50.672 372.516
 c 50.496 372.281 50.555 372.07 50.574 372 c 71.992 297.168 l 97.566 297.168
 l 76.055 372.324 l 75.984 372.574 75.75 372.75 75.492 372.75 c h
205.012 372.164 m 205.012 372.488 204.75 372.75 204.426 372.75 c 179.574
 372.75 l 179.25 372.75 178.988 372.484 178.988 372.164 c 178.988 359.148
 l 205.012 359.148 l h
210.645 347.898 m 210.645 347.898 210.641 347.898 210.637 347.898 c 210.633
 347.898 210.633 347.898 210.629 347.898 c 173.371 347.898 l 173.367 347.898
 173.367 347.898 173.363 347.898 c 173.359 347.898 173.359 347.898 173.355
 347.898 c 94.746 347.898 l 98.641 334.301 l 114.176 334.301 l 117.281 334.301
 119.801 331.781 119.801 328.676 c 119.801 325.57 117.281 323.051 114.176
 323.051 c 101.859 323.051 l 109.309 297.027 l 142.301 297.027 l 142.301
 297.027 142.305 297.027 142.309 297.027 c 167.738 297.027 l 167.738 323.051
 l 136.676 323.051 l 133.57 323.051 131.051 325.57 131.051 328.676 c 131.051
 331.781 133.57 334.301 136.676 334.301 c 285.359 334.301 l 289.25 347.898
 l h
333.328 372.516 m 333.152 372.75 332.934 372.75 332.859 372.75 c 308.508
 372.75 l 308.25 372.75 308.016 372.574 307.945 372.324 c 286.438 297.168
 l 312.008 297.168 l 333.426 372 l 333.445 372.07 333.504 372.281 333.328
 372.516 c h
282.141 323.051 m 216.262 323.051 l 216.262 297.023 l 241.699 297.023 l
 241.699 297.023 241.703 297.023 241.707 297.023 c 274.695 297.023 l h
360.324 272.551 m 360.324 285.398 l 360.324 285.605 360.156 285.773 359.949
 285.773 c 247.324 285.773 l 247.324 272.176 l 359.949 272.176 l 360.156
 272.176 360.324 272.344 360.324 272.551 c h
178.988 11.836 m 178.988 11.512 179.25 11.25 179.574 11.25 c 204.426 11.25
 l 204.75 11.25 205.012 11.516 205.012 11.836 c 205.012 24.852 l 178.988
 24.852 l h
23.676 49.324 m 23.676 36.477 l 23.676 36.27 23.844 36.102 24.051 36.102
 c 173.363 36.102 l 173.363 36.102 173.367 36.102 173.371 36.102 c 210.637
 36.102 l 210.637 36.102 210.645 36.102 210.645 36.102 c 359.949 36.102 
l 360.156 36.102 360.324 36.27 360.324 36.477 c 360.324 49.324 l 360.324
 49.531 360.156 49.699 359.949 49.699 c 24.051 49.699 l 23.844 49.699 23.676
 49.531 23.676 49.324 c h
23.676 49.324 m f
185.789 178.988 m 198.211 178.988 l 201.32 178.988 203.836 176.469 203.836
 173.363 c 203.836 170.258 201.32 167.738 198.211 167.738 c 185.789 167.738
 l 182.68 167.738 180.164 170.258 180.164 173.363 c 180.164 176.469 182.68
 178.988 185.789 178.988 c h
185.789 178.988 m f
185.789 154.137 m 198.211 154.137 l 201.32 154.137 203.836 151.621 203.836
 148.512 c 203.836 145.406 201.32 142.887 198.211 142.887 c 185.789 142.887
 l 182.68 142.887 180.164 145.406 180.164 148.512 c 180.164 151.621 182.68
 154.137 185.789 154.137 c h
185.789 154.137 m f
147.926 142.301 m 147.926 125.496 134.254 111.824 117.449 111.824 c 100.645
 111.824 86.977 125.496 86.977 142.301 c 86.977 157.18 97.699 169.598 111.824
 172.246 c 111.824 180.164 l 105.023 180.164 l 101.918 180.164 99.398 182.68
 99.398 185.789 c 99.398 188.895 101.918 191.414 105.023 191.414 c 111.824
 191.414 l 111.824 204.426 l 111.824 207.531 114.344 210.051 117.449 210.051
 c 120.555 210.051 123.074 207.531 123.074 204.426 c 123.074 191.414 l 129.875
 191.414 l 132.98 191.414 135.5 188.895 135.5 185.789 c 135.5 182.68 132.98
 180.164 129.875 180.164 c 123.074 180.164 l 123.074 172.246 l 137.199 169.598
 147.926 157.184 147.926 142.301 c h
98.227 142.301 m 98.227 131.699 106.848 123.074 117.449 123.074 c 128.051
 123.074 136.676 131.699 136.676 142.301 c 136.676 152.898 128.051 161.523
 117.449 161.523 c 106.848 161.523 98.227 152.902 98.227 142.301 c h
98.227 142.301 m f
245 151.812 m 233.117 163.695 233.117 183.027 245 194.91 c 250.941 200.852
 258.746 203.824 266.551 203.824 c 274.355 203.824 282.156 200.852 288.098
 194.91 c 298.621 184.387 299.816 168.023 291.703 156.164 c 310.625 137.242
 l 310.625 142.613 l 310.625 145.719 313.145 148.238 316.25 148.238 c 319.355
 148.238 321.875 145.719 321.875 142.613 c 321.875 123.664 l 321.875 120.555
 319.355 118.039 316.25 118.039 c 297.613 118.039 l 294.504 118.039 291.988
 120.555 291.988 123.664 c 291.988 126.77 294.504 129.289 297.613 129.289
 c 302.672 129.289 l 283.746 148.211 l 271.887 140.094 255.523 141.289 245
 151.812 c h
280.145 186.957 m 272.648 194.453 260.449 194.453 252.957 186.957 c 245.461
 179.461 245.461 167.266 252.957 159.77 c 256.703 156.02 261.625 154.145
 266.551 154.145 c 271.473 154.145 276.395 156.02 280.145 159.77 c 287.641
 167.266 287.641 179.461 280.145 186.957 c h
280.145 186.957 m f
Q Q
showpage
%%Trailer
end
%%EOF
