%!PS-Adobe-3.0 EPSF-3.0
%%Creator: cairo 1.16.0 (https://cairographics.org)
%%CreationDate: Fri Feb  5 09:59:17 2021
%%Pages: 1
%%DocumentData: Clean7Bit
%%LanguageLevel: 2
%%BoundingBox: 24 0 360 384
%%EndComments
%%BeginProlog
50 dict begin
/q { gsave } bind def
/Q { grestore } bind def
/cm { 6 array astore concat } bind def
/w { setlinewidth } bind def
/J { setlinecap } bind def
/j { setlinejoin } bind def
/M { setmiterlimit } bind def
/d { setdash } bind def
/m { moveto } bind def
/l { lineto } bind def
/c { curveto } bind def
/h { closepath } bind def
/re { exch dup neg 3 1 roll 5 3 roll moveto 0 rlineto
      0 exch rlineto 0 rlineto closepath } bind def
/S { stroke } bind def
/f { fill } bind def
/f* { eofill } bind def
/n { newpath } bind def
/W { clip } bind def
/W* { eoclip } bind def
/BT { } bind def
/ET { } bind def
/BDC { mark 3 1 roll /BDC pdfmark } bind def
/EMC { mark /EMC pdfmark } bind def
/cairo_store_point { /cairo_point_y exch def /cairo_point_x exch def } def
/Tj { show currentpoint cairo_store_point } bind def
/TJ {
  {
    dup
    type /stringtype eq
    { show } { -0.001 mul 0 cairo_font_matrix dtransform rmoveto } ifelse
  } forall
  currentpoint cairo_store_point
} bind def
/cairo_selectfont { cairo_font_matrix aload pop pop pop 0 0 6 array astore
    cairo_font exch selectfont cairo_point_x cairo_point_y moveto } bind def
/Tf { pop /cairo_font exch def /cairo_font_matrix where
      { pop cairo_selectfont } if } bind def
/Td { matrix translate cairo_font_matrix matrix concatmatrix dup
      /cairo_font_matrix exch def dup 4 get exch 5 get cairo_store_point
      /cairo_font where { pop cairo_selectfont } if } bind def
/Tm { 2 copy 8 2 roll 6 array astore /cairo_font_matrix exch def
      cairo_store_point /cairo_font where { pop cairo_selectfont } if } bind def
/g { setgray } bind def
/rg { setrgbcolor } bind def
/d1 { setcachedevice } bind def
/cairo_data_source {
  CairoDataIndex CairoData length lt
    { CairoData CairoDataIndex get /CairoDataIndex CairoDataIndex 1 add def }
    { () } ifelse
} def
/cairo_flush_ascii85_file { cairo_ascii85_file status { cairo_ascii85_file flushfile } if } def
/cairo_image { image cairo_flush_ascii85_file } def
/cairo_imagemask { imagemask cairo_flush_ascii85_file } def
%%EndProlog
%%BeginSetup
%%EndSetup
%%Page: 1 1
%%BeginPageSetup
%%PageBoundingBox: 24 0 360 384
%%EndPageSetup
q 24 0 336 384 rectclip
1 0 0 -1 0 384 cm q
0.980392 0.368627 0.592157 rg
341.094 353.527 m 341.094 367.25 329.969 378.375 316.246 378.375 c 67.754
 378.375 l 54.031 378.375 42.906 367.25 42.906 353.527 c 42.906 117.832 
l 341.094 117.832 l h
341.094 353.527 m f
0.85098 0.309804 0.533333 rg
323.848 117.832 m 323.848 353.527 l 323.848 367.25 312.723 378.375 298.996
 378.375 c 316.246 378.375 l 329.969 378.375 341.094 367.25 341.094 353.527
 c 341.094 117.832 l h
323.848 117.832 m f
0.992157 0.74902 0 rg
167.152 80.184 m 184.484 97.516 l 199.52 97.516 l 216.852 80.184 l 311.75
 66.566 l 319.035 56.742 320.07 43.145 313.434 32.086 c 304.805 17.703 l
 297.504 5.539 281.52 1.945 269.711 9.812 c 216.848 45.055 l 167.148 45.055
 l 114.285 9.812 l 102.48 1.941 86.496 5.539 79.195 17.703 c 70.566 32.086
 l 63.934 43.145 64.965 56.738 72.242 66.562 c h
167.152 80.184 m f
1 0.568627 0 rg
97.039 9.812 m 135.547 35.488 l 144.906 41.727 155.902 45.055 167.148 45.055
 c 114.285 9.812 l 107.391 5.215 99.066 4.539 91.883 7.188 c 93.66 7.848
 95.391 8.715 97.039 9.812 c h
97.039 9.812 m f
287.555 17.703 m 296.184 32.086 l 303.48 44.246 301.5 59.477 292.137 69.383
 c 311.75 66.566 l 319.035 56.742 320.07 43.145 313.434 32.082 c 304.805
 17.703 l 298.523 7.234 285.812 3.121 274.867 7.188 c 279.98 9.074 284.52
 12.645 287.555 17.703 c h
287.555 17.703 m f
1 0.364706 0 rg
311.754 66.562 m 304.805 54.98 l 297.508 42.812 281.52 39.219 269.715 47.086
 c 216.852 80.184 l 216.852 97.516 l 291.398 97.516 l 291.398 80.184 l 304.027
 73.91 l 307.09 71.867 309.676 69.367 311.754 66.562 c h
311.754 66.562 m f
167.152 97.516 m 167.152 80.184 l 114.289 47.09 l 102.48 39.219 86.496 
42.812 79.195 54.98 c 72.246 66.562 l 74.324 69.367 76.91 71.867 79.973 
73.91 c 92.602 80.184 l 92.602 97.516 l h
167.152 97.516 m f
1 0.568627 0 rg
216.848 87.824 m 167.148 87.824 l 167.148 44.207 l 167.148 30.953 177.895
 20.207 191.148 20.207 c 192.852 20.207 l 206.105 20.207 216.848 30.953 
216.848 44.207 c h
216.848 87.824 m f
1 0.364706 0 rg
192.852 20.207 m 191.148 20.207 l 188.426 20.207 185.812 20.668 183.375
 21.504 c 192.812 24.734 199.598 33.676 199.598 44.207 c 199.598 87.824 
l 216.848 87.824 l 216.848 44.207 l 216.848 30.953 206.105 20.207 192.852
 20.207 c h
192.852 20.207 m f
1 0.568627 0 rg
154.727 117.832 74.547 260.543 re f
1 0.364706 0 rg
212.023 117.832 m 212.023 378.375 l 154.727 378.375 l 229.273 378.375 l
 229.273 117.832 l h
212.023 117.832 m f
0.964706 0.545098 0.596078 rg
341.52 80.184 m 241.699 80.184 l 191.996 99.922 l 142.301 80.184 l 42.48
 80.184 l 35.852 80.184 30.48 85.555 30.48 92.184 c 30.48 117.883 l 30.48
 124.512 35.852 129.883 42.48 129.883 c 142.301 129.883 l 192 119.168 l 
241.699 129.883 l 341.52 129.883 l 348.148 129.883 353.52 124.512 353.52
 117.883 c 353.52 92.184 l 353.52 85.555 348.148 80.184 341.52 80.184 c 
h
341.52 80.184 m f
0.992157 0.74902 0 rg
142.301 80.184 99.398 49.699 re f
0.980392 0.368627 0.592157 rg
341.52 80.184 m 324.27 80.184 l 330.898 80.184 336.27 85.555 336.27 92.184
 c 336.27 117.883 l 336.27 124.512 330.898 129.883 324.27 129.883 c 341.52
 129.883 l 348.148 129.883 353.52 124.512 353.52 117.883 c 353.52 92.184
 l 353.52 85.555 348.148 80.184 341.52 80.184 c h
341.52 80.184 m f
1 0.568627 0 rg
224.449 80.184 17.25 49.699 re f
0.937255 0.937255 0.976471 rg
240.262 199.598 m 266.945 226.281 266.945 269.543 240.262 296.223 c 213.578
 322.906 170.316 322.906 143.637 296.223 c 116.953 269.543 116.953 226.281
 143.637 199.598 c 170.316 172.914 213.578 172.914 240.262 199.598 c h
240.262 199.598 m f
0.87451 0.870588 0.960784 rg
191.996 179.582 m 189.074 179.582 186.195 179.766 183.371 180.121 c 217.039
 184.363 243.082 213.098 243.082 247.914 c 243.082 282.734 217.039 311.473
 183.371 315.711 c 186.195 316.066 189.074 316.25 191.996 316.25 c 229.734
 316.25 260.332 285.656 260.332 247.914 c 260.332 210.176 229.734 179.582
 191.996 179.582 c h
191.996 179.582 m f
0 g
341.52 74.559 m 312.168 74.559 l 324.363 62.922 327.223 44.133 318.254 
29.191 c 309.629 14.812 l 305.297 7.594 298.395 2.605 290.184 0.758 c 281.969
 -1.09 273.594 0.465 266.594 5.133 c 247.031 18.172 l 244.449 19.895 243.75
 23.391 245.473 25.973 c 247.195 28.559 250.688 29.258 253.273 27.531 c 
272.832 14.492 l 277.25 11.551 282.535 10.566 287.715 11.734 c 292.895 12.898
 297.25 16.047 299.98 20.598 c 308.609 34.977 l 312.344 41.203 313.117 48.391
 311.309 54.887 c 309.629 52.082 l 305.297 44.867 298.391 39.879 290.184
 38.031 c 282 36.191 273.648 37.727 266.66 42.359 c 222.473 70.023 l 222.473
 48.066 l 234.613 39.973 l 237.199 38.25 237.895 34.758 236.172 32.176 c
 234.449 29.59 230.957 28.891 228.375 30.613 c 221.145 35.434 l 217.398 
23.367 206.133 14.582 192.852 14.582 c 191.148 14.582 l 177.867 14.582 166.602
 23.367 162.852 35.434 c 117.406 5.133 l 110.402 0.465 102.023 -1.09 93.816
 0.758 c 85.605 2.605 78.699 7.594 74.371 14.809 c 65.746 29.191 l 56.777
 44.133 59.637 62.922 71.828 74.559 c 42.48 74.559 l 32.762 74.559 24.855
 82.465 24.855 92.184 c 24.855 117.883 l 24.855 125.793 30.094 132.5 37.281
 134.723 c 37.281 305.004 l 37.281 308.109 39.797 310.629 42.906 310.629
 c 46.012 310.629 48.531 308.109 48.531 305.004 c 48.531 135.508 l 149.102
 135.508 l 149.102 187.703 l 130.312 201.125 118.039 223.113 118.039 247.918
 c 118.039 272.719 130.312 294.707 149.102 308.133 c 149.102 347.902 l 67.754
 347.902 l 64.645 347.902 62.129 350.418 62.129 353.527 c 62.129 356.633
 64.645 359.152 67.754 359.152 c 149.102 359.152 l 149.102 372.75 l 67.754
 372.75 l 57.152 372.75 48.531 364.125 48.531 353.527 c 48.531 327.504 l
 48.531 324.395 46.012 321.879 42.906 321.879 c 39.797 321.879 37.281 324.395
 37.281 327.504 c 37.281 353.527 l 37.281 370.328 50.949 384 67.754 384 
c 316.246 384 l 333.051 384 346.719 370.328 346.719 353.527 c 346.719 134.723
 l 353.906 132.5 359.145 125.793 359.145 117.883 c 359.145 92.184 l 359.145
 82.465 351.238 74.559 341.52 74.559 c h
272.699 51.855 m 272.742 51.828 272.789 51.797 272.832 51.766 c 277.25 
48.82 282.539 47.844 287.715 49.008 c 292.895 50.172 297.25 53.32 299.98
 57.871 c 304.852 65.988 l 303.746 67.098 302.527 68.121 301.188 69.039 
c 290.074 74.559 l 236.434 74.559 l h
191.148 25.832 m 192.852 25.832 l 202.98 25.832 211.223 34.074 211.223 
44.207 c 211.223 74.559 l 172.777 74.559 l 172.777 50.68 l 192 50.68 l 195.105
 50.68 197.625 48.164 197.625 45.055 c 197.625 41.949 195.105 39.43 192 
39.43 c 173.41 39.43 l 175.516 31.609 182.668 25.832 191.148 25.832 c h
75.391 34.977 m 84.02 20.598 l 86.75 16.047 91.105 12.898 96.285 11.734
 c 101.465 10.566 106.75 11.551 111.168 14.492 c 161.527 48.066 l 161.527
 70.027 l 117.336 42.359 l 110.348 37.73 102 36.191 93.816 38.031 c 85.605
 39.879 78.699 44.867 74.371 52.086 c 72.688 54.887 l 70.883 48.391 71.656
 41.203 75.391 34.977 c h
82.809 69.039 m 81.473 68.121 80.254 67.098 79.148 65.988 c 84.02 57.871
 l 86.75 53.32 91.105 50.172 96.285 49.008 c 101.461 47.844 106.75 48.824
 111.168 51.77 c 111.211 51.797 111.254 51.828 111.301 51.855 c 147.566 
74.559 l 93.922 74.559 l h
42.48 124.258 m 38.965 124.258 36.105 121.398 36.105 117.883 c 36.105 92.184
 l 36.105 88.668 38.965 85.809 42.48 85.809 c 136.676 85.809 l 136.676 124.258
 l h
147.926 85.809 m 236.074 85.809 l 236.074 124.258 l 147.926 124.258 l h
160.352 135.508 m 223.648 135.508 l 223.648 181.078 l 214.047 176.516 203.316
 173.957 192 173.957 c 180.68 173.957 169.953 176.516 160.352 181.078 c 
h
129.289 247.918 m 129.289 213.34 157.422 185.207 192 185.207 c 226.578 
185.207 254.711 213.336 254.711 247.918 c 254.711 282.496 226.578 310.629
 192 310.629 c 157.422 310.629 129.289 282.496 129.289 247.918 c h
160.352 314.754 m 169.953 319.316 180.684 321.875 192 321.875 c 203.32 
321.875 214.047 319.316 223.648 314.754 c 223.648 347.902 l 160.352 347.902
 l h
160.352 359.148 m 223.648 359.148 l 223.648 372.75 l 160.352 372.75 l h
335.469 353.527 m 335.469 364.125 326.848 372.75 316.246 372.75 c 234.898
 372.75 l 234.898 359.148 l 316.246 359.148 l 319.355 359.148 321.871 356.633
 321.871 353.527 c 321.871 350.418 319.355 347.902 316.246 347.902 c 234.898
 347.902 l 234.898 308.133 l 253.688 294.707 265.961 272.719 265.961 247.914
 c 265.961 223.113 253.688 201.125 234.898 187.699 c 234.898 135.508 l 335.469
 135.508 l h
347.895 117.883 m 347.895 121.398 345.035 124.258 341.52 124.258 c 247.324
 124.258 l 247.324 85.809 l 341.52 85.809 l 345.035 85.809 347.895 88.668
 347.895 92.184 c h
347.895 117.883 m f
197.625 291.402 m 197.625 278.391 l 204.426 278.391 l 207.531 278.391 210.051
 275.871 210.051 272.766 c 210.051 269.66 207.531 267.141 204.426 267.141
 c 197.625 267.141 l 197.625 259.223 l 211.75 256.578 222.473 244.16 222.473
 229.277 c 222.473 212.477 208.805 198.805 192 198.805 c 175.195 198.805
 161.527 212.477 161.527 229.277 c 161.527 244.16 172.25 256.574 186.375
 259.223 c 186.375 267.141 l 179.574 267.141 l 176.469 267.141 173.949 269.66
 173.949 272.766 c 173.949 275.871 176.469 278.391 179.574 278.391 c 186.375
 278.391 l 186.375 291.402 l 186.375 294.508 188.895 297.027 192 297.027
 c 195.105 297.027 197.625 294.508 197.625 291.402 c h
172.777 229.281 m 172.777 218.68 181.398 210.055 192 210.055 c 202.602 
210.055 211.223 218.68 211.223 229.281 c 211.223 239.879 202.602 248.504
 192 248.504 c 181.398 248.504 172.777 239.879 172.777 229.281 c h
172.777 229.281 m f
Q Q
showpage
%%Trailer
end
%%EOF
