%!PS-Adobe-3.0 EPSF-3.0
%%Creator: cairo 1.16.0 (https://cairographics.org)
%%CreationDate: Fri Feb  5 09:59:18 2021
%%Pages: 1
%%DocumentData: Clean7Bit
%%LanguageLevel: 2
%%BoundingBox: 0 0 384 384
%%EndComments
%%BeginProlog
50 dict begin
/q { gsave } bind def
/Q { grestore } bind def
/cm { 6 array astore concat } bind def
/w { setlinewidth } bind def
/J { setlinecap } bind def
/j { setlinejoin } bind def
/M { setmiterlimit } bind def
/d { setdash } bind def
/m { moveto } bind def
/l { lineto } bind def
/c { curveto } bind def
/h { closepath } bind def
/re { exch dup neg 3 1 roll 5 3 roll moveto 0 rlineto
      0 exch rlineto 0 rlineto closepath } bind def
/S { stroke } bind def
/f { fill } bind def
/f* { eofill } bind def
/n { newpath } bind def
/W { clip } bind def
/W* { eoclip } bind def
/BT { } bind def
/ET { } bind def
/BDC { mark 3 1 roll /BDC pdfmark } bind def
/EMC { mark /EMC pdfmark } bind def
/cairo_store_point { /cairo_point_y exch def /cairo_point_x exch def } def
/Tj { show currentpoint cairo_store_point } bind def
/TJ {
  {
    dup
    type /stringtype eq
    { show } { -0.001 mul 0 cairo_font_matrix dtransform rmoveto } ifelse
  } forall
  currentpoint cairo_store_point
} bind def
/cairo_selectfont { cairo_font_matrix aload pop pop pop 0 0 6 array astore
    cairo_font exch selectfont cairo_point_x cairo_point_y moveto } bind def
/Tf { pop /cairo_font exch def /cairo_font_matrix where
      { pop cairo_selectfont } if } bind def
/Td { matrix translate cairo_font_matrix matrix concatmatrix dup
      /cairo_font_matrix exch def dup 4 get exch 5 get cairo_store_point
      /cairo_font where { pop cairo_selectfont } if } bind def
/Tm { 2 copy 8 2 roll 6 array astore /cairo_font_matrix exch def
      cairo_store_point /cairo_font where { pop cairo_selectfont } if } bind def
/g { setgray } bind def
/rg { setrgbcolor } bind def
/d1 { setcachedevice } bind def
/cairo_data_source {
  CairoDataIndex CairoData length lt
    { CairoData CairoDataIndex get /CairoDataIndex CairoDataIndex 1 add def }
    { () } ifelse
} def
/cairo_flush_ascii85_file { cairo_ascii85_file status { cairo_ascii85_file flushfile } if } def
/cairo_image { image cairo_flush_ascii85_file } def
/cairo_imagemask { imagemask cairo_flush_ascii85_file } def
%%EndProlog
%%BeginSetup
%%EndSetup
%%Page: 1 1
%%BeginPageSetup
%%PageBoundingBox: 0 0 384 384
%%EndPageSetup
q 0 0 384 384 rectclip
1 0 0 -1 0 384 cm q
0.992157 0.74902 0 rg
96.75 254.125 m 127.027 254.125 l 130.219 254.125 132.895 256.543 133.211
 259.719 c 135.695 284.57 l 136.062 288.227 133.191 291.402 129.516 291.402
 c 100.875 291.398 l h
96.75 254.125 m f
1 0.568627 0 rg
135.695 284.57 m 133.211 259.719 l 132.891 256.543 130.219 254.125 127.027
 254.125 c 109.777 254.125 l 112.973 254.125 115.645 256.543 115.961 259.719
 c 118.445 284.57 l 118.812 288.219 115.953 291.387 112.285 291.398 c 129.512
 291.402 l 133.191 291.402 136.062 288.227 135.695 284.57 c h
135.695 284.57 m f
0.937255 0.937255 0.976471 rg
61.539 338.309 m 61.539 328.676 l 55.324 229.273 l 55.324 219.793 l 105.023
 219.793 l 105.023 229.273 l 111.238 328.676 l 111.238 338.309 l h
61.539 338.309 m f
0.87451 0.870588 0.960784 rg
105.023 229.273 m 105.023 219.793 l 87.773 219.793 l 87.773 229.273 l 93.988
 328.676 l 93.988 338.309 l 111.238 338.309 l 111.238 328.676 l h
105.023 229.273 m f
0.45098 0.737255 1 rg
117.449 186.375 m 42.898 186.375 l 42.898 223.273 l 42.898 226.59 45.586
 229.273 48.898 229.273 c 111.449 229.273 l 114.762 229.273 117.449 226.59
 117.449 223.273 c h
117.449 186.375 m f
0.45098 0.494118 0.901961 rg
100.199 186.375 m 100.199 223.273 l 100.199 226.59 97.512 229.273 94.199
 229.273 c 111.449 229.273 l 114.762 229.273 117.449 226.59 117.449 223.273
 c 117.449 186.375 l h
100.199 186.375 m f
0.45098 0.737255 1 rg
291.398 173.363 m 311.988 173.363 328.676 156.676 328.676 136.086 c 328.676
 115.5 311.988 98.812 291.398 98.812 c 261.57 98.812 l 261.57 173.363 l 
h
291.398 173.363 m f
0.45098 0.494118 0.901961 rg
291.398 98.812 m 274.258 98.812 l 294.844 98.812 311.531 115.5 311.531 
136.086 c 311.531 156.676 294.844 173.363 274.258 173.363 c 291.398 173.363
 l 311.988 173.363 328.676 156.676 328.676 136.086 c 328.676 115.5 311.988
 98.812 291.398 98.812 c h
291.398 98.812 m f
0.87451 0.870588 0.960784 rg
30.477 179.574 m 9.059 168.867 l 6.953 167.816 5.625 165.664 5.625 163.309
 c 5.625 108.863 l 5.625 106.512 6.953 104.359 9.059 103.309 c 30.477 92.598
 l 42.898 92.598 l 42.898 179.574 l h
30.477 179.574 m f
243.461 243.629 m 129.875 192 l 119.355 136.086 l 129.875 80.176 l 266.551
 18.051 l 278.977 136.086 l 278.977 243.629 l h
243.461 243.629 m f
0.980392 0.368627 0.592157 rg
291.398 217.133 m 291.398 11.836 l 291.398 8.406 288.617 5.625 285.188 
5.625 c 272.762 5.625 l 269.332 5.625 266.551 8.406 266.551 11.836 c 266.551
 224.367 l h
291.398 217.133 m f
129.875 192 m 42.477 192 l 35.848 192 30.477 186.629 30.477 180 c 30.477
 92.176 l 30.477 85.547 35.848 80.176 42.477 80.176 c 129.875 80.176 l h
129.875 192 m f
0.937255 0.937255 0.976471 rg
92.812 148.512 m 67.539 148.512 l 64.223 148.512 61.539 145.828 61.539 
142.512 c 61.539 129.664 l 61.539 126.348 64.223 123.664 67.539 123.664 
c 92.812 123.664 l 96.125 123.664 98.812 126.348 98.812 129.664 c 98.812
 142.512 l 98.812 145.828 96.125 148.512 92.812 148.512 c h
92.812 148.512 m f
0.980392 0.368627 0.592157 rg
136.512 378.375 m 61.113 378.375 l 54.484 378.375 49.113 373.004 49.113
 366.375 c 49.113 340.676 l 49.113 334.047 54.484 328.676 61.113 328.676
 c 136.512 328.676 l 143.141 328.676 148.512 334.047 148.512 340.676 c 148.512
 366.375 l 148.512 373.004 143.141 378.375 136.512 378.375 c h
136.512 378.375 m f
0.87451 0.870588 0.960784 rg
92.812 123.664 m 75.562 123.664 l 78.875 123.664 81.562 126.348 81.562 
129.664 c 81.562 142.512 l 81.562 145.824 78.875 148.512 75.562 148.512 
c 92.812 148.512 l 96.125 148.512 98.812 145.824 98.812 142.512 c 98.812
 129.664 l 98.812 126.348 96.125 123.664 92.812 123.664 c h
92.812 123.664 m f
0.85098 0.309804 0.533333 rg
285.188 5.625 m 272.762 5.625 l 271.906 5.625 271.09 5.797 270.348 6.109
 c 272.582 7.055 274.148 9.262 274.148 11.836 c 274.148 222.152 l 291.398
 217.129 l 291.398 11.836 l 291.398 8.406 288.617 5.625 285.188 5.625 c 
h
285.188 5.625 m f
136.512 328.676 m 119.262 328.676 l 125.891 328.676 131.262 334.047 131.262
 340.676 c 131.262 366.375 l 131.262 373.004 125.891 378.375 119.262 378.375
 c 136.512 378.375 l 143.141 378.375 148.512 373.004 148.512 366.375 c 148.512
 340.676 l 148.512 334.047 143.141 328.676 136.512 328.676 c h
136.512 328.676 m f
0.937255 0.937255 0.976471 rg
365.949 285.188 m 365.949 322.93 335.355 353.523 297.613 353.523 c 259.871
 353.523 229.273 322.93 229.273 285.188 c 229.273 247.445 259.871 216.852
 297.613 216.852 c 335.355 216.852 365.949 247.445 365.949 285.188 c h
365.949 285.188 m f
0.87451 0.870588 0.960784 rg
297.613 216.852 m 294.691 216.852 291.812 217.035 288.988 217.391 c 322.656
 221.629 348.699 250.367 348.699 285.188 c 348.699 320.008 322.656 348.746
 288.988 352.984 c 291.812 353.34 294.691 353.523 297.613 353.523 c 335.355
 353.523 365.949 322.93 365.949 285.188 c 365.949 247.445 335.355 216.852
 297.613 216.852 c h
297.613 216.852 m f
0 g
333.672 189.188 m 332.117 191.879 333.039 195.316 335.73 196.871 c 357.25
 209.297 l 358.137 209.809 359.105 210.051 360.059 210.051 c 362.004 210.051
 363.895 209.043 364.934 207.238 c 366.488 204.547 365.566 201.105 362.875
 199.555 c 341.355 187.129 l 338.664 185.574 335.227 186.496 333.672 189.188
 c h
333.672 189.188 m f
378.375 130.461 m 353.523 130.461 l 350.418 130.461 347.898 132.98 347.898
 136.086 c 347.898 139.195 350.418 141.711 353.523 141.711 c 378.375 141.711
 l 381.48 141.711 384 139.195 384 136.086 c 384 132.98 381.48 130.461 378.375
 130.461 c h
378.375 130.461 m f
338.547 85.801 m 339.504 85.801 340.469 85.559 341.355 85.047 c 362.875
 72.621 l 365.566 71.07 366.488 67.629 364.934 64.938 c 363.383 62.246 359.941
 61.324 357.25 62.879 c 335.73 75.305 l 333.039 76.855 332.117 80.297 333.672
 82.988 c 334.715 84.793 336.605 85.801 338.547 85.801 c h
338.547 85.801 m f
55.914 129.664 m 55.914 142.512 l 55.914 148.922 61.129 154.137 67.539 
154.137 c 92.812 154.137 l 99.223 154.137 104.438 148.922 104.438 142.512
 c 104.438 129.664 l 104.438 123.254 99.223 118.039 92.812 118.039 c 67.539
 118.039 l 61.129 118.039 55.914 123.254 55.914 129.664 c h
67.164 129.664 m 67.164 129.457 67.332 129.289 67.539 129.289 c 92.812 
129.289 l 93.02 129.289 93.188 129.457 93.188 129.664 c 93.188 142.512 l
 93.188 142.719 93.02 142.887 92.812 142.887 c 67.539 142.887 l 67.332 142.887
 67.164 142.719 67.164 142.512 c h
67.164 129.664 m f
297.613 236.074 m 280.809 236.074 267.137 249.746 267.137 266.551 c 267.137
 281.43 277.863 293.848 291.988 296.496 c 291.988 304.414 l 285.188 304.414
 l 282.082 304.414 279.562 306.93 279.562 310.039 c 279.562 313.145 282.082
 315.664 285.188 315.664 c 291.988 315.664 l 291.988 328.676 l 291.988 331.781
 294.508 334.301 297.613 334.301 c 300.719 334.301 303.238 331.781 303.238
 328.676 c 303.238 315.664 l 310.039 315.664 l 313.145 315.664 315.664 313.145
 315.664 310.039 c 315.664 306.93 313.145 304.414 310.039 304.414 c 303.238
 304.414 l 303.238 296.496 l 317.363 293.848 328.086 281.43 328.086 266.551
 c 328.086 249.746 314.418 236.074 297.613 236.074 c h
297.613 285.773 m 287.012 285.773 278.387 277.152 278.387 266.551 c 278.387
 255.949 287.012 247.324 297.613 247.324 c 308.215 247.324 316.836 255.949
 316.836 266.551 c 316.836 277.152 308.215 285.773 297.613 285.773 c h
297.613 285.773 m f
297.613 211.227 m 297.418 211.227 297.223 211.23 297.023 211.23 c 297.023
 178.605 l 318.031 175.84 334.301 157.836 334.301 136.086 c 334.301 114.34
 318.031 96.332 297.023 93.566 c 297.023 11.836 l 297.023 5.309 291.715 
0 285.188 0 c 272.762 0 l 266.234 0 260.926 5.309 260.926 11.836 c 260.926
 14.43 l 128.656 74.551 l 85.211 74.551 l 82.105 74.551 79.586 77.07 79.586
 80.176 c 79.586 83.281 82.105 85.801 85.211 85.801 c 124.25 85.801 l 124.25
 186.375 l 42.477 186.375 l 38.961 186.375 36.102 183.516 36.102 180 c 36.102
 92.176 l 36.102 88.66 38.961 85.801 42.477 85.801 c 62.711 85.801 l 65.82
 85.801 68.336 83.281 68.336 80.176 c 68.336 77.07 65.82 74.551 62.711 74.551
 c 42.477 74.551 l 33.848 74.551 26.656 80.781 25.145 88.977 c 6.543 98.277
 l 2.508 100.293 0 104.352 0 108.863 c 0 163.309 l 0 167.824 2.508 171.879
 6.543 173.898 c 25.145 183.199 l 26.34 189.676 31.078 194.926 37.273 196.84
 c 37.273 223.273 l 37.273 229.684 42.488 234.898 48.898 234.898 c 50.039
 234.898 l 52.891 280.496 l 53.078 283.477 55.555 285.77 58.5 285.77 c 58.617
 285.77 58.734 285.766 58.855 285.758 c 61.957 285.566 64.312 282.895 64.117
 279.797 c 61.312 234.898 l 99.742 234.898 l 105.25 323.051 l 66.82 323.051
 l 65.523 302.297 l 65.332 299.199 62.652 296.844 59.559 297.035 c 56.461
 297.23 54.102 299.898 54.297 303 c 55.605 323.938 l 48.574 326.254 43.488
 332.879 43.488 340.676 c 43.488 366.375 l 43.488 376.094 51.395 384 61.113
 384 c 136.512 384 l 146.23 384 154.137 376.094 154.137 366.375 c 154.137
 340.676 l 154.137 330.957 146.23 323.051 136.512 323.051 c 116.523 323.051
 l 114.895 297.023 l 129.512 297.027 l 129.516 297.027 l 132.852 297.027
 136.051 295.605 138.289 293.133 c 140.531 290.656 141.625 287.332 141.293
 284.012 c 138.809 259.16 l 138.199 253.082 133.137 248.5 127.027 248.5 
c 111.863 248.5 l 111.012 234.902 l 111.449 234.902 l 117.859 234.902 123.074
 229.688 123.074 223.277 c 123.074 197.625 l 128.656 197.625 l 234.949 245.941
 l 227.797 257.324 223.652 270.777 223.652 285.188 c 223.652 325.973 256.828
 359.152 297.613 359.152 c 338.395 359.152 371.574 325.973 371.574 285.188
 c 371.574 244.406 338.395 211.227 297.613 211.227 c h
11.25 163.309 m 11.25 108.863 l 11.25 108.641 11.375 108.441 11.574 108.34
 c 24.852 101.703 l 24.852 170.473 l 11.574 163.836 l 11.375 163.734 11.25
 163.535 11.25 163.309 c h
136.512 372.75 m 61.113 372.75 l 57.598 372.75 54.738 369.891 54.738 366.375
 c 54.738 359.148 l 142.887 359.148 l 142.887 366.375 l 142.887 369.891 
140.027 372.75 136.512 372.75 c h
142.887 340.676 m 142.887 347.898 l 54.738 347.898 l 54.738 340.676 l 54.738
 337.16 57.598 334.301 61.113 334.301 c 136.512 334.301 l 140.027 334.301
 142.887 337.16 142.887 340.676 c h
127.027 259.75 m 127.332 259.75 127.582 259.977 127.613 260.277 c 130.098
 285.129 l 130.117 285.301 130.066 285.453 129.949 285.582 c 129.832 285.711
 129.688 285.777 129.516 285.777 c 114.191 285.773 l 112.566 259.75 l h
111.824 223.273 m 111.824 223.48 111.656 223.648 111.449 223.648 c 48.898
 223.648 l 48.691 223.648 48.523 223.48 48.523 223.273 c 48.523 197.625 
l 111.824 197.625 l h
323.051 136.086 m 323.051 151.621 311.801 164.562 297.023 167.227 c 297.023
 104.949 l 311.801 107.609 323.051 120.555 323.051 136.086 c h
272.762 11.25 m 285.188 11.25 l 285.512 11.25 285.773 11.516 285.773 11.836
 c 285.773 212.176 l 281.082 212.934 276.531 214.133 272.176 215.734 c 272.176
 11.836 l 272.176 11.516 272.438 11.25 272.762 11.25 c h
135.5 188.379 m 135.5 83.797 l 260.926 26.785 l 260.926 220.984 l 253.703
 225.125 247.242 230.453 241.809 236.699 c h
297.613 347.898 m 263.031 347.898 234.898 319.77 234.898 285.188 c 234.898
 250.605 263.031 222.477 297.613 222.477 c 332.191 222.477 360.324 250.605
 360.324 285.188 c 360.324 319.77 332.191 347.898 297.613 347.898 c h
297.613 347.898 m f
Q Q
showpage
%%Trailer
end
%%EOF
