%!PS-Adobe-3.0 EPSF-3.0
%%Creator: cairo 1.16.0 (https://cairographics.org)
%%CreationDate: Fri Feb  5 09:59:19 2021
%%Pages: 1
%%DocumentData: Clean7Bit
%%LanguageLevel: 2
%%BoundingBox: 13 0 371 384
%%EndComments
%%BeginProlog
50 dict begin
/q { gsave } bind def
/Q { grestore } bind def
/cm { 6 array astore concat } bind def
/w { setlinewidth } bind def
/J { setlinecap } bind def
/j { setlinejoin } bind def
/M { setmiterlimit } bind def
/d { setdash } bind def
/m { moveto } bind def
/l { lineto } bind def
/c { curveto } bind def
/h { closepath } bind def
/re { exch dup neg 3 1 roll 5 3 roll moveto 0 rlineto
      0 exch rlineto 0 rlineto closepath } bind def
/S { stroke } bind def
/f { fill } bind def
/f* { eofill } bind def
/n { newpath } bind def
/W { clip } bind def
/W* { eoclip } bind def
/BT { } bind def
/ET { } bind def
/BDC { mark 3 1 roll /BDC pdfmark } bind def
/EMC { mark /EMC pdfmark } bind def
/cairo_store_point { /cairo_point_y exch def /cairo_point_x exch def } def
/Tj { show currentpoint cairo_store_point } bind def
/TJ {
  {
    dup
    type /stringtype eq
    { show } { -0.001 mul 0 cairo_font_matrix dtransform rmoveto } ifelse
  } forall
  currentpoint cairo_store_point
} bind def
/cairo_selectfont { cairo_font_matrix aload pop pop pop 0 0 6 array astore
    cairo_font exch selectfont cairo_point_x cairo_point_y moveto } bind def
/Tf { pop /cairo_font exch def /cairo_font_matrix where
      { pop cairo_selectfont } if } bind def
/Td { matrix translate cairo_font_matrix matrix concatmatrix dup
      /cairo_font_matrix exch def dup 4 get exch 5 get cairo_store_point
      /cairo_font where { pop cairo_selectfont } if } bind def
/Tm { 2 copy 8 2 roll 6 array astore /cairo_font_matrix exch def
      cairo_store_point /cairo_font where { pop cairo_selectfont } if } bind def
/g { setgray } bind def
/rg { setrgbcolor } bind def
/d1 { setcachedevice } bind def
/cairo_data_source {
  CairoDataIndex CairoData length lt
    { CairoData CairoDataIndex get /CairoDataIndex CairoDataIndex 1 add def }
    { () } ifelse
} def
/cairo_flush_ascii85_file { cairo_ascii85_file status { cairo_ascii85_file flushfile } if } def
/cairo_image { image cairo_flush_ascii85_file } def
/cairo_imagemask { imagemask cairo_flush_ascii85_file } def
%%EndProlog
%%BeginSetup
%%EndSetup
%%Page: 1 1
%%BeginPageSetup
%%PageBoundingBox: 13 0 371 384
%%EndPageSetup
q 13 0 358 384 rectclip
1 0 0 -1 0 384 cm q
0.45098 0.737255 1 rg
332.578 204.484 m 335.41 196.473 337.59 188.148 339.027 179.574 c 303.121
 55.324 l 286.422 36.668 265.09 22.25 240.941 13.859 c 158.164 9.48 l 117.484
 18.922 83.195 45.012 62.852 80.184 c 80.906 254.156 l 108.207 284.637 147.859
 303.824 192 303.824 c 247.227 303.824 295.43 273.797 321.195 229.176 c 
h
332.578 204.484 m f
0.45098 0.494118 0.901961 rg
332.578 204.484 m 335.41 196.473 337.59 188.148 339.027 179.574 c 303.121
 55.324 l 286.422 36.668 265.09 22.25 240.941 13.859 c 220.438 12.777 l 
280.43 32.066 323.852 88.32 323.852 154.727 c 323.852 234.176 261.707 299.102
 183.375 303.57 c 186.23 303.734 189.105 303.824 192 303.824 c 247.227 303.824
 295.43 273.797 321.195 229.176 c h
332.578 204.484 m f
0.392157 0.882353 0.862745 rg
241.699 204.426 m 239.434 204.426 231.539 204.426 229.273 204.426 c 222.414
 204.426 216.852 209.988 216.852 216.852 c 216.852 223.715 222.414 229.273
 229.273 229.273 c 241.699 229.273 l 248.562 229.273 254.125 223.711 254.125
 216.852 c 254.125 209.988 248.562 204.426 241.699 204.426 c h
241.699 204.426 m f
0.980392 0.368627 0.592157 rg
60.703 290.785 m 59.559 291.777 58.566 292.875 57.727 294.047 c 56.562 
295.676 54.09 295.676 52.922 294.047 c 52.086 292.875 51.094 291.777 49.949
 290.785 c 42.969 284.719 32.367 284.766 25.438 290.891 c 17.309 298.074
 17.02 310.504 24.574 318.059 c 50.934 344.414 l 53.359 346.84 57.293 346.84
 59.719 344.414 c 86.074 318.059 l 93.633 310.5 93.344 298.074 85.215 290.891
 c 78.285 284.766 67.68 284.719 60.703 290.785 c h
60.703 290.785 m f
334.051 290.785 m 332.906 291.777 331.914 292.875 331.078 294.047 c 329.91
 295.676 327.441 295.676 326.273 294.047 c 325.434 292.875 324.441 291.777
 323.301 290.785 c 316.32 284.719 305.715 284.766 298.789 290.891 c 290.656
 298.074 290.371 310.504 297.926 318.059 c 324.281 344.414 l 326.711 346.84
 330.645 346.84 333.066 344.414 c 359.426 318.059 l 366.98 310.5 366.691
 298.074 358.562 290.891 c 351.637 284.766 341.031 284.719 334.051 290.785
 c h
334.051 290.785 m f
0.392157 0.882353 0.862745 rg
158.164 9.48 m 156.039 11.711 154.727 14.727 154.727 18.051 c 154.727 24.91
 160.289 30.477 167.148 30.477 c 229.273 30.477 l 236.137 30.477 241.699
 24.91 241.699 18.051 c 241.699 16.578 241.43 15.172 240.961 13.859 c 225.625
 8.531 209.152 5.625 192 5.625 c 180.363 5.625 169.035 6.961 158.164 9.48
 c h
158.164 9.48 m f
341.102 154.727 m 341.102 116.535 326.734 81.703 303.121 55.324 c 254.125
 55.324 l 247.262 55.324 241.699 60.887 241.699 67.75 c 241.699 74.613 247.262
 80.176 254.125 80.176 c 266.203 80.176 l 273.066 80.176 278.629 85.738 
278.629 92.602 c 278.629 99.465 273.066 105.027 266.203 105.027 c 229.273
 105.027 l 222.414 105.027 216.852 110.59 216.852 117.453 c 216.852 124.312
 222.414 129.875 229.273 129.875 c 266.551 129.875 l 273.414 129.875 278.977
 135.441 278.977 142.301 c 278.977 149.164 273.414 154.727 266.551 154.727
 c 254.125 154.727 l 247.262 154.727 241.699 160.289 241.699 167.152 c 241.699
 174.016 247.262 179.578 254.125 179.578 c 339.027 179.578 l 340.383 171.492
 341.102 163.191 341.102 154.727 c h
341.102 154.727 m f
332.605 204.426 m 291.398 204.426 l 284.539 204.426 278.973 209.988 278.973
 216.852 c 278.973 223.715 284.539 229.277 291.398 229.277 c 321.148 229.277
 l 325.695 221.418 329.535 213.105 332.605 204.426 c h
332.605 204.426 m f
179.574 129.875 m 167.148 129.875 l 160.285 129.875 154.723 124.312 154.723
 117.449 c 154.723 110.586 160.285 105.023 167.148 105.023 c 179.574 105.023
 l 186.438 105.023 192 99.461 192 92.598 c 192 85.738 186.438 80.176 179.574
 80.176 c 62.852 80.176 l 50.164 102.105 42.898 127.566 42.898 154.727 c
 42.898 192.93 57.277 227.773 80.906 254.156 c 81.453 254.125 l 166 254.125
 l 166 246.535 l 166.172 246.535 l 166.801 245.051 167.148 243.414 167.148
 241.699 c 167.148 234.836 161.586 229.273 154.723 229.273 c 105.023 229.273
 l 98.16 229.273 92.598 223.711 92.598 216.852 c 92.598 209.988 98.16 204.426
 105.023 204.426 c 154.727 204.426 l 161.586 204.426 167.148 198.863 167.148
 192 c 167.148 185.137 161.586 179.574 154.727 179.574 c 142.301 179.574
 l 135.438 179.574 129.875 174.012 129.875 167.148 c 129.875 160.285 135.438
 154.723 142.301 154.723 c 179.574 154.723 l 186.438 154.723 192 149.16 
192 142.297 c 192 135.438 186.438 129.875 179.574 129.875 c h
179.574 129.875 m f
0 0.784314 0.784314 rg
303.121 55.324 m 285.871 55.324 l 309.484 81.703 323.852 116.535 323.852
 154.727 c 323.852 163.191 323.137 171.492 321.781 179.574 c 339.027 179.574
 l 340.383 171.492 341.102 163.191 341.102 154.727 c 341.102 116.535 326.734
 81.703 303.121 55.324 c h
303.121 55.324 m f
241.699 18.051 m 241.699 16.578 241.43 15.172 240.961 13.859 c 225.625 
8.531 209.152 5.625 192 5.625 c 189.105 5.625 186.23 5.715 183.375 5.879
 c 204.086 7.062 223.668 12.473 241.266 21.258 c 241.539 20.234 241.699 
19.16 241.699 18.051 c h
241.699 18.051 m f
303.895 229.273 m 321.148 229.273 l 325.695 221.418 329.535 213.105 332.605
 204.426 c 315.363 204.426 l 312.293 213.105 308.441 221.418 303.895 229.273
 c h
303.895 229.273 m f
0.85098 0.309804 0.533333 rg
358.562 290.891 m 352.734 285.738 344.309 284.906 337.621 288.379 c 338.93
 289.055 340.176 289.883 341.312 290.891 c 349.445 298.074 349.73 310.5 
342.176 318.055 c 320.051 340.18 l 324.281 344.414 l 326.711 346.84 330.645
 346.84 333.066 344.414 c 359.426 318.055 l 366.98 310.5 366.691 298.074
 358.562 290.891 c h
358.562 290.891 m f
85.215 290.891 m 79.383 285.738 70.957 284.906 64.273 288.379 c 65.578 
289.055 66.824 289.883 67.965 290.891 c 76.094 298.074 76.379 310.5 68.824
 318.055 c 46.699 340.18 l 50.934 344.414 l 53.359 346.84 57.293 346.84 
59.719 344.414 c 86.074 318.055 l 93.629 310.5 93.344 298.074 85.215 290.891
 c h
85.215 290.891 m f
0.937255 0.937255 0.976471 rg
240.262 261.711 m 266.945 288.395 266.945 331.656 240.262 358.34 c 213.578
 385.023 170.316 385.023 143.633 358.34 c 116.949 331.656 116.949 288.395
 143.633 261.711 c 156.445 248.895 173.824 241.699 191.945 241.699 c 210.066
 241.699 227.445 248.895 240.262 261.711 c h
240.262 261.711 m f
0.87451 0.870588 0.960784 rg
192 241.699 m 189.078 241.699 186.199 241.883 183.375 242.242 c 217.043
 246.48 243.086 275.219 243.086 310.039 c 243.086 344.859 217.043 373.594
 183.375 377.836 c 186.199 378.191 189.078 378.375 192 378.375 c 229.742
 378.375 260.336 347.781 260.336 310.039 c 260.336 272.297 229.742 241.699
 192 241.699 c h
192 241.699 m f
0 g
192 260.926 m 175.195 260.926 161.523 274.598 161.523 291.398 c 161.523
 306.281 172.25 318.699 186.375 321.348 c 186.375 329.262 l 179.574 329.262
 l 176.469 329.262 173.949 331.781 173.949 334.887 c 173.949 337.996 176.469
 340.512 179.574 340.512 c 186.375 340.512 l 186.375 353.523 l 186.375 356.633
 188.895 359.148 192 359.148 c 195.105 359.148 197.625 356.633 197.625 353.523
 c 197.625 340.512 l 204.426 340.512 l 207.531 340.512 210.051 337.996 210.051
 334.887 c 210.051 331.781 207.531 329.262 204.426 329.262 c 197.625 329.262
 l 197.625 321.348 l 211.75 318.699 222.477 306.281 222.477 291.398 c 222.477
 274.598 208.805 260.926 192 260.926 c h
192 310.625 m 181.398 310.625 172.773 302 172.773 291.402 c 172.773 280.801
 181.398 272.176 192 272.176 c 202.602 272.176 211.227 280.801 211.227 291.398
 c 211.227 302 202.602 310.625 192 310.625 c h
192 310.625 m f
241.699 234.898 m 251.652 234.898 259.75 226.805 259.75 216.852 c 259.75
 206.898 251.652 198.801 241.699 198.801 c 229.273 198.801 l 219.32 198.801
 211.227 206.898 211.227 216.852 c 211.227 226.805 219.324 234.898 229.273
 234.898 c h
222.477 216.852 m 222.477 213.102 225.523 210.051 229.273 210.051 c 241.699
 210.051 l 245.449 210.051 248.5 213.102 248.5 216.852 c 248.5 220.602 245.449
 223.648 241.699 223.648 c 229.273 223.648 l 225.523 223.648 222.477 220.602
 222.477 216.852 c h
222.477 216.852 m f
322.461 237.945 m 338.336 213.109 346.727 184.332 346.727 154.727 c 346.727
 69.41 277.316 0 192 0 c 168.949 0 146.77 4.949 126.078 14.707 c 123.266
 16.035 122.062 19.387 123.387 22.195 c 124.715 25.004 128.066 26.207 130.875
 24.883 c 136.828 22.078 142.914 19.699 149.113 17.758 c 149.113 17.855 
149.102 17.953 149.102 18.051 c 149.102 28.004 157.199 36.102 167.148 36.102
 c 229.273 36.102 l 237.816 36.102 244.984 30.137 246.848 22.156 c 262.75
 28.762 277.215 38.145 289.637 49.699 c 254.125 49.699 l 244.172 49.699 
236.074 57.797 236.074 67.75 c 236.074 77.703 244.172 85.801 254.125 85.801
 c 266.203 85.801 l 269.953 85.801 273.004 88.852 273.004 92.602 c 273.004
 96.348 269.953 99.398 266.203 99.398 c 229.273 99.398 l 219.32 99.398 211.227
 107.496 211.227 117.449 c 211.227 127.402 219.324 135.5 229.273 135.5 c
 266.551 135.5 l 270.301 135.5 273.348 138.551 273.348 142.301 c 273.348
 146.051 270.301 149.098 266.551 149.098 c 254.125 149.098 l 244.172 149.098
 236.074 157.195 236.074 167.148 c 236.074 177.102 244.172 185.199 254.125
 185.199 c 266.695 185.199 l 269.801 185.199 272.32 182.68 272.32 179.574
 c 272.32 176.469 269.801 173.949 266.695 173.949 c 254.125 173.949 l 250.375
 173.949 247.324 170.898 247.324 167.148 c 247.324 163.398 250.375 160.348
 254.125 160.348 c 266.551 160.348 l 276.504 160.348 284.598 152.254 284.598
 142.301 c 284.598 132.348 276.504 124.25 266.551 124.25 c 229.273 124.25
 l 225.523 124.25 222.477 121.199 222.477 117.449 c 222.477 113.699 225.523
 110.648 229.273 110.648 c 266.203 110.648 l 276.156 110.648 284.254 102.555
 284.254 92.602 c 284.254 82.648 276.156 74.551 266.203 74.551 c 254.125
 74.551 l 250.375 74.551 247.324 71.5 247.324 67.75 c 247.324 64 250.375
 60.949 254.125 60.949 c 300.504 60.949 l 322.285 86.117 335.477 118.91 
335.477 154.727 c 335.477 161.227 335.043 167.645 334.211 173.949 c 289.195
 173.949 l 286.086 173.949 283.57 176.469 283.57 179.574 c 283.57 182.68
 286.086 185.199 289.195 185.199 c 332.277 185.199 l 331.289 189.812 330.078
 194.348 328.66 198.801 c 291.402 198.801 l 281.445 198.801 273.352 206.898
 273.352 216.852 c 273.352 226.805 281.449 234.898 291.402 234.898 c 311.203
 234.898 l 298.449 253.855 281.066 269.766 260.051 281.066 c 248.758 254.641
 222.508 236.074 192 236.074 c 185.258 236.074 178.727 236.988 172.52 238.684
 c 171.078 230.164 163.648 223.648 154.727 223.648 c 105.023 223.648 l 101.277
 223.648 98.227 220.602 98.227 216.852 c 98.227 213.102 101.277 210.051 
105.023 210.051 c 154.727 210.051 l 164.676 210.051 172.773 201.953 172.773
 192 c 172.773 182.047 164.676 173.949 154.727 173.949 c 142.301 173.949
 l 138.551 173.949 135.5 170.898 135.5 167.148 c 135.5 163.402 138.551 160.352
 142.301 160.352 c 179.574 160.352 l 189.527 160.352 197.625 152.254 197.625
 142.301 c 197.625 132.348 189.527 124.25 179.574 124.25 c 167.152 124.25
 l 163.402 124.25 160.352 121.199 160.352 117.449 c 160.352 113.703 163.402
 110.652 167.152 110.652 c 179.574 110.652 l 189.527 110.652 197.625 102.555
 197.625 92.602 c 197.625 82.648 189.527 74.551 179.574 74.551 c 73.016 
74.551 l 83.223 59.414 96.359 46.137 111.984 35.617 c 114.562 33.883 115.246
 30.387 113.508 27.809 c 111.773 25.23 108.277 24.551 105.703 26.281 c 62.855
 55.125 37.273 103.141 37.273 154.727 c 37.273 184.332 45.664 213.109 61.539
 237.941 c 76.133 260.781 96.387 279.336 120.301 291.859 c 118.824 297.676
 118.039 303.766 118.039 310.039 c 118.039 350.82 151.215 384 192 384 c 
232.785 384 265.961 350.82 265.961 310.039 c 265.961 303.766 265.176 297.676
 263.699 291.859 c 287.613 279.336 307.867 260.781 322.461 237.945 c h
229.273 24.852 m 167.148 24.852 l 163.398 24.852 160.352 21.801 160.352
 18.051 c 160.352 16.793 160.703 15.578 161.352 14.52 c 171.332 12.352 181.566
 11.25 192 11.25 c 207.367 11.25 222.176 13.688 236.07 18.184 c 235.996 
21.871 232.98 24.852 229.273 24.852 c h
291.398 223.648 m 287.652 223.648 284.602 220.602 284.602 216.852 c 284.602
 213.102 287.652 210.051 291.398 210.051 c 324.543 210.051 l 322.613 214.703
 320.441 219.242 318.035 223.648 c h
48.523 154.727 m 48.523 130.234 54.758 106.617 66.164 85.801 c 179.574 
85.801 l 183.324 85.801 186.375 88.852 186.375 92.602 c 186.375 96.348 183.324
 99.398 179.574 99.398 c 167.152 99.398 l 157.199 99.398 149.102 107.496
 149.102 117.449 c 149.102 127.402 157.199 135.5 167.152 135.5 c 179.574
 135.5 l 183.324 135.5 186.375 138.551 186.375 142.301 c 186.375 146.051
 183.324 149.098 179.574 149.098 c 142.301 149.098 l 132.348 149.098 124.25
 157.195 124.25 167.148 c 124.25 177.102 132.348 185.199 142.301 185.199
 c 154.727 185.199 l 158.477 185.199 161.523 188.25 161.523 192 c 161.523
 195.75 158.477 198.801 154.727 198.801 c 105.023 198.801 l 95.07 198.801
 86.977 206.898 86.977 216.848 c 86.977 226.801 95.07 234.898 105.023 234.898
 c 154.727 234.898 l 158.477 234.898 161.523 237.949 161.523 241.699 c 161.523
 242.031 161.492 242.359 161.445 242.684 c 157.801 244.344 154.316 246.293
 151.016 248.5 c 83.199 248.5 l 61.129 222.996 48.523 190.074 48.523 154.727
 c h
94.07 259.75 m 137.816 259.75 l 132.047 265.961 127.328 273.16 123.949 
281.066 c 112.945 275.148 102.938 267.969 94.07 259.75 c h
192 372.75 m 157.422 372.75 129.289 344.617 129.289 310.039 c 129.289 275.457
 157.422 247.324 192 247.324 c 226.578 247.324 254.711 275.457 254.711 310.039
 c 254.711 344.617 226.578 372.75 192 372.75 c h
192 372.75 m f
88.938 286.676 m 79.871 278.66 66.145 278.602 57.012 286.535 c 56.422 287.051
 55.859 287.586 55.324 288.148 c 54.789 287.586 54.227 287.051 53.637 286.539
 c 44.504 278.602 30.777 278.66 21.711 286.676 c 16.625 291.172 13.711 297.367
 13.504 304.129 c 13.297 310.793 15.883 317.32 20.598 322.035 c 46.957 348.395
 l 49.266 350.699 52.293 351.855 55.324 351.855 c 58.355 351.852 61.391 
350.699 63.695 348.395 c 90.055 322.035 l 94.77 317.32 97.355 310.793 97.148
 304.129 c 96.941 297.367 94.023 291.168 88.938 286.676 c h
82.098 314.078 m 55.742 340.438 l 55.512 340.668 55.137 340.664 54.91 340.438
 c 28.551 314.078 l 25.988 311.516 24.637 308.102 24.746 304.473 c 24.859
 300.852 26.426 297.523 29.16 295.105 c 31.566 292.98 34.66 291.918 37.758
 291.918 c 40.812 291.918 43.871 292.953 46.262 295.031 c 48 296.539 49.266
 298.391 50.023 300.531 c 50.816 302.781 52.941 304.281 55.324 304.281 c
 57.711 304.281 59.836 302.781 60.629 300.531 c 61.383 298.395 62.648 296.543
 64.391 295.031 c 69.199 290.848 76.711 290.883 81.488 295.105 c 84.223 
297.52 85.793 300.848 85.902 304.473 c 86.016 308.102 84.664 311.516 82.098
 314.078 c h
82.098 314.078 m f
370.496 304.129 m 370.289 297.367 367.375 291.168 362.289 286.676 c 353.223
 278.66 339.496 278.602 330.363 286.535 c 329.773 287.051 329.211 287.586
 328.676 288.148 c 328.141 287.586 327.578 287.051 326.988 286.539 c 317.855
 278.602 304.129 278.66 295.062 286.676 c 289.977 291.168 287.062 297.367
 286.852 304.129 c 286.648 310.793 289.234 317.32 293.949 322.035 c 320.305
 348.395 l 322.613 350.699 325.645 351.855 328.676 351.855 c 331.707 351.852
 334.738 350.699 337.047 348.395 c 363.402 322.035 l 368.117 317.32 370.703
 310.793 370.496 304.129 c h
355.449 314.078 m 329.09 340.438 l 328.859 340.668 328.488 340.664 328.262
 340.438 c 301.902 314.078 l 299.336 311.516 297.984 308.102 298.098 304.473
 c 298.207 300.848 299.777 297.52 302.512 295.105 c 304.914 292.98 308.012
 291.918 311.109 291.918 c 314.164 291.918 317.219 292.953 319.609 295.031
 c 321.352 296.539 322.617 298.391 323.371 300.531 c 324.168 302.781 326.293
 304.281 328.676 304.281 c 331.059 304.281 333.184 302.781 333.98 300.531
 c 334.734 298.395 336 296.543 337.742 295.031 c 342.551 290.848 350.062
 290.883 354.84 295.105 c 357.574 297.523 359.141 300.852 359.254 304.477
 c 359.363 308.102 358.012 311.516 355.449 314.078 c h
355.449 314.078 m f
Q Q
showpage
%%Trailer
end
%%EOF
