%!PS-Adobe-3.0 EPSF-3.0
%%Creator: cairo 1.16.0 (https://cairographics.org)
%%CreationDate: Fri Feb  5 09:59:20 2021
%%Pages: 1
%%DocumentData: Clean7Bit
%%LanguageLevel: 2
%%BoundingBox: 0 0 384 384
%%EndComments
%%BeginProlog
50 dict begin
/q { gsave } bind def
/Q { grestore } bind def
/cm { 6 array astore concat } bind def
/w { setlinewidth } bind def
/J { setlinecap } bind def
/j { setlinejoin } bind def
/M { setmiterlimit } bind def
/d { setdash } bind def
/m { moveto } bind def
/l { lineto } bind def
/c { curveto } bind def
/h { closepath } bind def
/re { exch dup neg 3 1 roll 5 3 roll moveto 0 rlineto
      0 exch rlineto 0 rlineto closepath } bind def
/S { stroke } bind def
/f { fill } bind def
/f* { eofill } bind def
/n { newpath } bind def
/W { clip } bind def
/W* { eoclip } bind def
/BT { } bind def
/ET { } bind def
/BDC { mark 3 1 roll /BDC pdfmark } bind def
/EMC { mark /EMC pdfmark } bind def
/cairo_store_point { /cairo_point_y exch def /cairo_point_x exch def } def
/Tj { show currentpoint cairo_store_point } bind def
/TJ {
  {
    dup
    type /stringtype eq
    { show } { -0.001 mul 0 cairo_font_matrix dtransform rmoveto } ifelse
  } forall
  currentpoint cairo_store_point
} bind def
/cairo_selectfont { cairo_font_matrix aload pop pop pop 0 0 6 array astore
    cairo_font exch selectfont cairo_point_x cairo_point_y moveto } bind def
/Tf { pop /cairo_font exch def /cairo_font_matrix where
      { pop cairo_selectfont } if } bind def
/Td { matrix translate cairo_font_matrix matrix concatmatrix dup
      /cairo_font_matrix exch def dup 4 get exch 5 get cairo_store_point
      /cairo_font where { pop cairo_selectfont } if } bind def
/Tm { 2 copy 8 2 roll 6 array astore /cairo_font_matrix exch def
      cairo_store_point /cairo_font where { pop cairo_selectfont } if } bind def
/g { setgray } bind def
/rg { setrgbcolor } bind def
/d1 { setcachedevice } bind def
/cairo_data_source {
  CairoDataIndex CairoData length lt
    { CairoData CairoDataIndex get /CairoDataIndex CairoDataIndex 1 add def }
    { () } ifelse
} def
/cairo_flush_ascii85_file { cairo_ascii85_file status { cairo_ascii85_file flushfile } if } def
/cairo_image { image cairo_flush_ascii85_file } def
/cairo_imagemask { imagemask cairo_flush_ascii85_file } def
%%EndProlog
%%BeginSetup
%%EndSetup
%%Page: 1 1
%%BeginPageSetup
%%PageBoundingBox: 0 0 384 384
%%EndPageSetup
q 0 0 384 384 rectclip
1 0 0 -1 0 384 cm q
0.980392 0.368627 0.592157 rg
254.125 303.824 m 254.125 276.375 231.875 254.125 204.426 254.125 c 55.324
 254.125 l 27.875 254.125 5.625 276.375 5.625 303.824 c 5.625 365.949 l 
5.625 372.812 11.188 378.375 18.051 378.375 c 241.699 378.375 l 248.562 
378.375 254.125 372.812 254.125 365.949 c h
254.125 303.824 m f
0.85098 0.309804 0.533333 rg
254.125 303.824 m 254.125 276.375 231.875 254.125 204.426 254.125 c 187.188
 254.125 l 214.629 254.133 236.871 276.379 236.871 303.824 c 236.875 365.949
 l 236.875 372.812 231.309 378.375 224.449 378.375 c 241.699 378.375 l 248.562
 378.375 254.125 372.812 254.125 365.949 c h
254.125 303.824 m f
0.992157 0.74902 0 rg
191.875 254.145 m 199.852 262.043 204.781 272.957 204.781 285.008 c 204.781
 309.125 185.039 328.676 160.684 328.676 c 148.695 328.676 137.824 323.938
 129.875 316.25 c 121.926 323.938 111.055 328.676 99.066 328.676 c 74.711
 328.676 54.969 309.125 54.969 285.008 c 54.969 272.957 59.898 262.043 67.875
 254.145 c h
191.875 254.145 m f
1 0.568627 0 rg
191.875 254.145 m 174.281 254.145 l 182.258 262.043 187.188 272.957 187.188
 285.008 c 187.188 306.145 172.023 323.77 151.883 327.805 c 154.73 328.375
 157.672 328.676 160.684 328.676 c 185.039 328.676 204.781 309.125 204.781
 285.008 c 204.781 272.957 199.852 262.043 191.875 254.145 c h
191.875 254.145 m f
0.784314 0.427451 0.211765 rg
165.414 31.629 m 160.637 16.551 146.531 5.625 129.871 5.625 c 113.215 5.625
 99.109 16.551 94.332 31.629 c 94.332 43.895 l 165.414 43.895 l h
165.414 31.629 m f
0.741176 0.345098 0.2 rg
129.871 5.625 m 126.906 5.625 124.023 5.977 121.258 6.633 c 134.027 9.652
 144.258 19.234 148.184 31.629 c 148.184 43.895 l 165.414 43.895 l 165.414
 31.629 l 160.637 16.551 146.531 5.625 129.871 5.625 c h
129.871 5.625 m f
0.862745 0.529412 0.345098 rg
92.598 216.852 m 66.047 216.852 44.359 196.031 42.969 169.828 c 42.879 
168.148 43.535 166.512 44.727 165.324 c 55.324 154.727 l 55.324 80.176 l
 55.324 52.727 77.574 30.477 105.023 30.477 c 154.723 30.477 l 182.172 30.477
 204.422 52.727 204.422 80.176 c 204.422 154.727 l 215.023 165.324 l 216.211
 166.516 216.867 168.148 216.777 169.828 c 215.387 196.031 193.699 216.852
 167.148 216.852 c h
92.598 216.852 m f
0.784314 0.427451 0.211765 rg
215.023 165.324 m 204.422 154.727 l 204.422 80.176 l 204.422 52.727 182.172
 30.477 154.723 30.477 c 137.473 30.477 l 164.922 30.477 187.172 52.727 
187.172 80.176 c 187.172 154.727 l 197.773 165.324 l 198.961 166.512 199.617
 168.148 199.527 169.828 c 198.137 196.031 176.449 216.852 149.898 216.852
 c 167.148 216.852 l 193.699 216.852 215.387 196.031 216.777 169.828 c 216.867
 168.148 216.211 166.512 215.023 165.324 c h
215.023 165.324 m f
1 0.827451 0.741176 rg
167.148 241.699 m 167.148 190.664 l 92.598 190.656 l 92.598 241.699 l 129.875
 302.668 l h
167.148 241.699 m f
1 0.698039 0.639216 rg
191.996 105.023 m 204.422 105.023 l 211.285 105.023 216.848 110.586 216.848
 117.449 c 216.848 142.301 l 216.848 149.164 211.285 154.727 204.422 154.727
 c 55.324 154.727 l 48.461 154.727 42.898 149.164 42.898 142.301 c 42.898
 117.449 l 42.898 110.59 48.461 105.027 55.324 105.027 c 191.996 105.027
 l h
191.996 105.023 m f
1 0.572549 0.54902 rg
204.422 105.023 m 187.172 105.023 l 194.035 105.023 199.598 110.586 199.598
 117.449 c 199.598 142.301 l 199.598 149.164 194.035 154.727 187.172 154.727
 c 204.422 154.727 l 211.285 154.727 216.848 149.164 216.848 142.301 c 216.848
 117.449 l 216.848 110.586 211.285 105.023 204.422 105.023 c h
204.422 105.023 m f
1 0.827451 0.741176 rg
191.996 105.023 m 192 80.176 l 67.75 80.176 l 67.75 154.727 l 67.75 189.039
 95.562 216.852 129.875 216.852 c 164.184 216.852 191.996 189.039 191.996
 154.727 c 188.145 129.875 l h
191.996 105.023 m f
1 0.698039 0.639216 rg
174.746 80.176 m 174.746 154.727 l 174.746 186.109 151.473 212.039 121.246
 216.242 c 124.066 216.633 126.945 216.852 129.871 216.852 c 164.184 216.852
 191.996 189.035 191.996 154.727 c 191.996 80.176 l h
174.746 80.176 m f
0.87451 0.870588 0.960784 rg
160.895 299.652 m 154.211 309.66 142.812 316.25 129.875 316.25 c 116.938
 316.25 105.539 309.66 98.855 299.652 c 98.812 284.844 l 129.875 278.977
 l 160.891 284.844 l 160.891 299.652 l h
160.895 299.652 m f
0.862745 0.529412 0.345098 rg
67.75 105.023 m 119.535 105.023 l 140.121 105.023 156.809 88.336 156.809
 67.75 c 63.84 67.75 l h
67.75 105.023 m f
197.59 105.023 m 179.574 105.023 l 165.848 105.023 154.723 93.898 154.723
 80.176 c 192 76.688 l h
197.59 105.023 m f
0.784314 0.427451 0.211765 rg
187.074 77.148 m 187.133 78.148 187.172 79.156 187.172 80.176 c 187.172
 105.023 l 197.59 105.023 l 192 76.684 l h
187.074 77.148 m f
0.937255 0.937255 0.976471 rg
92.598 241.699 m 67.75 254.129 l 89.453 297.531 l 91.125 300.871 95.348
 301.992 98.457 299.922 c 129.875 278.977 l h
92.598 241.699 m f
167.148 241.699 m 192 254.129 l 170.297 297.531 l 168.625 300.871 164.402
 301.992 161.293 299.922 c 129.875 278.977 l h
167.148 241.699 m f
0.87451 0.870588 0.960784 rg
167.148 241.699 m 161.398 247.449 l 174.746 254.125 l 154.211 295.199 l
 161.293 299.922 l 164.402 301.992 168.625 300.871 170.297 297.531 c 192
 254.125 l h
167.148 241.699 m f
0.937255 0.937255 0.976471 rg
378.375 241.711 m 378.375 234.848 372.812 229.285 365.949 229.285 c 312.105
 229.285 l 310.762 229.285 309.453 228.852 308.379 228.043 c 270.273 199.465
 l 266.18 196.395 260.336 199.316 260.336 204.438 c 260.336 223.074 l 260.336
 226.504 257.555 229.285 254.125 229.285 c 241.699 229.285 l 234.836 229.285
 229.273 234.848 229.273 241.711 c 229.273 341.109 l 229.273 347.973 234.836
 353.539 241.699 353.539 c 365.949 353.539 l 372.809 353.539 378.375 347.973
 378.375 341.113 c h
378.375 241.711 m f
0.980392 0.368627 0.592157 rg
309.199 265.934 m 308.055 266.926 307.066 268.023 306.227 269.195 c 305.059
 270.824 302.59 270.824 301.422 269.195 c 300.586 268.023 299.594 266.926
 298.449 265.934 c 291.469 259.871 280.863 259.918 273.938 266.039 c 265.809
 273.223 265.52 285.652 273.074 293.207 c 299.434 319.566 l 301.859 321.992
 305.793 321.992 308.219 319.566 c 334.574 293.207 l 342.129 285.652 341.844
 273.223 333.715 266.039 c 326.785 259.918 316.18 259.871 309.199 265.934
 c h
309.199 265.934 m f
0.85098 0.309804 0.533333 rg
333.711 266.039 m 327.883 260.887 319.457 260.055 312.77 263.527 c 314.078
 264.207 315.324 265.031 316.461 266.039 c 324.594 273.223 324.879 285.652
 317.324 293.207 c 295.199 315.332 l 299.43 319.566 l 301.859 321.992 305.793
 321.992 308.219 319.566 c 334.574 293.207 l 342.129 285.652 341.844 273.223
 333.711 266.039 c h
333.711 266.039 m f
0.87451 0.870588 0.960784 rg
291.129 228.043 m 292.207 228.848 293.512 229.285 294.855 229.285 c 312.105
 229.285 l 310.762 229.285 309.457 228.852 308.379 228.043 c 270.277 199.465
 l 266.18 196.395 260.336 199.316 260.336 204.438 c 260.336 204.949 l h
291.129 228.043 m f
365.949 229.285 m 348.699 229.285 l 355.562 229.285 361.125 234.848 361.125
 241.711 c 361.125 341.113 l 361.125 347.973 355.562 353.535 348.699 353.535
 c 365.949 353.535 l 372.812 353.535 378.375 347.973 378.375 341.113 c 378.375
 241.711 l 378.375 234.848 372.812 229.285 365.949 229.285 c h
365.949 229.285 m f
0 g
105.023 124.25 m 101.918 124.25 99.398 126.77 99.398 129.875 c 99.398 136.086
 l 99.398 139.191 101.918 141.711 105.023 141.711 c 108.133 141.711 110.648
 139.191 110.648 136.086 c 110.648 129.875 l 110.648 126.77 108.133 124.25
 105.023 124.25 c h
105.023 124.25 m f
154.723 141.711 m 157.832 141.711 160.348 139.191 160.348 136.086 c 160.348
 129.875 l 160.348 126.77 157.832 124.25 154.723 124.25 c 151.617 124.25
 149.098 126.77 149.098 129.875 c 149.098 136.086 l 149.098 139.191 151.617
 141.711 154.723 141.711 c h
154.723 141.711 m f
116.297 156.07 m 113.609 157.629 112.691 161.07 114.25 163.758 c 117.477
 169.32 123.461 172.773 129.875 172.773 c 136.285 172.773 142.273 169.32
 145.496 163.758 c 147.055 161.07 146.141 157.629 143.453 156.07 c 140.766
 154.516 137.324 155.43 135.766 158.117 c 134.547 160.219 132.289 161.527
 129.875 161.527 c 127.461 161.527 125.203 160.219 123.984 158.117 c 122.422
 155.43 118.98 154.516 116.297 156.07 c h
116.297 156.07 m f
365.949 223.66 m 312.105 223.66 l 311.98 223.66 311.855 223.621 311.754
 223.543 c 273.652 194.965 l 270.039 192.258 265.293 191.828 261.254 193.848
 c 257.219 195.867 254.711 199.922 254.711 204.438 c 254.711 223.074 l 254.711
 223.398 254.445 223.66 254.125 223.66 c 241.699 223.66 l 231.746 223.66
 223.648 231.758 223.648 241.711 c 223.648 251.945 l 217.527 249.68 211.016
 248.5 204.426 248.5 c 193.328 248.5 l 172.773 238.223 l 172.773 222.188
 l 200.648 219.359 222.473 195.758 222.473 167.148 c 222.473 165.656 221.883
 164.227 220.828 163.172 c 214.75 157.094 l 219.414 153.824 222.477 148.414
 222.477 142.301 c 222.477 117.449 l 222.477 109.461 217.258 102.672 210.051
 100.301 c 210.051 80.176 l 210.051 54.859 192.949 33.473 169.699 26.926
 c 163.215 10.695 147.594 0 129.871 0 c 112.152 0 96.531 10.695 90.051 26.926
 c 66.797 33.473 49.699 54.859 49.699 80.176 c 49.699 100.301 l 42.492 102.672
 37.273 109.461 37.273 117.449 c 37.273 142.301 l 37.273 148.414 40.336 
153.828 45 157.094 c 38.922 163.172 l 37.867 164.227 37.273 165.656 37.273
 167.148 c 37.273 195.758 59.102 219.363 86.977 222.191 c 86.977 238.223
 l 66.422 248.5 l 55.324 248.5 l 24.82 248.5 0 273.32 0 303.824 c 0 365.949
 l 0 370.77 1.879 375.305 5.289 378.715 c 8.695 382.121 13.23 384 18.051
 384 c 56.5 384 l 59.605 384 62.125 381.48 62.125 378.375 c 62.125 375.27
 59.605 372.75 56.5 372.75 c 18.051 372.75 l 16.234 372.75 14.527 372.043
 13.242 370.758 c 11.957 369.473 11.25 367.766 11.25 365.949 c 11.25 303.824
 l 11.25 279.523 31.023 259.75 55.324 259.75 c 56.348 259.75 l 51.781 267.309
 49.344 275.973 49.344 285.008 c 49.344 312.188 71.648 334.301 99.066 334.301
 c 110.371 334.301 121.129 330.562 129.875 323.695 c 138.625 330.562 149.383
 334.301 160.684 334.301 c 188.102 334.301 210.406 312.188 210.406 285.008
 c 210.406 275.973 207.969 267.309 203.406 259.75 c 204.426 259.75 l 211.109
 259.75 217.691 261.27 223.648 264.16 c 223.648 310.133 l 223.648 313.242
 226.168 315.758 229.273 315.758 c 232.383 315.758 234.898 313.242 234.898
 310.133 c 234.898 241.711 l 234.898 237.961 237.949 234.91 241.699 234.91
 c 254.125 234.91 l 260.652 234.91 265.961 229.602 265.961 223.074 c 265.961
 204.438 l 265.961 204.32 265.961 204.074 266.285 203.91 c 266.613 203.746
 266.805 203.895 266.902 203.965 c 305.004 232.543 l 307.039 234.07 309.562
 234.91 312.105 234.91 c 365.949 234.91 l 369.699 234.91 372.75 237.961 
372.75 241.711 c 372.75 341.109 l 372.75 344.859 369.699 347.91 365.949 
347.91 c 241.699 347.91 l 237.949 347.91 234.898 344.859 234.898 341.109
 c 234.898 332.633 l 234.898 329.527 232.383 327.008 229.273 327.008 c 226.168
 327.008 223.648 329.527 223.648 332.633 c 223.648 341.109 l 223.648 351.062
 231.746 359.16 241.699 359.16 c 248.5 359.16 l 248.5 365.949 l 248.5 367.766
 247.793 369.473 246.508 370.758 c 245.223 372.043 243.516 372.75 241.699
 372.75 c 79 372.75 l 75.891 372.75 73.375 375.27 73.375 378.375 c 73.375
 381.48 75.891 384 79 384 c 241.699 384 l 246.52 384 251.055 382.121 254.461
 378.711 c 257.871 375.305 259.75 370.77 259.75 365.949 c 259.75 359.16 
l 365.949 359.16 l 375.902 359.16 384 351.062 384 341.109 c 384 241.711 
l 384 231.758 375.902 223.66 365.949 223.66 c h
165.266 295.016 m 165.188 295.172 165.062 295.273 164.891 295.32 c 164.719
 295.363 164.559 295.336 164.414 295.242 c 164.023 294.98 l 164.023 294.98
 164.02 294.977 164.016 294.977 c 164.016 294.973 164.012 294.973 164.008
 294.969 c 138.703 278.102 l 168.258 248.543 l 184.453 256.641 l h
129.875 310.625 m 121.184 310.625 113 307.074 107.082 300.93 c 129.875 
285.734 l 152.668 300.93 l 146.75 307.074 138.566 310.625 129.875 310.625
 c h
152.828 94.77 m 158.008 104.223 168.051 110.652 179.574 110.652 c 186.371
 110.652 l 186.371 154.727 l 186.371 185.879 161.027 211.227 129.871 211.227
 c 98.719 211.227 73.375 185.879 73.375 154.727 c 73.375 110.652 l 119.535
 110.652 l 132.957 110.648 144.953 104.449 152.828 94.77 c h
98.223 214.613 m 107.676 219.629 118.449 222.477 129.875 222.477 c 141.301
 222.477 152.07 219.629 161.523 214.613 c 161.523 239.371 l 129.875 271.023
 l 98.223 239.371 l h
172.773 210.855 m 172.773 207.121 l 186.57 195.805 195.836 179.152 197.387
 160.348 c 202.094 160.348 l 211.164 169.422 l 210.074 190.789 193.691 208.176
 172.773 210.855 c h
211.223 142.301 m 211.223 146.051 208.172 149.098 204.422 149.098 c 197.625
 149.098 l 197.625 110.648 l 204.422 110.648 l 208.172 110.648 211.223 113.699
 211.223 117.449 c h
129.871 11.25 m 140.516 11.25 150.129 16.48 155.918 24.879 c 155.52 24.871
 155.125 24.852 154.723 24.852 c 105.023 24.852 l 104.621 24.852 104.227
 24.871 103.828 24.879 c 109.617 16.48 119.23 11.25 129.871 11.25 c h
105.023 36.102 m 154.723 36.102 l 179.027 36.102 198.797 55.871 198.797
 80.176 c 198.797 99.398 l 179.574 99.402 l 169.215 99.402 160.75 91.164
 160.367 80.895 c 161.707 76.75 162.438 72.336 162.438 67.75 c 162.438 64.645
 159.918 62.125 156.812 62.125 c 153.703 62.125 151.188 64.645 151.188 67.75
 c 151.188 85.203 136.988 99.402 119.535 99.402 c 60.949 99.398 l 60.949
 80.176 l 60.949 55.871 80.719 36.102 105.023 36.102 c h
48.523 117.449 m 48.523 113.699 51.574 110.648 55.324 110.648 c 62.125 
110.648 l 62.125 149.102 l 55.324 149.102 l 51.574 149.098 48.523 146.051
 48.523 142.301 c h
48.582 169.422 m 57.652 160.348 l 62.359 160.348 l 63.91 179.152 73.176
 195.805 86.973 207.121 c 86.973 210.855 l 66.055 208.176 49.672 190.789
 48.582 169.422 c h
91.488 248.543 m 121.043 278.102 l 95.746 294.965 l 95.742 294.969 95.734
 294.973 95.73 294.977 c 95.727 294.977 95.723 294.98 95.719 294.984 c 95.336
 295.242 l 95.191 295.34 95.027 295.363 94.859 295.32 c 94.688 295.273 94.562
 295.172 94.484 295.016 c 75.297 256.641 l h
60.594 285.008 m 60.594 277.629 62.715 270.578 66.652 264.512 c 84.422 
300.047 l 85.941 303.082 88.691 305.32 91.973 306.191 c 92.973 306.457 93.992
 306.59 95.008 306.59 c 95.652 306.59 96.293 306.531 96.926 306.426 c 101.902
 312.398 108.344 316.848 115.543 319.398 c 110.453 321.785 104.855 323.051
 99.066 323.051 c 77.852 323.051 60.594 305.984 60.594 285.008 c h
160.684 323.051 m 154.898 323.051 149.297 321.785 144.207 319.398 c 151.406
 316.848 157.848 312.398 162.824 306.426 c 163.457 306.531 164.098 306.59
 164.742 306.59 c 165.758 306.59 166.777 306.457 167.777 306.191 c 171.059
 305.32 173.809 303.082 175.328 300.047 c 193.098 264.512 l 197.035 270.574
 199.156 277.633 199.156 285.008 c 199.156 305.984 181.898 323.051 160.684
 323.051 c h
160.684 323.051 m f
303.824 327.008 m 306.988 327.008 309.961 325.777 312.195 323.543 c 338.555
 297.184 l 343.266 292.469 345.852 285.945 345.648 279.277 c 345.441 272.516
 342.523 266.32 337.438 261.824 c 328.371 253.812 314.645 253.754 305.512
 261.688 c 304.922 262.199 304.359 262.738 303.824 263.301 c 303.289 262.738
 302.727 262.199 302.137 261.688 c 293.004 253.754 279.281 253.812 270.211
 261.824 c 265.129 266.32 262.211 272.516 262.004 279.277 c 261.797 285.945
 264.383 292.473 269.098 297.184 c 295.457 323.543 l 297.688 325.777 300.664
 327.008 303.824 327.008 c h
273.246 279.625 m 273.359 276 274.926 272.672 277.66 270.254 c 280.066 
268.129 283.16 267.066 286.258 267.066 c 289.312 267.066 292.367 268.102
 294.758 270.18 c 296.5 271.691 297.766 273.543 298.52 275.68 c 299.316 
277.93 301.441 279.43 303.824 279.434 c 306.207 279.434 308.336 277.93 309.129
 275.68 c 309.883 273.543 311.148 271.691 312.891 270.18 c 317.699 266 325.211
 266.031 329.988 270.254 c 332.723 272.672 334.289 276 334.402 279.625 c
 334.516 283.25 333.164 286.664 330.598 289.23 c 304.238 315.586 l 304.012
 315.816 303.637 315.816 303.41 315.586 c 277.051 289.23 l 274.484 286.664
 273.137 283.254 273.246 279.625 c h
273.246 279.625 m f
Q Q
showpage
%%Trailer
end
%%EOF
