%!PS-Adobe-3.0 EPSF-3.0
%%Creator: cairo 1.16.0 (https://cairographics.org)
%%CreationDate: Fri Feb  5 09:59:21 2021
%%Pages: 1
%%DocumentData: Clean7Bit
%%LanguageLevel: 2
%%BoundingBox: 37 0 347 384
%%EndComments
%%BeginProlog
50 dict begin
/q { gsave } bind def
/Q { grestore } bind def
/cm { 6 array astore concat } bind def
/w { setlinewidth } bind def
/J { setlinecap } bind def
/j { setlinejoin } bind def
/M { setmiterlimit } bind def
/d { setdash } bind def
/m { moveto } bind def
/l { lineto } bind def
/c { curveto } bind def
/h { closepath } bind def
/re { exch dup neg 3 1 roll 5 3 roll moveto 0 rlineto
      0 exch rlineto 0 rlineto closepath } bind def
/S { stroke } bind def
/f { fill } bind def
/f* { eofill } bind def
/n { newpath } bind def
/W { clip } bind def
/W* { eoclip } bind def
/BT { } bind def
/ET { } bind def
/BDC { mark 3 1 roll /BDC pdfmark } bind def
/EMC { mark /EMC pdfmark } bind def
/cairo_store_point { /cairo_point_y exch def /cairo_point_x exch def } def
/Tj { show currentpoint cairo_store_point } bind def
/TJ {
  {
    dup
    type /stringtype eq
    { show } { -0.001 mul 0 cairo_font_matrix dtransform rmoveto } ifelse
  } forall
  currentpoint cairo_store_point
} bind def
/cairo_selectfont { cairo_font_matrix aload pop pop pop 0 0 6 array astore
    cairo_font exch selectfont cairo_point_x cairo_point_y moveto } bind def
/Tf { pop /cairo_font exch def /cairo_font_matrix where
      { pop cairo_selectfont } if } bind def
/Td { matrix translate cairo_font_matrix matrix concatmatrix dup
      /cairo_font_matrix exch def dup 4 get exch 5 get cairo_store_point
      /cairo_font where { pop cairo_selectfont } if } bind def
/Tm { 2 copy 8 2 roll 6 array astore /cairo_font_matrix exch def
      cairo_store_point /cairo_font where { pop cairo_selectfont } if } bind def
/g { setgray } bind def
/rg { setrgbcolor } bind def
/d1 { setcachedevice } bind def
/cairo_data_source {
  CairoDataIndex CairoData length lt
    { CairoData CairoDataIndex get /CairoDataIndex CairoDataIndex 1 add def }
    { () } ifelse
} def
/cairo_flush_ascii85_file { cairo_ascii85_file status { cairo_ascii85_file flushfile } if } def
/cairo_image { image cairo_flush_ascii85_file } def
/cairo_imagemask { imagemask cairo_flush_ascii85_file } def
%%EndProlog
%%BeginSetup
%%EndSetup
%%Page: 1 1
%%BeginPageSetup
%%PageBoundingBox: 37 0 347 384
%%EndPageSetup
q 37 0 310 384 rectclip
1 0 0 -1 0 384 cm q
0.411765 0.486275 0.52549 rg
254.125 30.477 m 260.988 30.477 266.551 24.91 266.551 18.051 c 266.551 
11.188 260.988 5.625 254.125 5.625 c 241.699 5.625 l 234.836 5.625 229.273
 11.188 229.273 18.051 c 229.273 24.91 234.836 30.477 241.699 30.477 c h
254.125 30.477 m f
129.875 30.477 m 123.012 30.477 117.449 24.91 117.449 18.051 c 117.449 
11.188 123.012 5.625 129.875 5.625 c 142.301 5.625 l 149.164 5.625 154.727
 11.188 154.727 18.051 c 154.727 24.91 149.164 30.477 142.301 30.477 c h
129.875 30.477 m f
0.784314 0.427451 0.211765 rg
71.59 142.301 m 69.238 142.301 67.086 140.969 66.031 138.867 c 42.898 92.602
 l 192 80.176 l 341.102 92.602 l 317.969 138.867 l 316.914 140.973 314.766
 142.301 312.41 142.301 c h
71.59 142.301 m f
0.741176 0.345098 0.2 rg
192 80.176 m 183.23 80.906 l 323.562 92.598 l 300.43 138.867 l 299.379 
140.969 297.227 142.301 294.875 142.301 c 312.41 142.301 l 314.762 142.301
 316.914 140.969 317.969 138.867 c 341.102 92.598 l h
192 80.176 m f
0.862745 0.529412 0.345098 rg
341.102 92.602 m 42.898 92.602 l 42.898 73.75 l 42.898 70.438 45.586 67.75
 48.898 67.75 c 335.102 67.75 l 338.414 67.75 341.102 70.438 341.102 73.75
 c h
341.102 92.602 m f
92.602 303.824 m 192 316.25 l 291.398 303.824 l 291.398 123.449 l 291.398
 120.137 288.715 117.449 285.398 117.449 c 98.602 117.449 l 95.285 117.449
 92.602 120.137 92.602 123.449 c h
92.602 303.824 m f
0.784314 0.427451 0.211765 rg
285.398 117.449 m 268.148 117.449 l 271.465 117.449 274.148 120.137 274.148
 123.449 c 274.148 303.824 l 183.375 315.172 l 192 316.25 l 291.398 303.824
 l 291.398 123.449 l 291.398 120.137 288.715 117.449 285.398 117.449 c h
285.398 117.449 m f
335.102 67.75 m 317.562 67.75 l 320.879 67.75 323.562 70.438 323.562 73.75
 c 323.562 92.598 l 341.102 92.598 l 341.102 73.75 l 341.102 70.438 338.414
 67.75 335.102 67.75 c h
335.102 67.75 m f
0.992157 0.74902 0 rg
92.602 303.824 198.801 28.602 re f
1 0.568627 0 rg
274.148 303.824 17.25 28.602 re f
0.862745 0.529412 0.345098 rg
316.25 362.934 m 67.75 362.934 l 67.75 334.676 l 67.75 331.359 70.438 328.676
 73.75 328.676 c 310.25 328.676 l 313.562 328.676 316.25 331.359 316.25 
334.676 c h
316.25 362.934 m f
0.784314 0.427451 0.211765 rg
310.25 328.676 m 293 328.676 l 296.312 328.676 299 331.359 299 334.676 
c 299 362.934 l 316.25 362.934 l 316.25 334.676 l 316.25 331.359 313.562
 328.676 310.25 328.676 c h
310.25 328.676 m f
335.102 378.375 m 338.414 378.375 341.102 375.688 341.102 372.375 c 341.102
 359.523 l 341.102 356.211 338.414 353.523 335.102 353.523 c 48.898 353.523
 l 45.586 353.523 42.898 356.211 42.898 359.523 c 42.898 372.375 l 42.898
 375.688 45.586 378.375 48.898 378.375 c h
335.102 378.375 m f
0.741176 0.345098 0.2 rg
335.102 353.523 m 317.852 353.523 l 321.164 353.523 323.852 356.211 323.852
 359.523 c 323.852 372.375 l 323.852 375.688 321.164 378.375 317.852 378.375
 c 335.102 378.375 l 338.414 378.375 341.102 375.688 341.102 372.375 c 341.102
 359.523 l 341.102 356.211 338.414 353.523 335.102 353.523 c h
335.102 353.523 m f
0.937255 0.937255 0.976471 rg
260.336 210.637 m 260.336 248.379 229.742 278.977 192 278.977 c 154.258
 278.977 123.664 248.379 123.664 210.637 c 123.664 172.895 154.258 142.301
 192 142.301 c 210.125 142.301 227.508 149.5 240.32 162.316 c 253.137 175.133
 260.336 192.512 260.336 210.637 c h
260.336 210.637 m f
0.87451 0.870588 0.960784 rg
192 142.301 m 189.078 142.301 186.199 142.484 183.375 142.84 c 217.043 
147.082 243.086 175.816 243.086 210.637 c 243.086 245.457 217.043 274.195
 183.375 278.434 c 186.199 278.789 189.078 278.977 192 278.977 c 229.742
 278.977 260.336 248.379 260.336 210.637 c 260.336 172.895 229.742 142.301
 192 142.301 c h
192 142.301 m f
0 g
297.023 147.926 m 312.41 147.926 l 316.922 147.926 320.98 145.418 322.996
 141.383 c 346.133 95.113 l 346.133 95.113 346.133 95.105 346.133 95.105
 c 346.508 94.348 346.727 93.5 346.727 92.598 c 346.727 73.75 l 346.727 
67.34 341.512 62.125 335.102 62.125 c 297.023 62.125 l 297.023 38.152 l 
297.023 31.273 293.203 25.086 287.047 22.012 c 271.801 14.387 l 270.102 
6.184 262.824 0 254.125 0 c 241.699 0 l 231.746 0 223.648 8.098 223.648 
18.051 c 223.648 28.004 231.746 36.098 241.699 36.098 c 254.125 36.098 l
 261.152 36.098 267.254 32.059 270.23 26.18 c 282.016 32.07 l 284.336 33.23
 285.773 35.559 285.773 38.152 c 285.773 62.125 l 98.227 62.125 l 98.227
 38.152 l 98.227 35.562 99.664 33.23 101.984 32.07 c 113.77 26.18 l 116.746
 32.059 122.848 36.102 129.875 36.102 c 142.301 36.102 l 152.254 36.102 
160.352 28.004 160.352 18.051 c 160.352 8.098 152.254 0 142.301 0 c 129.875
 0 l 121.176 0 113.898 6.184 112.199 14.387 c 96.953 22.012 l 90.797 25.086
 86.977 31.273 86.977 38.152 c 86.977 62.125 l 82.16 62.125 l 79.055 62.125
 76.535 64.641 76.535 67.75 c 76.535 70.855 79.055 73.375 82.16 73.375 c
 335.102 73.375 l 335.305 73.375 335.477 73.543 335.477 73.75 c 335.477 
86.977 l 48.523 86.977 l 48.523 73.75 l 48.523 73.543 48.691 73.375 48.898
 73.375 c 59.66 73.375 l 62.766 73.375 65.285 70.855 65.285 67.75 c 65.285
 64.641 62.766 62.125 59.66 62.125 c 48.898 62.125 l 42.488 62.125 37.273
 67.34 37.273 73.75 c 37.273 92.602 l 37.273 93.5 37.492 94.352 37.867 95.105
 c 37.867 95.117 l 61 141.383 l 63.02 145.418 67.078 147.926 71.59 147.926
 c 86.973 147.926 l 86.973 266 l 86.973 269.109 89.492 271.625 92.598 271.625
 c 95.707 271.625 98.223 269.109 98.223 266 c 98.223 123.449 l 98.223 123.242
 98.391 123.074 98.598 123.074 c 285.398 123.074 l 285.605 123.074 285.773
 123.242 285.773 123.449 c 285.773 298.199 l 98.227 298.199 l 98.227 288.5
 l 98.227 285.395 95.707 282.875 92.602 282.875 c 89.492 282.875 86.977 
285.395 86.977 288.5 c 86.977 323.051 l 73.75 323.051 l 67.34 323.051 62.125
 328.266 62.125 334.676 c 62.125 347.898 l 48.898 347.898 l 42.488 347.898
 37.273 353.113 37.273 359.523 c 37.273 372.375 l 37.273 378.785 42.488 
384 48.898 384 c 335.102 384 l 341.512 384 346.727 378.785 346.727 372.375
 c 346.727 359.523 l 346.727 353.113 341.512 347.898 335.102 347.898 c 321.875
 347.898 l 321.875 334.676 l 321.875 328.266 316.66 323.051 310.25 323.051
 c 297.023 323.051 l h
254.125 24.852 m 241.699 24.852 l 237.949 24.852 234.902 21.801 234.902
 18.051 c 234.902 14.301 237.949 11.25 241.699 11.25 c 254.125 11.25 l 257.875
 11.25 260.926 14.301 260.926 18.051 c 260.926 21.797 257.875 24.852 254.125
 24.852 c h
129.875 11.25 m 142.301 11.25 l 146.051 11.25 149.098 14.301 149.098 18.051
 c 149.098 21.797 146.051 24.848 142.301 24.848 c 129.875 24.848 l 126.125
 24.848 123.074 21.797 123.074 18.051 c 123.074 14.301 126.125 11.25 129.875
 11.25 c h
285.398 111.824 m 98.602 111.824 l 92.191 111.824 86.977 117.039 86.977
 123.449 c 86.977 136.676 l 71.59 136.676 l 71.367 136.676 71.164 136.551
 71.062 136.352 c 52 98.227 l 331.996 98.227 l 312.938 136.352 l 312.836
 136.551 312.633 136.676 312.41 136.676 c 297.023 136.676 l 297.023 123.449
 l 297.023 117.039 291.809 111.824 285.398 111.824 c h
335.477 359.523 m 335.477 372.375 l 335.477 372.582 335.305 372.75 335.102
 372.75 c 48.898 372.75 l 48.691 372.75 48.523 372.582 48.523 372.375 c 
48.523 359.523 l 48.523 359.32 48.691 359.148 48.898 359.148 c 335.102 359.148
 l 335.305 359.148 335.477 359.32 335.477 359.523 c h
310.625 334.676 m 310.625 347.898 l 73.375 347.898 l 73.375 334.676 l 73.375
 334.469 73.543 334.301 73.75 334.301 c 310.25 334.301 l 310.457 334.301
 310.625 334.469 310.625 334.676 c h
98.227 323.051 m 98.227 309.449 l 285.773 309.449 l 285.773 323.051 l h
98.227 323.051 m f
197.625 254.125 m 197.625 241.113 l 204.426 241.113 l 207.531 241.113 210.051
 238.594 210.051 235.488 c 210.051 232.379 207.531 229.863 204.426 229.863
 c 197.625 229.863 l 197.625 221.945 l 211.75 219.297 222.477 206.883 222.477
 192 c 222.477 175.195 208.805 161.523 192 161.523 c 175.195 161.523 161.523
 175.195 161.523 192 c 161.523 206.883 172.25 219.297 186.375 221.945 c 
186.375 229.863 l 179.574 229.863 l 176.469 229.863 173.949 232.379 173.949
 235.488 c 173.949 238.594 176.469 241.113 179.574 241.113 c 186.375 241.113
 l 186.375 254.125 l 186.375 257.23 188.895 259.75 192 259.75 c 195.105 
259.75 197.625 257.23 197.625 254.125 c h
172.773 192 m 172.773 181.398 181.398 172.773 192 172.773 c 202.602 172.773
 211.227 181.398 211.227 192 c 211.227 202.602 202.602 211.227 192 211.227
 c 181.398 211.227 172.773 202.602 172.773 192 c h
172.773 192 m f
265.961 210.637 m 265.961 169.855 232.785 136.676 192 136.676 c 151.219
 136.676 118.039 169.855 118.039 210.637 c 118.039 251.422 151.215 284.602
 192 284.602 c 232.785 284.602 265.961 251.422 265.961 210.637 c h
129.289 210.637 m 129.289 176.059 157.418 147.926 192 147.926 c 226.582
 147.926 254.711 176.059 254.711 210.637 c 254.711 245.219 226.578 273.352
 192 273.352 c 157.422 273.352 129.289 245.219 129.289 210.637 c h
129.289 210.637 m f
Q Q
showpage
%%Trailer
end
%%EOF
