%!PS-Adobe-3.0 EPSF-3.0
%%Creator: cairo 1.16.0 (https://cairographics.org)
%%CreationDate: Fri Feb  5 09:59:21 2021
%%Pages: 1
%%DocumentData: Clean7Bit
%%LanguageLevel: 2
%%BoundingBox: 37 0 347 384
%%EndComments
%%BeginProlog
50 dict begin
/q { gsave } bind def
/Q { grestore } bind def
/cm { 6 array astore concat } bind def
/w { setlinewidth } bind def
/J { setlinecap } bind def
/j { setlinejoin } bind def
/M { setmiterlimit } bind def
/d { setdash } bind def
/m { moveto } bind def
/l { lineto } bind def
/c { curveto } bind def
/h { closepath } bind def
/re { exch dup neg 3 1 roll 5 3 roll moveto 0 rlineto
      0 exch rlineto 0 rlineto closepath } bind def
/S { stroke } bind def
/f { fill } bind def
/f* { eofill } bind def
/n { newpath } bind def
/W { clip } bind def
/W* { eoclip } bind def
/BT { } bind def
/ET { } bind def
/BDC { mark 3 1 roll /BDC pdfmark } bind def
/EMC { mark /EMC pdfmark } bind def
/cairo_store_point { /cairo_point_y exch def /cairo_point_x exch def } def
/Tj { show currentpoint cairo_store_point } bind def
/TJ {
  {
    dup
    type /stringtype eq
    { show } { -0.001 mul 0 cairo_font_matrix dtransform rmoveto } ifelse
  } forall
  currentpoint cairo_store_point
} bind def
/cairo_selectfont { cairo_font_matrix aload pop pop pop 0 0 6 array astore
    cairo_font exch selectfont cairo_point_x cairo_point_y moveto } bind def
/Tf { pop /cairo_font exch def /cairo_font_matrix where
      { pop cairo_selectfont } if } bind def
/Td { matrix translate cairo_font_matrix matrix concatmatrix dup
      /cairo_font_matrix exch def dup 4 get exch 5 get cairo_store_point
      /cairo_font where { pop cairo_selectfont } if } bind def
/Tm { 2 copy 8 2 roll 6 array astore /cairo_font_matrix exch def
      cairo_store_point /cairo_font where { pop cairo_selectfont } if } bind def
/g { setgray } bind def
/rg { setrgbcolor } bind def
/d1 { setcachedevice } bind def
/cairo_data_source {
  CairoDataIndex CairoData length lt
    { CairoData CairoDataIndex get /CairoDataIndex CairoDataIndex 1 add def }
    { () } ifelse
} def
/cairo_flush_ascii85_file { cairo_ascii85_file status { cairo_ascii85_file flushfile } if } def
/cairo_image { image cairo_flush_ascii85_file } def
/cairo_imagemask { imagemask cairo_flush_ascii85_file } def
%%EndProlog
%%BeginSetup
%%EndSetup
%%Page: 1 1
%%BeginPageSetup
%%PageBoundingBox: 37 0 347 384
%%EndPageSetup
q 37 0 310 384 rectclip
1 0 0 -1 0 384 cm q
0.980392 0.368627 0.592157 rg
290.43 7.699 m 249.504 53.172 l 248.477 54.312 247.91 55.793 247.91 57.328
 c 247.91 123.68 l 310.031 123.68 l 310.031 30.789 l 310.031 21.324 305.797
 12.852 299.121 7.156 c 296.543 4.957 292.695 5.184 290.43 7.699 c h
290.43 7.699 m f
0.85098 0.309804 0.533333 rg
299.121 7.156 m 296.543 4.957 292.695 5.184 290.43 7.699 c 286.32 12.266
 l 290.172 17.438 292.461 23.844 292.461 30.789 c 292.461 123.68 l 310.031
 123.68 l 310.031 30.789 l 310.031 21.324 305.797 12.852 299.121 7.156 c
 h
299.121 7.156 m f
0.411765 0.486275 0.52549 rg
105.031 167.164 m 42.91 179.586 l 42.91 354.379 l 42.91 367.633 53.652 
378.375 66.906 378.375 c 143.152 378.375 l 156.406 378.375 167.152 367.633
 167.152 354.379 c 167.152 179.586 l h
105.031 167.164 m f
0.992157 0.74902 0 rg
92.18 316.254 m 117.879 316.254 l 124.508 316.254 129.879 310.883 129.879
 304.254 c 129.879 278.555 l 129.879 271.93 124.508 266.559 117.879 266.559
 c 92.18 266.559 l 85.555 266.559 80.18 271.93 80.18 278.555 c 80.18 304.254
 l 80.18 310.883 85.555 316.254 92.18 316.254 c h
92.18 316.254 m f
316.242 216.859 m 241.695 216.859 l 241.695 111.043 l 241.695 107.727 244.383
 105.043 247.695 105.043 c 310.242 105.043 l 313.555 105.043 316.242 107.727
 316.242 111.043 c h
316.242 216.859 m f
1 0.568627 0 rg
310.242 105.043 m 292.992 105.043 l 296.309 105.043 298.992 107.727 298.992
 111.043 c 298.992 216.859 l 316.242 216.859 l 316.242 111.043 l 316.242
 107.727 313.555 105.043 310.242 105.043 c h
310.242 105.043 m f
0.937255 0.937255 0.976471 rg
328.668 238.602 m 229.273 238.602 l 229.273 210.438 l 229.273 207.121 231.957
 204.438 235.273 204.438 c 322.668 204.438 l 325.98 204.438 328.668 207.121
 328.668 210.438 c h
328.668 238.602 m f
0.87451 0.870588 0.960784 rg
322.668 204.438 m 305.418 204.438 l 308.73 204.438 311.418 207.121 311.418
 210.438 c 311.418 238.602 l 328.668 238.602 l 328.668 210.438 l 328.668
 207.121 325.98 204.438 322.668 204.438 c h
322.668 204.438 m f
0.411765 0.486275 0.52549 rg
317.094 378.375 m 240.848 378.375 l 227.594 378.375 216.848 367.629 216.848
 354.375 c 216.848 235.285 l 216.848 231.973 219.535 229.285 222.848 229.285
 c 335.09 229.285 l 338.406 229.285 341.09 231.973 341.09 235.285 c 341.09
 354.375 l 341.09 367.629 330.348 378.375 317.094 378.375 c h
317.094 378.375 m f
0.278431 0.309804 0.329412 rg
335.09 229.285 m 317.844 229.285 l 321.156 229.285 323.84 231.973 323.84
 235.285 c 323.84 354.375 l 323.84 367.629 313.098 378.375 299.844 378.375
 c 317.094 378.375 l 330.348 378.375 341.09 367.629 341.09 354.375 c 341.09
 235.285 l 341.09 231.973 338.406 229.285 335.09 229.285 c h
335.09 229.285 m f
149.902 354.375 m 149.902 367.629 139.156 378.375 125.902 378.375 c 143.152
 378.375 l 156.406 378.375 167.152 367.629 167.152 354.375 c 167.152 179.586
 l 149.902 176.137 l h
149.902 354.375 m f
0.937255 0.937255 0.976471 rg
161.152 154.738 m 48.91 154.738 l 45.594 154.738 42.91 157.426 42.91 160.738
 c 42.91 179.586 l 167.152 179.586 l 167.152 160.738 l 167.152 157.426 164.465
 154.738 161.152 154.738 c h
161.152 154.738 m f
0.87451 0.870588 0.960784 rg
161.152 154.738 m 143.902 154.738 l 147.215 154.738 149.902 157.426 149.902
 160.738 c 149.902 179.586 l 167.152 179.586 l 167.152 160.738 l 167.152
 157.426 164.465 154.738 161.152 154.738 c h
161.152 154.738 m f
1 0.568627 0 rg
117.879 266.559 m 100.629 266.559 l 107.258 266.559 112.629 271.93 112.629
 278.555 c 112.629 304.254 l 112.629 310.883 107.258 316.254 100.629 316.254
 c 117.879 316.254 l 124.508 316.254 129.879 310.883 129.879 304.254 c 129.879
 278.555 l 129.879 271.93 124.508 266.559 117.879 266.559 c h
117.879 266.559 m f
0 g
161.152 149.113 m 48.91 149.113 l 42.5 149.113 37.285 154.328 37.285 160.738
 c 37.285 255.207 l 37.285 258.316 39.801 260.832 42.91 260.832 c 46.016
 260.832 48.535 258.316 48.535 255.207 c 48.535 185.211 l 161.527 185.211
 l 161.527 354.375 l 161.527 364.508 153.285 372.75 143.152 372.75 c 66.906
 372.75 l 56.777 372.75 48.535 364.508 48.535 354.375 c 48.535 277.805 l
 48.535 274.699 46.016 272.184 42.91 272.184 c 39.801 272.184 37.285 274.699
 37.285 277.805 c 37.285 354.375 l 37.285 370.711 50.574 384 66.906 384 
c 143.152 384 l 159.488 384 172.777 370.711 172.777 354.375 c 172.777 160.738
 l 172.777 154.328 167.562 149.113 161.152 149.113 c h
48.535 173.965 m 48.535 160.738 l 48.535 160.531 48.703 160.363 48.91 160.363
 c 161.152 160.363 l 161.359 160.363 161.527 160.531 161.527 160.738 c 161.527
 173.965 l h
48.535 173.965 m f
74.559 278.555 m 74.559 304.254 l 74.559 313.973 82.465 321.879 92.18 321.879
 c 117.879 321.879 l 127.598 321.879 135.504 313.973 135.504 304.254 c 135.504
 278.555 l 135.504 268.84 127.598 260.934 117.879 260.934 c 92.18 260.934
 l 82.465 260.934 74.559 268.84 74.559 278.555 c h
124.254 278.555 m 124.254 304.254 l 124.254 307.77 121.395 310.629 117.879
 310.629 c 92.18 310.629 l 88.664 310.629 85.805 307.77 85.805 304.254 c
 85.805 278.555 l 85.805 275.043 88.664 272.184 92.18 272.184 c 117.879 
272.184 l 121.395 272.184 124.254 275.043 124.254 278.555 c h
124.254 278.555 m f
335.09 223.66 m 334.293 223.66 l 334.293 210.434 l 334.293 204.023 329.078
 198.812 322.668 198.812 c 321.867 198.812 l 321.867 111.043 l 321.867 106.586
 319.344 102.711 315.656 100.762 c 315.656 30.785 l 315.656 20.035 310.957
 9.863 302.77 2.875 c 297.832 -1.336 290.574 -0.871 286.25 3.934 c 245.324
 49.41 l 243.363 51.586 242.285 54.398 242.285 57.328 c 242.285 100.762 
l 238.598 102.715 236.074 106.586 236.074 111.043 c 236.074 138.453 l 236.074
 141.559 238.59 144.078 241.699 144.078 c 244.805 144.078 247.324 141.559
 247.324 138.453 c 247.324 111.043 l 247.324 110.836 247.492 110.668 247.695
 110.668 c 310.242 110.668 l 310.449 110.668 310.617 110.836 310.617 111.043
 c 310.617 173.961 l 247.324 173.961 l 247.324 160.949 l 247.324 157.844
 244.805 155.324 241.699 155.324 c 238.59 155.324 236.074 157.844 236.074
 160.949 c 236.074 198.809 l 235.273 198.809 l 228.863 198.809 223.648 204.023
 223.648 210.434 c 223.648 223.66 l 222.848 223.66 l 216.438 223.66 211.227
 228.875 211.227 235.285 c 211.227 354.375 l 211.227 370.711 224.516 384
 240.848 384 c 317.094 384 l 333.426 384 346.715 370.711 346.715 354.375
 c 346.715 235.285 l 346.715 228.875 341.5 223.66 335.09 223.66 c h
253.535 99.418 m 253.535 57.328 l 253.535 57.184 253.586 57.043 253.684
 56.938 c 294.609 11.461 l 294.828 11.219 295.203 11.211 295.469 11.434 
c 301.148 16.281 304.406 23.336 304.406 30.789 c 304.406 99.418 l h
247.32 185.211 m 310.617 185.211 l 310.617 198.812 l 247.32 198.812 l h
234.898 210.434 m 234.898 210.23 235.066 210.059 235.273 210.059 c 322.668
 210.059 l 322.875 210.059 323.043 210.23 323.043 210.434 c 323.043 223.66
 l 234.898 223.66 l h
222.848 234.91 m 335.09 234.91 l 335.297 234.91 335.465 235.078 335.465
 235.285 c 335.465 248.508 l 222.473 248.508 l 222.473 235.285 l 222.473
 235.078 222.641 234.91 222.848 234.91 c h
317.094 372.75 m 240.848 372.75 l 230.715 372.75 222.473 364.508 222.473
 354.375 c 222.473 259.758 l 335.465 259.758 l 335.465 354.375 l 335.465
 364.508 327.223 372.75 317.094 372.75 c h
317.094 372.75 m f
110.656 241.707 m 110.656 235.496 l 110.656 232.391 108.137 229.871 105.031
 229.871 c 101.922 229.871 99.406 232.391 99.406 235.496 c 99.406 241.707
 l 99.406 244.816 101.922 247.332 105.031 247.332 c 108.137 247.332 110.656
 244.816 110.656 241.707 c h
110.656 241.707 m f
Q Q
showpage
%%Trailer
end
%%EOF
