%!PS-Adobe-3.0 EPSF-3.0
%%Creator: cairo 1.16.0 (https://cairographics.org)
%%CreationDate: Fri Feb  5 09:59:22 2021
%%Pages: 1
%%DocumentData: Clean7Bit
%%LanguageLevel: 2
%%BoundingBox: 0 0 384 384
%%EndComments
%%BeginProlog
50 dict begin
/q { gsave } bind def
/Q { grestore } bind def
/cm { 6 array astore concat } bind def
/w { setlinewidth } bind def
/J { setlinecap } bind def
/j { setlinejoin } bind def
/M { setmiterlimit } bind def
/d { setdash } bind def
/m { moveto } bind def
/l { lineto } bind def
/c { curveto } bind def
/h { closepath } bind def
/re { exch dup neg 3 1 roll 5 3 roll moveto 0 rlineto
      0 exch rlineto 0 rlineto closepath } bind def
/S { stroke } bind def
/f { fill } bind def
/f* { eofill } bind def
/n { newpath } bind def
/W { clip } bind def
/W* { eoclip } bind def
/BT { } bind def
/ET { } bind def
/BDC { mark 3 1 roll /BDC pdfmark } bind def
/EMC { mark /EMC pdfmark } bind def
/cairo_store_point { /cairo_point_y exch def /cairo_point_x exch def } def
/Tj { show currentpoint cairo_store_point } bind def
/TJ {
  {
    dup
    type /stringtype eq
    { show } { -0.001 mul 0 cairo_font_matrix dtransform rmoveto } ifelse
  } forall
  currentpoint cairo_store_point
} bind def
/cairo_selectfont { cairo_font_matrix aload pop pop pop 0 0 6 array astore
    cairo_font exch selectfont cairo_point_x cairo_point_y moveto } bind def
/Tf { pop /cairo_font exch def /cairo_font_matrix where
      { pop cairo_selectfont } if } bind def
/Td { matrix translate cairo_font_matrix matrix concatmatrix dup
      /cairo_font_matrix exch def dup 4 get exch 5 get cairo_store_point
      /cairo_font where { pop cairo_selectfont } if } bind def
/Tm { 2 copy 8 2 roll 6 array astore /cairo_font_matrix exch def
      cairo_store_point /cairo_font where { pop cairo_selectfont } if } bind def
/g { setgray } bind def
/rg { setrgbcolor } bind def
/d1 { setcachedevice } bind def
/cairo_data_source {
  CairoDataIndex CairoData length lt
    { CairoData CairoDataIndex get /CairoDataIndex CairoDataIndex 1 add def }
    { () } ifelse
} def
/cairo_flush_ascii85_file { cairo_ascii85_file status { cairo_ascii85_file flushfile } if } def
/cairo_image { image cairo_flush_ascii85_file } def
/cairo_imagemask { imagemask cairo_flush_ascii85_file } def
%%EndProlog
%%BeginSetup
%%EndSetup
%%Page: 1 1
%%BeginPageSetup
%%PageBoundingBox: 0 0 384 384
%%EndPageSetup
q 0 0 384 384 rectclip
1 0 0 -1 0 384 cm q
1 0.698039 0.639216 rg
282.211 294.508 m 297.648 294.508 310.164 307.023 310.164 322.465 c 310.164
 335.75 l 212.375 335.75 l 212.375 294.508 l h
282.211 294.508 m f
1 0.827451 0.741176 rg
347.434 350.965 m 347.734 335.289 334.609 322.461 318.934 322.461 c 239.34
 322.461 l 233.688 323.961 l 227.805 322.461 l 228.836 319.547 229.402 316.41
 229.402 313.141 c 229.402 306.23 226.891 299.902 222.734 295.023 c 176.426
 239.449 l 171.297 233.234 163.535 229.273 154.852 229.273 c 11.965 229.273
 l 8.531 229.273 5.75 232.055 5.75 235.488 c 5.75 310.035 l 5.75 313.469
 8.535 316.25 11.965 316.25 c 91.172 316.25 l 98.996 316.25 106.359 319.93
 111.055 326.188 c 141.582 366.891 l 146.668 373.852 154.891 378.371 164.172
 378.371 c 319.484 378.371 l 334.742 378.375 347.145 366.152 347.434 350.965
 c h
347.434 350.965 m f
0.980392 0.368627 0.592157 rg
49.238 328.676 m 61.66 328.676 l 65.094 328.676 67.875 325.895 67.875 322.461
 c 67.875 223.062 l 67.875 219.633 65.094 216.852 61.664 216.852 c 49.238
 216.852 l 45.809 216.852 43.027 219.633 43.027 223.062 c 43.027 322.461
 l 43.027 325.895 45.809 328.676 49.238 328.676 c h
49.238 328.676 m f
233.68 28.062 m 200.832 -2.59 149.301 -1.836 117.367 30.32 c 84.812 63.102
 85.547 116.301 118.219 148.973 c 227.012 257.766 l 231.863 262.617 239.73
 262.617 244.582 257.766 c 353.375 148.973 l 386.043 116.301 386.781 63.102
 354.227 30.32 c 322.293 -1.836 270.762 -2.59 237.914 28.062 c 236.719 29.18
 234.875 29.18 233.68 28.062 c h
233.68 28.062 m f
0.85098 0.309804 0.533333 rg
354.227 30.32 m 335.684 11.648 310.535 3.566 286.27 6.074 c 304.801 7.98
 322.816 16.059 336.977 30.32 c 369.531 63.102 368.797 116.301 336.125 148.973
 c 227.332 257.766 l 227.281 257.816 227.223 257.859 227.172 257.91 c 232.035
 262.609 239.781 262.566 244.582 257.766 c 353.375 148.973 l 386.047 116.301
 386.781 63.102 354.227 30.32 c h
354.227 30.32 m f
1 0.698039 0.639216 rg
318.934 322.461 m 301.684 322.461 l 317.359 322.461 330.484 335.293 330.184
 350.965 c 329.895 366.152 317.492 378.375 302.234 378.375 c 319.484 378.375
 l 334.742 378.375 347.145 366.152 347.434 350.965 c 347.734 335.289 334.609
 322.461 318.934 322.461 c h
318.934 322.461 m f
0.85098 0.309804 0.533333 rg
61.664 216.852 m 49.238 216.852 l 48.383 216.852 47.566 217.023 46.828 
217.336 c 49.059 218.277 50.625 220.488 50.625 223.062 c 50.625 322.461 
l 50.625 325.039 49.059 327.246 46.828 328.188 c 47.57 328.5 48.383 328.676
 49.238 328.676 c 61.664 328.676 l 65.094 328.676 67.875 325.895 67.875 
322.461 c 67.875 223.062 l 67.875 219.633 65.094 216.852 61.664 216.852 
c h
61.664 216.852 m f
0.937255 0.937255 0.976471 rg
283.891 75.359 m 310.574 102.043 310.574 145.305 283.891 171.988 c 257.207
 198.672 213.945 198.672 187.262 171.988 c 160.578 145.305 160.578 102.043
 187.262 75.359 c 213.945 48.676 257.207 48.676 283.891 75.359 c h
283.891 75.359 m f
0.87451 0.870588 0.960784 rg
235.613 55.324 m 232.691 55.324 229.812 55.508 226.988 55.867 c 260.66 
60.105 286.703 88.844 286.703 123.664 c 286.703 158.484 260.66 187.219 226.988
 191.461 c 229.812 191.816 232.691 192 235.613 192 c 273.355 192 303.953
 161.406 303.953 123.664 c 303.953 85.922 273.355 55.324 235.613 55.324 
c h
235.613 55.324 m f
0 g
358.219 26.355 m 341.766 9.785 319.852 0.434 296.516 0.016 c 274.023 -0.371
 252.547 7.539 235.797 22.387 c 220.324 8.691 200.539 0.777 179.82 0.055
 c 158.441 -0.695 137.504 6.246 120.891 19.59 c 118.469 21.539 118.078 25.078
 120.027 27.5 c 121.973 29.922 125.512 30.309 127.934 28.363 c 157.902 4.289
 201.715 5.93 229.844 32.176 c 233.18 35.293 238.41 35.293 241.754 32.176
 c 272.715 3.285 320.367 4.207 350.234 34.281 c 380.422 64.68 380.047 114.344
 349.398 144.992 c 240.605 253.785 l 237.953 256.438 233.641 256.438 230.988
 253.785 c 122.195 144.992 l 95.109 117.906 91.348 74.324 113.445 43.617
 c 115.262 41.098 114.688 37.582 112.164 35.766 c 109.645 33.953 106.129
 34.523 104.312 37.047 c 92.051 54.086 86.262 75.152 88.012 96.359 c 89.773
 117.699 99.09 137.797 114.242 152.949 c 223.035 261.742 l 226.551 265.262
 231.176 267.02 235.797 267.02 c 240.418 267.02 245.043 265.262 248.562 
261.742 c 357.355 152.949 l 392.375 117.93 392.762 61.141 358.219 26.355
 c h
358.219 26.355 m f
241.238 167.148 m 241.238 154.137 l 248.039 154.137 l 251.145 154.137 253.664
 151.621 253.664 148.512 c 253.664 145.406 251.145 142.887 248.039 142.887
 c 241.238 142.887 l 241.238 134.973 l 255.363 132.324 266.09 119.906 266.09
 105.023 c 266.09 88.223 252.418 74.551 235.613 74.551 c 218.809 74.551 
205.137 88.223 205.137 105.023 c 205.137 119.906 215.863 132.324 229.988
 134.973 c 229.988 142.887 l 223.188 142.887 l 220.082 142.887 217.562 145.406
 217.562 148.512 c 217.562 151.621 220.082 154.137 223.188 154.137 c 229.988
 154.137 l 229.988 167.148 l 229.988 170.258 232.508 172.773 235.613 172.773
 c 238.723 172.773 241.238 170.258 241.238 167.148 c h
216.391 105.023 m 216.391 94.422 225.012 85.801 235.613 85.801 c 246.215
 85.801 254.84 94.422 254.84 105.023 c 254.84 115.625 246.215 124.25 235.613
 124.25 c 225.012 124.25 216.391 115.625 216.391 105.023 c h
216.391 105.023 m f
309.578 123.664 m 309.578 82.879 276.398 49.699 235.613 49.699 c 194.832
 49.699 161.652 82.879 161.652 123.664 c 161.652 164.445 194.832 197.625
 235.613 197.625 c 276.398 197.625 309.578 164.445 309.578 123.664 c h
172.902 123.664 m 172.902 89.082 201.035 60.949 235.613 60.949 c 270.195
 60.949 298.324 89.082 298.324 123.664 c 298.324 158.242 270.195 186.375
 235.613 186.375 c 201.035 186.375 172.902 158.242 172.902 123.664 c h
172.902 123.664 m f
318.934 316.836 m 315.309 316.836 l 312.625 300.992 298.809 288.883 282.211
 288.883 c 225.465 288.883 l 225.293 288.883 225.129 288.895 224.961 288.91
 c 180.762 235.867 l 174.355 228.105 164.91 223.652 154.852 223.652 c 103.023
 223.652 l 99.914 223.652 97.398 226.168 97.398 229.277 c 97.398 232.383
 99.914 234.902 103.023 234.902 c 154.852 234.902 l 161.539 234.902 167.82
 237.863 172.102 243.051 c 218.453 298.672 l 221.887 302.699 223.777 307.84
 223.777 313.145 c 223.777 325.457 213.758 335.473 201.445 335.473 c 194.758
 335.473 188.477 332.512 184.211 327.344 c 140.555 274.484 l 138.574 272.09
 135.031 271.75 132.633 273.727 c 130.238 275.707 129.902 279.25 131.879
 281.648 c 175.535 334.508 l 181.945 342.273 191.391 346.723 201.445 346.723
 c 214.598 346.723 226 339.125 231.508 328.09 c 310.152 328.09 l 310.16 
328.09 310.164 328.09 310.168 328.09 c 310.172 328.09 310.176 328.09 310.184
 328.09 c 318.934 328.09 l 325.078 328.09 331.094 330.625 335.43 335.047
 c 339.66 339.355 341.926 344.973 341.812 350.855 c 341.582 362.93 331.566
 372.75 319.484 372.75 c 164.172 372.75 l 157.066 372.75 150.32 369.32 146.082
 363.516 c 115.551 322.816 l 109.828 315.184 100.715 310.625 91.172 310.625
 c 73.5 310.625 l 73.5 234.898 l 80.523 234.898 l 83.629 234.898 86.148 
232.383 86.148 229.273 c 86.148 226.168 83.629 223.648 80.523 223.648 c 
73.5 223.648 l 73.5 223.062 l 73.5 216.535 68.191 211.227 61.664 211.227
 c 49.238 211.227 l 42.711 211.227 37.402 216.535 37.402 223.062 c 37.402
 223.648 l 11.965 223.648 l 5.438 223.648 0.125 228.961 0.125 235.488 c 
0.125 310.039 l 0.125 316.566 5.438 321.875 11.965 321.875 c 37.402 321.875
 l 37.402 322.461 l 37.402 328.988 42.711 334.297 49.238 334.297 c 61.66
 334.301 l 68.188 334.301 73.5 328.988 73.5 322.461 c 73.5 321.875 l 91.172
 321.875 l 97.191 321.875 102.941 324.75 106.551 329.562 c 137.035 370.207
 l 143.344 378.844 153.488 384 164.168 384 c 319.484 384 l 337.652 384 352.711
 369.227 353.059 351.07 c 353.23 342.141 349.82 333.652 343.457 327.164 
c 337.02 320.602 328.078 316.836 318.934 316.836 c h
232.406 300.133 m 282.211 300.133 l 292.582 300.133 301.32 307.238 303.82
 316.836 c 234.82 316.836 l 234.953 315.625 235.027 314.391 235.027 313.141
 c 235.027 308.641 234.121 304.215 232.406 300.133 c h
11.965 310.625 m 11.641 310.625 11.375 310.359 11.375 310.039 c 11.375 
235.488 l 11.375 235.164 11.641 234.902 11.965 234.902 c 37.402 234.902 
l 37.402 310.625 l h
61.664 323.051 m 49.238 323.051 l 48.914 323.051 48.652 322.785 48.652 
322.461 c 48.652 223.062 l 48.652 222.738 48.914 222.477 49.238 222.477 
c 61.664 222.477 l 61.988 222.477 62.25 222.738 62.25 223.062 c 62.25 322.461
 l 62.25 322.785 61.988 323.051 61.664 323.051 c h
61.664 323.051 m f
Q Q
showpage
%%Trailer
end
%%EOF
