%!PS-Adobe-3.0 EPSF-3.0
%%Creator: cairo 1.16.0 (https://cairographics.org)
%%CreationDate: Fri Feb  5 09:59:24 2021
%%Pages: 1
%%DocumentData: Clean7Bit
%%LanguageLevel: 2
%%BoundingBox: 24 0 360 384
%%EndComments
%%BeginProlog
50 dict begin
/q { gsave } bind def
/Q { grestore } bind def
/cm { 6 array astore concat } bind def
/w { setlinewidth } bind def
/J { setlinecap } bind def
/j { setlinejoin } bind def
/M { setmiterlimit } bind def
/d { setdash } bind def
/m { moveto } bind def
/l { lineto } bind def
/c { curveto } bind def
/h { closepath } bind def
/re { exch dup neg 3 1 roll 5 3 roll moveto 0 rlineto
      0 exch rlineto 0 rlineto closepath } bind def
/S { stroke } bind def
/f { fill } bind def
/f* { eofill } bind def
/n { newpath } bind def
/W { clip } bind def
/W* { eoclip } bind def
/BT { } bind def
/ET { } bind def
/BDC { mark 3 1 roll /BDC pdfmark } bind def
/EMC { mark /EMC pdfmark } bind def
/cairo_store_point { /cairo_point_y exch def /cairo_point_x exch def } def
/Tj { show currentpoint cairo_store_point } bind def
/TJ {
  {
    dup
    type /stringtype eq
    { show } { -0.001 mul 0 cairo_font_matrix dtransform rmoveto } ifelse
  } forall
  currentpoint cairo_store_point
} bind def
/cairo_selectfont { cairo_font_matrix aload pop pop pop 0 0 6 array astore
    cairo_font exch selectfont cairo_point_x cairo_point_y moveto } bind def
/Tf { pop /cairo_font exch def /cairo_font_matrix where
      { pop cairo_selectfont } if } bind def
/Td { matrix translate cairo_font_matrix matrix concatmatrix dup
      /cairo_font_matrix exch def dup 4 get exch 5 get cairo_store_point
      /cairo_font where { pop cairo_selectfont } if } bind def
/Tm { 2 copy 8 2 roll 6 array astore /cairo_font_matrix exch def
      cairo_store_point /cairo_font where { pop cairo_selectfont } if } bind def
/g { setgray } bind def
/rg { setrgbcolor } bind def
/d1 { setcachedevice } bind def
/cairo_data_source {
  CairoDataIndex CairoData length lt
    { CairoData CairoDataIndex get /CairoDataIndex CairoDataIndex 1 add def }
    { () } ifelse
} def
/cairo_flush_ascii85_file { cairo_ascii85_file status { cairo_ascii85_file flushfile } if } def
/cairo_image { image cairo_flush_ascii85_file } def
/cairo_imagemask { imagemask cairo_flush_ascii85_file } def
%%EndProlog
%%BeginSetup
%%EndSetup
%%Page: 1 1
%%BeginPageSetup
%%PageBoundingBox: 24 0 360 384
%%EndPageSetup
q 24 0 336 384 rectclip
1 0 0 -1 0 384 cm q
0.980392 0.368627 0.592157 rg
351.832 310.035 m 322.285 258.859 l 214.68 260.336 l 214.68 320.98 l 244.227
 372.16 l 249.438 381.184 262.77 380.172 266.562 370.469 c 274.523 350.086
 l 284.102 318.617 l 317.566 325.234 l 339.199 328.531 l 349.5 330.102 357.039
 319.059 351.832 310.035 c h
351.832 310.035 m f
0.85098 0.309804 0.533333 rg
351.832 310.035 m 322.285 258.859 l 305.168 259.094 l 334.582 310.035 l
 338.297 316.473 335.523 323.934 329.891 327.113 c 339.199 328.531 l 349.5
 330.102 357.039 319.059 351.832 310.035 c h
351.832 310.035 m f
0.937255 0.937255 0.976471 rg
291.102 279.402 m 291.102 259.289 l 272.973 259.535 l 252.531 259.816 l
 252.531 311.996 l 274.523 350.086 l 282.488 329.703 l 284.602 324.289 290.188
 321.066 295.93 321.941 c 317.566 325.234 l h
291.102 279.402 m f
0.980392 0.368627 0.592157 rg
32.168 310.035 m 61.715 258.859 l 169.324 260.336 l 169.324 320.98 l 139.773
 372.16 l 134.566 381.184 121.23 380.172 117.441 370.469 c 109.477 350.086
 l 99.902 318.617 l 66.434 325.238 l 44.801 328.531 l 34.5 330.102 26.961
 319.059 32.168 310.035 c h
32.168 310.035 m f
0.937255 0.937255 0.976471 rg
92.898 279.402 m 92.898 259.289 l 111.027 259.535 l 131.469 259.816 l 131.469
 311.996 l 109.477 350.086 l 101.512 329.703 l 99.398 324.289 93.812 321.066
 88.07 321.941 c 66.434 325.234 l h
92.898 279.402 m f
0.85098 0.309804 0.533333 rg
122.523 372.16 m 121.91 373.219 121.184 374.133 120.379 374.918 c 125.848
 380.203 135.52 379.527 139.773 372.16 c 169.32 320.98 l 169.32 291.305 
l h
122.523 372.16 m f
0.992157 0.74902 0 rg
353.523 167.148 m 353.523 154.414 347.137 143.176 337.391 136.453 c 332.43
 133.035 330.672 126.48 333.258 121.039 c 338.34 110.344 338.254 97.418 
331.883 86.387 c 325.516 75.359 314.363 68.82 302.562 67.871 c 296.555 67.391
 291.758 62.594 291.277 56.586 c 290.332 44.785 283.793 33.633 272.762 27.266
 c 261.734 20.898 248.805 20.812 238.113 25.891 c 232.668 28.477 226.117
 26.723 222.695 21.762 c 215.973 12.016 204.734 5.625 192 5.625 c 179.266
 5.625 168.023 12.016 161.305 21.762 c 157.883 26.723 151.332 28.477 145.887
 25.891 c 135.195 20.812 122.266 20.898 111.238 27.266 c 100.207 33.633 
93.668 44.785 92.723 56.586 c 92.238 62.594 87.445 67.391 81.438 67.871 
c 69.637 68.82 58.484 75.359 52.113 86.387 c 45.746 97.418 45.66 110.344
 50.742 121.039 c 53.328 126.48 51.57 133.035 46.609 136.453 c 36.863 143.176
 30.477 154.414 30.477 167.148 c 30.477 179.887 36.863 191.125 46.609 197.844
 c 51.57 201.266 53.328 207.82 50.742 213.262 c 45.66 223.957 45.746 236.883
 52.113 247.91 c 58.484 258.941 69.637 265.48 81.438 266.426 c 87.441 266.91
 92.238 271.707 92.723 277.715 c 93.668 289.516 100.207 300.668 111.238 
307.035 c 122.266 313.402 135.191 313.488 145.887 308.41 c 151.332 305.824
 157.883 307.578 161.305 312.539 c 168.023 322.285 179.262 328.676 192 328.676
 c 204.734 328.676 215.973 322.285 222.695 312.539 c 226.113 307.578 232.668
 305.824 238.109 308.41 c 248.805 313.488 261.73 313.402 272.762 307.035
 c 283.789 300.668 290.328 289.516 291.277 277.715 c 291.758 271.707 296.555
 266.91 302.562 266.426 c 314.363 265.48 325.516 258.941 331.883 247.91 
c 338.25 236.883 338.336 223.957 333.258 213.262 c 330.672 207.816 332.426
 201.266 337.387 197.844 c 347.137 191.125 353.523 179.887 353.523 167.148
 c h
353.523 167.148 m f
1 0.568627 0 rg
337.391 136.453 m 332.43 133.035 330.672 126.48 333.258 121.039 c 338.34
 110.344 338.254 97.418 331.883 86.387 c 325.516 75.359 314.363 68.82 302.562
 67.871 c 296.555 67.391 291.758 62.594 291.277 56.586 c 290.332 44.785 
283.793 33.633 272.762 27.266 c 264.184 22.312 254.461 21.176 245.531 23.297
 c 248.949 24.117 252.312 25.418 255.512 27.266 c 266.543 33.633 273.082
 44.785 274.027 56.586 c 274.512 62.594 279.305 67.391 285.312 67.871 c 
297.113 68.82 308.266 75.359 314.633 86.387 c 321.004 97.418 321.086 110.344
 316.008 121.039 c 313.422 126.48 315.18 133.035 320.141 136.453 c 329.887
 143.176 336.273 154.414 336.273 167.148 c 336.273 179.887 329.887 191.125
 320.141 197.844 c 315.18 201.266 313.422 207.82 316.008 213.262 c 321.09
 223.953 321.004 236.883 314.633 247.91 c 308.266 258.941 297.113 265.48
 285.312 266.426 c 279.305 266.91 274.508 271.707 274.027 277.715 c 273.082
 289.516 266.543 300.668 255.512 307.035 c 252.312 308.883 248.949 310.184
 245.531 311 c 254.461 313.125 264.184 311.988 272.762 307.035 c 283.793
 300.668 290.332 289.516 291.277 277.715 c 291.762 271.707 296.555 266.91
 302.562 266.426 c 314.363 265.48 325.516 258.941 331.883 247.91 c 338.254
 236.883 338.336 223.953 333.258 213.262 c 330.672 207.816 332.43 201.266
 337.391 197.844 c 347.137 191.125 353.523 179.887 353.523 167.148 c 353.523
 154.414 347.137 143.176 337.391 136.453 c h
337.391 136.453 m f
0 g
186.375 178.457 m 186.375 186.375 l 179.574 186.375 l 176.469 186.375 173.949
 188.891 173.949 192 c 173.949 195.105 176.469 197.625 179.574 197.625 c
 186.375 197.625 l 186.375 210.637 l 186.375 213.746 188.895 216.262 192
 216.262 c 195.105 216.262 197.625 213.746 197.625 210.637 c 197.625 197.625
 l 204.426 197.625 l 207.531 197.625 210.051 195.105 210.051 192 c 210.051
 188.891 207.531 186.375 204.426 186.375 c 197.625 186.375 l 197.625 178.457
 l 211.75 175.812 222.473 163.395 222.473 148.512 c 222.473 131.707 208.805
 118.035 192 118.035 c 175.195 118.035 161.523 131.707 161.523 148.512 c
 161.523 163.395 172.25 175.809 186.375 178.457 c h
192 129.285 m 202.602 129.285 211.223 137.91 211.223 148.512 c 211.223 
159.113 202.602 167.738 192 167.738 c 181.398 167.738 172.773 159.113 172.773
 148.512 c 172.773 137.91 181.398 129.285 192 129.285 c h
192 129.285 m f
192 241.113 m 232.781 241.113 265.961 207.934 265.961 167.148 c 265.961
 126.367 232.781 93.188 192 93.188 c 151.219 93.188 118.035 126.367 118.035
 167.148 c 118.039 207.934 151.219 241.113 192 241.113 c h
192 104.438 m 226.578 104.438 254.711 132.57 254.711 167.148 c 254.711 
201.73 226.578 229.863 192 229.863 c 157.422 229.863 129.285 201.73 129.285
 167.148 c 129.289 132.57 157.422 104.438 192 104.438 c h
192 104.438 m f
290.812 167.148 m 290.812 112.664 246.484 68.336 192 68.336 c 169.668 68.336
 148.602 75.605 131.07 89.355 c 128.625 91.27 128.195 94.809 130.113 97.25
 c 132.031 99.695 135.566 100.125 138.012 98.207 c 153.543 86.023 172.211
 79.586 192 79.586 c 240.281 79.586 279.562 118.867 279.562 167.148 c 279.562
 215.43 240.281 254.711 192 254.711 c 143.719 254.711 104.438 215.434 104.438
 167.148 c 104.438 147.363 110.875 128.695 123.059 113.16 c 124.973 110.719
 124.547 107.18 122.102 105.266 c 119.656 103.348 116.121 103.773 114.203
 106.219 c 100.453 123.754 93.188 144.82 93.188 167.152 c 93.188 221.637
 137.516 265.965 192 265.965 c 246.484 265.961 290.812 221.637 290.812 167.148
 c h
290.812 167.148 m f
179.574 48.523 m 182.68 48.523 185.199 46.008 185.199 42.898 c 185.199 
39.148 188.25 36.102 192 36.102 c 195.75 36.102 198.801 39.148 198.801 42.898
 c 198.801 46.008 201.316 48.523 204.426 48.523 c 207.531 48.523 210.051
 46.008 210.051 42.898 c 210.051 32.945 201.953 24.852 192 24.852 c 182.047
 24.852 173.949 32.949 173.949 42.898 c 173.949 46.008 176.469 48.523 179.574
 48.523 c h
179.574 48.523 m f
119.121 71.387 m 120.074 71.387 121.039 71.141 121.926 70.629 c 124.617
 69.078 125.539 65.637 123.984 62.945 c 122.109 59.699 123.227 55.531 126.473
 53.656 c 129.719 51.781 133.887 52.898 135.762 56.145 c 137.316 58.836 
140.758 59.758 143.449 58.203 c 146.137 56.652 147.059 53.211 145.508 50.52
 c 140.531 41.902 129.469 38.938 120.852 43.914 c 112.23 48.891 109.266 
59.953 114.242 68.57 c 115.285 70.375 117.176 71.387 119.121 71.387 c h
119.121 71.387 m f
75.371 120.656 m 76.258 121.168 77.223 121.41 78.18 121.41 c 80.121 121.41
 82.012 120.402 83.055 118.598 c 84.609 115.906 83.688 112.469 80.996 110.914
 c 77.75 109.039 76.633 104.871 78.508 101.625 c 79.414 100.051 80.883 98.926
 82.637 98.457 c 84.391 97.988 86.223 98.227 87.797 99.137 c 90.484 100.688
 93.926 99.77 95.48 97.078 c 97.031 94.387 96.109 90.945 93.422 89.395 c
 89.246 86.98 84.379 86.344 79.723 87.59 c 75.066 88.836 71.176 91.824 68.762
 96 c 63.789 104.617 66.754 115.68 75.371 120.656 c h
75.371 120.656 m f
73.375 179.574 m 73.375 176.469 70.855 173.949 67.75 173.949 c 64 173.949
 60.949 170.898 60.949 167.152 c 60.949 163.402 64 160.352 67.75 160.352
 c 70.855 160.352 73.375 157.832 73.375 154.727 c 73.375 151.617 70.855 
149.102 67.75 149.102 c 57.797 149.102 49.699 157.199 49.699 167.152 c 49.699
 177.102 57.797 185.199 67.75 185.199 c 70.855 185.199 73.375 182.684 73.375
 179.574 c h
73.375 179.574 m f
87.797 235.164 m 86.223 236.07 84.391 236.312 82.637 235.844 c 80.883 235.371
 79.414 234.246 78.508 232.676 c 76.633 229.426 77.75 225.262 80.996 223.387
 c 83.688 221.832 84.609 218.391 83.055 215.699 c 81.504 213.012 78.062 
212.09 75.371 213.641 c 66.754 218.621 63.789 229.68 68.766 238.301 c 71.176
 242.473 75.066 245.461 79.727 246.711 c 81.281 247.125 82.859 247.332 84.426
 247.332 c 87.555 247.332 90.641 246.512 93.422 244.906 c 96.113 243.352
 97.035 239.914 95.48 237.223 c 93.926 234.531 90.484 233.609 87.797 235.164
 c h
87.797 235.164 m f
143.449 276.094 m 140.758 274.539 137.316 275.461 135.766 278.152 c 133.891
 281.398 129.723 282.516 126.477 280.641 c 123.227 278.766 122.113 274.598
 123.984 271.352 c 125.539 268.664 124.617 265.223 121.926 263.668 c 119.234
 262.117 115.797 263.035 114.242 265.727 c 109.266 274.348 112.23 285.406
 120.852 290.383 c 123.688 292.023 126.785 292.797 129.844 292.797 c 136.09
 292.797 142.168 289.562 145.508 283.777 c 147.059 281.086 146.137 277.648
 143.449 276.094 c h
143.449 276.094 m f
204.426 285.773 m 201.316 285.773 198.801 288.293 198.801 291.398 c 198.801
 295.148 195.75 298.199 192 298.199 c 188.25 298.199 185.199 295.148 185.199
 291.398 c 185.199 288.293 182.684 285.773 179.574 285.773 c 176.469 285.773
 173.949 288.293 173.949 291.398 c 173.949 301.352 182.047 309.449 192 309.449
 c 201.953 309.449 210.051 301.352 210.051 291.398 c 210.051 288.293 207.531
 285.773 204.426 285.773 c h
204.426 285.773 m f
262.074 263.668 m 259.383 265.223 258.461 268.664 260.016 271.352 c 261.887
 274.602 260.773 278.77 257.527 280.645 c 254.281 282.516 250.113 281.398
 248.234 278.152 c 246.684 275.461 243.242 274.543 240.551 276.094 c 237.863
 277.648 236.941 281.086 238.492 283.777 c 241.832 289.562 247.91 292.801
 254.156 292.801 c 257.215 292.801 260.316 292.023 263.152 290.387 c 271.77
 285.406 274.73 274.348 269.758 265.727 c 268.203 263.039 264.766 262.117
 262.074 263.668 c h
262.074 263.668 m f
308.629 213.641 m 305.938 212.09 302.496 213.012 300.945 215.699 c 299.391
 218.391 300.312 221.832 303.004 223.387 c 306.25 225.262 307.367 229.426
 305.492 232.676 c 304.582 234.246 303.117 235.371 301.363 235.844 c 299.609
 236.312 297.777 236.07 296.203 235.164 c 293.512 233.609 290.074 234.531
 288.52 237.223 c 286.965 239.914 287.887 243.352 290.578 244.906 c 293.359
 246.512 296.445 247.332 299.574 247.332 c 301.141 247.332 302.719 247.125
 304.273 246.711 c 308.934 245.461 312.824 242.477 315.234 238.301 c 320.211
 229.68 317.246 218.621 308.629 213.641 c h
308.629 213.641 m f
310.625 154.727 m 310.625 157.832 313.141 160.352 316.25 160.352 c 320 
160.352 323.051 163.398 323.051 167.148 c 323.051 170.898 320 173.949 316.25
 173.949 c 313.141 173.949 310.625 176.469 310.625 179.574 c 310.625 182.684
 313.141 185.199 316.25 185.199 c 326.203 185.199 334.301 177.102 334.301
 167.148 c 334.301 157.195 326.203 149.102 316.25 149.102 c 313.145 149.102
 310.625 151.617 310.625 154.727 c h
310.625 154.727 m f
296.203 99.137 m 297.777 98.227 299.609 97.988 301.363 98.457 c 303.117
 98.926 304.586 100.051 305.492 101.625 c 307.367 104.871 306.25 109.039
 303.004 110.914 c 300.312 112.469 299.391 115.91 300.945 118.598 c 301.988
 120.402 303.879 121.414 305.82 121.41 c 306.777 121.41 307.742 121.168 
308.629 120.656 c 317.25 115.68 320.211 104.621 315.234 96 c 312.824 91.824
 308.934 88.84 304.277 87.59 c 299.621 86.344 294.754 86.984 290.578 89.395
 c 287.891 90.945 286.969 94.387 288.52 97.078 c 290.074 99.77 293.516 100.688
 296.203 99.137 c h
296.203 99.137 m f
240.551 58.203 m 243.242 59.754 246.684 58.836 248.234 56.145 c 250.113
 52.898 254.277 51.781 257.523 53.656 c 260.773 55.531 261.887 59.699 260.016
 62.945 c 258.461 65.637 259.383 69.078 262.074 70.629 c 262.961 71.141 
263.926 71.387 264.879 71.387 c 266.824 71.387 268.715 70.375 269.758 68.57
 c 274.73 59.953 271.77 48.891 263.148 43.914 c 254.531 38.941 243.469 41.902
 238.492 50.52 c 236.941 53.211 237.863 56.652 240.551 58.203 c h
240.551 58.203 m f
329.465 260.047 m 332.277 257.32 334.75 254.199 336.754 250.723 c 343.805
 238.512 344.398 223.605 338.34 210.848 c 336.945 207.918 337.91 204.316
 340.582 202.477 c 352.207 194.457 359.148 181.254 359.148 167.148 c 359.148
 153.047 352.207 139.84 340.582 131.824 c 337.91 129.98 336.945 126.383 
338.34 123.453 c 344.398 110.695 343.809 95.789 336.754 83.574 c 329.703
 71.363 317.09 63.395 303.012 62.266 c 299.777 62.004 297.145 59.371 296.883
 56.137 c 295.754 42.059 287.789 29.445 275.574 22.395 c 263.359 15.344 
248.453 14.75 235.699 20.812 c 232.766 22.203 229.168 21.238 227.324 18.566
 c 219.309 6.941 206.102 0 192 0 c 177.898 0 164.691 6.941 156.672 18.566
 c 154.832 21.238 151.234 22.203 148.301 20.812 c 135.547 14.75 120.641 
15.344 108.426 22.395 c 96.211 29.445 88.246 42.059 87.117 56.137 c 86.855
 59.371 84.223 62.004 80.988 62.266 c 66.91 63.395 54.293 71.363 47.242 
83.574 c 40.191 95.789 39.602 110.695 45.66 123.453 c 47.055 126.383 46.09
 129.98 43.418 131.824 c 31.793 139.84 24.852 153.047 24.852 167.148 c 24.852
 181.254 31.793 194.457 43.418 202.477 c 46.09 204.316 47.055 207.918 45.66
 210.848 c 39.602 223.605 40.191 238.512 47.246 250.723 c 49.25 254.199 
51.723 257.32 54.535 260.047 c 43.844 278.562 l 42.293 281.254 43.215 284.695
 45.902 286.246 c 46.789 286.758 47.758 287 48.711 287 c 50.656 287 52.547
 285.992 53.586 284.188 c 63.625 266.801 l 68.898 269.719 74.801 271.535
 80.988 272.035 c 84.223 272.293 86.855 274.93 87.117 278.164 c 62.914 320.082
 l 43.953 322.969 l 41.305 323.375 38.824 322.293 37.312 320.082 c 35.805
 317.871 35.703 315.164 37.039 312.848 c 42.336 303.672 l 43.891 300.984
 42.969 297.543 40.277 295.988 c 37.586 294.438 34.148 295.355 32.594 298.047
 c 27.297 307.223 l 23.797 313.285 24.074 320.645 28.023 326.43 c 31.973
 332.211 38.727 335.148 45.648 334.094 c 88.914 327.504 l 92.086 327.02 
95.105 328.766 96.273 331.75 c 112.199 372.516 l 114.75 379.039 120.668 
383.418 127.648 383.945 c 128.121 383.98 128.59 384 129.055 384 c 135.496
 384 141.379 380.629 144.645 374.973 c 171.238 328.914 l 177.508 332.387
 184.629 334.301 192 334.301 c 199.375 334.301 206.496 332.387 212.766 328.914
 c 239.359 374.973 l 242.621 380.629 248.508 384 254.945 384 c 255.414 384
 255.879 383.98 256.352 383.945 c 263.332 383.418 269.254 379.039 271.801
 372.516 c 287.73 331.75 l 288.895 328.766 291.914 327.02 295.086 327.504
 c 338.355 334.094 l 345.273 335.145 352.027 332.211 355.977 326.43 c 359.926
 320.645 360.203 313.285 356.703 307.223 c h
87.223 316.383 m 77.156 317.914 l 91.281 293.453 l 94.973 301.078 100.887
 307.555 108.426 311.906 c 112.727 314.391 117.367 316.055 122.125 316.926
 c 110.457 337.141 l 106.75 327.656 l 103.656 319.738 95.629 315.102 87.223
 316.383 c h
134.902 369.348 m 133.562 371.668 131.176 372.934 128.496 372.73 c 125.828
 372.527 123.652 370.918 122.68 368.422 c 115.699 350.559 l 134.879 317.336
 l 139.473 316.797 144.012 315.527 148.301 313.488 c 151.234 312.098 154.832
 313.062 156.676 315.73 c 158.293 318.078 160.133 320.227 162.137 322.172
 c h
165.934 309.344 m 162.48 304.336 156.934 301.574 151.203 301.574 c 148.605
 301.574 145.969 302.145 143.473 303.328 c 134.059 307.801 123.059 307.363
 114.051 302.164 c 105.039 296.961 99.164 287.652 98.328 277.262 c 97.621
 268.445 90.707 261.527 81.887 260.82 c 71.496 259.984 62.188 254.109 56.988
 245.098 c 51.785 236.09 51.348 225.09 55.824 215.676 c 59.617 207.684 57.09
 198.238 49.805 193.215 c 41.223 187.297 36.102 177.555 36.102 167.152 c
 36.102 156.746 41.223 147.004 49.805 141.086 c 57.09 136.062 59.621 126.617
 55.824 118.625 c 51.348 109.211 51.785 98.211 56.988 89.199 c 62.188 80.191
 71.496 74.312 81.887 73.48 c 90.707 72.773 97.621 65.855 98.328 57.039 
c 99.164 46.648 105.039 37.34 114.051 32.137 c 123.059 26.934 134.059 26.5
 143.477 30.973 c 151.469 34.77 160.914 32.238 165.934 24.957 c 171.852 
16.375 181.598 11.25 192 11.25 c 202.402 11.25 212.148 16.375 218.062 24.953
 c 223.086 32.238 232.531 34.766 240.523 30.973 c 249.941 26.496 260.941
 26.934 269.949 32.137 c 278.957 37.34 284.836 46.648 285.672 57.035 c 286.379
 65.855 293.293 72.77 302.113 73.477 c 312.504 74.312 321.812 80.191 327.012
 89.199 c 332.215 98.211 332.648 109.211 328.176 118.625 c 324.379 126.613
 326.91 136.062 334.195 141.082 c 342.777 147.004 347.898 156.746 347.898
 167.148 c 347.898 177.551 342.777 187.297 334.195 193.215 c 326.91 198.234
 324.379 207.684 328.176 215.672 c 332.648 225.09 332.215 236.09 327.012
 245.098 c 321.809 254.109 312.5 259.984 302.113 260.82 c 293.293 261.527
 286.379 268.441 285.672 277.262 c 284.836 287.652 278.957 296.961 269.949
 302.16 c 260.938 307.363 249.938 307.797 240.523 303.324 c 232.531 299.527
 223.086 302.062 218.062 309.344 c 212.148 317.926 202.402 323.047 192 323.047
 c 181.598 323.051 171.852 317.926 165.934 309.344 c h
261.32 368.422 m 260.348 370.918 258.172 372.527 255.5 372.727 c 252.832
 372.922 250.438 371.668 249.098 369.348 c 221.859 322.172 l 223.867 320.227
 225.707 318.078 227.324 315.73 c 229.168 313.059 232.766 312.098 235.695
 313.488 c 239.988 315.527 244.523 316.793 249.121 317.336 c 268.301 350.559
 l h
277.25 327.656 m 273.543 337.141 l 261.875 316.926 l 266.633 316.055 271.273
 314.391 275.574 311.906 c 283.113 307.555 289.027 301.078 292.719 293.453
 c 306.844 317.914 l 296.777 316.383 l 288.367 315.102 280.344 319.738 277.25
 327.656 c h
346.684 320.082 m 345.176 322.293 342.691 323.375 340.047 322.973 c 321.086
 320.082 l 296.883 278.164 l 297.145 274.93 299.777 272.293 303.012 272.035
 c 309.199 271.535 315.102 269.719 320.375 266.801 c 346.961 312.848 l 348.297
 315.168 348.195 317.871 346.684 320.082 c h
346.684 320.082 m f
Q Q
showpage
%%Trailer
end
%%EOF
