%!PS-Adobe-3.0 EPSF-3.0
%%Creator: cairo 1.16.0 (https://cairographics.org)
%%CreationDate: Fri Feb  5 09:59:25 2021
%%Pages: 1
%%DocumentData: Clean7Bit
%%LanguageLevel: 2
%%BoundingBox: 37 0 347 384
%%EndComments
%%BeginProlog
50 dict begin
/q { gsave } bind def
/Q { grestore } bind def
/cm { 6 array astore concat } bind def
/w { setlinewidth } bind def
/J { setlinecap } bind def
/j { setlinejoin } bind def
/M { setmiterlimit } bind def
/d { setdash } bind def
/m { moveto } bind def
/l { lineto } bind def
/c { curveto } bind def
/h { closepath } bind def
/re { exch dup neg 3 1 roll 5 3 roll moveto 0 rlineto
      0 exch rlineto 0 rlineto closepath } bind def
/S { stroke } bind def
/f { fill } bind def
/f* { eofill } bind def
/n { newpath } bind def
/W { clip } bind def
/W* { eoclip } bind def
/BT { } bind def
/ET { } bind def
/BDC { mark 3 1 roll /BDC pdfmark } bind def
/EMC { mark /EMC pdfmark } bind def
/cairo_store_point { /cairo_point_y exch def /cairo_point_x exch def } def
/Tj { show currentpoint cairo_store_point } bind def
/TJ {
  {
    dup
    type /stringtype eq
    { show } { -0.001 mul 0 cairo_font_matrix dtransform rmoveto } ifelse
  } forall
  currentpoint cairo_store_point
} bind def
/cairo_selectfont { cairo_font_matrix aload pop pop pop 0 0 6 array astore
    cairo_font exch selectfont cairo_point_x cairo_point_y moveto } bind def
/Tf { pop /cairo_font exch def /cairo_font_matrix where
      { pop cairo_selectfont } if } bind def
/Td { matrix translate cairo_font_matrix matrix concatmatrix dup
      /cairo_font_matrix exch def dup 4 get exch 5 get cairo_store_point
      /cairo_font where { pop cairo_selectfont } if } bind def
/Tm { 2 copy 8 2 roll 6 array astore /cairo_font_matrix exch def
      cairo_store_point /cairo_font where { pop cairo_selectfont } if } bind def
/g { setgray } bind def
/rg { setrgbcolor } bind def
/d1 { setcachedevice } bind def
/cairo_data_source {
  CairoDataIndex CairoData length lt
    { CairoData CairoDataIndex get /CairoDataIndex CairoDataIndex 1 add def }
    { () } ifelse
} def
/cairo_flush_ascii85_file { cairo_ascii85_file status { cairo_ascii85_file flushfile } if } def
/cairo_image { image cairo_flush_ascii85_file } def
/cairo_imagemask { imagemask cairo_flush_ascii85_file } def
%%EndProlog
%%BeginSetup
%%EndSetup
%%Page: 1 1
%%BeginPageSetup
%%PageBoundingBox: 37 0 347 384
%%EndPageSetup
q 37 0 310 384 rectclip
1 0 0 -1 0 384 cm q
0.784314 0.427451 0.211765 rg
142.301 328.676 m 142.301 365.949 l 142.301 372.812 147.863 378.375 154.723
 378.375 c 229.277 378.375 l 236.141 378.375 241.703 372.812 241.703 365.949
 c 241.703 328.676 l h
142.301 328.676 m f
0.741176 0.345098 0.2 rg
224.449 328.676 m 224.449 365.949 l 224.449 372.812 218.887 378.375 212.023
 378.375 c 229.277 378.375 l 236.137 378.375 241.699 372.812 241.699 365.949
 c 241.699 328.676 l h
224.449 328.676 m f
0.937255 0.937255 0.976471 rg
173.363 242.484 m 173.363 272.758 l 173.363 276.191 176.145 278.973 179.574
 278.973 c 204.426 278.973 l 207.855 278.973 210.637 276.191 210.637 272.758
 c 210.637 242.484 l h
173.363 242.484 m f
0.87451 0.870588 0.960784 rg
193.387 242.484 m 193.387 272.758 l 193.387 276.191 190.605 278.973 187.176
 278.973 c 204.426 278.973 l 207.855 278.973 210.637 276.191 210.637 272.758
 c 210.637 242.484 l h
193.387 242.484 m f
0.980392 0.368627 0.592157 rg
263.051 229.273 m 284.852 209.254 309.172 182.926 323.5 154.719 c 345.383
 111.645 350.883 65.309 316.504 31.199 c 283.469 -1.574 230.715 -2.859 196.137
 27.348 c 193.77 29.414 190.23 29.414 187.863 27.348 c 153.285 -2.859 100.531
 -1.574 67.496 31.199 c 33.117 65.309 38.617 111.645 60.5 154.719 c 74.828
 182.926 99.148 209.254 120.953 229.273 c 120.953 233.93 l 262.91 233.93
 l h
263.051 229.273 m f
0.85098 0.309804 0.533333 rg
316.504 31.199 m 297.121 11.973 270.957 3.59 245.656 6.035 c 265.223 7.941
 284.273 16.328 299.262 31.199 c 333.641 65.309 328.141 111.645 306.262 
154.719 c 291.934 182.926 267.609 209.254 245.809 229.27 c 245.668 233.93
 l 262.91 233.93 l 263.051 229.27 l 284.852 209.254 309.172 182.926 323.5
 154.719 c 345.383 111.645 350.883 65.309 316.504 31.199 c h
316.504 31.199 m f
0.937255 0.937255 0.976471 rg
240.281 87.773 m 266.965 114.457 266.965 157.719 240.281 184.406 c 213.598
 211.09 170.332 211.09 143.648 184.406 c 116.965 157.719 116.965 114.457
 143.648 87.773 c 170.332 61.09 213.598 61.09 240.281 87.773 c h
240.281 87.773 m f
0.87451 0.870588 0.960784 rg
192 67.742 m 189.078 67.742 186.199 67.926 183.375 68.281 c 217.047 72.523
 243.09 101.262 243.09 136.082 c 243.09 170.902 217.047 199.641 183.375 
203.879 c 186.199 204.234 189.078 204.422 192 204.422 c 229.742 204.422 
260.34 173.824 260.34 136.082 c 260.34 98.34 229.742 67.742 192 67.742 c
 h
192 67.742 m f
0.862745 0.529412 0.345098 rg
241.699 316.25 m 239.434 316.25 144.566 316.25 142.301 316.25 c 135.438
 316.25 129.875 321.812 129.875 328.676 c 129.875 335.535 135.438 341.102
 142.301 341.102 c 241.699 341.102 l 248.562 341.102 254.125 335.535 254.125
 328.676 c 254.125 321.812 248.562 316.25 241.699 316.25 c h
241.699 316.25 m f
0.992157 0.74902 0 rg
257.656 254.121 m 126.344 254.121 l 119.715 254.121 114.344 248.75 114.344
 242.121 c 114.344 235.273 l 114.344 231.957 117.027 229.273 120.344 229.273
 c 263.656 229.273 l 266.973 229.273 269.656 231.957 269.656 235.273 c 269.656
 242.121 l 269.656 248.75 264.285 254.121 257.656 254.121 c h
257.656 254.121 m f
1 0.568627 0 rg
263.656 229.27 m 246.406 229.27 l 249.723 229.27 252.406 231.957 252.406
 235.27 c 252.406 242.121 l 252.406 248.75 247.035 254.121 240.406 254.121
 c 257.656 254.121 l 264.285 254.121 269.656 248.75 269.656 242.121 c 269.656
 235.27 l 269.656 231.957 266.973 229.27 263.656 229.27 c h
263.656 229.27 m f
0.784314 0.427451 0.211765 rg
241.699 316.25 m 241.113 316.25 234.277 316.25 224.449 316.25 c 231.312
 316.25 236.875 321.812 236.875 328.676 c 236.875 335.535 231.312 341.102
 224.449 341.102 c 241.699 341.102 l 248.562 341.102 254.125 335.535 254.125
 328.676 c 254.125 321.812 248.562 316.25 241.699 316.25 c h
241.699 316.25 m f
0 g
197.625 179.57 m 197.625 166.559 l 204.426 166.559 l 207.531 166.559 210.051
 164.039 210.051 160.934 c 210.051 157.824 207.531 155.309 204.426 155.309
 c 197.625 155.309 l 197.625 147.391 l 211.75 144.742 222.477 132.324 222.477
 117.445 c 222.477 100.641 208.805 86.969 192 86.969 c 175.195 86.969 161.523
 100.641 161.523 117.445 c 161.523 132.324 172.25 144.742 186.375 147.391
 c 186.375 155.309 l 179.574 155.309 l 176.469 155.309 173.949 157.824 173.949
 160.934 c 173.949 164.039 176.469 166.559 179.574 166.559 c 186.375 166.559
 l 186.375 179.57 l 186.375 182.676 188.891 185.195 192 185.195 c 195.105
 185.195 197.625 182.676 197.625 179.57 c h
172.773 117.445 m 172.773 106.844 181.398 98.219 192 98.219 c 202.602 98.219
 211.227 106.844 211.227 117.445 c 211.227 128.043 202.602 136.668 192 136.668
 c 181.398 136.668 172.773 128.043 172.773 117.445 c h
172.773 117.445 m f
265.965 136.082 m 265.965 95.297 232.785 62.117 192 62.117 c 151.215 62.117
 118.035 95.297 118.035 136.082 c 118.035 176.867 151.215 210.047 192 210.047
 c 232.785 210.047 265.965 176.867 265.965 136.082 c h
129.285 136.082 m 129.285 101.5 157.418 73.367 192 73.367 c 226.578 73.367
 254.715 101.5 254.715 136.082 c 254.715 170.664 226.578 198.797 192 198.797
 c 157.418 198.797 129.285 170.664 129.285 136.082 c h
129.285 136.082 m f
320.465 27.203 m 285.621 -7.367 229.383 -9.164 192.434 23.109 c 192.188
 23.328 191.812 23.328 191.566 23.109 c 159.98 -4.48 113.395 -7.707 78.277
 15.266 c 75.676 16.969 74.949 20.453 76.648 23.055 c 78.352 25.656 81.836
 26.383 84.434 24.684 c 115.352 4.457 156.359 7.297 184.164 31.586 c 188.629
 35.484 195.367 35.488 199.836 31.586 c 232.355 3.176 281.863 4.758 312.539
 35.191 c 348.465 70.832 335.602 118.477 318.488 152.172 c 306.988 174.809
 287.598 198.848 260.848 223.648 c 123.152 223.648 l 96.402 198.848 77.012
 174.809 65.512 152.172 c 49.066 119.789 36.207 73.77 68.359 38.426 c 70.449
 36.129 70.281 32.57 67.984 30.48 c 65.688 28.391 62.129 28.559 60.039 30.855
 c 44.633 47.793 36.973 68.293 37.281 91.793 c 37.543 111.977 43.668 134.004
 55.484 157.266 c 66.965 179.871 85.734 203.629 111.312 227.961 c 109.691
 229.961 108.715 232.504 108.715 235.273 c 108.715 242.121 l 108.715 251.84
 116.625 259.746 126.344 259.746 c 130.996 259.746 l 136.191 311.691 l 129.234
 314.199 124.25 320.863 124.25 328.676 c 124.25 336.664 129.469 343.453 
136.672 345.824 c 136.672 365.949 l 136.672 375.902 144.77 384 154.723 384
 c 229.277 384 l 239.23 384 247.324 375.902 247.324 365.949 c 247.324 345.824
 l 254.531 343.453 259.75 336.664 259.75 328.676 c 259.75 320.863 254.766
 314.199 247.809 311.691 c 253.004 259.746 l 257.656 259.746 l 267.375 259.746
 275.285 251.84 275.285 242.121 c 275.285 235.273 l 275.285 232.504 274.309
 229.961 272.688 227.961 c 298.266 203.629 317.031 179.871 328.516 157.266
 c 340.781 133.121 346.91 110.336 346.727 89.547 c 346.512 65.254 337.676
 44.281 320.465 27.203 c h
241.699 335.473 m 178.398 335.473 l 175.293 335.473 172.773 337.992 172.773
 341.098 c 172.773 344.207 175.293 346.723 178.398 346.723 c 236.074 346.723
 l 236.074 365.949 l 236.074 369.699 233.027 372.75 229.277 372.75 c 154.723
 372.75 l 150.977 372.75 147.926 369.699 147.926 365.949 c 147.926 346.723
 l 155.902 346.723 l 159.008 346.723 161.527 344.207 161.527 341.098 c 161.527
 337.992 159.008 335.473 155.902 335.473 c 142.301 335.473 l 138.551 335.473
 135.5 332.422 135.5 328.676 c 135.5 324.93 138.547 321.879 142.289 321.875
 c 142.293 321.875 l 142.297 321.875 142.301 321.875 142.309 321.875 c 241.695
 321.875 l 241.699 321.875 241.703 321.875 241.707 321.875 c 241.711 321.875
 l 245.457 321.879 248.5 324.93 248.5 328.676 c 248.5 332.422 245.449 335.473
 241.699 335.473 c h
236.609 310.625 m 147.391 310.625 l 142.301 259.746 l 167.738 259.746 l
 167.738 272.762 l 167.738 279.289 173.047 284.598 179.574 284.598 c 204.426
 284.598 l 210.953 284.598 216.262 279.289 216.262 272.762 c 216.262 259.746
 l 241.699 259.746 l h
205.012 259.746 m 205.012 272.762 l 205.012 273.086 204.75 273.348 204.426
 273.348 c 179.574 273.348 l 179.25 273.348 178.988 273.082 178.988 272.762
 c 178.988 259.746 l h
264.031 242.121 m 264.031 245.637 261.172 248.496 257.656 248.496 c 247.898
 248.496 l 247.898 248.496 247.895 248.496 247.895 248.496 c 126.34 248.496
 l 122.824 248.496 119.965 245.637 119.965 242.121 c 119.965 235.27 l 119.965
 235.066 120.137 234.895 120.34 234.895 c 120.918 234.895 l 120.93 234.895
 120.938 234.898 120.949 234.898 c 120.961 234.898 120.969 234.895 120.98
 234.895 c 263.656 234.895 l 263.863 234.895 264.031 235.066 264.031 235.27
 c h
264.031 242.121 m f
Q Q
showpage
%%Trailer
end
%%EOF
