%!PS-Adobe-3.0 EPSF-3.0
%%Creator: cairo 1.16.0 (https://cairographics.org)
%%CreationDate: Fri Feb  5 09:59:26 2021
%%Pages: 1
%%DocumentData: Clean7Bit
%%LanguageLevel: 2
%%BoundingBox: 49 0 335 384
%%EndComments
%%BeginProlog
50 dict begin
/q { gsave } bind def
/Q { grestore } bind def
/cm { 6 array astore concat } bind def
/w { setlinewidth } bind def
/J { setlinecap } bind def
/j { setlinejoin } bind def
/M { setmiterlimit } bind def
/d { setdash } bind def
/m { moveto } bind def
/l { lineto } bind def
/c { curveto } bind def
/h { closepath } bind def
/re { exch dup neg 3 1 roll 5 3 roll moveto 0 rlineto
      0 exch rlineto 0 rlineto closepath } bind def
/S { stroke } bind def
/f { fill } bind def
/f* { eofill } bind def
/n { newpath } bind def
/W { clip } bind def
/W* { eoclip } bind def
/BT { } bind def
/ET { } bind def
/BDC { mark 3 1 roll /BDC pdfmark } bind def
/EMC { mark /EMC pdfmark } bind def
/cairo_store_point { /cairo_point_y exch def /cairo_point_x exch def } def
/Tj { show currentpoint cairo_store_point } bind def
/TJ {
  {
    dup
    type /stringtype eq
    { show } { -0.001 mul 0 cairo_font_matrix dtransform rmoveto } ifelse
  } forall
  currentpoint cairo_store_point
} bind def
/cairo_selectfont { cairo_font_matrix aload pop pop pop 0 0 6 array astore
    cairo_font exch selectfont cairo_point_x cairo_point_y moveto } bind def
/Tf { pop /cairo_font exch def /cairo_font_matrix where
      { pop cairo_selectfont } if } bind def
/Td { matrix translate cairo_font_matrix matrix concatmatrix dup
      /cairo_font_matrix exch def dup 4 get exch 5 get cairo_store_point
      /cairo_font where { pop cairo_selectfont } if } bind def
/Tm { 2 copy 8 2 roll 6 array astore /cairo_font_matrix exch def
      cairo_store_point /cairo_font where { pop cairo_selectfont } if } bind def
/g { setgray } bind def
/rg { setrgbcolor } bind def
/d1 { setcachedevice } bind def
/cairo_data_source {
  CairoDataIndex CairoData length lt
    { CairoData CairoDataIndex get /CairoDataIndex CairoDataIndex 1 add def }
    { () } ifelse
} def
/cairo_flush_ascii85_file { cairo_ascii85_file status { cairo_ascii85_file flushfile } if } def
/cairo_image { image cairo_flush_ascii85_file } def
/cairo_imagemask { imagemask cairo_flush_ascii85_file } def
%%EndProlog
%%BeginSetup
%%EndSetup
%%Page: 1 1
%%BeginPageSetup
%%PageBoundingBox: 49 0 335 384
%%EndPageSetup
q 49 0 286 384 rectclip
1 0 0 -1 0 384 cm q
1 0.827451 0.741176 rg
167.148 295.004 m 167.148 372.375 l 167.148 375.688 169.836 378.375 173.148
 378.375 c 210.852 378.375 l 214.164 378.375 216.852 375.688 216.852 372.375
 c 216.852 295.004 l h
167.148 295.004 m f
1 0.698039 0.639216 rg
199.699 295.004 m 199.699 372.375 l 199.699 375.688 197.016 378.375 193.699
 378.375 c 210.852 378.375 l 214.164 378.375 216.852 375.688 216.852 372.375
 c 216.852 295.004 l h
199.699 295.004 m f
0.980392 0.368627 0.592157 rg
223.273 353.523 m 160.727 353.523 l 157.41 353.523 154.727 350.84 154.727
 347.523 c 154.727 334.676 l 154.727 331.363 157.41 328.676 160.727 328.676
 c 223.273 328.676 l 226.59 328.676 229.273 331.363 229.273 334.676 c 229.273
 347.523 l 229.273 350.84 226.59 353.523 223.273 353.523 c h
223.273 353.523 m f
0.85098 0.309804 0.533333 rg
223.273 328.676 m 206.023 328.676 l 209.34 328.676 212.023 331.359 212.023
 334.676 c 212.023 347.523 l 212.023 350.84 209.34 353.523 206.023 353.523
 c 223.273 353.523 l 226.59 353.523 229.273 350.84 229.273 347.523 c 229.273
 334.676 l 229.273 331.359 226.59 328.676 223.273 328.676 c h
223.273 328.676 m f
1 0.698039 0.639216 rg
186.137 303.824 m 167.148 303.824 l 156.855 303.824 148.512 295.48 148.512
 285.188 c 148.512 252.496 l 185.785 252.496 l h
186.137 303.824 m f
0.87451 0.870588 0.960784 rg
210.637 212.121 m 210.637 170.695 l 173.363 170.695 l 173.363 215.086 l
 h
210.637 212.121 m f
0.72549 0.713726 0.92549 rg
193.387 170.695 m 193.387 213.492 l 210.637 212.121 l 210.637 170.695 l
 h
193.387 170.695 m f
1 0.827451 0.741176 rg
188.473 207.578 m 171.312 207.578 l 168.348 205.586 164.777 204.426 160.938
 204.426 c 150.645 204.426 142.301 212.77 142.301 223.062 c 142.301 247.914
 l 142.301 258.207 150.645 266.551 160.938 266.551 c 163.133 266.551 165.238
 266.172 167.195 265.473 c 188.473 265.473 l h
188.473 207.578 m f
1 0.698039 0.639216 rg
188.473 207.578 m 171.312 207.578 l 168.59 205.754 165.359 204.637 161.879
 204.461 c 155.668 204.844 150.406 209.621 149.934 215.887 c 149.516 221.484
 152.809 226.363 157.605 228.336 c 157.996 228.496 158.258 228.855 158.258
 229.277 c 158.258 229.695 157.996 230.055 157.609 230.215 c 153.086 232.074
 149.898 236.508 149.898 241.699 c 149.898 246.891 153.086 251.324 157.605
 253.184 c 157.992 253.34 158.258 253.707 158.258 254.125 c 158.258 254.543
 157.992 254.906 157.605 255.066 c 154.082 256.512 151.379 259.531 150.352
 263.25 c 153.359 265.328 157.004 266.551 160.938 266.551 c 163.133 266.551
 165.238 266.168 167.195 265.473 c 188.473 265.473 l h
188.473 207.578 m f
1 0.827451 0.741176 rg
216.852 204.426 m 179.926 204.426 l 173.371 204.426 167.68 209.352 167.188
 215.887 c 166.766 221.484 170.059 226.363 174.859 228.336 c 175.246 228.496
 175.508 228.859 175.508 229.277 c 175.508 229.695 175.246 230.055 174.859
 230.215 c 170.336 232.074 167.148 236.508 167.148 241.699 c 167.148 246.891
 170.336 251.324 174.855 253.184 c 175.246 253.344 175.508 253.707 175.508
 254.125 c 175.508 254.543 175.246 254.906 174.855 255.066 c 170.336 256.922
 167.148 261.359 167.148 266.551 c 167.148 273.07 172.176 278.422 178.566
 278.934 c 179.137 278.98 179.574 279.457 179.574 280.031 c 179.574 280.414
 179.371 280.758 179.051 280.965 c 175.5 283.262 173.191 287.316 173.371
 291.898 c 173.637 298.621 179.398 303.824 186.125 303.824 c 216.852 303.824
 l 230.578 303.824 241.699 292.699 241.699 278.977 c 241.699 229.273 l 241.699
 215.551 230.574 204.426 216.852 204.426 c h
216.852 204.426 m f
0.862745 0.529412 0.345098 rg
316.676 179.574 m 67.324 179.574 l 60.699 179.574 55.324 174.203 55.324
 167.574 c 55.324 17.625 l 55.324 10.996 60.699 5.625 67.324 5.625 c 316.676
 5.625 l 323.305 5.625 328.676 10.996 328.676 17.625 c 328.676 167.574 l
 328.676 174.203 323.301 179.574 316.676 179.574 c h
316.676 179.574 m f
0.784314 0.427451 0.211765 rg
316.676 5.625 m 299.426 5.625 l 306.051 5.625 311.426 10.996 311.426 17.625
 c 311.426 167.574 l 311.426 174.203 306.051 179.574 299.426 179.574 c 316.676
 179.574 l 323.301 179.574 328.676 174.203 328.676 167.574 c 328.676 17.625
 l 328.676 10.996 323.301 5.625 316.676 5.625 c h
316.676 5.625 m f
0.411765 0.486275 0.52549 rg
297.824 154.727 m 86.176 154.727 l 82.863 154.727 80.176 152.039 80.176
 148.727 c 80.176 36.477 l 80.176 33.16 82.863 30.477 86.176 30.477 c 297.824
 30.477 l 301.137 30.477 303.824 33.16 303.824 36.477 c 303.824 148.727 
l 303.824 152.039 301.137 154.727 297.824 154.727 c h
297.824 154.727 m f
0.278431 0.309804 0.329412 rg
297.824 30.477 m 280.574 30.477 l 283.887 30.477 286.574 33.16 286.574 
36.477 c 286.574 148.727 l 286.574 152.039 283.887 154.727 280.574 154.727
 c 297.824 154.727 l 301.137 154.727 303.824 152.039 303.824 148.727 c 303.824
 36.477 l 303.824 33.16 301.137 30.477 297.824 30.477 c h
297.824 30.477 m f
1 0.698039 0.639216 rg
216.852 204.426 m 199.602 204.426 l 213.324 204.426 224.449 215.551 224.449
 229.273 c 224.449 278.977 l 224.449 292.699 213.328 303.824 199.602 303.824
 c 216.852 303.824 l 230.578 303.824 241.699 292.699 241.699 278.977 c 241.699
 229.273 l 241.699 215.551 230.574 204.426 216.852 204.426 c h
216.852 204.426 m f
0 g
258.422 30.477 m 258.422 27.367 255.906 24.852 252.797 24.852 c 86.176 
24.852 l 79.766 24.852 74.551 30.066 74.551 36.477 c 74.551 148.727 l 74.551
 155.137 79.766 160.352 86.176 160.352 c 297.824 160.352 l 304.234 160.352
 309.449 155.137 309.449 148.727 c 309.449 36.477 l 309.449 30.066 304.234
 24.852 297.824 24.852 c 275.297 24.852 l 272.191 24.852 269.672 27.367 
269.672 30.477 c 269.672 33.582 272.191 36.102 275.297 36.102 c 297.824 
36.102 l 298.031 36.102 298.199 36.27 298.199 36.477 c 298.199 148.727 l
 298.199 148.93 298.031 149.102 297.824 149.102 c 86.176 149.102 l 85.969
 149.102 85.801 148.93 85.801 148.727 c 85.801 36.477 l 85.801 36.27 85.969
 36.102 86.176 36.102 c 252.797 36.102 l 255.906 36.102 258.422 33.582 258.422
 30.477 c h
258.422 30.477 m f
316.676 0 m 67.324 0 l 57.605 0 49.699 7.906 49.699 17.625 c 49.699 167.574
 l 49.699 177.293 57.605 185.199 67.324 185.199 c 93.18 185.199 l 96.289
 185.199 98.805 182.684 98.805 179.574 c 98.805 176.469 96.289 173.949 93.18
 173.949 c 67.324 173.949 l 63.809 173.949 60.949 171.09 60.949 167.574 
c 60.949 17.625 l 60.949 14.109 63.809 11.25 67.324 11.25 c 316.676 11.25
 l 320.191 11.25 323.051 14.109 323.051 17.625 c 323.051 167.574 l 323.051
 171.09 320.191 173.949 316.676 173.949 c 115.68 173.949 l 112.574 173.949
 110.055 176.469 110.055 179.574 c 110.055 182.684 112.574 185.199 115.68
 185.199 c 167.738 185.199 l 167.738 199.777 l 165.547 199.137 163.262 198.801
 160.938 198.801 c 147.559 198.801 136.676 209.688 136.676 223.066 c 136.676
 247.914 l 136.676 254.129 139.027 259.809 142.887 264.105 c 142.887 285.188
 l 142.887 296.629 150.852 306.242 161.523 308.785 c 161.523 323.051 l 160.727
 323.051 l 154.316 323.051 149.102 328.266 149.102 334.676 c 149.102 347.527
 l 149.102 353.938 154.316 359.152 160.727 359.152 c 161.523 359.152 l 161.523
 372.375 l 161.523 378.785 166.738 384 173.148 384 c 210.852 384 l 217.262
 384 222.477 378.785 222.477 372.375 c 222.477 359.148 l 223.277 359.148
 l 229.688 359.148 234.902 353.934 234.902 347.523 c 234.902 334.676 l 234.902
 328.266 229.688 323.051 223.277 323.051 c 222.477 323.051 l 222.477 308.922
 l 236.602 306.273 247.324 293.855 247.324 278.977 c 247.324 229.273 l 247.324
 212.473 233.652 198.801 216.852 198.801 c 216.262 198.801 l 216.262 185.199
 l 316.676 185.199 l 326.395 185.199 334.301 177.293 334.301 167.574 c 334.301
 17.625 l 334.301 7.906 326.395 0 316.676 0 c h
147.926 223.062 m 147.926 215.891 153.762 210.051 160.938 210.051 c 161.566
 210.051 162.195 210.098 162.809 210.188 c 162.082 211.992 161.641 213.941
 161.547 215.984 c 161.312 220.961 163.066 225.68 166.488 229.281 c 163.414
 232.52 161.523 236.895 161.523 241.699 c 161.523 246.512 163.414 250.887
 166.492 254.125 c 164.695 256.016 163.309 258.301 162.461 260.828 c 161.957
 260.887 161.449 260.926 160.938 260.926 c 153.762 260.926 147.926 255.09
 147.926 247.914 c h
154.137 285.188 m 154.137 271.199 l 156.297 271.828 158.578 272.176 160.938
 272.176 c 161.434 272.176 161.926 272.156 162.414 272.125 c 163.777 276.309
 166.625 279.832 170.336 282.051 c 168.488 285.09 167.586 288.609 167.758
 292.266 c 167.859 294.359 168.316 296.355 169.078 298.199 c 167.148 298.199
 l 159.977 298.199 154.137 292.363 154.137 285.188 c h
211.227 372.375 m 211.227 372.582 211.059 372.75 210.852 372.75 c 173.148
 372.75 l 172.941 372.75 172.773 372.582 172.773 372.375 c 172.773 359.148
 l 211.227 359.148 l h
223.648 334.676 m 223.648 347.523 l 223.648 347.73 223.48 347.898 223.273
 347.898 c 160.727 347.898 l 160.52 347.898 160.352 347.73 160.352 347.523
 c 160.352 334.676 l 160.352 334.469 160.52 334.301 160.727 334.301 c 223.273
 334.301 l 223.48 334.301 223.648 334.469 223.648 334.676 c h
172.773 323.051 m 172.773 309.449 l 211.227 309.449 l 211.227 323.051 l
 h
236.074 229.273 m 236.074 278.977 l 236.074 289.574 227.449 298.199 216.852
 298.199 c 186.141 298.199 l 182.367 298.199 179.164 295.301 178.996 291.734
 c 178.906 289.852 179.57 288.066 180.867 286.707 c 182.16 285.352 183.902
 284.605 185.773 284.602 c 185.781 284.602 185.785 284.602 185.789 284.602
 c 210.641 284.602 l 213.746 284.602 216.266 282.082 216.266 278.977 c 216.266
 275.871 213.746 273.352 210.641 273.352 c 185.816 273.352 l 185.809 273.352
 185.797 273.352 185.789 273.352 c 179.574 273.352 l 175.828 273.352 172.777
 270.301 172.777 266.551 c 172.777 262.801 175.828 259.75 179.574 259.75
 c 210.637 259.75 l 213.746 259.75 216.262 257.234 216.262 254.125 c 216.262
 251.02 213.746 248.5 210.637 248.5 c 179.574 248.5 l 175.828 248.5 172.777
 245.449 172.777 241.699 c 172.777 237.953 175.828 234.902 179.574 234.902
 c 210.637 234.902 l 213.746 234.902 216.262 232.383 216.262 229.277 c 216.262
 226.168 213.746 223.652 210.637 223.652 c 179.574 223.652 l 177.699 223.652
 175.949 222.902 174.652 221.543 c 173.359 220.188 172.695 218.402 172.785
 216.516 c 172.953 212.949 176.156 210.051 179.926 210.051 c 210.594 210.051
 l 210.609 210.051 210.621 210.055 210.637 210.055 c 210.652 210.055 210.664
 210.051 210.68 210.051 c 216.852 210.051 l 227.449 210.051 236.074 218.672
 236.074 229.273 c h
205.012 198.801 m 179.926 198.801 l 179.609 198.801 179.297 198.809 178.988
 198.824 c 178.988 185.199 l 205.012 185.199 l h
205.012 198.801 m f
205.18 116.094 m 212.984 116.094 220.785 113.125 226.727 107.184 c 238.609
 95.301 238.609 75.969 226.727 64.086 c 214.848 52.203 195.512 52.203 183.629
 64.086 c 173.109 74.609 171.91 90.969 180.027 102.832 c 174.43 108.43 l
 169.621 103.621 l 167.422 101.426 163.863 101.426 161.664 103.621 c 159.469
 105.816 159.469 109.379 161.664 111.574 c 166.473 116.383 l 157.27 125.586
 l 155.074 127.781 155.074 131.344 157.27 133.539 c 158.371 134.637 159.809
 135.188 161.25 135.188 c 162.688 135.188 164.129 134.637 165.227 133.539
 c 174.426 124.34 l 179.234 129.148 l 180.332 130.246 181.773 130.793 183.211
 130.793 c 184.652 130.793 186.09 130.246 187.191 129.148 c 189.387 126.949
 189.387 123.391 187.191 121.191 c 182.383 116.383 l 187.98 110.785 l 193.145
 114.32 199.16 116.094 205.18 116.094 c h
191.586 72.039 m 195.332 68.293 200.254 66.418 205.18 66.418 c 210.102 
66.418 215.023 68.293 218.773 72.039 c 226.27 79.535 226.27 91.734 218.773
 99.227 c 211.277 106.723 199.086 106.723 191.59 99.234 c 191.586 99.23 
191.586 99.23 191.586 99.227 c 191.582 99.227 191.582 99.227 191.578 99.223
 c 184.09 91.727 184.09 79.535 191.586 72.039 c h
191.586 72.039 m f
Q Q
showpage
%%Trailer
end
%%EOF
