%!PS-Adobe-3.0 EPSF-3.0
%%Creator: cairo 1.16.0 (https://cairographics.org)
%%CreationDate: Fri Feb  5 09:59:26 2021
%%Pages: 1
%%DocumentData: Clean7Bit
%%LanguageLevel: 2
%%BoundingBox: 0 0 384 384
%%EndComments
%%BeginProlog
50 dict begin
/q { gsave } bind def
/Q { grestore } bind def
/cm { 6 array astore concat } bind def
/w { setlinewidth } bind def
/J { setlinecap } bind def
/j { setlinejoin } bind def
/M { setmiterlimit } bind def
/d { setdash } bind def
/m { moveto } bind def
/l { lineto } bind def
/c { curveto } bind def
/h { closepath } bind def
/re { exch dup neg 3 1 roll 5 3 roll moveto 0 rlineto
      0 exch rlineto 0 rlineto closepath } bind def
/S { stroke } bind def
/f { fill } bind def
/f* { eofill } bind def
/n { newpath } bind def
/W { clip } bind def
/W* { eoclip } bind def
/BT { } bind def
/ET { } bind def
/BDC { mark 3 1 roll /BDC pdfmark } bind def
/EMC { mark /EMC pdfmark } bind def
/cairo_store_point { /cairo_point_y exch def /cairo_point_x exch def } def
/Tj { show currentpoint cairo_store_point } bind def
/TJ {
  {
    dup
    type /stringtype eq
    { show } { -0.001 mul 0 cairo_font_matrix dtransform rmoveto } ifelse
  } forall
  currentpoint cairo_store_point
} bind def
/cairo_selectfont { cairo_font_matrix aload pop pop pop 0 0 6 array astore
    cairo_font exch selectfont cairo_point_x cairo_point_y moveto } bind def
/Tf { pop /cairo_font exch def /cairo_font_matrix where
      { pop cairo_selectfont } if } bind def
/Td { matrix translate cairo_font_matrix matrix concatmatrix dup
      /cairo_font_matrix exch def dup 4 get exch 5 get cairo_store_point
      /cairo_font where { pop cairo_selectfont } if } bind def
/Tm { 2 copy 8 2 roll 6 array astore /cairo_font_matrix exch def
      cairo_store_point /cairo_font where { pop cairo_selectfont } if } bind def
/g { setgray } bind def
/rg { setrgbcolor } bind def
/d1 { setcachedevice } bind def
/cairo_data_source {
  CairoDataIndex CairoData length lt
    { CairoData CairoDataIndex get /CairoDataIndex CairoDataIndex 1 add def }
    { () } ifelse
} def
/cairo_flush_ascii85_file { cairo_ascii85_file status { cairo_ascii85_file flushfile } if } def
/cairo_image { image cairo_flush_ascii85_file } def
/cairo_imagemask { imagemask cairo_flush_ascii85_file } def
%%EndProlog
%%BeginSetup
%%EndSetup
%%Page: 1 1
%%BeginPageSetup
%%PageBoundingBox: 0 0 384 384
%%EndPageSetup
q 0 0 384 384 rectclip
1 0 0 -1 0 384 cm q
0.72549 0.713726 0.92549 rg
116.387 39.059 m 121.289 67.488 126.191 119.293 126.191 216.086 c 148.516
 212.41 l 148.516 18.824 131.434 6.398 131.434 6.398 c 122.211 18.176 l 
h
116.387 39.059 m f
267.613 39.059 m 262.711 67.488 257.809 119.293 257.809 216.086 c 235.484
 212.41 l 235.484 18.824 252.566 6.398 252.566 6.398 c 261.746 15.148 l 
h
267.613 39.059 m f
246.047 240.465 m 236.66 237.828 226.855 236.246 216.848 236.246 c 167.152
 236.246 l 157.145 236.246 147.34 237.828 137.949 240.465 c 134.203 240.465
 l 120.59 217.402 l 135.211 213.77 150.953 211.398 167.152 211.398 c 216.848
 211.398 l 233.043 211.398 248.789 213.77 263.41 217.402 c 249.797 240.465
 l h
246.047 240.465 m f
0.87451 0.870588 0.960784 rg
25.715 254.883 m 13.145 267.066 l 5.344 274.629 3.41 286.184 8.344 295.75
 c 23.195 324.547 l 24.867 327.789 26.172 331.203 27.078 334.719 c 32.176
 354.484 l 35.855 368.762 49.523 378.457 64.672 377.539 c 121.18 374.113
 l 133.312 373.379 143.926 365.934 148.441 354.992 c 151.879 346.656 158.926
 340.215 167.711 337.375 c 179.492 333.566 l 204.422 333.566 l 216.211 337.375
 l 224.996 340.215 232.051 346.656 235.492 354.992 c 240.008 365.938 250.625
 373.379 262.766 374.113 c 319.297 377.539 l 334.453 378.457 348.129 368.762
 351.812 354.484 c 356.91 334.719 l 357.82 331.199 359.121 327.789 360.793
 324.547 c 375.652 295.75 l 380.59 286.184 378.656 274.629 370.852 267.066
 c 358.277 254.883 l 218.617 279.281 l 216.914 279.578 215.293 280.238 213.871
 281.219 c 206.102 286.574 l 197.613 292.43 186.387 292.43 177.898 286.574
 c 170.129 281.223 l 168.707 280.238 167.086 279.578 165.383 279.281 c h
25.715 254.883 m f
0.980392 0.368627 0.592157 rg
198.426 341.852 m 185.574 341.852 l 182.262 341.852 179.574 339.164 179.574
 335.852 c 179.574 323.004 l 179.574 319.688 182.262 317.004 185.574 317.004
 c 198.426 317.004 l 201.738 317.004 204.426 319.688 204.426 323.004 c 204.426
 335.852 l 204.426 339.164 201.738 341.852 198.426 341.852 c h
198.426 341.852 m f
0.72549 0.713726 0.92549 rg
174.625 333.566 m 166.422 333.566 158.27 334.852 150.461 337.375 c 141.68
 340.215 134.629 346.656 131.191 354.992 c 126.676 365.938 116.066 373.379
 103.93 374.113 c 56.457 376.992 l 59.109 377.512 61.867 377.711 64.676 
377.539 c 121.18 374.113 l 133.312 373.379 143.926 365.934 148.441 354.992
 c 151.879 346.656 158.93 340.215 167.711 337.375 c 179.492 333.566 l h
174.625 333.566 m f
370.852 267.066 m 358.277 254.883 l 343.664 257.434 l 353.602 267.066 l
 361.406 274.629 363.34 286.184 358.406 295.75 c 343.547 324.547 l 341.871
 327.789 340.57 331.199 339.664 334.719 c 334.562 354.484 l 331.562 366.113
 321.93 374.703 310.27 376.992 c 319.297 377.539 l 334.453 378.457 348.129
 368.758 351.812 354.48 c 356.91 334.719 l 357.82 331.199 359.121 327.789
 360.797 324.547 c 375.656 295.746 l 380.59 286.184 378.656 274.629 370.852
 267.066 c h
370.852 267.066 m f
0.85098 0.309804 0.533333 rg
198.426 317.004 m 185.574 317.004 l 184.797 317.004 184.059 317.156 183.375
 317.426 c 185.598 318.305 187.176 320.469 187.176 323.004 c 187.176 335.852
 l 187.176 338.387 185.598 340.551 183.375 341.43 c 184.059 341.699 184.797
 341.852 185.574 341.852 c 198.426 341.852 l 201.738 341.852 204.426 339.164
 204.426 335.852 c 204.426 323.004 l 204.426 319.688 201.738 317.004 198.426
 317.004 c h
198.426 317.004 m f
0.937255 0.937255 0.976471 rg
92.684 180.34 m 52.723 194.316 25.715 226.57 25.715 263.164 c 25.715 299.762
 57.965 329.426 97.75 329.426 c 130.117 329.426 157.5 309.793 166.586 282.766
 c 167.211 280.902 166.855 278.848 165.676 277.281 c h
92.684 180.34 m f
291.316 180.34 m 331.277 194.316 358.898 226.57 358.898 263.164 c 358.898
 299.762 326.645 329.426 286.859 329.426 c 254.488 329.426 227.102 309.785
 218.02 282.754 c 217.398 280.898 217.75 278.852 218.918 277.285 c h
291.316 180.34 m f
210.848 242.457 m 173.152 242.457 l 169.84 242.457 167.152 239.773 167.152
 236.457 c 167.152 211.184 l 167.152 207.871 169.84 205.188 173.152 205.188
 c 210.848 205.188 l 214.16 205.188 216.848 207.871 216.848 211.184 c 216.848
 236.457 l 216.848 239.773 214.16 242.457 210.848 242.457 c h
210.848 242.457 m f
0.87451 0.870588 0.960784 rg
210.848 205.188 m 193.652 205.188 l 196.965 205.188 199.652 207.871 199.652
 211.184 c 199.652 236.457 l 199.652 239.773 196.965 242.457 193.652 242.457
 c 210.848 242.457 l 214.16 242.457 216.848 239.773 216.848 236.457 c 216.848
 211.184 l 216.848 207.871 214.16 205.188 210.848 205.188 c h
210.848 205.188 m f
0.937255 0.937255 0.976471 rg
67.758 192.441 m 67.758 192.441 71.586 74.551 105.227 14.965 c 106.07 13.473
 107.48 12.387 109.145 11.973 c 131.438 6.398 l 92.141 74.707 92.684 180.34
 92.684 180.34 c h
67.758 192.441 m f
316.242 192.441 m 316.242 192.441 312.414 74.551 278.773 14.965 c 277.93
 13.473 276.52 12.387 274.855 11.973 c 252.562 6.398 l 291.859 74.707 291.316
 180.34 291.316 180.34 c h
316.242 192.441 m f
0.87451 0.870588 0.960784 rg
291.316 180.34 m 287.223 185.824 l 319.957 201.738 341.648 230.742 341.648
 263.164 c 341.648 297.066 313.969 325.016 278.262 328.949 c 281.082 329.258
 283.949 329.426 286.859 329.426 c 326.645 329.426 358.898 299.762 358.898
 263.164 c 358.898 226.57 331.277 194.316 291.316 180.34 c h
291.316 180.34 m f
165.676 277.281 m 92.684 180.34 l 88.129 181.93 83.754 183.773 79.559 185.82
 c 148.426 277.281 l 149.609 278.852 149.965 280.906 149.336 282.766 c 141.07
 307.355 117.656 325.824 89.121 328.953 c 91.953 329.266 94.832 329.43 97.75
 329.43 c 130.117 329.43 157.5 309.793 166.586 282.766 c 167.211 280.902
 166.855 278.852 165.676 277.281 c h
165.676 277.281 m f
0 g
374.766 263.027 m 363.777 252.379 l 361.66 237.148 355.078 222.562 344.426
 209.688 c 338.039 201.965 330.395 195.102 321.742 189.262 c 320.898 170.051
 315 67.691 283.672 12.199 c 282.078 9.375 279.359 7.305 276.219 6.516 c
 253.926 0.945 l 252.367 0.559 250.656 0.832 249.254 1.852 c 244.164 5.555
 240.578 22.434 238.465 35.941 c 232.902 71.527 230.012 128.816 229.867 
206.266 c 226.938 206.051 224.035 205.906 221.156 205.832 c 219.215 202.113
 215.328 199.562 210.848 199.562 c 173.152 199.562 l 168.672 199.562 164.781
 202.113 162.844 205.832 c 159.965 205.906 157.059 206.051 154.133 206.266
 c 154.035 154.809 152.695 111.754 150.148 78.23 c 149.91 75.133 147.219
 72.809 144.113 73.047 c 141.016 73.285 138.695 75.984 138.93 79.082 c 141.477
 112.582 142.809 155.738 142.887 207.426 c 139.219 207.91 135.527 208.5 
131.805 209.199 c 131.621 133.594 128.383 76.578 122.18 39.586 c 124.762
 32.727 127.625 26.023 130.801 19.578 c 132.586 26.328 134.82 37.688 136.875
 56.543 c 137.191 59.422 139.629 61.559 142.461 61.559 c 142.664 61.559 
142.871 61.547 143.078 61.523 c 146.164 61.188 148.395 58.41 148.059 55.324
 c 144.719 24.656 139.988 5.664 134.746 1.852 c 133.344 0.832 131.633 0.559
 130.078 0.945 c 130.078 0.945 130.07 0.945 130.07 0.945 c 107.777 6.516
 l 104.637 7.305 101.922 9.375 100.328 12.199 c 68.938 67.801 63.078 170.461
 62.25 189.371 c 56.359 193.387 50.93 197.867 46.098 202.77 c 43.914 204.98
 43.941 208.543 46.152 210.723 c 48.363 212.906 51.926 212.879 54.105 210.668
 c 63.941 200.695 76.531 192.586 90.703 187.066 c 161.305 280.828 l 152.852
 306.266 127.133 323.801 97.75 323.801 c 61.129 323.801 31.336 296.602 31.336
 263.164 c 31.336 250.883 34.566 239.016 40.938 227.891 c 42.484 225.195
 41.547 221.758 38.852 220.215 c 36.156 218.672 32.723 219.605 31.176 222.301
 c 25.812 231.668 22.383 241.52 20.914 251.699 c 9.23 263.027 l -0.375 272.34
 -2.742 286.527 3.348 298.328 c 18.199 327.125 l 19.676 329.988 20.832 333.016
 21.633 336.125 c 26.727 355.887 l 30.891 372.031 45.801 383.223 62.691 
383.223 c 63.461 383.223 64.238 383.199 65.016 383.152 c 121.52 379.73 l
 135.727 378.867 148.332 370 153.641 357.137 c 156.453 350.316 162.215 345.062
 169.441 342.727 c 175.117 340.895 l 177 344.781 180.977 347.477 185.578
 347.477 c 198.426 347.477 l 203.02 347.477 206.984 344.793 208.871 340.914
 c 214.484 342.727 l 221.715 345.062 227.477 350.316 230.293 357.137 c 235.602
 370 248.215 378.867 262.426 379.73 c 318.957 383.152 l 319.738 383.199 
320.512 383.223 321.281 383.223 c 338.18 383.223 353.094 372.031 357.258
 355.891 c 362.359 336.125 l 363.16 333.02 364.316 329.992 365.793 327.129
 c 380.652 298.328 l 386.742 286.527 384.375 272.34 374.766 263.027 c h
353.273 263.164 m 353.273 296.602 323.48 323.801 286.859 323.801 c 257.473
 323.801 231.75 306.258 223.305 280.812 c 293.312 187.066 l 329.879 201.25
 353.273 230.758 353.273 263.164 c h
222.473 217.121 m 232.645 217.473 243.176 218.777 253.926 221.012 c 244.121
 234.141 l 236.789 232.301 229.543 231.188 222.473 230.797 c h
285.68 178.488 m 263.445 208.262 l 263.613 147.809 265.742 99.492 269.785
 64.062 c 284.176 115.586 285.551 168.172 285.68 178.488 c h
296.906 176.402 m 296.812 170.711 296.449 159.285 295.156 144.344 c 307.051
 147.488 l 308.645 162.023 309.559 174.277 310.062 182.332 c 305.848 180.137
 301.461 178.148 296.906 176.402 c h
273.492 17.43 m 273.652 17.473 273.789 17.578 273.875 17.73 c 291.543 49.023
 300.82 97.492 305.633 135.477 c 293.988 132.398 l 293.496 127.875 292.922
 123.141 292.25 118.223 c 288.273 89.141 280.102 48.941 263.445 14.918 c
 h
253.188 19.555 m 256.367 26.008 259.234 32.719 261.82 39.586 c 255.617 
76.578 252.379 133.594 252.195 209.199 c 248.473 208.5 244.781 207.91 241.113
 207.426 c 241.305 83.48 248.672 36.641 253.188 19.555 c h
211.223 211.184 m 211.223 236.457 l 211.223 236.664 211.055 236.832 210.848
 236.832 c 197.625 236.832 l 197.625 210.809 l 210.848 210.809 l 211.055
 210.809 211.223 210.98 211.223 211.184 c h
172.777 211.184 m 172.777 210.98 172.945 210.809 173.152 210.809 c 186.375
 210.809 l 186.375 236.832 l 173.152 236.832 l 172.945 236.832 172.777 236.664
 172.777 236.457 c h
140.172 234.062 m 130.309 220.961 l 140.98 218.758 151.43 217.473 161.527
 217.121 c 161.527 230.797 l 154.551 231.184 147.406 232.266 140.172 234.062
 c h
120.555 208.004 m 98.32 178.477 l 98.449 168.129 99.828 115.562 114.219
 64.062 c 118.254 99.441 120.379 147.672 120.555 208.004 c h
110.125 17.73 m 110.211 17.578 110.348 17.469 110.508 17.43 c 120.555 14.918
 l 103.898 48.941 95.727 89.141 91.75 118.223 c 91.078 123.141 90.508 127.875
 90.012 132.398 c 78.332 135.488 l 83.148 97.508 92.445 49.043 110.125 17.73
 c h
76.914 147.5 m 88.84 144.344 l 87.547 159.293 87.188 170.719 87.09 176.406
 c 82.543 178.16 78.141 180.16 73.906 182.383 c 74.402 174.328 75.312 162.059
 76.914 147.5 c h
147.598 243.926 m 152.797 242.867 157.922 242.219 162.926 241.984 c 164.895
 245.613 168.738 248.082 173.152 248.082 c 210.848 248.082 l 215.262 248.082
 219.105 245.613 221.074 241.984 c 226.195 242.223 231.438 242.895 236.762
 243.996 c 213.98 274.5 l 213.586 274.652 213.203 274.852 212.84 275.102
 c 202.91 281.945 l 196.383 286.445 187.617 286.441 181.09 281.945 c 171.16
 275.102 l 171.109 275.062 171.051 275.031 170.996 274.996 c h
198.426 336.227 m 185.574 336.227 l 185.367 336.227 185.199 336.059 185.199
 335.852 c 185.199 323 l 185.199 322.797 185.367 322.625 185.574 322.625
 c 198.426 322.625 l 198.633 322.625 198.801 322.797 198.801 323 c 198.801
 333.43 l 198.797 333.496 198.797 333.562 198.801 333.633 c 198.801 335.852
 l 198.801 336.059 198.633 336.227 198.426 336.227 c h
370.656 293.168 m 355.797 321.969 l 353.934 325.578 352.477 329.395 351.465
 333.312 c 346.367 353.078 l 343.355 364.754 332.109 372.68 319.637 371.922
 c 263.105 368.5 l 253.164 367.898 244.367 361.754 240.691 352.848 c 236.609
 342.965 228.32 335.375 217.941 332.023 c 210.051 329.473 l 210.051 323 
l 210.051 316.594 204.836 311.379 198.426 311.379 c 185.574 311.379 l 179.164
 311.379 173.953 316.594 173.953 323 c 173.953 329.445 l 165.98 332.023 
l 155.605 335.375 147.316 342.965 143.242 352.848 c 139.566 361.754 130.773
 367.898 120.84 368.5 c 64.336 371.922 l 51.863 372.691 40.633 364.754 37.621
 353.078 c 32.523 333.312 l 31.516 329.395 30.059 325.578 28.195 321.969
 c 13.344 293.172 l 9.547 285.809 11.043 276.941 17.062 271.105 c 20.27 
267.996 l 22.961 305.391 56.684 335.051 97.75 335.051 c 130.453 335.051 
159.312 316.164 170.516 288.316 c 174.707 291.207 l 179.879 294.77 185.938
 296.555 192 296.555 c 198.062 296.555 204.125 294.77 209.297 291.207 c 
213.965 287.988 l 225.07 316.016 254.027 335.051 286.859 335.051 c 327.727
 335.051 361.316 305.688 364.305 268.555 c 366.938 271.105 l 372.961 276.941
 374.453 285.809 370.656 293.168 c h
370.656 293.168 m f
Q Q
showpage
%%Trailer
end
%%EOF
