%!PS-Adobe-3.0 EPSF-3.0
%%Creator: cairo 1.16.0 (https://cairographics.org)
%%CreationDate: Fri Feb  5 09:59:28 2021
%%Pages: 1
%%DocumentData: Clean7Bit
%%LanguageLevel: 2
%%BoundingBox: 0 0 384 384
%%EndComments
%%BeginProlog
50 dict begin
/q { gsave } bind def
/Q { grestore } bind def
/cm { 6 array astore concat } bind def
/w { setlinewidth } bind def
/J { setlinecap } bind def
/j { setlinejoin } bind def
/M { setmiterlimit } bind def
/d { setdash } bind def
/m { moveto } bind def
/l { lineto } bind def
/c { curveto } bind def
/h { closepath } bind def
/re { exch dup neg 3 1 roll 5 3 roll moveto 0 rlineto
      0 exch rlineto 0 rlineto closepath } bind def
/S { stroke } bind def
/f { fill } bind def
/f* { eofill } bind def
/n { newpath } bind def
/W { clip } bind def
/W* { eoclip } bind def
/BT { } bind def
/ET { } bind def
/BDC { mark 3 1 roll /BDC pdfmark } bind def
/EMC { mark /EMC pdfmark } bind def
/cairo_store_point { /cairo_point_y exch def /cairo_point_x exch def } def
/Tj { show currentpoint cairo_store_point } bind def
/TJ {
  {
    dup
    type /stringtype eq
    { show } { -0.001 mul 0 cairo_font_matrix dtransform rmoveto } ifelse
  } forall
  currentpoint cairo_store_point
} bind def
/cairo_selectfont { cairo_font_matrix aload pop pop pop 0 0 6 array astore
    cairo_font exch selectfont cairo_point_x cairo_point_y moveto } bind def
/Tf { pop /cairo_font exch def /cairo_font_matrix where
      { pop cairo_selectfont } if } bind def
/Td { matrix translate cairo_font_matrix matrix concatmatrix dup
      /cairo_font_matrix exch def dup 4 get exch 5 get cairo_store_point
      /cairo_font where { pop cairo_selectfont } if } bind def
/Tm { 2 copy 8 2 roll 6 array astore /cairo_font_matrix exch def
      cairo_store_point /cairo_font where { pop cairo_selectfont } if } bind def
/g { setgray } bind def
/rg { setrgbcolor } bind def
/d1 { setcachedevice } bind def
/cairo_data_source {
  CairoDataIndex CairoData length lt
    { CairoData CairoDataIndex get /CairoDataIndex CairoDataIndex 1 add def }
    { () } ifelse
} def
/cairo_flush_ascii85_file { cairo_ascii85_file status { cairo_ascii85_file flushfile } if } def
/cairo_image { image cairo_flush_ascii85_file } def
/cairo_imagemask { imagemask cairo_flush_ascii85_file } def
%%EndProlog
%%BeginSetup
%%EndSetup
%%Page: 1 1
%%BeginPageSetup
%%PageBoundingBox: 0 0 384 384
%%EndPageSetup
q 0 0 384 384 rectclip
1 0 0 -1 0 384 cm q
0.980392 0.368627 0.592157 rg
220.379 204.391 m 294.281 130.488 l 322.66 102.113 323.484 55.895 295.316
 27.309 c 268.246 -0.168 224.82 -1.562 196.09 23.125 c 193.727 25.152 190.273
 25.152 187.91 23.125 c 159.18 -1.562 115.754 -0.168 88.684 27.309 c 60.516
 55.895 61.34 102.113 89.719 130.488 c 163.621 204.391 l 179.574 291.363
 l 179.574 313.105 l 179.574 314.82 178.184 316.211 176.469 316.211 c 148.516
 316.211 l 145.082 316.211 142.301 318.992 142.301 322.426 c 142.301 334.848
 l 142.301 338.281 145.082 341.062 148.516 341.062 c 176.469 341.062 l 178.184
 341.062 179.574 342.453 179.574 344.168 c 179.574 372.121 l 179.574 375.555
 182.355 378.336 185.789 378.336 c 198.211 378.336 l 201.645 378.336 204.426
 375.555 204.426 372.121 c 204.426 344.168 l 204.426 342.453 205.816 341.062
 207.531 341.062 c 235.484 341.062 l 238.918 341.062 241.699 338.281 241.699
 334.848 c 241.699 322.426 l 241.699 318.992 238.918 316.211 235.484 316.211
 c 207.531 316.211 l 205.816 316.211 204.426 314.82 204.426 313.105 c 204.426
 291.363 l h
220.379 204.391 m f
0.85098 0.309804 0.533333 rg
295.316 27.309 m 278.875 10.621 256.406 3.574 234.855 6.125 c 250.676 8.008
 265.996 15.059 278.066 27.309 c 306.234 55.895 305.41 102.113 277.031 130.492
 c 203.133 204.391 l 187.176 291.363 l 187.176 313.105 l 187.176 314.82 
188.566 316.211 190.281 316.211 c 207.531 316.211 l 205.816 316.211 204.426
 314.82 204.426 313.105 c 204.426 291.363 l 220.379 204.391 l 294.281 130.488
 l 322.66 102.113 323.484 55.895 295.316 27.309 c h
295.316 27.309 m f
0.937255 0.937255 0.976471 rg
243.465 30.449 m 256.457 30.449 268.656 35.582 277.754 44.891 c 296.184
 63.746 295.512 94.117 276.871 112.762 c 196.395 193.238 l 193.965 195.664
 190.035 195.664 187.609 193.238 c 107.129 112.762 l 88.488 94.117 87.816
 63.746 106.246 44.891 c 115.344 35.582 127.543 30.449 140.535 30.449 c 
153.34 30.449 165.375 35.434 174.43 44.488 c 179.09 49.148 185.41 51.766
 192 51.766 c 198.59 51.766 204.91 49.148 209.57 44.488 c 218.625 35.434
 230.66 30.449 243.465 30.449 c f
0.85098 0.309804 0.533333 rg
187.176 344.168 m 187.176 372.121 l 187.176 374.699 185.609 376.906 183.375
 377.848 c 184.117 378.16 184.934 378.332 185.789 378.332 c 198.211 378.332
 l 201.645 378.332 204.426 375.555 204.426 372.121 c 204.426 344.168 l 204.426
 342.453 205.816 341.059 207.531 341.059 c 190.281 341.059 l 188.566 341.059
 187.176 342.453 187.176 344.168 c h
187.176 344.168 m f
235.484 316.211 m 218.238 316.211 l 221.668 316.211 224.449 318.992 224.449
 322.422 c 224.449 334.848 l 224.449 338.281 221.668 341.059 218.238 341.059
 c 235.484 341.059 l 238.918 341.059 241.699 338.277 241.699 334.848 c 241.699
 322.422 l 241.699 318.992 238.918 316.211 235.484 316.211 c h
235.484 316.211 m f
0.980392 0.368627 0.592157 rg
197.375 85.742 m 196.234 86.734 195.242 87.832 194.402 89.004 c 193.234
 90.633 190.766 90.633 189.598 89.004 c 188.758 87.832 187.77 86.734 186.625
 85.742 c 179.645 79.68 169.039 79.727 162.113 85.848 c 153.984 93.031 153.695
 105.461 161.25 113.016 c 187.609 139.371 l 190.035 141.797 193.969 141.797
 196.395 139.371 c 222.75 113.016 l 230.305 105.461 230.016 93.031 221.887
 85.848 c 214.961 79.727 204.355 79.68 197.375 85.742 c h
197.375 85.742 m f
0.87451 0.870588 0.960784 rg
277.754 44.891 m 268.66 35.582 256.457 30.449 243.465 30.449 c 240.539 
30.449 237.656 30.723 234.836 31.23 c 244.539 32.984 253.457 37.676 260.504
 44.891 c 278.934 63.746 278.262 94.117 259.621 112.762 c 183.375 189.004
 l 187.609 193.238 l 190.035 195.664 193.969 195.664 196.395 193.238 c 276.871
 112.762 l 295.512 94.117 296.184 63.746 277.754 44.891 c h
277.754 44.891 m f
0.85098 0.309804 0.533333 rg
221.887 85.848 m 216.059 80.695 207.633 79.863 200.945 83.336 c 202.254
 84.016 203.5 84.84 204.637 85.848 c 212.77 93.031 213.055 105.461 205.5
 113.016 c 183.375 135.137 l 187.609 139.371 l 190.035 141.797 193.969 141.797
 196.395 139.371 c 222.75 113.016 l 230.305 105.461 230.016 93.031 221.887
 85.848 c h
221.887 85.848 m f
1 0.568627 0 rg
372.145 229.238 m 377.449 229.238 380.312 235.465 376.859 239.496 c 355.309
 264.641 l 351.32 269.293 351.32 276.16 355.309 280.812 c 376.859 305.957
 l 380.312 309.984 377.449 316.211 372.145 316.211 c 291.395 316.211 l 284.535
 316.211 278.973 310.648 278.973 303.785 c 278.973 287.613 l 105.027 287.613
 l 105.027 303.789 l 105.027 310.648 99.465 316.211 92.605 316.211 c 11.855
 316.211 l 6.551 316.211 3.688 309.988 7.141 305.957 c 28.691 280.812 l 
32.68 276.16 32.68 269.293 28.691 264.641 c 7.141 239.496 l 3.688 235.465
 6.551 229.238 11.855 229.238 c h
372.145 229.238 m f
1 0.364706 0 rg
87.781 303.785 m 87.781 310.648 82.219 316.211 75.355 316.211 c 92.605 
316.211 l 99.465 316.211 105.027 310.648 105.027 303.785 c 105.027 287.613
 l 87.781 287.613 l h
87.781 303.785 m f
355.309 280.812 m 351.32 276.16 351.32 269.293 355.309 264.641 c 376.859
 239.496 l 380.312 235.465 377.449 229.238 372.145 229.238 c 354.895 229.238
 l 360.203 229.238 363.066 235.465 359.609 239.496 c 338.059 264.641 l 334.07
 269.293 334.07 276.16 338.059 280.812 c 359.609 305.957 l 363.062 309.984
 360.203 316.211 354.895 316.211 c 372.145 316.211 l 377.449 316.211 380.312
 309.984 376.859 305.957 c h
355.309 280.812 m f
0.992157 0.74902 0 rg
304.246 291.363 m 79.754 291.363 l 73.129 291.363 67.754 285.992 67.754
 279.363 c 67.754 216.391 l 67.754 209.762 73.129 204.391 79.754 204.391
 c 304.246 204.391 l 310.871 204.391 316.246 209.762 316.246 216.391 c 316.246
 279.363 l 316.246 285.992 310.871 291.363 304.246 291.363 c h
304.246 291.363 m f
1 0.568627 0 rg
304.246 204.391 m 286.996 204.391 l 293.625 204.391 298.996 209.762 298.996
 216.391 c 298.996 279.363 l 298.996 285.992 293.625 291.363 286.996 291.363
 c 304.246 291.363 l 310.871 291.363 316.246 285.992 316.246 279.363 c 316.246
 216.391 l 316.246 209.766 310.871 204.391 304.246 204.391 c h
304.246 204.391 m f
0 g
359.578 277.152 m 357.379 274.586 357.379 270.867 359.578 268.301 c 381.129
 243.156 l 384.176 239.605 384.852 234.758 382.898 230.508 c 380.941 226.258
 376.82 223.617 372.145 223.617 c 321.871 223.617 l 321.871 216.391 l 321.871
 206.672 313.965 198.766 304.246 198.766 c 233.961 198.766 l 298.258 134.469
 l 328.961 103.766 329.438 53.926 299.324 23.359 c 270.496 -5.898 223.539
 -7.875 192.422 18.859 c 192.168 19.078 191.828 19.078 191.578 18.859 c 
160.461 -7.875 113.504 -5.898 84.676 23.359 c 54.562 53.926 55.039 103.766
 85.742 134.469 c 119.453 168.18 l 121.652 170.379 125.211 170.379 127.41
 168.18 c 129.605 165.984 129.605 162.422 127.41 160.227 c 93.695 126.516
 l 67.348 100.164 66.898 57.434 92.691 31.254 c 117.383 6.191 157.602 4.496
 184.246 27.391 c 188.738 31.25 195.262 31.254 199.754 27.391 c 226.398 
4.496 266.617 6.191 291.309 31.258 c 317.102 57.434 316.652 100.164 290.305
 126.516 c 218.051 198.766 l 198.453 198.766 l 199.133 198.324 199.777 197.812
 200.371 197.215 c 280.848 116.738 l 301.762 95.824 302.176 61.832 281.777
 40.957 c 271.609 30.555 258.004 24.824 243.465 24.824 c 229.16 24.824 215.711
 30.395 205.594 40.512 c 201.965 44.141 197.137 46.141 192 46.141 c 186.867
 46.141 182.039 44.141 178.406 40.512 c 168.289 30.395 154.84 24.824 140.535
 24.824 c 126 24.824 112.391 30.555 102.223 40.957 c 81.824 61.832 82.238
 95.824 103.152 116.738 c 183.629 197.215 l 184.227 197.809 184.871 198.324
 185.547 198.766 c 165.949 198.766 l 143.316 176.137 l 141.121 173.938 137.559
 173.938 135.363 176.137 c 133.168 178.332 133.168 181.895 135.363 184.09
 c 150.039 198.766 l 79.754 198.766 l 70.035 198.766 62.129 206.672 62.129
 216.391 c 62.129 223.617 l 52.191 223.617 l 49.086 223.617 46.566 226.133
 46.566 229.242 c 46.566 232.348 49.086 234.867 52.191 234.867 c 62.129 
234.867 l 62.129 279.363 l 62.129 289.082 70.035 296.988 79.754 296.988 
c 99.402 296.988 l 99.402 303.789 l 99.402 307.535 96.355 310.586 92.605
 310.586 c 11.855 310.586 l 11.727 310.586 11.48 310.586 11.324 310.246 
c 11.168 309.902 11.324 309.719 11.41 309.617 c 32.965 284.473 l 38.797 
277.668 38.797 267.785 32.965 260.98 c 11.41 235.836 l 11.324 235.734 11.164
 235.551 11.324 235.207 c 11.48 234.867 11.727 234.867 11.855 234.867 c 
29.691 234.867 l 32.797 234.867 35.316 232.348 35.316 229.242 c 35.316 226.133
 32.797 223.617 29.691 223.617 c 11.855 223.617 l 7.18 223.617 3.059 226.258
 1.102 230.508 c -0.852 234.758 -0.176 239.605 2.871 243.156 c 24.422 268.301
 l 26.621 270.867 26.621 274.586 24.422 277.152 c 2.871 302.297 l -0.176
 305.848 -0.852 310.695 1.102 314.945 c 3.059 319.195 7.18 321.836 11.855
 321.836 c 92.605 321.836 l 102.559 321.836 110.652 313.738 110.652 303.789
 c 110.652 296.988 l 173.949 296.988 l 173.949 310.586 l 148.516 310.586
 l 141.988 310.586 136.676 315.898 136.676 322.426 c 136.676 334.848 l 136.676
 341.375 141.988 346.684 148.516 346.684 c 173.949 346.684 l 173.949 372.121
 l 173.949 378.648 179.262 383.957 185.789 383.957 c 198.211 383.957 l 204.738
 383.957 210.051 378.648 210.051 372.121 c 210.051 346.684 l 235.484 346.684
 l 242.012 346.684 247.324 341.375 247.324 334.848 c 247.324 322.426 l 247.324
 315.898 242.012 310.586 235.484 310.586 c 210.051 310.586 l 210.051 296.988
 l 273.348 296.988 l 273.348 303.789 l 273.348 313.738 281.441 321.836 291.395
 321.836 c 372.145 321.836 l 376.82 321.836 380.941 319.195 382.898 314.945
 c 384.852 310.695 384.176 305.848 381.129 302.297 c h
111.109 108.785 m 94.531 92.207 94.156 65.309 110.27 48.82 c 118.305 40.602
 129.051 36.074 140.535 36.074 c 151.836 36.074 162.461 40.473 170.453 48.465
 c 176.207 54.223 183.859 57.391 192 57.391 c 200.141 57.391 207.793 54.219
 213.547 48.465 c 221.539 40.473 232.16 36.074 243.465 36.074 c 254.949 
36.074 265.695 40.602 273.73 48.82 c 289.844 65.309 289.469 92.207 272.891
 108.785 c 192.414 189.262 l 192.188 189.488 191.812 189.488 191.586 189.262
 c h
73.379 279.363 m 73.379 216.391 l 73.379 212.875 76.238 210.016 79.754 
210.016 c 304.246 210.016 l 307.762 210.016 310.621 212.875 310.621 216.391
 c 310.621 279.363 l 310.621 282.879 307.762 285.738 304.246 285.738 c 79.754
 285.738 l 76.238 285.738 73.379 282.879 73.379 279.363 c h
207.531 321.836 m 235.484 321.836 l 235.809 321.836 236.074 322.102 236.074
 322.426 c 236.074 334.848 l 236.074 335.172 235.809 335.438 235.484 335.438
 c 207.531 335.438 l 202.715 335.438 198.801 339.352 198.801 344.168 c 198.801
 372.121 l 198.801 372.445 198.535 372.711 198.211 372.711 c 185.789 372.711
 l 185.465 372.711 185.199 372.445 185.199 372.121 c 185.199 344.168 l 185.199
 339.352 181.285 335.438 176.469 335.438 c 148.516 335.438 l 148.191 335.438
 147.926 335.172 147.926 334.848 c 147.926 322.426 l 147.926 322.102 148.191
 321.836 148.516 321.836 c 176.469 321.836 l 181.285 321.836 185.199 317.922
 185.199 313.105 c 185.199 296.988 l 198.801 296.988 l 198.801 313.105 l
 198.801 317.922 202.715 321.836 207.531 321.836 c h
372.676 310.246 m 372.52 310.586 372.273 310.586 372.145 310.586 c 291.395
 310.586 l 287.648 310.586 284.598 307.535 284.598 303.789 c 284.598 296.988
 l 304.246 296.988 l 313.965 296.988 321.871 289.082 321.871 279.363 c 321.871
 234.867 l 372.145 234.867 l 372.273 234.867 372.52 234.867 372.676 235.207
 c 372.836 235.551 372.676 235.734 372.59 235.836 c 351.039 260.98 l 345.203
 267.785 345.203 277.668 351.039 284.473 c 372.59 309.617 l 372.676 309.719
 372.836 309.902 372.676 310.246 c h
372.676 310.246 m f
264.676 265.926 m 267.781 265.926 270.301 263.406 270.301 260.301 c 270.301
 253.543 l 276.816 262.98 l 278.344 265.191 281.039 266.156 283.52 265.383
 c 286.027 264.602 287.715 262.223 287.715 259.41 c 287.48 235.398 l 287.449
 232.309 284.938 229.828 281.855 229.828 c 281.84 229.828 281.82 229.828
 281.801 229.828 c 278.695 229.859 276.199 232.402 276.23 235.508 c 276.297
 242.43 l 269.305 232.301 l 267.906 230.277 265.352 229.398 263 230.129 
c 260.652 230.863 259.051 233.039 259.051 235.5 c 259.051 260.301 l 259.051
 263.406 261.566 265.926 264.676 265.926 c h
264.676 265.926 m f
189.223 265.645 m 192.281 266.195 195.207 264.164 195.758 261.105 c 196.328
 257.938 l 197.383 261.512 l 197.402 261.578 197.426 261.648 197.449 261.715
 c 198.297 264.238 200.652 265.926 203.309 265.926 c 203.348 265.926 l 206.02
 265.91 208.371 264.191 209.195 261.648 c 209.215 261.586 209.234 261.52
 209.254 261.457 c 210.27 257.898 l 210.895 261.164 l 211.477 264.215 214.43
 266.215 217.473 265.633 c 220.523 265.051 222.523 262.102 221.941 259.051
 c 217.301 234.773 l 216.738 232.023 214.387 229.996 211.586 229.836 c 208.77
 229.688 206.223 231.438 205.355 234.105 c 205.336 234.172 205.316 234.234
 205.297 234.301 c 203.227 241.562 l 201.066 234.246 l 201.047 234.18 201.027
 234.117 201.008 234.051 c 200.113 231.387 197.523 229.656 194.73 229.844
 c 191.926 230.031 189.598 232.086 189.055 234.91 c 184.688 259.109 l 184.137
 262.164 186.168 265.09 189.223 265.645 c h
189.223 265.645 m f
235.23 265.926 m 245.605 265.926 l 248.715 265.926 251.23 263.406 251.23
 260.301 c 251.23 257.195 248.715 254.676 245.605 254.676 c 240.855 254.676
 l 240.855 253.617 l 244.84 253.617 l 247.949 253.617 250.465 251.098 250.465
 247.992 c 250.465 244.883 247.949 242.367 244.84 242.367 c 240.855 242.367
 l 240.855 241.305 l 245.605 241.305 l 248.715 241.305 251.23 238.785 251.23
 235.68 c 251.23 232.574 248.715 230.055 245.605 230.055 c 235.23 230.055
 l 232.125 230.055 229.605 232.574 229.605 235.68 c 229.605 260.301 l 229.605
 263.406 232.125 265.926 235.23 265.926 c h
235.23 265.926 m f
107.324 265.926 m 109.957 265.91 112.293 264.223 113.141 261.73 c 113.156
 261.684 113.172 261.633 113.188 261.586 c 115.367 254.539 l 117.539 261.586
 l 117.562 261.66 117.586 261.738 117.613 261.816 c 118.492 264.281 120.828
 265.926 123.441 265.926 c 123.484 265.926 l 126.113 265.91 128.449 264.223
 129.297 261.734 c 129.375 261.5 129.441 261.262 129.488 261.02 c 134.348
 236.598 l 134.957 233.551 132.977 230.59 129.93 229.984 c 126.883 229.379
 123.922 231.355 123.316 234.402 c 122.379 239.098 l 120.746 233.797 l 119.832
 230.828 116.684 229.164 113.715 230.078 c 111.77 230.676 110.391 232.238
 109.922 234.078 c 108.367 239.105 l 107.43 234.363 l 106.824 231.316 103.867
 229.332 100.82 229.934 c 97.773 230.539 95.789 233.496 96.395 236.543 c
 101.234 261.02 l 101.289 261.289 101.359 261.555 101.453 261.812 c 102.328
 264.277 104.668 265.926 107.281 265.926 c 107.297 265.926 107.312 265.926
 107.324 265.926 c h
107.324 265.926 m f
159.551 265.926 m 169.504 265.926 177.602 257.828 177.602 247.875 c 177.602
 237.926 169.504 229.828 159.551 229.828 c 149.602 229.828 141.504 237.926
 141.504 247.875 c 141.504 257.828 149.598 265.926 159.551 265.926 c h
159.551 241.078 m 163.301 241.078 166.352 244.129 166.352 247.875 c 166.352
 251.625 163.301 254.676 159.551 254.676 c 155.805 254.676 152.754 251.625
 152.754 247.875 c 152.754 244.129 155.801 241.078 159.551 241.078 c h
159.551 241.078 m f
200.371 143.348 m 226.727 116.992 l 231.441 112.277 234.027 105.754 233.82
 99.086 c 233.613 92.328 230.699 86.129 225.613 81.633 c 216.547 73.621 
202.82 73.562 193.688 81.496 c 193.098 82.008 192.535 82.547 192 83.109 
c 191.465 82.547 190.902 82.008 190.312 81.496 c 181.18 73.562 167.457 73.621
 158.391 81.637 c 153.305 86.129 150.391 92.328 150.18 99.086 c 149.977 
105.754 152.562 112.277 157.273 116.992 c 183.633 143.352 l 185.938 145.656
 188.969 146.812 192 146.812 c 195.031 146.809 198.062 145.656 200.371 143.348
 c h
165.227 109.039 m 162.664 106.473 161.312 103.062 161.422 99.434 c 161.535
 95.809 163.102 92.48 165.836 90.062 c 168.242 87.938 171.336 86.875 174.434
 86.875 c 177.488 86.875 180.547 87.91 182.934 89.988 c 184.676 91.5 185.941
 93.352 186.695 95.488 c 187.492 97.734 189.617 99.238 192 99.238 c 194.383
 99.238 196.512 97.734 197.305 95.488 c 198.059 93.348 199.324 91.5 201.066
 89.988 c 205.875 85.805 213.387 85.84 218.164 90.062 c 220.898 92.48 222.465
 95.805 222.578 99.434 c 222.688 103.059 221.336 106.473 218.773 109.035
 c 192.418 135.395 l 192.188 135.621 191.812 135.621 191.586 135.395 c h
165.227 109.039 m f
Q Q
showpage
%%Trailer
end
%%EOF
