%!PS-Adobe-3.0 EPSF-3.0
%%Creator: cairo 1.16.0 (https://cairographics.org)
%%CreationDate: Fri Feb  5 09:59:28 2021
%%Pages: 1
%%DocumentData: Clean7Bit
%%LanguageLevel: 2
%%BoundingBox: 0 0 384 384
%%EndComments
%%BeginProlog
50 dict begin
/q { gsave } bind def
/Q { grestore } bind def
/cm { 6 array astore concat } bind def
/w { setlinewidth } bind def
/J { setlinecap } bind def
/j { setlinejoin } bind def
/M { setmiterlimit } bind def
/d { setdash } bind def
/m { moveto } bind def
/l { lineto } bind def
/c { curveto } bind def
/h { closepath } bind def
/re { exch dup neg 3 1 roll 5 3 roll moveto 0 rlineto
      0 exch rlineto 0 rlineto closepath } bind def
/S { stroke } bind def
/f { fill } bind def
/f* { eofill } bind def
/n { newpath } bind def
/W { clip } bind def
/W* { eoclip } bind def
/BT { } bind def
/ET { } bind def
/BDC { mark 3 1 roll /BDC pdfmark } bind def
/EMC { mark /EMC pdfmark } bind def
/cairo_store_point { /cairo_point_y exch def /cairo_point_x exch def } def
/Tj { show currentpoint cairo_store_point } bind def
/TJ {
  {
    dup
    type /stringtype eq
    { show } { -0.001 mul 0 cairo_font_matrix dtransform rmoveto } ifelse
  } forall
  currentpoint cairo_store_point
} bind def
/cairo_selectfont { cairo_font_matrix aload pop pop pop 0 0 6 array astore
    cairo_font exch selectfont cairo_point_x cairo_point_y moveto } bind def
/Tf { pop /cairo_font exch def /cairo_font_matrix where
      { pop cairo_selectfont } if } bind def
/Td { matrix translate cairo_font_matrix matrix concatmatrix dup
      /cairo_font_matrix exch def dup 4 get exch 5 get cairo_store_point
      /cairo_font where { pop cairo_selectfont } if } bind def
/Tm { 2 copy 8 2 roll 6 array astore /cairo_font_matrix exch def
      cairo_store_point /cairo_font where { pop cairo_selectfont } if } bind def
/g { setgray } bind def
/rg { setrgbcolor } bind def
/d1 { setcachedevice } bind def
/cairo_data_source {
  CairoDataIndex CairoData length lt
    { CairoData CairoDataIndex get /CairoDataIndex CairoDataIndex 1 add def }
    { () } ifelse
} def
/cairo_flush_ascii85_file { cairo_ascii85_file status { cairo_ascii85_file flushfile } if } def
/cairo_image { image cairo_flush_ascii85_file } def
/cairo_imagemask { imagemask cairo_flush_ascii85_file } def
%%EndProlog
%%BeginSetup
%%EndSetup
%%Page: 1 1
%%BeginPageSetup
%%PageBoundingBox: 0 0 384 384
%%EndPageSetup
q 0 0 384 384 rectclip
1 0 0 -1 0 384 cm q
0.87451 0.870588 0.960784 rg
378.371 117.449 m 353.523 92.602 l 328.672 117.449 l 303.82 107.602 l 303.82
 378.375 l 353.523 378.375 l 367.246 378.375 378.371 367.25 378.371 353.523
 c h
378.371 117.449 m f
0.72549 0.713726 0.92549 rg
344.898 101.227 m 361.121 117.449 l 361.121 353.523 l 361.121 367.25 349.996
 378.375 336.273 378.375 c 353.523 378.375 l 367.246 378.375 378.371 367.25
 378.371 353.523 c 378.371 117.449 l 353.523 92.602 l h
344.898 101.227 m f
0.980392 0.368627 0.592157 rg
378.371 117.449 m 378.371 55.324 l 378.371 41.602 367.246 30.477 353.523
 30.477 c 303.82 30.477 l 328.672 117.449 l h
378.371 117.449 m f
0.85098 0.309804 0.533333 rg
353.523 30.477 m 336.273 30.477 l 349.996 30.477 361.121 41.602 361.121
 55.324 c 361.121 117.449 l 378.371 117.449 l 378.371 55.324 l 378.371 41.602
 367.246 30.477 353.523 30.477 c h
353.523 30.477 m f
0.72549 0.713726 0.92549 rg
30.473 353.523 m 30.473 367.25 41.598 378.375 55.32 378.375 c 303.82 378.375
 l 317.547 378.375 328.672 367.25 328.672 353.523 c 328.672 328.676 l h
30.473 353.523 m f
0.937255 0.937255 0.976471 rg
30.473 117.449 m 30.473 328.676 l 303.82 353.523 l 317.547 353.523 328.672
 342.398 328.672 328.676 c 328.672 117.449 l 179.57 80.176 l h
30.473 117.449 m f
0.87451 0.870588 0.960784 rg
29.422 353.523 m 18.59 353.523 9.379 346.598 5.977 336.93 c 4.559 332.898
 7.574 328.676 11.848 328.676 c 273.387 328.676 l 276.34 328.676 278.883
 330.754 279.469 333.645 c 281.77 344.988 291.797 353.527 303.82 353.527
 c 29.422 353.527 l h
29.422 353.523 m f
0.964706 0.545098 0.596078 rg
303.82 30.477 m 55.32 30.477 l 41.598 30.477 30.473 41.602 30.473 55.324
 c 30.473 117.449 l 328.672 117.449 l 328.672 55.324 l 328.672 41.602 317.547
 30.477 303.82 30.477 c h
303.82 30.477 m f
0.992157 0.74902 0 rg
105.023 55.324 m 105.023 62.188 110.586 67.75 117.445 67.75 c 124.309 67.75
 129.871 62.188 129.871 55.324 c 129.871 18.051 l 129.871 11.188 124.309
 5.625 117.445 5.625 c 110.586 5.625 105.023 11.188 105.023 18.051 c h
105.023 55.324 m f
229.27 55.324 m 229.27 62.188 234.836 67.75 241.695 67.75 c 248.559 67.75
 254.121 62.188 254.121 55.324 c 254.121 18.051 l 254.121 11.188 248.559
 5.625 241.695 5.625 c 234.836 5.625 229.27 11.188 229.27 18.051 c h
229.27 55.324 m f
1 0.568627 0 rg
117.445 5.625 m 114.094 5.625 111.055 6.961 108.82 9.117 c 111.16 11.379
 112.621 14.539 112.621 18.051 c 112.621 55.324 l 112.621 58.836 111.16 
61.996 108.82 64.258 c 111.055 66.414 114.094 67.75 117.445 67.75 c 124.309
 67.75 129.871 62.188 129.871 55.324 c 129.871 18.051 l 129.871 11.188 124.309
 5.625 117.445 5.625 c h
117.445 5.625 m f
0 g
353.523 24.852 m 259.746 24.852 l 259.746 18.051 l 259.746 8.098 251.648
 0 241.695 0 c 231.742 0 223.648 8.098 223.648 18.051 c 223.648 24.848 l
 135.496 24.848 l 135.496 18.051 l 135.496 8.098 127.398 0 117.445 0 c 107.492
 0 99.398 8.098 99.398 18.051 c 99.398 24.848 l 55.32 24.848 l 38.52 24.848
 24.848 38.52 24.848 55.324 c 24.848 323.051 l 11.848 323.051 l 8.012 323.051
 4.395 324.922 2.176 328.055 c -0.035 331.176 -0.598 335.191 0.672 338.797
 c 4.496 349.664 14.117 357.344 25.324 358.867 c 27.859 373.133 40.34 384
 55.32 384 c 75.723 384 l 78.828 384 81.348 381.48 81.348 378.375 c 81.348
 375.27 78.828 372.75 75.723 372.75 c 55.32 372.75 l 46.68 372.75 39.348
 367.016 36.938 359.148 c 303.82 359.148 l 311.105 359.148 317.797 356.578
 323.047 352.301 c 323.047 353.523 l 323.047 364.125 314.422 372.75 303.82
 372.75 c 98.223 372.75 l 95.113 372.75 92.598 375.27 92.598 378.375 c 92.598
 381.48 95.113 384 98.223 384 c 353.523 384 l 370.324 384 383.996 370.328
 383.996 353.523 c 383.996 55.324 l 383.996 38.52 370.324 24.852 353.523
 24.852 c h
334.297 111.824 m 334.297 98.227 l 372.746 98.227 l 372.746 111.824 l h
372.746 55.324 m 372.746 86.977 l 334.297 86.977 l 334.297 55.324 l 334.297
 48.039 331.723 41.348 327.445 36.102 c 353.523 36.102 l 364.121 36.102 
372.746 44.723 372.746 55.324 c h
234.895 18.051 m 234.895 14.301 237.945 11.25 241.695 11.25 c 245.445 11.25
 248.496 14.301 248.496 18.051 c 248.496 55.324 l 248.496 59.074 245.445
 62.125 241.695 62.125 c 237.945 62.125 234.895 59.074 234.895 55.324 c 
h
110.645 18.051 m 110.645 14.301 113.695 11.25 117.445 11.25 c 121.195 11.25
 124.246 14.301 124.246 18.051 c 124.246 55.324 l 124.246 59.074 121.195
 62.125 117.445 62.125 c 113.695 62.125 110.645 59.074 110.645 55.324 c 
h
55.32 36.102 m 99.398 36.102 l 99.398 49.699 l 92.598 49.699 l 89.488 49.699
 86.973 52.219 86.973 55.324 c 86.973 58.434 89.488 60.949 92.598 60.949
 c 100.301 60.949 l 102.668 68.156 109.457 73.375 117.445 73.375 c 125.434
 73.375 132.227 68.156 134.594 60.949 c 142.297 60.949 l 145.402 60.949 
147.922 58.434 147.922 55.324 c 147.922 52.219 145.402 49.699 142.297 49.699
 c 135.496 49.699 l 135.496 36.102 l 223.648 36.102 l 223.648 49.699 l 216.848
 49.699 l 213.738 49.699 211.223 52.219 211.223 55.324 c 211.223 58.434 
213.738 60.949 216.848 60.949 c 224.551 60.949 l 226.918 68.156 233.707 
73.375 241.695 73.375 c 249.684 73.375 256.473 68.156 258.844 60.949 c 266.547
 60.949 l 269.652 60.949 272.172 58.434 272.172 55.324 c 272.172 52.219 
269.652 49.699 266.547 49.699 c 259.746 49.699 l 259.746 36.102 l 303.82
 36.102 l 314.422 36.102 323.047 44.723 323.047 55.324 c 323.047 86.977 
l 98.223 86.977 l 95.113 86.977 92.598 89.492 92.598 92.602 c 92.598 95.707
 95.113 98.227 98.223 98.227 c 323.047 98.227 l 323.047 111.824 l 36.098
 111.824 l 36.098 98.227 l 75.723 98.227 l 78.828 98.227 81.348 95.707 81.348
 92.602 c 81.348 89.492 78.828 86.977 75.723 86.977 c 36.098 86.977 l 36.098
 55.324 l 36.098 44.723 44.723 36.102 55.32 36.102 c h
29.422 347.898 m 21.277 347.898 13.984 342.742 11.281 335.062 c 11.258 
334.988 11.188 334.797 11.359 334.555 c 11.539 334.301 11.773 334.301 11.848
 334.301 c 273.387 334.301 l 273.664 334.301 273.902 334.496 273.957 334.762
 c 274.961 339.707 277.148 344.18 280.191 347.898 c h
284.98 332.527 m 283.867 327.035 278.992 323.051 273.387 323.051 c 36.098
 323.051 l 36.098 123.074 l 323.047 123.074 l 323.047 328.676 l 323.047 
339.277 314.422 347.898 303.82 347.898 c 303.82 347.898 303.816 347.898 
303.812 347.898 c 294.707 347.898 286.789 341.434 284.98 332.527 c h
353.523 372.75 m 327.445 372.75 l 331.723 367.5 334.297 360.809 334.297
 353.523 c 334.297 328.703 l 334.297 328.695 334.297 328.684 334.297 328.676
 c 334.297 328.668 334.297 328.664 334.297 328.66 c 334.297 123.074 l 347.898
 123.074 l 347.898 316.25 l 347.898 319.359 350.414 321.875 353.523 321.875
 c 356.629 321.875 359.148 319.359 359.148 316.25 c 359.148 123.074 l 372.746
 123.074 l 372.746 353.527 l 372.746 364.125 364.121 372.75 353.523 372.75
 c h
353.523 372.75 m f
179.57 180.164 m 162.77 180.164 149.098 193.832 149.098 210.637 c 149.098
 225.52 159.82 237.938 173.945 240.582 c 173.945 248.5 l 167.148 248.5 l
 164.039 248.5 161.523 251.016 161.523 254.125 c 161.523 257.23 164.039 
259.75 167.148 259.75 c 173.945 259.75 l 173.945 272.762 l 173.945 275.871
 176.465 278.387 179.57 278.387 c 182.68 278.387 185.195 275.871 185.195
 272.762 c 185.195 259.75 l 191.996 259.75 l 195.102 259.75 197.621 257.23
 197.621 254.125 c 197.621 251.016 195.102 248.5 191.996 248.5 c 185.195
 248.5 l 185.195 240.582 l 199.32 237.938 210.047 225.52 210.047 210.637
 c 210.047 193.832 196.375 180.164 179.57 180.164 c h
179.57 229.863 m 168.969 229.863 160.348 221.238 160.348 210.637 c 160.348
 200.035 168.969 191.41 179.57 191.41 c 190.172 191.41 198.797 200.035 198.797
 210.637 c 198.797 221.238 190.172 229.863 179.57 229.863 c h
179.57 229.863 m f
179.57 155.312 m 138.789 155.312 105.609 188.492 105.609 229.273 c 105.609
 270.059 138.789 303.238 179.57 303.238 c 220.355 303.238 253.535 270.059
 253.535 229.273 c 253.535 188.492 220.355 155.312 179.57 155.312 c h
179.57 291.988 m 144.992 291.988 116.859 263.855 116.859 229.273 c 116.859
 194.695 144.992 166.562 179.57 166.562 c 214.152 166.562 242.285 194.695
 242.285 229.273 c 242.285 263.855 214.152 291.988 179.57 291.988 c h
179.57 291.988 m f
Q Q
showpage
%%Trailer
end
%%EOF
