%!PS-Adobe-3.0 EPSF-3.0
%%Creator: cairo 1.16.0 (https://cairographics.org)
%%CreationDate: Fri Feb  5 09:59:29 2021
%%Pages: 1
%%DocumentData: Clean7Bit
%%LanguageLevel: 2
%%BoundingBox: 0 0 384 384
%%EndComments
%%BeginProlog
50 dict begin
/q { gsave } bind def
/Q { grestore } bind def
/cm { 6 array astore concat } bind def
/w { setlinewidth } bind def
/J { setlinecap } bind def
/j { setlinejoin } bind def
/M { setmiterlimit } bind def
/d { setdash } bind def
/m { moveto } bind def
/l { lineto } bind def
/c { curveto } bind def
/h { closepath } bind def
/re { exch dup neg 3 1 roll 5 3 roll moveto 0 rlineto
      0 exch rlineto 0 rlineto closepath } bind def
/S { stroke } bind def
/f { fill } bind def
/f* { eofill } bind def
/n { newpath } bind def
/W { clip } bind def
/W* { eoclip } bind def
/BT { } bind def
/ET { } bind def
/BDC { mark 3 1 roll /BDC pdfmark } bind def
/EMC { mark /EMC pdfmark } bind def
/cairo_store_point { /cairo_point_y exch def /cairo_point_x exch def } def
/Tj { show currentpoint cairo_store_point } bind def
/TJ {
  {
    dup
    type /stringtype eq
    { show } { -0.001 mul 0 cairo_font_matrix dtransform rmoveto } ifelse
  } forall
  currentpoint cairo_store_point
} bind def
/cairo_selectfont { cairo_font_matrix aload pop pop pop 0 0 6 array astore
    cairo_font exch selectfont cairo_point_x cairo_point_y moveto } bind def
/Tf { pop /cairo_font exch def /cairo_font_matrix where
      { pop cairo_selectfont } if } bind def
/Td { matrix translate cairo_font_matrix matrix concatmatrix dup
      /cairo_font_matrix exch def dup 4 get exch 5 get cairo_store_point
      /cairo_font where { pop cairo_selectfont } if } bind def
/Tm { 2 copy 8 2 roll 6 array astore /cairo_font_matrix exch def
      cairo_store_point /cairo_font where { pop cairo_selectfont } if } bind def
/g { setgray } bind def
/rg { setrgbcolor } bind def
/d1 { setcachedevice } bind def
/cairo_data_source {
  CairoDataIndex CairoData length lt
    { CairoData CairoDataIndex get /CairoDataIndex CairoDataIndex 1 add def }
    { () } ifelse
} def
/cairo_flush_ascii85_file { cairo_ascii85_file status { cairo_ascii85_file flushfile } if } def
/cairo_image { image cairo_flush_ascii85_file } def
/cairo_imagemask { imagemask cairo_flush_ascii85_file } def
%%EndProlog
%%BeginSetup
%%EndSetup
%%Page: 1 1
%%BeginPageSetup
%%PageBoundingBox: 0 0 384 384
%%EndPageSetup
q 0 0 384 384 rectclip
1 0 0 -1 0 384 cm q
0.392157 0.882353 0.862745 rg
237.371 10.48 m 238.094 8.973 239.422 7.828 241.016 7.328 c 254.758 3.039
 270.344 6.949 280.352 18.535 c 290.961 30.816 292.129 48.039 284.523 61.375
 c 270.223 66.965 253.352 63.305 242.742 51.027 c 232.734 39.438 231.129
 23.449 237.371 10.48 c h
237.371 10.48 m f
317.398 54.363 m 318.98 53.828 320.727 53.973 322.199 54.762 c 334.887 
61.559 343.012 75.426 341.754 90.684 c 340.418 106.859 328.945 119.758 314.098
 123.668 c 300.094 117.379 290.891 102.773 292.223 86.602 c 293.48 71.34
 303.77 58.996 317.398 54.363 c h
317.398 54.363 m f
268.609 266.551 m 268.285 266.332 267.965 266.105 267.648 265.871 c 263.691
 251.039 269.211 234.68 282.602 225.512 c 295.234 216.859 311.301 217.047
 323.492 224.699 c 324.906 225.586 325.898 227.035 326.215 228.676 c 328.945
 242.809 323.316 257.859 310.684 266.512 c 310.105 266.91 309.52 267.289
 308.926 267.648 c h
268.609 266.551 m f
345.418 138.836 m 344.379 137.531 342.832 136.703 341.164 136.57 c 326.816
 135.418 312.48 142.676 305.277 156.188 c 297.641 170.508 300.305 187.566
 310.668 198.891 c 325.852 201.188 341.496 193.891 349.129 179.57 c 356.336
 166.059 354.371 150.109 345.418 138.836 c h
345.418 138.836 m f
0 0.784314 0.784314 rg
345.418 138.836 m 344.379 137.531 342.832 136.703 341.164 136.57 c 336.477
 136.195 331.789 136.723 327.352 138.066 c 327.617 138.301 327.867 138.555
 328.094 138.836 c 337.047 150.109 339.008 166.059 331.805 179.57 c 326.941
 188.695 318.82 194.961 309.645 197.719 c 309.977 198.113 310.316 198.508
 310.668 198.891 c 325.852 201.184 341.496 193.891 349.129 179.57 c 356.336
 166.059 354.371 150.109 345.418 138.836 c h
345.418 138.836 m f
322.199 54.762 m 320.727 53.973 318.98 53.828 317.398 54.363 c 314.742 
55.266 312.215 56.465 309.855 57.914 c 319.668 65.359 325.59 77.5 324.504
 90.684 c 323.488 102.977 316.617 113.367 306.863 119.371 c 309.09 121.059
 311.512 122.504 314.098 123.668 c 328.945 119.758 340.418 106.859 341.754
 90.684 c 343.012 75.426 334.887 61.562 322.199 54.762 c h
322.199 54.762 m f
280.352 18.535 m 270.945 7.648 256.617 3.539 243.523 6.641 c 250.883 8.383
 257.781 12.375 263.105 18.535 c 273.711 30.816 274.883 48.039 267.273 61.375
 c 265.652 62.012 263.992 62.52 262.316 62.918 c 269.629 64.648 277.395 
64.164 284.523 61.375 c 292.133 48.039 290.961 30.816 280.352 18.535 c h
280.352 18.535 m f
326.219 228.676 m 325.902 227.035 324.906 225.586 323.492 224.699 c 315.047
 219.398 304.746 217.684 295.012 220 c 298.957 220.938 302.762 222.512 306.246
 224.699 c 307.66 225.586 308.652 227.035 308.969 228.676 c 311.699 242.809
 306.07 257.859 293.438 266.512 c 293.086 266.75 292.73 266.973 292.375 
267.195 c 308.926 267.648 l 309.52 267.285 310.105 266.91 310.684 266.512
 c 323.316 257.859 328.945 242.809 326.219 228.676 c h
326.219 228.676 m f
0.392157 0.882353 0.862745 rg
146.629 10.48 m 145.906 8.973 144.578 7.828 142.984 7.328 c 129.242 3.039
 113.656 6.949 103.648 18.535 c 93.039 30.816 91.871 48.039 99.477 61.375
 c 113.777 66.965 130.648 63.305 141.258 51.027 c 151.266 39.438 152.871
 23.449 146.629 10.48 c h
146.629 10.48 m f
0 0.784314 0.784314 rg
146.629 10.48 m 145.906 8.973 144.578 7.828 142.984 7.328 c 136.551 5.32
 129.711 5.109 123.227 6.645 c 124.07 6.844 124.906 7.07 125.734 7.328 c
 127.328 7.828 128.656 8.973 129.379 10.48 c 135.621 23.449 134.016 39.438
 124.008 51.023 c 118.688 57.184 111.789 61.172 104.434 62.918 c 117.527
 66.02 131.852 61.91 141.254 51.023 c 151.266 39.438 152.871 23.449 146.629
 10.48 c h
146.629 10.48 m f
0.392157 0.882353 0.862745 rg
66.602 54.363 m 65.02 53.828 63.273 53.973 61.801 54.762 c 49.113 61.559
 40.988 75.426 42.246 90.684 c 43.582 106.859 55.055 119.758 69.902 123.668
 c 83.906 117.379 93.109 102.773 91.777 86.602 c 90.52 71.34 80.23 58.996
 66.602 54.363 c h
66.602 54.363 m f
0 0.784314 0.784314 rg
91.777 86.602 m 90.52 71.34 80.234 58.992 66.602 54.363 c 65.02 53.828 
63.273 53.973 61.801 54.762 c 60.074 55.684 58.438 56.746 56.895 57.914 
c 66.645 63.918 73.516 74.312 74.527 86.602 c 75.613 99.785 69.695 111.926
 59.887 119.371 c 62.969 121.266 66.336 122.727 69.902 123.668 c 83.906 
117.379 93.109 102.773 91.777 86.602 c h
91.777 86.602 m f
0.392157 0.882353 0.862745 rg
115.391 266.551 m 115.715 266.332 116.035 266.105 116.352 265.871 c 120.309
 251.039 114.789 234.68 101.398 225.512 c 88.766 216.859 72.699 217.047 
60.508 224.699 c 59.094 225.586 58.102 227.035 57.785 228.676 c 55.055 242.809
 60.684 257.859 73.316 266.512 c 73.895 266.91 74.48 267.289 75.074 267.648
 c h
115.391 266.551 m f
0 0.784314 0.784314 rg
101.398 225.512 m 92.379 219.332 81.605 217.664 71.742 220 c 76.062 221.031
 80.27 222.852 84.152 225.512 c 97.539 234.68 103.059 251.039 99.102 265.871
 c 97.449 267.039 l 115.391 266.551 l 115.715 266.332 116.035 266.105 116.352
 265.871 c 120.309 251.035 114.789 234.68 101.398 225.512 c h
101.398 225.512 m f
0.392157 0.882353 0.862745 rg
38.582 138.836 m 39.621 137.531 41.168 136.703 42.836 136.57 c 57.184 135.418
 71.52 142.676 78.723 156.188 c 86.359 170.508 83.695 187.566 73.332 198.891
 c 58.148 201.188 42.504 193.891 34.871 179.57 c 27.664 166.059 29.629 150.109
 38.582 138.836 c h
38.582 138.836 m f
0 0.784314 0.784314 rg
78.723 156.188 m 71.52 142.676 57.184 135.418 42.836 136.57 c 41.539 136.676
 40.312 137.203 39.344 138.051 c 48.508 140.812 56.617 147.074 61.473 156.188
 c 68.855 170.031 66.613 186.43 57.094 197.738 c 62.301 199.293 67.844 199.719
 73.332 198.891 c 83.695 187.566 86.359 170.508 78.723 156.188 c h
78.723 156.188 m f
0.980392 0.368627 0.592157 rg
372.145 291.398 m 377.453 291.398 380.316 297.625 376.859 301.656 c 355.309
 326.801 l 351.32 331.453 351.32 338.32 355.309 342.973 c 376.859 368.117
 l 380.316 372.148 377.453 378.371 372.145 378.371 c 291.395 378.371 l 284.535
 378.371 278.973 372.809 278.973 365.949 c 278.973 349.773 l 105.027 349.773
 l 105.027 365.949 l 105.027 372.809 99.465 378.371 92.605 378.371 c 11.855
 378.371 l 6.547 378.371 3.684 372.148 7.141 368.117 c 28.691 342.973 l 
32.68 338.32 32.68 331.453 28.691 326.801 c 7.141 301.656 l 3.684 297.625
 6.547 291.398 11.855 291.398 c h
372.145 291.398 m f
0.85098 0.309804 0.533333 rg
87.777 365.949 m 87.777 372.809 82.215 378.371 75.355 378.371 c 92.605 
378.371 l 99.465 378.371 105.027 372.809 105.027 365.949 c 105.027 349.773
 l 87.777 349.773 l h
87.777 365.949 m f
355.309 342.973 m 351.32 338.32 351.32 331.453 355.309 326.801 c 376.859
 301.656 l 380.316 297.625 377.453 291.398 372.145 291.398 c 354.895 291.398
 l 360.203 291.398 363.066 297.625 359.609 301.656 c 338.059 326.801 l 334.07
 331.453 334.07 338.32 338.059 342.973 c 359.609 368.117 l 363.066 372.148
 360.203 378.371 354.895 378.371 c 372.145 378.371 l 377.453 378.371 380.316
 372.148 376.859 368.117 c h
355.309 342.973 m f
0.964706 0.545098 0.596078 rg
304.246 353.523 m 79.754 353.523 l 73.129 353.523 67.754 348.152 67.754
 341.523 c 67.754 278.551 l 67.754 271.922 73.129 266.551 79.754 266.551
 c 304.246 266.551 l 310.871 266.551 316.246 271.922 316.246 278.551 c 316.246
 341.523 l 316.246 348.152 310.875 353.523 304.246 353.523 c h
304.246 353.523 m f
0.980392 0.368627 0.592157 rg
304.246 266.551 m 286.996 266.551 l 293.625 266.551 298.996 271.922 298.996
 278.551 c 298.996 341.523 l 298.996 348.152 293.625 353.523 286.996 353.523
 c 304.246 353.523 l 310.871 353.523 316.246 348.152 316.246 341.523 c 316.246
 278.551 l 316.246 271.922 310.875 266.551 304.246 266.551 c h
304.246 266.551 m f
0.937255 0.937255 0.976471 rg
240.273 112.633 m 266.957 139.316 266.957 182.578 240.273 209.258 c 213.594
 235.941 170.332 235.941 143.648 209.258 c 116.965 182.578 116.965 139.316
 143.648 112.633 c 170.332 85.949 213.594 85.949 240.273 112.633 c h
240.273 112.633 m f
0.87451 0.870588 0.960784 rg
192 92.609 m 189.078 92.609 186.199 92.793 183.375 93.148 c 217.043 97.387
 243.086 126.125 243.086 160.941 c 243.086 195.762 217.043 224.496 183.375
 228.738 c 186.199 229.094 189.078 229.277 192 229.277 c 229.742 229.277
 260.336 198.684 260.336 160.941 c 260.336 123.203 229.742 92.609 192 92.609
 c h
192 92.609 m f
0 g
359.578 339.312 m 357.379 336.746 357.379 333.023 359.578 330.461 c 381.129
 305.316 l 384.176 301.766 384.852 296.918 382.898 292.668 c 380.941 288.418
 376.82 285.777 372.145 285.777 c 321.871 285.777 l 321.871 278.551 l 321.871
 274.492 320.488 270.754 318.176 267.77 c 329.355 257.805 334.633 242.59
 331.738 227.609 c 331.129 224.445 329.215 221.648 326.484 219.934 c 321.723
 216.945 316.527 214.988 311.203 214.035 c 312.449 211.031 313.602 207.98
 314.656 204.906 c 315.18 204.926 315.699 204.934 316.219 204.934 c 331.875
 204.934 346.574 196.32 354.094 182.219 c 362.137 167.133 360.461 148.734
 349.824 135.34 c 347.82 132.82 344.828 131.223 341.617 130.965 c 334.637
 130.398 327.801 131.555 321.605 134.148 c 321.305 131.902 320.973 129.66
 320.578 127.434 c 335.488 121.445 346.016 107.445 347.359 91.148 c 348.766
 74.113 339.93 57.883 324.855 49.801 c 322.016 48.281 318.637 48.004 315.586
 49.039 c 306.793 52.027 299.422 57.695 294.297 64.973 c 293.273 63.543 
292.223 62.133 291.156 60.742 c 298.07 45.613 295.629 27.613 284.609 14.859
 c 273.434 1.926 255.668 -3.137 239.34 1.961 c 236.266 2.922 233.699 5.137
 232.305 8.039 c 224.887 23.453 227.312 41.766 238.488 54.703 c 246.797 
64.32 258.766 69.551 271 69.551 c 274.852 69.551 278.727 69.027 282.527 
67.965 c 284.633 70.738 286.641 73.602 288.539 76.516 c 287.547 79.598 286.891
 82.82 286.617 86.141 c 285.211 103.227 294.172 119.473 309.129 127.484 
c 309.957 131.781 310.59 136.141 311.02 140.508 c 306.703 144.035 303.039
 148.434 300.312 153.543 c 292.301 168.574 294.012 186.906 304.387 200.168
 c 302.863 204.723 301.105 209.223 299.129 213.609 c 292.199 214.344 285.418
 216.766 279.422 220.871 c 266.266 229.883 259.332 245.398 261.023 260.926
 c 122.977 260.926 l 124.668 245.398 117.738 229.883 104.578 220.871 c 98.586
 216.766 91.801 214.344 84.871 213.609 c 82.898 209.223 81.137 204.723 79.613
 200.168 c 89.992 186.906 91.703 168.574 83.688 153.543 c 80.961 148.434
 77.297 144.035 72.98 140.508 c 73.414 136.141 74.047 131.781 74.871 127.484
 c 89.828 119.473 98.793 103.227 97.383 86.141 c 97.109 82.82 96.453 79.598
 95.461 76.516 c 97.359 73.602 99.367 70.738 101.477 67.965 c 105.273 69.027
 109.148 69.551 113.004 69.551 c 125.234 69.551 137.203 64.32 145.512 54.703
 c 156.688 41.766 159.117 23.449 151.699 8.039 c 150.301 5.137 147.734 2.918
 144.66 1.957 c 131.984 -2 117.961 0.195 107.137 7.832 c 104.602 9.621 103.996
 13.129 105.785 15.668 c 107.574 18.207 111.086 18.812 113.621 17.023 c 
121.602 11.391 131.953 9.773 141.305 12.695 c 141.414 12.73 141.512 12.816
 141.562 12.918 c 147.035 24.289 145.242 37.805 137 47.348 c 130.125 55.305
 119.852 59.188 109.719 58.125 c 118.586 47.859 l 120.617 45.508 120.359
 41.957 118.008 39.926 c 115.656 37.895 112.105 38.156 110.074 40.504 c 
101.199 50.777 l 99.641 44.73 99.895 38.297 102.027 32.289 c 103.07 29.363
 101.539 26.145 98.613 25.105 c 95.684 24.062 92.469 25.594 91.43 28.523
 c 87.672 39.094 88.227 50.629 92.848 60.734 c 91.781 62.129 90.727 63.539
 89.703 64.973 c 84.578 57.691 77.211 52.027 68.414 49.039 c 65.363 48 61.984
 48.281 59.145 49.801 c 44.07 57.883 35.238 74.109 36.641 91.148 c 37.984
 107.445 48.512 121.445 63.422 127.434 c 63.027 129.66 62.695 131.902 62.395
 134.148 c 56.203 131.555 49.363 130.402 42.383 130.965 c 39.172 131.223
 36.184 132.816 34.18 135.34 c 23.543 148.73 21.863 167.133 29.906 182.215
 c 37.426 196.32 52.125 204.934 67.781 204.934 c 68.301 204.934 68.824 204.926
 69.344 204.906 c 70.398 207.98 71.551 211.031 72.801 214.035 c 67.473 214.984
 62.277 216.945 57.516 219.934 c 54.789 221.648 52.871 224.445 52.262 227.609
 c 49.367 242.586 54.645 257.801 65.828 267.77 c 63.512 270.75 62.129 274.492
 62.129 278.551 c 62.129 285.777 l 48.254 285.777 l 45.148 285.777 42.629
 288.293 42.629 291.398 c 42.629 294.508 45.148 297.023 48.254 297.023 c
 62.129 297.023 l 62.129 341.523 l 62.129 351.242 70.035 359.148 79.754 
359.148 c 99.402 359.148 l 99.402 365.945 l 99.402 369.695 96.352 372.746
 92.605 372.746 c 11.855 372.746 l 11.727 372.746 11.48 372.746 11.324 372.402
 c 11.168 372.062 11.324 371.875 11.41 371.777 c 32.965 346.633 l 38.797
 339.824 38.797 329.945 32.965 323.141 c 11.41 297.996 l 11.324 297.895 
11.168 297.707 11.324 297.367 c 11.48 297.023 11.727 297.023 11.855 297.023
 c 25.754 297.023 l 28.859 297.023 31.379 294.508 31.379 291.398 c 31.379
 288.293 28.859 285.777 25.754 285.777 c 11.855 285.777 l 7.18 285.777 3.059
 288.414 1.102 292.668 c -0.852 296.918 -0.176 301.762 2.871 305.316 c 24.422
 330.461 l 26.621 333.023 26.621 336.746 24.422 339.312 c 2.871 364.457 
l -0.176 368.008 -0.852 372.855 1.102 377.105 c 3.059 381.355 7.18 383.996
 11.855 383.996 c 92.605 383.996 l 102.555 383.996 110.652 375.898 110.652
 365.949 c 110.652 359.148 l 273.348 359.148 l 273.348 365.949 l 273.348
 375.898 281.441 383.996 291.395 383.996 c 372.141 383.996 l 376.82 383.996
 380.941 381.355 382.895 377.105 c 384.852 372.855 384.176 368.008 381.129
 364.457 c h
282.789 50.762 m 273.93 40.508 l 271.898 38.156 268.344 37.895 265.992 
39.926 c 263.645 41.957 263.383 45.512 265.414 47.859 c 274.281 58.125 l
 264.148 59.188 253.875 55.309 247 47.348 c 238.758 37.805 236.965 24.289
 242.441 12.918 c 242.488 12.816 242.59 12.73 242.695 12.699 c 245.809 11.727
 248.992 11.254 252.145 11.254 c 261.191 11.254 269.984 15.137 276.098 22.215
 c 282.969 30.172 285.309 40.891 282.789 50.762 c h
47.852 90.223 m 46.816 77.652 53.336 65.68 64.457 59.719 c 64.516 59.688
 64.59 59.668 64.66 59.668 c 64.707 59.668 64.75 59.676 64.793 59.691 c 
76.742 63.75 85.133 74.492 86.172 87.062 c 87.035 97.543 82.609 107.594 
74.754 114.082 c 73.637 100.562 l 73.383 97.469 70.664 95.16 67.57 95.418
 c 64.473 95.676 62.172 98.391 62.426 101.488 c 63.543 115.008 l 54.73 109.895
 48.715 100.703 47.852 90.223 c h
310.359 100.562 m 309.246 114.082 l 301.391 107.594 296.965 97.543 297.828
 87.062 c 298.863 74.492 307.254 63.75 319.207 59.691 c 319.25 59.676 319.293
 59.668 319.34 59.668 c 319.41 59.668 319.48 59.684 319.543 59.719 c 330.664
 65.68 337.184 77.652 336.145 90.223 c 335.281 100.703 329.27 109.895 320.457
 115.008 c 321.57 101.488 l 321.828 98.391 319.523 95.676 316.43 95.418 
c 313.344 95.156 310.617 97.469 310.359 100.562 c h
310.238 158.836 m 316.172 147.707 328.137 141.176 340.715 142.176 c 340.824
 142.188 340.941 142.25 341.012 142.336 c 348.863 152.219 350.102 165.793
 344.168 176.922 c 339.219 186.203 330.055 192.254 319.941 193.457 c 326.32
 181.488 l 327.785 178.75 326.746 175.344 324.004 173.879 c 321.266 172.418
 317.855 173.457 316.395 176.199 c 310.012 188.168 l 305.371 179.098 305.293
 168.117 310.238 158.836 c h
285.777 230.152 m 296.184 223.023 309.812 222.754 320.504 229.461 c 320.598
 229.52 320.672 229.633 320.695 229.742 c 323.035 241.855 318.137 254.172
 308.199 261.379 c 306.926 261.086 305.605 260.926 304.246 260.926 c 284.82
 260.926 l 289.57 257.672 l 292.133 255.918 292.789 252.414 291.031 249.852
 c 289.277 247.289 285.777 246.637 283.215 248.391 c 272.023 256.059 l 272.098
 245.867 277.102 236.094 285.777 230.152 c h
39.832 176.922 m 33.898 165.793 35.137 152.219 42.988 142.336 c 43.059 
142.25 43.176 142.188 43.285 142.176 c 44.137 142.109 44.988 142.074 45.832
 142.074 c 57.457 142.074 68.23 148.461 73.762 158.836 c 78.711 168.117 
78.629 179.098 73.988 188.168 c 67.605 176.195 l 66.145 173.457 62.738 172.422
 59.996 173.879 c 57.258 175.34 56.219 178.746 57.68 181.488 c 64.059 193.453
 l 53.941 192.25 44.781 186.203 39.832 176.922 c h
63.305 229.742 m 63.328 229.633 63.402 229.52 63.496 229.465 c 74.188 222.754
 87.816 223.023 98.223 230.152 c 106.898 236.094 111.902 245.867 111.977
 256.059 c 100.785 248.391 l 98.223 246.637 94.723 247.293 92.969 249.852
 c 91.211 252.414 91.867 255.918 94.43 257.672 c 99.18 260.926 l 79.754 
260.926 l 78.395 260.926 77.074 261.086 75.801 261.379 c 65.863 254.172 
60.965 241.855 63.305 229.742 c h
79.754 347.898 m 76.238 347.898 73.379 345.039 73.379 341.523 c 73.379 
278.551 l 73.379 275.035 76.238 272.176 79.754 272.176 c 304.246 272.176
 l 307.762 272.176 310.621 275.035 310.621 278.551 c 310.621 341.523 l 310.621
 345.039 307.762 347.898 304.246 347.898 c h
372.676 372.406 m 372.52 372.746 372.273 372.746 372.145 372.746 c 291.395
 372.746 l 287.648 372.746 284.598 369.695 284.598 365.949 c 284.598 359.148
 l 304.246 359.148 l 313.965 359.148 321.871 351.242 321.871 341.523 c 321.871
 297.027 l 372.145 297.027 l 372.273 297.027 372.52 297.027 372.676 297.367
 c 372.832 297.711 372.676 297.895 372.59 297.996 c 351.035 323.141 l 345.203
 329.945 345.203 339.828 351.035 346.633 c 372.59 371.777 l 372.676 371.875
 372.836 372.062 372.676 372.406 c h
372.676 372.406 m f
281.859 291.988 m 281.84 291.988 281.82 291.988 281.801 291.988 c 278.695
 292.016 276.203 294.562 276.23 297.668 c 276.297 304.59 l 269.305 294.461
 l 267.906 292.438 265.352 291.559 263 292.289 c 260.652 293.02 259.051 
295.195 259.051 297.656 c 259.051 322.461 l 259.051 325.566 261.57 328.086
 264.676 328.086 c 267.781 328.086 270.301 325.566 270.301 322.461 c 270.301
 315.703 l 276.82 325.145 l 278.352 327.352 281.043 328.316 283.523 327.539
 c 286.027 326.758 287.715 324.379 287.711 321.57 c 287.48 297.559 l 287.449
 294.469 284.938 291.988 281.859 291.988 c h
281.859 291.988 m f
217.301 296.938 m 216.738 294.188 214.391 292.156 211.586 291.996 c 208.789
 291.844 206.223 293.594 205.355 296.266 c 205.336 296.328 205.316 296.395
 205.297 296.457 c 203.227 303.723 l 201.066 296.406 l 201.047 296.336 201.027
 296.27 201.004 296.203 c 200.109 293.543 197.535 291.812 194.727 292.004
 c 191.926 292.191 189.598 294.246 189.055 297.07 c 184.688 321.27 l 184.137
 324.324 186.168 327.25 189.223 327.805 c 192.281 328.355 195.207 326.324
 195.758 323.266 c 196.328 320.098 l 197.383 323.672 l 197.402 323.738 197.426
 323.801 197.445 323.867 c 198.293 326.395 200.648 328.086 203.309 328.086
 c 203.34 328.086 l 206.016 328.074 208.367 326.355 209.195 323.812 c 209.215
 323.746 209.234 323.68 209.254 323.617 c 210.27 320.059 l 210.891 323.324
 l 211.477 326.375 214.422 328.387 217.473 327.793 c 220.523 327.211 222.523
 324.262 221.941 321.211 c h
217.301 296.938 m f
245.605 303.465 m 248.711 303.465 251.23 300.945 251.23 297.84 c 251.23
 294.734 248.711 292.215 245.605 292.215 c 235.23 292.215 l 232.125 292.215
 229.605 294.734 229.605 297.84 c 229.605 322.461 l 229.605 325.566 232.125
 328.086 235.23 328.086 c 245.605 328.086 l 248.711 328.086 251.23 325.566
 251.23 322.461 c 251.23 319.355 248.711 316.836 245.605 316.836 c 240.855
 316.836 l 240.855 315.773 l 244.844 315.773 l 247.949 315.773 250.465 313.258
 250.465 310.148 c 250.465 307.043 247.949 304.527 244.844 304.527 c 240.855
 304.527 l 240.855 303.465 l h
245.605 303.465 m f
129.93 292.141 m 126.883 291.531 123.922 293.512 123.316 296.559 c 122.379
 301.258 l 120.746 295.957 l 119.832 292.988 116.684 291.324 113.715 292.238
 c 111.77 292.836 110.391 294.395 109.926 296.234 c 108.367 301.266 l 107.43
 296.523 l 106.824 293.473 103.867 291.496 100.82 292.094 c 97.773 292.699
 95.789 295.656 96.395 298.703 c 101.234 323.18 l 101.289 323.449 101.359
 323.715 101.453 323.973 c 102.328 326.438 104.668 328.086 107.281 328.086
 c 107.297 328.086 107.309 328.086 107.324 328.086 c 109.957 328.07 112.293
 326.383 113.137 323.891 c 113.156 323.84 113.172 323.793 113.184 323.746
 c 115.367 316.699 l 117.535 323.746 l 117.559 323.82 117.586 323.895 117.613
 323.973 c 118.488 326.438 120.828 328.086 123.441 328.086 c 123.453 328.086
 123.469 328.086 123.48 328.086 c 126.113 328.07 128.449 326.383 129.297
 323.895 c 129.375 323.66 129.441 323.422 129.488 323.18 c 134.348 298.758
 l 134.957 295.707 132.977 292.746 129.93 292.141 c h
129.93 292.141 m f
159.551 291.988 m 149.598 291.988 141.504 300.086 141.504 310.035 c 141.504
 319.988 149.598 328.086 159.551 328.086 c 169.504 328.086 177.602 319.988
 177.602 310.035 c 177.602 300.086 169.504 291.988 159.551 291.988 c h
159.551 316.836 m 155.801 316.836 152.754 313.785 152.754 310.035 c 152.754
 306.289 155.801 303.238 159.551 303.238 c 163.301 303.238 166.352 306.289
 166.352 310.035 c 166.352 313.785 163.301 316.836 159.551 316.836 c h
159.551 316.836 m f
186.375 172.25 m 186.375 180.168 l 179.578 180.168 l 176.469 180.168 173.953
 182.684 173.953 185.793 c 173.953 188.898 176.469 191.418 179.578 191.418
 c 186.375 191.418 l 186.375 204.43 l 186.375 207.535 188.895 210.055 192
 210.055 c 195.105 210.055 197.625 207.535 197.625 204.43 c 197.625 191.418
 l 204.426 191.418 l 207.531 191.418 210.051 188.898 210.051 185.793 c 210.051
 182.684 207.531 180.168 204.426 180.168 c 197.625 180.168 l 197.625 172.25
 l 211.75 169.602 222.473 157.188 222.473 142.305 c 222.473 125.504 208.805
 111.832 192 111.832 c 175.195 111.832 161.527 125.504 161.527 142.305 c
 161.527 157.188 172.25 169.602 186.375 172.25 c h
192 123.082 m 202.602 123.082 211.223 131.707 211.223 142.305 c 211.223
 152.906 202.602 161.531 192 161.531 c 181.398 161.531 172.777 152.906 172.777
 142.305 c 172.777 131.707 181.398 123.082 192 123.082 c h
192 123.082 m f
118.039 160.941 m 118.039 201.723 151.219 234.902 192 234.902 c 232.781
 234.902 265.957 201.723 265.957 160.941 c 265.957 120.16 232.781 86.984
 192 86.984 c 151.219 86.984 118.039 120.16 118.039 160.941 c h
192 98.234 m 226.578 98.234 254.711 126.363 254.711 160.941 c 254.711 195.523
 226.578 223.652 192 223.652 c 157.422 223.652 129.289 195.523 129.289 160.941
 c 129.289 126.363 157.422 98.234 192 98.234 c h
192 98.234 m f
Q Q
showpage
%%Trailer
end
%%EOF
