%!PS-Adobe-3.0 EPSF-3.0
%%Creator: cairo 1.16.0 (https://cairographics.org)
%%CreationDate: Fri Feb  5 09:59:29 2021
%%Pages: 1
%%DocumentData: Clean7Bit
%%LanguageLevel: 2
%%BoundingBox: 0 0 384 384
%%EndComments
%%BeginProlog
50 dict begin
/q { gsave } bind def
/Q { grestore } bind def
/cm { 6 array astore concat } bind def
/w { setlinewidth } bind def
/J { setlinecap } bind def
/j { setlinejoin } bind def
/M { setmiterlimit } bind def
/d { setdash } bind def
/m { moveto } bind def
/l { lineto } bind def
/c { curveto } bind def
/h { closepath } bind def
/re { exch dup neg 3 1 roll 5 3 roll moveto 0 rlineto
      0 exch rlineto 0 rlineto closepath } bind def
/S { stroke } bind def
/f { fill } bind def
/f* { eofill } bind def
/n { newpath } bind def
/W { clip } bind def
/W* { eoclip } bind def
/BT { } bind def
/ET { } bind def
/BDC { mark 3 1 roll /BDC pdfmark } bind def
/EMC { mark /EMC pdfmark } bind def
/cairo_store_point { /cairo_point_y exch def /cairo_point_x exch def } def
/Tj { show currentpoint cairo_store_point } bind def
/TJ {
  {
    dup
    type /stringtype eq
    { show } { -0.001 mul 0 cairo_font_matrix dtransform rmoveto } ifelse
  } forall
  currentpoint cairo_store_point
} bind def
/cairo_selectfont { cairo_font_matrix aload pop pop pop 0 0 6 array astore
    cairo_font exch selectfont cairo_point_x cairo_point_y moveto } bind def
/Tf { pop /cairo_font exch def /cairo_font_matrix where
      { pop cairo_selectfont } if } bind def
/Td { matrix translate cairo_font_matrix matrix concatmatrix dup
      /cairo_font_matrix exch def dup 4 get exch 5 get cairo_store_point
      /cairo_font where { pop cairo_selectfont } if } bind def
/Tm { 2 copy 8 2 roll 6 array astore /cairo_font_matrix exch def
      cairo_store_point /cairo_font where { pop cairo_selectfont } if } bind def
/g { setgray } bind def
/rg { setrgbcolor } bind def
/d1 { setcachedevice } bind def
/cairo_data_source {
  CairoDataIndex CairoData length lt
    { CairoData CairoDataIndex get /CairoDataIndex CairoDataIndex 1 add def }
    { () } ifelse
} def
/cairo_flush_ascii85_file { cairo_ascii85_file status { cairo_ascii85_file flushfile } if } def
/cairo_image { image cairo_flush_ascii85_file } def
/cairo_imagemask { imagemask cairo_flush_ascii85_file } def
%%EndProlog
%%BeginSetup
%%EndSetup
%%Page: 1 1
%%BeginPageSetup
%%PageBoundingBox: 0 0 384 384
%%EndPageSetup
q 0 0 384 384 rectclip
1 0 0 -1 0 384 cm q
0.937255 0.937255 0.976471 rg
185.016 183.387 m 185.016 196.352 l 183.148 196.898 181.336 197.672 179.609
 198.668 c 130.039 227.285 l 122.371 231.715 117.648 239.895 117.648 248.75
 c 117.648 324.984 l 117.648 333.84 122.371 342.023 130.039 346.449 c 179.609
 375.07 l 187.277 379.496 196.723 379.496 204.391 375.07 c 253.961 346.449
 l 261.629 342.023 266.352 333.84 266.352 324.984 c 266.352 248.75 l 266.352
 239.895 261.629 231.715 253.961 227.285 c 204.391 198.668 l 202.664 197.672
 200.848 196.898 198.984 196.352 c 198.984 183.387 l h
185.016 183.387 m f
0.87451 0.870588 0.960784 rg
253.961 227.285 m 204.391 198.668 l 202.664 197.672 200.848 196.898 198.984
 196.352 c 198.984 183.387 l 185.016 183.387 l 185.016 196.352 l 184.465
 196.512 183.918 196.703 183.375 196.902 c 184.664 197.383 185.926 197.965
 187.141 198.668 c 236.711 227.285 l 244.379 231.715 249.102 239.895 249.102
 248.75 c 249.102 324.984 l 249.102 333.84 244.379 342.023 236.711 346.449
 c 187.141 375.07 l 185.926 375.77 184.664 376.348 183.375 376.824 c 190.227
 379.371 197.938 378.793 204.391 375.07 c 253.961 346.449 l 261.629 342.023
 266.352 333.84 266.352 324.984 c 266.352 248.75 l 266.352 239.895 261.629
 231.715 253.961 227.285 c h
253.961 227.285 m f
0.45098 0.737255 1 rg
198.195 223.707 m 235.371 245.172 l 239.207 247.387 241.57 251.477 241.57
 255.902 c 241.57 317.832 l 241.57 322.258 239.207 326.348 235.371 328.562
 c 198.195 350.027 l 194.363 352.238 189.637 352.238 185.805 350.027 c 148.629
 328.562 l 144.793 326.348 142.434 322.258 142.434 317.832 c 142.434 255.902
 l 142.434 251.477 144.793 247.387 148.629 245.172 c 185.805 223.707 l 189.637
 221.496 194.363 221.496 198.195 223.707 c h
198.195 223.707 m f
0.862745 0.529412 0.345098 rg
179.609 129.246 m 128.277 126.668 88.027 107.801 59.836 73.074 c 36.867
 44.777 30.715 15.848 30.664 15.594 c 29.32 8.883 22.797 4.527 16.082 5.871
 c 9.371 7.215 5.016 13.742 6.359 20.453 c 6.637 21.84 13.449 54.77 39.812
 87.727 c 55.332 107.121 74.441 122.578 96.613 133.664 c 120.848 145.781
 148.715 152.621 179.609 154.055 c 204.391 154.055 l 235.285 152.621 263.152
 145.781 287.387 133.664 c 309.559 122.578 328.668 107.121 344.188 87.727
 c 370.551 54.77 377.363 21.84 377.641 20.453 c 378.984 13.742 374.629 7.215
 367.918 5.871 c 361.207 4.531 354.68 8.883 353.336 15.594 c 353.281 15.875
 347.473 43.945 324.832 72.242 c 296.625 107.504 256.148 126.648 204.391
 129.246 c h
179.609 129.246 m f
0.784314 0.427451 0.211765 rg
13.41 15.594 m 13.465 15.848 19.617 44.777 42.586 73.074 c 70.777 107.801
 111.027 126.668 162.355 129.246 c 187.145 129.246 l 179.609 129.246 l 128.277
 126.668 88.027 107.801 59.836 73.074 c 36.867 44.777 30.715 15.848 30.664
 15.594 c 29.32 8.883 22.797 4.527 16.082 5.871 c 13.652 6.359 11.543 7.527
 9.891 9.133 c 11.633 10.82 12.898 13.035 13.41 15.594 c h
13.41 15.594 m f
367.918 5.871 m 363.766 5.043 359.688 6.398 356.859 9.137 c 359.777 11.969
 361.246 16.172 360.391 20.453 c 360.113 21.84 353.301 54.77 326.934 87.727
 c 311.418 107.125 292.305 122.582 270.133 133.668 c 245.902 145.781 218.031
 152.621 187.141 154.055 c 204.391 154.055 l 235.281 152.621 263.152 145.781
 287.383 133.668 c 309.559 122.582 328.668 107.125 344.184 87.727 c 370.551
 54.77 377.363 21.84 377.641 20.453 c 378.984 13.742 374.629 7.215 367.918
 5.871 c h
367.918 5.871 m f
0.937255 0.937255 0.976471 rg
204.391 165.266 m 204.391 129.555 l 204.391 122.711 198.844 117.16 192 
117.16 c 185.156 117.16 179.609 122.711 179.609 129.555 c 179.609 165.27
 l h
204.391 165.266 m f
0.87451 0.870588 0.960784 rg
192 117.16 m 188.645 117.16 185.605 118.5 183.375 120.664 c 185.695 122.918
 187.145 126.062 187.145 129.555 c 187.145 165.266 l 179.609 165.27 l 204.391
 165.27 l 204.391 129.555 l 204.391 122.711 198.844 117.16 192 117.16 c 
h
192 117.16 m f
0.992157 0.74902 0 rg
194.789 160.691 m 204.941 162.223 211.934 171.691 210.402 181.848 c 208.871
 192 199.402 198.988 189.25 197.461 c 179.094 195.93 172.105 186.461 173.633
 176.309 c 175.164 166.152 184.637 159.164 194.789 160.691 c h
194.789 160.691 m f
1 0.568627 0 rg
192 160.535 m 188.887 160.535 185.953 161.305 183.375 162.656 c 189.297
 165.766 193.336 171.969 193.336 179.121 c 193.336 186.273 189.297 192.477
 183.375 195.586 c 185.953 196.941 188.887 197.711 192 197.711 c 202.266
 197.711 210.59 189.387 210.59 179.121 c 210.59 168.855 202.266 160.535 
192 160.535 c h
192 160.535 m f
0.45098 0.494118 0.901961 rg
235.371 245.172 m 198.195 223.711 l 194.363 221.496 189.637 221.496 185.805
 223.711 c 183.375 225.113 l 218.121 245.172 l 221.957 247.387 224.316 251.477
 224.316 255.906 c 224.316 317.832 l 224.316 322.258 221.957 326.348 218.121
 328.562 c 183.375 348.625 l 185.805 350.027 l 189.637 352.242 194.363 352.242
 198.195 350.027 c 235.371 328.562 l 239.207 326.352 241.57 322.258 241.57
 317.832 c 241.57 255.906 l 241.57 251.477 239.207 247.387 235.371 245.172
 c h
235.371 245.172 m f
0 g
182.992 354.898 m 185.77 356.504 188.887 357.305 192 357.305 c 195.113 
357.305 198.23 356.504 201.008 354.898 c 238.184 333.434 l 243.742 330.227
 247.195 324.25 247.195 317.832 c 247.195 255.906 l 247.195 249.488 243.742
 243.512 238.184 240.301 c 201.008 218.84 l 195.453 215.629 188.547 215.629
 182.992 218.84 c 145.816 240.301 l 140.258 243.508 136.805 249.488 136.805
 255.906 c 136.805 317.832 l 136.805 324.25 140.258 330.227 145.816 333.434
 c h
161.602 266.312 m 161.598 266.422 161.59 266.527 161.59 266.637 c 161.59
 307.098 l 161.59 307.207 161.598 307.312 161.602 307.422 c 148.059 315.242
 l 148.059 258.492 l h
153.684 324.984 m 167.227 317.164 l 167.32 317.223 167.406 317.281 167.5
 317.336 c 186.09 328.066 l 186.184 328.121 186.281 328.168 186.375 328.223
 c 186.375 343.863 l h
191.715 255.41 m 191.805 255.359 191.902 255.332 192 255.332 c 192.098 
255.332 192.195 255.359 192.285 255.41 c 210.875 266.145 l 211.051 266.246
 211.16 266.434 211.16 266.637 c 211.16 307.098 l 211.16 307.301 211.051
 307.492 210.875 307.594 c 192.281 318.324 l 192.195 318.379 192.098 318.402
 192 318.402 c 191.902 318.402 192 318.402 192 318.402 c 191.902 318.402
 191.801 318.379 191.715 318.324 c 173.125 307.594 l 172.949 307.492 172.84
 307.301 172.84 307.098 c 172.84 266.637 l 172.84 266.434 172.949 266.246
 173.125 266.145 c h
197.625 343.859 m 197.625 328.219 l 197.719 328.168 197.816 328.121 197.91
 328.066 c 216.496 317.336 l 216.59 317.281 216.68 317.223 216.773 317.164
 c 230.316 324.984 l h
235.941 258.492 m 235.941 315.242 l 222.398 307.422 l 222.402 307.312 222.41
 307.207 222.41 307.098 c 222.41 266.637 l 222.41 266.527 222.402 266.422
 222.398 266.312 c h
230.316 248.75 m 216.773 256.57 l 216.68 256.516 216.594 256.453 216.5 
256.398 c 197.91 245.668 l 197.816 245.613 197.719 245.566 197.625 245.516
 c 197.625 229.875 l h
186.375 229.875 m 186.375 245.516 l 186.277 245.566 186.184 245.613 186.09
 245.668 c 167.5 256.398 l 167.406 256.453 167.32 256.516 167.227 256.57
 c 153.684 248.75 l h
186.375 229.875 m f
369.02 0.355 m 359.281 -1.582 349.77 4.754 347.824 14.473 c 347.77 14.742
 342.008 41.77 320.441 68.73 c 294.18 101.551 256.676 119.906 208.91 123.336
 c 206.371 116.457 199.75 111.535 192 111.535 c 184.25 111.535 177.629 116.457
 175.09 123.332 c 127.727 119.934 90.438 101.848 64.203 69.527 c 42.316 
42.566 36.227 14.719 36.18 14.492 c 35.234 9.77 32.512 5.703 28.508 3.031
 c 24.504 0.363 19.699 -0.59 14.977 0.355 c 5.234 2.305 -1.105 11.816 0.844
 21.559 c 1.031 22.492 5.602 44.711 21.234 70.801 c 22.832 73.469 26.285
 74.332 28.949 72.734 c 31.613 71.137 32.48 67.684 30.883 65.02 c 16.238
 40.574 12.047 20.203 11.875 19.352 c 11.145 15.691 13.523 12.121 17.184
 11.387 c 18.957 11.031 20.762 11.391 22.266 12.391 c 23.77 13.395 24.793
 14.926 25.148 16.719 c 25.211 17.02 31.57 47.18 55.469 76.617 c 83.691 
111.387 123.543 130.852 173.98 134.531 c 173.98 148.09 l 146.234 146.145
 121.078 139.609 99.129 128.637 c 77.691 117.918 59.211 102.973 44.203 84.211
 c 43.863 83.789 43.527 83.363 43.195 82.938 c 41.277 80.492 37.742 80.066
 35.297 81.984 c 32.855 83.902 32.426 87.438 34.344 89.883 c 34.699 90.336
 35.059 90.789 35.422 91.242 c 51.453 111.281 71.195 127.246 94.102 138.699
 c 117.59 150.441 144.441 157.383 173.984 159.363 c 173.984 162.969 l 170.133
 167.258 167.785 172.918 167.785 179.121 c 167.785 185.371 170.168 191.074
 174.066 195.375 c 127.227 222.414 l 117.848 227.832 112.023 237.922 112.023
 248.75 c 112.023 260.934 l 112.023 264.043 114.539 266.559 117.648 266.559
 c 120.754 266.559 123.273 264.043 123.273 260.934 c 123.273 248.75 l 123.273
 241.926 126.941 235.57 132.852 232.16 c 182.418 203.539 l 183.25 203.062
 184.121 202.652 185.008 202.301 c 187.223 202.973 189.57 203.336 192 203.336
 c 194.43 203.336 196.773 202.973 198.988 202.301 c 199.879 202.652 200.75
 203.059 201.578 203.539 c 251.148 232.156 l 257.055 235.57 260.727 241.926
 260.727 248.75 c 260.727 324.984 l 260.727 331.809 257.055 338.168 251.148
 341.578 c 201.578 370.195 l 195.672 373.609 188.328 373.609 182.422 370.195
 c 132.852 341.578 l 126.945 338.168 123.273 331.809 123.273 324.984 c 123.273
 283.434 l 123.273 280.328 120.754 277.809 117.648 277.809 c 114.539 277.809
 112.023 280.328 112.023 283.434 c 112.023 324.984 l 112.023 335.816 117.848
 345.906 127.227 351.32 c 176.797 379.938 l 181.484 382.645 186.742 384 
192 384 c 197.258 384 202.516 382.645 207.203 379.938 c 256.773 351.32 l
 266.152 345.906 271.977 335.816 271.977 324.984 c 271.977 248.75 l 271.977
 237.922 266.152 227.828 256.773 222.414 c 209.934 195.371 l 213.836 191.074
 216.215 185.371 216.215 179.121 c 216.215 172.918 213.867 167.254 210.016
 162.969 c 210.016 159.363 l 239.559 157.383 266.41 150.441 289.898 138.699
 c 312.805 127.246 332.547 111.277 348.578 91.242 c 375.773 57.246 382.867
 23 383.156 21.559 c 385.105 11.816 378.766 2.305 369.02 0.355 c h
192 122.785 m 195.73 122.785 198.766 125.82 198.766 129.551 c 198.766 155.879
 l 196.617 155.25 194.348 154.906 192 154.906 c 189.652 154.906 187.383 
155.25 185.23 155.879 c 185.23 129.551 l 185.234 125.82 188.27 122.785 192
 122.785 c h
179.035 179.121 m 179.035 171.973 184.852 166.16 192 166.16 c 199.148 166.16
 204.965 171.973 204.965 179.121 c 204.965 186.27 199.148 192.086 192 192.086
 c 184.852 192.086 179.035 186.27 179.035 179.121 c h
372.125 19.352 m 371.859 20.68 365.301 52.328 339.793 84.211 c 324.785 
102.969 306.309 117.914 284.871 128.633 c 262.922 139.609 237.766 146.141
 210.016 148.09 c 210.016 134.531 l 260.891 130.824 300.977 111.066 329.223
 75.758 c 352.699 46.414 358.793 16.992 358.852 16.695 c 359.586 13.039 
363.16 10.656 366.816 11.387 c 370.477 12.121 372.855 15.691 372.125 19.352
 c h
372.125 19.352 m f
Q Q
showpage
%%Trailer
end
%%EOF
