%!PS-Adobe-3.0 EPSF-3.0
%%Creator: cairo 1.16.0 (https://cairographics.org)
%%CreationDate: Fri Feb  5 09:59:30 2021
%%Pages: 1
%%DocumentData: Clean7Bit
%%LanguageLevel: 2
%%BoundingBox: 0 7 384 377
%%EndComments
%%BeginProlog
50 dict begin
/q { gsave } bind def
/Q { grestore } bind def
/cm { 6 array astore concat } bind def
/w { setlinewidth } bind def
/J { setlinecap } bind def
/j { setlinejoin } bind def
/M { setmiterlimit } bind def
/d { setdash } bind def
/m { moveto } bind def
/l { lineto } bind def
/c { curveto } bind def
/h { closepath } bind def
/re { exch dup neg 3 1 roll 5 3 roll moveto 0 rlineto
      0 exch rlineto 0 rlineto closepath } bind def
/S { stroke } bind def
/f { fill } bind def
/f* { eofill } bind def
/n { newpath } bind def
/W { clip } bind def
/W* { eoclip } bind def
/BT { } bind def
/ET { } bind def
/BDC { mark 3 1 roll /BDC pdfmark } bind def
/EMC { mark /EMC pdfmark } bind def
/cairo_store_point { /cairo_point_y exch def /cairo_point_x exch def } def
/Tj { show currentpoint cairo_store_point } bind def
/TJ {
  {
    dup
    type /stringtype eq
    { show } { -0.001 mul 0 cairo_font_matrix dtransform rmoveto } ifelse
  } forall
  currentpoint cairo_store_point
} bind def
/cairo_selectfont { cairo_font_matrix aload pop pop pop 0 0 6 array astore
    cairo_font exch selectfont cairo_point_x cairo_point_y moveto } bind def
/Tf { pop /cairo_font exch def /cairo_font_matrix where
      { pop cairo_selectfont } if } bind def
/Td { matrix translate cairo_font_matrix matrix concatmatrix dup
      /cairo_font_matrix exch def dup 4 get exch 5 get cairo_store_point
      /cairo_font where { pop cairo_selectfont } if } bind def
/Tm { 2 copy 8 2 roll 6 array astore /cairo_font_matrix exch def
      cairo_store_point /cairo_font where { pop cairo_selectfont } if } bind def
/g { setgray } bind def
/rg { setrgbcolor } bind def
/d1 { setcachedevice } bind def
/cairo_data_source {
  CairoDataIndex CairoData length lt
    { CairoData CairoDataIndex get /CairoDataIndex CairoDataIndex 1 add def }
    { () } ifelse
} def
/cairo_flush_ascii85_file { cairo_ascii85_file status { cairo_ascii85_file flushfile } if } def
/cairo_image { image cairo_flush_ascii85_file } def
/cairo_imagemask { imagemask cairo_flush_ascii85_file } def
%%EndProlog
%%BeginSetup
%%EndSetup
%%Page: 1 1
%%BeginPageSetup
%%PageBoundingBox: 0 7 384 377
%%EndPageSetup
q 0 7 384 370 rectclip
1 0 0 -1 0 384 cm q
0.980392 0.368627 0.592157 rg
372.125 161.207 m 364.289 161.027 357.105 156.055 354.582 148.281 c 352.059
 140.512 354.945 132.266 361.176 127.516 c 364.07 125.309 364.633 121.227
 362.316 118.477 c 349.266 102.965 309.52 66.242 258.18 114.57 c 257.234
 115.461 255.797 115.566 254.75 114.801 c 254.68 114.754 l 253.633 113.992
 253.289 112.594 253.844 111.422 c 283.934 47.668 236.742 21.215 217.961
 13.594 c 214.625 12.242 210.918 14.035 209.715 17.473 c 207.121 24.867 
200.172 30.16 192 30.16 c 183.828 30.16 176.879 24.867 174.285 17.473 c 
173.082 14.035 169.375 12.242 166.043 13.594 c 147.258 21.215 100.066 47.668
 130.156 111.422 c 130.711 112.594 130.367 113.992 129.32 114.754 c 129.25
 114.801 l 128.203 115.566 126.766 115.461 125.82 114.57 c 74.48 66.242 
34.738 102.965 21.684 118.477 c 19.371 121.227 19.93 125.309 22.824 127.516
 c 29.059 132.266 31.945 140.512 29.418 148.281 c 26.895 156.055 19.711 
161.027 11.879 161.207 c 8.238 161.293 5.387 164.266 5.641 167.852 c 7.086
 188.074 17.664 241.156 87.648 232.203 c 88.938 232.039 90.168 232.801 90.57
 234.039 c 90.586 234.082 l 90.988 235.32 90.441 236.664 89.301 237.289 
c 27.422 271.18 50.062 320.344 60.781 337.551 c 62.684 340.605 66.738 341.336
 69.73 339.262 c 76.172 334.805 84.91 334.605 91.52 339.406 c 98.129 344.211
 100.641 352.582 98.391 360.086 c 97.348 363.574 99.293 367.203 102.785 
368.07 c 122.473 372.949 176.273 379.293 189.348 309.852 c 189.586 308.582
 190.684 307.656 191.973 307.656 c 192.027 307.656 l 193.316 307.656 194.414
 308.582 194.652 309.852 c 207.727 379.293 261.527 372.949 281.215 368.07
 c 284.707 367.203 286.652 363.574 285.609 360.086 c 283.359 352.582 285.871
 344.211 292.48 339.406 c 299.09 334.605 307.828 334.801 314.27 339.262 
c 317.262 341.336 321.316 340.605 323.219 337.551 c 333.941 320.34 356.586
 271.168 294.676 237.277 c 293.539 236.652 293.012 235.316 293.414 234.082
 c 293.418 234.07 293.426 234.055 293.43 234.039 c 293.828 232.805 295.039
 232.035 296.324 232.199 c 366.332 241.172 376.914 188.078 378.359 167.852
 c 378.613 164.262 375.762 161.289 372.125 161.207 c h
372.125 161.207 m f
0.85098 0.309804 0.533333 rg
294.676 237.273 m 293.539 236.652 293.016 235.316 293.414 234.082 c 293.422
 234.066 293.426 234.055 293.43 234.039 c 293.531 233.73 293.684 233.449
 293.875 233.203 c 289.262 233.191 284.34 232.875 279.074 232.199 c 277.789
 232.035 276.582 232.805 276.18 234.039 c 276.176 234.055 276.172 234.066
 276.164 234.082 c 275.766 235.316 276.289 236.652 277.426 237.273 c 337.773
 270.312 317.785 317.859 306.805 336.18 c 309.449 336.664 312.004 337.691
 314.27 339.262 c 317.262 341.332 321.316 340.605 323.219 337.551 c 333.941
 320.34 356.586 271.168 294.676 237.273 c h
294.676 237.273 m f
372.125 161.207 m 364.289 161.027 357.105 156.055 354.582 148.281 c 352.059
 140.512 354.945 132.266 361.176 127.516 c 364.07 125.309 364.633 121.227
 362.316 118.477 c 353.188 107.625 330.996 86.406 300.914 91.168 c 322.191
 94.57 337.785 109.824 345.066 118.477 c 347.383 121.227 346.82 125.309 
343.926 127.516 c 337.695 132.266 334.809 140.512 337.332 148.281 c 339.855
 156.055 347.039 161.031 354.875 161.207 c 358.512 161.293 361.363 164.266
 361.109 167.852 c 359.844 185.559 351.574 228.461 302.551 232.848 c 366.965
 237.969 376.961 187.461 378.359 167.852 c 378.613 164.262 375.762 161.289
 372.125 161.207 c h
372.125 161.207 m f
275.23 339.406 m 268.621 344.211 266.109 352.582 268.359 360.086 c 269.406
 363.574 267.461 367.203 263.969 368.07 c 260.488 368.934 255.941 369.836
 250.746 370.363 c 262.965 371.711 274.234 369.801 281.219 368.07 c 284.711
 367.203 286.652 363.574 285.609 360.086 c 283.359 352.582 285.871 344.211
 292.48 339.406 c 293.238 338.859 294.023 338.383 294.828 337.965 c 288.691
 334.828 281.117 335.129 275.23 339.406 c h
275.23 339.406 m f
0.992157 0.74902 0 rg
204.531 75.797 m 204.531 82.719 198.922 88.328 192 88.328 c 185.078 88.328
 179.469 82.719 179.469 75.797 c 179.469 68.875 185.078 63.266 192 63.266
 c 198.922 63.266 204.531 68.875 204.531 75.797 c h
204.531 75.797 m f
75.273 150.016 m 82.07 151.34 86.508 157.918 85.188 164.715 c 83.863 171.512
 77.285 175.949 70.488 174.629 c 63.691 173.305 59.254 166.727 60.574 159.93
 c 61.898 153.133 68.48 148.695 75.273 150.016 c h
75.273 150.016 m f
124.566 291.668 m 130.543 295.148 132.57 302.82 129.09 308.797 c 125.609
 314.777 117.938 316.805 111.957 313.324 c 105.98 309.84 103.953 302.172
 107.434 296.191 c 110.918 290.215 118.586 288.188 124.566 291.668 c h
124.566 291.668 m f
266.762 289.992 m 273.66 290.547 278.805 296.59 278.25 303.488 c 277.695
 310.387 271.656 315.531 264.754 314.98 c 257.855 314.426 252.711 308.383
 253.266 301.484 c 253.816 294.582 259.859 289.438 266.762 289.992 c h
266.762 289.992 m f
323.688 159.82 m 325.086 166.602 320.723 173.234 313.938 174.633 c 307.156
 176.031 300.523 171.664 299.129 164.883 c 297.73 158.102 302.094 151.469
 308.875 150.07 c 315.66 148.672 322.289 153.039 323.688 159.82 c h
323.688 159.82 m f
1 0.568627 0 rg
192 63.266 m 188.652 63.266 185.621 64.586 183.375 66.723 c 185.773 69.008
 187.277 72.223 187.277 75.797 c 187.277 79.371 185.773 82.586 183.375 84.871
 c 185.621 87.008 188.652 88.328 192 88.328 c 198.922 88.328 204.531 82.719
 204.531 75.797 c 204.531 68.875 198.922 63.266 192 63.266 c h
192 63.266 m f
311.184 149.855 m 307.836 149.855 304.801 151.176 302.555 153.312 c 304.953
 155.594 306.457 158.812 306.457 162.387 c 306.457 165.957 304.953 169.176
 302.555 171.457 c 304.801 173.598 307.836 174.918 311.184 174.918 c 318.102
 174.918 323.711 169.305 323.711 162.387 c 323.711 155.465 318.102 149.855
 311.184 149.855 c h
311.184 149.855 m f
72.824 149.855 m 69.48 149.855 66.445 151.176 64.199 153.312 c 66.598 155.594
 68.102 158.812 68.102 162.387 c 68.102 165.957 66.598 169.176 64.199 171.457
 c 66.445 173.598 69.48 174.918 72.824 174.918 c 79.746 174.918 85.355 169.305
 85.355 162.387 c 85.355 155.465 79.746 149.855 72.824 149.855 c h
72.824 149.855 m f
118.344 289.957 m 115 289.957 111.965 291.277 109.719 293.414 c 112.117
 295.695 113.621 298.914 113.621 302.488 c 113.621 306.062 112.117 309.277
 109.719 311.562 c 111.965 313.699 114.996 315.02 118.344 315.02 c 125.266
 315.02 130.875 309.406 130.875 302.488 c 130.875 295.566 125.266 289.957
 118.344 289.957 c h
118.344 289.957 m f
275.793 295.121 m 271.727 289.523 263.891 288.281 258.289 292.348 c 257.84
 292.676 257.426 293.039 257.035 293.41 c 257.578 293.93 258.086 294.492
 258.543 295.121 c 262.285 300.27 261.527 307.301 257.027 311.566 c 261.324
 315.656 268.051 316.238 273.023 312.625 c 278.621 308.559 279.863 300.723
 275.793 295.121 c h
275.793 295.121 m f
0.937255 0.937255 0.976471 rg
260.34 201.031 m 260.34 238.773 229.742 269.367 192 269.367 c 154.258 269.367
 123.664 238.773 123.664 201.031 c 123.664 163.289 154.258 132.695 192 132.695
 c 229.742 132.695 260.34 163.289 260.34 201.031 c h
260.34 201.031 m f
0.87451 0.870588 0.960784 rg
192 132.695 m 189.078 132.695 186.199 132.879 183.375 133.234 c 217.047
 137.473 243.09 166.211 243.09 201.031 c 243.09 235.852 217.047 264.586 
183.375 268.828 c 186.199 269.184 189.078 269.367 192 269.367 c 229.742 
269.367 260.34 238.773 260.34 201.031 c 260.34 163.289 229.742 132.695 192
 132.695 c h
192 132.695 m f
0 g
380.941 159.516 m 378.738 157.094 375.57 155.66 372.254 155.586 c 366.598
 155.457 361.645 151.824 359.93 146.543 c 358.215 141.266 360.086 135.418
 364.586 131.988 c 367.227 129.977 368.945 126.957 369.305 123.699 c 369.66
 120.477 368.707 117.336 366.617 114.852 c 357.152 103.602 337.219 84.844
 309.57 84.844 c 309.328 84.844 309.078 84.848 308.832 84.852 c 293.641 
85.035 278.531 90.941 263.672 102.465 c 270.035 84.77 270.984 68.574 266.465
 54.066 c 258.125 27.309 233.82 13.957 220.074 8.383 c 217.066 7.164 213.785
 7.227 210.828 8.562 c 207.844 9.91 205.504 12.48 204.406 15.609 c 202.535
 20.949 197.551 24.535 192 24.535 c 186.449 24.535 181.465 20.949 179.594
 15.609 c 178.5 12.477 176.156 9.91 173.172 8.562 c 170.215 7.227 166.934
 7.164 163.926 8.383 c 156.828 11.262 146.371 16.469 136.871 24.922 c 134.551
 26.984 134.344 30.543 136.41 32.863 c 138.473 35.184 142.027 35.391 144.352
 33.328 c 152.652 25.941 161.879 21.352 168.156 18.809 c 168.25 18.766 168.371
 18.738 168.543 18.816 c 168.656 18.867 168.863 19 168.98 19.332 c 172.426
 29.172 181.68 35.785 192 35.785 c 202.324 35.785 211.574 29.172 215.023
 19.332 c 215.137 19 215.348 18.867 215.461 18.816 c 215.629 18.738 215.75
 18.77 215.848 18.809 c 227.75 23.637 248.762 35.074 255.727 57.418 c 261.852
 77.078 255.703 101.16 237.445 128.992 c 230.824 138.105 l 221.035 132.043
 209.734 128.195 197.625 127.281 c 197.625 93.059 l 204.891 90.684 210.156
 83.848 210.156 75.801 c 210.156 65.789 202.012 57.645 192 57.645 c 181.988
 57.645 173.844 65.789 173.844 75.801 c 173.844 83.848 179.109 90.684 186.375
 93.059 c 186.375 127.281 l 174.27 128.195 162.969 132.043 153.18 138.105
 c 146.555 128.992 l 125.719 97.223 120.664 70.469 131.547 49.473 c 132.973
 46.715 131.898 43.32 129.137 41.891 c 126.383 40.465 122.984 41.539 121.559
 44.297 c 112.824 61.148 112.43 80.621 120.301 102.441 c 105.449 90.934 
90.352 85.035 75.168 84.852 c 47.121 84.539 26.934 103.504 17.383 114.855
 c 15.293 117.336 14.34 120.477 14.695 123.703 c 15.055 126.957 16.777 129.98
 19.418 131.992 c 23.914 135.418 25.785 141.27 24.07 146.547 c 22.355 151.824
 17.402 155.457 11.75 155.586 c 8.43 155.664 5.266 157.094 3.059 159.52 
c 0.875 161.918 -0.199 165.02 0.031 168.254 c 1.086 183.051 6.273 210.293
 29.145 226.492 c 40.77 234.727 55.285 238.848 72.543 238.848 c 73.695 238.848
 74.863 238.824 76.039 238.785 c 60.488 249.359 50.199 261.902 45.328 276.297
 c 36.348 302.848 48.164 327.938 56.008 340.527 c 57.719 343.281 60.414 
345.16 63.59 345.816 c 66.797 346.48 70.203 345.777 72.93 343.891 c 77.582
 340.668 83.723 340.699 88.215 343.961 c 92.703 347.223 94.629 353.055 93.004
 358.473 c 92.051 361.652 92.434 365.105 94.055 367.953 c 95.664 370.77 
98.281 372.75 101.43 373.531 c 107.43 375.02 115.707 376.492 124.949 376.492
 c 137.883 376.492 152.707 373.605 165.816 363.836 c 178.008 354.754 186.758
 341.082 192.008 323.012 c 195.023 333.387 199.188 342.328 204.488 349.754
 c 205.59 351.289 207.316 352.109 209.074 352.109 c 210.203 352.109 211.348
 351.77 212.336 351.062 c 214.863 349.258 215.449 345.742 213.645 343.215
 c 204.191 329.98 198.801 310.785 197.625 286.168 c 197.625 274.785 l 209.699
 273.871 220.973 270.043 230.746 264.008 c 250.961 291.832 l 246.477 298.023
 246.238 306.652 250.969 313.16 c 254.516 318.047 260.059 320.641 265.68
 320.641 c 269.379 320.641 273.113 319.516 276.328 317.18 c 284.426 311.293
 286.23 299.918 280.344 291.82 c 277.492 287.895 273.285 285.316 268.496
 284.559 c 265.621 284.102 262.746 284.34 260.055 285.215 c 239.84 257.391
 l 248.742 249.824 255.832 240.191 260.367 229.242 c 271.156 232.746 l 302.281
 244.531 321.414 260.398 328.012 279.906 c 335.512 302.074 325.238 323.676
 318.445 334.582 c 318.391 334.668 318.309 334.766 318.129 334.801 c 318.004
 334.824 317.758 334.84 317.469 334.641 c 308.895 328.707 297.523 328.793
 289.172 334.863 c 280.824 340.93 277.223 351.715 280.219 361.707 c 280.32
 362.039 280.23 362.273 280.168 362.379 c 280.078 362.543 279.961 362.59
 279.863 362.613 c 268.492 365.43 246.684 368.477 228.422 357.207 c 225.777
 355.578 222.312 356.395 220.684 359.039 c 219.051 361.684 219.871 365.148
 222.516 366.781 c 234.539 374.203 247.617 376.473 259.117 376.473 c 268.43
 376.473 276.715 374.984 282.57 373.531 c 285.719 372.75 288.336 370.77 
289.941 367.953 c 291.566 365.105 291.949 361.652 290.996 358.473 c 289.371
 353.055 291.297 347.223 295.785 343.961 c 300.277 340.699 306.418 340.668
 311.066 343.891 c 313.797 345.781 317.203 346.48 320.41 345.816 c 323.586
 345.16 326.277 343.281 327.992 340.527 c 335.836 327.938 347.652 302.852
 338.672 276.297 c 333.801 261.906 323.512 249.359 307.961 238.785 c 309.137
 238.824 310.305 238.848 311.453 238.848 c 328.711 238.848 343.23 234.727
 354.852 226.492 c 377.727 210.293 382.91 183.051 383.969 168.254 c 384.199
 165.02 383.125 161.914 380.941 159.516 c h
266.734 295.664 m 268.559 295.953 270.16 296.934 271.242 298.43 c 273.48
 301.508 272.797 305.836 269.715 308.074 c 266.637 310.312 262.309 309.629
 260.07 306.547 c 258.984 305.055 258.547 303.23 258.836 301.406 c 259.125
 299.586 260.105 297.984 261.598 296.898 c 263.09 295.816 264.914 295.379
 266.734 295.664 c h
192 68.891 m 195.809 68.891 198.906 71.988 198.906 75.797 c 198.906 79.605
 195.809 82.703 192 82.703 c 188.191 82.703 185.094 79.605 185.094 75.797
 c 185.094 71.988 188.191 68.891 192 68.891 c h
35.648 217.309 m 16.551 203.785 12.168 180.266 11.254 167.449 c 11.246 
167.348 11.254 167.223 11.379 167.086 c 11.461 166.996 11.656 166.84 12.004
 166.832 c 22.43 166.594 31.578 159.836 34.77 150.02 c 37.957 140.203 34.527
 129.359 26.234 123.039 c 25.957 122.828 25.891 122.59 25.879 122.465 c 
25.855 122.281 25.922 122.176 25.988 122.098 c 34.191 112.348 51.336 96.094
 74.438 96.094 c 74.633 96.094 74.836 96.098 75.031 96.098 c 95.625 96.348
 116.629 109.641 137.453 135.602 c 144.09 144.734 l 135.184 152.324 128.098
 161.98 123.574 172.961 c 90.98 162.371 l 90.984 159.543 90.32 156.734 89
 154.141 c 86.797 149.82 83.047 146.613 78.434 145.117 c 73.82 143.617 68.898
 144.004 64.578 146.207 c 60.258 148.41 57.055 152.16 55.555 156.773 c 54.055
 161.387 54.441 166.305 56.645 170.625 c 58.848 174.949 62.598 178.152 67.211
 179.652 c 69.059 180.25 70.953 180.551 72.84 180.551 c 75.668 180.551 78.473
 179.883 81.066 178.562 c 83.656 177.242 85.836 175.355 87.496 173.066 c
 120.102 183.66 l 118.758 189.234 118.039 195.051 118.039 201.031 c 118.039
 207.062 118.77 212.926 120.137 218.543 c 109.363 222.043 l 77.258 230.805
 52.453 229.215 35.648 217.309 c h
79.391 164.52 m 78.82 166.273 77.602 167.703 75.957 168.539 c 74.312 169.375
 72.441 169.523 70.688 168.953 c 68.934 168.383 67.508 167.164 66.668 165.52
 c 65.832 163.879 65.684 162.008 66.254 160.25 c 66.824 158.496 68.043 157.07
 69.688 156.23 c 70.672 155.73 71.738 155.477 72.816 155.477 c 73.531 155.477
 74.254 155.59 74.957 155.816 c 76.711 156.387 78.137 157.605 78.977 159.25
 c 79.812 160.895 79.961 162.766 79.391 164.52 c h
159.094 354.812 m 140.332 368.797 116.609 365.699 104.137 362.609 c 104.035
 362.586 103.922 362.539 103.828 362.379 c 103.77 362.27 103.68 362.039 
103.781 361.703 c 106.777 351.715 103.176 340.926 94.828 334.859 c 86.477
 328.793 75.105 328.703 66.531 334.637 c 66.242 334.836 65.996 334.824 65.871
 334.801 c 65.691 334.762 65.609 334.668 65.555 334.578 c 58.762 323.676
 48.488 302.07 55.988 279.902 c 62.586 260.395 81.719 244.527 112.844 232.742
 c 123.633 229.238 l 128.168 240.188 135.258 249.82 144.16 257.387 c 123.941
 285.215 l 121.254 284.34 118.379 284.102 115.504 284.555 c 110.715 285.312
 106.508 287.891 103.656 291.816 c 97.77 299.914 99.574 311.293 107.672 
317.176 c 110.891 319.512 114.621 320.637 118.32 320.637 c 123.941 320.637
 129.484 318.043 133.035 313.16 c 137.766 306.648 137.523 298.02 133.039
 291.828 c 153.254 264.008 l 163.027 270.039 174.301 273.867 186.375 274.781
 c 186.375 286.168 l 184.785 319.41 175.609 342.508 159.094 354.812 c h
125.164 301.406 m 125.453 303.23 125.016 305.055 123.934 306.547 c 121.695
 309.625 117.367 310.312 114.285 308.074 c 111.207 305.836 110.52 301.508
 112.758 298.43 c 113.844 296.938 115.441 295.953 117.266 295.664 c 117.629
 295.609 117.996 295.578 118.359 295.578 c 119.805 295.578 121.211 296.035
 122.406 296.902 c 123.895 297.984 124.879 299.586 125.164 301.406 c h
192 263.742 m 157.422 263.742 129.289 235.609 129.289 201.031 c 129.289
 166.453 157.422 138.32 192 138.32 c 226.578 138.32 254.715 166.453 254.715
 201.031 c 254.715 235.609 226.578 263.742 192 263.742 c h
372.746 167.453 m 371.832 180.266 367.449 203.785 348.352 217.312 c 331.547
 229.215 306.742 230.805 274.637 222.043 c 263.863 218.543 l 265.23 212.926
 265.965 207.062 265.965 201.031 c 265.965 195.051 265.246 189.234 263.898
 183.664 c 296.504 173.066 l 298.164 175.355 300.344 177.242 302.938 178.562
 c 305.527 179.883 308.332 180.551 311.16 180.551 c 313.047 180.551 314.941
 180.254 316.789 179.652 c 321.402 178.156 325.156 174.949 327.355 170.629
 c 329.559 166.309 329.945 161.387 328.445 156.773 c 326.949 152.164 323.742
 148.41 319.422 146.207 c 315.102 144.008 310.184 143.621 305.57 145.117
 c 300.957 146.617 297.203 149.82 295 154.145 c 293.68 156.734 293.02 159.543
 293.02 162.371 c 260.426 172.961 l 255.906 161.984 248.816 152.324 239.914
 144.734 c 246.547 135.602 l 267.375 109.641 288.375 96.348 308.969 96.098
 c 309.168 96.098 309.367 96.098 309.562 96.098 c 332.664 96.098 349.809
 112.352 358.012 122.098 c 358.078 122.176 358.145 122.281 358.121 122.465
 c 358.109 122.59 358.043 122.828 357.766 123.039 c 349.473 129.359 346.043
 140.203 349.23 150.02 c 352.422 159.84 361.57 166.594 371.996 166.832 c
 372.344 166.84 372.539 166.996 372.621 167.09 c 372.746 167.223 372.758
 167.348 372.746 167.453 c h
305.023 159.25 m 305.863 157.605 307.289 156.387 309.043 155.816 c 309.746
 155.59 310.469 155.477 311.184 155.477 c 312.262 155.477 313.328 155.73
 314.312 156.23 c 315.957 157.07 317.176 158.496 317.746 160.25 c 318.316
 162.004 318.168 163.875 317.332 165.52 c 316.492 167.164 315.066 168.383
 313.312 168.953 c 311.559 169.523 309.688 169.375 308.043 168.539 c 306.398
 167.699 305.18 166.273 304.609 164.52 c 304.039 162.766 304.188 160.895
 305.023 159.25 c h
305.023 159.25 m f
192 151.918 m 175.195 151.918 161.527 165.59 161.527 182.395 c 161.527 
197.273 172.25 209.691 186.375 212.34 c 186.375 220.254 l 179.574 220.254
 l 176.469 220.254 173.949 222.773 173.949 225.879 c 173.949 228.988 176.469
 231.504 179.574 231.504 c 186.375 231.504 l 186.375 244.52 l 186.375 247.625
 188.895 250.145 192 250.145 c 195.109 250.145 197.625 247.625 197.625 244.52
 c 197.625 231.504 l 204.426 231.504 l 207.531 231.504 210.051 228.988 210.051
 225.879 c 210.051 222.773 207.531 220.254 204.426 220.254 c 197.625 220.254
 l 197.625 212.34 l 211.75 209.691 222.477 197.273 222.477 182.395 c 222.477
 165.59 208.805 151.918 192 151.918 c h
192 201.617 m 181.398 201.617 172.777 192.996 172.777 182.395 c 172.777
 171.793 181.398 163.168 192 163.168 c 202.602 163.168 211.227 171.793 211.227
 182.395 c 211.227 192.992 202.602 201.617 192 201.617 c h
192 201.617 m f
Q Q
showpage
%%Trailer
end
%%EOF
