%!PS-Adobe-3.0 EPSF-3.0
%%Creator: cairo 1.16.0 (https://cairographics.org)
%%CreationDate: Fri Feb  5 09:59:31 2021
%%Pages: 1
%%DocumentData: Clean7Bit
%%LanguageLevel: 2
%%BoundingBox: 0 0 384 384
%%EndComments
%%BeginProlog
50 dict begin
/q { gsave } bind def
/Q { grestore } bind def
/cm { 6 array astore concat } bind def
/w { setlinewidth } bind def
/J { setlinecap } bind def
/j { setlinejoin } bind def
/M { setmiterlimit } bind def
/d { setdash } bind def
/m { moveto } bind def
/l { lineto } bind def
/c { curveto } bind def
/h { closepath } bind def
/re { exch dup neg 3 1 roll 5 3 roll moveto 0 rlineto
      0 exch rlineto 0 rlineto closepath } bind def
/S { stroke } bind def
/f { fill } bind def
/f* { eofill } bind def
/n { newpath } bind def
/W { clip } bind def
/W* { eoclip } bind def
/BT { } bind def
/ET { } bind def
/BDC { mark 3 1 roll /BDC pdfmark } bind def
/EMC { mark /EMC pdfmark } bind def
/cairo_store_point { /cairo_point_y exch def /cairo_point_x exch def } def
/Tj { show currentpoint cairo_store_point } bind def
/TJ {
  {
    dup
    type /stringtype eq
    { show } { -0.001 mul 0 cairo_font_matrix dtransform rmoveto } ifelse
  } forall
  currentpoint cairo_store_point
} bind def
/cairo_selectfont { cairo_font_matrix aload pop pop pop 0 0 6 array astore
    cairo_font exch selectfont cairo_point_x cairo_point_y moveto } bind def
/Tf { pop /cairo_font exch def /cairo_font_matrix where
      { pop cairo_selectfont } if } bind def
/Td { matrix translate cairo_font_matrix matrix concatmatrix dup
      /cairo_font_matrix exch def dup 4 get exch 5 get cairo_store_point
      /cairo_font where { pop cairo_selectfont } if } bind def
/Tm { 2 copy 8 2 roll 6 array astore /cairo_font_matrix exch def
      cairo_store_point /cairo_font where { pop cairo_selectfont } if } bind def
/g { setgray } bind def
/rg { setrgbcolor } bind def
/d1 { setcachedevice } bind def
/cairo_data_source {
  CairoDataIndex CairoData length lt
    { CairoData CairoDataIndex get /CairoDataIndex CairoDataIndex 1 add def }
    { () } ifelse
} def
/cairo_flush_ascii85_file { cairo_ascii85_file status { cairo_ascii85_file flushfile } if } def
/cairo_image { image cairo_flush_ascii85_file } def
/cairo_imagemask { imagemask cairo_flush_ascii85_file } def
%%EndProlog
%%BeginSetup
%%EndSetup
%%Page: 1 1
%%BeginPageSetup
%%PageBoundingBox: 0 0 384 384
%%EndPageSetup
q 0 0 384 384 rectclip
1 0 0 -1 0 384 cm q
0.980392 0.368627 0.592157 rg
378.375 192 m 378.375 294.934 294.934 378.375 192 378.375 c 89.066 378.375
 5.625 294.934 5.625 192 c 5.625 89.066 89.066 5.625 192 5.625 c 294.934
 5.625 378.375 89.066 378.375 192 c h
378.375 192 m f
0.937255 0.937255 0.976471 rg
353.523 192 m 353.523 281.207 281.207 353.523 192 353.523 c 102.793 353.523
 30.477 281.207 30.477 192 c 30.477 102.793 102.793 30.477 192 30.477 c 
281.207 30.477 353.523 102.793 353.523 192 c h
353.523 192 m f
0.980392 0.368627 0.592157 rg
259.5 91.984 m 258.355 92.977 257.367 94.074 256.527 95.246 c 255.359 96.875
 252.891 96.875 251.723 95.246 c 250.883 94.074 249.895 92.977 248.75 91.984
 c 241.77 85.922 231.164 85.969 224.238 92.09 c 216.105 99.273 215.82 111.703
 223.375 119.258 c 249.734 145.613 l 252.16 148.039 256.094 148.039 258.52
 145.613 c 284.875 119.258 l 292.43 111.703 292.145 99.273 284.016 92.09
 c 277.086 85.969 266.48 85.922 259.5 91.984 c h
259.5 91.984 m f
0.85098 0.309804 0.533333 rg
284.016 92.09 m 278.184 86.938 269.758 86.105 263.07 89.578 c 264.379 90.258
 265.625 91.082 266.766 92.09 c 274.895 99.273 275.18 111.703 267.625 119.258
 c 245.5 141.383 l 249.734 145.613 l 252.16 148.039 256.094 148.039 258.52
 145.613 c 284.875 119.258 l 292.43 111.703 292.145 99.273 284.016 92.09
 c h
284.016 92.09 m f
192 5.625 m 189.109 5.625 186.234 5.699 183.375 5.832 c 282.301 10.34 361.125
 91.961 361.125 192 c 361.125 292.039 282.301 373.66 183.375 378.168 c 186.234
 378.301 189.109 378.375 192 378.375 c 294.934 378.375 378.375 294.934 378.375
 192 c 378.375 89.066 294.934 5.625 192 5.625 c h
192 5.625 m f
0.87451 0.870588 0.960784 rg
192 30.477 m 189.105 30.477 186.23 30.555 183.375 30.703 c 268.57 35.188
 336.273 105.688 336.273 192 c 336.273 278.312 268.57 348.812 183.375 353.297
 c 186.23 353.445 189.105 353.523 192 353.523 c 281.207 353.523 353.523 
281.207 353.523 192 c 353.523 102.793 281.207 30.477 192 30.477 c h
192 30.477 m f
0.964706 0.545098 0.596078 rg
302.398 233.055 m 303.355 231.137 303.191 228.859 302.012 227.074 c 271.535
 181.035 244.453 159.609 222.824 159.609 c 205.734 159.609 196.551 166.094
 193.277 169.016 c 192.941 169.316 192.484 169.484 192 169.484 c 191.516
 169.484 191.059 169.316 190.723 169.016 c 187.449 166.094 178.266 159.609
 161.176 159.609 c 139.551 159.609 112.469 181.031 82 227.062 c 80.812 228.852
 80.652 231.141 81.617 233.062 c 87.473 244.691 113.035 283.816 192 283.859
 c 271.199 283.816 296.602 244.676 302.398 233.055 c h
302.398 233.055 m f
0.980392 0.368627 0.592157 rg
302.012 227.074 m 271.535 181.035 244.453 159.609 222.824 159.609 c 219.086
 159.609 215.723 159.922 212.715 160.438 c 232.98 164.734 257.363 186.195
 284.422 227.074 c 285.605 228.859 285.766 231.137 284.812 233.055 c 279.234
 244.234 255.508 280.867 183.219 283.68 c 186.07 283.789 188.992 283.855
 192 283.859 c 271.199 283.816 296.602 244.676 302.398 233.055 c 303.355
 231.141 303.191 228.859 302.012 227.074 c h
302.012 227.074 m f
0 g
161.172 153.984 m 148.57 153.984 134.871 160.199 120.461 172.461 c 106.113
 184.668 90.973 202.941 75.461 226.77 c 74.504 228.234 74.289 230.062 74.871
 231.711 c 75.086 232.324 80.359 246.84 97.727 261.168 c 113.363 274.07 
142.414 289.457 192.004 289.484 c 241.719 289.457 270.766 274.066 286.375
 261.164 c 303.715 246.828 308.922 232.301 309.137 231.688 c 309.711 230.043
 309.488 228.227 308.539 226.77 c 293.027 202.941 277.887 184.668 263.539
 172.461 c 249.129 160.199 235.43 153.984 222.828 153.984 c 206.973 153.984
 197.016 159.203 192 162.84 c 186.984 159.203 177.023 153.984 161.172 153.984
 c h
278.605 252.984 m 258.277 269.484 228.328 278.215 192.004 278.234 c 155.773
 278.215 125.855 269.48 105.484 252.98 c 97.539 246.543 92.465 240.066 89.41
 235.312 c 120.137 234.34 146.613 228.793 158.172 225.387 c 159.711 224.934
 161.383 225.062 162.871 225.75 c 174.547 231.156 180.086 232.02 191.871
 232.02 c 203.656 232.02 209.195 231.156 220.871 225.75 c 222.359 225.062
 224.031 224.93 225.57 225.387 c 237.141 228.797 263.699 234.352 294.625
 235.316 c 291.59 240.07 286.539 246.547 278.605 252.984 c h
222.828 165.234 m 242.148 165.234 266.926 186.02 293.141 224.008 c 264.176
 222.934 239.566 217.781 228.75 214.594 c 224.594 213.367 220.113 213.703
 216.145 215.543 c 206.18 220.152 202.238 220.77 191.871 220.77 c 181.5 
220.77 177.562 220.152 167.594 215.543 c 163.625 213.707 159.148 213.367
 154.988 214.594 c 144.184 217.781 119.645 222.926 90.859 224.008 c 117.078
 186.02 141.852 165.234 161.172 165.234 c 176.398 165.234 184.289 170.812
 186.977 173.215 c 188.352 174.438 190.133 175.109 192 175.109 c 193.863
 175.109 195.648 174.438 197.023 173.211 c 199.711 170.812 207.602 165.234
 222.828 165.234 c h
222.828 165.234 m f
327.766 56.234 m 291.5 19.973 243.285 0 192 0 c 145.016 0 99.797 17.148
 64.676 48.289 c 62.352 50.348 62.137 53.902 64.199 56.23 c 66.258 58.555
 69.812 58.77 72.137 56.707 c 105.199 27.395 147.766 11.25 192 11.25 c 291.664
 11.25 372.75 92.336 372.75 192 c 372.75 291.664 291.664 372.75 192 372.75
 c 92.336 372.75 11.25 291.664 11.25 192 c 11.25 147.766 27.395 105.199 
56.707 72.141 c 58.766 69.812 58.551 66.258 56.227 64.199 c 53.902 62.137
 50.348 62.352 48.289 64.676 c 17.148 99.797 0 145.016 0 192 c 0 243.285
 19.973 291.5 56.234 327.766 c 92.5 364.027 140.715 384 192 384 c 243.285
 384 291.5 364.027 327.766 327.766 c 364.027 291.5 384 243.285 384 192 c
 384 140.715 364.027 92.5 327.766 56.234 c h
327.766 56.234 m f
73.797 81.773 m 71.453 79.734 67.902 79.98 65.863 82.32 c 39.414 112.715
 24.852 151.664 24.852 192 c 24.852 236.648 42.234 278.621 73.809 310.191
 c 105.379 341.766 147.352 359.148 192 359.148 c 236.645 359.148 278.621
 341.762 310.191 310.191 c 341.762 278.621 359.148 236.648 359.148 192 c
 359.148 147.352 341.766 105.379 310.191 73.809 c 278.621 42.234 236.648
 24.852 192 24.852 c 151.664 24.852 112.715 39.414 82.324 65.863 c 79.98
 67.902 79.734 71.453 81.773 73.797 c 83.812 76.141 87.363 76.387 89.707
 74.348 c 118.051 49.684 154.379 36.102 192 36.102 c 277.965 36.102 347.898
 106.035 347.898 192 c 347.898 277.965 277.965 347.898 192 347.898 c 106.035
 347.898 36.102 277.965 36.102 192 c 36.102 154.379 49.684 118.051 74.348
 89.707 c 76.387 87.363 76.141 83.812 73.797 81.773 c h
73.797 81.773 m f
254.125 153.051 m 257.156 153.051 260.188 151.898 262.496 149.594 c 288.852
 123.234 l 293.566 118.52 296.152 111.992 295.949 105.328 c 295.738 98.566
 292.824 92.367 287.738 87.875 c 278.672 79.859 264.945 79.801 255.812 87.734
 c 255.812 87.738 l 255.223 88.246 254.66 88.785 254.125 89.348 c 253.59
 88.785 253.027 88.246 252.438 87.734 c 243.305 79.801 229.578 79.859 220.512
 87.875 c 215.426 92.367 212.512 98.566 212.301 105.328 c 212.098 111.992
 214.684 118.52 219.398 123.234 c 245.754 149.59 l 248.062 151.898 251.094
 153.051 254.125 153.051 c h
223.547 105.672 m 223.66 102.047 225.227 98.723 227.961 96.305 c 230.367
 94.18 233.461 93.117 236.559 93.117 c 239.613 93.117 242.672 94.152 245.059
 96.23 c 246.801 97.742 248.066 99.59 248.82 101.73 c 249.617 103.977 251.742
 105.48 254.125 105.48 c 256.508 105.48 258.637 103.977 259.43 101.73 c 
260.184 99.59 261.449 97.742 263.191 96.23 c 268 92.051 275.512 92.082 280.289
 96.305 c 283.023 98.723 284.59 102.047 284.703 105.672 c 284.816 109.301
 283.465 112.715 280.898 115.277 c 254.539 141.637 l 254.312 141.867 253.938
 141.867 253.711 141.637 c 227.352 115.277 l 224.785 112.715 223.434 109.301
 223.547 105.672 c h
223.547 105.672 m f
Q Q
showpage
%%Trailer
end
%%EOF
