%!PS-Adobe-3.0 EPSF-3.0
%%Creator: cairo 1.16.0 (https://cairographics.org)
%%CreationDate: Fri Feb  5 09:59:32 2021
%%Pages: 1
%%DocumentData: Clean7Bit
%%LanguageLevel: 2
%%BoundingBox: 0 0 384 384
%%EndComments
%%BeginProlog
50 dict begin
/q { gsave } bind def
/Q { grestore } bind def
/cm { 6 array astore concat } bind def
/w { setlinewidth } bind def
/J { setlinecap } bind def
/j { setlinejoin } bind def
/M { setmiterlimit } bind def
/d { setdash } bind def
/m { moveto } bind def
/l { lineto } bind def
/c { curveto } bind def
/h { closepath } bind def
/re { exch dup neg 3 1 roll 5 3 roll moveto 0 rlineto
      0 exch rlineto 0 rlineto closepath } bind def
/S { stroke } bind def
/f { fill } bind def
/f* { eofill } bind def
/n { newpath } bind def
/W { clip } bind def
/W* { eoclip } bind def
/BT { } bind def
/ET { } bind def
/BDC { mark 3 1 roll /BDC pdfmark } bind def
/EMC { mark /EMC pdfmark } bind def
/cairo_store_point { /cairo_point_y exch def /cairo_point_x exch def } def
/Tj { show currentpoint cairo_store_point } bind def
/TJ {
  {
    dup
    type /stringtype eq
    { show } { -0.001 mul 0 cairo_font_matrix dtransform rmoveto } ifelse
  } forall
  currentpoint cairo_store_point
} bind def
/cairo_selectfont { cairo_font_matrix aload pop pop pop 0 0 6 array astore
    cairo_font exch selectfont cairo_point_x cairo_point_y moveto } bind def
/Tf { pop /cairo_font exch def /cairo_font_matrix where
      { pop cairo_selectfont } if } bind def
/Td { matrix translate cairo_font_matrix matrix concatmatrix dup
      /cairo_font_matrix exch def dup 4 get exch 5 get cairo_store_point
      /cairo_font where { pop cairo_selectfont } if } bind def
/Tm { 2 copy 8 2 roll 6 array astore /cairo_font_matrix exch def
      cairo_store_point /cairo_font where { pop cairo_selectfont } if } bind def
/g { setgray } bind def
/rg { setrgbcolor } bind def
/d1 { setcachedevice } bind def
/cairo_data_source {
  CairoDataIndex CairoData length lt
    { CairoData CairoDataIndex get /CairoDataIndex CairoDataIndex 1 add def }
    { () } ifelse
} def
/cairo_flush_ascii85_file { cairo_ascii85_file status { cairo_ascii85_file flushfile } if } def
/cairo_image { image cairo_flush_ascii85_file } def
/cairo_imagemask { imagemask cairo_flush_ascii85_file } def
%%EndProlog
%%BeginSetup
%%EndSetup
%%Page: 1 1
%%BeginPageSetup
%%PageBoundingBox: 0 0 384 384
%%EndPageSetup
q 0 0 384 384 rectclip
1 0 0 -1 0 384 cm q
0.964706 0.545098 0.596078 rg
84.555 174.219 m 79.02 207.91 89.309 243.699 115.426 269.605 c 157.75 311.594
 226.625 311.699 269.074 269.844 c 312.305 227.219 312.492 157.617 269.637
 114.762 c 229.332 74.457 165.375 72.223 122.445 108.051 c 120.996 109.262
 120.898 111.465 122.234 112.801 c 126.465 117.031 l 128.562 119.129 126.941
 122.707 123.98 122.508 c 70.551 115.98 l 64.688 115.266 60.066 110.645 
59.348 104.781 c 52.82 51.352 l 52.625 48.391 56.203 46.766 58.301 48.863
 c 63.016 53.578 l 64.23 54.793 66.18 54.824 67.457 53.668 c 141 -12.836
 254.789 -10.293 325.25 61.305 c 396.16 133.359 395.547 252.711 323.938 
324.066 c 251.125 396.621 133.281 396.543 60.57 323.828 c 12.629 275.891
 -3.738 208.336 11.465 147.004 c 13.395 139.219 21.965 135.133 29.266 138.461
 c 77.227 160.332 l 82.539 162.758 85.504 168.453 84.555 174.219 c h
84.555 174.219 m f
0.980392 0.368627 0.592157 rg
59.641 160.332 m 64.957 162.758 67.918 168.453 66.973 174.219 c 61.438 
207.91 71.727 243.699 97.84 269.605 c 121.277 292.855 152.855 303.254 183.578
 300.809 c 158.707 298.828 134.398 288.426 115.426 269.605 c 89.309 243.699
 79.02 207.91 84.555 174.219 c 85.504 168.453 82.543 162.758 77.227 160.332
 c 29.266 138.461 l 24.555 136.312 19.32 137.254 15.676 140.281 c h
59.641 160.332 m f
325.246 61.305 m 286.5 21.93 234.648 3.449 183.594 5.84 c 228.789 7.965
 273.363 26.449 307.664 61.305 c 378.574 133.359 377.961 252.711 306.352
 324.066 c 272.234 358.066 228.227 376.113 183.609 378.215 c 234.086 380.574
 285.336 362.527 323.934 324.066 c 395.547 252.711 396.16 133.359 325.246
 61.305 c h
325.246 61.305 m f
289.953 265 m 288.699 263.746 288.699 261.711 289.953 260.457 c 310.406
 240.004 l 312.914 237.492 312.914 233.422 310.406 230.914 c 301.316 221.824
 l 298.805 219.312 294.734 219.312 292.227 221.824 c 271.773 242.273 l 270.52
 243.531 268.484 243.531 267.23 242.273 c 254.758 229.805 l 253.816 228.863
 253.605 227.41 254.25 226.246 c 260.066 215.754 263.293 203.633 263.062
 190.734 c 262.375 152.184 230.387 121.035 191.828 121.324 c 152.555 121.621
 120.898 153.938 121.684 193.465 c 122.43 231.066 152.961 261.766 190.562
 262.707 c 206.867 263.113 221.961 257.996 234.109 249.098 c 235.301 248.223
 236.949 248.355 237.992 249.398 c 249.047 260.457 l 250.305 261.711 250.305
 263.746 249.047 265 c 228.598 285.453 l 226.086 287.961 226.086 292.031
 228.598 294.543 c 237.688 303.633 l 240.195 306.141 244.266 306.141 246.777
 303.633 c 267.227 283.18 l 268.484 281.926 270.52 281.926 271.773 283.18
 c 292.227 303.633 l 294.734 306.141 298.805 306.141 301.312 303.633 c 310.402
 294.543 l 312.914 292.031 312.914 287.961 310.402 285.453 c h
289.953 265 m f
0.85098 0.309804 0.533333 rg
289.953 265 m 288.699 263.746 288.699 261.711 289.953 260.457 c 310.406
 240.004 l 312.914 237.492 312.914 233.422 310.406 230.914 c 301.316 221.824
 l 298.805 219.312 294.734 219.312 292.227 221.824 c 288.145 225.906 l 293.152
 230.914 l 295.664 233.422 295.664 237.492 293.152 240.004 c 272.699 260.457
 l 271.445 261.711 271.445 263.746 272.699 265 c 293.152 285.453 l 295.664
 287.961 295.664 292.031 293.152 294.543 c 288.145 299.551 l 292.227 303.633
 l 294.734 306.141 298.805 306.141 301.316 303.633 c 310.406 294.543 l 312.914
 292.031 312.914 287.961 310.406 285.453 c h
289.953 265 m f
245.809 190.734 m 246.039 203.629 242.812 215.754 236.996 226.246 c 236.352
 227.41 236.562 228.863 237.504 229.805 c 258.613 250.914 l 259.867 252.168
 261.902 252.168 263.156 250.914 c 283.609 230.461 l 283.645 230.43 283.668
 230.387 283.699 230.352 c 271.773 242.277 l 270.516 243.531 268.48 243.531
 267.227 242.277 c 254.758 229.805 l 253.812 228.863 253.602 227.41 254.25
 226.246 c 260.062 215.754 263.293 203.633 263.062 190.734 c 262.371 152.184
 230.387 121.035 191.828 121.324 c 189.086 121.344 186.379 121.527 183.719
 121.852 c 218.066 126.086 245.176 155.277 245.809 190.734 c h
245.809 190.734 m f
0 g
223.707 172.742 m 223.707 155.465 209.648 141.406 192.371 141.406 c 175.09
 141.406 161.035 155.465 161.035 172.742 c 161.035 188.102 172.141 200.902
 186.746 203.562 c 186.746 212.109 l 179.516 212.109 l 176.41 212.109 173.891
 214.629 173.891 217.734 c 173.891 220.844 176.41 223.359 179.516 223.359
 c 186.746 223.359 l 186.746 237.02 l 186.746 240.125 189.262 242.645 192.371
 242.645 c 195.477 242.645 197.996 240.125 197.996 237.02 c 197.996 223.359
 l 205.227 223.359 l 208.332 223.359 210.852 220.844 210.852 217.734 c 210.852
 214.629 208.332 212.109 205.227 212.109 c 197.996 212.109 l 197.996 203.562
 l 212.598 200.902 223.707 188.102 223.707 172.742 c h
172.285 172.742 m 172.285 161.668 181.297 152.66 192.371 152.66 c 203.445
 152.66 212.457 161.668 212.457 172.742 c 212.457 183.816 203.445 192.828
 192.371 192.828 c 181.297 192.828 172.285 183.816 172.285 172.742 c h
172.285 172.742 m f
370.266 120.672 m 360.91 96.805 347.113 75.5 329.258 57.359 c 294.246 21.785
 247.512 1.438 197.66 0.074 c 148.746 -1.273 101.883 15.734 65.375 47.984
 c 62.277 44.887 l 59.648 42.258 55.762 41.551 52.375 43.086 c 48.988 44.625
 46.961 48.016 47.207 51.727 c 47.215 51.828 47.223 51.93 47.234 52.031 
c 53.766 105.461 l 54.797 113.91 61.418 120.531 69.867 121.566 c 123.297
 128.094 l 123.398 128.105 123.5 128.113 123.605 128.121 c 127.316 128.383
 130.707 126.34 132.242 122.953 c 133.777 119.566 133.074 115.68 130.441
 113.051 c 128.098 110.707 l 169.41 77.914 228.094 81.176 265.656 118.738
 c 290.73 143.812 301.207 180.285 293.492 214.773 c 291.531 215.324 289.73
 216.363 288.25 217.844 c 269.504 236.594 l 260.117 227.207 l 265.746 216.383
 268.699 204.312 268.699 192.023 c 268.699 149.938 234.461 115.695 192.371
 115.695 c 150.285 115.695 116.043 149.938 116.043 192.023 c 116.043 208.102
 120.984 223.48 130.332 236.5 c 132.145 239.023 135.66 239.602 138.184 237.789
 c 140.707 235.977 141.285 232.461 139.473 229.938 c 131.504 218.844 127.297
 205.734 127.297 192.023 c 127.297 156.141 156.488 126.949 192.371 126.949
 c 228.254 126.949 257.449 156.141 257.449 192.023 c 257.449 203.762 254.285
 215.27 248.305 225.301 c 246.984 227.512 247.336 230.34 249.16 232.16 c
 263.254 246.254 l 266.699 249.699 272.309 249.699 275.754 246.254 c 296.207
 225.801 l 296.402 225.605 296.621 225.566 296.773 225.566 c 296.926 225.566
 297.145 225.605 297.34 225.801 c 306.43 234.891 l 306.742 235.203 306.742
 235.711 306.43 236.023 c 285.977 256.477 l 284.309 258.148 283.387 260.367
 283.387 262.727 c 283.387 265.09 284.309 267.309 285.977 268.98 c 306.43
 289.43 l 306.625 289.625 306.664 289.848 306.664 289.996 c 306.664 290.148
 306.625 290.371 306.43 290.566 c 297.336 299.656 l 297.141 299.848 296.922
 299.891 296.77 299.891 c 296.617 299.891 296.398 299.848 296.203 299.656
 c 275.75 279.203 l 274.082 277.531 271.859 276.613 269.5 276.613 c 267.141
 276.613 264.918 277.531 263.25 279.203 c 242.797 299.656 l 242.602 299.848
 242.383 299.891 242.23 299.891 c 242.078 299.891 241.859 299.848 241.664
 299.656 c 232.574 290.566 l 232.262 290.254 232.262 289.742 232.574 289.43
 c 253.027 268.98 l 256.473 265.531 256.473 259.926 253.027 256.477 c 240.121
 243.57 l 238.105 241.555 234.895 241.367 232.656 243.137 c 221.082 252.273
 207.152 257.102 192.371 257.102 c 178.488 257.102 165.246 252.793 154.07
 244.645 c 151.559 242.812 148.039 243.363 146.207 245.875 c 144.379 248.387
 144.93 251.902 147.441 253.734 c 160.555 263.301 176.09 268.355 192.371
 268.355 c 208.02 268.355 222.859 263.738 235.586 254.953 c 243.363 262.73
 l 224.617 281.477 l 221.891 284.203 220.758 287.926 221.195 291.488 c 185.285
 301.766 145.926 291.941 119.387 265.613 c 95.617 242.035 84.672 208.211
 90.105 175.129 c 91.465 166.855 87.129 158.668 79.559 155.215 c 31.598 
133.344 l 26.574 131.051 20.836 131.117 15.863 133.52 c 10.914 135.91 7.32
 140.332 6 145.652 c -9.223 207.07 6.652 271.938 48.465 319.172 c 49.574
 320.43 51.121 321.07 52.68 321.07 c 54.004 321.07 55.336 320.605 56.406
 319.656 c 58.73 317.598 58.949 314.043 56.887 311.715 c 17.531 267.25 2.59
 206.184 16.922 148.359 c 17.434 146.297 18.832 144.582 20.758 143.648 c
 22.707 142.707 24.957 142.68 26.93 143.582 c 74.891 165.453 l 77.852 166.801
 79.543 170.031 79.004 173.305 c 72.98 209.973 85.113 247.465 111.461 273.602
 c 127.039 289.051 146.633 299.645 168.125 304.234 c 187.875 308.453 208.309
 307.449 227.453 301.359 c 233.707 307.609 l 235.98 309.887 239.008 311.141
 242.23 311.141 c 245.449 311.141 248.477 309.887 250.754 307.613 c 269.5
 288.863 l 288.246 307.609 l 290.52 309.887 293.547 311.141 296.766 311.141
 c 299.988 311.141 303.016 309.887 305.289 307.613 c 314.379 298.523 l 316.656
 296.246 317.91 293.219 317.91 290 c 317.91 286.777 316.656 283.75 314.379
 281.477 c 295.633 262.73 l 314.379 243.984 l 316.656 241.707 317.91 238.68
 317.91 235.461 c 317.91 232.242 316.656 229.215 314.379 226.938 c 305.289
 217.848 l 305.035 217.59 304.766 217.352 304.488 217.121 c 308.453 199.324
 308.156 180.73 303.566 163.055 c 298.449 143.34 288.09 125.266 273.609 
110.785 c 253.195 90.371 226.082 78.457 197.258 77.238 c 168.617 76.023 
140.762 85.434 118.836 103.734 c 116.938 105.32 115.781 107.652 115.672 
110.125 c 115.574 112.281 116.273 114.398 117.613 116.066 c 71.227 110.398
 l 67.922 109.996 65.332 107.402 64.93 104.098 c 59.27 57.789 l 62.617 60.891
 67.801 60.941 71.227 57.844 c 143.238 -7.281 253.055 -4.023 321.234 65.254
 c 389.527 134.648 388.941 251.344 319.961 320.086 c 252.332 387.473 143.547
 390.59 72.301 327.176 c 69.98 325.109 66.426 325.316 64.359 327.637 c 62.293
 329.957 62.5 333.516 64.82 335.582 c 101.191 367.949 146.762 384.004 192.27
 384 c 241.465 384 290.582 365.238 327.902 328.055 c 345.934 310.086 359.941
 288.922 369.535 265.145 c 378.781 242.238 383.531 217.957 383.66 192.977
 c 383.789 167.996 379.281 143.668 370.266 120.672 c h
370.266 120.672 m f
Q Q
showpage
%%Trailer
end
%%EOF
