%!PS-Adobe-3.0 EPSF-3.0
%%Creator: cairo 1.16.0 (https://cairographics.org)
%%CreationDate: Fri Feb  5 09:59:33 2021
%%Pages: 1
%%DocumentData: Clean7Bit
%%LanguageLevel: 2
%%BoundingBox: 49 0 335 384
%%EndComments
%%BeginProlog
50 dict begin
/q { gsave } bind def
/Q { grestore } bind def
/cm { 6 array astore concat } bind def
/w { setlinewidth } bind def
/J { setlinecap } bind def
/j { setlinejoin } bind def
/M { setmiterlimit } bind def
/d { setdash } bind def
/m { moveto } bind def
/l { lineto } bind def
/c { curveto } bind def
/h { closepath } bind def
/re { exch dup neg 3 1 roll 5 3 roll moveto 0 rlineto
      0 exch rlineto 0 rlineto closepath } bind def
/S { stroke } bind def
/f { fill } bind def
/f* { eofill } bind def
/n { newpath } bind def
/W { clip } bind def
/W* { eoclip } bind def
/BT { } bind def
/ET { } bind def
/BDC { mark 3 1 roll /BDC pdfmark } bind def
/EMC { mark /EMC pdfmark } bind def
/cairo_store_point { /cairo_point_y exch def /cairo_point_x exch def } def
/Tj { show currentpoint cairo_store_point } bind def
/TJ {
  {
    dup
    type /stringtype eq
    { show } { -0.001 mul 0 cairo_font_matrix dtransform rmoveto } ifelse
  } forall
  currentpoint cairo_store_point
} bind def
/cairo_selectfont { cairo_font_matrix aload pop pop pop 0 0 6 array astore
    cairo_font exch selectfont cairo_point_x cairo_point_y moveto } bind def
/Tf { pop /cairo_font exch def /cairo_font_matrix where
      { pop cairo_selectfont } if } bind def
/Td { matrix translate cairo_font_matrix matrix concatmatrix dup
      /cairo_font_matrix exch def dup 4 get exch 5 get cairo_store_point
      /cairo_font where { pop cairo_selectfont } if } bind def
/Tm { 2 copy 8 2 roll 6 array astore /cairo_font_matrix exch def
      cairo_store_point /cairo_font where { pop cairo_selectfont } if } bind def
/g { setgray } bind def
/rg { setrgbcolor } bind def
/d1 { setcachedevice } bind def
/cairo_data_source {
  CairoDataIndex CairoData length lt
    { CairoData CairoDataIndex get /CairoDataIndex CairoDataIndex 1 add def }
    { () } ifelse
} def
/cairo_flush_ascii85_file { cairo_ascii85_file status { cairo_ascii85_file flushfile } if } def
/cairo_image { image cairo_flush_ascii85_file } def
/cairo_imagemask { imagemask cairo_flush_ascii85_file } def
%%EndProlog
%%BeginSetup
%%EndSetup
%%Page: 1 1
%%BeginPageSetup
%%PageBoundingBox: 49 0 335 384
%%EndPageSetup
q 49 0 286 384 rectclip
1 0 0 -1 0 384 cm q
0.964706 0.545098 0.596078 rg
55.324 328.676 m 55.324 55.324 l 55.324 27.875 77.578 5.625 105.023 5.625
 c 316.25 5.625 l 323.109 5.625 328.676 11.188 328.676 18.051 c 328.676 
277.285 l h
55.324 328.676 m f
0.937255 0.937255 0.976471 rg
242.125 73.961 m 191.574 73.961 l 184.945 73.961 179.574 68.59 179.574 
61.961 c 179.574 48.688 l 179.574 42.059 184.945 36.688 191.574 36.688 c
 242.125 36.688 l 248.754 36.688 254.125 42.059 254.125 48.688 c 254.125
 61.961 l 254.125 68.59 248.754 73.961 242.125 73.961 c h
242.125 73.961 m f
0.87451 0.870588 0.960784 rg
242.125 36.688 m 224.875 36.688 l 231.5 36.688 236.875 42.059 236.875 48.688
 c 236.875 61.961 l 236.875 68.59 231.5 73.961 224.875 73.961 c 242.125 
73.961 l 248.75 73.961 254.125 68.59 254.125 61.961 c 254.125 48.688 l 254.125
 42.059 248.754 36.688 242.125 36.688 c h
242.125 36.688 m f
0.980392 0.368627 0.592157 rg
311.426 18.051 m 311.426 280.527 l 328.676 277.285 l 328.676 18.051 l 328.676
 11.188 323.113 5.625 316.25 5.625 c 299 5.625 l 305.863 5.625 311.426 11.188
 311.426 18.051 c h
311.426 18.051 m f
105.023 278.977 m 316.25 278.977 l 323.109 278.977 328.676 273.41 328.676
 266.551 c 328.676 365.949 l 328.676 372.812 323.109 378.375 316.25 378.375
 c 105.023 378.375 l 77.578 378.375 55.324 356.125 55.324 328.676 c 55.324
 301.227 77.578 278.977 105.023 278.977 c h
105.023 278.977 m f
0.85098 0.309804 0.533333 rg
316.25 278.977 m 311.352 278.977 l 311.352 365.949 l 311.352 372.812 305.785
 378.375 298.926 378.375 c 316.246 378.375 l 323.109 378.375 328.676 372.812
 328.676 365.949 c 328.676 266.551 l 328.676 273.414 323.109 278.977 316.25
 278.977 c h
316.25 278.977 m f
0.94902 0.94902 0.988235 rg
167.148 353.523 m 316.25 353.523 l 323.113 353.523 328.676 347.961 328.676
 341.098 c 328.676 291.398 l 328.676 298.262 323.109 303.824 316.25 303.824
 c 105.027 303.824 l 91.301 303.824 80.176 314.949 80.176 328.676 c 80.176
 342.398 91.301 353.523 105.027 353.523 c 117.449 353.523 l f
0.45098 0.737255 1 rg
156.543 376.543 m 146.691 366.691 l 144.266 364.266 140.332 364.266 137.906
 366.691 c 128.055 376.543 l 124.141 380.457 117.449 377.684 117.449 372.148
 c 117.449 328.676 l 167.148 328.676 l 167.148 372.148 l 167.148 377.684
 160.457 380.457 156.543 376.543 c h
156.543 376.543 m f
0.45098 0.494118 0.901961 rg
149.898 328.676 m 149.898 369.898 l 156.543 376.543 l 160.457 380.457 167.148
 377.684 167.148 372.148 c 167.148 328.676 l h
149.898 328.676 m f
0.87451 0.870588 0.960784 rg
316.25 303.824 m 311.426 303.824 l 311.426 341.098 l 311.426 347.961 305.863
 353.523 299 353.523 c 316.25 353.523 l 323.113 353.523 328.676 347.961 
328.676 341.098 c 328.676 291.398 l 328.676 298.262 323.113 303.824 316.25
 303.824 c h
316.25 303.824 m f
0.937255 0.937255 0.976471 rg
265.121 125.051 m 291.805 151.734 291.805 195 265.121 221.684 c 238.438
 248.367 195.176 248.367 168.492 221.684 c 141.809 195 141.809 151.734 168.492
 125.051 c 195.176 98.367 238.438 98.367 265.121 125.051 c h
265.121 125.051 m f
0.87451 0.870588 0.960784 rg
216.852 105.023 m 213.93 105.023 211.051 105.211 208.227 105.566 c 241.895
 109.805 267.938 138.543 267.938 173.363 c 267.938 208.184 241.895 236.918
 208.227 241.16 c 211.051 241.516 213.93 241.699 216.852 241.699 c 254.59
 241.699 285.188 211.105 285.188 173.363 c 285.188 135.621 254.594 105.023
 216.852 105.023 c h
216.852 105.023 m f
0 g
334.301 291.383 m 334.301 18.051 l 334.301 8.098 326.203 0 316.25 0 c 105.023
 0 l 74.52 0 49.699 24.82 49.699 55.324 c 49.699 233.746 l 49.699 236.852
 52.219 239.371 55.324 239.371 c 58.434 239.371 60.949 236.852 60.949 233.746
 c 60.949 55.324 l 60.949 32.93 77.746 14.395 99.398 11.621 c 99.398 273.633
 l 83.738 275.223 69.992 283.375 60.949 295.285 c 60.949 256.246 l 60.949
 253.137 58.434 250.621 55.324 250.621 c 52.219 250.621 49.699 253.137 49.699
 256.246 c 49.699 328.676 l 49.699 359.18 74.52 384 105.023 384 c 316.25
 384 l 326.203 384 334.301 375.902 334.301 365.949 c 334.301 291.398 l 334.301
 291.395 334.301 291.391 334.301 291.383 c h
160.914 372.75 m 160.715 372.754 160.598 372.645 160.523 372.566 c 150.668
 362.715 l 148.363 360.406 145.332 359.254 142.301 359.254 c 139.27 359.254
 136.238 360.406 133.93 362.715 c 124.078 372.566 l 124 372.641 123.887 
372.754 123.684 372.75 c 123.672 372.75 l 123.602 372.746 123.527 372.73
 123.438 372.691 c 123.074 372.543 123.074 372.297 123.074 372.148 c 123.074
 334.301 l 161.527 334.301 l 161.527 372.148 l 161.527 372.297 161.527 372.543
 161.164 372.691 c 161.074 372.73 160.996 372.746 160.93 372.75 c h
144.797 372.75 m 139.805 372.75 l 141.883 370.668 l 142.113 370.438 142.488
 370.441 142.715 370.668 c h
111.824 347.898 m 105.027 347.898 l 96.383 347.898 89.055 342.164 86.641
 334.301 c 111.824 334.301 l h
172.773 334.301 m 265.855 334.301 l 268.961 334.301 271.48 331.781 271.48
 328.676 c 271.48 325.566 268.961 323.051 265.855 323.051 c 86.641 323.051
 l 89.055 315.184 96.383 309.449 105.023 309.449 c 316.25 309.449 l 318.652
 309.449 320.949 308.977 323.051 308.121 c 323.051 323.051 l 288.352 323.051
 l 285.246 323.051 282.727 325.566 282.727 328.676 c 282.727 331.781 285.246
 334.301 288.352 334.301 c 323.051 334.301 l 323.051 341.113 l 323.039 344.855
 319.996 347.898 316.25 347.898 c 172.773 347.898 l h
323.051 18.051 m 323.051 266.551 l 323.051 270.301 320 273.352 316.25 273.352
 c 110.648 273.352 l 110.648 11.25 l 316.25 11.25 l 320 11.25 323.051 14.301
 323.051 18.051 c h
60.949 328.676 m 60.949 304.375 80.719 284.602 105.02 284.602 c 316.25 
284.602 l 318.656 284.602 320.949 284.125 323.051 283.266 c 323.051 291.414
 l 323.043 295.156 319.996 298.199 316.25 298.199 c 105.027 298.199 l 88.223
 298.199 74.551 311.871 74.551 328.676 c 74.551 345.477 88.223 359.148 105.027
 359.148 c 111.824 359.148 l 111.824 372.148 l 111.824 372.352 111.836 372.551
 111.848 372.75 c 105.027 372.75 l 80.723 372.75 60.949 352.977 60.949 328.676
 c h
316.25 372.75 m 172.754 372.75 l 172.762 372.551 172.773 372.352 172.773
 372.148 c 172.773 359.148 l 316.25 359.148 l 318.656 359.148 320.949 358.676
 323.051 357.816 c 323.051 365.949 l 323.051 369.699 320 372.75 316.25 372.75
 c h
316.25 372.75 m f
191.574 79.586 m 242.125 79.586 l 251.844 79.586 259.75 71.68 259.75 61.961
 c 259.75 48.688 l 259.75 38.969 251.844 31.062 242.125 31.062 c 191.574
 31.062 l 181.855 31.062 173.949 38.969 173.949 48.688 c 173.949 61.961 
l 173.949 71.68 181.855 79.586 191.574 79.586 c h
185.199 48.688 m 185.199 45.172 188.062 42.312 191.574 42.312 c 242.125
 42.312 l 245.641 42.312 248.5 45.172 248.5 48.688 c 248.5 61.961 l 248.5
 65.477 245.641 68.336 242.125 68.336 c 191.574 68.336 l 188.062 68.336 
185.199 65.477 185.199 61.961 c h
185.199 48.688 m f
211.227 184.672 m 211.227 192.586 l 204.426 192.586 l 201.316 192.586 198.801
 195.105 198.801 198.211 c 198.801 201.32 201.316 203.836 204.426 203.836
 c 211.227 203.836 l 211.227 216.852 l 211.227 219.957 213.742 222.477 216.852
 222.477 c 219.957 222.477 222.477 219.957 222.477 216.852 c 222.477 203.836
 l 229.273 203.836 l 232.383 203.836 234.898 201.32 234.898 198.211 c 234.898
 195.105 232.383 192.586 229.273 192.586 c 222.477 192.586 l 222.477 184.672
 l 236.598 182.023 247.324 169.605 247.324 154.727 c 247.324 137.922 233.652
 124.25 216.852 124.25 c 200.047 124.25 186.375 137.922 186.375 154.727 
c 186.375 169.605 197.102 182.023 211.227 184.672 c h
216.852 135.5 m 227.449 135.5 236.074 144.125 236.074 154.727 c 236.074
 165.324 227.449 173.949 216.852 173.949 c 206.25 173.949 197.625 165.324
 197.625 154.727 c 197.625 144.125 206.25 135.5 216.852 135.5 c h
216.852 135.5 m f
216.852 247.324 m 257.633 247.324 290.812 214.145 290.812 173.363 c 290.812
 132.578 257.633 99.402 216.852 99.402 c 176.066 99.402 142.887 132.578 
142.887 173.363 c 142.887 214.145 176.066 247.324 216.852 247.324 c h
216.852 110.652 m 251.43 110.652 279.562 138.781 279.562 173.363 c 279.562
 207.941 251.43 236.074 216.852 236.074 c 182.27 236.074 154.137 207.941
 154.137 173.363 c 154.137 138.781 182.27 110.652 216.852 110.652 c h
216.852 110.652 m f
Q Q
showpage
%%Trailer
end
%%EOF
