%!PS-Adobe-3.0 EPSF-3.0
%%Creator: cairo 1.16.0 (https://cairographics.org)
%%CreationDate: Fri Feb  5 09:59:34 2021
%%Pages: 1
%%DocumentData: Clean7Bit
%%LanguageLevel: 2
%%BoundingBox: 0 0 384 384
%%EndComments
%%BeginProlog
50 dict begin
/q { gsave } bind def
/Q { grestore } bind def
/cm { 6 array astore concat } bind def
/w { setlinewidth } bind def
/J { setlinecap } bind def
/j { setlinejoin } bind def
/M { setmiterlimit } bind def
/d { setdash } bind def
/m { moveto } bind def
/l { lineto } bind def
/c { curveto } bind def
/h { closepath } bind def
/re { exch dup neg 3 1 roll 5 3 roll moveto 0 rlineto
      0 exch rlineto 0 rlineto closepath } bind def
/S { stroke } bind def
/f { fill } bind def
/f* { eofill } bind def
/n { newpath } bind def
/W { clip } bind def
/W* { eoclip } bind def
/BT { } bind def
/ET { } bind def
/BDC { mark 3 1 roll /BDC pdfmark } bind def
/EMC { mark /EMC pdfmark } bind def
/cairo_store_point { /cairo_point_y exch def /cairo_point_x exch def } def
/Tj { show currentpoint cairo_store_point } bind def
/TJ {
  {
    dup
    type /stringtype eq
    { show } { -0.001 mul 0 cairo_font_matrix dtransform rmoveto } ifelse
  } forall
  currentpoint cairo_store_point
} bind def
/cairo_selectfont { cairo_font_matrix aload pop pop pop 0 0 6 array astore
    cairo_font exch selectfont cairo_point_x cairo_point_y moveto } bind def
/Tf { pop /cairo_font exch def /cairo_font_matrix where
      { pop cairo_selectfont } if } bind def
/Td { matrix translate cairo_font_matrix matrix concatmatrix dup
      /cairo_font_matrix exch def dup 4 get exch 5 get cairo_store_point
      /cairo_font where { pop cairo_selectfont } if } bind def
/Tm { 2 copy 8 2 roll 6 array astore /cairo_font_matrix exch def
      cairo_store_point /cairo_font where { pop cairo_selectfont } if } bind def
/g { setgray } bind def
/rg { setrgbcolor } bind def
/d1 { setcachedevice } bind def
/cairo_data_source {
  CairoDataIndex CairoData length lt
    { CairoData CairoDataIndex get /CairoDataIndex CairoDataIndex 1 add def }
    { () } ifelse
} def
/cairo_flush_ascii85_file { cairo_ascii85_file status { cairo_ascii85_file flushfile } if } def
/cairo_image { image cairo_flush_ascii85_file } def
/cairo_imagemask { imagemask cairo_flush_ascii85_file } def
%%EndProlog
%%BeginSetup
%%EndSetup
%%Page: 1 1
%%BeginPageSetup
%%PageBoundingBox: 0 0 384 384
%%EndPageSetup
q 0 0 384 384 rectclip
1 0 0 -1 0 384 cm q
0.980392 0.368627 0.592157 rg
378.375 192 m 378.375 294.934 294.934 378.375 192 378.375 c 89.066 378.375
 5.625 294.934 5.625 192 c 5.625 89.066 89.066 5.625 192 5.625 c 294.934
 5.625 378.375 89.066 378.375 192 c h
378.375 192 m f
0.937255 0.937255 0.976471 rg
234.594 131.836 m 292.238 74.191 l 294.879 71.551 294.605 67.199 291.672
 64.895 c 264.219 43.336 229.613 30.477 192 30.477 c 102.996 30.477 30.477
 102.996 30.477 192 c 30.477 229.613 43.336 264.219 64.895 291.672 c 67.199
 294.605 71.551 294.879 74.191 292.238 c h
234.594 131.836 m f
151.473 250.098 m 91.762 309.809 l 89.121 312.449 89.395 316.801 92.328
 319.105 c 119.781 340.664 154.387 353.523 192 353.523 c 281.004 353.527
 353.527 281.004 353.523 192 c 353.523 154.387 340.664 119.781 319.105 92.328
 c 316.801 89.395 312.449 89.121 309.809 91.762 c h
151.473 250.098 m f
0.85098 0.309804 0.533333 rg
192 5.625 m 189.109 5.625 186.234 5.699 183.375 5.832 c 282.301 10.34 361.125
 91.961 361.125 192 c 361.125 292.039 282.301 373.66 183.375 378.168 c 186.234
 378.301 189.109 378.375 192 378.375 c 294.934 378.375 378.375 294.934 378.375
 192 c 378.375 89.066 294.934 5.625 192 5.625 c h
192 5.625 m f
0.945098 0.690196 0.635294 rg
265.809 117.465 m 258.738 117.742 252.684 121.957 249.77 127.977 c 249.605
 128.316 249.27 128.539 248.891 128.539 c 248.352 128.539 247.914 128.102
 247.914 127.562 c 247.914 99.223 l 247.914 88.887 239.457 80.094 229.125
 80.176 c 221.578 80.234 215.102 84.785 212.227 91.281 c 212.094 91.582 
211.801 91.781 211.469 91.781 c 211.008 91.781 210.637 91.41 210.637 90.949
 c 210.637 86.809 l 210.637 76.359 202.086 67.555 191.637 67.754 c 181.512
 67.945 173.363 76.215 173.363 86.387 c 173.363 103.719 l 173.363 104.141
 173.02 104.48 172.602 104.48 c 172.293 104.48 172.023 104.293 171.902 104.012
 c 169.086 97.324 162.488 92.625 154.789 92.602 c 144.402 92.566 136.086
 101.27 136.086 111.652 c 136.086 165.547 l 136.086 166 135.719 166.367 
135.266 166.367 c 134.938 166.367 134.648 166.172 134.516 165.871 c 131.621
 159.293 125.039 154.699 117.387 154.727 c 107.047 154.762 98.812 163.445
 98.812 173.785 c 98.812 241.699 l 98.812 282.875 132.188 316.25 173.363
 316.25 c 210.637 316.25 l 251.809 316.25 285.188 282.875 285.188 241.699
 c 285.188 136.508 l 285.188 125.859 276.449 117.047 265.809 117.465 c h
265.809 117.465 m f
0.921569 0.611765 0.552941 rg
265.809 117.465 m 262.945 117.578 260.254 118.344 257.867 119.605 c 263.852
 122.805 267.938 129.227 267.938 136.508 c 267.938 241.699 l 267.938 282.871
 234.559 316.25 193.387 316.25 c 210.637 316.25 l 251.809 316.25 285.188
 282.871 285.188 241.699 c 285.188 136.508 l 285.188 125.859 276.449 117.047
 265.809 117.465 c h
265.809 117.465 m f
0 g
327.766 56.234 m 291.5 19.973 243.285 0 192 0 c 145.016 0 99.797 17.148
 64.676 48.289 c 62.352 50.348 62.137 53.902 64.195 56.23 c 66.258 58.555
 69.812 58.77 72.137 56.707 c 105.199 27.395 147.766 11.25 192 11.25 c 291.664
 11.25 372.75 92.336 372.75 192 c 372.75 291.664 291.664 372.75 192 372.75
 c 92.336 372.75 11.25 291.664 11.25 192 c 11.25 147.766 27.395 105.199 
56.707 72.141 c 58.766 69.812 58.555 66.258 56.227 64.199 c 53.902 62.137
 50.348 62.352 48.289 64.676 c 17.148 99.797 0 145.016 0 192 c 0 243.285
 19.973 291.5 56.234 327.766 c 92.5 364.027 140.715 384 192 384 c 243.285
 384 291.5 364.027 327.766 327.766 c 364.027 291.5 384 243.285 384 192 c
 384 140.715 364.027 92.5 327.766 56.234 c h
327.766 56.234 m f
73.875 81.848 m 71.531 79.809 67.977 80.055 65.938 82.398 c 39.441 112.828
 24.852 151.754 24.852 192 c 24.852 229.805 37.168 265.473 60.469 295.145
 c 62.562 297.812 65.707 299.457 69.09 299.66 c 69.324 299.676 69.562 299.684
 69.797 299.684 c 72.926 299.684 75.941 298.441 78.168 296.215 c 100.109
 274.273 l 102.043 278.605 104.348 282.738 106.988 286.625 c 87.785 305.832
 l 85.395 308.223 84.137 311.535 84.34 314.91 c 84.543 318.293 86.188 321.434
 88.855 323.527 c 118.527 346.832 154.195 359.148 192 359.148 c 284.164 
359.148 359.148 284.164 359.148 192 c 359.148 154.195 346.832 118.527 323.527
 88.855 c 321.434 86.188 318.293 84.539 314.91 84.34 c 311.523 84.129 308.223
 85.391 305.832 87.785 c 278.531 115.086 l 274.762 112.883 270.48 111.75
 266.082 111.828 c 264.742 111.855 263.43 111.996 262.148 112.234 c 296.215
 78.168 l 298.605 75.777 299.863 72.469 299.66 69.09 c 299.457 65.707 297.812
 62.566 295.145 60.473 c 265.473 37.168 229.805 24.852 192 24.852 c 151.75
 24.852 112.828 39.441 82.395 65.938 c 80.055 67.98 79.809 71.531 81.848
 73.875 c 83.887 76.219 87.441 76.461 89.785 74.422 c 118.168 49.711 154.469
 36.102 192 36.102 c 227.258 36.102 260.523 47.586 288.195 69.32 c 288.34
 69.434 288.422 69.582 288.43 69.762 c 288.445 70.027 288.305 70.168 288.258
 70.215 c 253.535 104.938 l 253.535 98.812 l 253.535 85.434 242.652 74.551
 229.273 74.551 c 224.004 74.551 219.125 76.246 215.145 79.109 c 212.043
 69.277 202.84 62.125 192 62.125 c 178.621 62.125 167.734 73.012 167.734
 86.391 c 167.734 90.777 l 163.973 88.375 159.508 86.977 154.723 86.977 
c 141.344 86.977 130.461 97.859 130.461 111.238 c 130.461 152.934 l 126.816
 150.594 122.516 149.195 117.914 149.105 c 111.461 148.984 105.344 151.449
 100.66 156.043 c 95.91 160.703 93.184 167.168 93.184 173.785 c 93.184 241.703
 l 93.184 248.906 94.145 255.891 95.938 262.535 c 70.211 288.262 l 70.164
 288.309 70.027 288.441 69.758 288.434 c 69.578 288.422 69.43 288.344 69.316
 288.199 c 47.582 260.527 36.098 227.262 36.098 192.004 c 36.098 154.469
 49.707 118.168 74.418 89.785 c 76.461 87.441 76.215 83.887 73.875 81.848
 c h
313.789 95.738 m 313.832 95.691 313.977 95.551 314.238 95.566 c 314.418
 95.578 314.57 95.656 314.684 95.801 c 336.414 123.477 347.898 156.738 347.902
 192 c 347.902 277.961 277.965 347.898 192 347.898 c 156.742 347.898 123.477
 336.414 95.805 314.68 c 95.66 314.566 95.578 314.418 95.57 314.238 c 95.555
 313.973 95.695 313.832 95.742 313.785 c 113.996 295.527 l 128.676 311.703
 149.855 321.875 173.363 321.875 c 210.637 321.875 l 254.848 321.875 290.812
 285.906 290.812 241.699 c 290.812 136.508 l 290.812 131.652 289.34 126.883
 286.684 122.844 c h
104.438 173.781 m 104.438 170.168 105.934 166.629 108.539 164.074 c 111.051
 161.609 114.273 160.301 117.703 160.352 c 124.738 160.488 130.465 166.32
 130.465 173.363 c 130.465 204.773 l 130.465 210.816 134.973 215.871 140.957
 216.527 c 163.309 218.98 180.164 237.816 180.164 260.34 c 180.164 263.445
 182.68 265.965 185.789 265.965 c 188.895 265.965 191.414 263.445 191.414
 260.34 c 191.414 232.066 170.25 208.426 142.184 205.348 c 141.918 205.316
 141.711 205.066 141.711 204.773 c 141.711 111.238 l 141.711 104.062 147.551
 98.223 154.727 98.223 c 161.898 98.223 167.738 104.062 167.738 111.238 
c 167.738 185.785 l 167.738 188.895 170.258 191.41 173.363 191.41 c 176.469
 191.41 178.988 188.895 178.988 185.785 c 178.988 86.387 l 178.988 79.211
 184.824 73.375 192 73.375 c 199.176 73.375 205.012 79.211 205.012 86.387
 c 205.012 185.789 l 205.012 188.895 207.531 191.414 210.637 191.414 c 213.746
 191.414 216.262 188.895 216.262 185.789 c 216.262 98.812 l 216.262 91.637
 222.102 85.801 229.277 85.801 c 236.449 85.801 242.289 91.637 242.289 98.812
 c 242.289 192 l 242.289 195.105 244.809 197.625 247.914 197.625 c 251.02
 197.625 253.539 195.105 253.539 192 c 253.539 136.086 l 253.539 129.047
 259.262 123.211 266.297 123.078 c 269.699 123.016 272.953 124.336 275.465
 126.797 c 278.07 129.355 279.566 132.895 279.566 136.508 c 279.566 241.699
 l 279.566 279.703 248.645 310.625 210.641 310.625 c 173.363 310.625 l 135.355
 310.625 104.438 279.703 104.438 241.699 c h
104.438 173.781 m f
Q Q
showpage
%%Trailer
end
%%EOF
