%!PS-Adobe-3.0 EPSF-3.0
%%Creator: cairo 1.16.0 (https://cairographics.org)
%%CreationDate: Fri Feb  5 09:59:36 2021
%%Pages: 1
%%DocumentData: Clean7Bit
%%LanguageLevel: 2
%%BoundingBox: 0 0 384 384
%%EndComments
%%BeginProlog
50 dict begin
/q { gsave } bind def
/Q { grestore } bind def
/cm { 6 array astore concat } bind def
/w { setlinewidth } bind def
/J { setlinecap } bind def
/j { setlinejoin } bind def
/M { setmiterlimit } bind def
/d { setdash } bind def
/m { moveto } bind def
/l { lineto } bind def
/c { curveto } bind def
/h { closepath } bind def
/re { exch dup neg 3 1 roll 5 3 roll moveto 0 rlineto
      0 exch rlineto 0 rlineto closepath } bind def
/S { stroke } bind def
/f { fill } bind def
/f* { eofill } bind def
/n { newpath } bind def
/W { clip } bind def
/W* { eoclip } bind def
/BT { } bind def
/ET { } bind def
/BDC { mark 3 1 roll /BDC pdfmark } bind def
/EMC { mark /EMC pdfmark } bind def
/cairo_store_point { /cairo_point_y exch def /cairo_point_x exch def } def
/Tj { show currentpoint cairo_store_point } bind def
/TJ {
  {
    dup
    type /stringtype eq
    { show } { -0.001 mul 0 cairo_font_matrix dtransform rmoveto } ifelse
  } forall
  currentpoint cairo_store_point
} bind def
/cairo_selectfont { cairo_font_matrix aload pop pop pop 0 0 6 array astore
    cairo_font exch selectfont cairo_point_x cairo_point_y moveto } bind def
/Tf { pop /cairo_font exch def /cairo_font_matrix where
      { pop cairo_selectfont } if } bind def
/Td { matrix translate cairo_font_matrix matrix concatmatrix dup
      /cairo_font_matrix exch def dup 4 get exch 5 get cairo_store_point
      /cairo_font where { pop cairo_selectfont } if } bind def
/Tm { 2 copy 8 2 roll 6 array astore /cairo_font_matrix exch def
      cairo_store_point /cairo_font where { pop cairo_selectfont } if } bind def
/g { setgray } bind def
/rg { setrgbcolor } bind def
/d1 { setcachedevice } bind def
/cairo_data_source {
  CairoDataIndex CairoData length lt
    { CairoData CairoDataIndex get /CairoDataIndex CairoDataIndex 1 add def }
    { () } ifelse
} def
/cairo_flush_ascii85_file { cairo_ascii85_file status { cairo_ascii85_file flushfile } if } def
/cairo_image { image cairo_flush_ascii85_file } def
/cairo_imagemask { imagemask cairo_flush_ascii85_file } def
%%EndProlog
%%BeginSetup
%%EndSetup
%%Page: 1 1
%%BeginPageSetup
%%PageBoundingBox: 0 0 384 384
%%EndPageSetup
q 0 0 384 384 rectclip
1 0 0 -1 0 384 cm q
0.45098 0.737255 1 rg
266.551 235.746 m 365.949 235.746 l 365.949 254.977 l 365.949 268.23 355.203
 278.977 341.949 278.977 c 290.551 278.977 l 277.297 278.977 266.551 268.23
 266.551 254.977 c h
266.551 235.746 m f
0.45098 0.494118 0.901961 rg
348.699 235.746 m 348.699 254.977 l 348.699 268.23 337.953 278.977 324.699
 278.977 c 341.949 278.977 l 355.203 278.977 365.949 268.23 365.949 254.977
 c 365.949 235.746 l h
348.699 235.746 m f
0.937255 0.937255 0.976471 rg
210.637 24.262 m 210.637 34.555 202.293 42.898 192 42.898 c 181.707 42.898
 173.363 34.555 173.363 24.262 c 173.363 13.969 181.707 5.625 192 5.625 
c 202.293 5.625 210.637 13.969 210.637 24.262 c h
210.637 24.262 m f
0.87451 0.870588 0.960784 rg
179.574 64.656 24.852 242.262 re f
0.72549 0.713726 0.92549 rg
187.215 64.656 17.211 242.262 re f
0.937255 0.937255 0.976471 rg
302.031 98.812 m 306.188 98.812 310.066 96.738 312.371 93.281 c 315.637
 88.379 l 318.84 83.574 324.93 81.609 330.336 83.637 c 357.883 93.965 l 
364.789 96.555 367.934 104.559 364.633 111.156 c 361.816 116.793 l 359.711
 121.004 355.406 123.664 350.703 123.664 c 33.297 123.664 l 28.59 123.664
 24.289 121.004 22.184 116.793 c 19.367 111.156 l 16.066 104.559 19.211 
96.559 26.117 93.965 c 53.66 83.637 l 59.07 81.609 65.16 83.574 68.363 88.379
 c 71.629 93.281 l 73.934 96.738 77.812 98.812 81.969 98.812 c h
302.031 98.812 m f
0.87451 0.870588 0.960784 rg
51.113 88.379 m 54.379 93.281 l 56.684 96.738 60.562 98.812 64.719 98.812
 c 81.969 98.812 l 77.812 98.812 73.934 96.738 71.629 93.281 c 68.363 88.379
 l 65.16 83.574 59.07 81.609 53.664 83.637 c 48.52 85.566 l 49.504 86.352
 50.387 87.289 51.113 88.379 c h
51.113 88.379 m f
357.883 93.965 m 330.34 83.637 l 326.16 82.07 321.578 82.895 318.23 85.566
 c 340.633 93.965 l 347.543 96.559 350.684 104.559 347.387 111.156 c 344.566
 116.793 l 342.461 121.004 338.16 123.664 333.453 123.664 c 350.703 123.664
 l 355.41 123.664 359.711 121.004 361.816 116.793 c 364.637 111.156 l 367.934
 104.559 364.789 96.555 357.883 93.965 c h
357.883 93.965 m f
0.992157 0.74902 0 rg
210.852 129.875 m 173.148 129.875 l 169.836 129.875 167.148 127.188 167.148
 123.875 c 167.148 98.602 l 167.148 95.285 169.836 92.602 173.148 92.602
 c 210.852 92.602 l 214.164 92.602 216.852 95.285 216.852 98.602 c 216.852
 123.875 l 216.852 127.188 214.164 129.875 210.852 129.875 c h
210.852 129.875 m f
1 0.568627 0 rg
210.852 92.602 m 193.602 92.602 l 196.914 92.602 199.602 95.285 199.602
 98.602 c 199.602 123.875 l 199.602 127.188 196.914 129.875 193.602 129.875
 c 210.852 129.875 l 214.164 129.875 216.852 127.188 216.852 123.875 c 216.852
 98.602 l 216.852 95.285 214.164 92.602 210.852 92.602 c h
210.852 92.602 m f
0.992157 0.74902 0 rg
204.426 42.898 m 202.16 42.898 181.84 42.898 179.574 42.898 c 172.715 42.898
 167.148 48.461 167.148 55.324 c 167.148 62.188 172.715 67.75 179.574 67.75
 c 204.426 67.75 l 211.289 67.75 216.852 62.188 216.852 55.324 c 216.852
 48.461 211.285 42.898 204.426 42.898 c h
204.426 42.898 m f
1 0.568627 0 rg
204.426 42.898 m 202.961 42.898 193.973 42.898 187.176 42.898 c 194.039
 42.898 199.602 48.461 199.602 55.324 c 199.602 62.188 194.039 67.75 187.176
 67.75 c 204.426 67.75 l 211.289 67.75 216.852 62.188 216.852 55.324 c 216.852
 48.461 211.285 42.898 204.426 42.898 c h
204.426 42.898 m f
0.87451 0.870588 0.960784 rg
192 5.625 m 188.887 5.625 185.953 6.391 183.375 7.742 c 189.324 10.855 
193.387 17.082 193.387 24.262 c 193.387 31.441 189.324 37.672 183.375 40.781
 c 185.953 42.133 188.887 42.898 192 42.898 c 202.293 42.898 210.637 34.555
 210.637 24.262 c 210.637 13.969 202.293 5.625 192 5.625 c h
192 5.625 m f
0.992157 0.74902 0 rg
167.148 339.289 m 216.852 339.289 l 216.852 309.824 l 216.852 306.512 214.164
 303.824 210.852 303.824 c 173.148 303.824 l 169.836 303.824 167.148 306.512
 167.148 309.824 c h
167.148 339.289 m f
1 0.568627 0 rg
210.852 303.824 m 193.602 303.824 l 196.914 303.824 199.602 306.512 199.602
 309.824 c 199.602 339.289 l 216.852 339.289 l 216.852 309.824 l 216.852
 306.512 214.164 303.824 210.852 303.824 c h
210.852 303.824 m f
0.937255 0.937255 0.976471 rg
142.301 361.922 m 241.699 361.922 l 241.699 340.676 l 241.699 334.047 236.328
 328.676 229.699 328.676 c 154.301 328.676 l 147.672 328.676 142.301 334.047
 142.301 340.676 c h
142.301 361.922 m f
0.87451 0.870588 0.960784 rg
229.699 328.676 m 212.449 328.676 l 219.078 328.676 224.449 334.047 224.449
 340.676 c 224.449 361.922 l 241.699 361.922 l 241.699 340.676 l 241.699
 334.047 236.328 328.676 229.699 328.676 c h
229.699 328.676 m f
0.862745 0.529412 0.345098 rg
129.875 378.375 m 254.125 378.375 l 260.988 378.375 266.551 372.812 266.551
 365.949 c 266.551 359.09 260.988 353.523 254.125 353.523 c 251.859 353.523
 132.141 353.523 129.875 353.523 c 123.012 353.523 117.449 359.086 117.449
 365.949 c 117.449 372.812 123.012 378.375 129.875 378.375 c h
129.875 378.375 m f
0.784314 0.427451 0.211765 rg
254.125 353.523 m 253.605 353.523 246.91 353.523 236.875 353.523 c 243.738
 353.523 249.301 359.09 249.301 365.949 c 249.301 372.812 243.738 378.375
 236.875 378.375 c 254.125 378.375 l 260.988 378.375 266.551 372.812 266.551
 365.949 c 266.551 359.09 260.988 353.523 254.125 353.523 c h
254.125 353.523 m f
0.992157 0.74902 0 rg
266.551 216.852 m 365.949 216.852 l 372.812 216.852 378.375 222.414 378.375
 229.273 c 378.375 236.137 372.812 241.699 365.949 241.699 c 363.684 241.699
 268.816 241.699 266.551 241.699 c 259.688 241.699 254.125 236.137 254.125
 229.273 c 254.125 222.414 259.688 216.852 266.551 216.852 c h
266.551 216.852 m f
1 0.568627 0 rg
365.949 216.852 m 365.363 216.852 358.527 216.852 348.699 216.852 c 355.562
 216.852 361.125 222.414 361.125 229.273 c 361.125 236.137 355.562 241.699
 348.699 241.699 c 365.949 241.699 l 372.812 241.699 378.375 236.137 378.375
 229.273 c 378.375 222.414 372.812 216.852 365.949 216.852 c h
365.949 216.852 m f
0.980392 0.368627 0.592157 rg
18.051 235.746 m 117.449 235.746 l 117.449 254.977 l 117.449 268.23 106.703
 278.977 93.449 278.977 c 42.051 278.977 l 28.797 278.977 18.051 268.23 
18.051 254.977 c h
18.051 235.746 m f
0.85098 0.309804 0.533333 rg
100.199 235.746 m 100.199 254.977 l 100.199 268.23 89.453 278.977 76.199
 278.977 c 93.449 278.977 l 106.703 278.977 117.449 268.23 117.449 254.977
 c 117.449 235.746 l h
100.199 235.746 m f
0.992157 0.74902 0 rg
18.051 216.852 m 117.449 216.852 l 124.312 216.852 129.875 222.414 129.875
 229.273 c 129.875 236.137 124.312 241.699 117.449 241.699 c 115.184 241.699
 20.316 241.699 18.051 241.699 c 11.188 241.699 5.625 236.137 5.625 229.273
 c 5.625 222.414 11.188 216.852 18.051 216.852 c h
18.051 216.852 m f
1 0.568627 0 rg
117.949 216.852 m 117.359 216.852 110.523 216.852 100.699 216.852 c 107.559
 216.852 113.125 222.414 113.125 229.273 c 113.125 236.137 107.559 241.699
 100.699 241.699 c 117.949 241.699 l 124.809 241.699 130.375 236.137 130.375
 229.273 c 130.375 222.414 124.809 216.852 117.949 216.852 c h
117.949 216.852 m f
0 g
384 229.273 m 384 219.32 375.902 211.227 365.949 211.227 c 362.969 211.227
 l 321.875 140.777 l 321.875 129.289 l 350.703 129.289 l 357.586 129.289
 363.77 125.465 366.848 119.309 c 369.664 113.672 l 371.949 109.105 372.188
 103.758 370.32 99.004 c 368.457 94.246 364.641 90.492 359.859 88.699 c 
332.316 78.371 l 324.418 75.406 315.637 78.242 310.957 85.258 c 307.691 
90.16 l 306.426 92.055 304.312 93.188 302.031 93.188 c 221.129 93.188 l 
219.18 89.5 215.305 86.977 210.852 86.977 c 210.051 86.977 l 210.051 72.473
 l 217.258 70.102 222.477 63.312 222.477 55.324 c 222.477 47.875 217.938
 41.465 211.48 38.711 c 214.484 34.672 216.262 29.672 216.262 24.262 c 216.262
 10.883 205.379 0 192 0 c 178.621 0 167.738 10.883 167.738 24.262 c 167.738
 29.672 169.52 34.672 172.523 38.711 c 166.062 41.465 161.523 47.875 161.523
 55.324 c 161.523 63.312 166.742 70.102 173.949 72.473 c 173.949 86.977 
l 173.148 86.977 l 168.695 86.977 164.82 89.5 162.871 93.188 c 81.969 93.188
 l 79.688 93.188 77.574 92.055 76.309 90.16 c 73.043 85.258 l 68.367 78.242
 59.586 75.41 51.688 78.371 c 24.141 88.699 l 19.359 90.492 15.547 94.246
 13.68 99 c 11.812 103.754 12.051 109.102 14.336 113.672 c 17.152 119.309
 l 20.23 125.465 26.418 129.289 33.297 129.289 c 62.125 129.289 l 62.125
 140.777 l 21.031 211.227 l 18.051 211.227 l 8.098 211.227 0 219.324 0 229.273
 c 0 237.266 5.219 244.055 12.426 246.422 c 12.426 254.973 l 12.426 271.309
 25.715 284.598 42.051 284.598 c 93.449 284.598 l 109.785 284.598 123.074
 271.309 123.074 254.973 c 123.074 246.422 l 130.281 244.051 135.5 237.262
 135.5 229.273 c 135.5 219.32 127.402 211.227 117.449 211.227 c 114.469 
211.227 l 73.375 140.777 l 73.375 129.289 l 90.188 129.289 l 93.293 129.289
 95.812 126.77 95.812 123.664 c 95.812 120.555 93.293 118.039 90.188 118.039
 c 73.375 118.039 l 73.375 117.449 l 73.375 114.344 70.855 111.824 67.75
 111.824 c 64.645 111.824 62.125 114.344 62.125 117.449 c 62.125 118.039
 l 33.297 118.039 l 30.703 118.039 28.375 116.598 27.215 114.277 c 24.398
 108.641 l 23.523 106.895 23.434 104.934 24.148 103.113 c 24.863 101.297
 26.262 99.918 28.09 99.234 c 55.637 88.902 l 58.609 87.789 61.922 88.855
 63.684 91.5 c 66.949 96.402 l 70.305 101.434 75.918 104.438 81.969 104.438
 c 161.523 104.438 l 161.523 118.039 l 112.688 118.039 l 109.582 118.039
 107.062 120.555 107.062 123.664 c 107.062 126.77 109.582 129.289 112.688
 129.289 c 162.871 129.289 l 164.82 132.977 168.695 135.5 173.148 135.5 
c 173.949 135.5 l 173.949 298.199 l 173.148 298.199 l 166.738 298.199 161.523
 303.414 161.523 309.824 c 161.523 323.051 l 154.301 323.051 l 144.582 323.051
 136.676 330.957 136.676 340.676 c 136.676 347.898 l 129.875 347.898 l 119.922
 347.898 111.824 355.996 111.824 365.949 c 111.824 375.902 119.922 384 129.875
 384 c 143.477 384 l 146.582 384 149.102 381.48 149.102 378.375 c 149.102
 375.27 146.582 372.75 143.477 372.75 c 129.875 372.75 l 126.125 372.75 
123.074 369.699 123.074 365.949 c 123.074 362.199 126.125 359.148 129.875
 359.148 c 254.125 359.148 l 257.875 359.148 260.926 362.199 260.926 365.949
 c 260.926 369.699 257.875 372.75 254.125 372.75 c 165.977 372.75 l 162.867
 372.75 160.352 375.27 160.352 378.375 c 160.352 381.48 162.867 384 165.977
 384 c 254.125 384 l 264.078 384 272.176 375.902 272.176 365.949 c 272.176
 355.996 264.078 347.898 254.125 347.898 c 247.324 347.898 l 247.324 340.676
 l 247.324 330.957 239.418 323.051 229.699 323.051 c 222.477 323.051 l 222.477
 309.824 l 222.477 303.414 217.262 298.199 210.852 298.199 c 210.051 298.199
 l 210.051 135.5 l 210.852 135.5 l 215.305 135.5 219.18 132.977 221.129 
129.289 c 310.625 129.289 l 310.625 140.781 l 269.531 211.227 l 266.551 
211.227 l 256.598 211.227 248.5 219.324 248.5 229.277 c 248.5 237.266 253.719
 244.055 260.926 246.422 c 260.926 254.977 l 260.926 271.309 274.215 284.602
 290.551 284.602 c 341.949 284.602 l 358.285 284.602 371.574 271.309 371.574
 254.977 c 371.574 246.422 l 378.781 244.055 384 237.266 384 229.273 c h
111.824 254.977 m 111.824 265.105 103.582 273.352 93.449 273.352 c 42.051
 273.352 l 31.918 273.352 23.676 265.105 23.676 254.977 c 23.676 247.324
 l 111.824 247.324 l h
124.25 229.273 m 124.25 233.023 121.199 236.074 117.449 236.074 c 18.051
 236.074 l 14.301 236.074 11.25 233.023 11.25 229.273 c 11.25 225.527 14.301
 222.477 18.051 222.477 c 111.227 222.477 l 111.23 222.477 111.238 222.477
 111.242 222.477 c 111.25 222.477 111.254 222.477 111.262 222.477 c 117.449
 222.477 l 121.199 222.477 124.25 225.527 124.25 229.273 c h
34.055 211.227 m 67.75 153.465 l 101.445 211.227 l h
192 11.25 m 199.176 11.25 205.012 17.086 205.012 24.262 c 205.012 31.438
 199.176 37.273 192 37.273 c 184.824 37.273 178.988 31.438 178.988 24.262
 c 178.988 17.086 184.824 11.25 192 11.25 c h
179.574 48.523 m 204.426 48.523 l 208.172 48.523 211.223 51.574 211.223
 55.324 c 211.223 59.074 208.172 62.125 204.426 62.125 c 179.574 62.125 
l 175.824 62.125 172.773 59.074 172.773 55.324 c 172.773 51.574 175.824 
48.523 179.574 48.523 c h
185.199 73.375 m 198.801 73.375 l 198.801 86.977 l 185.199 86.977 l h
236.074 340.676 m 236.074 347.898 l 147.926 347.898 l 147.926 340.676 l
 147.926 337.16 150.785 334.301 154.301 334.301 c 229.699 334.301 l 233.215
 334.301 236.074 337.16 236.074 340.676 c h
211.227 309.824 m 211.227 323.051 l 172.773 323.051 l 172.773 309.824 l
 172.773 309.617 172.941 309.449 173.148 309.449 c 210.848 309.449 l 211.055
 309.449 211.227 309.617 211.227 309.824 c h
185.199 298.199 m 185.199 284.602 l 198.801 284.602 l 198.801 298.199 l
 h
198.801 273.352 m 185.199 273.352 l 185.199 135.5 l 198.801 135.5 l h
211.227 123.875 m 211.227 124.082 211.055 124.25 210.852 124.25 c 173.152
 124.25 l 172.945 124.25 172.777 124.082 172.777 123.875 c 172.777 98.602
 l 172.777 98.395 172.945 98.227 173.152 98.227 c 210.852 98.227 l 211.055
 98.227 211.227 98.395 211.227 98.602 c h
222.477 118.039 m 222.477 104.438 l 302.031 104.438 l 308.078 104.438 313.695
 101.434 317.051 96.398 c 320.316 91.5 l 322.078 88.855 325.391 87.789 328.363
 88.902 c 355.906 99.234 l 357.738 99.918 359.137 101.297 359.852 103.113
 c 360.562 104.934 360.477 106.895 359.602 108.641 c 356.785 114.277 l 355.625
 116.598 353.293 118.035 350.703 118.035 c 321.875 118.035 l 321.875 117.449
 l 321.875 114.344 319.359 111.824 316.25 111.824 c 313.145 111.824 310.625
 114.344 310.625 117.449 c 310.625 118.039 l h
316.25 153.465 m 349.945 211.227 l 282.555 211.227 l h
360.324 254.977 m 360.324 265.105 352.082 273.352 341.949 273.352 c 290.551
 273.352 l 280.418 273.352 272.176 265.105 272.176 254.977 c 272.176 247.324
 l 360.324 247.324 l h
365.949 236.074 m 266.551 236.074 l 262.801 236.074 259.75 233.023 259.75
 229.277 c 259.75 225.527 262.801 222.477 266.551 222.477 c 359.727 222.477
 l 359.73 222.477 359.738 222.477 359.742 222.477 c 359.75 222.477 359.754
 222.477 359.762 222.477 c 365.949 222.477 l 369.699 222.477 372.75 225.527
 372.75 229.277 c 372.75 233.023 369.699 236.074 365.949 236.074 c h
365.949 236.074 m f
Q Q
showpage
%%Trailer
end
%%EOF
