%!PS-Adobe-3.0 EPSF-3.0
%%Creator: cairo 1.16.0 (https://cairographics.org)
%%CreationDate: Tue Feb  2 14:48:03 2021
%%Pages: 1
%%DocumentData: Clean7Bit
%%LanguageLevel: 2
%%BoundingBox: 3 3 381 381
%%EndComments
%%BeginProlog
50 dict begin
/q { gsave } bind def
/Q { grestore } bind def
/cm { 6 array astore concat } bind def
/w { setlinewidth } bind def
/J { setlinecap } bind def
/j { setlinejoin } bind def
/M { setmiterlimit } bind def
/d { setdash } bind def
/m { moveto } bind def
/l { lineto } bind def
/c { curveto } bind def
/h { closepath } bind def
/re { exch dup neg 3 1 roll 5 3 roll moveto 0 rlineto
      0 exch rlineto 0 rlineto closepath } bind def
/S { stroke } bind def
/f { fill } bind def
/f* { eofill } bind def
/n { newpath } bind def
/W { clip } bind def
/W* { eoclip } bind def
/BT { } bind def
/ET { } bind def
/BDC { mark 3 1 roll /BDC pdfmark } bind def
/EMC { mark /EMC pdfmark } bind def
/cairo_store_point { /cairo_point_y exch def /cairo_point_x exch def } def
/Tj { show currentpoint cairo_store_point } bind def
/TJ {
  {
    dup
    type /stringtype eq
    { show } { -0.001 mul 0 cairo_font_matrix dtransform rmoveto } ifelse
  } forall
  currentpoint cairo_store_point
} bind def
/cairo_selectfont { cairo_font_matrix aload pop pop pop 0 0 6 array astore
    cairo_font exch selectfont cairo_point_x cairo_point_y moveto } bind def
/Tf { pop /cairo_font exch def /cairo_font_matrix where
      { pop cairo_selectfont } if } bind def
/Td { matrix translate cairo_font_matrix matrix concatmatrix dup
      /cairo_font_matrix exch def dup 4 get exch 5 get cairo_store_point
      /cairo_font where { pop cairo_selectfont } if } bind def
/Tm { 2 copy 8 2 roll 6 array astore /cairo_font_matrix exch def
      cairo_store_point /cairo_font where { pop cairo_selectfont } if } bind def
/g { setgray } bind def
/rg { setrgbcolor } bind def
/d1 { setcachedevice } bind def
/cairo_data_source {
  CairoDataIndex CairoData length lt
    { CairoData CairoDataIndex get /CairoDataIndex CairoDataIndex 1 add def }
    { () } ifelse
} def
/cairo_flush_ascii85_file { cairo_ascii85_file status { cairo_ascii85_file flushfile } if } def
/cairo_image { image cairo_flush_ascii85_file } def
/cairo_imagemask { imagemask cairo_flush_ascii85_file } def
%%EndProlog
%%BeginSetup
%%EndSetup
%%Page: 1 1
%%BeginPageSetup
%%PageBoundingBox: 3 3 381 381
%%EndPageSetup
q 3 3 378 378 rectclip
1 0 0 -1 0 384 cm q
0.372549 0.803922 0.643137 rg
133.148 27.898 m 128.387 26.781 121.176 22.449 121.176 22.449 c 121.387
 27.293 119.535 30.465 116.977 34.637 c 95.895 68.984 124.785 79.059 125.453
 79.281 c 135.859 73.117 147.078 68.441 158.781 65.387 c 158.773 65.355 
l 158.773 65.355 172.828 37.23 133.148 27.898 c h
133.148 27.898 m f
173.941 62.363 m 179.926 61.535 185.957 61.121 192 61.125 c 198.02 61.125
 204.035 61.535 210 62.348 c 210.676 61.746 233.316 41.406 200.762 17.887
 c 196.793 15.023 191.805 8.25 191.805 8.25 c 190.141 12.801 187.207 15.023
 183.238 17.887 c 150.801 41.316 173.109 61.621 173.941 62.363 c h
173.941 62.363 m f
124.809 304.387 m 124.809 304.387 94.98 314.102 116.129 348.961 c 118.664
 353.137 120.621 361.32 120.621 361.32 c 123.93 357.773 127.492 356.871 
132.262 355.777 c 171.996 346.664 157.934 318.457 157.934 318.457 c 146.293
 315.324 135.145 310.586 124.809 304.387 c h
124.809 304.387 m f
305.934 127.402 m 305.879 127.434 l 311.867 137.953 316.355 149.262 319.215
 161.023 c 319.223 161.023 l 319.223 161.023 347.078 175.559 357.105 136.043
 c 358.312 131.297 362.773 124.172 362.773 124.172 c 357.922 124.297 354.781
 122.387 350.656 119.754 c 316.297 97.816 305.934 127.402 305.934 127.402
 c h
305.934 127.402 m f
225.871 65.559 m 237.535 68.672 248.711 73.398 259.074 79.598 c 259.078
 79.582 l 259.078 79.582 289.02 69.898 267.871 35.039 c 265.336 30.863 263.379
 22.68 263.379 22.68 c 260.07 26.227 256.508 27.129 251.738 28.223 c 212.406
 37.246 225.594 64.988 225.871 65.551 c h
225.871 65.559 m f
296.535 270.824 m 296.527 270.824 l 289.25 280.477 280.672 289.078 271.035
 296.379 c 271.035 296.387 l 270.996 296.961 269.047 327.742 308.926 321.309
 c 313.754 320.527 322.066 321.797 322.066 321.797 c 320.023 317.391 320.527
 313.754 321.309 308.926 c 327.742 269.047 297.105 270.789 296.535 270.824
 c h
296.535 270.824 m f
210.098 321.691 m 198.156 323.332 186.047 323.34 174.105 321.711 c 174.105
 321.711 150.195 342.238 183.238 366.113 c 187.207 368.977 192.195 375.75
 192.195 375.75 c 193.859 371.199 196.793 368.977 200.762 366.113 c 233.316
 342.594 210.773 322.289 210.098 321.691 c h
210.098 321.691 m f
78.066 256.523 m 72.145 246.09 67.695 234.891 64.844 223.238 c 64.836 223.238
 l 64.281 222.945 36.824 208.836 26.895 247.957 c 25.688 252.703 21.227 
259.828 21.227 259.828 c 26.078 259.703 29.219 261.613 33.344 264.246 c 
67.352 285.961 77.859 257.121 78.066 256.523 c h
78.066 256.523 m f
87.465 113.227 m 94.816 103.484 103.492 94.812 113.242 87.465 c 113.301
 86.379 114.602 56.316 75.074 62.691 c 70.246 63.473 61.934 62.203 61.934
 62.203 c 63.977 66.609 63.473 70.246 62.691 75.074 c 56.199 115.328 87.465
 113.227 87.465 113.227 c h
87.465 113.227 m f
270.773 87.473 m 280.605 94.887 289.348 103.652 296.738 113.504 c 296.746
 113.504 l 297.344 113.535 327.734 114.93 321.309 75.074 c 320.527 70.246
 321.797 61.934 321.797 61.934 c 317.391 63.977 313.754 63.473 308.926 62.691
 c 269.234 56.289 270.719 86.625 270.773 87.473 c h
270.773 87.473 m f
28.727 130.898 m 37.508 170.707 65.844 156.984 65.844 156.984 c 69.082 
145.301 73.938 134.125 80.273 123.789 c 80.227 123.758 l 80.227 123.758 
70.719 93.969 35.684 114.824 c 31.477 117.324 23.281 119.211 23.281 119.211
 c 26.797 122.551 27.676 126.121 28.727 130.898 c h
28.727 130.898 m f
62.281 209.934 m 62.309 209.926 l 60.691 198.035 60.691 185.98 62.309 174.09
 c 62.301 174.09 l 62.301 174.09 41.762 150.195 17.887 183.238 c 15.023 
187.207 8.25 192.195 8.25 192.195 c 12.801 193.859 15.023 196.793 17.887
 200.762 c 41.762 233.805 62.281 209.934 62.281 209.934 c h
62.281 209.934 m f
355.273 253.102 m 346.492 213.293 318.195 226.98 318.195 226.98 c 318.18
 226.98 l 314.969 238.594 310.16 249.707 303.891 259.996 c 303.898 259.996
 l 303.898 259.996 313.281 290.031 348.316 269.176 c 352.523 266.676 360.719
 264.789 360.719 264.789 c 357.203 261.449 356.324 257.879 355.273 253.102
 c h
355.273 253.102 m f
258.621 304.734 m 258.613 304.734 l 248.215 310.898 237.004 315.582 225.309
 318.652 c 225.039 319.215 211.574 346.867 250.852 356.102 c 255.613 357.219
 262.824 361.551 262.824 361.551 c 262.613 356.707 264.465 353.535 267.023
 349.363 c 288.008 315.18 259.547 305.047 258.621 304.734 c h
258.621 304.734 m f
112.957 296.379 m 103.371 289.105 94.828 280.555 87.57 270.961 c 87.555
 270.977 l 87.555 270.977 56.199 268.672 62.691 308.926 c 63.473 313.754
 62.203 322.066 62.203 322.066 c 66.609 320.023 70.246 320.527 75.074 321.309
 c 115.328 327.801 112.957 296.379 112.957 296.379 c h
112.957 296.379 m f
366.113 183.238 m 342.547 150.621 322.191 173.355 321.668 173.953 c 323.312
 185.902 323.316 198.02 321.684 209.969 c 321.699 209.969 l 321.699 209.969
 342.238 233.805 366.113 200.762 c 368.977 196.793 375.75 191.805 375.75
 191.805 c 371.199 190.141 368.977 187.207 366.113 183.238 c h
366.113 183.238 m f
0.729412 0.670588 0.831373 rg
323.625 192 m 323.625 264.695 264.695 323.625 192 323.625 c 119.305 323.625
 60.375 264.695 60.375 192 c 60.375 119.305 119.305 60.375 192 60.375 c 
264.695 60.375 323.625 119.305 323.625 192 c h
323.625 192 m f
0.545098 0.701961 0.921569 rg
192.75 79.746 m 238.156 79.746 279.09 107.098 296.465 149.047 c 313.84 
190.996 304.234 239.281 272.129 271.387 c 240.023 303.492 191.738 313.098
 149.789 295.723 c 107.84 278.348 80.488 237.414 80.488 192.008 c 80.492
 130.008 130.75 79.746 192.75 79.746 c h
192.75 79.746 m f
0.403922 0.541176 0.698039 rg
102.988 192.008 m 102.996 134.367 146.648 86.094 204 80.309 c 200.301 79.938
 196.551 79.754 192.75 79.746 c 130.75 79.746 80.488 130.008 80.488 192.008
 c 80.488 254.008 130.75 304.266 192.75 304.266 c 196.547 304.266 200.297
 304.082 204 303.707 c 146.648 297.926 102.992 249.648 102.988 192.008 c
 h
102.988 192.008 m f
1 0.878431 0.490196 rg
125.969 192.645 m 154.453 240.406 l 96.742 240.406 l h
125.969 192.645 m f
155.961 143.641 m 125.969 192.645 l 96.742 143.641 l h
155.961 143.641 m f
1 0.662745 0.372549 rg
258.031 191.398 m 228.039 240.406 l 154.453 240.406 l 125.969 192.645 l
 155.961 143.641 l 229.547 143.641 l h
258.031 191.398 m f
1 0.878431 0.490196 rg
228.039 240.406 m 190.777 301.297 l 154.453 240.406 l h
228.039 240.406 m f
287.258 143.641 m 258.031 191.398 l 229.547 143.641 l h
287.258 143.641 m f
258.031 191.398 m 287.258 240.406 l 228.039 240.406 l h
258.031 191.398 m f
229.547 143.641 m 155.961 143.641 l 193.223 82.746 l h
229.547 143.641 m f
0.901961 0.392157 0.431373 rg
191.664 163.281 m 203.535 163.285 214.234 170.438 218.777 181.406 c 223.32
 192.375 220.805 204.996 212.41 213.391 c 204.016 221.785 191.391 224.293
 180.422 219.75 c 169.457 215.203 162.305 204.5 162.309 192.629 c 162.312
 176.422 175.453 163.281 191.664 163.281 c h
191.664 163.281 m f
0.737255 0.341176 0.392157 rg
184.809 192.629 m 184.809 180.766 191.953 170.066 202.91 165.52 c 193.855
 161.766 183.52 162.777 175.367 168.223 c 167.211 173.672 162.316 182.828
 162.316 192.633 c 162.316 202.438 167.211 211.594 175.367 217.039 c 183.52
 222.484 193.855 223.5 202.91 219.746 c 191.949 215.195 184.809 204.496 
184.809 192.629 c h
184.809 192.629 m f
0.156863 0.258824 0.407843 rg
377.297 187.578 m 374.047 186.391 372.477 184.371 369.762 180.609 c 362.727
 170.871 355.199 164.773 347.309 162.371 c 353.758 157.234 358.512 148.797
 361.469 137.145 c 362.309 133.832 365.449 128.379 366.586 126.555 c 368.492
 123.516 366.242 119.574 362.652 119.672 c 359.203 119.758 356.992 118.461
 353.078 115.965 c 340.297 107.801 328.914 105.301 319.238 108.508 c 325.965
 100.809 328.16 89.328 325.75 74.359 c 325.207 70.984 325.922 64.73 326.242
 62.609 c 326.781 59.059 323.152 56.34 319.898 57.852 c 316.762 59.309 314.223
 58.992 309.641 58.25 c 297.09 56.223 287.016 57.469 279.578 61.918 c 280.938
 53.375 278.312 43.582 271.719 32.711 c 269.945 29.785 268.258 23.723 267.758
 21.637 c 266.922 18.145 262.539 16.988 260.09 19.609 c 257.73 22.141 255.258
 22.797 250.734 23.836 c 236.852 27.02 227.398 32.836 222.574 41.125 c 221.375
 31.609 214.934 22.574 203.391 14.238 c 200.617 12.238 196.703 7.312 195.43
 5.582 c 193.301 2.691 188.812 3.336 187.578 6.707 c 186.391 9.957 184.371
 11.523 180.609 14.242 c 169.555 22.223 163.184 30.848 161.598 39.922 c 
156.652 32.156 147.457 26.648 134.176 23.523 c 130.848 22.738 125.336 19.695
 123.496 18.59 c 120.422 16.742 116.527 19.059 116.68 22.641 c 116.832 26.098
 115.574 28.324 113.145 32.277 c 106.234 43.527 103.605 53.652 105.273 62.445
 c 97.766 57.562 87.395 56.145 74.359 58.246 c 70.984 58.793 64.73 58.074
 62.609 57.754 c 59.059 57.215 56.34 60.844 57.852 64.098 c 59.309 67.234
 58.988 69.773 58.25 74.355 c 56.344 86.172 57.336 95.789 61.168 103.082
 c 52.98 102.207 43.672 104.824 33.379 110.957 c 30.441 112.703 24.367 114.34
 22.273 114.824 c 18.777 115.629 17.582 120.004 20.184 122.473 c 22.695 
124.855 23.336 127.332 24.332 131.863 c 27.633 146.812 34.004 156.668 43.273
 161.16 c 43.344 161.195 43.414 161.223 43.488 161.258 c 43.402 161.258 
43.324 161.258 43.242 161.262 c 32.953 161.695 23.199 168.203 14.242 180.609
 c 12.238 183.387 7.312 187.297 5.582 188.574 c 2.691 190.703 3.336 195.191
 6.707 196.422 c 9.957 197.609 11.523 199.629 14.242 203.398 c 21.305 213.172
 28.859 219.273 36.777 221.641 c 30.281 226.738 25.5 235.176 22.535 246.859
 c 21.695 250.176 18.555 255.629 17.418 257.449 c 15.512 260.492 17.762 
264.43 21.352 264.336 c 24.805 264.254 27.012 265.543 30.926 268.043 c 40.098
 273.898 48.555 276.84 56.176 276.836 c 59.195 276.852 62.199 276.359 65.055
 275.375 c 65.078 275.367 65.098 275.359 65.121 275.352 c 65.105 275.371
 65.086 275.387 65.07 275.406 c 58.102 283.004 55.809 294.52 58.246 309.641
 c 58.793 313.016 58.078 319.27 57.754 321.391 c 57.215 324.941 60.844 327.66
 64.098 326.148 c 67.234 324.691 69.773 325.012 74.355 325.75 c 77.98 326.355
 81.645 326.672 85.316 326.691 c 92.914 326.691 99.293 325.129 104.398 322.027
 c 103.043 330.586 105.672 340.402 112.281 351.289 c 114.055 354.215 115.742
 360.277 116.242 362.363 c 117.074 365.855 121.461 367.012 123.91 364.391
 c 126.266 361.859 128.738 361.203 133.266 360.164 c 147.203 356.965 156.664
 351.121 161.43 342.773 c 162.574 352.32 169.016 361.391 180.605 369.762
 c 183.383 371.762 187.293 376.688 188.566 378.418 c 189.414 379.57 190.762
 380.25 192.195 380.25 c 192.406 380.25 192.621 380.234 192.832 380.203 
c 194.473 379.969 195.852 378.852 196.422 377.297 c 197.609 374.047 199.629
 372.477 203.395 369.762 c 214.461 361.77 220.836 353.141 222.422 344.066
 c 227.352 351.836 236.539 357.355 249.828 360.477 c 253.156 361.262 258.664
 364.305 260.508 365.41 c 263.582 367.258 267.477 364.941 267.324 361.359
 c 267.172 357.902 268.43 355.68 270.859 351.723 c 277.789 340.438 280.422
 330.293 278.734 321.492 c 283.98 324.953 290.652 326.695 298.684 326.695
 c 302.359 326.672 306.023 326.359 309.648 325.754 c 313.023 325.207 319.273
 325.922 321.398 326.246 c 324.945 326.785 327.668 323.156 326.156 319.902
 c 324.699 316.766 325.016 314.227 325.754 309.645 c 327.668 297.793 326.664
 288.16 322.805 280.871 c 323.891 280.996 324.984 281.059 326.074 281.059
 c 333.445 281.059 341.664 278.383 350.625 273.047 c 353.562 271.301 359.641
 269.66 361.734 269.18 c 365.23 268.375 366.426 264 363.82 261.527 c 361.312
 259.148 360.672 256.672 359.672 252.137 c 356.371 237.18 349.996 227.316
 340.727 222.82 c 340.688 222.801 340.648 222.785 340.609 222.77 c 340.746
 222.77 l 351.039 222.324 360.801 215.809 369.766 203.398 c 371.77 200.621
 376.695 196.711 378.422 195.438 c 381.312 193.309 380.672 188.816 377.297
 187.586 c h
321.852 117.109 m 328.871 114.684 337.746 116.852 348.234 123.547 c 350.57
 125.164 353.082 126.504 355.723 127.539 c 354.477 129.895 353.48 132.371
 352.746 134.934 c 349.699 146.934 344.742 154.566 338.012 157.617 c 332.055
 160.32 325.902 158.77 322.996 157.73 c 320.219 147.129 316.156 136.91 310.902
 127.297 c 312.273 124.605 315.676 119.246 321.852 117.109 c h
281.449 71.656 m 286.965 66.684 295.969 65.16 308.207 67.137 c 310.988 
67.691 313.828 67.922 316.66 67.824 c 316.457 70.48 316.523 73.152 316.867
 75.793 c 318.848 88.094 317.328 97.16 312.344 102.734 c 308.012 107.582
 301.883 108.695 298.844 108.945 c 291.988 100.152 284.086 92.23 275.305
 85.355 c 275.523 82.285 276.586 76.043 281.449 71.656 c h
229.688 46.898 m 232.879 40.195 240.637 35.387 252.746 32.609 c 255.531
 32.078 258.25 31.227 260.84 30.07 c 261.648 32.609 262.715 35.059 264.023
 37.379 c 270.438 47.953 272.402 56.836 269.859 63.777 c 267.602 69.949 
262.125 73.258 259.352 74.594 c 249.871 69.133 239.762 64.848 229.246 61.832
 c 228.281 58.91 226.898 52.758 229.688 46.898 c h
170.207 43.68 m 170.539 36.254 175.809 28.809 185.879 21.535 c 188.238 
19.961 190.406 18.117 192.344 16.047 c 194.074 18.07 196.012 19.91 198.121
 21.535 c 208.141 28.773 213.406 36.188 213.766 43.574 c 214.086 50.109 
210.383 55.273 208.332 57.609 c 197.461 56.289 186.473 56.293 175.602 57.617
 c 173.574 55.285 169.918 50.156 170.207 43.68 c h
120.812 36.992 m 122.387 34.629 123.68 32.094 124.672 29.438 c 127.047 
30.641 129.543 31.594 132.117 32.285 c 144.16 35.117 151.879 39.938 155.047
 46.609 c 157.859 52.531 156.402 58.73 155.41 61.648 c 144.863 64.613 134.719
 68.855 125.203 74.281 c 122.43 72.914 117.035 69.566 114.82 63.398 c 112.32
 56.426 114.336 47.539 120.812 36.992 c h
67.133 75.793 m 67.691 73.012 67.922 70.172 67.824 67.336 c 70.48 67.543
 73.152 67.477 75.793 67.137 c 88.031 65.16 97.035 66.684 102.555 71.656
 c 107.418 76.039 108.48 82.27 108.703 85.348 c 100.004 92.156 92.164 99.996
 85.352 108.691 c 82.312 108.477 76.094 107.434 71.711 102.621 c 66.691 
97.113 65.152 88.086 67.133 75.793 c h
33.121 129.926 m 32.613 127.133 31.781 124.41 30.648 121.812 c 33.191 121.027
 35.648 119.98 37.98 118.688 c 48.648 112.34 57.586 110.434 64.539 113.027
 c 70.688 115.32 73.949 120.762 75.254 123.508 c 69.68 132.961 65.285 143.059
 62.164 153.578 c 59.223 154.535 53 155.914 47.117 153.023 c 40.496 149.773
 35.785 142 33.121 129.926 c h
21.535 198.121 m 19.961 195.762 18.117 193.594 16.047 191.656 c 18.07 189.926
 19.91 187.988 21.535 185.879 c 28.77 175.863 36.172 170.609 43.539 170.258
 c 50.09 169.945 55.262 173.703 57.578 175.754 c 56.273 186.551 56.27 197.461
 57.574 208.258 c 55.289 210.289 50.148 214.043 43.629 213.758 c 36.234 
213.445 28.801 208.184 21.535 198.121 c h
62.109 266.871 m 55.098 269.297 46.234 267.141 35.762 260.453 c 33.426 
258.836 30.914 257.496 28.273 256.461 c 29.52 254.105 30.516 251.629 31.254
 249.066 c 34.285 237.113 39.223 229.52 45.93 226.508 c 51.922 223.809 58.137
 225.438 61.051 226.508 c 63.82 237.016 67.855 247.152 73.066 256.695 c 
71.672 259.418 68.258 264.746 62.113 266.871 c h
102.398 312.352 m 96.941 317.316 87.988 318.836 75.789 316.863 c 73.008
 316.309 70.168 316.078 67.336 316.176 c 67.543 313.52 67.473 310.848 67.133
 308.207 c 65.16 295.992 66.684 287.023 71.645 281.551 c 76.07 276.676 82.395
 275.68 85.453 275.496 c 92.172 284.051 99.891 291.773 108.445 298.5 c 108.262
 301.574 107.273 307.922 102.402 312.352 c h
154.223 337.145 m 151.066 343.828 143.336 348.621 131.25 351.391 c 128.465
 351.922 125.746 352.773 123.156 353.93 c 122.352 351.391 121.281 348.941
 119.973 346.621 c 113.543 336.027 111.574 327.121 114.113 320.172 c 116.355
 314.031 121.754 310.727 124.52 309.383 c 133.98 314.844 144.066 319.137
 154.562 322.16 c 155.551 325.066 157.008 331.258 154.227 337.145 c h
213.805 340.312 m 213.477 347.73 208.199 355.184 198.117 362.465 c 195.758
 364.039 193.59 365.883 191.652 367.953 c 189.922 365.93 187.984 364.09 
185.879 362.465 c 175.863 355.23 170.605 347.828 170.262 340.469 c 169.953
 333.93 173.695 328.77 175.754 326.449 c 186.605 327.762 197.578 327.754
 208.43 326.43 c 210.449 328.746 214.098 333.852 213.809 340.312 c h
263.184 347.008 m 261.609 349.371 260.316 351.906 259.324 354.562 c 256.949
 353.359 254.453 352.406 251.879 351.715 c 239.844 348.887 232.141 344.07
 228.988 337.406 c 226.191 331.496 227.652 325.305 228.656 322.379 c 239.199
 319.406 249.34 315.16 258.855 309.73 c 261.613 311.09 266.984 314.43 269.188
 320.578 c 271.695 327.555 269.672 336.445 263.188 347.008 c h
192 318.426 m 122.301 318.426 65.598 261.723 65.598 192.023 c 65.598 122.324
 122.301 65.625 192 65.625 c 261.699 65.625 318.402 122.324 318.402 192.023
 c 318.402 261.723 261.699 318.426 192 318.426 c h
316.867 308.207 m 316.309 310.988 316.078 313.828 316.176 316.664 c 313.52
 316.457 310.848 316.523 308.207 316.863 c 296.008 318.832 287.059 317.316
 281.594 312.352 c 276.719 307.922 275.73 301.582 275.547 298.508 c 284.148
 291.742 291.902 283.969 298.648 275.352 c 301.688 275.562 307.906 276.602
 312.285 281.402 c 317.309 286.898 318.848 295.918 316.867 308.207 c h
350.879 254.074 m 351.387 256.867 352.219 259.59 353.352 262.188 c 350.809
 262.973 348.352 264.02 346.02 265.312 c 335.391 271.637 326.5 273.523 319.594
 270.922 c 313.441 268.602 310.188 263.098 308.883 260.312 c 314.402 250.902
 318.762 240.855 321.859 230.395 c 324.766 229.449 330.945 228.078 336.797
 230.918 c 343.465 234.148 348.203 241.941 350.879 254.074 c h
362.465 198.125 m 355.223 208.152 347.812 213.414 340.438 213.77 c 333.891
 214.082 328.734 210.352 326.422 208.305 c 327.734 197.449 327.73 186.469
 326.406 175.613 c 328.719 173.582 333.84 169.902 340.324 170.211 c 347.742
 170.539 355.191 175.812 362.465 185.887 c 364.039 188.246 365.883 190.418
 367.953 192.355 c 365.93 194.082 364.09 196.016 362.465 198.121 c h
362.465 198.125 m f
191.66 158.781 m 177.969 158.781 165.625 167.027 160.387 179.676 c 155.145
 192.328 158.043 206.887 167.723 216.57 c 177.406 226.25 191.965 229.148
 204.617 223.91 c 217.266 218.668 225.516 206.324 225.516 192.633 c 225.492
 173.945 210.352 158.801 191.66 158.781 c h
191.66 217.484 m 181.609 217.484 172.547 211.43 168.699 202.145 c 164.855
 192.855 166.98 182.168 174.09 175.059 c 181.195 167.949 191.887 165.824
 201.172 169.672 c 210.461 173.52 216.516 182.582 216.516 192.633 c 216.5
 206.352 205.383 217.469 191.66 217.484 c h
191.66 217.484 m f
309.461 188.594 m 307.68 126.605 257.09 76.492 195.086 75.273 c 135.727
 74.109 86.078 117.488 77.355 174.18 c 76.93 176.914 79.039 179.379 81.805
 179.383 c 81.809 179.383 l 84.031 179.383 85.918 177.758 86.25 175.559 
c 87.699 166.152 90.398 156.984 94.277 148.293 c 120.711 192.617 l 94.293
 235.793 l 89.844 225.828 86.945 215.242 85.699 204.398 c 84.906 198.633
 76.312 199.547 76.754 205.352 c 83.395 263.477 132.879 308.77 192.75 308.77
 c 258.266 308.766 311.352 254.527 309.461 188.594 c h
286.57 139.145 m 232.094 139.145 l 199.484 84.469 l 235.883 86.816 268.637
 107.383 286.57 139.145 c h
257.98 200.109 m 279.332 235.906 l 236.074 235.906 l h
225.523 235.906 m 157.016 235.906 l 131.23 192.676 l 158.48 148.145 l 226.984
 148.145 l 252.77 191.379 l h
237.465 148.145 m 279.227 148.145 l 258.074 182.703 l h
193.172 91.453 m 221.617 139.145 l 163.984 139.145 l h
186.926 84.414 m 153.434 139.145 l 98.883 139.145 l 116.965 107.07 150.16
 86.434 186.926 84.414 c h
104.668 148.145 m 147.926 148.145 l 126.02 183.941 l h
125.926 201.344 m 146.539 235.906 l 104.773 235.906 l h
98.902 244.906 m 151.906 244.906 l 184.434 299.445 l 148.621 296.637 116.555
 276.191 98.898 244.906 c h
190.832 292.598 m 162.383 244.906 l 220.016 244.906 l h
197.051 299.676 m 230.566 244.906 l 286.605 244.906 l 268.25 277.438 234.371
 298.156 197.051 299.676 c h
290.57 237.18 m 263.285 191.434 l 290.551 146.887 l 303.824 175.52 303.832
 208.543 290.57 237.184 c h
290.57 237.18 m f
Q Q
showpage
%%Trailer
end
%%EOF
