%!PS-Adobe-3.0 EPSF-3.0
%%Creator: cairo 1.16.0 (https://cairographics.org)
%%CreationDate: Tue Feb  2 14:48:03 2021
%%Pages: 1
%%DocumentData: Clean7Bit
%%LanguageLevel: 2
%%BoundingBox: 9 2 375 382
%%EndComments
%%BeginProlog
50 dict begin
/q { gsave } bind def
/Q { grestore } bind def
/cm { 6 array astore concat } bind def
/w { setlinewidth } bind def
/J { setlinecap } bind def
/j { setlinejoin } bind def
/M { setmiterlimit } bind def
/d { setdash } bind def
/m { moveto } bind def
/l { lineto } bind def
/c { curveto } bind def
/h { closepath } bind def
/re { exch dup neg 3 1 roll 5 3 roll moveto 0 rlineto
      0 exch rlineto 0 rlineto closepath } bind def
/S { stroke } bind def
/f { fill } bind def
/f* { eofill } bind def
/n { newpath } bind def
/W { clip } bind def
/W* { eoclip } bind def
/BT { } bind def
/ET { } bind def
/BDC { mark 3 1 roll /BDC pdfmark } bind def
/EMC { mark /EMC pdfmark } bind def
/cairo_store_point { /cairo_point_y exch def /cairo_point_x exch def } def
/Tj { show currentpoint cairo_store_point } bind def
/TJ {
  {
    dup
    type /stringtype eq
    { show } { -0.001 mul 0 cairo_font_matrix dtransform rmoveto } ifelse
  } forall
  currentpoint cairo_store_point
} bind def
/cairo_selectfont { cairo_font_matrix aload pop pop pop 0 0 6 array astore
    cairo_font exch selectfont cairo_point_x cairo_point_y moveto } bind def
/Tf { pop /cairo_font exch def /cairo_font_matrix where
      { pop cairo_selectfont } if } bind def
/Td { matrix translate cairo_font_matrix matrix concatmatrix dup
      /cairo_font_matrix exch def dup 4 get exch 5 get cairo_store_point
      /cairo_font where { pop cairo_selectfont } if } bind def
/Tm { 2 copy 8 2 roll 6 array astore /cairo_font_matrix exch def
      cairo_store_point /cairo_font where { pop cairo_selectfont } if } bind def
/g { setgray } bind def
/rg { setrgbcolor } bind def
/d1 { setcachedevice } bind def
/cairo_data_source {
  CairoDataIndex CairoData length lt
    { CairoData CairoDataIndex get /CairoDataIndex CairoDataIndex 1 add def }
    { () } ifelse
} def
/cairo_flush_ascii85_file { cairo_ascii85_file status { cairo_ascii85_file flushfile } if } def
/cairo_image { image cairo_flush_ascii85_file } def
/cairo_imagemask { imagemask cairo_flush_ascii85_file } def
%%EndProlog
%%BeginSetup
%%EndSetup
%%Page: 1 1
%%BeginPageSetup
%%PageBoundingBox: 9 2 375 382
%%EndPageSetup
q 9 2 366 380 rectclip
1 0 0 -1 0 384 cm q
0.768627 0.67451 0.411765 rg
209.797 193.566 m 209.797 198.234 l 209.766 198.285 l 204.32 195.66 198.348
 194.301 192.301 194.301 c 186.395 194.293 180.559 195.602 175.223 198.137
 c 175.223 193.566 l 175.223 188.984 177.043 184.586 180.285 181.344 c 183.527
 178.102 187.926 176.281 192.512 176.281 c 197.094 176.281 201.492 178.102
 204.734 181.344 c 207.977 184.586 209.797 188.984 209.797 193.566 c h
209.797 193.566 m f
0.94902 0.831373 0.462745 rg
175.223 198.137 m 180.559 195.602 186.395 194.293 192.301 194.301 c 214.434
 194.312 232.434 212.145 232.648 234.277 c 232.648 244.777 l 152.379 244.777
 l 152.379 234.277 l 152.367 218.828 161.262 204.754 175.223 198.137 c h
175.223 198.137 m f
0.545098 0.701961 0.921569 rg
232.648 244.777 m 232.648 265.012 l 232.648 265.012 232.641 265.281 232.629
 265.777 c 152.391 265.777 l 152.387 265.281 152.379 265.012 152.379 265.012
 c 152.379 244.777 l h
232.648 244.777 m f
0.94902 0.831373 0.462745 rg
239.477 292.266 m 145.551 292.266 l 152.438 288.547 152.469 269.812 152.391
 265.777 c 232.629 265.777 l 232.559 269.812 232.59 288.547 239.477 292.266
 c h
239.477 292.266 m f
0.466667 0.286275 0.262745 rg
331.238 351.457 m 284.488 351.457 l 277.797 351.461 272.371 356.887 272.371
 363.578 c 272.371 374.355 l 272.371 375.594 273.375 376.598 274.613 376.598
 c 341.113 376.598 l 342.352 376.598 343.355 375.594 343.359 374.355 c 343.359
 363.578 l 343.355 356.887 337.93 351.461 331.238 351.457 c h
331.238 351.457 m f
0.780392 0.603922 0.513726 rg
310.648 110.258 m 290.363 110.258 l 290.363 351.457 l 325.363 351.457 l
 325.363 108.422 l 320.555 109.645 315.613 110.262 310.648 110.258 c h
310.648 110.258 m f
73.352 110.258 m 68.387 110.262 63.445 109.645 58.637 108.422 c 58.637 
351.457 l 93.637 351.457 l 93.637 110.258 l h
73.352 110.258 m f
0.760784 0.407843 0.309804 rg
93.637 130.262 196.727 25.086 re f
0.466667 0.286275 0.262745 rg
93.637 110.258 196.727 20.004 re f
0.639216 0.47451 0.403922 rg
73.352 110.25 m 68.344 110.27 63.352 109.656 58.5 108.422 c 58.5 351.75
 l 81 351.75 l 81 110.25 l h
73.352 110.25 m f
0.768627 0.356863 0.407843 rg
75 61.41 m 75 61.402 l 74.398 61.445 73.809 61.477 73.211 61.516 c 73.816
 61.551 74.426 61.586 75.039 61.613 c 75.027 61.547 75.012 61.48 75 61.41
 c h
75 61.41 m f
0.466667 0.286275 0.262745 rg
99.512 351.457 m 52.762 351.457 l 46.07 351.461 40.645 356.887 40.641 363.578
 c 40.641 374.355 l 40.645 375.594 41.648 376.598 42.887 376.598 c 109.387
 376.598 l 110.625 376.598 111.629 375.594 111.629 374.355 c 111.629 363.578
 l 111.629 356.887 106.203 351.461 99.512 351.457 c h
99.512 351.457 m f
0.388235 0.243137 0.231373 rg
63 374.355 m 63 363.578 l 63 356.887 68.574 351.75 75.262 351.75 c 52.762
 351.75 l 46.074 351.75 40.5 356.887 40.5 363.578 c 40.5 374.355 l 40.578
 375.602 41.637 376.555 42.887 376.5 c 65.387 376.5 l 64.137 376.555 63.078
 375.602 63 374.355 c h
63 374.355 m f
0.768627 0.356863 0.407843 rg
369.75 55.094 m 367.652 86.176 341.805 110.305 310.648 110.258 c 243.148
 110.258 l 271.969 110.258 296.613 89.527 301.547 61.133 c 301.547 61.125
 l 324.457 63.062 347.531 61.023 369.75 55.094 c h
369.75 55.094 m f
133.352 110.258 m 73.352 110.258 l 42.512 110.301 16.816 86.648 14.309 
55.914 c 34.125 60.914 54.605 62.77 75 61.402 c 75 61.41 l 80.051 89.676
 104.637 110.258 133.352 110.258 c h
133.352 110.258 m f
0.901961 0.392157 0.431373 rg
301.547 61.125 m 301.547 61.133 l 296.613 89.527 271.969 110.258 243.148
 110.258 c 133.352 110.258 l 104.637 110.258 80.051 89.676 75 61.41 c 75
 61.402 l 109.859 58.988 151.859 46.109 189.652 7.402 c 226.191 44.828 267
 58.109 301.547 61.125 c h
301.547 61.125 m f
0.627451 0.313726 0.364706 rg
73.352 110.25 m 95.852 110.25 l 66.684 110.301 41.836 89.078 37.32 60.266
 c 29.57 59.281 21.887 57.828 14.309 55.914 c 16.812 86.648 42.512 110.301
 73.352 110.25 c h
73.352 110.25 m f
0.156863 0.258824 0.407843 rg
73.5 123.762 m 71.016 123.762 69 125.777 69 128.262 c 69 130.289 l 69 136.289
 78 136.289 78 130.289 c 78 128.262 l 78 125.777 75.984 123.762 73.5 123.762
 c h
73.5 123.762 m f
73.5 140.309 m 71.016 140.309 69 142.324 69 144.809 c 69 209.84 l 69 215.84
 78 215.84 78 209.84 c 78 144.809 l 78 142.324 75.984 140.309 73.5 140.309
 c h
73.5 140.309 m f
367.918 35.699 m 365.477 36.176 363.883 38.535 364.359 40.977 c 365.031
 44.473 365.359 48.031 365.336 51.594 c 350.738 55.227 324.582 59.75 294.461
 55.84 c 255.531 50.785 221.352 33.43 192.871 4.262 c 191.105 2.453 188.199
 2.453 186.434 4.262 c 124.551 67.645 50.84 59.879 18.664 52.344 c 18.586
 48.531 18.914 44.719 19.641 40.977 c 20.785 35.086 11.949 33.367 10.805
 39.258 c 7.188 57.797 12.074 76.98 24.121 91.523 c 31.949 101.051 42.375
 108.098 54.133 111.812 c 54.133 346.957 l 52.766 346.957 l 43.59 346.969
 36.152 354.406 36.141 363.582 c 36.141 374.352 l 36.145 378.074 39.164 
381.09 42.887 381.094 c 109.387 381.094 l 113.109 381.09 116.129 378.074
 116.133 374.352 c 116.133 363.582 l 116.121 354.406 108.684 346.969 99.508
 346.957 c 98.137 346.957 l 98.137 159.852 l 188.012 159.852 l 188.012 172.227
 l 177.938 174.371 170.734 183.266 170.727 193.566 c 170.727 195.414 l 156.629
 203.27 147.883 218.137 147.875 234.273 c 147.875 265.184 l 148.289 276.102
 146.289 285.242 144.051 287.766 c 140.914 287.766 l 134.914 287.766 134.914
 296.766 140.914 296.766 c 244.098 296.766 l 250.098 296.766 250.098 287.766
 244.098 287.766 c 240.969 287.766 l 238.73 285.242 236.73 276.105 237.141
 265.188 c 237.141 265.129 237.141 265.07 237.141 265.012 c 237.141 234.273
 l 237.105 218.18 228.363 203.363 214.293 195.543 c 214.293 193.566 l 214.285
 183.27 207.078 174.375 197.008 172.227 c 197.008 159.852 l 285.863 159.852
 l 285.863 346.957 l 284.492 346.957 l 275.316 346.969 267.879 354.406 267.867
 363.582 c 267.867 374.352 l 267.871 378.074 270.891 381.09 274.613 381.094
 c 341.113 381.094 l 344.836 381.09 347.855 378.074 347.859 374.352 c 347.859
 363.582 l 347.848 354.406 340.41 346.969 331.234 346.957 c 329.863 346.957
 l 329.863 111.812 l 341.621 108.098 352.047 101.051 359.875 91.523 c 371.922
 76.98 376.809 57.797 373.191 39.258 c 372.719 36.82 370.355 35.227 367.918
 35.699 c h
189.652 13.777 m 218.926 42.484 253.773 59.633 293.305 64.766 c 294.234
 64.883 295.16 64.996 296.078 65.098 c 289.672 89.074 267.957 105.754 243.145
 105.762 c 133.352 105.762 l 108.633 105.832 86.949 89.289 80.492 65.426
 c 114.125 62.152 153.629 49.109 189.652 13.777 c h
99.508 355.957 m 103.715 355.961 107.125 359.371 107.133 363.582 c 107.133
 372.094 l 45.141 372.094 l 45.141 363.582 l 45.148 359.371 48.559 355.961
 52.766 355.957 c h
63.133 346.957 m 63.133 113.941 l 66.512 114.484 69.93 114.762 73.352 114.762
 c 89.137 114.762 l 89.137 346.961 l h
73.352 105.762 m 47.27 105.762 24.805 87.367 19.664 61.793 c 33.562 64.797
 47.742 66.312 61.961 66.32 c 65.031 66.32 68.172 66.246 71.391 66.09 c 
75.375 82.711 85.91 97.02 100.598 105.762 c h
156.875 249.277 m 228.148 249.277 l 228.148 261.277 l 156.875 261.277 l
 h
154.105 287.766 m 156.18 282.211 156.785 275.355 156.906 270.277 c 228.117
 270.277 l 228.238 275.355 228.844 282.211 230.918 287.766 c h
228.148 234.273 m 228.148 240.273 l 156.875 240.273 l 156.875 234.273 l
 156.883 214.703 172.73 198.836 192.301 198.801 c 212.066 198.801 228.148
 214.715 228.148 234.273 c h
205.145 191.672 m 200.973 190.43 196.648 189.801 192.301 189.801 c 188.102
 189.801 183.926 190.402 179.895 191.578 c 180.855 185.336 186.242 180.734
 192.559 180.758 c 198.875 180.781 204.227 185.418 205.145 191.672 c h
98.137 150.852 m 98.137 134.762 l 114.375 134.762 l 120.375 134.762 120.375
 125.762 114.375 125.762 c 98.137 125.762 l 98.137 114.762 l 285.863 114.762
 l 285.863 125.762 l 144.375 125.762 l 138.375 125.762 138.375 134.762 144.375
 134.762 c 285.863 134.762 l 285.863 150.852 l h
331.238 355.957 m 335.445 355.961 338.855 359.371 338.859 363.582 c 338.859
 372.094 l 276.867 372.094 l 276.867 363.582 l 276.875 359.371 280.285 355.961
 284.492 355.957 c h
294.863 346.957 m 294.863 114.758 l 310.648 114.758 l 314.07 114.758 317.488
 114.484 320.867 113.938 c 320.867 346.957 l h
352.93 85.801 m 342.539 98.453 327.023 105.781 310.648 105.762 c 275.805
 105.762 l 290.551 96.973 301.133 82.605 305.145 65.914 c 309.57 66.207 
313.891 66.344 318.07 66.344 c 333.684 66.328 349.242 64.555 364.457 61.059
 c 362.785 70.152 358.816 78.672 352.93 85.801 c h
352.93 85.801 m f
Q Q
showpage
%%Trailer
end
%%EOF
