%!PS-Adobe-3.0 EPSF-3.0
%%Creator: cairo 1.16.0 (https://cairographics.org)
%%CreationDate: Tue Feb  2 14:48:04 2021
%%Pages: 1
%%DocumentData: Clean7Bit
%%LanguageLevel: 2
%%BoundingBox: 40 3 344 381
%%EndComments
%%BeginProlog
50 dict begin
/q { gsave } bind def
/Q { grestore } bind def
/cm { 6 array astore concat } bind def
/w { setlinewidth } bind def
/J { setlinecap } bind def
/j { setlinejoin } bind def
/M { setmiterlimit } bind def
/d { setdash } bind def
/m { moveto } bind def
/l { lineto } bind def
/c { curveto } bind def
/h { closepath } bind def
/re { exch dup neg 3 1 roll 5 3 roll moveto 0 rlineto
      0 exch rlineto 0 rlineto closepath } bind def
/S { stroke } bind def
/f { fill } bind def
/f* { eofill } bind def
/n { newpath } bind def
/W { clip } bind def
/W* { eoclip } bind def
/BT { } bind def
/ET { } bind def
/BDC { mark 3 1 roll /BDC pdfmark } bind def
/EMC { mark /EMC pdfmark } bind def
/cairo_store_point { /cairo_point_y exch def /cairo_point_x exch def } def
/Tj { show currentpoint cairo_store_point } bind def
/TJ {
  {
    dup
    type /stringtype eq
    { show } { -0.001 mul 0 cairo_font_matrix dtransform rmoveto } ifelse
  } forall
  currentpoint cairo_store_point
} bind def
/cairo_selectfont { cairo_font_matrix aload pop pop pop 0 0 6 array astore
    cairo_font exch selectfont cairo_point_x cairo_point_y moveto } bind def
/Tf { pop /cairo_font exch def /cairo_font_matrix where
      { pop cairo_selectfont } if } bind def
/Td { matrix translate cairo_font_matrix matrix concatmatrix dup
      /cairo_font_matrix exch def dup 4 get exch 5 get cairo_store_point
      /cairo_font where { pop cairo_selectfont } if } bind def
/Tm { 2 copy 8 2 roll 6 array astore /cairo_font_matrix exch def
      cairo_store_point /cairo_font where { pop cairo_selectfont } if } bind def
/g { setgray } bind def
/rg { setrgbcolor } bind def
/d1 { setcachedevice } bind def
/cairo_data_source {
  CairoDataIndex CairoData length lt
    { CairoData CairoDataIndex get /CairoDataIndex CairoDataIndex 1 add def }
    { () } ifelse
} def
/cairo_flush_ascii85_file { cairo_ascii85_file status { cairo_ascii85_file flushfile } if } def
/cairo_image { image cairo_flush_ascii85_file } def
/cairo_imagemask { imagemask cairo_flush_ascii85_file } def
%%EndProlog
%%BeginSetup
%%EndSetup
%%Page: 1 1
%%BeginPageSetup
%%PageBoundingBox: 40 3 344 381
%%EndPageSetup
q 40 3 304 378 rectclip
1 0 0 -1 0 384 cm q
0.415686 0.866667 0.780392 rg
193.828 8.25 m 145.059 8.281 105.539 47.836 105.555 96.609 c 105.555 132.383
 126.613 162.75 157.172 177 c 157.176 177 l 228.434 177.891 l 267.027 161.414
 288.707 120.07 280.32 78.957 c 271.934 37.844 235.793 8.297 193.828 8.25
 c h
193.828 8.25 m f
0.333333 0.639216 0.580392 rg
128.055 96.609 m 128.047 52.184 161.023 14.66 205.078 8.961 c 179.902 5.746
 154.559 13.52 135.512 30.293 c 116.465 47.07 105.551 71.227 105.555 96.609
 c 105.555 132.383 126.613 162.75 157.172 177 c 179.672 177 l 149.113 162.75
 128.055 132.383 128.055 96.609 c h
128.055 96.609 m f
0.984314 0.403922 0.443137 rg
308.746 270.914 m 296.348 219.824 l 293.348 209.055 289.344 201.383 281.211
 195.75 c 276.277 192.324 269.82 189.652 261.141 187.492 c 253.898 185.77
 246.562 184.465 239.168 183.586 c 223.461 265.719 156.141 284.918 156.141
 284.918 c 154.449 316.012 l 257.527 316.012 l 292.148 302.602 l 304.863
 297.719 311.969 284.148 308.746 270.914 c h
308.746 270.914 m f
0.937255 0.772549 0.592157 rg
240.906 106.926 m 240.906 106.926 259.449 106.574 244.719 130.98 c 243.562
 132.906 242.574 134.422 242.297 135.953 c 239.551 150.84 226.941 141.309
 226.941 141.309 c 229.891 135.922 231.43 129.875 231.422 123.734 c 231.422
 111.18 l 231.938 111.18 l 235.414 111.18 238.707 109.621 240.906 106.926
 c h
240.906 106.926 m f
0.427451 0.454902 0.52549 rg
243.539 94.336 m 243.539 99.555 l 243.543 105.969 238.352 111.172 231.938
 111.18 c 231.422 111.18 l 231.422 95.453 l 231.422 89.977 228.816 84.828
 224.406 81.586 c 222.395 80.18 219.984 79.449 217.531 79.5 c 214.785 79.555
 212.086 80.184 209.602 81.352 c 200.902 87.195 191.934 87.488 180.988 80.902
 c 179.453 79.801 176.805 79.148 174.121 79.148 c 171.523 79.148 168.891
 79.754 167.199 81.156 c 161.691 84.641 158.352 90.699 158.348 97.215 c 
158.348 111.18 l 151.938 111.168 146.746 105.965 146.754 99.555 c 146.754
 94.336 l 146.754 77.648 155.16 67.402 167.961 58.68 c 170.758 56.781 172.578
 53.75 172.949 50.391 c 173.723 43.395 177.629 32.039 194.871 32.031 c 210.879
 32.031 215.273 43.695 216.465 50.574 c 217.008 53.66 218.809 56.387 221.438
 58.094 c 234.734 66.734 243.539 77.273 243.539 94.336 c h
243.539 94.336 m f
0.988235 0.52549 0.572549 rg
156.141 260.324 m 156.141 235.516 l 156.141 235.516 211.559 234.457 224.641
 174.066 c 225.832 175.402 227.102 176.668 228.434 177.863 c 231.898 180.922
 235.629 183.129 239.168 183.586 c 223.461 265.719 156.141 284.918 156.141
 284.918 c h
156.141 260.324 m f
0.937255 0.772549 0.592157 rg
213.961 154.965 m 173.551 153.457 l 171.227 162.398 164.168 171.172 157.176
 176.941 c 157.172 176.941 l 156.824 177.227 156.488 177.496 156.141 177.766
 c 156.141 235.516 l 156.141 235.516 211.559 234.457 224.641 174.066 c 218.871
 167.641 214.461 159.539 213.961 154.965 c h
213.961 154.965 m f
156.137 294.277 m 139.664 284.918 l 120.016 273.742 l 120.031 273.719 l
 118.566 188.527 l 98.918 194.297 92.152 203.633 87.652 219.824 c 75.254
 270.914 l 72.031 284.148 79.137 297.719 91.852 302.602 c 126.668 316.012
 l 157.449 316.012 l 157.449 315.879 l 166.043 299.91 l h
156.137 294.277 m f
163.914 143.16 m 163.914 143.16 151.418 147.734 149.176 135.953 c 148.883
 134.422 147.906 132.906 146.754 130.98 c 132.023 106.574 149.754 107.355
 149.754 107.355 c 151.945 109.793 155.07 111.184 158.348 111.18 c 158.348
 123.734 l 158.336 130.605 160.266 137.34 163.914 143.16 c h
163.914 143.16 m f
0.905882 0.317647 0.388235 rg
144.832 183.586 m 141.457 183.996 138.301 184.434 135.328 184.906 c 129.672
 185.758 124.074 186.969 118.566 188.527 c 120.031 273.719 l 120.016 273.742
 l 139.664 284.918 l 156.137 294.277 l 156.141 294.27 l 156.141 177.766 
l 151.914 181.074 147.781 183.227 144.832 183.586 c h
144.832 183.586 m f
0.937255 0.772549 0.592157 rg
230.535 309.129 m 230.891 309.77 231.078 310.492 231.074 311.227 c 231.047
 313.84 228.949 315.961 226.336 316.012 c 186.531 316.012 l 191.707 315.727
 195.637 310.621 191.797 306.172 c 197.477 301.965 l 202.672 298.078 209.297
 296.637 215.637 298.012 c 221.98 299.383 227.414 303.441 230.535 309.129
 c h
230.535 309.129 m f
1 0.847059 0.717647 rg
191.797 306.172 m 195.637 310.621 191.707 315.727 186.531 316.012 c 157.449
 316.012 l 157.449 315.879 l 153.98 315.883 151.785 312.16 153.465 309.129
 c 156.102 304.359 160.699 300.988 166.043 299.91 c 168.336 299.449 170.684
 299.309 173.016 299.484 c 179.828 299.941 186.066 302.602 188.633 303.832
 c 189.645 304.301 190.57 304.934 191.371 305.707 c 191.52 305.859 191.664
 306.016 191.797 306.172 c h
191.797 306.172 m f
224.406 81.586 m 222.395 80.18 219.984 79.449 217.531 79.5 c 214.785 79.555
 212.086 80.184 209.602 81.352 c 200.902 87.195 191.934 87.488 180.988 80.902
 c 179.453 79.801 176.805 79.148 174.121 79.148 c 171.523 79.148 168.891
 79.754 167.199 81.156 c 161.691 84.641 158.352 90.699 158.348 97.215 c 
158.348 123.734 l 158.348 143.914 174.707 160.27 194.883 160.27 c 215.062
 160.27 231.422 143.914 231.422 123.734 c 231.422 95.453 l 231.422 89.977
 228.816 84.828 224.406 81.586 c h
224.406 81.586 m f
0.760784 0.305882 0.219608 rg
339.367 344.422 m 339.367 347.34 l 339.367 363.031 326.648 375.75 310.957
 375.75 c 112.703 375.75 l 112.703 375.75 146.648 372.113 184.598 345.406
 c 226.172 316.148 256.965 316.012 257.52 316.012 c 310.957 316.012 l 326.648
 316.012 339.367 328.73 339.367 344.422 c h
339.367 344.422 m f
0.929412 0.388235 0.215686 rg
73.043 315.75 m 57.352 315.75 45 328.734 45 344.422 c 45 347.34 l 45 363.031
 57.352 375.75 73.043 375.75 c 112.703 375.75 l 112.703 375.75 146.648 371.98
 184.598 345.273 c 226.172 316.016 256.965 315.75 257.52 315.75 c h
73.043 315.75 m f
0.807843 0.658824 0.509804 rg
97.754 270.914 m 110.152 219.824 l 112.215 212.406 114.758 206.43 118.793
 201.57 c 118.566 188.527 l 98.918 194.297 92.152 203.633 87.652 219.824
 c 75.254 270.914 l 72.031 284.117 79.148 297.652 91.852 302.477 c 126.668
 315.75 l 149.168 315.75 l 114.352 302.477 l 101.648 297.652 94.531 284.117
 97.754 270.914 c h
97.754 270.914 m f
0.8 0.34902 0.227451 rg
67.5 347.34 m 67.5 344.422 l 67.5 328.734 79.852 315.75 95.543 315.75 c
 73.043 315.75 l 57.352 315.75 45 328.734 45 344.422 c 45 347.34 l 45 363.031
 57.352 375.75 73.043 375.75 c 95.543 375.75 l 79.852 375.75 67.5 363.031
 67.5 347.34 c h
67.5 347.34 m f
0.156863 0.258824 0.407843 rg
69.68 340.875 m 71.703 340.875 l 77.703 340.875 77.703 331.875 71.703 331.875
 c 69.68 331.875 l 63.68 331.875 63.68 340.875 69.68 340.875 c h
69.68 340.875 m f
86.223 340.875 m 143.758 340.875 l 149.758 340.875 149.758 331.875 143.758
 331.875 c 86.223 331.875 l 80.223 331.875 80.223 340.875 86.223 340.875
 c h
86.223 340.875 m f
73.039 380.25 m 206.367 380.25 l 212.367 380.25 212.367 371.25 206.367 
371.25 c 145.984 371.25 l 160.559 365.539 174.391 358.098 187.188 349.086
 c 227.27 320.875 257.223 320.516 257.512 320.516 c 310.961 320.516 l 317.301
 320.516 323.383 323.035 327.867 327.516 c 332.348 332 334.867 338.082 334.867
 344.422 c 334.867 347.348 l 334.867 360.547 324.164 371.25 310.961 371.25
 c 236.367 371.25 l 230.367 371.25 230.367 380.25 236.367 380.25 c 310.961
 380.25 l 329.137 380.25 343.867 365.516 343.867 347.344 c 343.867 344.418
 l 343.867 326.246 329.137 311.512 310.961 311.512 c 281.605 311.512 l 293.762
 306.805 l 308.562 301.082 316.84 285.281 313.121 269.852 c 300.719 218.758
 l 300.707 218.711 300.695 218.664 300.684 218.613 c 293.602 193.133 279.93
 184.273 239.738 179.117 c 238.957 179.008 238.191 178.805 237.461 178.508
 c 267.734 162.391 286.641 130.875 286.609 96.574 c 286.609 45.391 244.988
 3.75 193.832 3.75 c 142.676 3.75 101.059 45.391 101.059 96.578 c 101.074
 130.148 119.195 161.102 148.457 177.555 c 147.172 178.32 145.762 178.848
 144.293 179.117 c 122.836 181.715 109.801 185.449 100.695 191.605 c 92.062
 197.445 87.027 205.27 83.316 218.617 c 83.301 218.668 83.289 218.715 83.277
 218.762 c 70.879 269.855 l 67.156 285.281 75.43 301.078 90.23 306.805 c
 102.461 311.516 l 73.039 311.516 l 54.863 311.516 40.133 326.246 40.133
 344.422 c 40.133 347.348 l 40.133 365.52 54.867 380.25 73.039 380.25 c 
h
226.332 311.516 m 197.699 311.516 l 197.922 310.191 197.859 308.836 197.516
 307.539 c 200.172 305.57 l 204.32 302.477 209.598 301.32 214.656 302.406
 c 219.715 303.488 224.062 306.703 226.578 311.223 c 226.566 311.32 226.418
 311.516 226.332 311.516 c h
242.727 188.609 m 247.855 189.344 252.402 190.148 256.453 191.035 c 255.75
 199.672 252.375 222.227 236.414 237.512 c 234.617 239.23 234.559 242.078
 236.277 243.875 c 237.996 245.672 240.844 245.73 242.641 244.012 c 259.969
 227.418 264.246 204.121 265.301 193.344 c 269.289 194.523 273.121 196.164
 276.73 198.23 c 276.57 207.746 273.879 245.043 242.402 265.828 c 240.309
 267.191 239.723 269.996 241.098 272.082 c 242.477 274.168 245.289 274.73
 247.363 273.34 c 264.137 262.262 276.09 245.289 281.926 224.266 c 283.598
 218.223 284.738 212.047 285.328 205.805 c 288.477 210.016 290.336 215.008
 291.992 220.953 c 304.375 271.973 l 307.039 283.012 301.117 294.312 290.523
 298.406 c 256.691 311.512 l 235.57 311.512 l 235.621 309.918 235.246 308.344
 234.477 306.949 c 232.957 304.199 230.969 301.734 228.605 299.668 c 236.395
 295.125 l 245.566 299.758 255.707 302.148 265.98 302.094 c 267.215 302.094
 268.48 302.059 269.766 301.988 c 272.266 301.871 274.191 299.738 274.051
 297.242 c 273.914 294.746 271.766 292.84 269.27 293 c 261.359 293.445 253.441
 292.262 246.008 289.523 c 273.562 273.469 l 275.711 272.215 276.438 269.461
 275.184 267.312 c 273.934 265.168 271.18 264.441 269.031 265.691 c 219.645
 294.469 l 211.234 291.551 201.922 293.004 194.797 298.344 c 191.902 300.488
 l 191.48 300.238 191.047 300 190.578 299.773 c 189.738 299.375 188.887 
298.992 188.023 298.625 c 216.508 285.875 225.297 267.863 225.707 266.996
 c 228.203 261.602 220.176 257.793 217.578 263.137 c 217.551 263.188 214.969
 268.426 208.074 274.949 c 201.777 280.906 190.492 289.168 172.414 294.941
 c 170.566 294.863 168.715 294.953 166.883 295.207 c 160.641 291.656 l 160.641
 288.148 l 172.922 283.461 184.379 276.852 194.578 268.562 c 211.746 254.805
 233.746 229.875 242.727 188.609 c h
188.801 310.125 m 188.273 310.98 187.344 311.508 186.34 311.52 c 157.434
 311.52 l 157.434 311.383 l 157.41 311.301 l 161.168 305.023 167.227 303.57
 172.973 303.984 c 173.023 303.984 l 177.773 304.469 182.395 305.793 186.684
 307.891 c 187.234 308.137 187.742 308.473 188.184 308.887 c 188.539 309.25
 188.941 309.754 188.801 310.125 c h
199.992 236.277 m 198.227 234.527 195.379 234.539 193.629 236.305 c 179.133
 250.922 166.746 254.648 160.641 255.57 c 160.641 239.648 l 170 238.461 
179.086 235.688 187.512 231.449 c 201.312 224.488 218.812 210.438 227.082
 182.609 c 229.164 184.293 231.465 185.688 233.922 186.75 c 227.191 217.727
 212.188 242.793 189.266 261.293 c 180.578 268.336 170.941 274.121 160.641
 278.477 c 160.641 264.656 l 168.066 263.816 182.965 259.836 200.016 242.641
 c 201.766 240.875 201.754 238.027 199.992 236.277 c h
156.93 139.344 m 156.527 139.254 156.137 139.109 155.773 138.91 c 155.371
 138.684 154.145 137.984 153.598 135.109 c 153.18 132.906 152.059 131.055
 150.871 129.098 c 150.605 128.656 l 145.477 120.156 144.766 115.191 145.812
 113.383 c 146.375 112.633 147.223 112.141 148.152 112.02 c 149.832 113.398
 151.77 114.422 153.852 115.027 c 153.852 123.738 l 153.848 129.094 154.895
 134.395 156.93 139.344 c h
153.852 97.215 m 153.852 105.062 l 152.203 103.707 151.25 101.688 151.25
 99.555 c 151.25 94.332 l 151.25 80.965 156.828 71.711 170.5 62.395 c 174.379
 59.758 176.906 55.551 177.422 50.891 c 178.48 41.363 184.352 36.539 194.879
 36.535 c 194.883 36.535 l 204.559 36.535 210.328 41.52 212.035 51.344 c
 212.793 55.664 215.312 59.473 218.988 61.863 c 233.039 70.996 239.035 80.707
 239.035 94.332 c 239.035 99.555 l 239.035 101.914 237.867 104.121 235.918
 105.449 c 235.918 95.453 l 235.902 88.535 232.609 82.031 227.035 77.93 
c 218.582 71.855 208.008 77.117 207.562 77.344 c 207.402 77.426 207.246 
77.52 207.098 77.617 c 199.562 82.676 192.477 82.527 183.441 77.125 c 178.898
 74.023 169.688 73.527 164.574 77.496 c 157.867 81.809 153.824 89.242 153.852
 97.215 c h
242.559 111.645 m 243.707 111.812 244.742 112.438 245.426 113.379 c 245.961
 114.305 247.211 118.145 240.867 128.656 c 240.566 129.156 l 239.391 131.098
 238.277 132.934 237.871 135.137 c 237.414 137.625 236.59 139.328 235.668
 139.691 c 234.715 139.898 233.715 139.789 232.828 139.383 c 234.875 134.422
 235.926 129.105 235.922 123.738 c 235.922 115.16 l 238.379 114.531 240.652
 113.324 242.559 111.645 c h
162.852 97.215 m 162.836 92.242 165.387 87.609 169.602 84.965 c 169.762
 84.863 169.918 84.75 170.066 84.629 c 170.898 83.941 172.477 83.652 174.062
 83.652 c 175.828 83.652 177.605 84.008 178.375 84.559 c 178.473 84.629 
178.57 84.695 178.672 84.758 c 190.594 91.938 201.441 92.109 211.82 85.285
 c 212.898 84.801 218.199 82.66 221.746 85.203 c 224.992 87.605 226.914 
91.406 226.918 95.449 c 226.918 123.734 l 226.961 132.258 223.605 140.445
 217.594 146.484 c 211.578 152.527 203.41 155.922 194.887 155.922 c 186.363
 155.922 178.191 152.527 172.18 146.484 c 166.168 140.445 162.812 132.258
 162.852 123.734 c h
175.926 160.18 m 186.883 165.922 199.855 166.391 211.199 161.449 c 213.359
 166.449 216.227 171.109 219.719 175.293 c 214.348 197.66 202.281 213.801
 183.785 223.25 c 176.52 226.934 168.703 229.402 160.641 230.562 c 160.641
 179.879 l 166.699 174.789 172.555 167.793 175.926 160.18 c h
110.055 96.578 m 110.082 66.012 126.754 37.883 153.559 23.188 c 180.363
 8.492 213.043 9.566 238.828 25.984 c 264.613 42.402 279.41 71.562 277.43
 102.066 c 275.453 132.574 257.02 159.578 229.328 172.531 c 224.652 167.707
 220.582 161.297 219.055 156.934 c 222.691 154.266 225.871 151.023 228.461
 147.332 c 230.488 148.262 232.684 148.766 234.91 148.812 c 236.281 148.824
 237.645 148.574 238.922 148.082 c 241.73 146.992 245.363 144.141 246.723
 136.77 c 247.117 135.73 247.633 134.742 248.262 133.828 c 248.578 133.309
 l 255.023 122.625 256.543 114.633 253.227 108.883 c 251.902 106.609 249.875
 104.832 247.453 103.812 c 247.836 102.426 248.035 100.996 248.039 99.555
 c 248.039 94.336 l 248.039 77.512 240.594 65.172 223.895 54.32 c 222.316
 53.293 221.234 51.66 220.906 49.805 c 218.449 35.652 208.965 27.535 194.887
 27.535 c 194.879 27.535 l 173.293 27.543 169.227 43.176 168.477 49.898 
c 168.25 51.949 167.141 53.797 165.434 54.961 c 154.641 62.316 142.25 73.438
 142.25 94.336 c 142.25 99.555 l 142.25 101.176 142.492 102.789 142.973 
104.336 c 140.938 105.293 139.238 106.836 138.086 108.77 c 134.75 114.387
 136.324 122.414 142.898 133.309 c 143.172 133.762 l 143.82 134.707 144.352
 135.723 144.758 136.797 c 145.855 142.555 148.941 145.383 151.336 146.742
 c 153.586 147.965 156.113 148.586 158.676 148.539 c 159.781 148.539 160.883
 148.445 161.973 148.266 c 163.832 150.754 165.961 153.023 168.324 155.035
 c 165.969 161.234 161.262 167.176 156.461 171.613 c 128.027 157.41 110.062
 128.359 110.055 96.578 c h
130.832 190.234 m 130.832 218.883 l 130.832 224.883 139.832 224.883 139.832
 218.883 c 139.832 188.773 l 141.609 188.523 143.461 188.285 145.383 188.051
 c 147.57 187.703 149.688 186.996 151.645 185.953 c 151.645 286.543 l 144.172
 282.293 l 144.172 253.5 l 144.172 247.5 135.172 247.5 135.172 253.5 c 135.172
 277.184 l 124.488 271.109 l 123.129 191.906 l 125.496 191.305 128.059 190.75
 130.828 190.234 c h
93.461 298.402 m 82.879 294.309 76.961 283.008 79.625 271.977 c 92.008 
220.957 l 95.641 207.93 100.652 199.973 114.172 194.703 c 115.395 265.938
 l 115.16 265.812 l 109.848 263 105.551 270.883 110.793 273.82 c 137.43 
288.82 l 137.477 288.848 137.52 288.871 137.566 288.895 c 156.152 299.465
 l 153.48 301.445 151.246 303.957 149.59 306.844 c 149.566 306.879 149.547
 306.918 149.523 306.957 c 148.75 308.352 148.363 309.926 148.395 311.516
 c 127.504 311.516 l h
49.133 344.422 m 49.133 338.082 51.652 332 56.133 327.516 c 60.617 323.035
 66.699 320.516 73.039 320.516 c 220.363 320.516 l 206.809 326.094 193.941
 333.211 182.008 341.727 c 147.074 366.316 115.281 370.883 112.43 371.25
 c 73.039 371.25 l 66.699 371.25 60.617 368.73 56.133 364.246 c 51.652 359.766
 49.133 353.684 49.133 347.344 c h
49.133 344.422 m f
Q Q
showpage
%%Trailer
end
%%EOF
