%!PS-Adobe-3.0 EPSF-3.0
%%Creator: cairo 1.16.0 (https://cairographics.org)
%%CreationDate: Tue Feb  2 14:48:05 2021
%%Pages: 1
%%DocumentData: Clean7Bit
%%LanguageLevel: 2
%%BoundingBox: 3 11 381 373
%%EndComments
%%BeginProlog
50 dict begin
/q { gsave } bind def
/Q { grestore } bind def
/cm { 6 array astore concat } bind def
/w { setlinewidth } bind def
/J { setlinecap } bind def
/j { setlinejoin } bind def
/M { setmiterlimit } bind def
/d { setdash } bind def
/m { moveto } bind def
/l { lineto } bind def
/c { curveto } bind def
/h { closepath } bind def
/re { exch dup neg 3 1 roll 5 3 roll moveto 0 rlineto
      0 exch rlineto 0 rlineto closepath } bind def
/S { stroke } bind def
/f { fill } bind def
/f* { eofill } bind def
/n { newpath } bind def
/W { clip } bind def
/W* { eoclip } bind def
/BT { } bind def
/ET { } bind def
/BDC { mark 3 1 roll /BDC pdfmark } bind def
/EMC { mark /EMC pdfmark } bind def
/cairo_store_point { /cairo_point_y exch def /cairo_point_x exch def } def
/Tj { show currentpoint cairo_store_point } bind def
/TJ {
  {
    dup
    type /stringtype eq
    { show } { -0.001 mul 0 cairo_font_matrix dtransform rmoveto } ifelse
  } forall
  currentpoint cairo_store_point
} bind def
/cairo_selectfont { cairo_font_matrix aload pop pop pop 0 0 6 array astore
    cairo_font exch selectfont cairo_point_x cairo_point_y moveto } bind def
/Tf { pop /cairo_font exch def /cairo_font_matrix where
      { pop cairo_selectfont } if } bind def
/Td { matrix translate cairo_font_matrix matrix concatmatrix dup
      /cairo_font_matrix exch def dup 4 get exch 5 get cairo_store_point
      /cairo_font where { pop cairo_selectfont } if } bind def
/Tm { 2 copy 8 2 roll 6 array astore /cairo_font_matrix exch def
      cairo_store_point /cairo_font where { pop cairo_selectfont } if } bind def
/g { setgray } bind def
/rg { setrgbcolor } bind def
/d1 { setcachedevice } bind def
/cairo_data_source {
  CairoDataIndex CairoData length lt
    { CairoData CairoDataIndex get /CairoDataIndex CairoDataIndex 1 add def }
    { () } ifelse
} def
/cairo_flush_ascii85_file { cairo_ascii85_file status { cairo_ascii85_file flushfile } if } def
/cairo_image { image cairo_flush_ascii85_file } def
/cairo_imagemask { imagemask cairo_flush_ascii85_file } def
%%EndProlog
%%BeginSetup
%%EndSetup
%%Page: 1 1
%%BeginPageSetup
%%PageBoundingBox: 3 11 381 373
%%EndPageSetup
q 3 11 378 362 rectclip
1 0 0 -1 0 384 cm q
0.545098 0.701961 0.921569 rg
375.75 37.754 m 375.75 346.246 l 375.75 352.121 373.418 357.758 369.262
 361.914 c 365.105 366.066 359.473 368.402 353.594 368.398 c 30.406 368.398
 l 24.527 368.402 18.895 366.066 14.738 361.914 c 10.582 357.758 8.25 352.121
 8.25 346.246 c 8.25 37.754 l 8.25 31.879 10.582 26.242 14.738 22.086 c 
18.895 17.934 24.527 15.598 30.406 15.602 c 353.594 15.602 l 359.473 15.598
 365.105 17.934 369.262 22.086 c 373.418 26.242 375.75 31.879 375.75 37.754
 c h
375.75 37.754 m f
0.94902 0.831373 0.462745 rg
166.461 58.688 m 199.352 87.84 171.789 127.531 156.488 148.207 c 147.137
 160.852 141.523 175.605 137.863 190.906 c 128.672 229.336 143.844 257.176
 152.004 268.695 c 158.645 277.875 161.176 289.402 158.984 300.516 c 155.004
 319.629 138.797 335.324 117.391 336.047 c 116.852 336.066 116.316 336.074
 115.777 336.074 c 94.145 336.066 75.336 321.23 70.289 300.195 c 69.184 
295.359 68.93 290.371 69.539 285.449 c 70.98 272.805 73.363 228.578 50.031
 153.219 c 28.117 82.434 125.961 22.785 166.461 58.688 c h
166.461 58.688 m f
217.539 58.688 m 258.039 22.785 355.883 82.434 333.969 153.219 c 310.637
 228.578 313.02 272.805 314.461 285.449 c 315.07 290.371 314.816 295.359
 313.711 300.195 c 308.664 321.23 289.855 336.066 268.223 336.074 c 267.684
 336.074 267.148 336.066 266.609 336.047 c 245.203 335.324 228.996 319.629
 225.016 300.516 c 222.824 289.402 225.355 277.875 231.996 268.695 c 240.156
 257.176 255.328 229.336 246.137 190.906 c 242.477 175.605 236.863 160.852
 227.512 148.207 c 212.211 127.531 184.648 87.84 217.539 58.688 c h
217.539 58.688 m f
0.901961 0.392157 0.431373 rg
116.414 95.258 m 121.734 95.25 126.531 98.449 128.57 103.359 c 130.613 
108.27 129.492 113.926 125.734 117.691 c 121.977 121.453 116.32 122.578 
111.406 120.547 c 106.492 118.512 103.289 113.715 103.289 108.398 c 103.289
 101.145 109.164 95.266 116.414 95.258 c h
116.414 95.258 m f
264.301 89.121 m 269.617 89.113 274.418 92.312 276.457 97.223 c 278.496
 102.137 277.375 107.793 273.617 111.555 c 269.859 115.316 264.203 116.445
 259.289 114.41 c 254.375 112.375 251.172 107.582 251.176 102.262 c 251.172
 95.012 257.047 89.129 264.301 89.121 c h
264.301 89.121 m f
0.458824 0.588235 0.737255 rg
31.5 346.094 m 31.5 37.906 l 31.5 25.668 41.418 15.75 53.656 15.75 c 30.406
 15.75 l 24.543 15.715 18.91 18.016 14.754 22.148 c 10.594 26.277 8.254 
31.895 8.25 37.754 c 8.25 346.246 l 8.254 352.105 10.594 357.723 14.754 
361.852 c 18.91 365.984 24.543 368.285 30.406 368.25 c 53.656 368.25 l 41.418
 368.25 31.5 358.332 31.5 346.094 c h
31.5 346.094 m f
0.27451 0.537255 0.827451 rg
349.531 334.516 m 352.691 334.512 355.543 336.41 356.754 339.328 c 357.969
 342.246 357.301 345.609 355.07 347.844 c 352.836 350.082 349.477 350.754
 346.559 349.547 c 343.637 348.336 341.73 345.488 341.73 342.328 c 341.727
 338.02 345.219 334.523 349.531 334.516 c h
349.531 334.516 m f
357.328 41.289 m 357.328 45.598 353.836 49.094 349.531 49.094 c 345.223
 49.094 341.73 45.598 341.73 41.289 c 341.73 36.977 345.223 33.48 349.531
 33.48 c 353.836 33.48 357.328 36.977 357.328 41.289 c h
357.328 41.289 m f
35.551 33.48 m 38.707 33.477 41.559 35.379 42.77 38.293 c 43.98 41.211 
43.312 44.57 41.082 46.805 c 38.848 49.039 35.488 49.711 32.57 48.5 c 29.652
 47.293 27.75 44.445 27.75 41.289 c 27.746 39.219 28.57 37.23 30.031 35.766
 c 31.496 34.305 33.48 33.48 35.551 33.48 c h
35.551 33.48 m f
35.551 334.516 m 38.711 334.512 41.562 336.41 42.773 339.328 c 43.988 342.246
 43.324 345.609 41.09 347.844 c 38.859 350.082 35.496 350.754 32.578 349.547
 c 29.656 348.336 27.75 345.488 27.75 342.328 c 27.746 340.258 28.566 338.273
 30.031 336.805 c 31.492 335.34 33.48 334.516 35.551 334.516 c h
35.551 334.516 m f
0.156863 0.258824 0.407843 rg
338.266 154.547 m 343.965 136.137 342.355 116.973 333.613 99.125 c 326.012
 83.598 313.059 69.395 297.145 59.129 c 267.07 39.727 233.875 38.195 214.555
 55.32 c 198.887 69.211 194.035 86.898 200.133 107.883 c 205.34 125.809 
217.871 142.75 223.895 150.887 c 231.895 161.699 237.738 175.133 241.762
 191.957 c 250.348 227.848 237.031 253.812 228.328 266.098 c 220.918 276.555
 218.105 289.438 220.602 301.438 c 225.246 323.711 244.102 339.793 266.453
 340.547 c 267.039 340.57 267.629 340.578 268.219 340.578 c 291.957 340.641
 312.613 324.348 318.086 301.246 c 319.312 295.902 319.598 290.387 318.93
 284.945 c 317.602 273.293 315.066 229.461 338.266 154.547 c h
309.988 285.961 m 310.543 290.359 310.32 294.824 309.336 299.148 c 304.824
 318.195 287.793 331.625 268.223 331.574 c 267.734 331.574 267.25 331.566
 266.766 331.551 c 248.57 330.934 233.211 317.797 229.418 299.602 c 227.422
 290.039 229.703 279.727 235.672 271.297 c 243.387 260.41 260.273 230.672
 250.512 189.863 c 246.199 171.836 239.863 157.336 231.129 145.531 c 225.418
 137.812 213.531 121.75 208.773 105.371 c 203.66 87.766 207.5 73.598 220.52
 62.055 c 227.137 56.191 237.074 52.422 249.098 52.422 c 261.668 52.422 
276.531 56.543 292.262 66.691 c 316.785 82.512 341.297 114.316 329.664 151.887
 c 305.953 228.473 308.609 273.871 309.988 285.961 c h
309.988 285.961 m f
134.043 108.402 m 134.039 101.27 129.738 94.848 123.152 92.125 c 116.562
 89.398 108.98 90.914 103.945 95.957 c 98.906 101 97.402 108.582 100.133
 115.168 c 102.863 121.754 109.289 126.047 116.418 126.043 c 126.152 126.027
 134.039 118.137 134.043 108.402 c h
107.785 108.402 m 107.793 104.91 109.898 101.77 113.125 100.438 c 116.352
 99.109 120.059 99.852 122.523 102.32 c 124.988 104.789 125.723 108.5 124.387
 111.723 c 123.047 114.945 119.902 117.047 116.41 117.043 c 111.645 117.031
 107.789 113.168 107.785 108.402 c h
107.785 108.402 m f
264.301 84.621 m 257.16 84.613 250.723 88.906 247.984 95.5 c 245.25 102.09
 246.754 109.684 251.797 114.734 c 256.844 119.781 264.434 121.297 271.027
 118.566 c 277.625 115.836 281.926 109.402 281.926 102.262 c 281.918 92.527
 274.035 84.637 264.301 84.621 c h
264.301 110.906 m 260.801 110.914 257.645 108.812 256.301 105.586 c 254.957
 102.355 255.691 98.633 258.164 96.156 c 260.633 93.684 264.352 92.938 267.586
 94.277 c 270.816 95.613 272.926 98.766 272.926 102.262 c 272.922 107.027
 269.066 110.895 264.301 110.906 c h
264.301 110.906 m f
169.449 55.32 m 150.129 38.191 116.938 39.723 86.855 59.129 c 70.941 69.391
 57.992 83.594 50.387 99.121 c 41.645 116.969 40.039 136.137 45.738 154.547
 c 47.133 159.062 48.438 163.457 49.652 167.742 c 50.203 169.672 51.965 
171 53.973 171 c 53.98 171 l 56.957 171.004 59.117 168.156 58.309 165.289
 c 57.074 160.934 55.75 156.469 54.332 151.887 c 42.699 114.312 67.211 82.512
 91.734 66.688 c 107.469 56.539 122.324 52.426 134.898 52.426 c 146.922 
52.426 156.863 56.191 163.477 62.055 c 176.496 73.598 180.336 87.766 175.223
 105.371 c 170.465 121.754 158.578 137.816 152.867 145.535 c 144.137 157.336
 137.793 171.836 133.484 189.863 c 123.723 230.672 140.609 260.41 148.324
 271.301 c 154.293 279.723 156.574 290.039 154.578 299.602 c 150.785 317.801
 135.426 330.938 117.227 331.551 c 116.746 331.566 116.262 331.578 115.773
 331.578 c 96.203 331.629 79.172 318.195 74.66 299.148 c 73.676 294.824 
73.453 290.363 74.004 285.965 c 75.098 276.383 76.992 245.891 65.938 195.539
 c 65.461 193.051 63.027 191.445 60.551 191.992 c 58.078 192.535 56.543 
195.02 57.16 197.477 c 67.922 246.391 66.121 275.73 65.07 284.945 c 64.398
 290.387 64.684 295.902 65.91 301.246 c 71.383 324.348 92.039 340.637 115.777
 340.574 c 116.367 340.574 116.957 340.566 117.539 340.547 c 139.891 339.789
 158.75 323.707 163.395 301.434 c 165.895 289.434 163.082 276.551 155.672
 266.094 c 146.973 253.809 133.656 227.844 142.238 191.953 c 146.266 175.129
 152.109 161.695 160.105 150.883 c 166.129 142.746 178.66 125.809 183.867
 107.879 c 189.965 86.891 185.113 69.207 169.449 55.32 c h
169.449 55.32 m f
353.598 11.102 m 30.402 11.102 l 15.691 11.117 3.766 23.039 3.75 37.754
 c 3.75 346.246 l 3.766 360.961 15.691 372.883 30.402 372.898 c 353.598 
372.898 l 368.309 372.883 380.234 360.961 380.25 346.246 c 380.25 37.754
 l 380.234 23.039 368.309 11.117 353.598 11.102 c h
371.25 346.246 m 371.238 355.992 363.344 363.891 353.598 363.898 c 30.402
 363.898 l 20.656 363.891 12.762 355.992 12.75 346.246 c 12.75 37.754 l 
12.762 28.008 20.656 20.109 30.402 20.102 c 353.598 20.102 l 363.344 20.109
 371.238 28.008 371.25 37.754 c h
371.25 346.246 m f
35.551 53.594 m 40.527 53.598 45.02 50.602 46.926 46 c 48.836 41.402 47.785
 36.105 44.266 32.586 c 40.746 29.062 35.449 28.008 30.852 29.914 c 26.25
 31.816 23.25 36.305 23.25 41.285 c 23.254 48.078 28.758 53.586 35.551 53.594
 c h
35.551 37.977 m 38.5 37.969 39.984 41.535 37.898 43.621 c 35.816 45.711
 32.25 44.234 32.25 41.285 c 32.25 39.461 33.727 37.98 35.551 37.977 c h
35.551 37.977 m f
35.551 330.02 m 30.57 330.016 26.078 333.012 24.172 337.609 c 22.262 342.211
 23.316 347.504 26.836 351.027 c 30.355 354.551 35.648 355.605 40.25 353.699
 c 44.852 351.793 47.852 347.305 47.852 342.328 c 47.844 335.535 42.344 
330.027 35.551 330.02 c h
35.551 345.637 m 32.602 345.645 31.113 342.078 33.199 339.988 c 35.281 
337.902 38.852 339.375 38.852 342.328 c 38.852 344.152 37.375 345.629 35.551
 345.637 c h
35.551 345.637 m f
349.527 28.977 m 344.547 28.973 340.059 31.969 338.152 36.57 c 336.242 
41.168 337.293 46.465 340.812 49.984 c 344.332 53.508 349.629 54.562 354.227
 52.656 c 358.828 50.754 361.828 46.262 361.828 41.285 c 361.824 34.492 
356.32 28.988 349.527 28.977 c h
349.527 44.594 m 346.578 44.602 345.094 41.039 347.176 38.949 c 349.258
 36.859 352.828 38.336 352.828 41.285 c 352.828 43.109 351.352 44.59 349.527
 44.594 c h
349.527 44.594 m f
349.527 330.02 m 344.547 330.016 340.059 333.012 338.148 337.609 c 336.242
 342.211 337.293 347.504 340.812 351.027 c 344.332 354.551 349.629 355.605
 354.227 353.699 c 358.828 351.793 361.828 347.305 361.828 342.328 c 361.824
 335.535 356.32 330.027 349.527 330.02 c h
349.527 345.637 m 346.578 345.645 345.094 342.078 347.176 339.988 c 349.258
 337.902 352.828 339.375 352.828 342.328 c 352.828 344.152 351.352 345.633
 349.527 345.637 c h
349.527 345.637 m f
33 75.762 m 33 69.762 24 69.762 24 75.762 c 24 77.789 l 24 83.789 33 83.789
 33 77.789 c h
33 75.762 m f
28.5 87.809 m 26.016 87.809 24 89.824 24 92.309 c 24 157.34 l 24 163.34
 33 163.34 33 157.34 c 33 92.309 l 33 89.824 30.984 87.809 28.5 87.809 c
 h
28.5 87.809 m f
Q Q
showpage
%%Trailer
end
%%EOF
