%!PS-Adobe-3.0 EPSF-3.0
%%Creator: cairo 1.16.0 (https://cairographics.org)
%%CreationDate: Tue Feb  2 14:48:07 2021
%%Pages: 1
%%DocumentData: Clean7Bit
%%LanguageLevel: 2
%%BoundingBox: 3 11 376 373
%%EndComments
%%BeginProlog
50 dict begin
/q { gsave } bind def
/Q { grestore } bind def
/cm { 6 array astore concat } bind def
/w { setlinewidth } bind def
/J { setlinecap } bind def
/j { setlinejoin } bind def
/M { setmiterlimit } bind def
/d { setdash } bind def
/m { moveto } bind def
/l { lineto } bind def
/c { curveto } bind def
/h { closepath } bind def
/re { exch dup neg 3 1 roll 5 3 roll moveto 0 rlineto
      0 exch rlineto 0 rlineto closepath } bind def
/S { stroke } bind def
/f { fill } bind def
/f* { eofill } bind def
/n { newpath } bind def
/W { clip } bind def
/W* { eoclip } bind def
/BT { } bind def
/ET { } bind def
/BDC { mark 3 1 roll /BDC pdfmark } bind def
/EMC { mark /EMC pdfmark } bind def
/cairo_store_point { /cairo_point_y exch def /cairo_point_x exch def } def
/Tj { show currentpoint cairo_store_point } bind def
/TJ {
  {
    dup
    type /stringtype eq
    { show } { -0.001 mul 0 cairo_font_matrix dtransform rmoveto } ifelse
  } forall
  currentpoint cairo_store_point
} bind def
/cairo_selectfont { cairo_font_matrix aload pop pop pop 0 0 6 array astore
    cairo_font exch selectfont cairo_point_x cairo_point_y moveto } bind def
/Tf { pop /cairo_font exch def /cairo_font_matrix where
      { pop cairo_selectfont } if } bind def
/Td { matrix translate cairo_font_matrix matrix concatmatrix dup
      /cairo_font_matrix exch def dup 4 get exch 5 get cairo_store_point
      /cairo_font where { pop cairo_selectfont } if } bind def
/Tm { 2 copy 8 2 roll 6 array astore /cairo_font_matrix exch def
      cairo_store_point /cairo_font where { pop cairo_selectfont } if } bind def
/g { setgray } bind def
/rg { setrgbcolor } bind def
/d1 { setcachedevice } bind def
/cairo_data_source {
  CairoDataIndex CairoData length lt
    { CairoData CairoDataIndex get /CairoDataIndex CairoDataIndex 1 add def }
    { () } ifelse
} def
/cairo_flush_ascii85_file { cairo_ascii85_file status { cairo_ascii85_file flushfile } if } def
/cairo_image { image cairo_flush_ascii85_file } def
/cairo_imagemask { imagemask cairo_flush_ascii85_file } def
%%EndProlog
%%BeginSetup
%%EndSetup
%%Page: 1 1
%%BeginPageSetup
%%PageBoundingBox: 3 11 376 373
%%EndPageSetup
q 3 11 373 362 rectclip
1 0 0 -1 0 384 cm q
0.545098 0.701961 0.921569 rg
233.926 16.5 m 239.25 23.25 272.398 66.602 244.051 80.398 c 236.551 84.074
 227.699 84.074 220.199 80.398 c 191.852 66.602 225 23.25 230.324 16.5 c
 231.074 15.523 232.5 15.301 233.477 16.051 c 233.625 16.199 233.773 16.352
 233.926 16.5 c h
233.926 16.5 m f
0.156863 0.258824 0.407843 rg
303.602 287.023 m 303.602 273.898 292.051 261.75 271.051 252.824 c 268.801
 251.852 266.102 252.898 265.125 255.148 c 264.148 257.398 265.199 260.102
 267.449 261.074 c 267.523 261.074 l 284.773 268.426 294.602 277.875 294.602
 287.023 c 294.602 296.699 283.727 306.602 264.75 314.102 c 244.199 322.273
 216.75 326.699 187.5 326.699 c 158.25 326.699 130.801 322.199 110.25 314.102
 c 91.273 306.602 80.398 296.699 80.398 287.023 c 80.398 276.375 93.676 
265.5 116.023 257.852 c 118.352 257.023 119.625 254.477 118.801 252.148 
c 117.977 249.824 115.426 248.551 113.102 249.375 c 86.25 258.602 71.398
 271.949 71.398 287.023 c 71.398 300.824 84 313.352 106.949 322.426 c 128.551
 330.977 157.125 335.699 187.5 335.699 c 217.875 335.699 246.449 330.977
 268.051 322.426 c 290.926 313.352 303.602 300.75 303.602 287.023 c h
303.602 287.023 m f
125.926 363.977 m 58.273 351.75 12.75 321.824 12.75 289.5 c 12.75 259.199
 52.574 230.852 114.148 217.352 c 116.551 216.824 118.125 214.426 117.602
 212.023 c 117.074 209.625 114.676 208.051 112.273 208.574 c 80.773 215.477
 54 226.352 34.875 240 c 14.477 254.551 3.75 271.648 3.75 289.5 c 3.75 326.926
 51.074 359.625 124.352 372.824 c 126.824 373.273 129.148 371.625 129.602
 369.227 c 129.977 366.75 128.398 364.426 125.926 363.977 c h
125.926 363.977 m f
347.551 242.102 m 330.301 228.977 305.773 218.102 276.75 210.75 c 274.352
 210.148 271.875 211.574 271.273 213.977 c 270.676 216.375 272.102 218.852
 274.5 219.449 c 302.324 226.5 325.727 236.773 342.074 249.227 c 353.324
 257.773 366.75 271.727 366.75 289.426 c 366.75 320.398 325.801 348.898 
262.426 362.176 c 260.023 362.699 258.449 365.023 258.898 367.5 c 259.426
 369.898 261.75 371.477 264.227 371.023 c 264.301 371.023 l 296.625 364.273
 324.148 353.398 343.801 339.602 c 364.727 324.898 375.824 307.574 375.824
 289.426 c 375.75 272.551 366 256.199 347.551 242.102 c h
347.551 242.102 m f
218.176 84.375 m 226.949 88.648 237.227 88.648 246 84.375 c 253.125 80.926
 257.551 75.602 259.125 68.551 c 263.477 49.727 245.398 23.852 237.375 13.648
 c 235.125 10.727 230.852 10.125 227.926 12.449 c 227.477 12.824 227.102
 13.199 226.727 13.648 c 218.773 23.852 200.625 49.648 204.977 68.551 c 
206.699 75.676 211.125 80.926 218.176 84.375 c h
220.727 39.227 m 224.102 33.074 227.852 27.148 232.125 21.523 c 236.398
 27.148 240.148 33 243.523 39.227 c 249.523 50.551 251.926 60 250.426 66.523
 c 249.449 70.875 246.676 74.023 242.102 76.273 c 235.801 79.352 228.449
 79.352 222.148 76.273 c 217.574 74.023 214.801 70.875 213.824 66.523 c 
212.324 60 214.648 50.551 220.727 39.227 c h
220.727 39.227 m f
0.545098 0.701961 0.921569 rg
196.949 98.398 m 211.574 117.148 303.227 236.926 225 274.949 c 204.148 
285.074 179.852 285.074 159.074 274.949 c 80.852 236.926 172.5 117.148 187.125
 98.398 c 187.727 97.648 188.477 97.051 189.375 96.602 c 190.199 96.148 
191.176 95.926 192.074 95.926 c 193.949 95.926 195.75 96.898 196.949 98.398
 c h
196.949 98.398 m f
0.458824 0.592157 0.74902 rg
181.5 274.949 m 110.926 240.676 178.574 139.875 203.25 106.727 c 200.551
 103.125 198.375 100.273 196.949 98.477 c 195.75 96.898 193.949 96 192 96
 c 191.023 96 190.125 96.227 189.301 96.676 c 188.398 97.125 187.648 97.727
 187.051 98.477 c 172.426 117.227 80.773 237 159 275.023 c 172.727 281.699
 188.176 284.023 203.25 281.773 c 195.676 280.574 188.398 278.25 181.5 274.949
 c h
181.5 274.949 m f
0.156863 0.258824 0.407843 rg
237.074 225.148 m 237.074 222.676 235.051 220.648 232.574 220.648 c 230.102
 220.648 228.074 222.676 228.074 225.148 c 228.074 241.648 214.648 255.074
 198.148 255.074 c 195.676 255.074 193.648 257.102 193.648 259.574 c 193.648
 262.051 195.676 264.074 198.148 264.074 c 219.602 264 237 246.602 237.074
 225.148 c h
237.074 225.148 m f
128.699 208.5 m 126.449 208.5 124.574 210.148 124.273 212.324 c 122.773
 222.676 123.074 232.125 125.023 240.676 c 128.926 257.699 139.727 270.523
 157.125 279 c 179.176 289.801 204.977 289.801 227.023 279 c 244.352 270.602
 255.148 257.699 259.125 240.676 c 264.375 218.102 257.398 188.699 238.574
 153.301 c 225.977 129.602 210.977 108.824 200.625 95.625 c 197.023 90.977
 190.352 90.074 185.625 93.602 c 184.875 94.199 184.199 94.875 183.602 95.625
 c 173.25 108.824 158.25 129.602 145.648 153.301 c 140.773 162.375 136.426
 171.75 132.676 181.352 c 131.773 183.676 132.977 186.301 135.301 187.125
 c 135.824 187.352 136.352 187.426 136.875 187.426 c 138.75 187.426 140.398
 186.301 141.074 184.574 c 154.648 149.25 180.148 114.523 190.648 101.176
 c 191.176 100.426 192.227 100.199 192.977 100.727 c 193.125 100.875 193.273
 101.023 193.426 101.176 c 209.477 121.727 261 192.375 250.273 238.648 c
 246.898 253.051 238.051 263.625 223.051 270.898 c 203.477 280.5 180.602
 280.5 161.023 270.898 c 146.023 263.625 137.102 253.051 133.801 238.648
 c 132 230.852 131.926 222.449 133.199 213.602 c 133.574 211.125 131.852
 208.875 129.375 208.5 c 129.148 208.5 128.926 208.5 128.699 208.5 c h
128.699 208.5 m f
Q Q
showpage
%%Trailer
end
%%EOF
