%!PS-Adobe-3.0 EPSF-3.0
%%Creator: cairo 1.16.0 (https://cairographics.org)
%%CreationDate: Tue Feb  2 14:48:08 2021
%%Pages: 1
%%DocumentData: Clean7Bit
%%LanguageLevel: 2
%%BoundingBox: 3 3 381 381
%%EndComments
%%BeginProlog
50 dict begin
/q { gsave } bind def
/Q { grestore } bind def
/cm { 6 array astore concat } bind def
/w { setlinewidth } bind def
/J { setlinecap } bind def
/j { setlinejoin } bind def
/M { setmiterlimit } bind def
/d { setdash } bind def
/m { moveto } bind def
/l { lineto } bind def
/c { curveto } bind def
/h { closepath } bind def
/re { exch dup neg 3 1 roll 5 3 roll moveto 0 rlineto
      0 exch rlineto 0 rlineto closepath } bind def
/S { stroke } bind def
/f { fill } bind def
/f* { eofill } bind def
/n { newpath } bind def
/W { clip } bind def
/W* { eoclip } bind def
/BT { } bind def
/ET { } bind def
/BDC { mark 3 1 roll /BDC pdfmark } bind def
/EMC { mark /EMC pdfmark } bind def
/cairo_store_point { /cairo_point_y exch def /cairo_point_x exch def } def
/Tj { show currentpoint cairo_store_point } bind def
/TJ {
  {
    dup
    type /stringtype eq
    { show } { -0.001 mul 0 cairo_font_matrix dtransform rmoveto } ifelse
  } forall
  currentpoint cairo_store_point
} bind def
/cairo_selectfont { cairo_font_matrix aload pop pop pop 0 0 6 array astore
    cairo_font exch selectfont cairo_point_x cairo_point_y moveto } bind def
/Tf { pop /cairo_font exch def /cairo_font_matrix where
      { pop cairo_selectfont } if } bind def
/Td { matrix translate cairo_font_matrix matrix concatmatrix dup
      /cairo_font_matrix exch def dup 4 get exch 5 get cairo_store_point
      /cairo_font where { pop cairo_selectfont } if } bind def
/Tm { 2 copy 8 2 roll 6 array astore /cairo_font_matrix exch def
      cairo_store_point /cairo_font where { pop cairo_selectfont } if } bind def
/g { setgray } bind def
/rg { setrgbcolor } bind def
/d1 { setcachedevice } bind def
/cairo_data_source {
  CairoDataIndex CairoData length lt
    { CairoData CairoDataIndex get /CairoDataIndex CairoDataIndex 1 add def }
    { () } ifelse
} def
/cairo_flush_ascii85_file { cairo_ascii85_file status { cairo_ascii85_file flushfile } if } def
/cairo_image { image cairo_flush_ascii85_file } def
/cairo_imagemask { imagemask cairo_flush_ascii85_file } def
%%EndProlog
%%BeginSetup
%%EndSetup
%%Page: 1 1
%%BeginPageSetup
%%PageBoundingBox: 3 3 381 381
%%EndPageSetup
q 3 3 378 378 rectclip
1 0 0 -1 0 384 cm q
0.286275 0.741176 1 rg
16.359 184.598 m 19.504 184.73 22.258 186.746 23.34 189.703 c 24.422 192.66
 23.613 195.977 21.293 198.105 c 18.973 200.234 15.598 200.754 12.742 199.426
 c 9.891 198.094 8.121 195.176 8.258 192.031 c 8.441 187.742 12.07 184.414
 16.359 184.598 c h
16.359 184.598 m f
37.824 199.891 m 37.828 200.137 37.828 200.379 37.824 200.625 c 37.688 
203.648 35.809 206.316 33.008 207.465 c 30.211 208.613 27 208.031 24.777
 205.977 c 22.559 203.918 21.734 200.762 22.668 197.883 c 23.602 195.004
 26.117 192.926 29.121 192.562 c 29.301 192.586 29.484 192.602 29.664 192.609
 c 30.09 192.629 30.516 192.609 30.938 192.555 c 34.719 192.984 37.633 196.09
 37.824 199.891 c h
37.824 199.891 m f
30.336 177.066 m 34.379 177.246 37.609 180.492 37.766 184.535 c 37.926 
188.578 34.953 192.066 30.938 192.555 c 30.758 192.531 30.578 192.516 30.398
 192.512 c 29.973 192.488 29.547 192.508 29.121 192.562 c 24.961 192.09 
21.922 188.406 22.246 184.227 c 22.574 180.051 26.152 176.887 30.336 177.066
 c h
30.336 177.066 m f
0.466667 0.286275 0.262745 rg
77.348 63.023 m 90.195 75.922 l 84.684 80.762 79.52 85.984 74.746 91.551
 c 61.785 78.613 l 57.531 74.309 57.551 67.379 61.828 63.094 c 66.102 58.809
 73.031 58.777 77.348 63.023 c h
77.348 63.023 m f
0.286275 0.741176 1 rg
192.449 8.266 m 195.594 8.438 198.32 10.484 199.363 13.453 c 200.406 16.422
 199.559 19.727 197.215 21.824 c 194.871 23.926 191.492 24.406 188.656 23.043
 c 185.82 21.68 184.086 18.742 184.262 15.602 c 184.371 13.539 185.297 11.609
 186.836 10.234 c 188.371 8.859 190.391 8.152 192.449 8.266 c h
192.449 8.266 m f
191.672 29.113 m 191.648 29.301 191.625 29.488 191.617 29.684 c 191.594
 30.121 191.605 30.559 191.656 30.988 c 191.168 34.715 188.094 37.562 184.344
 37.762 c 184.066 37.77 183.797 37.77 183.516 37.754 c 180.492 37.59 177.84
 35.684 176.719 32.875 c 175.594 30.062 176.207 26.852 178.285 24.648 c 
180.363 22.449 183.531 21.652 186.402 22.609 c 189.273 23.566 191.328 26.105
 191.672 29.113 c h
191.672 29.113 m f
199.809 22.352 m 202.832 22.516 205.484 24.418 206.609 27.23 c 207.73 30.043
 207.121 33.254 205.043 35.453 c 202.965 37.656 199.797 38.453 196.922 37.496
 c 194.051 36.539 191.996 34 191.656 30.988 c 191.676 30.801 191.699 30.613
 191.707 30.422 c 191.734 29.984 191.719 29.547 191.672 29.113 c 192.191
 25.078 195.742 22.129 199.809 22.352 c h
199.809 22.352 m f
0.466667 0.286275 0.262745 rg
318.75 63.023 m 323.047 67.332 323.047 74.305 318.75 78.613 c 307.297 90.074
 l 302.441 84.555 297.199 79.387 291.613 74.609 c 303.188 63.023 l 305.25
 60.957 308.051 59.797 310.969 59.797 c 313.887 59.797 316.688 60.957 318.75
 63.023 c h
318.75 63.023 m f
0.286275 0.741176 1 rg
368.414 184.469 m 371.559 184.641 374.293 186.688 375.336 189.66 c 376.379
 192.629 375.531 195.938 373.188 198.039 c 370.84 200.137 367.461 200.617
 364.621 199.254 c 361.785 197.891 360.047 194.949 360.227 191.805 c 360.461
 187.52 364.129 184.234 368.414 184.469 c h
368.414 184.469 m f
354.473 176.391 m 358.504 176.625 361.688 179.902 361.801 183.941 c 361.914
 187.977 358.922 191.43 354.906 191.887 c 354.719 191.863 354.531 191.844
 354.344 191.836 c 353.91 191.809 353.473 191.824 353.039 191.871 c 349.309
 191.383 346.461 188.297 346.266 184.539 c 346.262 184.273 346.262 183.996
 346.273 183.727 c 346.391 181.668 347.316 179.738 348.855 178.363 c 350.391
 176.984 352.414 176.277 354.473 176.391 c h
354.473 176.391 m f
354.906 191.887 m 358.98 192.414 361.941 196.023 361.664 200.121 c 361.383
 204.223 357.957 207.395 353.848 207.359 c 349.742 207.328 346.367 204.102
 346.152 199.996 c 345.941 195.895 348.957 192.332 353.039 191.871 c 353.227
 191.895 353.414 191.918 353.602 191.926 c 354.039 191.949 354.473 191.938
 354.906 191.887 c h
354.906 191.887 m f
0.466667 0.286275 0.262745 rg
318.75 304.719 m 320.816 306.781 321.98 309.582 321.98 312.504 c 321.984
 315.422 320.824 318.223 318.762 320.293 c 316.699 322.359 313.898 323.52
 310.977 323.523 c 308.055 323.523 305.254 322.367 303.188 320.301 c 291.922
 309.031 l 297.5 304.238 302.73 299.055 307.566 293.52 c h
318.75 304.719 m f
0.286275 0.741176 1 rg
196.035 361.074 m 199.176 362.703 200.82 366.246 200.039 369.695 c 199.258
 373.148 196.25 375.637 192.715 375.758 c 189.18 375.879 186.004 373.602
 184.992 370.215 c 183.977 366.824 185.371 363.176 188.391 361.336 c 189.656
 360.551 191.121 360.156 192.609 360.195 c 193.801 360.223 194.973 360.523
 196.035 361.074 c h
196.035 361.074 m f
192.137 354.57 m 192.137 354.75 l 192.082 357.43 190.648 359.891 188.348
 361.262 c 187.098 362.012 185.66 362.395 184.199 362.355 c 181.07 362.293
 178.281 360.359 177.125 357.449 c 175.969 354.539 176.672 351.219 178.906
 349.023 c 181.145 346.832 184.477 346.191 187.363 347.402 c 190.25 348.613
 192.133 351.438 192.137 354.57 c h
192.137 354.57 m f
200.078 346.402 m 203.172 346.469 205.938 348.363 207.113 351.227 c 208.285
 354.094 207.652 357.383 205.492 359.602 c 203.336 361.824 200.066 362.555
 197.168 361.461 c 194.27 360.371 192.297 357.664 192.141 354.57 c 192.137
 354.391 192.129 354.195 192.137 354.008 c 192.23 349.938 195.441 346.629
 199.508 346.41 c 199.695 346.402 199.883 346.395 200.078 346.402 c h
200.078 346.402 m f
0.466667 0.286275 0.262745 rg
89.953 307.77 m 77.348 320.301 l 73.043 324.602 66.07 324.594 61.773 320.293
 c 57.477 315.988 57.48 309.016 61.785 304.719 c 74.453 292.012 l 79.234
 297.629 84.418 302.895 89.953 307.77 c h
89.953 307.77 m f
201.426 216.57 m 202.664 316.477 l 199.043 316.793 195.367 316.957 191.664
 316.957 c 187.957 316.957 184.281 316.793 180.652 316.477 c 181.246 216.309
 l 187.676 219.055 194.93 219.148 201.426 216.57 c h
201.426 216.57 m f
215.984 202.387 m 286.906 272.789 l 282.145 278.41 276.895 283.602 271.223
 288.301 c 201.426 216.57 l 203.559 215.727 205.57 214.605 207.414 213.238
 c 211.176 210.441 214.133 206.695 215.984 202.387 c h
215.984 202.387 m f
67.305 180.645 m 167.078 182.16 l 164.586 188.449 164.586 195.453 167.078
 201.742 c 67.266 202.688 l 67.262 202.688 l 66.953 199.156 66.801 195.57
 66.801 191.953 c 66.801 188.145 66.969 184.375 67.305 180.645 c h
67.305 180.645 m f
110.895 96.621 m 181.043 167.691 l 174.672 170.5 169.66 175.695 167.078
 182.16 c 95.438 112.289 l 100.121 106.625 105.293 101.383 110.895 96.621
 c h
110.895 96.621 m f
316.523 191.953 m 316.523 195.578 316.371 199.156 316.066 202.695 c 316.012
 202.688 l 215.984 202.379 l 218.957 195.41 218.812 187.5 215.586 180.645
 c 316.02 180.645 l 316.352 184.371 316.516 188.141 316.523 191.953 c h
316.523 191.953 m f
286.629 110.789 m 215.586 180.645 l 212.668 174.473 207.484 169.664 201.113
 167.211 c 270.891 95.34 l 270.898 95.332 l 276.586 100.016 281.848 105.188
 286.629 110.789 c h
286.629 110.789 m f
202.688 67.426 m 201.113 167.211 l 198.098 166.059 194.891 165.469 191.664
 165.473 c 189.27 165.473 186.883 165.797 184.574 166.434 c 183.367 166.766
 182.188 167.188 181.043 167.691 c 180.652 67.426 l 184.281 67.109 187.953
 66.949 191.664 66.945 c 195.375 66.945 199.059 67.109 202.688 67.426 c 
h
202.688 67.426 m f
181.23 216.301 m 110.586 287.023 l 105 282.238 99.84 276.973 95.168 271.289
 c 167.078 201.742 l 169.68 208.277 174.77 213.512 181.23 216.301 c h
181.23 216.301 m f
0.780392 0.603922 0.513726 rg
192 37.785 m 106.828 37.785 37.785 106.828 37.785 192 c 37.785 277.172 
106.828 346.215 192 346.215 c 277.172 346.215 346.215 277.172 346.215 192
 c 346.215 106.828 277.172 37.785 192 37.785 c h
192 317.012 m 141.441 317.012 95.859 286.555 76.508 239.844 c 57.16 193.133
 67.855 139.363 103.605 103.613 c 139.355 67.859 193.125 57.164 239.836 
76.512 c 286.547 95.859 317.004 141.441 317.008 192 c 317.008 261.039 261.039
 317.008 192 317.008 c h
192 317.012 m f
0.27451 0.537255 0.827451 rg
215.984 202.379 m 215.984 202.387 l 214.133 206.695 211.176 210.441 207.414
 213.238 c 207.406 213.234 l 207.406 213.234 211.223 198.195 190.312 191.828
 c 172.777 186.488 184.574 166.441 184.574 166.441 c 184.574 166.434 l 186.883
 165.797 189.27 165.473 191.664 165.473 c 200.555 165.488 208.848 169.965
 213.742 177.391 c 218.637 184.816 219.48 194.203 215.984 202.379 c h
215.984 202.379 m f
0.372549 0.658824 0.929412 rg
190.312 191.828 m 211.223 198.195 207.406 213.234 207.406 213.234 c 207.414
 213.238 l 199.852 218.836 189.895 220.004 181.246 216.309 c 181.246 216.285
 l 181.23 216.301 l 171.539 212.129 165.242 202.609 165.199 192.059 c 165.16
 181.508 171.383 171.938 181.043 167.691 c 182.188 167.188 183.367 166.766
 184.574 166.434 c 184.574 166.441 l 184.574 166.441 172.777 186.488 190.312
 191.828 c h
190.312 191.828 m f
0.6 0.466667 0.407843 rg
60.285 192 m 60.285 110.613 123.332 43.957 203.25 38.195 c 199.535 37.926
 195.785 37.789 192 37.785 c 106.828 37.785 37.785 106.828 37.785 192 c 
37.785 277.172 106.828 346.215 192 346.215 c 195.785 346.215 199.535 346.078
 203.25 345.805 c 123.332 340.043 60.285 273.387 60.285 192 c h
60.285 192 m f
0.156863 0.258824 0.407843 rg
15.484 204.637 m 15.668 204.645 15.852 204.648 16.031 204.648 c 16.863 
204.648 17.695 204.562 18.508 204.391 c 20.18 209.098 24.535 212.32 29.523
 212.551 c 29.707 212.559 29.891 212.562 30.07 212.562 c 31.539 212.562 
32.992 212.297 34.363 211.781 c 38.039 241.074 49.84 268.75 68.43 291.68
 c 58.598 301.539 l 54.164 305.977 52.836 312.648 55.234 318.445 c 57.637
 324.246 63.293 328.027 69.566 328.031 c 73.676 328.043 77.621 326.41 80.523
 323.496 c 90.238 313.84 l 113.805 333.578 142.625 346 173.156 349.582 c
 171.77 352.715 171.75 356.289 173.109 359.434 c 174.465 362.582 177.074
 365.02 180.309 366.156 c 180.23 366.668 180.184 367.184 180.168 367.699
 c 180.027 374.473 185.395 380.086 192.168 380.242 c 192.441 380.242 l 196.117
 380.246 199.598 378.602 201.93 375.758 c 204.258 372.918 205.188 369.184
 204.465 365.578 c 207.52 364.359 209.953 361.965 211.223 358.934 c 212.492
 355.902 212.496 352.488 211.227 349.453 c 240.719 345.789 268.578 333.867
 291.594 315.062 c 300 323.484 l 302.902 326.402 306.852 328.043 310.969
 328.031 c 317.242 328.027 322.898 324.246 325.297 318.445 c 327.699 312.648
 326.371 305.977 321.934 301.539 c 313.633 293.227 l 333.141 269.766 345.445
 241.164 349.062 210.867 c 350.379 211.445 351.789 211.781 353.227 211.863
 c 353.461 211.879 353.691 211.883 353.926 211.883 c 358.922 211.879 363.414
 208.84 365.277 204.203 c 365.941 204.359 366.617 204.457 367.293 204.5 
c 367.527 204.516 367.762 204.52 367.996 204.52 c 374.633 204.5 380.055 
199.207 380.234 192.574 c 380.414 185.938 375.289 180.359 368.664 179.98
 c 367.652 179.926 366.637 180 365.641 180.195 c 364.535 176.934 362.105
 174.285 358.949 172.906 c 355.789 171.523 352.199 171.535 349.051 172.941
 c 345.398 142.543 333.004 113.859 313.367 90.371 c 321.934 81.793 l 326.371
 77.355 327.699 70.68 325.301 64.883 c 322.898 59.086 317.242 55.301 310.969
 55.297 c 306.852 55.289 302.902 56.926 300 59.844 c 291.273 68.582 l 268.227
 49.848 240.355 38 210.875 34.406 c 213.188 28.18 210.133 21.238 203.973
 18.742 c 204.129 18.078 204.227 17.398 204.27 16.715 c 204.48 13.191 203.168
 9.75 200.664 7.262 c 198.16 4.777 194.707 3.488 191.188 3.73 c 187.668 
3.969 184.422 5.711 182.277 8.512 c 180.133 11.312 179.297 14.902 179.984
 18.363 c 176.824 19.438 174.238 21.758 172.824 24.785 c 171.414 27.812 
171.297 31.285 172.504 34.398 c 142.328 38.07 113.852 50.383 90.508 69.859
 c 80.531 59.844 l 77.625 56.91 73.672 55.258 69.543 55.246 c 65.414 55.238
 61.449 56.875 58.531 59.797 c 55.613 62.719 53.98 66.684 53.992 70.812 
c 54.008 74.941 55.664 78.895 58.602 81.797 c 68.719 91.895 l 66.105 95.105
 63.602 98.414 61.242 101.824 c 59.742 103.875 60.23 106.754 62.324 108.191
 c 64.414 109.629 67.281 109.055 68.652 106.922 c 96.523 66.445 142.516 
42.258 191.66 42.238 c 274.113 42.238 341.191 109.398 341.191 191.953 c 
341.191 274.508 274.113 341.672 191.66 341.672 c 109.211 341.672 42.129 
274.508 42.129 191.953 c 42.105 171.488 46.301 151.238 54.449 132.465 c 
55.316 130.477 54.633 128.152 52.828 126.945 c 52.816 126.938 l 50.496 125.379
 47.332 126.297 46.203 128.855 c 40.059 143.008 36.023 157.988 34.227 173.312
 c 27.957 171.004 20.992 174.145 18.574 180.375 c 15.219 179.66 11.719 180.383
 8.918 182.371 c 6.121 184.355 4.281 187.422 3.848 190.828 c 3.414 194.23
 4.426 197.66 6.637 200.285 c 8.848 202.91 12.055 204.488 15.484 204.641
 c h
365.801 189.793 m 366.398 189.254 367.172 188.957 367.977 188.961 c 368.039
 188.961 368.102 188.961 368.164 188.965 c 371.074 189.137 372.332 192.738
 370.16 194.688 c 369.516 195.266 368.664 195.562 367.801 195.512 c 364.887
 195.34 363.629 191.738 365.805 189.793 c h
351.859 181.711 m 352.457 181.172 353.23 180.875 354.035 180.879 c 354.094
 180.879 354.156 180.879 354.219 180.883 c 357.133 181.055 358.387 184.656
 356.215 186.605 c 355.789 186.984 355.27 187.242 354.711 187.355 c 354.672
 187.355 354.637 187.344 354.594 187.344 c 354.16 187.32 353.723 187.32 
353.289 187.344 c 350.715 186.73 349.887 183.477 351.859 181.711 c h
351.734 197.16 m 352.156 196.785 352.668 196.527 353.223 196.41 c 353.266
 196.41 353.309 196.422 353.352 196.426 c 353.586 196.438 353.82 196.445
 354.051 196.445 c 354.242 196.445 354.426 196.43 354.617 196.418 c 357.219
 196.996 358.078 200.281 356.09 202.059 c 355.445 202.637 354.594 202.934
 353.73 202.883 c 350.816 202.711 349.562 199.109 351.734 197.164 c h
74.609 85.059 m 64.965 75.434 l 62.426 72.883 62.426 68.758 64.965 66.207
 c 66.184 64.984 67.84 64.301 69.562 64.301 c 71.289 64.297 72.941 64.984
 74.16 66.203 c 83.742 75.82 l 80.574 78.773 77.531 81.852 74.609 85.059
 c h
187.125 29.43 m 187.102 29.871 187.102 30.312 187.125 30.75 c 186.48 33.398
 183.066 34.141 181.383 32 c 179.695 29.855 181.219 26.715 183.945 26.711
 c 184.008 26.711 184.07 26.711 184.133 26.715 c 185.605 26.805 186.84 27.871
 187.137 29.32 c 187.133 29.359 187.125 29.395 187.125 29.43 c h
194.199 18.477 m 193.555 19.055 192.703 19.352 191.84 19.301 c 188.926 
19.129 187.668 15.527 189.844 13.582 c 190.441 13.043 191.215 12.746 192.02
 12.746 c 192.078 12.746 192.141 12.746 192.203 12.754 c 195.117 12.926 
196.375 16.527 194.199 18.473 c h
201.555 32.562 m 200.91 33.145 200.059 33.441 199.195 33.387 c 197.719 
33.297 196.484 32.23 196.188 30.781 c 196.188 30.746 196.199 30.707 196.199
 30.672 c 196.223 30.23 196.223 29.789 196.199 29.352 c 196.543 27.879 197.859
 26.836 199.371 26.832 c 199.434 26.832 199.496 26.832 199.559 26.84 c 202.469
 27.012 203.727 30.613 201.555 32.559 c h
298.129 74.457 m 306.367 66.207 l 307.59 64.984 309.242 64.297 310.969 
64.297 c 312.695 64.297 314.348 64.984 315.57 66.207 c 318.109 68.758 318.109
 72.879 315.57 75.43 c 307.398 83.613 l 304.43 80.438 301.34 77.387 298.129
 74.457 c h
307.676 300 m 315.57 307.902 l 318.109 310.453 318.109 314.578 315.57 317.129
 c 314.348 318.348 312.695 319.035 310.969 319.035 c 309.242 319.035 307.59
 318.348 306.371 317.129 c 298.43 309.176 l 301.637 306.246 304.719 303.184
 307.676 300 c h
197.652 351.812 m 200.809 348.883 205.246 353.539 202.168 356.555 c 200.062
 358.574 196.566 357.031 196.641 354.113 c 196.656 353.242 197.016 352.41
 197.648 351.809 c h
190.18 365.602 m 190.785 365.02 191.594 364.691 192.438 364.695 c 192.512
 364.695 l 196.098 364.77 196.973 369.719 193.633 371.02 c 190.293 372.32
 187.59 368.082 190.184 365.602 c h
182.113 352.215 m 182.723 351.629 183.531 351.305 184.371 351.305 c 184.449
 351.305 l 188.031 351.375 188.91 356.328 185.57 357.629 c 182.23 358.934
 179.527 354.691 182.117 352.211 c h
83.488 307.863 m 74.172 317.129 l 72.953 318.348 71.297 319.035 69.57 319.035
 c 67.848 319.035 66.191 318.348 64.973 317.129 c 62.434 314.578 62.434 
310.453 64.973 307.902 c 74.301 298.547 l 77.23 301.777 80.289 304.883 83.484
 307.859 c h
32.266 202.703 m 31.629 203.293 30.781 203.602 29.914 203.559 c 27 203.422
 25.699 199.832 27.852 197.859 c 28.27 197.477 28.781 197.211 29.336 197.09
 c 29.379 197.09 29.422 197.098 29.465 197.102 c 29.648 197.109 29.828 197.113
 30.012 197.113 c 30.254 197.113 30.492 197.094 30.727 197.082 c 33.336 
197.629 34.234 200.898 32.266 202.699 c h
27.793 182.418 m 28.395 181.863 29.18 181.555 29.996 181.559 c 30.145 181.559
 l 33.062 181.695 34.359 185.281 32.211 187.254 c 31.789 187.637 31.273 
187.902 30.715 188.023 c 30.676 188.023 30.641 188.016 30.598 188.012 c 
30.164 187.996 29.727 188 29.293 188.027 c 26.711 187.445 25.844 184.203
 27.797 182.414 c h
13.812 189.949 m 14.414 189.395 15.199 189.09 16.016 189.09 c 16.164 189.09
 l 19.078 189.227 20.375 192.812 18.227 194.785 c 17.59 195.379 16.742 195.688
 15.875 195.645 c 12.961 195.504 11.664 191.918 13.812 189.945 c h
13.812 189.949 m f
186.629 56.109 m 190.109 52.625 186.273 46.887 181.723 48.77 c 177.176 
50.652 178.52 57.422 183.441 57.426 c 184.637 57.422 185.781 56.949 186.629
 56.109 c h
186.629 56.109 m f
203.504 56.109 m 206.973 52.629 203.141 46.906 198.605 48.789 c 194.066
 50.672 195.414 57.426 200.324 57.426 c 201.52 57.426 202.66 56.949 203.504
 56.109 c h
203.504 56.109 m f
180.262 328.199 m 176.781 331.684 180.625 337.426 185.172 335.535 c 189.719
 333.648 188.367 326.875 183.441 326.879 c 182.25 326.883 181.105 327.359
 180.262 328.199 c h
180.262 328.199 m f
197.137 328.199 m 193.66 331.684 197.496 337.422 202.043 335.539 c 206.59
 333.652 205.246 326.883 200.324 326.879 c 199.129 326.883 197.984 327.359
 197.137 328.199 c h
197.137 328.199 m f
330.945 188.203 m 335.879 188.211 337.234 181.426 332.68 179.535 c 328.125
 177.645 324.277 183.398 327.766 186.887 c 328.609 187.727 329.754 188.203
 330.945 188.203 c h
330.945 188.203 m f
327.766 203.781 m 331.242 207.25 336.965 203.418 335.082 198.883 c 333.199
 194.344 326.445 195.691 326.445 200.602 c 326.449 201.797 326.922 202.938
 327.766 203.781 c h
327.766 203.781 m f
56.004 180.523 m 52.523 177.059 46.801 180.891 48.684 185.426 c 50.566 
189.961 57.324 188.617 57.324 183.703 c 57.32 182.512 56.848 181.367 56.004
 180.523 c h
56.004 180.523 m f
52.824 196.102 m 47.891 196.094 46.531 202.879 51.09 204.773 c 55.645 206.664
 59.492 200.91 56.004 197.422 c 55.16 196.578 54.016 196.105 52.824 196.102
 c h
52.824 196.102 m f
293.004 281.445 m 289.535 284.922 293.367 290.645 297.902 288.762 c 302.441
 286.879 301.094 280.125 296.184 280.125 c 294.988 280.129 293.848 280.602
 293.004 281.445 c h
293.004 281.445 m f
281.062 293.391 m 277.551 296.879 281.391 302.66 285.965 300.777 c 290.539
 298.891 289.195 292.082 284.25 292.078 c 283.059 292.086 281.914 292.555
 281.062 293.391 c h
281.062 293.391 m f
102.703 90.906 m 106.184 87.426 102.348 81.688 97.801 83.57 c 93.25 85.453
 94.594 92.223 99.516 92.227 c 100.711 92.227 101.859 91.75 102.703 90.906
 c h
102.703 90.906 m f
90.766 102.863 m 94.266 99.379 90.43 93.617 85.863 95.5 c 81.301 97.383
 82.648 104.176 87.586 104.176 c 88.777 104.172 89.918 103.699 90.766 102.863
 c h
90.766 102.863 m f
96.336 293.391 m 92.824 296.879 96.672 302.664 101.246 300.773 c 105.82
 298.887 104.465 292.074 99.516 292.078 c 98.328 292.082 97.184 292.555 
96.336 293.391 c h
96.336 293.391 m f
84.406 281.445 m 80.938 284.922 84.77 290.645 89.305 288.762 c 93.844 286.879
 92.496 280.125 87.586 280.125 c 86.391 280.129 85.25 280.602 84.406 281.445
 c h
84.406 281.445 m f
299.363 102.863 m 302.863 99.379 299.027 93.617 294.461 95.5 c 289.898 
97.383 291.246 104.176 296.184 104.176 c 297.375 104.172 298.516 103.699
 299.363 102.863 c h
299.363 102.863 m f
287.43 90.906 m 290.898 87.43 287.066 81.707 282.527 83.59 c 277.992 85.473
 279.34 92.227 284.25 92.227 c 285.441 92.227 286.586 91.75 287.43 90.906
 c h
287.43 90.906 m f
191.66 321.461 m 262.984 321.461 321.02 263.363 321.02 191.953 c 321.02
 120.543 262.988 62.445 191.66 62.445 c 120.332 62.445 62.305 120.543 62.305
 191.953 c 62.305 263.363 120.332 321.461 191.66 321.461 c h
94.895 263.531 m 82.617 246.965 74.816 227.512 72.246 207.055 c 154.082
 206.277 l h
100.535 270.594 m 164.156 209.059 l 166.289 212.246 168.988 215.016 172.125
 217.223 c 109.5 279.926 l 106.348 276.977 103.355 273.859 100.535 270.594
 c h
174.426 311.219 m 153.125 308.137 133.047 299.371 116.305 285.844 c 174.922
 227.156 l h
191.66 312.461 m 188.891 312.461 186.145 312.359 183.422 312.172 c 183.949
 222.289 l 187.676 223.027 191.504 223.062 195.242 222.398 c 196.359 312.359
 l 194.801 312.422 193.234 312.461 191.66 312.461 c h
205.352 311.676 m 204.309 227.727 l 263.512 288.574 l 246.52 301.297 226.445
 309.273 205.352 311.676 c h
189.863 187.453 m 186.746 186.504 184.82 185.004 183.984 182.875 c 182.465
 179.004 184.367 173.441 185.852 170.285 c 194.258 168.715 202.812 172.164
 207.777 179.129 c 212.742 186.094 213.211 195.309 208.98 202.742 c 206.625
 196.934 201.117 190.879 189.863 187.453 c h
270.547 282.895 m 207.066 217.656 l 207.441 217.406 207.805 217.145 208.164
 216.883 c 208.281 216.801 208.395 216.723 208.504 216.633 c 211.098 214.672
 213.367 212.32 215.23 209.656 c 279.883 273.836 l 276.934 277.02 273.816
 280.043 270.547 282.895 c h
285.762 267 m 225.176 206.852 l 311.07 207.109 l 308.305 229.02 299.547
 249.746 285.762 267 c h
312.02 191.957 m 312.02 194.023 311.965 196.074 311.863 198.117 c 220.273
 197.836 l 221.105 193.617 221.043 189.27 220.09 185.078 c 311.816 185.078
 l 311.945 187.355 312.02 189.645 312.02 191.953 c h
285.422 116.488 m 299.242 133.633 308.082 154.246 310.973 176.078 c 224.82
 176.078 l h
279.516 109.68 m 214.719 173.391 l 212.531 170.465 209.848 167.941 206.789
 165.945 c 270.16 100.68 l 273.434 103.508 276.559 106.512 279.516 109.68
 c h
205.352 72.23 m 226.27 74.617 246.191 82.48 263.102 95.031 c 204.031 155.867
 l h
191.66 71.445 m 193.234 71.445 194.801 71.484 196.359 71.547 c 194.941 
161.32 l 191.234 160.707 187.445 160.773 183.762 161.52 c 183.406 71.734
 l 186.137 71.551 188.887 71.445 191.66 71.445 c h
187.238 196.062 m 200.227 200.02 201.547 207.352 201.453 210.57 c 195.43
 214.316 187.969 214.91 181.43 212.164 c 181.352 212.129 181.277 212.09 
181.203 212.059 c 181.141 212.035 l 174.406 209.098 169.586 202.988 168.297
 195.754 c 167.008 188.52 169.418 181.117 174.723 176.031 c 174.121 179.414
 174.422 182.898 175.598 186.125 c 176.883 189.434 179.949 193.844 187.242
 196.062 c h
174.414 72.688 m 174.746 156.613 l 116.668 97.77 l 133.332 84.41 153.27
 75.75 174.414 72.688 c h
109.84 103.664 m 171.996 166.641 l 168.926 168.828 166.273 171.555 164.176
 174.688 c 100.863 112.938 l 103.688 109.688 106.684 106.594 109.836 103.668
 c h
95.188 119.977 m 154.086 177.426 l 72.336 176.184 l 75.012 155.801 82.879
 136.445 95.188 119.977 c h
159.43 186.508 m 158.793 190.055 158.793 193.688 159.422 197.234 c 71.457
 198.062 l 71.355 196.039 71.309 194.004 71.309 191.953 c 71.309 189.676
 71.375 187.414 71.5 185.168 c h
159.43 186.508 m f
Q Q
showpage
%%Trailer
end
%%EOF
