%!PS-Adobe-3.0 EPSF-3.0
%%Creator: cairo 1.16.0 (https://cairographics.org)
%%CreationDate: Tue Feb  2 14:48:09 2021
%%Pages: 1
%%DocumentData: Clean7Bit
%%LanguageLevel: 2
%%BoundingBox: 3 15 381 369
%%EndComments
%%BeginProlog
50 dict begin
/q { gsave } bind def
/Q { grestore } bind def
/cm { 6 array astore concat } bind def
/w { setlinewidth } bind def
/J { setlinecap } bind def
/j { setlinejoin } bind def
/M { setmiterlimit } bind def
/d { setdash } bind def
/m { moveto } bind def
/l { lineto } bind def
/c { curveto } bind def
/h { closepath } bind def
/re { exch dup neg 3 1 roll 5 3 roll moveto 0 rlineto
      0 exch rlineto 0 rlineto closepath } bind def
/S { stroke } bind def
/f { fill } bind def
/f* { eofill } bind def
/n { newpath } bind def
/W { clip } bind def
/W* { eoclip } bind def
/BT { } bind def
/ET { } bind def
/BDC { mark 3 1 roll /BDC pdfmark } bind def
/EMC { mark /EMC pdfmark } bind def
/cairo_store_point { /cairo_point_y exch def /cairo_point_x exch def } def
/Tj { show currentpoint cairo_store_point } bind def
/TJ {
  {
    dup
    type /stringtype eq
    { show } { -0.001 mul 0 cairo_font_matrix dtransform rmoveto } ifelse
  } forall
  currentpoint cairo_store_point
} bind def
/cairo_selectfont { cairo_font_matrix aload pop pop pop 0 0 6 array astore
    cairo_font exch selectfont cairo_point_x cairo_point_y moveto } bind def
/Tf { pop /cairo_font exch def /cairo_font_matrix where
      { pop cairo_selectfont } if } bind def
/Td { matrix translate cairo_font_matrix matrix concatmatrix dup
      /cairo_font_matrix exch def dup 4 get exch 5 get cairo_store_point
      /cairo_font where { pop cairo_selectfont } if } bind def
/Tm { 2 copy 8 2 roll 6 array astore /cairo_font_matrix exch def
      cairo_store_point /cairo_font where { pop cairo_selectfont } if } bind def
/g { setgray } bind def
/rg { setrgbcolor } bind def
/d1 { setcachedevice } bind def
/cairo_data_source {
  CairoDataIndex CairoData length lt
    { CairoData CairoDataIndex get /CairoDataIndex CairoDataIndex 1 add def }
    { () } ifelse
} def
/cairo_flush_ascii85_file { cairo_ascii85_file status { cairo_ascii85_file flushfile } if } def
/cairo_image { image cairo_flush_ascii85_file } def
/cairo_imagemask { imagemask cairo_flush_ascii85_file } def
%%EndProlog
%%BeginSetup
%%EndSetup
%%Page: 1 1
%%BeginPageSetup
%%PageBoundingBox: 3 15 381 369
%%EndPageSetup
q 3 15 378 354 rectclip
1 0 0 -1 0 384 cm q
0.317647 0.337255 0.368627 rg
213.863 220.875 m 214.637 215.289 216.426 206.062 220.328 200.445 c 221.027
 199.398 221.867 198.453 222.824 197.633 c 227.699 205.777 236.918 214.418
 236.918 214.418 c 237.566 210.273 238.004 206.098 238.223 201.906 c 238.23
 201.906 l 238.23 201.906 244.371 199.059 261.148 204.699 c 245.379 341.789
 l 245.215 343.211 245.602 344.641 246.457 345.789 c 253.117 354.676 l 254.387
 356.371 254.59 358.641 253.641 360.535 c 252.691 362.43 250.754 363.625
 248.633 363.621 c 189.406 363.621 l 189.406 330.375 l 191.594 333.84 194.027
 337.148 196.68 340.273 c 203.332 347.941 212.398 353.113 222.383 354.938
 c 222.637 354.988 222.895 355.012 223.156 355.012 c 224.953 355.012 226.539
 353.848 227.078 352.133 c 230.109 342.562 l 230.75 340.465 229.211 338.34
 227.016 338.297 c 221.438 338.086 216.801 331.875 212.953 324.523 c 205.496
 310.117 202.836 293.699 205.363 277.672 c 213.344 225.629 l 213.344 225.629
 213.473 223.727 213.863 220.875 c h
213.863 220.875 m f
0.392157 0.415686 0.466667 rg
189.406 330.375 m 189.406 363.621 l 131.242 363.621 l 128.996 363.625 126.965
 362.285 126.086 360.219 c 125.211 358.148 125.652 355.758 127.215 354.141
 c 135.105 345.969 l 136.301 344.727 136.859 343.008 136.621 341.301 c 117.652
 206.586 l 138.129 198.547 144.316 202.273 144.316 202.273 c 144.539 206.34
 144.965 210.395 145.598 214.418 c 145.598 214.418 154.117 206.43 159.105
 198.578 c 159.949 199.473 160.668 200.477 161.234 201.57 c 163.043 204.758
 165.422 210.789 166.059 220.98 c 166.164 222.676 166.223 224.484 166.223
 226.41 c 166.223 237.309 168.195 247.98 169.539 268.477 c 170.715 287.48
 175.973 306.008 184.949 322.801 c 186.324 325.352 187.809 327.891 189.406
 330.375 c h
189.406 330.375 m f
0.690196 0.709804 0.792157 rg
227.016 338.297 m 229.211 338.34 230.75 340.465 230.109 342.562 c 227.078
 352.133 l 226.539 353.848 224.953 355.012 223.156 355.012 c 222.895 355.012
 222.637 354.988 222.383 354.938 c 212.398 353.113 203.332 347.941 196.68
 340.273 c 194.027 337.148 191.594 333.84 189.406 330.375 c 187.809 327.891
 186.324 325.352 184.949 322.801 c 175.973 306.008 170.715 287.48 169.539
 268.477 c 168.195 247.98 166.223 237.309 166.223 226.41 c 166.223 224.484
 166.164 222.676 166.059 220.98 c 166.059 220.98 186.059 210.203 213.863
 220.875 c 213.473 223.727 213.344 225.629 213.344 225.629 c 205.363 277.672
 l 202.836 293.699 205.496 310.117 212.953 324.523 c 216.801 331.875 221.438
 338.086 227.016 338.297 c h
227.016 338.297 m f
0.615686 0.635294 0.698039 rg
220.328 200.445 m 216.426 206.062 214.637 215.289 213.863 220.875 c 186.059
 210.203 166.059 220.98 166.059 220.98 c 165.422 210.789 163.043 204.758
 161.234 201.57 c 161.242 201.57 l 161.242 201.57 188.609 184.246 220.328
 200.445 c h
220.328 200.445 m f
0.870588 g
159.105 182.348 m 161.031 183.953 162.281 186.234 162.594 188.723 c 162.906
 191.477 161.371 195.016 159.105 198.578 c 154.117 206.43 145.598 214.418
 145.598 214.418 c 144.965 210.395 144.539 206.34 144.316 202.273 c 143.941
 195.852 144.02 189.406 144.547 182.992 c 147.344 177.969 154.68 178.5 159.105
 182.348 c h
159.105 182.348 m f
0.690196 0.709804 0.792157 rg
223.41 182.348 m 223.41 182.355 l 221.484 183.961 220.242 186.234 219.93
 188.723 c 219.645 191.234 220.891 194.391 222.824 197.633 c 221.867 198.453
 221.027 199.398 220.328 200.445 c 188.609 184.246 161.242 201.57 161.242
 201.57 c 161.234 201.57 l 160.668 200.477 159.949 199.473 159.105 198.578
 c 161.371 195.016 162.906 191.477 162.594 188.723 c 162.281 186.234 161.031
 183.953 159.105 182.348 c 159.465 181.336 159.801 180.336 160.125 179.34
 c 160.125 179.34 189.164 163.078 222.391 179.34 c 222.711 180.336 223.051
 181.336 223.41 182.348 c h
223.41 182.348 m f
0.870588 g
237.977 182.992 m 238.488 189.285 238.57 195.605 238.223 201.906 c 238.004
 206.098 237.566 210.273 236.918 214.418 c 236.918 214.418 227.699 205.777
 222.824 197.633 c 220.891 194.391 219.645 191.234 219.93 188.723 c 220.242
 186.234 221.484 183.961 223.41 182.355 c 223.41 182.348 l 227.836 178.5
 235.176 177.969 237.977 182.992 c h
237.977 182.992 m f
0.290196 0.317647 0.376471 rg
234.227 161.863 m 236.191 168.762 237.449 175.84 237.977 182.992 c 235.176
 177.969 227.836 178.5 223.41 182.348 c 223.051 181.336 222.711 180.336 
222.391 179.34 c 219.66 170.969 217.996 162.285 217.441 153.496 c 216.164
 133.012 221.648 119.73 221.648 119.73 c 221.648 119.73 221.746 139.141 
227.477 147.156 c 230.289 151.078 232.523 156.137 234.227 161.863 c h
234.227 161.863 m f
0.615686 0.635294 0.698039 rg
217.441 153.496 m 217.996 162.285 219.66 170.969 222.391 179.34 c 189.164
 163.078 160.125 179.34 160.125 179.34 c 162.793 171.145 164.445 162.656
 165.039 154.059 c 165.047 154.059 l 165.047 154.059 189.629 142.816 217.441
 153.496 c h
217.441 153.496 m f
0.290196 0.317647 0.376471 rg
160.875 119.73 m 160.875 119.73 166.453 133.254 165.039 154.059 c 164.445
 162.656 162.793 171.145 160.125 179.34 c 159.801 180.336 159.465 181.336
 159.105 182.348 c 154.68 178.5 147.344 177.969 144.547 182.992 c 145.07
 175.84 146.328 168.762 148.297 161.863 c 149.992 156.137 152.234 151.078
 155.039 147.156 c 160.777 139.141 160.875 119.73 160.875 119.73 c h
160.875 119.73 m f
0.690196 0.709804 0.792157 rg
363.344 77.266 m 371.625 83.906 376.223 94.113 375.703 104.715 c 375.617
 106.418 375.418 108.109 375.105 109.785 c 375.098 109.785 l 369.727 108.441
 337.516 102.398 310.289 60.441 c 297.211 40.289 266.895 27.336 234.523 
33.488 c 234.523 33.496 l 230.152 30.828 225.457 28.738 220.551 27.27 c 
220.551 27.262 l 251.453 17.863 282.449 18.098 306.719 28.785 c 306.863 
28.844 307.012 28.914 307.156 28.973 c 318.871 33.969 329.266 41.617 337.523
 51.316 c 347.887 63.711 356.902 72.066 363.344 77.266 c h
363.344 77.266 m f
0.427451 0.454902 0.52549 rg
237.977 182.992 m 237.449 175.84 236.191 168.762 234.227 161.863 c 241.199
 156.523 245.578 144.105 246.375 136.531 c 246.859 131.703 249.289 127.285
 253.102 124.289 c 258.645 119.969 265.273 112.035 261.645 100.273 c 260.109
 95.676 259.68 90.781 260.387 85.988 c 262.891 70.934 258.668 55.492 248.062
 44.484 c 244.047 40.246 239.496 36.555 234.523 33.496 c 234.523 33.488 
l 266.895 27.336 297.211 40.289 310.289 60.441 c 337.516 102.398 369.727
 108.441 375.098 109.785 c 373.852 116.43 370.656 122.609 364.297 126.359
 c 354.121 132.375 345.316 140.445 339.121 150.496 c 338.836 150.969 l 333.633
 159.258 327.168 166.688 319.672 172.98 c 312.539 179.07 308.574 181.004
 304.141 193.906 c 299.902 206.234 282.758 213.824 273.285 209.527 c 269.324
 207.715 265.273 206.102 261.148 204.699 c 244.371 199.059 238.23 201.906
 238.23 201.906 c 238.223 201.906 l 238.57 195.605 238.488 189.285 237.977
 182.992 c h
237.977 182.992 m f
0.690196 0.709804 0.792157 rg
221.648 119.73 m 221.648 119.73 216.164 133.012 217.441 153.496 c 189.629
 142.816 165.047 154.059 165.047 154.059 c 165.039 154.059 l 166.453 133.254
 160.875 119.73 160.875 119.73 c 160.875 119.73 160.777 139.141 155.039 
147.156 c 152.234 151.078 149.992 156.137 148.297 161.863 c 148.289 161.863
 l 141.324 156.523 136.941 144.105 136.148 136.531 c 135.656 131.707 133.23
 127.289 129.422 124.289 c 123.879 119.969 117.238 112.035 120.871 100.273
 c 122.41 95.68 122.844 90.785 122.137 85.988 c 119.625 70.934 123.848 55.492
 134.453 44.484 c 138.531 40.18 143.16 36.438 148.223 33.352 c 152.719 30.648
 157.551 28.539 162.594 27.082 c 170.977 24.613 180.082 23.723 190.246 23.691
 c 192.27 23.691 l 202.688 23.73 211.996 24.66 220.551 27.27 c 225.457 28.738
 230.152 30.828 234.523 33.496 c 239.496 36.555 244.047 40.246 248.062 44.484
 c 258.668 55.492 262.891 70.934 260.387 85.988 c 259.68 90.781 260.109 
95.676 261.645 100.273 c 265.273 112.035 258.645 119.969 253.102 124.289
 c 249.289 127.285 246.859 131.703 246.375 136.531 c 245.578 144.105 241.199
 156.523 234.227 161.863 c 232.523 156.137 230.289 151.078 227.477 147.156
 c 221.746 139.141 221.648 119.73 221.648 119.73 c h
221.648 119.73 m f
0.427451 0.454902 0.52549 rg
144.547 182.992 m 144.02 189.406 143.941 195.852 144.316 202.273 c 144.316
 202.273 138.129 198.547 117.652 206.586 c 115.5 207.426 113.188 208.406
 110.715 209.527 c 101.242 213.824 84.098 206.234 79.859 193.906 c 75.426
 181.004 71.461 179.07 64.328 172.98 c 56.832 166.688 50.367 159.258 45.164
 150.969 c 44.879 150.496 l 38.684 140.445 29.879 132.375 19.703 126.359
 c 13.344 122.609 10.148 116.43 8.902 109.785 c 14.273 108.441 46.484 102.398
 73.711 60.441 c 86.789 40.289 115.852 27.195 148.223 33.344 c 148.223 33.352
 l 143.16 36.438 138.531 40.18 134.453 44.484 c 123.848 55.492 119.625 70.934
 122.137 85.988 c 122.844 90.785 122.41 95.68 120.871 100.273 c 117.238 
112.035 123.879 119.969 129.422 124.289 c 133.23 127.289 135.656 131.707
 136.148 136.531 c 136.941 144.105 141.324 156.523 148.289 161.863 c 148.297
 161.863 l 146.328 168.762 145.07 175.84 144.547 182.992 c h
144.547 182.992 m f
0.690196 0.709804 0.792157 rg
162.594 27.082 m 157.551 28.539 152.719 30.648 148.223 33.352 c 148.223
 33.344 l 115.852 27.195 86.789 40.289 73.711 60.441 c 46.484 102.398 14.273
 108.441 8.902 109.785 c 8.895 109.785 l 8.582 108.109 8.383 106.418 8.297
 104.715 c 7.777 94.113 12.375 83.906 20.656 77.266 c 27.098 72.066 36.113
 63.711 46.477 51.316 c 54.734 41.617 65.129 33.969 76.844 28.973 c 76.988
 28.914 77.137 28.844 77.281 28.785 c 101.551 18.098 131.684 17.676 162.594
 27.082 c h
162.594 27.082 m f
0.290196 0.317647 0.376471 rg
146.879 116.648 m 146.879 118.496 145.383 119.992 143.535 119.992 c 141.688
 119.992 140.191 118.496 140.191 116.648 c 140.191 114.801 141.688 113.301
 143.535 113.301 c 145.383 113.301 146.879 114.801 146.879 116.648 c h
146.879 116.648 m f
240.227 116.648 m 240.227 118.496 238.727 119.992 236.879 119.992 c 235.031
 119.992 233.535 118.496 233.535 116.648 c 233.535 114.801 235.031 113.301
 236.879 113.301 c 238.727 113.301 240.227 114.801 240.227 116.648 c h
240.227 116.648 m f
0.290196 0.309804 0.337255 rg
149.715 354.207 m 157.605 346 l 158.801 344.754 159.359 343.027 159.121
 341.316 c 138.496 201.43 l 134.375 201.527 127.758 202.625 117.656 206.59
 c 136.625 341.305 l 136.863 343.008 136.305 344.73 135.109 345.969 c 127.219
 354.207 l 125.656 355.832 125.211 358.227 126.086 360.305 c 126.965 362.379
 128.988 363.734 131.242 363.75 c 153.742 363.75 l 151.488 363.734 149.461
 362.379 148.586 360.305 c 147.707 358.23 148.152 355.832 149.715 354.207
 c h
149.715 354.207 m f
0.603922 0.615686 0.658824 rg
43.156 77.266 m 49.598 72.066 58.613 63.711 68.977 51.316 c 77.234 41.617
 87.629 33.969 99.344 28.973 c 99.488 28.914 99.637 28.848 99.781 28.785
 c 109.758 24.473 120.367 21.805 131.199 20.883 c 111.66 19.18 93.207 21.77
 77.281 28.785 c 77.137 28.844 76.988 28.914 76.844 28.973 c 65.129 33.969
 54.734 41.617 46.477 51.316 c 36.113 63.711 27.098 72.066 20.656 77.266
 c 11.023 84.973 6.488 97.402 8.895 109.5 c 8.902 109.5 l 11.414 109.5 19.793
 107.359 30.789 101.484 c 31.191 91.996 35.707 83.156 43.156 77.266 c h
43.156 77.266 m f
0.34902 0.364706 0.407843 rg
102.359 193.895 m 97.926 180.996 93.961 179.051 86.828 172.961 c 79.332
 166.66 72.867 159.23 67.664 150.934 c 67.379 150.422 l 61.078 140.43 52.434
 132.125 42.203 126.219 c 35.844 122.469 32.648 116.25 31.402 109.5 c 31.395
 109.5 l 31.07 107.875 30.871 106.227 30.797 104.574 c 30.742 103.586 30.75
 102.602 30.789 101.625 c 23.906 105.348 16.539 108.094 8.902 109.785 c 
10.148 116.43 13.344 122.609 19.703 126.359 c 29.879 132.375 38.684 140.445
 44.879 150.496 c 45.164 150.969 l 50.367 159.258 56.832 166.688 64.328 
172.98 c 71.461 179.07 75.426 181.004 79.859 193.906 c 84.098 206.234 101.242
 213.824 110.715 209.527 c 112.258 208.824 113.73 208.191 115.148 207.602
 c 109.426 204.656 104.398 199.828 102.359 193.895 c h
102.359 193.895 m f
0.156863 0.258824 0.407843 rg
244.727 116.648 m 244.727 113.473 242.812 110.613 239.883 109.398 c 236.949
 108.184 233.574 108.855 231.332 111.098 c 229.086 113.344 228.414 116.719
 229.629 119.648 c 230.844 122.582 233.703 124.492 236.879 124.492 c 241.211
 124.488 244.719 120.977 244.727 116.648 c h
235.727 116.648 m 235.727 115.617 236.969 115.105 237.695 115.832 c 238.422
 116.559 237.906 117.801 236.879 117.801 c 236.242 117.801 235.727 117.285
 235.727 116.648 c h
235.727 116.648 m f
143.535 124.492 m 146.707 124.492 149.566 122.582 150.781 119.648 c 151.996
 116.719 151.324 113.344 149.082 111.098 c 146.836 108.855 143.461 108.184
 140.531 109.398 c 137.598 110.613 135.688 113.473 135.688 116.648 c 135.691
 120.977 139.203 124.488 143.535 124.492 c h
143.535 115.492 m 144.562 115.492 145.074 116.734 144.348 117.461 c 143.621
 118.188 142.379 117.676 142.379 116.648 c 142.379 116.012 142.898 115.492
 143.535 115.492 c h
143.535 115.492 m f
17.414 130.238 m 27.535 136.211 35.484 143.824 41.047 152.855 c 41.336 
153.328 l 46.781 162.02 53.555 169.801 61.406 176.398 c 62.332 177.188 63.203
 177.91 64.031 178.594 c 69.438 183.062 72.148 185.305 75.609 195.371 c 
78.102 202.629 84.512 209.082 92.754 212.637 c 96.465 214.293 100.473 215.18
 104.535 215.242 c 107.301 215.281 110.043 214.73 112.574 213.625 c 113.062
 213.398 113.535 213.195 114.008 212.984 c 132.164 341.93 l 132.211 342.262
 132.102 342.598 131.867 342.84 c 123.977 351.02 l 121.164 353.938 120.367
 358.25 121.953 361.977 c 123.535 365.703 127.195 368.121 131.246 368.121
 c 248.637 368.121 l 252.457 368.121 255.953 365.965 257.668 362.547 c 259.379
 359.129 259.012 355.035 256.719 351.977 c 250.059 343.082 l 249.891 342.859
 249.812 342.582 249.848 342.305 c 264.969 210.883 l 266.984 211.676 269.129
 212.582 271.426 213.621 c 273.961 214.727 276.703 215.281 279.465 215.242
 c 283.527 215.18 287.535 214.293 291.246 212.637 c 299.488 209.082 305.898
 202.629 308.395 195.367 c 311.852 185.301 314.566 183.059 319.969 178.594
 c 320.793 177.91 321.668 177.188 322.594 176.398 c 330.445 169.801 337.219
 162.016 342.664 153.328 c 342.957 152.855 l 348.516 143.82 356.465 136.211
 366.586 130.234 c 374.871 125.344 379.578 116.598 380.199 104.949 c 380.777
 92.91 375.566 81.32 366.176 73.766 c 360.539 69.215 351.594 61.125 340.973
 48.43 c 332.602 38.426 321.832 30.492 308.953 24.848 c 308.535 24.664 l
 283.863 13.805 252.676 13.074 220.566 22.57 c 211.117 19.863 201.574 19.23
 192.273 19.195 c 190.23 19.195 l 181.148 19.227 171.828 19.836 162.59 22.387
 c 130.965 13.039 100.07 13.832 75.469 24.66 c 75.043 24.848 l 62.168 30.492
 51.398 38.426 43.027 48.43 c 32.41 61.125 23.465 69.215 17.828 73.766 c
 8.438 81.32 3.223 92.91 3.805 104.949 c 4.426 116.602 9.129 125.348 17.414
 130.238 c h
108.855 205.426 m 105.824 206.801 101.016 206.395 96.316 204.367 c 90.453
 201.84 85.777 197.27 84.117 192.445 c 79.836 179.98 75.609 176.488 69.766
 171.656 c 68.973 171 68.137 170.312 67.25 169.559 c 60.113 163.57 53.957
 156.5 49 148.613 c 48.711 148.141 l 42.375 137.848 33.383 129.215 21.988
 122.492 c 18.426 120.328 15.746 116.969 14.426 113.012 c 45.156 104.379
 65.602 81.195 77.48 62.895 c 83.551 53.543 93.453 45.848 105.359 41.23 
c 115.25 37.449 125.832 35.812 136.406 36.438 c 134.66 37.945 132.93 39.582
 131.215 41.359 c 119.965 53.043 114.91 70.004 117.695 86.734 c 118.277 
90.84 117.891 95.027 116.57 98.957 c 113.195 109.887 116.773 120.145 126.652
 127.848 c 129.492 130.098 131.305 133.402 131.668 137.012 c 132.305 142.129
 133.688 147.129 135.777 151.848 c 137.555 156.094 140.07 159.992 143.207
 163.359 c 142.031 167.961 141.16 172.633 140.594 177.348 c 139.809 183.832
 139.48 190.359 139.602 196.887 c 133.875 196.781 124.289 198.434 108.855
 205.426 c h
184.902 359.121 m 131.242 359.121 l 130.277 359.129 129.781 357.969 130.449
 357.27 c 138.344 349.09 l 140.508 346.859 141.516 343.754 141.074 340.676
 c 122.609 209.535 l 131.914 206.223 137.332 205.809 140.055 205.945 c 140.316
 209.074 140.684 212.148 141.156 215.125 c 141.723 218.688 146.043 220.168
 148.68 217.699 c 152.277 214.324 155.641 210.703 158.738 206.863 c 160.211
 210.672 161.723 216.887 161.723 226.406 c 161.723 232.645 162.332 238.707
 163.109 246.379 c 163.738 252.605 164.449 259.664 165.047 268.773 c 166.297
 288.418 171.73 307.566 180.992 324.938 c 182.258 327.285 183.562 329.531
 184.902 331.668 c h
152.535 183.969 m 155.07 184.473 157.801 186.445 158.121 189.234 c 158.445
 192.078 154.262 198.402 148.93 204.488 c 148.379 197.898 148.352 191.277
 148.844 184.688 c 149.887 183.602 151.727 183.809 152.535 183.969 c h
150 174.887 m 151.793 163.859 155.016 154.93 158.699 149.777 c 159.5 148.637
 160.188 147.422 160.754 146.148 c 160.836 156.176 159.41 166.156 156.516
 175.754 c 155.789 175.5 155.043 175.297 154.289 175.145 c 152.879 174.855
 151.434 174.77 150 174.887 c h
217.711 182.129 m 216.496 183.953 215.727 186.035 215.461 188.215 c 215.305
 190.027 215.516 191.859 216.078 193.59 c 200.047 187.301 182.203 187.477
 166.297 194.078 c 167.812 190.078 167.246 185.59 164.789 182.09 c 171.871
 178.984 193.406 171.512 217.707 182.129 c h
166.938 171.602 m 168.051 166.867 168.844 162.07 169.312 157.23 c 175.598
 155.035 193.406 150.156 213.164 156.742 c 213.625 161.762 214.438 166.738
 215.59 171.645 c 199.824 166.242 182.715 166.227 166.938 171.602 c h
214.078 202.5 m 212.359 206.477 211.09 210.629 210.289 214.887 c 192.129
 209.309 177.605 212.102 169.914 214.598 c 169.398 210.824 168.465 207.121
 167.125 203.555 c 174.551 200.102 193.008 193.672 214.078 202.5 c h
193.902 359.121 m 193.902 343.914 l 200.91 351.664 210.195 356.992 220.422
 359.121 c h
240.91 341.277 m 240.609 343.84 241.309 346.418 242.859 348.477 c 249.516
 357.375 l 250.059 358.098 249.535 359.129 248.633 359.125 c 225.691 359.125
 l 228.395 358.293 230.516 356.188 231.371 353.492 c 234.316 344.172 l 235.098
 341.828 234.754 339.254 233.391 337.191 c 231.98 335.141 229.68 333.883
 227.191 333.801 c 225.551 333.738 222.039 332.18 216.941 322.438 c 209.957
 308.871 207.465 293.438 209.816 278.359 c 211.695 266.086 l 212.094 263.617
 210.406 261.301 207.938 260.922 c 205.469 260.543 203.16 262.25 202.801
 264.723 c 200.918 276.996 l 198.281 293.969 201.102 311.344 208.969 326.613
 c 212.312 333.004 217.578 341.406 225.359 342.648 c 222.895 350.453 l 214.043
 348.762 206.016 344.148 200.102 337.352 c 195.793 332.195 192.043 326.602
 188.91 320.664 c 180.262 304.434 175.188 286.543 174.027 268.188 c 173.418
 258.918 172.699 251.777 172.062 245.477 c 171.312 238.059 170.719 232.195
 170.719 226.41 c 170.719 225.535 170.707 224.695 170.684 223.867 c 176.199
 221.762 190.441 217.836 208.973 223.922 c 208.922 224.445 208.891 224.859
 208.871 225.141 c 207.402 234.723 l 206.492 240.652 215.387 242.016 216.297
 236.086 c 217.797 226.316 l 217.812 226.188 217.824 226.062 217.84 225.93
 c 218.223 220.246 219.801 211.18 222.633 205.395 c 226.035 209.789 229.781
 213.906 233.84 217.703 c 236.477 220.168 240.797 218.691 241.363 215.125
 c 241.848 212.082 242.219 208.934 242.48 205.727 c 244.965 205.617 249.383
 205.895 256.258 207.887 c h
231.137 144.539 m 227.129 138.938 226.176 124.715 226.148 119.73 c 226.039
 115.156 227.668 110.711 230.707 107.293 c 233.676 104.129 237.852 102.379
 242.188 102.477 c 242.207 102.477 l 246.266 102.477 247.672 102.953 249.848
 106.266 c 252.055 109.633 257.23 108.629 258.023 104.684 c 258.828 110.73
 256.258 116.125 250.332 120.742 c 245.566 124.5 242.527 130.027 241.898
 136.062 c 241.184 142.137 239.129 147.973 235.879 153.152 c 234.613 150.121
 233.023 147.234 231.137 144.539 c h
233.586 204.52 m 227.617 197.719 224.125 191.641 224.398 189.234 c 224.719
 186.445 227.449 184.473 229.984 183.969 c 230.41 183.887 230.84 183.84 
231.273 183.84 c 232.156 183.785 233.023 184.09 233.676 184.688 c 234.168
 191.289 234.137 197.922 233.586 204.52 c h
232.523 174.887 m 231.086 174.77 229.641 174.855 228.23 175.145 c 227.477
 175.297 226.73 175.5 226.004 175.754 c 223.113 166.18 221.695 156.219 221.797
 146.219 c 222.359 147.465 223.035 148.656 223.82 149.777 c 227.504 154.93
 230.73 163.859 232.523 174.887 c h
362.012 122.488 m 350.617 129.215 341.625 137.844 335.289 148.137 c 335
 148.609 l 330.043 156.5 323.887 163.566 316.75 169.555 c 315.863 170.309
 315.027 171 314.234 171.652 c 308.387 176.484 304.164 179.98 299.883 192.441
 c 298.223 197.27 293.547 201.84 287.684 204.367 c 282.984 206.391 278.176
 206.797 275.145 205.422 c 259.008 198.105 248.836 196.562 242.922 196.664
 c 243.031 190.207 242.699 183.75 241.926 177.336 c 241.359 172.621 240.484
 167.949 239.309 163.348 c 242.445 159.977 244.961 156.078 246.738 151.832
 c 248.828 147.117 250.215 142.117 250.848 136.996 c 251.215 133.391 253.023
 130.086 255.867 127.832 c 265.742 120.133 269.324 109.871 265.945 98.941
 c 264.625 95.012 264.242 90.828 264.82 86.723 c 267.609 69.992 262.555 
53.031 251.305 41.348 c 249.641 39.621 247.961 38.031 246.262 36.555 c 257.074
 35.906 267.906 37.523 278.055 41.301 c 290.387 45.941 300.496 53.602 306.516
 62.883 c 318.395 81.18 338.844 104.363 369.574 112.996 c 368.258 116.957
 365.578 120.32 362.012 122.488 c h
304.914 32.902 m 305.344 33.094 l 316.934 38.172 326.598 45.277 334.07 
54.207 c 345.156 67.457 354.57 75.965 360.52 80.77 c 367.566 86.43 371.535
 95.078 371.223 104.113 c 343.613 96.047 324.984 74.812 314.07 57.988 c 
299.289 35.223 267.105 23.355 235.352 28.777 c 235.055 28.609 234.758 28.445
 234.461 28.281 c 260.418 22.609 285.059 24.164 304.914 32.902 c h
190.246 28.199 m 192.258 28.199 l 212.66 28.273 229.41 31.602 244.824 47.605
 c 254.25 57.387 258.301 71.109 255.945 85.25 c 255.152 90.555 255.582 95.969
 257.199 101.082 c 252.961 94.773 248.312 93.48 242.215 93.477 c 242.191
 93.477 l 235.359 93.391 228.805 96.176 224.125 101.156 c 219.727 106.008
 217.254 112.301 217.168 118.848 c 216.086 121.793 212.738 132.129 212.723
 147.199 c 198.656 143.324 183.785 143.465 169.793 147.605 c 169.84 132.273
 166.418 121.758 165.344 118.824 c 165.039 110.992 160.844 103.094 154.223
 98.023 c 148.422 93.578 141.766 92.07 135.48 93.766 c 130.688 95.164 126.895
 98.84 125.348 103.59 c 124.609 105.969 125.945 108.492 128.328 109.223 
c 130.707 109.953 133.227 108.609 133.953 106.227 c 134.602 104.445 136.031
 103.059 137.828 102.457 c 142.57 101.176 146.711 103.605 148.754 105.172
 c 153.383 108.715 156.371 114.43 156.371 119.711 c 156.344 124.719 155.391
 138.941 151.379 144.547 c 149.496 147.238 147.906 150.125 146.645 153.16
 c 143.395 147.98 141.336 142.141 140.621 136.066 c 139.996 130.031 136.953
 124.508 132.188 120.75 c 125.273 115.359 122.914 108.918 125.172 101.609
 c 126.91 96.344 127.391 90.742 126.574 85.254 c 124.219 71.113 128.273 
57.391 137.695 47.605 c 153.109 31.598 169.855 28.27 190.246 28.199 c h
23.484 80.773 m 29.43 75.977 38.848 67.465 49.934 54.211 c 57.402 45.289
 67.066 38.18 78.656 33.102 c 79.094 32.91 l 98.781 24.242 123.035 22.613
 148.461 28.07 c 148.113 28.262 147.758 28.445 147.41 28.648 c 132.207 25.918
 116.551 27.367 102.109 32.844 c 88.453 38.141 77.027 47.074 69.934 58 c
 59.016 74.816 40.391 96.055 12.785 104.125 c 12.469 95.086 16.434 86.43
 23.484 80.77 c h
23.484 80.773 m f
91.156 71.668 m 89.074 70.312 86.285 70.906 84.934 72.992 c 80.516 79.848
 75.488 86.293 69.914 92.25 c 65.113 97.371 59.828 102.016 54.133 106.125
 c 49.258 109.621 54.5 116.938 59.379 113.441 c 65.539 108.996 71.262 103.965
 76.461 98.426 c 82.406 92.074 87.77 85.199 92.48 77.891 c 93.832 75.805
 93.242 73.02 91.156 71.668 c h
91.156 71.668 m f
41.957 113.543 m 40.324 114.371 38.66 115.152 37.008 115.859 c 34.711 116.828
 33.641 119.484 34.621 121.777 c 35.605 124.07 38.266 125.125 40.555 124.129
 c 42.379 123.348 44.223 122.488 46.027 121.57 c 51.18 118.797 47.246 111.031
 41.961 113.547 c h
41.957 113.543 m f
Q Q
showpage
%%Trailer
end
%%EOF
