%!PS-Adobe-3.0 EPSF-3.0
%%Creator: cairo 1.16.0 (https://cairographics.org)
%%CreationDate: Tue Feb  2 14:48:10 2021
%%Pages: 1
%%DocumentData: Clean7Bit
%%LanguageLevel: 2
%%BoundingBox: 32 3 352 381
%%EndComments
%%BeginProlog
50 dict begin
/q { gsave } bind def
/Q { grestore } bind def
/cm { 6 array astore concat } bind def
/w { setlinewidth } bind def
/J { setlinecap } bind def
/j { setlinejoin } bind def
/M { setmiterlimit } bind def
/d { setdash } bind def
/m { moveto } bind def
/l { lineto } bind def
/c { curveto } bind def
/h { closepath } bind def
/re { exch dup neg 3 1 roll 5 3 roll moveto 0 rlineto
      0 exch rlineto 0 rlineto closepath } bind def
/S { stroke } bind def
/f { fill } bind def
/f* { eofill } bind def
/n { newpath } bind def
/W { clip } bind def
/W* { eoclip } bind def
/BT { } bind def
/ET { } bind def
/BDC { mark 3 1 roll /BDC pdfmark } bind def
/EMC { mark /EMC pdfmark } bind def
/cairo_store_point { /cairo_point_y exch def /cairo_point_x exch def } def
/Tj { show currentpoint cairo_store_point } bind def
/TJ {
  {
    dup
    type /stringtype eq
    { show } { -0.001 mul 0 cairo_font_matrix dtransform rmoveto } ifelse
  } forall
  currentpoint cairo_store_point
} bind def
/cairo_selectfont { cairo_font_matrix aload pop pop pop 0 0 6 array astore
    cairo_font exch selectfont cairo_point_x cairo_point_y moveto } bind def
/Tf { pop /cairo_font exch def /cairo_font_matrix where
      { pop cairo_selectfont } if } bind def
/Td { matrix translate cairo_font_matrix matrix concatmatrix dup
      /cairo_font_matrix exch def dup 4 get exch 5 get cairo_store_point
      /cairo_font where { pop cairo_selectfont } if } bind def
/Tm { 2 copy 8 2 roll 6 array astore /cairo_font_matrix exch def
      cairo_store_point /cairo_font where { pop cairo_selectfont } if } bind def
/g { setgray } bind def
/rg { setrgbcolor } bind def
/d1 { setcachedevice } bind def
/cairo_data_source {
  CairoDataIndex CairoData length lt
    { CairoData CairoDataIndex get /CairoDataIndex CairoDataIndex 1 add def }
    { () } ifelse
} def
/cairo_flush_ascii85_file { cairo_ascii85_file status { cairo_ascii85_file flushfile } if } def
/cairo_image { image cairo_flush_ascii85_file } def
/cairo_imagemask { imagemask cairo_flush_ascii85_file } def
%%EndProlog
%%BeginSetup
%%EndSetup
%%Page: 1 1
%%BeginPageSetup
%%PageBoundingBox: 32 3 352 381
%%EndPageSetup
q 32 3 320 378 rectclip
1 0 0 -1 0 384 cm q
0.545098 0.701961 0.921569 rg
217.734 95.969 m 184.59 125.379 212.363 165.406 227.781 186.262 c 237.211
 199.02 242.859 213.891 246.547 229.336 c 255.809 268.094 240.523 296.176
 232.305 307.793 c 225.711 317.102 222.938 328.711 225.262 339.887 c 229.273
 359.16 245.609 374.992 267.18 375.719 c 267.719 375.742 268.262 375.75 
268.801 375.75 c 290.609 375.734 309.562 360.77 314.641 339.562 c 315.754
 334.688 316.008 329.652 315.391 324.691 c 313.934 311.941 311.535 267.324
 335.039 191.316 c 357.129 119.926 258.539 59.762 217.734 95.969 c h
217.734 95.969 m f
156.219 186.262 m 171.637 165.406 199.41 125.379 166.266 95.969 c 125.461
 59.762 26.871 119.926 48.961 191.316 c 72.465 267.324 70.066 311.941 68.609
 324.691 c 67.992 329.652 68.246 334.688 69.359 339.562 c 74.438 360.77 
93.391 375.734 115.199 375.75 c 115.738 375.75 116.281 375.742 116.82 375.719
 c 138.391 374.992 154.727 359.16 158.738 339.887 c 161.062 328.711 158.289
 317.102 151.695 307.793 c 143.477 296.176 128.191 268.094 137.453 229.336
 c 141.141 213.891 146.789 199.02 156.219 186.262 c h
156.219 186.262 m f
0.458824 0.592157 0.74902 rg
91.859 339.562 m 90.746 334.688 90.492 329.652 91.109 324.691 c 92.566 
311.941 94.965 267.324 71.461 191.316 c 55.414 139.453 103.059 93.512 145.965
 86.145 c 99.961 77.023 30 130.031 48.961 191.316 c 72.465 267.324 70.066
 311.941 68.609 324.691 c 67.992 329.652 68.246 334.688 69.359 339.562 c
 74.438 360.77 93.391 375.734 115.199 375.75 c 115.738 375.75 116.281 375.742
 116.82 375.719 c 120.035 375.613 123.23 375.156 126.344 374.359 c 109.266
 370.09 95.977 356.68 91.859 339.562 c h
91.859 339.562 m f
0.545098 0.701961 0.921569 rg
333.238 68.812 m 325.598 68.812 319.395 76.922 319.395 86.918 c 319.395
 96.914 325.598 105.016 333.238 105.016 c 340.883 105.016 347.086 96.906
 347.086 86.918 c 347.086 76.926 340.891 68.812 333.238 68.812 c h
333.238 68.812 m f
324.531 65.512 m 324.531 75.508 318.332 83.609 310.688 83.609 c 303.043
 83.609 296.844 75.508 296.844 65.512 c 296.844 55.516 303.043 47.414 310.688
 47.414 c 318.332 47.414 324.531 55.516 324.531 65.512 c h
324.531 65.512 m f
284.039 73.641 m 291.691 73.641 297.887 65.535 297.887 55.539 c 297.887
 45.539 291.691 37.441 284.039 37.441 c 276.391 37.441 270.203 45.547 270.203
 55.539 c 270.203 65.527 276.398 73.641 284.039 73.641 c h
284.039 73.641 m f
270.203 42.586 m 270.203 54.031 264.004 63.309 256.359 63.309 c 248.711
 63.309 242.512 54.031 242.512 42.586 c 242.512 31.141 248.711 21.863 256.359
 21.863 c 264.004 21.863 270.203 31.141 270.203 42.586 c h
270.203 42.586 m f
222.344 66.629 m 233.484 66.629 242.512 53.566 242.512 37.441 c 242.512
 21.316 233.484 8.25 222.344 8.25 c 211.207 8.25 202.172 21.324 202.172 
37.441 c 202.172 53.559 211.199 66.629 222.344 66.629 c h
222.344 66.629 m f
161.656 8.25 m 150.516 8.25 141.488 21.324 141.488 37.441 c 141.488 53.559
 150.516 66.629 161.656 66.629 c 172.793 66.629 181.828 53.566 181.828 37.441
 c 181.828 21.316 172.801 8.25 161.656 8.25 c h
161.656 8.25 m f
141.488 42.586 m 141.488 54.031 135.289 63.309 127.641 63.309 c 119.996
 63.309 113.797 54.031 113.797 42.586 c 113.797 31.141 119.996 21.863 127.641
 21.863 c 135.289 21.863 141.488 31.141 141.488 42.586 c h
141.488 42.586 m f
99.961 73.641 m 107.602 73.641 113.797 65.535 113.797 55.539 c 113.797 
45.539 107.602 37.441 99.961 37.441 c 92.316 37.441 86.113 45.547 86.113
 55.539 c 86.113 65.527 92.309 73.641 99.961 73.641 c h
99.961 73.641 m f
87.156 65.512 m 87.156 75.508 80.957 83.609 73.312 83.609 c 65.668 83.609
 59.469 75.508 59.469 65.512 c 59.469 55.516 65.668 47.414 73.312 47.414
 c 80.957 47.414 87.156 55.516 87.156 65.512 c h
87.156 65.512 m f
64.605 86.918 m 64.605 76.922 58.402 68.812 50.762 68.812 c 43.117 68.812
 36.914 76.922 36.914 86.918 c 36.914 96.914 43.109 105.016 50.762 105.016
 c 58.41 105.016 64.605 96.906 64.605 86.918 c h
64.605 86.918 m f
1 0.878431 0.490196 rg
282.262 182.398 m 282.262 182.406 l 258.742 205.98 l 252.492 199.727 248.984
 191.242 249 182.398 c h
282.262 182.398 m f
282.27 182.406 m 305.789 205.98 l 299.562 212.238 291.094 215.754 282.262
 215.746 c 282.262 182.406 l h
282.27 182.406 m f
315.531 182.398 m 282.27 182.398 l 305.789 158.828 l 312.039 165.078 315.547
 173.559 315.531 182.398 c h
315.531 182.398 m f
282.262 149.062 m 282.262 182.398 l 258.742 158.828 l 264.965 152.566 273.434
 149.051 282.262 149.062 c h
282.262 149.062 m f
135 182.398 m 101.738 182.398 l 125.258 158.828 l 131.512 165.078 135.016
 173.559 135 182.398 c h
135 182.398 m f
101.738 149.062 m 101.738 182.398 l 101.73 182.398 l 78.211 158.828 l 84.438
 152.566 92.906 149.051 101.738 149.062 c h
101.738 149.062 m f
101.738 182.406 m 78.211 205.98 l 71.961 199.727 68.457 191.242 68.469 
182.398 c 101.73 182.398 l h
101.738 182.406 m f
101.738 182.406 m 125.258 205.98 l 119.031 212.238 110.566 215.754 101.738
 215.746 c h
101.738 182.406 m f
0.901961 0.392157 0.431373 rg
258.742 158.828 m 282.262 182.398 l 249 182.398 l 248.984 173.559 252.488
 165.078 258.742 158.828 c h
258.742 158.828 m f
282.262 182.406 m 282.262 215.746 l 273.434 215.754 264.969 212.238 258.742
 205.98 c h
282.262 182.406 m f
282.27 182.398 m 315.531 182.398 l 315.543 191.242 312.039 199.727 305.789
 205.98 c 282.27 182.406 l h
282.27 182.398 m f
305.789 158.828 m 282.27 182.398 l 282.262 182.398 l 282.262 149.062 l 
291.094 149.051 299.562 152.566 305.789 158.828 c h
305.789 158.828 m f
125.258 158.828 m 101.738 182.398 l 101.738 149.062 l 110.566 149.051 119.035
 152.566 125.258 158.828 c h
125.258 158.828 m f
78.211 158.828 m 101.73 182.398 l 68.469 182.398 l 68.453 173.559 71.961
 165.078 78.211 158.828 c h
78.211 158.828 m f
101.738 182.406 m 101.738 215.746 l 92.906 215.754 84.438 212.238 78.211
 205.98 c h
101.738 182.406 m f
101.738 182.398 m 135 182.398 l 135.016 191.242 131.508 199.727 125.258
 205.98 c 101.738 182.406 l h
101.738 182.398 m f
0.458824 0.592157 0.74902 rg
59.383 101.066 m 56.203 97.75 54.164 92.645 54.164 86.918 c 54.164 81.191
 56.203 76.078 59.383 72.762 c 57.176 70.309 54.055 68.883 50.758 68.812
 c 43.109 68.812 36.914 76.922 36.914 86.918 c 36.914 96.914 43.109 105.016
 50.758 105.016 c 54.055 104.945 57.176 103.516 59.383 101.066 c h
59.383 101.066 m f
0.156863 0.258824 0.407843 rg
297.844 96.398 m 267.574 76.887 234.176 75.363 214.746 92.605 c 198.977
 106.602 194.086 124.426 200.227 145.574 c 205.473 163.648 218.094 180.727
 224.16 188.934 c 232.223 199.844 238.113 213.398 242.172 230.375 c 250.824
 266.594 237.402 292.793 228.629 305.188 c 221.172 315.727 218.336 328.707
 220.855 340.801 c 225.535 363.246 244.52 379.453 267.027 380.219 c 267.613
 380.238 268.207 380.246 268.801 380.246 c 292.715 380.301 313.516 363.879
 319.016 340.605 c 320.25 335.223 320.539 329.66 319.863 324.176 c 318.523
 312.426 315.969 268.207 339.34 192.645 c 345.086 174.07 343.461 154.734
 334.637 136.727 c 326.961 121.066 313.895 106.742 297.844 96.398 c h
330.742 189.988 m 306.852 267.227 309.531 313.008 310.918 325.199 c 311.477
 329.645 311.254 334.148 310.262 338.516 c 305.723 357.734 288.547 371.293
 268.801 371.25 c 268.309 371.25 267.82 371.242 267.332 371.227 c 248.984
 370.605 233.496 357.34 229.668 338.969 c 227.656 329.312 229.957 318.895
 235.977 310.395 c 243.746 299.414 260.758 269.434 250.926 228.289 c 246.582
 210.109 240.195 195.492 231.398 183.59 c 225.645 175.801 213.668 159.598
 208.871 143.07 c 203.711 125.293 207.586 110.988 220.719 99.336 c 234.348
 87.242 261.973 83.984 292.973 103.961 c 317.734 119.926 342.484 152.031
 330.742 189.988 c h
330.742 189.988 m f
282.266 144.562 m 266.953 144.531 253.133 153.734 247.254 167.871 c 241.375
 182.008 244.594 198.297 255.41 209.133 c 266.227 219.973 282.512 223.223
 296.66 217.367 c 310.809 211.516 320.035 197.711 320.035 182.398 c 320.027
 161.531 303.133 144.605 282.266 144.562 c h
259.004 165.461 m 271.418 177.898 l 253.848 177.898 l 254.559 173.402 256.324
 169.141 259.004 165.461 c h
253.848 186.898 m 271.418 186.898 l 259.004 199.344 l 256.324 195.66 254.559
 191.398 253.848 186.898 c h
277.766 210.887 m 273.277 210.172 269.023 208.398 265.359 205.715 c 277.766
 193.281 l h
277.766 171.52 m 265.359 159.086 l 269.023 156.398 273.277 154.629 277.766
 153.914 c h
286.766 153.914 m 291.254 154.629 295.508 156.398 299.172 159.086 c 286.766
 171.523 l h
286.766 210.887 m 286.766 193.281 l 299.176 205.715 l 295.508 208.402 291.254
 210.176 286.766 210.887 c h
305.527 199.34 m 293.113 186.898 l 310.68 186.898 l 309.973 191.398 308.207
 195.66 305.527 199.344 c h
293.113 177.898 m 305.527 165.457 l 308.207 169.137 309.973 173.402 310.68
 177.898 c h
293.113 177.898 m f
333.242 64.316 m 331.812 64.316 330.391 64.523 329.02 64.926 c 328.766 
52.734 320.645 42.914 310.688 42.914 c 307.098 42.945 303.621 44.199 300.836
 46.465 c 297.992 38.516 291.535 32.941 284.043 32.941 c 280.445 32.973 
276.969 34.23 274.18 36.5 c 272.25 25.391 265.113 17.363 256.355 17.363 
c 251.891 17.363 247.848 19.453 244.699 22.973 c 240.805 11.516 232.359 
3.75 222.344 3.75 c 208.508 3.75 197.672 18.551 197.672 37.441 c 197.672
 56.336 208.508 71.133 222.344 71.133 c 230.383 71.133 237.402 66.129 241.879
 58.234 c 245.211 64.094 250.406 67.805 256.355 67.805 c 260.289 67.746 
264.051 66.168 266.84 63.395 c 269.438 71.992 276.168 78.137 284.039 78.137
 c 287.633 78.105 291.105 76.852 293.895 74.586 c 296.734 82.535 303.191
 88.109 310.688 88.109 c 312.113 88.105 313.535 87.902 314.906 87.496 c 
315.164 99.688 323.285 109.512 333.238 109.512 c 343.355 109.512 351.582
 99.371 351.582 86.91 c 351.582 74.449 343.355 64.316 333.242 64.316 c h
222.344 62.133 m 213.848 62.133 206.672 50.824 206.672 37.441 c 206.672
 24.059 213.848 12.75 222.344 12.75 c 230.836 12.75 238.012 24.059 238.012
 37.441 c 238.012 50.824 230.836 62.133 222.344 62.133 c h
256.355 58.805 m 250.852 58.805 247.012 50.258 247.012 42.586 c 247.012
 34.914 250.852 26.363 256.355 26.363 c 261.863 26.363 265.699 34.914 265.699
 42.586 c 265.699 50.258 261.863 58.805 256.355 58.805 c h
284.043 69.141 m 278.977 69.141 274.699 62.914 274.699 55.543 c 274.699
 48.168 278.973 41.941 284.043 41.941 c 289.113 41.941 293.387 48.168 293.387
 55.543 c 293.387 62.914 289.109 69.141 284.043 69.141 c h
310.688 79.117 m 305.625 79.117 301.344 72.891 301.344 65.516 c 301.344
 58.141 305.621 51.918 310.688 51.918 c 315.758 51.918 320.031 58.141 320.031
 65.516 c 320.031 72.891 315.75 79.113 310.688 79.113 c h
333.242 100.516 m 328.176 100.516 323.898 94.293 323.898 86.918 c 323.898
 79.543 328.176 73.32 333.242 73.32 c 338.305 73.32 342.586 79.543 342.586
 86.918 c 342.586 94.293 338.305 100.512 333.242 100.512 c h
333.242 100.516 m f
139.504 182.398 m 139.477 167.129 130.254 153.379 116.141 147.555 c 102.023
 141.73 85.789 144.98 75.004 155.789 c 64.215 166.598 60.996 182.836 66.848
 196.941 c 72.695 211.047 86.465 220.238 101.734 220.238 c 122.602 220.195
 139.5 203.27 139.504 182.398 c h
124.996 199.344 m 112.582 186.898 l 130.152 186.898 l 129.441 191.398 127.676
 195.66 124.996 199.344 c h
130.152 177.902 m 112.582 177.902 l 124.996 165.461 l 127.676 169.141 129.441
 173.402 130.152 177.898 c h
106.234 153.918 m 110.723 154.629 114.977 156.402 118.641 159.086 c 106.234
 171.523 l h
106.234 193.281 m 118.641 205.715 l 114.977 208.402 110.723 210.176 106.234
 210.887 c h
78.473 165.457 m 90.887 177.898 l 73.32 177.898 l 74.027 173.402 75.793
 169.141 78.473 165.461 c h
73.32 186.898 m 90.887 186.898 l 78.473 199.344 l 75.793 195.66 74.027 
191.398 73.32 186.898 c h
97.234 210.887 m 92.746 210.172 88.492 208.398 84.828 205.715 c 97.234 
193.281 l h
97.234 171.52 m 84.824 159.086 l 88.492 156.402 92.742 154.629 97.23 153.918
 c h
97.234 171.52 m f
69.09 87.5 m 70.461 87.902 71.883 88.109 73.312 88.113 c 80.805 88.113 
87.262 82.543 90.105 74.59 c 92.891 76.855 96.367 78.109 99.957 78.141 c
 107.832 78.141 114.559 71.996 117.156 63.395 c 119.949 66.168 123.707 67.75
 127.645 67.805 c 133.594 67.805 138.789 64.098 142.117 58.238 c 146.594
 66.129 153.617 71.137 161.656 71.137 c 175.488 71.137 186.324 56.336 186.324
 37.445 c 186.324 18.551 175.492 3.75 161.656 3.75 c 151.641 3.75 143.195
 11.516 139.301 22.973 c 136.148 19.453 132.109 17.363 127.645 17.363 c 
118.887 17.363 111.754 25.387 109.82 36.5 c 107.031 34.23 103.555 32.973
 99.957 32.941 c 92.461 32.941 86.008 38.512 83.164 46.465 c 80.379 44.199
 76.902 42.945 73.312 42.914 c 63.355 42.914 55.238 52.738 54.98 64.926 
c 53.609 64.523 52.188 64.316 50.758 64.316 c 40.645 64.316 32.414 74.453
 32.414 86.914 c 32.414 99.375 40.645 109.512 50.758 109.512 c 60.715 109.512
 68.836 99.691 69.09 87.5 c h
161.656 12.75 m 170.152 12.75 177.328 24.059 177.328 37.441 c 177.328 50.824
 170.152 62.133 161.656 62.133 c 153.164 62.133 145.988 50.824 145.988 37.441
 c 145.988 24.059 153.164 12.75 161.656 12.75 c h
127.645 26.363 m 133.148 26.363 136.988 34.914 136.988 42.586 c 136.988
 50.258 133.148 58.805 127.645 58.805 c 122.137 58.805 118.301 50.258 118.301
 42.586 c 118.301 34.914 122.137 26.363 127.645 26.363 c h
99.957 41.941 m 105.023 41.941 109.301 48.168 109.301 55.543 c 109.301 
62.914 105.023 69.141 99.957 69.141 c 94.891 69.141 90.613 62.914 90.613
 55.543 c 90.613 48.168 94.891 41.941 99.957 41.941 c h
73.312 51.918 m 78.375 51.918 82.656 58.141 82.656 65.516 c 82.656 72.891
 78.379 79.117 73.312 79.117 c 68.242 79.117 63.969 72.891 63.969 65.516
 c 63.969 58.141 68.25 51.914 73.312 51.914 c h
41.414 86.914 m 41.414 79.543 45.691 73.316 50.758 73.316 c 55.828 73.316
 60.102 79.539 60.102 86.914 c 60.102 94.289 55.828 100.512 50.758 100.512
 c 45.691 100.512 41.414 94.285 41.414 86.914 c h
41.414 86.914 m f
80.176 258.828 m 82.625 258.402 84.266 256.074 83.84 253.625 c 83.629 252.426
 83.414 251.211 83.188 249.984 c 81.988 244.262 73.438 245.828 74.34 251.602
 c 74.559 252.801 74.77 253.988 74.973 255.164 c 75.348 257.32 77.215 258.895
 79.402 258.895 c 79.66 258.895 79.918 258.871 80.176 258.828 c h
80.176 258.828 m f
83.102 329.16 m 83.27 329.18 83.441 329.191 83.617 329.191 c 85.902 329.188
 87.82 327.473 88.082 325.199 c 89.016 316.996 90.047 299.043 86.461 270.938
 c 86.195 268.426 83.918 266.621 81.414 266.941 c 78.906 267.262 77.156 
269.582 77.535 272.078 c 81.133 300.258 79.859 317.906 79.141 324.18 c 78.859
 326.648 80.633 328.879 83.102 329.16 c h
83.102 329.16 m f
169.254 92.605 m 149.824 75.363 116.426 76.887 86.156 96.398 c 70.105 106.742
 57.039 121.066 49.363 136.73 c 40.539 154.734 38.914 174.07 44.66 192.648
 c 47.406 201.527 49.809 209.969 51.867 217.98 c 52.379 219.957 54.168 221.336
 56.211 221.336 c 56.223 221.336 l 59.156 221.336 61.301 218.57 60.57 215.727
 c 58.465 207.578 56.023 199 53.254 189.988 c 41.512 152.031 66.266 119.922
 91.027 103.961 c 106.859 93.762 121.809 89.617 134.465 89.617 c 146.59 
89.617 156.609 93.422 163.277 99.336 c 176.41 110.988 180.285 125.293 175.129
 143.07 c 170.328 159.598 158.355 175.801 152.598 183.59 c 143.805 195.488
 137.418 210.109 133.074 228.289 c 123.242 269.434 140.25 299.414 148.023
 310.395 c 154.043 318.898 156.34 329.316 154.328 338.969 c 150.504 357.344
 135.016 370.605 116.668 371.227 c 116.18 371.242 115.691 371.25 115.199
 371.25 c 95.453 371.293 78.277 357.734 73.738 338.516 c 72.746 334.148 
72.523 329.645 73.078 325.199 c 74.09 316.324 75.781 289.645 67.414 245.992
 c 66.996 243.5 64.609 241.844 62.133 242.32 c 59.652 242.797 58.055 245.223
 58.59 247.688 c 66.719 290.004 65.109 315.648 64.141 324.18 c 63.465 329.664
 63.75 335.223 64.988 340.609 c 70.484 363.883 91.285 380.305 115.199 380.25
 c 115.793 380.25 116.387 380.238 116.973 380.219 c 139.48 379.457 158.465
 363.25 163.141 340.805 c 165.66 328.711 162.828 315.73 155.371 305.191 
c 146.594 292.797 133.172 266.594 141.828 230.379 c 145.887 213.402 151.777
 199.844 159.836 188.938 c 165.906 180.73 178.527 163.652 183.773 145.578
 c 189.914 124.426 185.027 106.602 169.254 92.605 c h
169.254 92.605 m f
Q Q
showpage
%%Trailer
end
%%EOF
