%!PS-Adobe-3.0 EPSF-3.0
%%Creator: cairo 1.16.0 (https://cairographics.org)
%%CreationDate: Tue Feb  2 14:48:11 2021
%%Pages: 1
%%DocumentData: Clean7Bit
%%LanguageLevel: 2
%%BoundingBox: 3 3 381 381
%%EndComments
%%BeginProlog
50 dict begin
/q { gsave } bind def
/Q { grestore } bind def
/cm { 6 array astore concat } bind def
/w { setlinewidth } bind def
/J { setlinecap } bind def
/j { setlinejoin } bind def
/M { setmiterlimit } bind def
/d { setdash } bind def
/m { moveto } bind def
/l { lineto } bind def
/c { curveto } bind def
/h { closepath } bind def
/re { exch dup neg 3 1 roll 5 3 roll moveto 0 rlineto
      0 exch rlineto 0 rlineto closepath } bind def
/S { stroke } bind def
/f { fill } bind def
/f* { eofill } bind def
/n { newpath } bind def
/W { clip } bind def
/W* { eoclip } bind def
/BT { } bind def
/ET { } bind def
/BDC { mark 3 1 roll /BDC pdfmark } bind def
/EMC { mark /EMC pdfmark } bind def
/cairo_store_point { /cairo_point_y exch def /cairo_point_x exch def } def
/Tj { show currentpoint cairo_store_point } bind def
/TJ {
  {
    dup
    type /stringtype eq
    { show } { -0.001 mul 0 cairo_font_matrix dtransform rmoveto } ifelse
  } forall
  currentpoint cairo_store_point
} bind def
/cairo_selectfont { cairo_font_matrix aload pop pop pop 0 0 6 array astore
    cairo_font exch selectfont cairo_point_x cairo_point_y moveto } bind def
/Tf { pop /cairo_font exch def /cairo_font_matrix where
      { pop cairo_selectfont } if } bind def
/Td { matrix translate cairo_font_matrix matrix concatmatrix dup
      /cairo_font_matrix exch def dup 4 get exch 5 get cairo_store_point
      /cairo_font where { pop cairo_selectfont } if } bind def
/Tm { 2 copy 8 2 roll 6 array astore /cairo_font_matrix exch def
      cairo_store_point /cairo_font where { pop cairo_selectfont } if } bind def
/g { setgray } bind def
/rg { setrgbcolor } bind def
/d1 { setcachedevice } bind def
/cairo_data_source {
  CairoDataIndex CairoData length lt
    { CairoData CairoDataIndex get /CairoDataIndex CairoDataIndex 1 add def }
    { () } ifelse
} def
/cairo_flush_ascii85_file { cairo_ascii85_file status { cairo_ascii85_file flushfile } if } def
/cairo_image { image cairo_flush_ascii85_file } def
/cairo_imagemask { imagemask cairo_flush_ascii85_file } def
%%EndProlog
%%BeginSetup
%%EndSetup
%%Page: 1 1
%%BeginPageSetup
%%PageBoundingBox: 3 3 381 381
%%EndPageSetup
q 3 3 378 378 rectclip
1 0 0 -1 0 384 cm q
1 0.662745 0.372549 rg
375.75 192 m 375.75 293.484 293.484 375.75 192 375.75 c 168.254 375.781
 144.727 371.191 122.73 362.242 c 122.738 362.234 l 203.078 365.25 292.484
 325.949 293.309 255.234 c 293.617 229.117 269.488 194.715 237.922 188.82
 c 226.949 186.789 215.617 189.074 206.289 195.195 c 195.172 196.559 184.395
 192.684 175.824 186.391 c 136.102 157.23 146.34 95.062 192.898 78.945 c
 271.297 51.801 356.102 131.023 375.75 192 c h
375.75 192 m f
1 0.878431 0.490196 rg
206.289 195.195 m 215.617 189.074 226.949 186.789 237.922 188.82 c 269.488
 194.715 293.617 229.117 293.309 255.234 c 292.484 325.949 203.078 365.25
 122.738 362.234 c 122.73 362.242 l 55.582 334.898 8.25 268.98 8.25 192 
c 8.191 138.25 31.723 87.184 72.621 52.312 c 43.574 96.961 34.035 138 48.789
 187.453 c 72.141 265.719 151.199 293.633 187.027 217.508 c 191.23 208.41
 197.902 200.68 206.289 195.195 c h
206.289 195.195 m f
0.545098 0.701961 0.921569 rg
192 8.25 m 293.484 8.25 375.75 90.516 375.75 192 c 356.102 131.023 271.297
 51.801 192.898 78.945 c 146.34 95.062 136.102 157.23 175.824 186.391 c 
184.395 192.684 195.172 196.559 206.289 195.195 c 197.902 200.68 191.23 
208.41 187.027 217.508 c 151.199 293.633 72.141 265.719 48.789 187.453 c
 34.035 138 43.574 96.961 72.621 52.312 c 105.863 23.816 148.219 8.184 192
 8.25 c h
192 8.25 m f
0.458824 0.588235 0.737255 rg
95.871 52.312 m 126.07 26.426 163.883 11.09 203.578 8.625 c 199.75 8.387
 195.891 8.25 192 8.25 c 148.219 8.184 105.863 23.816 72.621 52.312 c 55.785
 78.191 45.52 102.863 42.723 128.664 c 53.605 99.082 71.91 72.789 95.871
 52.312 c h
95.871 52.312 m f
0.819608 0.717647 0.427451 rg
31.5 192 m 31.48 170.391 35.277 148.945 42.723 128.66 c 45.52 102.859 55.785
 78.191 72.621 52.309 c 31.723 87.184 8.188 138.25 8.25 192 c 8.25 268.98
 55.582 334.898 122.73 362.242 c 122.738 362.234 l 130.227 362.516 137.793
 362.43 145.359 361.984 c 78.543 334.484 31.5 268.742 31.5 192 c h
31.5 192 m f
0.807843 0.52549 0.317647 rg
145.98 362.242 m 145.773 362.156 145.566 362.07 145.359 361.984 c 137.793
 362.43 130.227 362.516 122.738 362.234 c 122.73 362.242 l 144.727 371.191
 168.254 375.781 192 375.75 c 195.898 375.75 199.773 375.613 203.617 375.375
 c 183.82 374.152 164.352 369.719 145.98 362.242 c h
145.98 362.242 m f
0.156863 0.258824 0.407843 rg
174.895 26.391 m 172.891 26.598 170.855 26.844 168.848 27.129 c 166.387
 27.477 164.672 29.75 165.02 32.211 c 165.367 34.672 167.645 36.387 170.105
 36.039 c 172.004 35.773 173.93 35.539 175.824 35.34 c 178.301 35.094 180.105
 32.879 179.852 30.398 c 179.594 27.922 177.371 26.125 174.895 26.391 c 
h
174.895 26.391 m f
192 3.75 m 115.859 3.75 47.219 49.617 18.082 119.961 c -11.059 190.305 
5.047 271.273 58.887 325.113 c 94.18 360.461 142.078 380.332 192.031 380.352
 c 241.98 380.371 289.895 360.535 325.215 325.215 c 360.535 289.895 380.371
 241.98 380.352 192.031 c 380.332 142.078 360.461 94.18 325.113 58.887 c
 289.887 23.469 241.953 3.613 192 3.75 c h
318.75 318.75 m 285.207 352.477 239.566 371.383 192 371.25 c 177.711 371.258
 163.473 369.57 149.586 366.219 c 167.578 364.895 185.363 361.543 202.602
 356.227 c 229.125 347.977 251.766 335.41 268.078 319.883 c 287.25 301.637
 297.531 279.301 297.812 255.285 c 297.973 241.438 291.727 225.129 281.105
 211.66 c 269.562 197.023 254.52 187.344 238.746 184.398 c 226.996 182.23
 214.859 184.52 204.711 190.828 c 195.945 191.609 186.676 188.773 178.488
 182.762 c 161.441 170.25 153.168 150.176 156.363 129.062 c 159.629 107.453
 173.836 90.309 194.379 83.199 c 220.863 74.027 250.547 77.004 280.215 91.812
 c 301.004 102.188 320.934 117.871 337.844 137.168 c 353.473 155 365.305
 174.695 371.242 192.723 c 371.188 240.035 352.297 285.383 318.75 318.75
 c h
284.23 83.758 m 252.348 67.844 220.258 64.707 191.43 74.691 c 168.035 82.785
 151.082 103.223 147.461 127.715 c 143.762 152.199 153.371 175.492 173.16
 190.02 c 179.371 194.664 186.562 197.828 194.184 199.266 c 189.559 204.047
 185.766 209.562 182.957 215.586 c 169.312 244.578 148.496 259.539 124.336
 257.73 c 106.211 256.367 88.758 245.66 75.035 228.703 c 71.27 224.113 64.363
 229.719 68.086 234.348 c 83.387 253.207 103.09 265.156 123.664 266.703 
c 151.395 268.781 175.977 251.551 191.098 219.418 c 200.094 200.305 218.578
 189.781 237.094 193.242 c 266.566 198.746 289.094 231.055 288.812 255.176
 c 288.555 277.016 279.492 296.59 261.871 313.363 c 231.543 342.234 177.293
 359.633 123.516 357.75 c 71.398 336.18 32.469 291.348 18.41 236.723 c 4.355
 182.102 16.812 124.047 52.039 79.996 c 46.473 91.867 42.383 104.375 39.863
 117.242 c 35.492 140.297 37.004 163.684 44.477 188.734 c 46.352 195.031
 48.66 201.188 51.387 207.16 c 52.688 210 56.418 210.668 58.625 208.461 
c 58.656 208.43 l 59.973 207.113 60.336 205.121 59.566 203.426 c 57.02 197.828
 54.859 192.059 53.102 186.164 c 39.449 140.414 46.316 101.238 76.059 55.293
 c 125.785 13.137 194.48 1.293 255.453 24.367 c 316.43 47.445 360.07 101.801
 369.426 166.32 c 351.191 132.93 318.906 101.062 284.23 83.758 c h
284.23 83.758 m f
152.285 30.332 m 121.148 37.984 92.879 54.461 70.875 77.781 c 69.168 79.59
 69.25 82.438 71.059 84.145 c 72.863 85.848 75.711 85.77 77.418 83.961 c
 98.238 61.898 124.984 46.309 154.445 39.07 c 156.883 38.496 158.383 36.043
 157.785 33.609 c 157.184 31.18 154.715 29.703 152.289 30.332 c h
152.285 30.332 m f
Q Q
showpage
%%Trailer
end
%%EOF
