%!PS-Adobe-3.0 EPSF-3.0
%%Creator: cairo 1.16.0 (https://cairographics.org)
%%CreationDate: Tue Feb  2 14:48:12 2021
%%Pages: 1
%%DocumentData: Clean7Bit
%%LanguageLevel: 2
%%BoundingBox: 83 3 301 381
%%EndComments
%%BeginProlog
50 dict begin
/q { gsave } bind def
/Q { grestore } bind def
/cm { 6 array astore concat } bind def
/w { setlinewidth } bind def
/J { setlinecap } bind def
/j { setlinejoin } bind def
/M { setmiterlimit } bind def
/d { setdash } bind def
/m { moveto } bind def
/l { lineto } bind def
/c { curveto } bind def
/h { closepath } bind def
/re { exch dup neg 3 1 roll 5 3 roll moveto 0 rlineto
      0 exch rlineto 0 rlineto closepath } bind def
/S { stroke } bind def
/f { fill } bind def
/f* { eofill } bind def
/n { newpath } bind def
/W { clip } bind def
/W* { eoclip } bind def
/BT { } bind def
/ET { } bind def
/BDC { mark 3 1 roll /BDC pdfmark } bind def
/EMC { mark /EMC pdfmark } bind def
/cairo_store_point { /cairo_point_y exch def /cairo_point_x exch def } def
/Tj { show currentpoint cairo_store_point } bind def
/TJ {
  {
    dup
    type /stringtype eq
    { show } { -0.001 mul 0 cairo_font_matrix dtransform rmoveto } ifelse
  } forall
  currentpoint cairo_store_point
} bind def
/cairo_selectfont { cairo_font_matrix aload pop pop pop 0 0 6 array astore
    cairo_font exch selectfont cairo_point_x cairo_point_y moveto } bind def
/Tf { pop /cairo_font exch def /cairo_font_matrix where
      { pop cairo_selectfont } if } bind def
/Td { matrix translate cairo_font_matrix matrix concatmatrix dup
      /cairo_font_matrix exch def dup 4 get exch 5 get cairo_store_point
      /cairo_font where { pop cairo_selectfont } if } bind def
/Tm { 2 copy 8 2 roll 6 array astore /cairo_font_matrix exch def
      cairo_store_point /cairo_font where { pop cairo_selectfont } if } bind def
/g { setgray } bind def
/rg { setrgbcolor } bind def
/d1 { setcachedevice } bind def
/cairo_data_source {
  CairoDataIndex CairoData length lt
    { CairoData CairoDataIndex get /CairoDataIndex CairoDataIndex 1 add def }
    { () } ifelse
} def
/cairo_flush_ascii85_file { cairo_ascii85_file status { cairo_ascii85_file flushfile } if } def
/cairo_image { image cairo_flush_ascii85_file } def
/cairo_imagemask { imagemask cairo_flush_ascii85_file } def
%%EndProlog
%%BeginSetup
%%EndSetup
%%Page: 1 1
%%BeginPageSetup
%%PageBoundingBox: 83 3 301 381
%%EndPageSetup
q 83 3 218 378 rectclip
1 0 0 -1 0 384 cm q
1 0.847059 0.717647 rg
291.906 253.559 m 283.637 226.98 l 280.477 216.855 269.363 211.32 259.523
 215.289 c 259.434 215.07 l 252 218.02 243.59 217.098 236.973 212.605 c 
230.355 208.113 226.395 200.633 226.395 192.637 c 226.785 33.668 l 226.352
 19.344 214.492 8.023 200.164 8.262 c 185.836 8.496 174.359 20.199 174.398
 34.531 c 174.398 46.395 l 174.398 40.738 172.152 35.316 168.152 31.316 
c 164.152 27.32 158.73 25.074 153.074 25.074 c 147.418 25.074 141.996 27.32
 137.996 31.316 c 134 35.316 131.754 40.738 131.754 46.395 c 131.754 78.727
 l 131.859 72.871 129.609 67.215 125.508 63.035 c 121.402 58.852 115.789
 56.496 109.93 56.496 c 104.074 56.496 98.461 58.852 94.355 63.035 c 90.254
 67.215 88 72.871 88.109 78.727 c 88.109 292.727 l 88.109 345.871 110.566
 375.75 163.566 375.75 c 208.133 373.363 l 233.668 371.996 257.344 359.586
 273 339.367 c 277.461 333.613 l 295.066 310.891 300.457 281.004 291.906
 253.559 c h
291.906 253.559 m f
0.992157 0.866667 0.847059 rg
267.586 125.746 m 260.855 119.012 250.797 116.863 241.906 120.262 c 233.012
 123.664 226.953 131.973 226.434 141.48 c 226.395 192.637 l 226.395 205.961
 237.195 216.766 250.523 216.766 c 263.848 216.766 274.648 205.961 274.648
 192.637 c 274.648 142.809 l 274.66 136.406 272.117 130.266 267.586 125.746
 c h
267.586 125.746 m f
0.827451 0.690196 0.592157 rg
110.25 292.727 m 110.25 78.727 l 110.312 71.031 114.387 63.922 120.996 
59.977 c 114.227 55.914 105.793 55.797 98.918 59.676 c 92.039 63.555 87.773
 70.832 87.75 78.727 c 87.75 292.727 l 87.75 345.871 110.387 375.75 163.387
 375.75 c 173.773 375.188 l 129.379 370.867 110.25 341.66 110.25 292.727
 c h
110.25 292.727 m f
0.156863 0.258824 0.407843 rg
105 83.785 m 107.484 83.785 109.5 81.773 109.5 79.285 c 109.5 77.262 l 
109.5 71.262 100.5 71.262 100.5 77.262 c 100.5 79.285 l 100.5 81.773 102.516
 83.785 105 83.785 c h
105 83.785 m f
100.5 158.84 m 100.5 164.84 109.5 164.84 109.5 158.84 c 109.5 93.809 l 
109.5 87.809 100.5 87.809 100.5 93.809 c h
100.5 158.84 m f
287.93 225.645 m 285.688 218.434 280.055 212.785 272.852 210.523 c 276.934
 205.457 279.16 199.141 279.152 192.633 c 279.152 142.805 l 279.164 131.402
 272.398 121.082 261.938 116.539 c 251.477 112 239.32 114.105 230.992 121.898
 c 231.289 33.68 l 231.289 33.629 231.289 33.574 231.289 33.52 c 230.824
 18.102 218.988 5.422 203.637 3.898 c 188.289 2.375 174.191 12.484 170.711
 27.516 c 163.203 20.453 152.219 18.543 142.766 22.648 c 133.316 26.754 
127.215 36.09 127.254 46.395 c 127.254 58.887 l 119.484 52.059 108.434 50.422
 99.02 54.699 c 89.605 58.98 83.574 68.383 83.613 78.727 c 83.613 193.176
 l 83.613 199.176 92.613 199.176 92.613 193.176 c 92.613 78.727 l 92.613
 69.16 100.367 61.406 109.934 61.406 c 119.5 61.406 127.254 69.16 127.254
 78.727 c 127.254 195.621 l 127.254 201.621 136.254 201.621 136.254 195.621
 c 136.254 46.395 l 136.254 41.934 138.023 37.652 141.18 34.5 c 144.336 
31.344 148.613 29.57 153.074 29.57 c 157.535 29.57 161.816 31.344 164.969
 34.5 c 168.125 37.652 169.898 41.934 169.898 46.395 c 169.898 181.094 l
 169.898 187.094 178.898 187.094 178.898 181.094 c 178.898 34.527 l 178.859
 22.668 188.348 12.973 200.203 12.754 c 212.062 12.539 221.898 21.883 222.289
 33.734 c 221.895 192.633 l 221.918 207.043 232.629 219.195 246.918 221.027
 c 245.137 225.57 243.703 234.258 244.348 252.422 c 244.777 264.758 241.613
 276.953 235.238 287.523 c 233.668 290.148 l 230.586 295.371 226.734 300.102
 222.25 304.188 c 211.262 314.051 198.645 318.648 182.555 318.648 c 182.383
 318.648 l 167.469 318.645 153.164 312.734 142.602 302.207 c 133.148 292.645
 128.004 280.363 128.125 267.633 c 128.305 248.664 134.855 232.887 146.578
 223.207 c 156.922 214.656 170.539 211.398 184.918 214.02 c 211.848 218.93
 216.777 242.469 217.648 252.359 c 218.887 266.484 213.93 278.953 204.047
 286.57 c 194.188 294.168 180.902 295.781 167.594 291 c 161.309 288.707 
156.34 283.781 153.988 277.516 c 150.793 269.41 151.512 259.793 155.961 
251.137 c 159.391 244.473 167.133 240.66 172.586 240.816 c 178.641 240.996
 186.418 244.121 188.422 252.355 c 189.672 257.48 188.145 264.551 180.113
 269.012 c 179.953 269.102 l 174.645 271.902 178.844 279.859 184.152 277.062
 c 184.152 277.062 184.266 277.004 184.48 276.883 c 194.746 271.184 199.723
 260.715 197.168 250.227 c 194.531 239.398 184.988 232.176 172.852 231.82
 c 172.66 231.816 172.469 231.816 172.277 231.816 c 163.984 231.816 153.137
 236.953 147.961 247.023 c 142.324 257.984 141.473 270.301 145.617 280.816
 c 148.902 289.496 155.82 296.309 164.551 299.465 c 180.801 305.305 197.199
 303.203 209.535 293.695 c 221.898 284.164 228.121 268.809 226.605 251.566
 c 224.422 226.688 209.438 209.336 186.527 205.16 c 169.492 202.055 153.266
 205.996 140.84 216.262 c 127.039 227.664 119.328 245.875 119.125 267.543
 c 118.984 282.691 125.051 297.246 136.203 308.527 c 148.457 320.754 165.055
 327.625 182.363 327.641 c 182.551 327.641 l 200.742 327.641 215.699 322.152
 228.262 310.875 c 233.418 306.191 237.84 300.762 241.387 294.766 c 242.957
 292.141 l 250.223 280.082 253.832 266.168 253.34 252.098 c 252.473 227.777
 255.586 223.488 255.941 223.078 c 257.391 221.477 259.191 220.234 261.207
 219.457 c 264.68 218.051 268.59 218.184 271.961 219.816 c 275.496 221.5
 278.168 224.578 279.336 228.316 c 287.613 254.891 l 295.711 280.934 290.594
 309.285 273.906 330.852 c 269.445 336.609 l 254.594 355.801 232.125 367.574
 207.895 368.863 c 163.445 371.25 l 138.723 371.23 121.031 364.676 109.359
 351.219 c 98.246 338.402 92.609 318.719 92.609 292.719 c 92.609 223.172
 l 92.609 217.172 83.609 217.172 83.609 223.172 c 83.609 292.727 l 83.609
 321.348 89.809 342.41 102.562 357.117 c 115.875 372.465 136.395 380.25 
163.562 380.25 c 163.805 380.242 l 208.375 377.855 l 235.215 376.418 260.102
 363.375 276.559 342.125 c 281.02 336.367 l 299.508 312.477 305.18 281.066
 296.207 252.219 c h
270.156 192.633 m 270.086 203.43 261.32 212.145 250.523 212.145 c 239.73
 212.145 230.961 203.43 230.895 192.633 c 230.926 141.676 l 231.539 131.074
 240.473 122.887 251.086 123.191 c 261.699 123.496 270.145 132.188 270.148
 142.805 c h
270.156 192.633 m f
Q Q
showpage
%%Trailer
end
%%EOF
