%!PS-Adobe-3.0 EPSF-3.0
%%Creator: cairo 1.16.0 (https://cairographics.org)
%%CreationDate: Tue Feb  2 14:48:12 2021
%%Pages: 1
%%DocumentData: Clean7Bit
%%LanguageLevel: 2
%%BoundingBox: 80 3 304 381
%%EndComments
%%BeginProlog
50 dict begin
/q { gsave } bind def
/Q { grestore } bind def
/cm { 6 array astore concat } bind def
/w { setlinewidth } bind def
/J { setlinecap } bind def
/j { setlinejoin } bind def
/M { setmiterlimit } bind def
/d { setdash } bind def
/m { moveto } bind def
/l { lineto } bind def
/c { curveto } bind def
/h { closepath } bind def
/re { exch dup neg 3 1 roll 5 3 roll moveto 0 rlineto
      0 exch rlineto 0 rlineto closepath } bind def
/S { stroke } bind def
/f { fill } bind def
/f* { eofill } bind def
/n { newpath } bind def
/W { clip } bind def
/W* { eoclip } bind def
/BT { } bind def
/ET { } bind def
/BDC { mark 3 1 roll /BDC pdfmark } bind def
/EMC { mark /EMC pdfmark } bind def
/cairo_store_point { /cairo_point_y exch def /cairo_point_x exch def } def
/Tj { show currentpoint cairo_store_point } bind def
/TJ {
  {
    dup
    type /stringtype eq
    { show } { -0.001 mul 0 cairo_font_matrix dtransform rmoveto } ifelse
  } forall
  currentpoint cairo_store_point
} bind def
/cairo_selectfont { cairo_font_matrix aload pop pop pop 0 0 6 array astore
    cairo_font exch selectfont cairo_point_x cairo_point_y moveto } bind def
/Tf { pop /cairo_font exch def /cairo_font_matrix where
      { pop cairo_selectfont } if } bind def
/Td { matrix translate cairo_font_matrix matrix concatmatrix dup
      /cairo_font_matrix exch def dup 4 get exch 5 get cairo_store_point
      /cairo_font where { pop cairo_selectfont } if } bind def
/Tm { 2 copy 8 2 roll 6 array astore /cairo_font_matrix exch def
      cairo_store_point /cairo_font where { pop cairo_selectfont } if } bind def
/g { setgray } bind def
/rg { setrgbcolor } bind def
/d1 { setcachedevice } bind def
/cairo_data_source {
  CairoDataIndex CairoData length lt
    { CairoData CairoDataIndex get /CairoDataIndex CairoDataIndex 1 add def }
    { () } ifelse
} def
/cairo_flush_ascii85_file { cairo_ascii85_file status { cairo_ascii85_file flushfile } if } def
/cairo_image { image cairo_flush_ascii85_file } def
/cairo_imagemask { imagemask cairo_flush_ascii85_file } def
%%EndProlog
%%BeginSetup
%%EndSetup
%%Page: 1 1
%%BeginPageSetup
%%PageBoundingBox: 80 3 304 381
%%EndPageSetup
q 80 3 224 378 rectclip
1 0 0 -1 0 384 cm q
1 0.847059 0.717647 rg
214.148 57.254 m 215.297 45.5 225.469 36.715 237.266 37.293 c 249.066 37.867
 258.332 47.602 258.328 59.414 c 258.328 144.449 l 258.328 139.082 260.457
 133.934 264.25 130.137 c 268.043 126.34 273.191 124.207 278.559 124.207
 c 278.617 124.207 l 289.793 124.211 298.848 133.273 298.844 144.449 c 298.844
 268.059 l 298.844 326.289 252.621 374.551 194.453 375.727 c 193.637 375.742
 192.816 375.75 192 375.75 c 132.969 375.73 85.133 327.859 85.156 268.828
 c 85.156 92.574 l 85.172 81.336 94.254 72.219 105.488 72.16 c 116.723 72.098
 125.902 81.121 126.039 92.355 c 125.691 51.129 l 125.691 38.898 135.605
 28.988 147.832 28.988 c 160.059 28.988 169.973 38.898 169.973 51.129 c 
169.867 30.406 l 169.867 24.531 172.199 18.902 176.352 14.75 c 180.504 10.598
 186.137 8.266 192.008 8.266 c 197.879 8.266 203.512 10.598 207.664 14.75
 c 211.816 18.902 214.148 24.531 214.148 30.406 c h
214.148 57.254 m f
0.411765 0.580392 0.996078 rg
261.449 267.066 m 261.449 267.703 l 186.691 343.988 123.352 267.703 123.352
 267.703 c 123.352 267.066 l 123.352 267.066 186.691 190.785 261.449 267.066
 c h
261.449 267.066 m f
0.337255 0.337255 0.54902 rg
193.246 246.766 m 201.18 246.758 208.336 251.535 211.375 258.863 c 214.414
 266.191 212.742 274.629 207.133 280.242 c 201.527 285.852 193.09 287.535
 185.758 284.5 c 178.426 281.465 173.648 274.312 173.648 266.379 c 173.645
 255.551 182.418 246.77 193.246 246.766 c h
193.246 246.766 m f
0.847059 0.705882 0.603922 rg
108 268.828 m 108 92.574 l 107.93 87.168 110.023 81.961 113.812 78.105 
c 114.758 77.129 115.805 76.254 116.93 75.488 c 113.578 73.281 109.648 72.109
 105.637 72.113 c 100.258 72.105 95.102 74.266 91.336 78.105 c 87.539 81.961
 85.441 87.168 85.5 92.574 c 85.5 268.828 l 85.5 327.879 133.164 375.75 
192.172 375.75 c 192.988 375.75 193.723 375.742 194.539 375.727 c 197.531
 375.668 200.621 375.477 203.547 375.172 c 149.172 369.41 107.93 323.512
 108 268.828 c h
108 268.828 m f
0.380392 0.533333 0.839216 rg
145.5 267.703 m 145.5 267.066 l 145.5 267.066 168.57 239.285 203.301 234.02
 c 156.391 226.852 123 267.066 123 267.066 c 123 267.703 l 123 267.703 156.391
 307.918 203.301 300.75 c 168.57 295.488 145.5 267.703 145.5 267.703 c h
145.5 267.703 m f
0.156863 0.258824 0.407843 rg
189.18 306.043 m 190.27 306.086 191.359 306.109 192.449 306.109 c 217.445
 306.109 241.723 294.258 264.664 270.855 c 265.488 270.016 265.949 268.883
 265.949 267.703 c 265.949 267.074 l 265.949 265.898 265.488 264.766 264.664
 263.926 c 240.727 239.5 215.328 227.668 189.18 228.738 c 148.391 230.418
 121.031 262.82 119.887 264.199 c 119.219 265.008 118.852 266.023 118.852
 267.074 c 118.852 267.707 l 118.852 268.758 119.219 269.773 119.887 270.582
 c 121.031 271.957 148.391 304.363 189.18 306.043 c h
189.629 237.723 m 212.09 236.844 234.203 246.797 255.395 267.387 c 234.203
 287.977 212.086 297.961 189.629 297.051 c 159.23 295.836 136.324 274.801
 129.164 267.387 c 136.324 259.973 159.23 238.941 189.629 237.723 c h
189.629 237.723 m f
193.246 290.488 m 203 290.496 211.797 284.625 215.535 275.613 c 219.27 
266.602 217.211 256.23 210.316 249.328 c 203.422 242.43 193.047 240.367 
184.035 244.098 c 175.023 247.828 169.148 256.621 169.148 266.375 c 169.16
 279.684 179.941 290.469 193.246 290.488 c h
193.246 251.266 m 199.359 251.258 204.875 254.938 207.219 260.586 c 209.562
 266.23 208.273 272.734 203.953 277.059 c 199.633 281.383 193.129 282.68
 187.48 280.34 c 181.832 278.004 178.148 272.492 178.148 266.379 c 178.152
 258.039 184.906 251.277 193.246 251.262 c h
193.246 251.266 m f
99.75 107.785 m 102.234 107.785 104.25 105.773 104.25 103.285 c 104.25 
101.262 l 104.25 95.262 95.25 95.262 95.25 101.262 c 95.25 103.285 l 95.25
 105.773 97.266 107.785 99.75 107.785 c h
99.75 107.785 m f
95.25 182.84 m 95.25 188.84 104.25 188.84 104.25 182.84 c 104.25 117.809
 l 104.25 111.809 95.25 111.809 95.25 117.809 c h
95.25 182.84 m f
278.559 119.699 m 272.816 119.695 267.25 121.699 262.828 125.367 c 262.828
 59.418 l 262.84 48.961 256.73 39.465 247.207 35.141 c 237.684 30.82 226.512
 32.477 218.652 39.375 c 218.652 30.406 l 218.648 23.34 215.84 16.566 210.84
 11.57 c 205.844 6.578 199.066 3.773 192 3.777 c 184.934 3.781 178.156 6.59
 173.164 11.59 c 168.168 16.586 165.367 23.363 165.367 30.43 c 165.367 31.09
 l 157.504 24.184 146.32 22.527 136.793 26.855 c 127.266 31.188 121.156 
40.699 121.188 51.168 c 121.375 73.285 l 113.926 67.156 103.609 65.879 94.891
 70.008 c 86.176 74.133 80.625 82.926 80.648 92.57 c 80.648 157.051 l 80.648
 163.051 89.648 163.051 89.648 157.051 c 89.648 92.57 l 89.668 83.816 96.746
 76.715 105.5 76.664 c 114.258 76.613 121.414 83.637 121.531 92.391 c 122.336
 195.719 l 122.355 198.191 124.363 200.184 126.836 200.184 c 126.871 200.184
 l 129.355 200.164 131.355 198.133 131.336 195.648 c 130.188 51.121 l 130.184
 41.379 138.082 33.48 147.824 33.48 c 157.566 33.477 165.469 41.375 165.469
 51.117 c 165.469 178.004 l 165.434 180.484 167.355 182.551 169.828 182.691
 c 172.371 182.77 174.469 180.73 174.469 178.191 c 174.363 30.402 l 174.363
 25.727 176.223 21.238 179.531 17.93 c 182.84 14.621 187.328 12.762 192.004
 12.762 c 196.684 12.762 201.172 14.621 204.48 17.93 c 207.789 21.238 209.648
 25.727 209.648 30.402 c 209.648 178.004 l 209.609 180.484 211.535 182.551
 214.008 182.691 c 216.547 182.77 218.648 180.73 218.648 178.191 c 218.648
 57.504 l 219.668 48.191 227.789 41.305 237.141 41.812 c 246.492 42.32 253.816
 50.051 253.82 59.418 c 253.82 179.387 l 253.785 181.863 255.707 183.934
 258.184 184.074 c 260.723 184.152 262.824 182.113 262.82 179.574 c 262.82
 144.449 l 262.883 135.789 269.922 128.797 278.582 128.797 c 287.242 128.797
 294.281 135.789 294.344 144.449 c 294.344 268.059 l 294.402 294.969 283.953
 320.836 265.223 340.16 c 246.672 359.531 221.168 370.711 194.352 371.227
 c 193.574 371.242 192.789 371.25 192 371.25 c 135.566 371.25 89.652 325.305
 89.652 268.828 c 89.652 187.051 l 89.652 181.051 80.652 181.051 80.652 
187.051 c 80.652 268.828 l 80.652 330.266 130.602 380.25 192 380.25 c 192.852
 380.25 193.695 380.242 194.539 380.223 c 223.734 379.668 251.504 367.5 
271.699 346.414 c 292.059 325.418 303.414 297.301 303.352 268.059 c 303.352
 144.449 l 303.336 130.773 292.238 119.695 278.559 119.699 c h
278.559 119.699 m f
Q Q
showpage
%%Trailer
end
%%EOF
