%!PS-Adobe-3.0 EPSF-3.0
%%Creator: cairo 1.16.0 (https://cairographics.org)
%%CreationDate: Tue Feb  2 14:48:13 2021
%%Pages: 1
%%DocumentData: Clean7Bit
%%LanguageLevel: 2
%%BoundingBox: 39 3 345 381
%%EndComments
%%BeginProlog
50 dict begin
/q { gsave } bind def
/Q { grestore } bind def
/cm { 6 array astore concat } bind def
/w { setlinewidth } bind def
/J { setlinecap } bind def
/j { setlinejoin } bind def
/M { setmiterlimit } bind def
/d { setdash } bind def
/m { moveto } bind def
/l { lineto } bind def
/c { curveto } bind def
/h { closepath } bind def
/re { exch dup neg 3 1 roll 5 3 roll moveto 0 rlineto
      0 exch rlineto 0 rlineto closepath } bind def
/S { stroke } bind def
/f { fill } bind def
/f* { eofill } bind def
/n { newpath } bind def
/W { clip } bind def
/W* { eoclip } bind def
/BT { } bind def
/ET { } bind def
/BDC { mark 3 1 roll /BDC pdfmark } bind def
/EMC { mark /EMC pdfmark } bind def
/cairo_store_point { /cairo_point_y exch def /cairo_point_x exch def } def
/Tj { show currentpoint cairo_store_point } bind def
/TJ {
  {
    dup
    type /stringtype eq
    { show } { -0.001 mul 0 cairo_font_matrix dtransform rmoveto } ifelse
  } forall
  currentpoint cairo_store_point
} bind def
/cairo_selectfont { cairo_font_matrix aload pop pop pop 0 0 6 array astore
    cairo_font exch selectfont cairo_point_x cairo_point_y moveto } bind def
/Tf { pop /cairo_font exch def /cairo_font_matrix where
      { pop cairo_selectfont } if } bind def
/Td { matrix translate cairo_font_matrix matrix concatmatrix dup
      /cairo_font_matrix exch def dup 4 get exch 5 get cairo_store_point
      /cairo_font where { pop cairo_selectfont } if } bind def
/Tm { 2 copy 8 2 roll 6 array astore /cairo_font_matrix exch def
      cairo_store_point /cairo_font where { pop cairo_selectfont } if } bind def
/g { setgray } bind def
/rg { setrgbcolor } bind def
/d1 { setcachedevice } bind def
/cairo_data_source {
  CairoDataIndex CairoData length lt
    { CairoData CairoDataIndex get /CairoDataIndex CairoDataIndex 1 add def }
    { () } ifelse
} def
/cairo_flush_ascii85_file { cairo_ascii85_file status { cairo_ascii85_file flushfile } if } def
/cairo_image { image cairo_flush_ascii85_file } def
/cairo_imagemask { imagemask cairo_flush_ascii85_file } def
%%EndProlog
%%BeginSetup
%%EndSetup
%%Page: 1 1
%%BeginPageSetup
%%PageBoundingBox: 39 3 345 381
%%EndPageSetup
q 39 3 306 378 rectclip
1 0 0 -1 0 384 cm q
0.780392 0.603922 0.513726 rg
153.219 252.172 m 161.551 255.621 166.984 263.75 166.984 272.77 c 166.984
 281.789 161.551 289.918 153.219 293.367 c 144.887 296.816 135.297 294.91
 128.922 288.531 c 122.547 282.152 120.641 272.562 124.094 264.234 c 128.809
 252.863 141.844 247.465 153.219 252.172 c h
153.219 252.172 m f
0.882353 0.717647 0.639216 rg
119.625 229.727 m 126 236.102 127.906 245.688 124.457 254.016 c 121.008
 262.348 112.879 267.777 103.863 267.777 c 94.848 267.777 86.719 262.348
 83.27 254.016 c 79.82 245.688 81.727 236.102 88.102 229.727 c 92.281 225.543
 97.953 223.195 103.863 223.195 c 109.777 223.195 115.445 225.543 119.625
 229.727 c h
119.625 229.727 m f
0.780392 0.603922 0.513726 rg
85.074 87.727 m 93.406 91.172 98.848 99.297 98.852 108.316 c 98.859 117.332
 93.434 125.469 85.105 128.926 c 76.773 132.379 67.184 130.48 60.805 124.105
 c 54.422 117.734 52.512 108.145 55.957 99.809 c 60.668 88.438 73.695 83.031
 85.074 87.727 c h
85.074 87.727 m f
317.73 183.977 m 326.066 187.418 331.504 195.543 331.512 204.562 c 331.52
 213.582 326.09 221.715 317.762 225.172 c 309.434 228.629 299.84 226.727
 293.461 220.352 c 287.082 213.98 285.168 204.391 288.613 196.059 c 293.324
 184.688 306.355 179.281 317.73 183.977 c h
317.73 183.977 m f
0.372549 0.658824 0.929412 rg
208.207 322.41 m 207.613 323.801 206.246 324.703 204.734 324.703 c 181.582
 324.703 l 180.203 324.707 178.934 323.949 178.281 322.734 c 177.883 322.012
 177.738 321.176 177.871 320.363 c 181.199 307.898 l 181.484 306.066 183.059
 304.719 184.914 304.719 c 201.906 304.719 l 203.836 304.715 205.453 306.176
 205.648 308.094 c 208.477 320.551 l 208.543 321.184 208.449 321.82 208.207
 322.41 c h
208.207 322.41 m f
0.882353 0.717647 0.639216 rg
192.879 8.25 m 201.895 8.25 210.027 13.68 213.477 22.012 c 216.93 30.34
 215.023 39.93 208.645 46.309 c 202.27 52.684 192.68 54.59 184.348 51.141
 c 176.016 47.688 170.586 39.559 170.586 30.539 c 170.586 24.629 172.938
 18.957 177.117 14.777 c 181.297 10.598 186.965 8.25 192.879 8.25 c h
192.879 8.25 m f
297.652 229.727 m 304.027 236.098 305.934 245.684 302.484 254.016 c 299.035
 262.344 290.91 267.773 281.895 267.773 c 272.879 267.773 264.754 262.344
 261.305 254.016 c 257.855 245.684 259.762 236.098 266.137 229.727 c 274.84
 221.023 288.949 221.023 297.652 229.727 c h
297.652 229.727 m f
0.780392 0.603922 0.513726 rg
329.977 100.223 m 333.395 108.566 331.453 118.145 325.055 124.496 c 318.656
 130.848 309.062 132.719 300.746 129.238 c 292.43 125.758 287.027 117.609
 287.059 108.594 c 287.09 99.578 292.551 91.473 300.891 88.051 c 312.285
 83.387 325.305 88.832 329.977 100.223 c h
329.977 100.223 m f
249.609 19.547 m 257.938 22.996 263.367 31.125 263.363 40.137 c 263.363
 49.152 257.934 57.281 249.605 60.73 c 241.273 64.18 231.688 62.27 225.316
 55.895 c 218.941 49.52 217.035 39.934 220.484 31.605 c 225.199 20.234 238.234
 14.836 249.609 19.547 c h
249.609 19.547 m f
0.882353 0.717647 0.639216 rg
192.879 260.07 m 201.895 260.07 210.023 265.5 213.477 273.828 c 216.93 
282.16 215.023 291.75 208.648 298.125 c 202.273 304.504 192.684 306.41 184.352
 302.961 c 176.023 299.512 170.59 291.383 170.586 282.367 c 170.586 276.453
 172.934 270.785 177.113 266.602 c 181.293 262.418 186.965 260.07 192.879
 260.07 c h
192.879 260.07 m f
119.625 51.66 m 126 58.035 127.906 67.621 124.457 75.953 c 121.008 84.281
 112.879 89.711 103.863 89.711 c 94.848 89.711 86.719 84.281 83.27 75.953
 c 79.82 67.621 81.727 58.035 88.102 51.66 c 92.281 47.48 97.953 45.129 
103.863 45.129 c 109.777 45.129 115.445 47.48 119.625 51.66 c h
119.625 51.66 m f
297.652 51.66 m 304.027 58.035 305.934 67.621 302.484 75.949 c 299.035 
84.277 290.91 89.707 281.895 89.707 c 272.879 89.707 264.754 84.277 261.305
 75.949 c 257.855 67.621 259.762 58.035 266.137 51.66 c 274.84 42.957 288.949
 42.957 297.652 51.66 c h
297.652 51.66 m f
0.780392 0.603922 0.513726 rg
97.027 195.773 m 100.445 204.113 98.5 213.691 92.102 220.043 c 85.707 226.391
 76.113 228.262 67.797 224.781 c 59.48 221.301 54.082 213.152 54.117 204.141
 c 54.148 195.125 59.609 187.02 67.949 183.602 c 79.34 178.934 92.359 184.383
 97.027 195.773 c h
97.027 195.773 m f
0.921569 0.447059 0.533333 rg
184.688 375.75 m 170.316 375.75 l 166.668 375.758 163.668 372.871 163.531
 369.227 c 162.824 348.344 178.273 322.738 178.273 322.738 c 178.281 322.734
 l 178.934 323.949 180.203 324.707 181.582 324.703 c 204.734 324.703 l 206.246
 324.703 207.613 323.801 208.207 322.41 c 208.441 322.801 224.047 348.504
 223.352 369.227 c 223.215 372.871 220.211 375.758 216.562 375.75 c h
184.688 375.75 m f
0.882353 0.717647 0.639216 rg
317.445 131.961 m 326.461 131.961 334.594 137.391 338.043 145.723 c 341.496
 154.055 339.59 163.645 333.211 170.02 c 326.836 176.398 317.246 178.305
 308.914 174.852 c 300.586 171.402 295.152 163.27 295.156 154.254 c 295.156
 141.941 305.137 131.965 317.445 131.961 c h
317.445 131.961 m f
66.555 131.961 m 75.574 131.961 83.703 137.391 87.156 145.723 c 90.605 
154.055 88.699 163.645 82.324 170.02 c 75.945 176.398 66.355 178.305 58.027
 174.852 c 49.695 171.402 44.262 163.27 44.266 154.254 c 44.266 141.941 
54.246 131.965 66.555 131.961 c h
66.555 131.961 m f
0.780392 0.603922 0.513726 rg
260.812 264.773 m 264.199 273.129 262.219 282.699 255.797 289.023 c 249.371
 295.352 239.77 297.184 231.469 293.668 c 223.168 290.156 217.801 281.988
 217.871 272.973 c 217.938 263.957 223.434 255.871 231.789 252.488 c 243.195
 247.863 256.191 253.367 260.812 264.773 c h
260.812 264.773 m f
166.262 31.387 m 169.648 39.742 167.668 49.316 161.242 55.645 c 154.82 
61.969 145.219 63.805 136.914 60.289 c 128.609 56.777 123.242 48.609 123.309
 39.594 c 123.379 30.574 128.871 22.488 137.227 19.102 c 148.637 14.48 161.633
 19.98 166.262 31.387 c h
166.262 31.387 m f
0.717647 0.592157 0.541176 rg
106.102 229.727 m 108.051 227.773 110.344 226.203 112.863 225.094 c 105.969
 222.051 98.008 222.699 91.695 226.812 c 85.383 230.926 81.574 237.953 81.574
 245.484 c 81.574 253.02 85.383 260.047 91.695 264.16 c 98.008 268.273 105.969
 268.922 112.863 265.879 c 106.137 262.91 101.309 256.812 99.957 249.586
 c 98.605 242.359 100.906 234.93 106.102 229.73 c h
106.102 229.727 m f
192.879 52.836 m 195.977 52.84 199.043 52.195 201.879 50.938 c 193.797 
47.375 188.586 39.375 188.586 30.543 c 188.586 21.711 193.797 13.715 201.879
 10.148 c 195.73 7.438 188.688 7.641 182.707 10.707 c 176.73 13.773 172.453
 19.371 171.066 25.945 c 169.68 32.52 171.332 39.371 175.566 44.586 c 179.797
 49.805 186.16 52.836 192.879 52.836 c h
192.879 52.836 m f
188.586 282.367 m 188.586 273.535 193.801 265.535 201.879 261.969 c 194.984
 258.926 187.02 259.57 180.703 263.684 c 174.391 267.801 170.582 274.828
 170.582 282.363 c 170.582 289.898 174.391 296.926 180.703 301.039 c 187.02
 305.156 194.984 305.801 201.879 302.758 c 193.801 299.191 188.59 291.195
 188.586 282.367 c h
188.586 282.367 m f
106.102 51.66 m 108.051 49.711 110.344 48.141 112.863 47.027 c 105.969 
43.988 98.008 44.633 91.695 48.746 c 85.383 52.863 81.574 59.887 81.574 
67.422 c 81.574 74.957 85.383 81.98 91.695 86.094 c 98.008 90.211 105.969
 90.855 112.863 87.812 c 106.137 84.844 101.309 78.746 99.957 71.52 c 98.605
 64.293 100.906 56.863 106.102 51.664 c h
106.102 51.66 m f
62.266 154.254 m 62.266 145.422 67.477 137.426 75.555 133.863 c 68.66 130.816
 60.695 131.465 54.379 135.578 c 48.066 139.691 44.258 146.719 44.258 154.258
 c 44.258 161.793 48.066 168.82 54.379 172.934 c 60.695 177.051 68.66 177.695
 75.555 174.652 c 67.477 171.082 62.266 163.082 62.266 154.254 c h
62.266 154.254 m f
0.619608 0.486275 0.427451 rg
142.094 264.234 m 144.285 258.934 148.438 254.688 153.688 252.383 c 153.531
 252.312 153.375 252.238 153.219 252.176 c 146.297 249.305 138.395 250.102
 132.188 254.297 c 125.98 258.492 122.297 265.527 122.383 273.02 c 122.469
 280.512 126.312 287.461 132.613 291.516 c 138.914 295.57 146.832 296.188
 153.684 293.16 c 142.602 288.27 137.453 275.422 142.094 264.234 c h
142.094 264.234 m f
73.957 99.809 m 76.145 94.504 80.301 90.25 85.555 87.941 c 85.395 87.871
 85.234 87.797 85.074 87.727 c 78.152 84.859 70.254 85.664 64.047 89.859
 c 57.844 94.059 54.16 101.094 54.25 108.586 c 54.336 116.078 58.18 123.023
 64.48 127.074 c 70.781 131.129 78.695 131.746 85.551 128.719 c 74.477 123.832
 69.328 110.996 73.957 99.809 c h
73.957 99.809 m f
73.785 212.684 m 69.203 201.508 74.355 188.715 85.406 183.84 c 78.559 180.82
 70.656 181.438 64.363 185.48 c 58.066 189.523 54.223 196.457 54.125 203.938
 c 54.023 211.418 57.684 218.449 63.871 222.66 c 70.055 226.867 77.941 227.695
 84.863 224.859 c 85.047 224.781 85.227 224.695 85.41 224.617 c 80.133 222.297
 75.965 218.02 73.785 212.684 c h
73.785 212.684 m f
153.977 60.422 m 154.188 60.336 154.391 60.238 154.598 60.148 c 146.52 
56.586 141.309 48.59 141.309 39.762 c 141.309 30.934 146.52 22.938 154.598
 19.375 c 147.762 16.355 139.863 16.969 133.57 21 c 127.277 25.035 123.426
 31.953 123.312 39.426 c 123.199 46.898 126.84 53.934 133.008 58.156 c 139.176
 62.379 147.047 63.23 153.977 60.422 c h
153.977 60.422 m f
0.156863 0.258824 0.407843 rg
326.684 129.102 m 335.992 121.203 338.781 108.008 333.465 97.012 c 328.152
 86.02 316.078 80.012 304.102 82.402 c 311.207 71.867 309.938 57.793 301.062
 48.699 c 292.184 39.609 278.141 38.004 267.441 44.859 c 269.664 32.457 
262.945 20.184 251.305 15.375 c 239.66 10.562 226.238 14.516 219.059 24.871
 c 216.445 12.777 205.887 4.051 193.516 3.758 c 181.148 3.465 170.188 11.68
 167 23.633 c 159.402 13.555 145.801 10.145 134.348 15.449 c 122.895 20.75
 116.695 33.332 119.469 45.645 c 109.008 38.145 94.691 39.148 85.375 48.031
 c 76.059 56.914 74.379 71.168 81.375 81.977 c 69.5 79.805 57.637 85.844
 52.41 96.727 c 47.18 107.609 49.875 120.645 58.992 128.559 c 46.801 132.148
 38.805 143.809 39.859 156.477 c 40.914 169.145 50.723 179.328 63.344 180.852
 c 52.711 186.812 47.438 199.191 50.508 210.988 c 53.582 222.781 64.223 
231.02 76.41 231.039 c 78.176 231.039 79.934 230.863 81.66 230.516 c 74.559
 241.047 75.828 255.121 84.703 264.211 c 93.582 273.301 107.621 274.906 
118.32 268.055 c 116.098 280.457 122.816 292.73 134.461 297.539 c 146.105
 302.348 159.527 298.395 166.703 288.043 c 168.16 294.707 172.094 300.57
 177.715 304.441 c 177.281 305.219 176.973 306.059 176.805 306.934 c 173.43
 319.676 l 173.301 320.496 173.301 321.336 173.426 322.16 c 169.887 328.441
 158.398 350.383 159.039 369.387 c 159.234 375.465 164.234 380.281 170.316
 380.25 c 216.566 380.25 l 222.652 380.285 227.656 375.465 227.852 369.379
 c 228.496 350.172 216.461 327.723 212.957 321.621 c 213.004 321.109 213
 320.598 212.949 320.086 c 210.09 307.309 l 209.918 306.09 209.473 304.926
 208.789 303.898 c 213.668 300.289 217.184 295.133 218.762 289.273 c 226.355
 299.355 239.961 302.766 251.414 297.461 c 262.867 292.156 269.066 279.578
 266.289 267.262 c 276.75 274.762 291.066 273.762 300.383 264.879 c 309.699
 255.996 311.383 241.742 304.391 230.934 c 305.98 231.234 307.594 231.383
 309.211 231.387 c 321.578 231.375 332.336 222.898 335.238 210.875 c 338.141
 198.852 332.438 186.402 321.438 180.75 c 333.535 178.926 342.863 169.137
 344.102 156.965 c 345.336 144.793 338.172 133.328 326.688 129.105 c h
302.602 92.219 m 309.262 89.484 316.91 91.031 321.984 96.141 c 327.055 
101.246 328.551 108.906 325.773 115.547 c 322.996 122.188 316.492 126.5 
309.297 126.473 c 302.098 126.449 295.625 122.09 292.895 115.43 c 291.09
 111.066 291.102 106.164 292.926 101.805 c 294.746 97.449 298.23 94 302.602
 92.219 c h
269.316 54.84 m 274.406 49.75 282.059 48.227 288.707 50.98 c 295.355 53.734
 299.691 60.223 299.691 67.422 c 299.691 74.617 295.355 81.105 288.707 83.859
 c 282.059 86.613 274.406 85.094 269.316 80.004 c 265.949 76.684 264.055
 72.152 264.055 67.422 c 264.055 62.691 265.949 58.16 269.316 54.84 c h
224.645 33.324 m 227.398 26.68 233.887 22.348 241.082 22.352 c 248.277 
22.352 254.762 26.688 257.516 33.336 c 260.266 39.984 258.742 47.637 253.652
 52.723 c 248.566 57.809 240.914 59.328 234.266 56.574 c 229.887 54.793 
226.402 51.332 224.594 46.961 c 222.785 42.59 222.805 37.68 224.645 33.324
 c h
192.879 12.75 m 200.078 12.75 206.566 17.082 209.32 23.73 c 212.078 30.379
 210.555 38.035 205.469 43.121 c 200.379 48.211 192.727 49.734 186.078 46.98
 c 179.426 44.227 175.09 37.738 175.09 30.543 c 175.102 20.723 183.059 12.762
 192.879 12.75 c h
138.922 23.27 m 145.59 20.566 153.234 22.145 158.285 27.273 c 163.332 32.402
 164.797 40.066 161.992 46.695 c 159.188 53.324 152.668 57.609 145.469 57.555
 c 138.273 57.5 131.816 53.113 129.113 46.445 c 127.332 42.07 127.363 37.168
 129.203 32.82 c 131.043 28.469 134.539 25.035 138.922 23.27 c h
91.285 54.84 m 96.375 49.75 104.031 48.227 110.68 50.98 c 117.328 53.734
 121.664 60.223 121.664 67.422 c 121.664 74.617 117.328 81.105 110.68 83.859
 c 104.031 86.613 96.375 85.094 91.285 80.004 c 87.918 76.684 86.023 72.152
 86.023 67.422 c 86.023 62.691 87.918 58.16 91.285 54.84 c h
60.113 101.527 m 62.863 94.879 69.352 90.543 76.547 90.543 c 83.742 90.539
 90.227 94.871 92.984 101.52 c 95.738 108.164 94.219 115.816 89.137 120.906
 c 84.051 125.996 76.398 127.523 69.75 124.773 c 65.367 122.992 61.883 119.531
 60.07 115.164 c 58.262 110.797 58.277 105.887 60.113 101.527 c h
48.766 154.254 m 48.77 147.059 53.105 140.574 59.754 137.824 c 66.398 135.074
 74.051 136.598 79.137 141.684 c 84.223 146.773 85.742 154.426 82.988 161.07
 c 80.234 167.719 73.746 172.051 66.555 172.051 c 56.73 172.039 48.773 164.074
 48.766 154.254 c h
83.156 220.691 m 76.496 223.422 68.848 221.875 63.777 216.77 c 58.703 211.664
 57.207 204.004 59.984 197.363 c 62.762 190.723 69.266 186.41 76.461 186.434
 c 83.66 186.457 90.133 190.816 92.863 197.477 c 94.691 201.836 94.691 206.75
 92.867 211.113 c 91.043 215.477 87.543 218.926 83.156 220.691 c h
116.445 258.066 m 111.355 263.156 103.703 264.68 97.055 261.926 c 90.406
 259.172 86.07 252.684 86.07 245.484 c 86.07 238.289 90.406 231.801 97.055
 229.047 c 103.703 226.293 111.355 227.816 116.445 232.902 c 119.809 236.227
 121.707 240.758 121.707 245.484 c 121.707 250.215 119.809 254.746 116.445
 258.066 c h
161.117 279.582 m 158.359 286.23 151.871 290.562 144.676 290.559 c 137.48
 290.555 130.996 286.219 128.242 279.57 c 125.492 272.922 127.016 265.273
 132.105 260.184 c 137.195 255.098 144.848 253.578 151.492 256.332 c 155.875
 258.113 159.359 261.578 161.168 265.945 c 162.973 270.316 162.957 275.227
 161.117 279.582 c h
218.855 369.074 m 218.793 370.293 217.785 371.25 216.566 371.25 c 205.426
 371.25 l 205.426 341.09 l 205.426 335.09 196.426 335.09 196.426 341.09 
c 196.426 371.25 l 189.188 371.25 l 189.188 355.508 l 189.188 349.508 180.188
 349.508 180.188 355.508 c 180.188 371.25 l 170.316 371.25 l 169.094 371.25
 168.086 370.293 168.027 369.074 c 167.535 354.422 175.844 336.777 179.93
 329.035 c 180.473 329.145 181.027 329.203 181.586 329.207 c 204.734 329.207
 l 205.402 329.203 206.066 329.117 206.715 328.953 c 210.945 336.883 219.344
 354.551 218.855 369.074 c h
182.566 320.203 m 185.504 309.215 l 201.293 309.215 l 203.781 320.203 l
 h
192.879 300.156 m 185.684 300.156 179.195 295.82 176.438 289.172 c 173.684
 282.523 175.203 274.871 180.293 269.781 c 185.383 264.691 193.035 263.168
 199.684 265.922 c 206.332 268.676 210.668 275.164 210.668 282.359 c 210.66
 292.184 202.703 300.145 192.879 300.156 c h
246.84 289.637 m 240.168 292.34 232.527 290.758 227.477 285.633 c 222.422
 280.504 220.961 272.84 223.766 266.211 c 226.57 259.582 233.09 255.293 
240.289 255.348 c 247.484 255.402 253.941 259.789 256.645 266.461 c 258.453
 270.832 258.43 275.742 256.59 280.098 c 254.746 284.453 251.234 287.891
 246.84 289.637 c h
255.777 251.375 m 254.164 250.219 252.43 249.246 250.602 248.469 c 243.457
 245.445 235.348 245.664 228.379 249.078 c 221.414 252.496 216.27 258.766
 214.281 266.266 c 209.117 259.379 200.953 255.402 192.348 255.574 c 183.742
 255.746 175.742 260.047 170.855 267.133 c 169.191 259.363 164.16 252.734
 157.125 249.039 c 150.09 245.348 141.777 244.969 134.434 248.012 c 132.965
 248.621 131.555 249.359 130.215 250.219 c 131.625 242.41 129.496 234.379
 124.41 228.293 c 119.32 222.207 111.797 218.691 103.863 218.691 c 102.098
 218.688 100.336 218.859 98.605 219.203 c 103.82 211.469 104.641 201.582
 100.766 193.098 c 96.895 184.613 88.891 178.75 79.633 177.621 c 87.25 173.371
 92.312 165.668 93.203 156.992 c 94.094 148.312 90.699 139.742 84.102 134.031
 c 85.023 133.762 85.93 133.441 86.816 133.074 c 94.16 130.027 99.773 123.879
 102.133 116.285 c 104.488 108.691 103.352 100.445 99.027 93.773 c 100.625
 94.066 102.242 94.215 103.867 94.215 c 112.008 94.215 119.703 90.516 124.785
 84.156 c 129.867 77.797 131.781 69.473 129.984 61.531 c 131.598 62.688 
133.336 63.66 135.16 64.434 c 142.305 67.461 150.414 67.238 157.383 63.824
 c 164.352 60.41 169.492 54.141 171.48 46.641 c 176.645 53.523 184.809 57.504
 193.414 57.332 c 202.02 57.16 210.02 52.859 214.906 45.773 c 216.559 53.547
 221.59 60.184 228.629 63.879 c 235.668 67.574 243.984 67.945 251.324 64.891
 c 252.793 64.281 254.203 63.543 255.543 62.688 c 253.984 71.406 256.832
 80.336 263.156 86.543 c 269.48 92.75 278.465 95.426 287.152 93.703 c 282.664
 100.352 281.391 108.668 283.688 116.355 c 285.984 124.047 291.609 130.301
 299.016 133.398 c 299.387 133.551 299.758 133.695 300.133 133.832 c 293.301
 139.613 289.812 148.422 290.832 157.312 c 291.852 166.203 297.25 173.992
 305.211 178.078 c 303.059 178.406 300.957 178.996 298.945 179.828 c 291.598
 182.875 285.988 189.027 283.629 196.621 c 281.27 204.215 282.406 212.461
 286.734 219.133 c 285.137 218.844 283.52 218.695 281.895 218.691 c 273.754
 218.691 266.059 222.395 260.977 228.754 c 255.895 235.113 253.98 243.438
 255.777 251.375 c h
294.477 258.066 m 289.387 263.152 281.734 264.676 275.086 261.922 c 268.438
 259.168 264.102 252.68 264.102 245.484 c 264.102 238.285 268.438 231.801
 275.086 229.043 c 281.734 226.289 289.387 227.812 294.477 232.902 c 297.844
 236.223 299.738 240.754 299.738 245.484 c 299.738 250.215 297.84 254.746
 294.473 258.066 c h
325.648 211.375 m 322.898 218.039 316.406 222.391 309.199 222.398 c 301.992
 222.406 295.488 218.066 292.727 211.41 c 289.965 204.75 291.492 197.082
 296.59 191.988 c 301.684 186.891 309.352 185.371 316.008 188.133 c 320.391
 189.91 323.879 193.371 325.688 197.742 c 327.5 202.109 327.484 207.023 
325.645 211.379 c h
317.445 172.051 m 310.25 172.051 303.758 167.719 301.004 161.07 c 298.246
 154.422 299.77 146.766 304.855 141.676 c 309.945 136.586 317.602 135.062
 324.25 137.816 c 330.898 140.57 335.234 147.059 335.234 154.258 c 335.227
 164.078 327.266 172.039 317.445 172.051 c h
317.445 172.051 m f
Q Q
showpage
%%Trailer
end
%%EOF
