%!PS-Adobe-3.0 EPSF-3.0
%%Creator: cairo 1.16.0 (https://cairographics.org)
%%CreationDate: Tue Feb  2 14:48:14 2021
%%Pages: 1
%%DocumentData: Clean7Bit
%%LanguageLevel: 2
%%BoundingBox: 77 3 307 381
%%EndComments
%%BeginProlog
50 dict begin
/q { gsave } bind def
/Q { grestore } bind def
/cm { 6 array astore concat } bind def
/w { setlinewidth } bind def
/J { setlinecap } bind def
/j { setlinejoin } bind def
/M { setmiterlimit } bind def
/d { setdash } bind def
/m { moveto } bind def
/l { lineto } bind def
/c { curveto } bind def
/h { closepath } bind def
/re { exch dup neg 3 1 roll 5 3 roll moveto 0 rlineto
      0 exch rlineto 0 rlineto closepath } bind def
/S { stroke } bind def
/f { fill } bind def
/f* { eofill } bind def
/n { newpath } bind def
/W { clip } bind def
/W* { eoclip } bind def
/BT { } bind def
/ET { } bind def
/BDC { mark 3 1 roll /BDC pdfmark } bind def
/EMC { mark /EMC pdfmark } bind def
/cairo_store_point { /cairo_point_y exch def /cairo_point_x exch def } def
/Tj { show currentpoint cairo_store_point } bind def
/TJ {
  {
    dup
    type /stringtype eq
    { show } { -0.001 mul 0 cairo_font_matrix dtransform rmoveto } ifelse
  } forall
  currentpoint cairo_store_point
} bind def
/cairo_selectfont { cairo_font_matrix aload pop pop pop 0 0 6 array astore
    cairo_font exch selectfont cairo_point_x cairo_point_y moveto } bind def
/Tf { pop /cairo_font exch def /cairo_font_matrix where
      { pop cairo_selectfont } if } bind def
/Td { matrix translate cairo_font_matrix matrix concatmatrix dup
      /cairo_font_matrix exch def dup 4 get exch 5 get cairo_store_point
      /cairo_font where { pop cairo_selectfont } if } bind def
/Tm { 2 copy 8 2 roll 6 array astore /cairo_font_matrix exch def
      cairo_store_point /cairo_font where { pop cairo_selectfont } if } bind def
/g { setgray } bind def
/rg { setrgbcolor } bind def
/d1 { setcachedevice } bind def
/cairo_data_source {
  CairoDataIndex CairoData length lt
    { CairoData CairoDataIndex get /CairoDataIndex CairoDataIndex 1 add def }
    { () } ifelse
} def
/cairo_flush_ascii85_file { cairo_ascii85_file status { cairo_ascii85_file flushfile } if } def
/cairo_image { image cairo_flush_ascii85_file } def
/cairo_imagemask { imagemask cairo_flush_ascii85_file } def
%%EndProlog
%%BeginSetup
%%EndSetup
%%Page: 1 1
%%BeginPageSetup
%%PageBoundingBox: 77 3 307 381
%%EndPageSetup
q 77 3 230 378 rectclip
1 0 0 -1 0 384 cm q
0.486275 0.494118 0.219608 rg
101.078 190.395 181.844 43.68 re f
101.078 291.422 181.844 50.906 re f
0.603922 0.772549 0.631373 rg
82.359 135.277 m 82.359 154.719 l 82.359 161.625 87.957 167.227 94.867 
167.227 c 289.133 167.227 l 296.043 167.227 301.641 161.625 301.641 154.719
 c 301.641 135.277 l h
82.359 135.277 m f
0.458824 0.588235 0.478431 rg
101.078 267.496 181.844 23.926 re f
0.603922 0.772549 0.631373 rg
284.934 342.328 m 99.066 342.328 l 89.84 342.328 82.359 349.812 82.359 
359.039 c 82.359 368.27 89.84 375.75 99.066 375.75 c 284.934 375.75 l 294.16
 375.75 301.641 368.27 301.641 359.039 c 301.641 349.812 294.16 342.328 
284.934 342.328 c h
284.934 342.328 m f
284.934 234.074 m 99.066 234.074 l 89.84 234.074 82.359 241.555 82.359 
250.785 c 82.359 260.016 89.84 267.496 99.066 267.496 c 284.934 267.496 
l 294.16 267.496 301.641 260.016 301.641 250.785 c 301.641 241.555 294.16
 234.074 284.934 234.074 c h
284.934 234.074 m f
0.458824 0.588235 0.478431 rg
101.078 167.227 181.844 23.168 re f
0.780392 0.603922 0.513726 rg
201.742 134.879 m 201.742 135.277 l 182.258 135.277 l 182.258 58.254 l 
186.676 50.684 l 182.258 43.086 l 182.258 19.297 l 192 8.25 l 201.742 19.297
 l 201.742 43.086 l 197.324 50.684 l 201.742 58.254 l h
201.742 134.879 m f
238.566 134.879 m 238.566 135.277 l 219.082 135.277 l 219.082 58.254 l 
223.5 50.684 l 219.082 43.086 l 219.082 19.297 l 228.824 8.25 l 238.566 
19.297 l 238.566 43.086 l 234.148 50.684 l 238.566 58.254 l h
238.566 134.879 m f
164.918 134.879 m 164.918 135.277 l 145.434 135.277 l 145.434 58.254 l 
149.852 50.684 l 145.434 43.086 l 145.434 19.297 l 155.176 8.25 l 164.918
 19.297 l 164.918 43.086 l 160.5 50.684 l 164.918 58.254 l h
164.918 134.879 m f
128.094 134.879 m 128.094 135.277 l 108.609 135.277 l 108.609 58.254 l 
113.031 50.684 l 108.609 43.086 l 108.609 19.297 l 118.352 8.25 l 128.094
 19.297 l 128.094 43.086 l 123.676 50.684 l 128.094 58.254 l h
128.094 134.879 m f
275.391 134.879 m 275.391 135.277 l 255.906 135.277 l 255.906 58.254 l 
260.324 50.684 l 255.906 43.086 l 255.906 19.297 l 265.648 8.25 l 275.391
 19.297 l 275.391 43.086 l 270.969 50.684 l 275.391 58.254 l h
275.391 134.879 m f
0.388235 0.388235 0.192157 rg
101.25 190.5 22.5 43.5 re f
0.505882 0.647059 0.521569 rg
105 154.719 m 105 135 l 82.5 135 l 82.5 154.719 l 82.469 158.023 83.754
 161.203 86.078 163.559 c 88.398 165.91 91.562 167.238 94.867 167.25 c 117.367
 167.25 l 114.062 167.238 110.898 165.91 108.578 163.559 c 106.254 161.203
 104.969 158.023 105 154.719 c h
105 154.719 m f
0.364706 0.447059 0.372549 rg
101.25 267.75 22.5 24 re f
0.505882 0.647059 0.521569 rg
104.859 359.039 m 104.852 354.559 106.605 350.254 109.746 347.055 c 112.863
 343.871 117.113 342.055 121.566 342 c 99.066 342 l 89.746 342 82.191 349.555
 82.191 358.875 c 82.191 368.195 89.746 375.75 99.066 375.75 c 121.566 375.75
 l 117.137 375.75 112.887 373.988 109.75 370.855 c 106.617 367.723 104.859
 363.473 104.859 359.039 c h
104.859 359.039 m f
0.388235 0.388235 0.192157 rg
101.25 291.75 22.5 50.25 re f
0.505882 0.647059 0.521569 rg
104.859 250.914 m 104.832 241.641 112.297 234.086 121.566 234 c 99.066 
234 l 94.629 234.008 90.375 235.781 87.246 238.926 c 84.105 242.117 82.352
 246.418 82.359 250.895 c 82.344 260.152 89.809 267.684 99.066 267.75 c 
121.566 267.75 l 112.312 267.691 104.844 260.168 104.859 250.914 c h
104.859 250.914 m f
0.364706 0.447059 0.372549 rg
101.25 167.25 22.5 23.25 re f
0.156863 0.258824 0.407843 rg
301.648 130.781 m 279.891 130.781 l 279.891 58.254 l 279.891 57.457 279.68
 56.676 279.277 55.984 c 276.18 50.68 l 279.281 45.355 l 279.68 44.668 279.891
 43.887 279.891 43.094 c 279.891 19.297 l 279.891 18.199 279.488 17.145 
278.766 16.32 c 269.023 5.273 l 267.234 3.242 264.066 3.242 262.273 5.273
 c 252.531 16.32 l 251.809 17.145 251.406 18.199 251.406 19.297 c 251.406
 43.086 l 251.406 43.883 251.617 44.664 252.02 45.348 c 255.117 50.676 l
 252.023 55.98 l 251.621 56.668 251.406 57.449 251.406 58.246 c 251.406 
130.773 l 243.066 130.773 l 243.066 58.246 l 243.066 57.449 242.855 56.668
 242.453 55.98 c 239.355 50.676 l 242.457 45.348 l 242.855 44.664 243.066
 43.883 243.066 43.086 c 243.066 19.297 l 243.066 18.199 242.664 17.145 
241.941 16.32 c 232.199 5.273 l 230.41 3.242 227.242 3.242 225.449 5.273
 c 215.707 16.32 l 214.984 17.145 214.582 18.199 214.582 19.297 c 214.582
 43.086 l 214.582 43.883 214.793 44.664 215.191 45.348 c 218.293 50.676 
l 215.195 55.98 l 214.793 56.668 214.582 57.449 214.582 58.246 c 214.582
 130.773 l 206.242 130.773 l 206.242 58.246 l 206.242 57.449 206.031 56.668
 205.629 55.98 c 202.531 50.676 l 205.633 45.348 l 206.031 44.664 206.242
 43.883 206.242 43.086 c 206.242 19.297 l 206.242 18.199 205.844 17.145 
205.117 16.32 c 195.375 5.273 l 193.582 3.242 190.418 3.242 188.625 5.273
 c 178.883 16.32 l 178.156 17.145 177.758 18.199 177.758 19.297 c 177.758
 43.086 l 177.758 43.883 177.969 44.664 178.367 45.348 c 181.469 50.676 
l 178.371 55.98 l 177.969 56.668 177.758 57.449 177.758 58.246 c 177.758
 130.773 l 169.418 130.773 l 169.418 58.246 l 169.418 57.449 169.207 56.668
 168.805 55.98 c 165.707 50.676 l 168.809 45.348 l 169.207 44.664 169.418
 43.883 169.418 43.086 c 169.418 19.297 l 169.418 18.199 169.02 17.145 168.293
 16.32 c 158.551 5.273 l 156.758 3.242 153.59 3.242 151.801 5.273 c 142.059
 16.32 l 141.332 17.145 140.934 18.199 140.934 19.297 c 140.934 43.086 l
 140.934 43.883 141.145 44.664 141.543 45.348 c 144.645 50.676 l 141.547
 55.98 l 141.145 56.668 140.934 57.449 140.934 58.246 c 140.934 130.773 
l 132.594 130.773 l 132.594 58.246 l 132.594 57.449 132.383 56.668 131.98
 55.98 c 128.883 50.676 l 131.984 45.348 l 132.383 44.664 132.594 43.883
 132.594 43.086 c 132.594 19.297 l 132.594 18.199 132.195 17.145 131.469
 16.32 c 121.727 5.273 l 119.934 3.242 116.766 3.242 114.977 5.273 c 105.234
 16.32 l 104.508 17.145 104.109 18.199 104.109 19.297 c 104.109 43.086 l
 104.105 43.883 104.316 44.664 104.719 45.348 c 107.816 50.676 l 104.723
 55.98 l 104.32 56.668 104.105 57.449 104.109 58.246 c 104.109 130.773 l
 82.355 130.773 l 79.867 130.773 77.855 132.789 77.855 135.273 c 77.855 
154.707 l 77.863 164.098 85.477 171.711 94.867 171.723 c 96.574 171.723 
l 96.574 229.773 l 86.359 231.152 78.176 239.598 77.863 250.137 c 77.547
 261.125 85.66 270.539 96.574 271.84 c 96.574 337.98 l 85.426 339.301 77.234
 349.082 77.895 360.289 c 78.555 371.496 87.836 380.25 99.066 380.25 c 284.934
 380.25 l 296.164 380.25 305.445 371.496 306.105 360.289 c 306.766 349.082
 298.574 339.301 287.426 337.98 c 287.426 271.844 l 298.34 270.543 306.453
 261.129 306.137 250.141 c 305.824 239.602 297.641 231.156 287.426 229.777
 c 287.426 171.727 l 289.133 171.727 l 298.523 171.719 306.137 164.105 306.148
 154.715 c 306.148 135.281 l 306.148 132.793 304.137 130.781 301.648 130.781
 c h
260.406 59.469 m 264.211 52.949 l 265.027 51.551 265.027 49.82 264.211 
48.418 c 260.402 41.871 l 260.402 21 l 265.645 15.055 l 270.891 21 l 270.891
 41.871 l 267.082 48.418 l 266.266 49.82 266.266 51.551 267.082 52.949 c
 270.887 59.469 l 270.887 130.781 l 260.402 130.781 l h
223.578 59.469 m 227.387 52.949 l 228.203 51.551 228.203 49.82 227.387 
48.418 c 223.578 41.871 l 223.578 21 l 228.82 15.055 l 234.066 21 l 234.066
 41.871 l 230.258 48.418 l 229.441 49.82 229.441 51.551 230.258 52.949 c
 234.062 59.469 l 234.062 130.781 l 223.578 130.781 l h
186.754 59.469 m 190.559 52.949 l 191.375 51.551 191.375 49.82 190.559 
48.418 c 186.758 41.871 l 186.758 21 l 192 15.055 l 197.242 21 l 197.242
 41.871 l 193.434 48.418 l 192.617 49.82 192.617 51.551 193.434 52.949 c
 197.238 59.469 l 197.238 130.781 l 186.758 130.781 l h
149.93 59.469 m 153.734 52.949 l 154.551 51.551 154.551 49.82 153.734 48.418
 c 149.926 41.871 l 149.926 21 l 155.168 15.055 l 160.418 21 l 160.418 41.871
 l 156.609 48.418 l 155.793 49.82 155.793 51.551 156.609 52.949 c 160.414
 59.469 l 160.414 130.781 l 149.93 130.781 l h
113.105 59.469 m 116.91 52.949 l 117.727 51.551 117.727 49.82 116.91 48.418
 c 113.102 41.871 l 113.102 21 l 118.344 15.055 l 123.594 21 l 123.594 41.871
 l 119.785 48.418 l 118.969 49.82 118.969 51.551 119.785 52.949 c 123.594
 59.469 l 123.594 130.781 l 113.109 130.781 l h
297.148 359.039 m 297.141 365.781 291.676 371.246 284.934 371.25 c 99.066
 371.25 l 95.809 371.277 92.68 370 90.367 367.707 c 88.059 365.414 86.758
 362.293 86.758 359.039 c 86.758 355.785 88.059 352.664 90.367 350.371 c
 92.68 348.078 95.809 346.805 99.066 346.828 c 284.934 346.828 l 291.676
 346.836 297.141 352.297 297.148 359.039 c h
278.43 295.918 m 278.43 337.828 l 105.574 337.828 l 105.574 295.918 l h
105.578 286.918 m 105.578 271.992 l 278.426 271.992 l 278.426 286.918 l
 h
297.148 250.992 m 297.027 257.652 291.602 262.988 284.938 262.996 c 99.391
 262.996 l 92.559 262.996 86.742 257.41 86.859 250.578 c 86.98 243.922 92.406
 238.586 99.066 238.578 c 122.273 238.578 l 128.273 238.578 128.273 229.578
 122.273 229.578 c 105.574 229.578 l 105.574 194.895 l 278.426 194.895 l
 278.426 229.574 l 152.277 229.574 l 146.277 229.574 146.277 238.574 152.277
 238.574 c 284.613 238.574 l 291.441 238.574 297.258 244.164 297.145 250.992
 c h
105.578 185.895 m 105.578 171.727 l 278.426 171.727 l 278.426 185.895 l
 h
297.148 154.715 m 297.145 159.137 293.559 162.723 289.137 162.727 c 94.867
 162.727 l 90.445 162.723 86.859 159.137 86.855 154.715 c 86.855 139.781
 l 297.148 139.781 l h
297.148 154.715 m f
98.711 154.051 m 100.734 154.051 l 106.734 154.051 106.734 145.051 100.734
 145.051 c 98.711 145.051 l 92.711 145.051 92.711 154.051 98.711 154.051
 c h
98.711 154.051 m f
115.254 154.051 m 180.289 154.051 l 186.289 154.051 186.289 145.051 180.289
 145.051 c 115.254 145.051 l 109.254 145.051 109.254 154.051 115.254 154.051
 c h
115.254 154.051 m f
Q Q
showpage
%%Trailer
end
%%EOF
