%!PS-Adobe-3.0 EPSF-3.0
%%Creator: cairo 1.16.0 (https://cairographics.org)
%%CreationDate: Tue Feb  2 14:48:15 2021
%%Pages: 1
%%DocumentData: Clean7Bit
%%LanguageLevel: 2
%%BoundingBox: 3 37 381 347
%%EndComments
%%BeginProlog
50 dict begin
/q { gsave } bind def
/Q { grestore } bind def
/cm { 6 array astore concat } bind def
/w { setlinewidth } bind def
/J { setlinecap } bind def
/j { setlinejoin } bind def
/M { setmiterlimit } bind def
/d { setdash } bind def
/m { moveto } bind def
/l { lineto } bind def
/c { curveto } bind def
/h { closepath } bind def
/re { exch dup neg 3 1 roll 5 3 roll moveto 0 rlineto
      0 exch rlineto 0 rlineto closepath } bind def
/S { stroke } bind def
/f { fill } bind def
/f* { eofill } bind def
/n { newpath } bind def
/W { clip } bind def
/W* { eoclip } bind def
/BT { } bind def
/ET { } bind def
/BDC { mark 3 1 roll /BDC pdfmark } bind def
/EMC { mark /EMC pdfmark } bind def
/cairo_store_point { /cairo_point_y exch def /cairo_point_x exch def } def
/Tj { show currentpoint cairo_store_point } bind def
/TJ {
  {
    dup
    type /stringtype eq
    { show } { -0.001 mul 0 cairo_font_matrix dtransform rmoveto } ifelse
  } forall
  currentpoint cairo_store_point
} bind def
/cairo_selectfont { cairo_font_matrix aload pop pop pop 0 0 6 array astore
    cairo_font exch selectfont cairo_point_x cairo_point_y moveto } bind def
/Tf { pop /cairo_font exch def /cairo_font_matrix where
      { pop cairo_selectfont } if } bind def
/Td { matrix translate cairo_font_matrix matrix concatmatrix dup
      /cairo_font_matrix exch def dup 4 get exch 5 get cairo_store_point
      /cairo_font where { pop cairo_selectfont } if } bind def
/Tm { 2 copy 8 2 roll 6 array astore /cairo_font_matrix exch def
      cairo_store_point /cairo_font where { pop cairo_selectfont } if } bind def
/g { setgray } bind def
/rg { setrgbcolor } bind def
/d1 { setcachedevice } bind def
/cairo_data_source {
  CairoDataIndex CairoData length lt
    { CairoData CairoDataIndex get /CairoDataIndex CairoDataIndex 1 add def }
    { () } ifelse
} def
/cairo_flush_ascii85_file { cairo_ascii85_file status { cairo_ascii85_file flushfile } if } def
/cairo_image { image cairo_flush_ascii85_file } def
/cairo_imagemask { imagemask cairo_flush_ascii85_file } def
%%EndProlog
%%BeginSetup
%%EndSetup
%%Page: 1 1
%%BeginPageSetup
%%PageBoundingBox: 3 37 381 347
%%EndPageSetup
q 3 37 378 310 rectclip
1 0 0 -1 0 384 cm q
0.372549 0.803922 0.643137 rg
230.949 246.824 m 230.953 246.824 l 236.91 246.309 242.715 245.602 248.379
 244.664 c 248.379 244.68 l 268.184 245.281 314.297 252.227 347.715 300.023
 c 347.715 300.023 270.668 331.012 219.668 292.539 c 219.66 292.539 l 222.758
 267.203 209.789 248.145 209.789 248.145 c 209.781 247.973 l 217.043 247.785
 224.094 247.426 230.949 246.824 c h
230.949 246.824 m f
0.298039 0.662745 0.529412 rg
209.789 248.145 m 209.789 248.145 222.758 267.203 219.66 292.539 c 217.809
 307.785 210.137 325.305 190.32 342.309 c 172.176 326.871 163.59 310.883
 160.156 296.496 c 153.48 268.605 166.184 246.75 166.184 246.75 c 173.781
 247.566 181.516 248.031 189.336 248.137 c 190.246 248.152 191.152 248.16
 192.059 248.16 c 193.379 248.16 l 198.969 248.168 204.434 248.113 209.781
 247.973 c h
209.789 248.145 m f
0.372549 0.803922 0.643137 rg
143.762 243.234 m 143.762 243.227 l 149.484 244.426 155.297 245.402 161.203
 246.156 c 161.219 246.164 l 162.871 246.375 164.52 246.57 166.184 246.75
 c 166.184 246.75 153.48 268.605 160.156 296.496 c 160.074 296.52 l 109.23
 330.195 36.781 300.023 36.781 300.023 c 79.613 238.762 141.398 243.047 
143.762 243.234 c h
143.762 243.234 m f
0.301961 0.627451 0.494118 rg
59.281 300.023 m 88.344 258.453 126.246 247.066 148.277 244.098 c 146.805
 243.82 145.504 243.531 144.004 243.227 c 144.004 243.234 l 141.754 243.047
 79.734 238.762 36.902 300.023 c 36.902 300.023 73.227 315.172 112.52 312.012
 c 94.293 310.582 76.363 306.547 59.281 300.023 c h
59.281 300.023 m f
0.972549 0.823529 0.772549 rg
375.75 84.719 m 375.75 114.074 370.996 138.465 354.219 166.934 c 323.828
 218.504 289.883 237.832 248.379 244.664 c 242.715 245.602 236.91 246.309
 230.953 246.824 c 232.051 246.188 301.41 205.539 303.141 106.484 c 342.473
 78.473 375.75 84.719 375.75 84.719 c h
375.75 84.719 m f
0.858824 0.717647 0.678431 rg
297.586 51.227 m 301.5 69.379 303.363 87.914 303.141 106.484 c 301.41 205.539
 232.051 246.188 230.953 246.824 c 230.949 246.824 l 224.094 247.426 217.043
 247.785 209.781 247.973 c 204.434 248.113 198.969 248.168 193.379 248.16
 c 204.898 231.801 256.672 167.781 225.188 92.301 c 245.738 63.031 297.586
 51.227 297.586 51.227 c h
297.586 51.227 m f
0.972549 0.823529 0.772549 rg
225.188 92.301 m 256.672 167.781 204.898 231.801 193.379 248.16 c 192.059
 248.16 l 191.152 248.16 190.246 248.152 189.336 248.137 c 177.285 231.051
 125.91 167.387 157.172 92.297 c 164.016 75.855 174.824 58.859 190.875 41.691
 c 191.461 41.691 l 207.512 58.852 218.324 75.848 225.188 92.301 c h
225.188 92.301 m f
0.858824 0.717647 0.678431 rg
189.336 248.137 m 181.516 248.031 173.781 247.566 166.184 246.75 c 164.52
 246.57 162.871 246.375 161.219 246.164 c 161.203 246.156 l 159.961 245.852
 79.996 225.195 80.672 105.711 c 80.879 87.438 82.605 69.215 85.828 51.227
 c 85.828 51.227 134.324 61.246 157.172 92.297 c 125.91 167.387 177.285 
231.051 189.336 248.137 c h
189.336 248.137 m f
0.972549 0.823529 0.772549 rg
161.203 246.156 m 155.301 245.398 149.488 244.422 143.762 243.227 c 129.598
 240.316 115.789 235.902 102.562 230.062 c 75.824 218.168 52.98 200.477 
36.422 177.227 c 16.703 149.551 7.215 126.324 8.34 84.719 c 8.34 84.719 
41.332 77.707 80.664 105.711 c 80.672 105.711 l 79.996 225.195 159.961 245.852
 161.203 246.156 c h
161.203 246.156 m f
0.776471 0.643137 0.607843 rg
125.062 230.062 m 98.324 218.168 75.48 200.477 58.922 177.227 c 39.227 
149.582 29.738 126.375 30.836 84.867 c 17.043 82.871 8.336 84.719 8.336 
84.719 c 7.215 126.324 16.703 149.551 36.422 177.227 c 52.98 200.477 75.824
 218.168 102.562 230.062 c 115.789 235.902 129.598 240.316 143.762 243.227
 c 149.484 244.426 155.297 245.402 161.203 246.156 c 160.777 246.051 151.02
 243.531 138.438 235.406 c 133.883 233.773 129.426 231.992 125.062 230.062
 c h
125.062 230.062 m f
0.156863 0.258824 0.407843 rg
376.578 80.297 m 376.211 80.227 367.363 78.621 353.543 80.648 c 334.949
 83.371 319.121 90.914 307.617 98.098 c 307.227 82.023 305.344 66.023 301.992
 50.301 c 301.477 47.84 299.043 46.277 296.59 46.832 c 294.555 47.297 249.668
 57.777 226.305 83.727 c 218.863 68.219 208.348 53.184 194.754 38.617 c 
193.902 37.711 192.715 37.195 191.469 37.195 c 190.875 37.195 l 189.629 
37.195 188.438 37.711 187.586 38.617 c 173.973 53.184 163.449 68.238 156.023
 83.785 c 131.25 56.289 88.66 47.211 86.738 46.812 c 84.926 46.441 83.066
 47.215 82.051 48.766 c 81.707 49.305 81.477 49.914 81.375 50.547 c 78.645
 66.043 76.969 81.703 76.367 97.426 c 39.008 73.988 8.75 80.031 7.402 80.32
 c 5.371 80.75 3.898 82.52 3.84 84.598 c 2.652 128.637 13.543 152.867 32.754
 179.836 c 52.801 207.984 82.273 228.824 117.758 240.844 c 113.91 241.594
 109.762 242.586 105.387 243.898 c 85.266 249.934 56.391 264.121 33.094 
297.449 c 31.445 299.805 32.398 303.078 35.051 304.18 c 49.125 309.613 63.793
 313.367 78.75 315.359 c 86.195 316.391 93.703 316.914 101.223 316.934 c
 122.637 316.934 141.723 312.34 157.473 303.375 c 161.82 316.711 170.652
 331.484 187.406 345.734 c 189.094 347.168 191.574 347.164 193.254 345.723
 c 211.305 330.23 219.598 314.242 222.848 300.191 c 239.613 310.84 260.438
 316.309 284.137 316.309 c 290.551 316.301 296.957 315.922 303.328 315.184
 c 319.074 313.414 334.543 309.723 349.395 304.199 c 352.078 303.121 353.059
 299.824 351.402 297.449 c 327.09 262.676 296.094 248.852 272.992 243.457
 c 276.898 242.203 280.742 240.793 284.531 239.195 c 313.875 226.828 337.25
 204.594 358.094 169.223 c 373.832 142.512 380.25 118.031 380.25 84.719 
c 380.25 82.555 378.707 80.695 376.578 80.297 c h
294.109 56.781 m 299.789 86.375 300.164 114.297 295.215 139.848 c 291.246
 160.836 283.281 180.863 271.758 198.844 c 254.285 225.953 233.727 239.777
 229.488 242.445 c 220.828 243.164 211.758 243.508 202.191 243.621 c 212.16
 229.664 230.129 202.641 236.93 168.887 c 242.219 142.641 239.996 117.246
 230.332 92.914 c 246.898 71.57 281.734 60.25 294.109 56.781 c h
191.168 48.035 m 224.191 84.852 236.621 124.891 228.109 167.109 c 221.004
 202.352 201.516 229.238 192.148 242.16 c 191.879 242.535 191.617 242.895
 191.367 243.242 c 190.52 242.074 l 181.07 229.027 161.41 201.887 154.316
 166.715 c 145.832 124.668 158.23 84.762 191.168 48.035 c h
153.762 277.367 m 153.566 283.055 154.02 288.746 155.113 294.332 c 114.934
 318.891 60.996 303.695 43.922 297.859 c 60.844 275.531 82.234 260.332 107.586
 252.637 c 125.922 247.074 140.242 247.543 142.961 247.695 c 148.363 248.816
 153.863 249.746 159.469 250.484 c 156.023 259.047 154.09 268.145 153.762
 277.367 c h
116.039 209.27 m 106.84 197.824 99.711 184.863 94.973 170.965 c 94.34 169.18
 92.645 167.984 90.75 167.988 c 90.738 167.988 l 87.637 167.992 85.469 171.062
 86.504 173.988 c 91.582 188.855 99.219 202.719 109.066 214.961 c 115.324
 222.645 122.531 229.504 130.516 235.379 c 92.391 224.633 60.84 203.75 40.086
 174.617 c 22.125 149.398 12.332 127.949 12.766 88.691 c 21.777 87.941 47.098
 88.105 76.203 108.094 c 76.195 119.84 77.086 131.57 78.863 143.184 c 79.25
 145.633 81.551 147.305 84.004 146.918 c 86.453 146.531 88.125 144.227 87.738
 141.777 c 83.82 116.887 84.395 88.359 89.469 56.754 c 101.43 59.969 134.039
 70.453 152.004 92.957 c 142.426 117.164 140.23 142.414 145.492 168.496 
c 152.305 202.258 169.848 228.66 180.348 243.352 c 174.199 243.051 168.152
 242.523 162.215 241.773 c 160.645 241.359 136.742 234.656 116.039 209.273
 c h
190.305 336.301 m 171.398 319.148 162.125 299.574 162.742 278.078 c 163.023
 268.918 165.09 259.902 168.824 251.535 c 176.414 252.246 184.16 252.637
 192.047 252.66 c 192.805 252.66 193.555 252.66 194.305 252.66 c 198.695
 252.66 202.988 252.617 207.188 252.535 c 211.711 260.723 214.5 269.754 
215.391 279.062 c 217.285 300.043 208.848 319.285 190.309 336.305 c h
340.52 297.797 m 322.621 303.688 265.035 319.16 224.387 290.41 c 224.742
 286.223 224.719 282.008 224.312 277.82 c 223.43 268.938 221.012 260.277
 217.168 252.219 c 227.742 251.832 238.281 250.82 248.734 249.188 c 266.352
 249.816 308.586 255.98 340.52 297.801 c h
350.344 164.645 m 330.531 198.266 308.508 219.316 281.039 230.895 c 270.258
 235.344 258.98 238.492 247.453 240.27 c 259.691 229.82 270.34 217.641 279.062
 204.121 c 291.293 185.164 299.754 164.031 303.992 141.875 c 306.094 130.992
 307.293 119.953 307.582 108.875 c 336.57 88.941 361.98 88.207 371.219 88.762
 c 370.711 118.293 364.551 140.535 350.34 164.648 c h
350.344 164.645 m f
40.793 136.523 m 40.355 135.668 39.934 134.809 39.516 133.945 c 38.445 
131.699 35.754 130.746 33.508 131.824 c 31.262 132.898 30.32 135.594 31.402
 137.836 c 31.844 138.758 32.297 139.68 32.762 140.598 c 35.516 145.82 43.375
 141.832 40.789 136.523 c h
40.793 136.523 m f
55.082 159.613 m 52.109 155.441 49.551 151.621 47.258 147.941 c 44.09 142.848
 36.449 147.602 39.617 152.695 c 42.012 156.539 44.672 160.508 47.754 164.836
 c 54.359 174.09 61.969 182.582 70.441 190.164 c 72.293 191.832 75.145 191.68
 76.809 189.824 c 78.473 187.969 78.309 185.117 76.449 183.461 c 68.469 
176.324 61.305 168.328 55.082 159.613 c h
55.082 159.613 m f
Q Q
showpage
%%Trailer
end
%%EOF
