%!PS-Adobe-3.0 EPSF-3.0
%%Creator: cairo 1.16.0 (https://cairographics.org)
%%CreationDate: Tue Feb  2 14:48:16 2021
%%Pages: 1
%%DocumentData: Clean7Bit
%%LanguageLevel: 2
%%BoundingBox: 3 3 381 381
%%EndComments
%%BeginProlog
50 dict begin
/q { gsave } bind def
/Q { grestore } bind def
/cm { 6 array astore concat } bind def
/w { setlinewidth } bind def
/J { setlinecap } bind def
/j { setlinejoin } bind def
/M { setmiterlimit } bind def
/d { setdash } bind def
/m { moveto } bind def
/l { lineto } bind def
/c { curveto } bind def
/h { closepath } bind def
/re { exch dup neg 3 1 roll 5 3 roll moveto 0 rlineto
      0 exch rlineto 0 rlineto closepath } bind def
/S { stroke } bind def
/f { fill } bind def
/f* { eofill } bind def
/n { newpath } bind def
/W { clip } bind def
/W* { eoclip } bind def
/BT { } bind def
/ET { } bind def
/BDC { mark 3 1 roll /BDC pdfmark } bind def
/EMC { mark /EMC pdfmark } bind def
/cairo_store_point { /cairo_point_y exch def /cairo_point_x exch def } def
/Tj { show currentpoint cairo_store_point } bind def
/TJ {
  {
    dup
    type /stringtype eq
    { show } { -0.001 mul 0 cairo_font_matrix dtransform rmoveto } ifelse
  } forall
  currentpoint cairo_store_point
} bind def
/cairo_selectfont { cairo_font_matrix aload pop pop pop 0 0 6 array astore
    cairo_font exch selectfont cairo_point_x cairo_point_y moveto } bind def
/Tf { pop /cairo_font exch def /cairo_font_matrix where
      { pop cairo_selectfont } if } bind def
/Td { matrix translate cairo_font_matrix matrix concatmatrix dup
      /cairo_font_matrix exch def dup 4 get exch 5 get cairo_store_point
      /cairo_font where { pop cairo_selectfont } if } bind def
/Tm { 2 copy 8 2 roll 6 array astore /cairo_font_matrix exch def
      cairo_store_point /cairo_font where { pop cairo_selectfont } if } bind def
/g { setgray } bind def
/rg { setrgbcolor } bind def
/d1 { setcachedevice } bind def
/cairo_data_source {
  CairoDataIndex CairoData length lt
    { CairoData CairoDataIndex get /CairoDataIndex CairoDataIndex 1 add def }
    { () } ifelse
} def
/cairo_flush_ascii85_file { cairo_ascii85_file status { cairo_ascii85_file flushfile } if } def
/cairo_image { image cairo_flush_ascii85_file } def
/cairo_imagemask { imagemask cairo_flush_ascii85_file } def
%%EndProlog
%%BeginSetup
%%EndSetup
%%Page: 1 1
%%BeginPageSetup
%%PageBoundingBox: 3 3 381 381
%%EndPageSetup
q 3 3 378 378 rectclip
1 0 0 -1 0 384 cm q
0.901961 0.392157 0.431373 rg
375.75 192 m 375.75 293.48 293.48 375.75 192 375.75 c 90.52 375.75 8.25
 293.48 8.25 192 c 8.25 90.52 90.52 8.25 192 8.25 c 293.48 8.25 375.75 90.52
 375.75 192 c h
375.75 192 m f
0.372549 0.803922 0.643137 rg
319.336 276.75 m 331.102 288.516 330.488 306.953 318.719 318.719 c 306.953
 330.488 288.531 331.086 276.766 319.32 c 293.621 308.07 308.086 293.602
 319.328 276.742 c h
319.336 276.75 m f
341.969 161.863 m 358.613 161.863 371.203 175.359 371.203 192 c 371.203
 208.641 358.613 222.137 341.969 222.137 c 345.93 202.238 345.93 181.762
 341.969 161.863 c h
341.969 161.863 m f
318.938 65.281 m 330.703 77.047 331.199 95.633 319.434 107.398 c 308.199
 90.516 293.73 76.023 276.871 64.754 c 276.871 64.746 l 288.629 52.98 307.172
 53.512 318.938 65.281 c h
318.938 65.281 m f
192 12.797 m 208.641 12.797 222.137 25.387 222.137 42.031 c 202.238 38.07
 181.762 38.07 161.863 42.031 c 161.863 25.387 175.359 12.797 192 12.797
 c h
192 12.797 m f
65.281 65.281 m 77.047 53.512 95.504 52.891 107.273 64.656 c 90.395 75.91
 75.914 90.391 64.656 107.266 c 52.891 95.496 53.512 77.047 65.281 65.281
 c h
65.281 65.281 m f
42.031 161.871 m 38.07 181.762 38.07 202.238 42.031 222.129 c 25.387 222.129
 12.797 208.641 12.797 192 c 12.797 175.359 25.387 161.871 42.031 161.871
 c h
42.031 161.871 m f
107.414 319.441 m 95.648 331.207 77.266 330.488 65.496 318.719 c 53.73 
306.953 52.949 288.586 64.719 276.816 c 75.996 293.703 90.508 308.191 107.414
 319.441 c h
107.414 319.441 m f
222.129 341.969 m 222.129 358.613 208.641 371.203 192 371.203 c 175.359
 371.203 161.871 358.613 161.871 341.969 c 181.762 345.93 202.238 345.93
 222.129 341.969 c h
222.129 341.969 m f
0.94902 0.831373 0.462745 rg
344.941 192 m 344.941 276.465 276.465 344.941 192 344.941 c 107.535 344.941
 39.059 276.465 39.059 192 c 39.059 107.535 107.535 39.059 192 39.059 c 
276.465 39.059 344.941 107.535 344.941 192 c h
344.941 192 m f
0.756863 0.658824 0.380392 rg
61.559 192 m 61.559 111.316 124.035 45.234 203.25 39.473 c 199.535 39.203
 195.785 39.066 192 39.059 c 107.535 39.059 39.059 107.535 39.059 192 c 
39.059 276.465 107.535 344.941 192 344.941 c 195.785 344.941 199.535 344.801
 203.25 344.527 c 124.039 338.766 61.559 272.684 61.559 192 c h
61.559 192 m f
1 0.662745 0.372549 rg
287.953 164.852 m 302.949 164.852 315.105 177.004 315.105 192 c 315.105
 206.996 302.949 219.148 287.953 219.148 c 287.414 219.148 286.875 219.137
 286.344 219.105 c 285.691 219.07 285.141 219.59 285.141 220.246 c 285.141
 279.531 l 285.141 283.543 281.891 286.793 277.883 286.793 c 220.281 286.793
 l 219.656 286.793 219.152 287.301 219.148 287.926 c 219.148 287.953 l 219.148
 302.949 206.996 315.105 192 315.105 c 177.004 315.105 164.852 302.949 164.852
 287.953 c 164.852 287.926 l 164.848 287.301 164.344 286.793 163.719 286.793
 c 101.617 286.793 l 97.609 286.793 94.359 283.543 94.359 279.531 c 94.359
 220.148 l 94.352 219.555 93.898 219.062 93.309 219.008 c 79.445 217.605
 68.895 205.934 68.895 192 c 68.895 178.066 79.445 166.395 93.309 164.992
 c 93.898 164.938 94.352 164.445 94.359 163.852 c 94.359 103.266 l 94.355
 101.34 95.121 99.496 96.484 98.133 c 97.844 96.77 99.691 96.008 101.617
 96.008 c 163.734 96.008 l 164.352 96.004 164.855 95.508 164.871 94.891 
c 165.465 80.336 177.434 68.844 192 68.844 c 206.566 68.844 218.535 80.336
 219.129 94.891 c 219.145 95.508 219.648 96.004 220.266 96.008 c 277.883
 96.008 l 279.809 96.008 281.656 96.77 283.016 98.133 c 284.379 99.496 285.145
 101.34 285.141 103.266 c 285.141 163.754 l 285.141 164.41 285.691 164.93
 286.344 164.895 c 286.875 164.863 287.414 164.852 287.953 164.852 c h
287.953 164.852 m f
0.901961 0.392157 0.431373 rg
202.949 268.074 m 202.949 282.668 l 202.949 285.762 201.719 288.734 199.531
 290.922 c 197.34 293.113 194.371 294.34 191.277 294.34 c 188.18 294.34 
185.211 293.113 183.023 290.922 c 180.832 288.734 179.602 285.762 179.602
 282.668 c 179.602 268.074 l h
202.949 268.074 m f
114.137 180.328 m 114.137 203.672 l 101.332 203.672 l 98.238 203.672 95.27
 202.441 93.082 200.25 c 90.891 198.062 89.664 195.094 89.664 192 c 89.664
 188.906 90.891 185.938 93.082 183.75 c 95.27 181.559 98.238 180.328 101.332
 180.328 c h
114.137 180.328 m f
202.949 115.914 m 202.949 115.926 l 179.602 115.926 l 179.602 101.332 l
 179.602 98.238 180.832 95.266 183.023 93.078 c 185.211 90.887 188.18 89.66
 191.277 89.66 c 194.371 89.66 197.34 90.887 199.531 93.078 c 201.719 95.266
 202.949 98.238 202.949 101.332 c h
202.949 115.914 m f
290.926 183.75 m 294.266 187.086 295.266 192.109 293.457 196.473 c 291.648
 200.832 287.391 203.676 282.668 203.672 c 269.863 203.672 l 269.863 180.328
 l 282.668 180.328 l 285.766 180.324 288.738 181.555 290.926 183.75 c h
290.926 183.75 m f
0.545098 0.701961 0.921569 rg
121.637 115.926 m 262.363 115.926 l 266.52 115.926 269.863 119.273 269.863
 123.426 c 269.863 260.574 l 269.863 264.727 266.52 268.074 262.363 268.074
 c 121.637 268.074 l 117.48 268.074 114.137 264.727 114.137 260.574 c 114.137
 123.426 l 114.137 119.273 117.48 115.926 121.637 115.926 c h
121.637 115.926 m f
1 0.662745 0.372549 rg
246.734 138.766 m 246.734 245.234 l 246.738 246.066 246.066 246.738 245.234
 246.734 c 138.766 246.734 l 137.934 246.738 137.262 246.066 137.266 245.234
 c 137.266 138.766 l 137.262 137.934 137.934 137.262 138.766 137.266 c 245.234
 137.266 l 246.066 137.262 246.738 137.934 246.734 138.766 c h
246.734 138.766 m f
0.545098 0.701961 0.921569 rg
192 148.957 m 209.41 148.957 225.105 159.445 231.766 175.527 c 238.43 191.613
 234.746 210.125 222.438 222.438 c 210.125 234.746 191.613 238.43 175.527
 231.766 c 159.445 225.105 148.957 209.41 148.957 192 c 148.961 168.23 168.23
 148.961 192 148.957 c h
192 148.957 m f
0.901961 0.392157 0.431373 rg
216.391 192 m 216.391 205.469 205.469 216.391 192 216.391 c 178.531 216.391
 167.609 205.469 167.609 192 c 167.609 178.531 178.531 167.609 192 167.609
 c 205.469 167.609 216.391 178.531 216.391 192 c h
216.391 192 m f
0.545098 0.701961 0.921569 rg
251.266 308.934 m 251.266 313.586 247.492 317.355 242.844 317.355 c 238.191
 317.355 234.422 313.586 234.422 308.934 c 234.422 304.281 238.191 300.512
 242.844 300.512 c 247.492 300.512 251.266 304.281 251.266 308.934 c h
251.266 308.934 m f
308.203 230.781 m 311.613 230.781 314.688 232.832 315.992 235.984 c 317.297
 239.133 316.578 242.758 314.168 245.168 c 311.758 247.578 308.133 248.297
 304.984 246.992 c 301.832 245.688 299.781 242.613 299.781 239.203 c 299.785
 234.555 303.555 230.785 308.203 230.781 c h
308.203 230.781 m f
308.203 136.363 m 311.613 136.363 314.688 138.414 315.992 141.562 c 317.297
 144.711 316.578 148.336 314.168 150.746 c 311.762 153.156 308.137 153.879
 304.988 152.578 c 301.84 151.273 299.785 148.203 299.781 144.797 c 299.781
 142.559 300.668 140.418 302.246 138.836 c 303.828 137.254 305.969 136.367
 308.203 136.363 c h
308.203 136.363 m f
251.266 75.066 m 251.266 79.719 247.492 83.488 242.844 83.488 c 238.191
 83.488 234.422 79.719 234.422 75.066 c 234.422 70.414 238.191 66.645 242.844
 66.645 c 247.492 66.645 251.266 70.414 251.266 75.066 c h
251.266 75.066 m f
156.848 75.066 m 156.848 79.719 153.078 83.488 148.426 83.488 c 143.773
 83.488 140.004 79.719 140.004 75.066 c 140.004 70.414 143.773 66.645 148.426
 66.645 c 153.078 66.645 156.848 70.414 156.848 75.066 c h
156.848 75.066 m f
75.797 136.363 m 79.203 136.363 82.277 138.414 83.582 141.562 c 84.887 
144.711 84.168 148.336 81.758 150.746 c 79.352 153.156 75.727 153.879 72.578
 152.578 c 69.43 151.273 67.375 148.203 67.371 144.797 c 67.371 142.559 
68.258 140.418 69.836 138.836 c 71.418 137.254 73.559 136.367 75.797 136.363
 c h
75.797 136.363 m f
75.797 230.781 m 79.203 230.781 82.277 232.832 83.582 235.984 c 84.887 
239.133 84.168 242.758 81.758 245.168 c 79.348 247.578 75.723 248.297 72.574
 246.992 c 69.422 245.688 67.371 242.613 67.371 239.203 c 67.375 234.555
 71.145 230.785 75.797 230.781 c h
75.797 230.781 m f
156.848 308.934 m 156.848 313.586 153.078 317.355 148.426 317.355 c 143.773
 317.355 140.004 313.586 140.004 308.934 c 140.004 304.281 143.773 300.512
 148.426 300.512 c 153.078 300.512 156.848 304.281 156.848 308.934 c h
156.848 308.934 m f
0.156863 0.258824 0.407843 rg
138.762 251.238 m 245.238 251.238 l 248.551 251.234 251.234 248.551 251.238
 245.238 c 251.238 138.762 l 251.234 135.449 248.551 132.766 245.238 132.762
 c 138.762 132.762 l 135.449 132.766 132.766 135.449 132.762 138.762 c 132.762
 245.238 l 132.766 248.551 135.449 251.234 138.762 251.238 c h
141.762 141.762 m 242.238 141.762 l 242.238 242.238 l 141.762 242.238 l
 h
141.762 141.762 m f
192 163.109 m 180.316 163.109 169.781 170.148 165.309 180.945 c 160.836
 191.738 163.309 204.168 171.57 212.43 c 179.832 220.691 192.262 223.164
 203.055 218.691 c 213.852 214.219 220.891 203.684 220.891 192 c 220.871
 176.051 207.949 163.129 192 163.109 c h
192 211.891 m 183.953 211.891 176.703 207.043 173.625 199.613 c 170.543
 192.18 172.246 183.625 177.934 177.934 c 183.625 172.246 192.18 170.543
 199.613 173.625 c 207.043 176.703 211.891 183.953 211.891 192 c 211.879
 202.98 202.98 211.879 192 211.891 c h
192 211.891 m f
191.273 85.156 m 182.344 85.168 175.109 92.402 175.102 101.332 c 175.102
 111.43 l 121.633 111.43 l 115.008 111.438 109.641 116.809 109.633 123.43
 c 109.633 175.828 l 101.328 175.828 l 92.398 175.828 85.156 183.066 85.156
 192 c 85.156 200.934 92.398 208.172 101.328 208.172 c 109.633 208.172 l
 109.633 260.57 l 109.641 267.191 115.008 272.562 121.633 272.57 c 175.102
 272.57 l 175.102 282.668 l 175.102 286.961 176.805 291.074 179.84 294.105
 c 182.871 297.141 186.984 298.844 191.273 298.844 c 195.562 298.844 199.676
 297.141 202.711 294.105 c 205.742 291.074 207.445 286.961 207.445 282.668
 c 207.445 272.57 l 262.367 272.57 l 268.992 272.562 274.359 267.191 274.367
 260.57 c 274.367 208.172 l 282.672 208.172 l 291.602 208.172 298.844 200.934
 298.844 192 c 298.844 183.066 291.602 175.828 282.672 175.828 c 274.367
 175.828 l 274.367 123.43 l 274.359 116.809 268.992 111.438 262.367 111.43
 c 207.449 111.43 l 207.449 101.332 l 207.441 92.402 200.203 85.164 191.273
 85.156 c h
109.633 199.172 m 101.328 199.172 l 97.367 199.172 94.156 195.961 94.156
 192 c 94.156 188.039 97.367 184.828 101.328 184.828 c 109.633 184.828 l
 h
274.367 184.828 m 282.672 184.828 l 286.633 184.828 289.844 188.039 289.844
 192 c 289.844 195.961 286.633 199.172 282.672 199.172 c 274.367 199.172
 l h
184.102 101.332 m 184.102 99.43 184.855 97.602 186.203 96.258 c 187.547
 94.914 189.371 94.156 191.273 94.156 c 193.176 94.156 195 94.914 196.348
 96.258 c 197.691 97.602 198.445 99.43 198.445 101.332 c 198.445 111.43 
l 184.102 111.43 l h
198.449 282.668 m 198.449 284.57 197.695 286.398 196.348 287.742 c 195.004
 289.086 193.18 289.844 191.277 289.844 c 189.375 289.844 187.551 289.086
 186.203 287.742 c 184.859 286.398 184.105 284.57 184.105 282.668 c 184.105
 272.57 l 198.449 272.57 l h
262.367 120.43 m 264.027 120.43 265.367 121.773 265.367 123.43 c 265.367
 260.57 l 265.367 262.227 264.027 263.57 262.367 263.57 c 121.633 263.57
 l 119.977 263.57 118.633 262.227 118.633 260.57 c 118.633 123.43 l 118.633
 121.773 119.977 120.43 121.633 120.43 c h
262.367 120.43 m f
75.797 157.715 m 81.023 157.715 85.734 154.566 87.734 149.738 c 89.734 
144.906 88.629 139.348 84.934 135.652 c 81.238 131.957 75.68 130.852 70.848
 132.852 c 66.02 134.852 62.871 139.562 62.871 144.793 c 62.879 151.926 
68.66 157.707 75.797 157.715 c h
75.797 140.867 m 79.289 140.867 81.039 145.094 78.57 147.566 c 76.098 150.039
 71.871 148.285 71.871 144.793 c 71.875 142.625 73.629 140.871 75.797 140.867
 c h
75.797 140.867 m f
148.426 87.992 m 153.652 87.992 158.363 84.844 160.363 80.012 c 162.367
 75.184 161.262 69.625 157.562 65.93 c 153.867 62.234 148.309 61.129 143.48
 63.129 c 138.652 65.129 135.504 69.84 135.504 75.066 c 135.512 82.203 141.293
 87.984 148.426 87.992 c h
148.426 71.145 m 151.922 71.145 153.672 75.371 151.199 77.844 c 148.73 
80.312 144.504 78.562 144.504 75.066 c 144.504 72.902 146.258 71.148 148.426
 71.145 c h
148.426 71.145 m f
242.84 87.992 m 248.066 87.992 252.781 84.844 254.781 80.016 c 256.781 
75.184 255.676 69.625 251.98 65.93 c 248.285 62.234 242.723 61.129 237.895
 63.129 c 233.066 65.129 229.918 69.84 229.918 75.066 c 229.926 82.203 235.707
 87.98 242.84 87.992 c h
242.84 71.145 m 246.336 71.145 248.086 75.371 245.617 77.844 c 243.145 
80.312 238.918 78.562 238.918 75.066 c 238.922 72.902 240.676 71.148 242.84
 71.145 c h
242.84 71.145 m f
308.203 157.715 m 313.434 157.715 318.145 154.566 320.145 149.738 c 322.145
 144.91 321.039 139.348 317.344 135.652 c 313.648 131.957 308.09 130.852
 303.262 132.852 c 298.43 134.852 295.281 139.562 295.281 144.793 c 295.289
 151.926 301.07 157.707 308.203 157.715 c h
308.203 140.867 m 311.699 140.867 313.453 145.094 310.98 147.566 c 308.508
 150.039 304.281 148.285 304.281 144.793 c 304.285 142.625 306.039 140.871
 308.203 140.867 c h
308.203 140.867 m f
308.203 226.285 m 302.977 226.285 298.266 229.434 296.266 234.262 c 294.266
 239.094 295.371 244.652 299.066 248.348 c 302.762 252.043 308.32 253.148
 313.152 251.148 c 317.98 249.148 321.129 244.438 321.129 239.207 c 321.121
 232.074 315.34 226.293 308.203 226.285 c h
308.203 243.133 m 304.711 243.133 302.961 238.906 305.43 236.434 c 307.902
 233.961 312.129 235.715 312.129 239.207 c 312.125 241.375 310.371 243.129
 308.203 243.133 c h
308.203 243.133 m f
75.797 226.285 m 70.566 226.285 65.855 229.434 63.855 234.262 c 61.855 
239.09 62.961 244.652 66.656 248.348 c 70.352 252.043 75.91 253.148 80.738
 251.148 c 85.57 249.148 88.719 244.438 88.719 239.207 c 88.711 232.074 
82.93 226.293 75.797 226.285 c h
75.797 243.133 m 72.301 243.133 70.547 238.906 73.02 236.434 c 75.492 233.961
 79.719 235.715 79.719 239.207 c 79.715 241.375 77.961 243.129 75.797 243.133
 c h
75.797 243.133 m f
148.426 296.008 m 143.199 296.008 138.484 299.156 136.484 303.988 c 134.484
 308.816 135.59 314.375 139.289 318.07 c 142.984 321.766 148.543 322.871
 153.371 320.871 c 158.199 318.871 161.348 314.16 161.348 308.934 c 161.34
 301.797 155.559 296.016 148.426 296.008 c h
148.426 312.855 m 144.93 312.855 143.18 308.629 145.652 306.156 c 148.121
 303.688 152.348 305.438 152.348 308.934 c 152.348 311.098 150.59 312.852
 148.426 312.855 c h
148.426 312.855 m f
242.84 296.008 m 237.613 296.008 232.898 299.156 230.898 303.988 c 228.898
 308.816 230.004 314.375 233.703 318.07 c 237.398 321.766 242.957 322.871
 247.785 320.871 c 252.613 318.871 255.762 314.16 255.762 308.934 c 255.754
 301.797 249.973 296.016 242.84 296.008 c h
242.84 312.855 m 239.344 312.855 237.594 308.629 240.066 306.156 c 242.535
 303.688 246.762 305.438 246.762 308.934 c 246.762 311.098 245.004 312.852
 242.84 312.855 c h
242.84 312.855 m f
192 144.457 m 172.77 144.457 155.438 156.043 148.078 173.805 c 140.719 
191.57 144.785 212.02 158.383 225.617 c 171.98 239.215 192.43 243.281 210.195
 235.922 c 227.957 228.562 239.543 211.23 239.543 192 c 239.512 165.754 
218.246 144.488 192 144.457 c h
192 230.543 m 176.41 230.543 162.359 221.152 156.391 206.75 c 150.426 192.348
 153.723 175.77 164.746 164.746 c 175.77 153.723 192.348 150.426 206.75 
156.391 c 221.152 162.359 230.543 176.41 230.543 192 c 230.52 213.277 213.277
 230.52 192 230.543 c h
192 230.543 m f
319.605 192 m 319.586 175.184 306.434 161.309 289.641 160.391 c 289.641
 103.266 l 289.641 96.77 284.375 91.504 277.879 91.504 c 223.328 91.504 
l 221.07 75.941 207.727 64.395 192 64.395 c 176.273 64.395 162.93 75.941
 160.672 91.504 c 101.617 91.504 l 95.121 91.504 89.855 96.77 89.855 103.266
 c 89.855 115.367 l 89.855 121.367 98.855 121.367 98.855 115.367 c 98.855
 103.266 l 98.855 101.742 100.094 100.504 101.617 100.504 c 163.73 100.504
 l 166.762 100.504 169.254 98.105 169.367 95.074 c 169.859 82.93 179.848
 73.34 192 73.34 c 204.156 73.34 214.141 82.93 214.633 95.074 c 214.746 
98.105 217.238 100.504 220.27 100.504 c 277.879 100.504 l 279.406 100.504
 280.645 101.738 280.641 103.266 c 280.641 163.754 l 280.641 165.305 281.281
 166.789 282.41 167.855 c 283.539 168.922 285.059 169.473 286.605 169.383
 c 287.77 169.316 288.934 169.336 290.094 169.449 c 302.152 170.566 311.199
 180.973 310.629 193.074 c 310.055 205.172 300.062 214.68 287.953 214.652
 c 287.504 214.652 287.055 214.637 286.609 214.609 c 285.059 214.52 283.539
 215.074 282.41 216.141 c 281.281 217.207 280.641 218.688 280.641 220.242
 c 280.641 279.527 l 280.641 281.055 279.406 282.289 277.879 282.289 c 220.281
 282.289 l 218.781 282.293 217.348 282.891 216.293 283.953 c 215.234 285.016
 214.645 286.453 214.648 287.949 c 214.633 293.957 212.23 299.711 207.969
 303.949 c 203.707 308.184 197.941 310.555 191.934 310.539 c 185.926 310.523
 180.168 308.117 175.934 303.859 c 171.695 299.598 169.328 293.828 169.344
 287.82 c 169.312 284.742 166.793 282.266 163.711 282.289 c 101.613 282.289
 l 100.086 282.289 98.852 281.055 98.852 279.527 c 98.852 220.148 l 98.852
 217.242 96.645 214.809 93.75 214.531 c 82.191 213.355 73.398 203.617 73.398
 192 c 73.398 180.383 82.191 170.645 93.75 169.469 c 96.645 169.191 98.852
 166.758 98.852 163.852 c 98.852 145.367 l 98.852 139.367 89.852 139.367
 89.852 145.367 c 89.852 160.957 l 75.047 163.91 64.387 176.906 64.387 192
 c 64.387 207.094 75.047 220.09 89.852 223.043 c 89.852 279.531 l 89.852
 286.027 95.117 291.293 101.613 291.293 c 160.516 291.293 l 162.223 307.391
 175.805 319.605 191.992 319.605 c 208.184 319.605 221.762 307.391 223.469
 291.293 c 277.875 291.293 l 284.371 291.293 289.637 286.027 289.637 279.531
 c 289.637 223.609 l 306.43 222.695 319.586 208.82 319.605 192 c h
319.605 192 m f
192 3.75 m 115.859 3.75 47.219 49.617 18.078 119.961 c -11.059 190.305 
5.047 271.273 58.887 325.113 c 94.168 360.523 142.086 380.449 192.074 380.496
 c 242.059 380.543 290.012 360.703 325.359 325.359 c 360.703 290.012 380.543
 242.059 380.496 192.07 c 380.449 142.086 360.523 94.168 325.113 58.887 
c 289.887 23.469 241.953 3.613 192 3.75 c h
323.512 86.414 m 323.594 91.215 322.258 95.934 319.66 99.973 c 309.82 86.359
 297.879 74.395 284.285 64.527 c 288.32 61.938 293.031 60.602 297.824 60.688
 c 311.832 61.141 323.078 72.402 323.512 86.414 c h
340.441 192 m 340.441 273.852 273.852 340.438 192 340.438 c 110.148 340.438
 43.559 273.852 43.559 192 c 43.559 110.148 110.148 43.562 192 43.562 c 
273.852 43.562 340.441 110.148 340.441 192 c h
304.5 52.434 m 302.355 51.977 300.176 51.727 297.984 51.684 c 290.129 51.539
 282.477 54.176 276.383 59.137 c 261.062 49.363 244.16 42.336 226.434 38.359
 c 225.375 28.25 219.738 19.184 211.145 13.762 c 245.352 17.332 277.785 
30.77 304.5 52.434 c h
192 17.293 m 204.418 17.293 214.504 25.406 217.02 36.555 c 200.445 33.895
 183.555 33.895 166.98 36.555 c 169.496 25.406 179.582 17.293 192 17.293
 c h
172.855 13.77 m 164.258 19.191 158.621 28.258 157.566 38.367 c 139.891 
42.332 123.035 49.332 107.754 59.059 c 101.676 54.098 94.027 51.469 86.184
 51.645 c 83.926 51.691 81.68 51.961 79.48 52.453 c 106.195 30.781 138.637
 17.34 172.855 13.766 c h
68.465 68.465 m 73.191 63.633 79.613 60.832 86.367 60.645 c 91.137 60.543
 95.824 61.863 99.844 64.434 c 86.242 74.289 74.289 86.238 64.434 99.84 
c 61.859 95.824 60.539 91.133 60.645 86.367 c 60.832 79.609 63.637 73.191
 68.465 68.465 c h
52.453 79.477 m 51.965 81.68 51.695 83.926 51.648 86.18 c 51.473 94.023
 54.098 101.672 59.055 107.75 c 49.328 123.035 42.328 139.887 38.363 157.566
 c 28.254 158.621 19.188 164.258 13.762 172.855 c 17.336 138.637 30.781 
106.195 52.453 79.477 c h
36.555 217.016 m 25.406 214.5 17.293 204.414 17.293 192 c 17.293 179.586
 25.406 169.5 36.555 166.98 c 33.895 183.551 33.895 200.441 36.555 217.016
 c h
52.688 304.816 m 30.879 278.043 17.352 245.488 13.766 211.141 c 19.188 
219.734 28.254 225.367 38.363 226.426 c 42.332 244.137 49.352 261.023 59.109
 276.332 c 52.656 284.312 50.285 294.84 52.688 304.816 c h
64.5 284.254 m 74.375 297.859 86.348 309.812 99.969 319.66 c 90.336 325.75
 77.473 324.328 68.68 315.535 c 59.879 306.73 58.434 293.871 64.5 284.254
 c h
79.445 331.523 m 81.957 332.113 84.527 332.41 87.105 332.414 c 94.68 332.422
 102.023 329.816 107.902 325.039 c 123.145 334.719 139.945 341.688 157.562
 345.637 c 158.621 355.746 164.254 364.812 172.852 370.234 c 138.625 366.66
 106.172 353.211 79.449 331.523 c h
192 366.707 m 179.582 366.707 169.5 358.594 166.98 347.445 c 183.551 350.102
 200.441 350.102 217.012 347.445 c 214.5 358.594 204.414 366.707 192 366.707
 c h
211.141 370.23 m 219.738 364.809 225.371 355.742 226.426 345.633 c 244.117
 341.668 260.984 334.66 276.277 324.922 c 282.168 329.73 289.543 332.355
 297.152 332.348 c 297.375 332.348 297.602 332.348 297.828 332.34 c 300.082
 332.293 302.324 332.023 304.527 331.535 c 277.809 353.215 245.363 366.66
 211.141 370.234 c h
315.535 315.531 m 310.812 320.359 304.398 323.16 297.648 323.344 c 292.883
 323.441 288.195 322.121 284.184 319.543 c 297.77 309.695 309.707 297.758
 319.555 284.176 c 325.703 293.852 324.328 306.746 315.535 315.535 c h
331.559 304.5 m 333.805 294.57 331.363 284.156 324.938 276.254 c 334.668
 260.969 341.672 244.113 345.637 226.434 c 355.746 225.375 364.812 219.738
 370.238 211.141 c 366.664 245.355 353.227 277.789 331.559 304.504 c h
347.445 166.977 m 358.594 169.492 366.707 179.578 366.707 191.996 c 366.707
 204.414 358.594 214.5 347.445 217.02 c 350.105 200.441 350.105 183.551 
347.445 166.977 c h
370.234 172.852 m 364.812 164.254 355.746 158.617 345.633 157.562 c 341.684
 139.938 334.711 123.133 325.031 107.887 c 330 101.793 332.652 94.129 332.508
 86.262 c 332.469 84.078 332.227 81.902 331.773 79.762 c 353.316 106.426
 366.672 138.762 370.234 172.855 c h
370.234 172.852 m f
Q Q
showpage
%%Trailer
end
%%EOF
