%!PS-Adobe-3.0 EPSF-3.0
%%Creator: cairo 1.16.0 (https://cairographics.org)
%%CreationDate: Tue Feb  2 14:48:18 2021
%%Pages: 1
%%DocumentData: Clean7Bit
%%LanguageLevel: 2
%%BoundingBox: 3 65 381 319
%%EndComments
%%BeginProlog
50 dict begin
/q { gsave } bind def
/Q { grestore } bind def
/cm { 6 array astore concat } bind def
/w { setlinewidth } bind def
/J { setlinecap } bind def
/j { setlinejoin } bind def
/M { setmiterlimit } bind def
/d { setdash } bind def
/m { moveto } bind def
/l { lineto } bind def
/c { curveto } bind def
/h { closepath } bind def
/re { exch dup neg 3 1 roll 5 3 roll moveto 0 rlineto
      0 exch rlineto 0 rlineto closepath } bind def
/S { stroke } bind def
/f { fill } bind def
/f* { eofill } bind def
/n { newpath } bind def
/W { clip } bind def
/W* { eoclip } bind def
/BT { } bind def
/ET { } bind def
/BDC { mark 3 1 roll /BDC pdfmark } bind def
/EMC { mark /EMC pdfmark } bind def
/cairo_store_point { /cairo_point_y exch def /cairo_point_x exch def } def
/Tj { show currentpoint cairo_store_point } bind def
/TJ {
  {
    dup
    type /stringtype eq
    { show } { -0.001 mul 0 cairo_font_matrix dtransform rmoveto } ifelse
  } forall
  currentpoint cairo_store_point
} bind def
/cairo_selectfont { cairo_font_matrix aload pop pop pop 0 0 6 array astore
    cairo_font exch selectfont cairo_point_x cairo_point_y moveto } bind def
/Tf { pop /cairo_font exch def /cairo_font_matrix where
      { pop cairo_selectfont } if } bind def
/Td { matrix translate cairo_font_matrix matrix concatmatrix dup
      /cairo_font_matrix exch def dup 4 get exch 5 get cairo_store_point
      /cairo_font where { pop cairo_selectfont } if } bind def
/Tm { 2 copy 8 2 roll 6 array astore /cairo_font_matrix exch def
      cairo_store_point /cairo_font where { pop cairo_selectfont } if } bind def
/g { setgray } bind def
/rg { setrgbcolor } bind def
/d1 { setcachedevice } bind def
/cairo_data_source {
  CairoDataIndex CairoData length lt
    { CairoData CairoDataIndex get /CairoDataIndex CairoDataIndex 1 add def }
    { () } ifelse
} def
/cairo_flush_ascii85_file { cairo_ascii85_file status { cairo_ascii85_file flushfile } if } def
/cairo_image { image cairo_flush_ascii85_file } def
/cairo_imagemask { imagemask cairo_flush_ascii85_file } def
%%EndProlog
%%BeginSetup
%%EndSetup
%%Page: 1 1
%%BeginPageSetup
%%PageBoundingBox: 3 65 381 319
%%EndPageSetup
q 3 65 378 254 rectclip
1 0 0 -1 0 384 cm q
0.780392 0.603922 0.513726 rg
340.043 249.246 m 258.758 249.246 l 257.816 249.25 257.059 250.012 257.055
 250.949 c 257.055 267.734 l 257.055 268.676 257.816 269.441 258.758 269.445
 c 340.043 269.445 l 340.984 269.441 341.746 268.676 341.746 267.734 c 341.746
 250.949 l 341.742 250.012 340.98 249.25 340.043 249.246 c h
340.043 249.246 m f
119.07 249.246 m 37.785 249.246 l 36.844 249.25 36.086 250.012 36.082 250.949
 c 36.082 267.734 l 36.082 268.676 36.844 269.441 37.785 269.445 c 119.07
 269.445 l 120.012 269.441 120.773 268.676 120.773 267.734 c 120.773 250.949
 l 120.77 250.012 120.008 249.25 119.07 249.246 c h
119.07 249.246 m f
229.551 249.246 m 148.273 249.246 l 147.336 249.246 146.57 250.008 146.574
 250.949 c 146.574 267.734 l 146.566 268.68 147.332 269.445 148.273 269.445
 c 229.551 269.445 l 230.496 269.445 231.258 268.68 231.254 267.734 c 231.254
 250.949 l 231.254 250.008 230.492 249.246 229.551 249.246 c h
229.551 249.246 m f
258.758 113.754 m 340.043 113.754 l 340.984 113.754 341.746 114.512 341.746
 115.453 c 341.746 132.238 l 341.746 133.184 340.984 133.941 340.043 133.941
 c 258.758 133.941 l 257.812 133.941 257.055 133.184 257.055 132.238 c 257.055
 115.453 l 257.055 114.512 257.812 113.754 258.758 113.754 c h
258.758 113.754 m f
229.551 113.754 m 148.273 113.754 l 147.336 113.75 146.57 114.516 146.574
 115.453 c 146.574 132.238 l 146.57 133.184 147.332 133.945 148.273 133.941
 c 229.551 133.941 l 230.496 133.945 231.258 133.184 231.254 132.238 c 231.254
 115.453 l 231.254 114.516 230.492 113.75 229.551 113.754 c h
229.551 113.754 m f
37.785 113.754 m 119.07 113.754 l 120.012 113.754 120.773 114.512 120.773
 115.453 c 120.773 132.238 l 120.773 133.184 120.012 133.941 119.07 133.941
 c 37.785 133.941 l 36.844 133.941 36.082 133.184 36.082 132.238 c 36.082
 115.453 l 36.082 114.512 36.844 113.754 37.785 113.754 c h
37.785 113.754 m f
0.901961 0.392157 0.431373 rg
46.281 149.961 64.285 83.477 re f
156.773 149.961 64.281 83.477 re f
267.262 149.961 64.285 83.477 re f
0.427451 0.454902 0.52549 rg
12.75 288 m 371.25 288 l 373.742 288 375.75 290.008 375.75 292.5 c 375.75
 309 l 375.75 311.492 373.742 313.5 371.25 313.5 c 12.75 313.5 l 10.258 
313.5 8.25 311.492 8.25 309 c 8.25 292.5 l 8.25 290.008 10.258 288 12.75
 288 c h
12.75 288 m f
12.75 70.5 m 371.25 70.5 l 373.742 70.5 375.75 72.508 375.75 75 c 375.75
 91.5 l 375.75 93.992 373.742 96 371.25 96 c 12.75 96 l 10.258 96 8.25 93.992
 8.25 91.5 c 8.25 75 l 8.25 72.508 10.258 70.5 12.75 70.5 c h
12.75 70.5 m f
0.545098 0.701961 0.921569 rg
267.262 133.941 64.285 16.02 re f
0.498039 0.239216 0.196078 rg
288.352 95.746 22.098 18.008 re f
288.352 269.445 22.098 18.809 re f
0.545098 0.701961 0.921569 rg
267.262 233.438 64.285 15.809 re f
0.498039 0.239216 0.196078 rg
89.477 287.469 m 89.477 288.254 l 67.379 288.254 l 67.379 269.445 l 89.477
 269.445 l h
89.477 287.469 m f
0.545098 0.701961 0.921569 rg
46.281 233.438 64.285 15.809 re f
156.773 233.438 64.281 15.809 re f
0.498039 0.239216 0.196078 rg
177.863 269.445 22.102 18.809 re f
0.545098 0.701961 0.921569 rg
156.773 133.941 64.281 16.02 re f
0.498039 0.239216 0.196078 rg
177.863 95.746 22.102 18.008 re f
67.379 95.746 22.098 18.008 re f
0.545098 0.701961 0.921569 rg
46.281 133.941 64.285 16.02 re f
0.607843 0.47451 0.415686 rg
36 267.734 m 36.059 268.656 36.867 269.344 37.785 269.25 c 61.035 269.25
 l 60.117 269.344 59.309 268.656 59.25 267.734 c 59.25 250.949 l 59.273 
249.945 60.035 249.109 61.035 249 c 37.785 249 l 36.785 249.109 36.023 249.945
 36 250.949 c h
36 267.734 m f
59.25 132.238 m 59.25 115.453 l 59.25 114.516 60.098 114 61.035 114 c 37.785
 114 l 36.848 114 36 114.516 36 115.453 c 36 132.238 l 36.016 133.258 36.773
 134.113 37.785 134.25 c 61.035 134.25 l 60.023 134.113 59.266 133.258 59.25
 132.238 c h
59.25 132.238 m f
0.737255 0.341176 0.392157 rg
46.5 150 23.25 83.25 re f
0.321569 0.341176 0.388235 rg
31.5 309 m 31.5 292.5 l 31.5 290.016 33.516 288 36 288 c 12.75 288 l 10.266
 288 8.25 290.016 8.25 292.5 c 8.25 309 l 8.25 311.484 10.266 313.5 12.75
 313.5 c 36 313.5 l 33.516 313.5 31.5 311.484 31.5 309 c h
31.5 309 m f
31.5 91.5 m 31.5 75 l 31.5 72.516 33.516 70.5 36 70.5 c 12.75 70.5 l 10.266
 70.5 8.25 72.516 8.25 75 c 8.25 91.5 l 8.25 93.984 10.266 96 12.75 96 c
 36 96 l 33.516 96 31.5 93.984 31.5 91.5 c h
31.5 91.5 m f
0.439216 0.568627 0.729412 rg
46.5 233.25 23.25 15.75 re f
46.5 134.25 23.25 15.75 re f
0.156863 0.258824 0.407843 rg
60 170.035 m 62.484 170.035 64.5 168.023 64.5 165.535 c 64.5 163.512 l 
64.5 157.512 55.5 157.512 55.5 163.512 c 55.5 165.535 l 55.5 168.023 57.516
 170.035 60 170.035 c h
60 170.035 m f
55.5 214.34 m 55.5 220.34 64.5 220.34 64.5 214.34 c 64.5 178.559 l 64.5
 172.559 55.5 172.559 55.5 178.559 c h
55.5 214.34 m f
371.25 65.859 m 12.75 65.859 l 7.781 65.863 3.754 69.891 3.75 74.859 c 
3.75 91.246 l 3.754 96.215 7.781 100.238 12.75 100.246 c 62.879 100.246 
l 62.879 109.25 l 37.785 109.25 l 34.359 109.254 31.586 112.031 31.582 115.457
 c 31.582 132.242 l 31.586 135.668 34.363 138.441 37.785 138.445 c 41.785
 138.445 l 41.785 160.77 l 41.785 166.77 50.785 166.77 50.785 160.77 c 50.785
 154.465 l 106.066 154.465 l 106.066 228.938 l 50.785 228.938 l 50.785 190.77
 l 50.785 184.77 41.785 184.77 41.785 190.77 c 41.785 244.746 l 37.785 244.746
 l 34.359 244.75 31.586 247.527 31.582 250.953 c 31.582 267.738 l 31.586
 271.164 34.359 273.938 37.785 273.941 c 62.879 273.941 l 62.879 283.754
 l 12.75 283.754 l 7.781 283.762 3.754 287.785 3.75 292.754 c 3.75 309.141
 l 3.754 314.109 7.781 318.137 12.75 318.141 c 371.25 318.141 l 376.219 
318.137 380.246 314.109 380.25 309.141 c 380.25 292.754 l 380.246 287.785
 376.219 283.762 371.25 283.754 c 314.949 283.754 l 314.949 273.941 l 340.039
 273.941 l 343.465 273.938 346.242 271.164 346.246 267.738 c 346.246 250.949
 l 346.242 247.523 343.465 244.75 340.039 244.746 c 336.043 244.746 l 336.043
 138.449 l 340.039 138.449 l 343.465 138.445 346.242 135.672 346.246 132.246
 c 346.246 115.457 l 346.242 112.031 343.465 109.254 340.039 109.25 c 314.949
 109.25 l 314.949 100.246 l 371.25 100.246 l 376.219 100.238 380.246 96.215
 380.25 91.246 c 380.25 74.859 l 380.246 69.891 376.219 65.863 371.25 65.859
 c h
40.582 129.449 m 40.582 118.25 l 116.27 118.25 l 116.27 129.449 l h
71.879 109.254 m 71.879 100.246 l 84.977 100.246 l 84.977 109.25 l h
226.758 118.254 m 226.758 129.449 l 151.07 129.449 l 151.07 118.25 l h
182.363 109.254 m 182.363 100.246 l 195.461 100.246 l 195.461 109.25 l 
h
258.762 138.449 m 262.758 138.449 l 262.758 244.746 l 258.762 244.746 l
 255.336 244.75 252.559 247.527 252.555 250.953 c 252.555 267.738 l 252.559
 271.164 255.336 273.938 258.762 273.941 c 283.852 273.941 l 283.852 283.754
 l 204.461 283.754 l 204.461 273.941 l 229.555 273.941 l 232.98 273.938 
235.754 271.164 235.758 267.738 c 235.758 250.949 l 235.754 247.523 232.98
 244.75 229.555 244.746 c 225.555 244.746 l 225.555 138.449 l 229.555 138.449
 l 232.977 138.445 235.754 135.672 235.758 132.246 c 235.758 115.457 l 235.754
 112.031 232.98 109.254 229.555 109.25 c 204.461 109.25 l 204.461 100.246
 l 283.852 100.246 l 283.852 109.25 l 258.762 109.25 l 255.336 109.254 252.559
 112.031 252.555 115.457 c 252.555 132.242 l 252.559 135.668 255.336 138.445
 258.762 138.449 c h
151.07 264.941 m 151.07 253.746 l 226.758 253.746 l 226.758 264.941 l h
195.461 273.941 m 195.461 283.754 l 182.363 283.754 l 182.363 273.941 l
 h
216.555 154.469 m 216.555 228.941 l 161.273 228.941 l 161.273 154.469 l
 h
161.273 145.469 m 161.273 138.449 l 216.555 138.449 l 216.555 145.469 l
 h
216.555 237.941 m 216.555 244.75 l 161.273 244.75 l 161.273 237.941 l h
173.363 109.25 m 148.273 109.25 l 144.852 109.254 142.074 112.031 142.07
 115.457 c 142.07 132.242 l 142.074 135.668 144.848 138.445 148.273 138.449
 c 152.273 138.449 l 152.273 244.746 l 148.273 244.746 l 144.852 244.75 
142.074 247.527 142.07 250.953 c 142.07 267.738 l 142.074 271.164 144.852
 273.938 148.273 273.941 c 173.367 273.941 l 173.367 283.754 l 93.977 283.754
 l 93.977 273.941 l 119.066 273.941 l 122.492 273.938 125.266 271.164 125.27
 267.738 c 125.27 250.949 l 125.266 247.523 122.492 244.75 119.066 244.746
 c 115.066 244.746 l 115.066 138.449 l 119.066 138.449 l 122.492 138.445
 125.266 135.672 125.27 132.246 c 125.27 115.457 l 125.266 112.031 122.492
 109.254 119.066 109.25 c 93.977 109.25 l 93.977 100.246 l 173.363 100.246
 l h
50.785 145.465 m 50.785 138.449 l 106.066 138.449 l 106.066 145.469 l h
50.785 237.938 m 106.066 237.938 l 106.066 244.746 l 50.785 244.746 l h
40.586 264.938 m 40.586 253.746 l 116.27 253.746 l 116.27 264.941 l h
84.98 273.938 m 84.98 283.754 l 71.879 283.754 l 71.879 273.941 l h
371.25 292.754 m 371.258 309.141 l 12.75 309.141 l 12.75 292.754 l h
292.852 283.754 m 292.852 273.941 l 305.949 273.941 l 305.949 283.754 l
 h
337.246 253.746 m 337.246 264.941 l 261.555 264.941 l 261.555 253.746 l
 h
327.047 154.465 m 327.047 228.938 l 271.758 228.938 l 271.758 154.465 l
 h
271.762 145.465 m 271.762 138.449 l 327.047 138.449 l 327.047 145.469 l
 h
327.047 237.938 m 327.047 244.746 l 271.758 244.746 l 271.758 237.938 l
 h
337.246 118.25 m 337.246 129.449 l 261.555 129.449 l 261.555 118.25 l h
292.852 109.25 m 292.852 100.246 l 305.949 100.246 l 305.949 109.25 l h
12.75 91.246 m 12.75 74.859 l 371.25 74.859 l 371.258 91.246 l h
12.75 91.246 m f
Q Q
showpage
%%Trailer
end
%%EOF
