%!PS-Adobe-3.0 EPSF-3.0
%%Creator: cairo 1.16.0 (https://cairographics.org)
%%CreationDate: Tue Feb  2 14:48:18 2021
%%Pages: 1
%%DocumentData: Clean7Bit
%%LanguageLevel: 2
%%BoundingBox: 107 3 277 381
%%EndComments
%%BeginProlog
50 dict begin
/q { gsave } bind def
/Q { grestore } bind def
/cm { 6 array astore concat } bind def
/w { setlinewidth } bind def
/J { setlinecap } bind def
/j { setlinejoin } bind def
/M { setmiterlimit } bind def
/d { setdash } bind def
/m { moveto } bind def
/l { lineto } bind def
/c { curveto } bind def
/h { closepath } bind def
/re { exch dup neg 3 1 roll 5 3 roll moveto 0 rlineto
      0 exch rlineto 0 rlineto closepath } bind def
/S { stroke } bind def
/f { fill } bind def
/f* { eofill } bind def
/n { newpath } bind def
/W { clip } bind def
/W* { eoclip } bind def
/BT { } bind def
/ET { } bind def
/BDC { mark 3 1 roll /BDC pdfmark } bind def
/EMC { mark /EMC pdfmark } bind def
/cairo_store_point { /cairo_point_y exch def /cairo_point_x exch def } def
/Tj { show currentpoint cairo_store_point } bind def
/TJ {
  {
    dup
    type /stringtype eq
    { show } { -0.001 mul 0 cairo_font_matrix dtransform rmoveto } ifelse
  } forall
  currentpoint cairo_store_point
} bind def
/cairo_selectfont { cairo_font_matrix aload pop pop pop 0 0 6 array astore
    cairo_font exch selectfont cairo_point_x cairo_point_y moveto } bind def
/Tf { pop /cairo_font exch def /cairo_font_matrix where
      { pop cairo_selectfont } if } bind def
/Td { matrix translate cairo_font_matrix matrix concatmatrix dup
      /cairo_font_matrix exch def dup 4 get exch 5 get cairo_store_point
      /cairo_font where { pop cairo_selectfont } if } bind def
/Tm { 2 copy 8 2 roll 6 array astore /cairo_font_matrix exch def
      cairo_store_point /cairo_font where { pop cairo_selectfont } if } bind def
/g { setgray } bind def
/rg { setrgbcolor } bind def
/d1 { setcachedevice } bind def
/cairo_data_source {
  CairoDataIndex CairoData length lt
    { CairoData CairoDataIndex get /CairoDataIndex CairoDataIndex 1 add def }
    { () } ifelse
} def
/cairo_flush_ascii85_file { cairo_ascii85_file status { cairo_ascii85_file flushfile } if } def
/cairo_image { image cairo_flush_ascii85_file } def
/cairo_imagemask { imagemask cairo_flush_ascii85_file } def
%%EndProlog
%%BeginSetup
%%EndSetup
%%Page: 1 1
%%BeginPageSetup
%%PageBoundingBox: 107 3 277 381
%%EndPageSetup
q 107 3 170 378 rectclip
1 0 0 -1 0 384 cm q
0.427451 0.454902 0.52549 rg
126.391 329.102 m 132.133 329.078 137.324 332.523 139.539 337.824 c 141.75
 343.125 140.551 349.234 136.496 353.305 c 132.441 357.375 126.332 358.598
 121.023 356.406 c 115.715 354.211 112.254 349.035 112.254 343.289 c 112.242
 335.469 118.57 329.117 126.391 329.102 c h
126.391 329.102 m f
0.854902 0.666667 0.47451 rg
267.855 204.699 m 129.891 204.699 l 127.734 204.699 125.988 206.449 125.992
 208.605 c 125.992 224.16 l 125.988 226.316 127.734 228.066 129.891 228.066
 c 267.855 228.066 l 270.008 228.062 271.75 226.312 271.746 224.16 c 271.746
 208.605 l 271.75 206.449 270.008 204.703 267.855 204.699 c h
267.855 204.699 m f
0.952941 0.807843 0.490196 rg
135.344 95.559 19.32 82.484 re f
1 0.878431 0.490196 rg
176.332 178.043 m 154.664 178.043 l 154.664 95.559 l 198.008 95.559 l 198.008
 178.043 l h
176.332 178.043 m f
241.359 95.559 21.035 82.484 re f
0.952941 0.807843 0.490196 rg
219.684 95.559 m 241.359 95.559 l 241.359 178.043 l 198.008 178.043 l 198.008
 95.559 l h
219.684 95.559 m f
0.466667 0.286275 0.262745 rg
206.699 16.109 m 206.699 20.449 203.195 23.969 198.871 23.969 c 194.547
 23.969 191.039 20.449 191.039 16.109 c 191.039 11.77 194.547 8.25 198.871
 8.25 c 203.195 8.25 206.699 11.77 206.699 16.109 c h
206.699 16.109 m f
0.854902 0.666667 0.47451 rg
267.855 47.211 m 129.891 47.211 l 127.734 47.219 125.988 48.969 125.992
 51.129 c 125.992 66.676 l 125.988 68.832 127.734 70.582 129.891 70.582 
c 267.855 70.582 l 270.008 70.578 271.75 68.828 271.746 66.676 c 271.746
 51.129 l 271.75 48.973 270.012 47.223 267.855 47.211 c h
267.855 47.211 m f
0.780392 0.603922 0.513726 rg
217.23 23.969 m 180.512 23.969 l 170.84 23.984 163.016 31.836 163.027 41.504
 c 163.027 47.211 l 234.711 47.211 l 234.711 41.504 l 234.719 36.859 232.883
 32.406 229.602 29.117 c 226.324 25.828 221.875 23.977 217.23 23.969 c h
217.23 23.969 m f
173.281 228.066 m 173.281 247.844 l 173.273 250.133 175.125 251.988 177.414
 251.992 c 220.328 251.992 l 222.617 251.992 224.473 250.133 224.469 247.844
 c 224.469 228.066 l h
173.281 228.066 m f
0.466667 0.286275 0.262745 rg
210.516 251.992 m 210.516 364.066 l 210.516 370.496 205.305 375.707 198.875
 375.707 c 192.441 375.707 187.23 370.496 187.23 364.066 c 187.23 251.992
 l h
210.516 251.992 m f
0.901961 0.392157 0.431373 rg
135 177.75 127.5 27 re f
135 70.5 127.5 24.75 re f
0.686275 0.529412 0.384314 rg
148.5 224.16 m 148.5 208.605 l 148.5 206.461 150.25 204.727 152.391 204.75
 c 129.891 204.75 l 127.75 204.727 126 206.461 126 208.605 c 126 224.16 
l 126 226.301 127.75 228.027 129.891 228 c 152.391 228 l 150.25 228.027 
148.5 226.301 148.5 224.16 c h
148.5 224.16 m f
148.5 66.676 m 148.5 51.129 l 148.496 48.98 150.242 47.238 152.391 47.25
 c 129.891 47.25 l 127.742 47.238 125.996 48.98 126 51.129 c 126 66.676 
l 126 68.812 127.754 70.539 129.891 70.5 c 152.391 70.5 l 150.254 70.539
 148.5 68.812 148.5 66.676 c h
148.5 66.676 m f
0.639216 0.498039 0.435294 rg
185.25 41.504 m 185.25 31.824 193.359 24 203.012 24 c 180.512 24 l 170.859
 24 162.75 31.824 162.75 41.504 c 162.75 47.25 l 185.25 47.25 l h
185.25 41.504 m f
195.75 247.844 m 195.75 228 l 173.25 228 l 173.25 247.844 l 173.258 250.141
 175.117 251.996 177.414 252 c 199.914 252 l 197.617 251.996 195.758 250.141
 195.75 247.844 c h
195.75 247.844 m f
0.756863 0.341176 0.392157 rg
135 177.75 22.5 27 re f
135 70.5 22.5 24.75 re f
0.156863 0.258824 0.407843 rg
229.715 268.328 m 229.715 262.328 220.715 262.328 220.715 268.328 c 220.715
 270.352 l 220.715 276.352 229.715 276.352 229.715 270.352 c h
229.715 268.328 m f
225.215 280.371 m 222.73 280.371 220.715 282.387 220.715 284.871 c 220.715
 349.902 l 220.715 355.902 229.715 355.902 229.715 349.902 c 229.715 284.871
 l 229.715 282.387 227.699 280.371 225.215 280.371 c h
225.215 280.371 m f
126.391 361.977 m 135.895 361.953 143.867 354.797 144.918 345.352 c 145.969
 335.906 139.762 327.176 130.496 325.062 c 130.496 232.566 l 168.777 232.566
 l 168.777 247.844 l 168.777 252.617 172.641 256.492 177.414 256.5 c 182.727
 256.5 l 182.727 364.066 l 182.699 368.367 184.387 372.5 187.418 375.551
 c 190.449 378.605 194.57 380.32 198.871 380.32 c 203.172 380.32 207.297
 378.605 210.328 375.551 c 213.359 372.5 215.047 368.367 215.016 364.066
 c 215.016 256.5 l 220.328 256.5 l 225.102 256.488 228.965 252.621 228.965
 247.848 c 228.965 232.566 l 267.852 232.566 l 272.488 232.559 276.246 228.797
 276.246 224.156 c 276.246 208.609 l 276.246 203.969 272.488 200.207 267.852
 200.199 c 266.898 200.199 l 266.898 75.086 l 267.852 75.086 l 272.488 75.082
 276.246 71.324 276.246 66.688 c 276.246 51.125 l 276.234 46.484 272.477
 42.727 267.836 42.715 c 239.215 42.715 l 239.215 41.508 l 239.219 29.355
 229.387 19.496 217.234 19.465 c 210.727 19.465 l 211.793 15.746 211.047
 11.742 208.715 8.652 c 206.387 5.562 202.742 3.746 198.871 3.746 c 195 
3.746 191.355 5.562 189.027 8.652 c 186.695 11.742 185.949 15.746 187.016
 19.465 c 180.512 19.465 l 168.359 19.496 158.523 29.355 158.527 41.508 
c 158.527 42.715 l 129.891 42.715 l 125.254 42.715 121.496 46.473 121.492
 51.109 c 121.492 66.676 l 121.508 71.312 125.262 75.07 129.902 75.086 c
 130.844 75.086 l 130.844 200.199 l 129.891 200.199 l 125.254 200.207 121.496
 203.969 121.492 208.609 c 121.492 325.262 l 112.477 327.734 106.68 336.488
 107.914 345.754 c 109.148 355.02 117.039 361.949 126.387 361.977 c h
206.016 364.066 m 206.035 365.973 205.293 367.809 203.949 369.164 c 202.609
 370.52 200.781 371.285 198.871 371.285 c 196.965 371.285 195.137 370.52
 193.793 369.164 c 192.453 367.809 191.707 365.973 191.727 364.066 c 191.727
 256.5 l 206.016 256.5 l h
219.965 247.5 m 177.777 247.5 l 177.777 232.566 l 219.965 232.566 l h
198.871 12.75 m 201.871 12.727 203.395 16.344 201.281 18.473 c 199.172 
20.602 195.539 19.105 195.539 16.109 c 195.535 14.262 197.023 12.758 198.871
 12.75 c h
167.527 41.508 m 167.52 34.324 173.328 28.492 180.512 28.465 c 217.234 
28.465 l 224.418 28.492 230.223 34.324 230.215 41.508 c 230.215 42.715 l
 167.527 42.715 l h
130.496 66.086 m 130.496 51.715 l 267.246 51.715 l 267.246 66.086 l 178.125
 66.086 l 172.125 66.086 172.125 75.086 178.125 75.086 c 257.898 75.086 
l 257.898 91.055 l 139.848 91.055 l 139.848 75.086 l 148.125 75.086 l 154.125
 75.086 154.125 66.086 148.125 66.086 c h
257.898 182.547 m 257.898 200.199 l 139.848 200.199 l 139.848 182.547 l
 h
139.848 173.547 m 139.848 100.055 l 150.164 100.055 l 150.164 173.547 l
 h
176.336 128.551 m 173.852 128.551 171.836 130.566 171.836 133.051 c 171.836
 173.547 l 159.16 173.547 l 159.16 100.055 l 193.508 100.055 l 193.508 173.547
 l 180.832 173.547 l 180.832 133.051 l 180.832 130.566 178.82 128.551 176.336
 128.551 c h
219.684 137.551 m 222.172 137.551 224.184 135.535 224.184 133.051 c 224.184
 100.055 l 236.859 100.055 l 236.859 173.547 l 202.512 173.547 l 202.512
 100.055 l 215.184 100.055 l 215.184 133.055 l 215.188 135.535 217.199 137.547
 219.684 137.551 c h
245.859 173.547 m 245.859 100.055 l 257.902 100.055 l 257.902 173.547 l
 h
130.496 209.199 m 267.246 209.199 l 267.246 223.566 l 130.496 223.566 l
 h
126.391 333.602 m 130.316 333.578 133.863 335.926 135.379 339.547 c 136.895
 343.164 136.078 347.34 133.309 350.121 c 130.543 352.902 126.371 353.742
 122.746 352.246 c 119.117 350.746 116.754 347.211 116.754 343.289 c 116.746
 337.953 121.059 333.621 126.391 333.602 c h
126.391 333.602 m f
Q Q
showpage
%%Trailer
end
%%EOF
