%!PS-Adobe-3.0 EPSF-3.0
%%Creator: cairo 1.16.0 (https://cairographics.org)
%%CreationDate: Tue Feb  2 14:48:19 2021
%%Pages: 1
%%DocumentData: Clean7Bit
%%LanguageLevel: 2
%%BoundingBox: 3 5 381 379
%%EndComments
%%BeginProlog
50 dict begin
/q { gsave } bind def
/Q { grestore } bind def
/cm { 6 array astore concat } bind def
/w { setlinewidth } bind def
/J { setlinecap } bind def
/j { setlinejoin } bind def
/M { setmiterlimit } bind def
/d { setdash } bind def
/m { moveto } bind def
/l { lineto } bind def
/c { curveto } bind def
/h { closepath } bind def
/re { exch dup neg 3 1 roll 5 3 roll moveto 0 rlineto
      0 exch rlineto 0 rlineto closepath } bind def
/S { stroke } bind def
/f { fill } bind def
/f* { eofill } bind def
/n { newpath } bind def
/W { clip } bind def
/W* { eoclip } bind def
/BT { } bind def
/ET { } bind def
/BDC { mark 3 1 roll /BDC pdfmark } bind def
/EMC { mark /EMC pdfmark } bind def
/cairo_store_point { /cairo_point_y exch def /cairo_point_x exch def } def
/Tj { show currentpoint cairo_store_point } bind def
/TJ {
  {
    dup
    type /stringtype eq
    { show } { -0.001 mul 0 cairo_font_matrix dtransform rmoveto } ifelse
  } forall
  currentpoint cairo_store_point
} bind def
/cairo_selectfont { cairo_font_matrix aload pop pop pop 0 0 6 array astore
    cairo_font exch selectfont cairo_point_x cairo_point_y moveto } bind def
/Tf { pop /cairo_font exch def /cairo_font_matrix where
      { pop cairo_selectfont } if } bind def
/Td { matrix translate cairo_font_matrix matrix concatmatrix dup
      /cairo_font_matrix exch def dup 4 get exch 5 get cairo_store_point
      /cairo_font where { pop cairo_selectfont } if } bind def
/Tm { 2 copy 8 2 roll 6 array astore /cairo_font_matrix exch def
      cairo_store_point /cairo_font where { pop cairo_selectfont } if } bind def
/g { setgray } bind def
/rg { setrgbcolor } bind def
/d1 { setcachedevice } bind def
/cairo_data_source {
  CairoDataIndex CairoData length lt
    { CairoData CairoDataIndex get /CairoDataIndex CairoDataIndex 1 add def }
    { () } ifelse
} def
/cairo_flush_ascii85_file { cairo_ascii85_file status { cairo_ascii85_file flushfile } if } def
/cairo_image { image cairo_flush_ascii85_file } def
/cairo_imagemask { imagemask cairo_flush_ascii85_file } def
%%EndProlog
%%BeginSetup
%%EndSetup
%%Page: 1 1
%%BeginPageSetup
%%PageBoundingBox: 3 5 381 379
%%EndPageSetup
q 3 5 378 374 rectclip
1 0 0 -1 0 384 cm q
0.466667 0.286275 0.262745 rg
63.719 57.262 254.215 17.602 re f
50.73 100.746 m 21.031 373.547 l 55.934 373.547 l 85.637 100.746 l h
50.73 100.746 m f
324.211 100.746 m 289.305 100.746 l 319.004 373.547 l 353.91 373.547 l 
h
324.211 100.746 m f
0.952941 0.807843 0.490196 rg
268.914 178.324 m 269.008 182.316 265.848 185.633 261.855 185.73 c 257.859
 185.824 254.543 182.664 254.449 178.672 c 254.352 174.676 257.512 171.359
 261.508 171.266 c 265.5 171.168 268.816 174.328 268.914 178.324 c h
268.914 178.324 m f
230.316 178.332 m 230.41 182.324 227.25 185.641 223.254 185.738 c 219.262
 185.832 215.945 182.672 215.848 178.68 c 215.754 174.684 218.914 171.367
 222.906 171.273 c 226.902 171.176 230.219 174.336 230.316 178.332 c h
230.316 178.332 m f
191.715 178.34 m 191.812 182.336 188.652 185.648 184.656 185.746 c 180.664
 185.844 177.348 182.68 177.25 178.688 c 177.156 174.691 180.316 171.375
 184.309 171.281 c 188.305 171.184 191.621 174.344 191.715 178.34 c h
191.715 178.34 m f
153.117 178.348 m 153.215 182.344 150.055 185.66 146.059 185.754 c 142.062
 185.852 138.746 182.688 138.652 178.695 c 138.555 174.699 141.715 171.383
 145.711 171.289 c 149.707 171.191 153.023 174.352 153.117 178.348 c h
153.117 178.348 m f
114.52 178.355 m 114.613 182.352 111.453 185.668 107.461 185.762 c 103.465
 185.859 100.148 182.699 100.055 178.703 c 99.957 174.707 103.117 171.391
 107.113 171.297 c 111.105 171.199 114.422 174.359 114.52 178.355 c h
114.52 178.355 m f
0.901961 0.392157 0.431373 rg
367.77 135.758 m 367.77 160.461 l 330.711 160.461 l 328.02 135.758 l h
367.77 135.758 m f
46.922 135.758 m 44.227 160.461 l 12.406 160.461 l 12.406 135.758 l h
46.922 135.758 m f
293.113 135.758 m 81.824 135.758 l 79.133 160.461 l 295.809 160.461 l h
293.113 135.758 m f
0.356863 0.231373 0.223529 rg
63.75 57 23.25 18 re f
50.73 100.5 m 21.031 373.5 l 44.281 373.5 l 73.98 100.5 l h
50.73 100.5 m f
0.647059 0.333333 0.368627 rg
12.75 135.75 23.25 24.75 re f
0.901961 0.392157 0.431373 rg
24.75 74.25 330.75 27 re f
0.647059 0.333333 0.368627 rg
24.75 74.25 23.25 27 re f
0.901961 0.392157 0.431373 rg
8.25 10.453 m 13.312 57.262 l 367.266 57.262 l 375.75 10.453 l 216.621 
48.082 8.25 10.453 8.25 10.453 c h
8.25 10.453 m f
0.647059 0.333333 0.368627 rg
8.25 10.324 m 13.312 57 l 36.562 57 l 31.902 13.973 l 16.855 11.812 8.25
 10.324 8.25 10.324 c h
8.25 10.324 m f
0.156863 0.258824 0.407843 rg
374.715 6.074 m 293.09 25.375 198.074 24.344 132.738 20.082 c 61.809 15.453
 9.57 6.121 9.051 6.027 c 6.094 5.492 3.453 7.953 3.777 10.938 c 8.84 57.746
 l 9.086 60.031 11.016 61.762 13.312 61.762 c 59.219 61.762 l 59.219 69.617
 l 24.887 69.617 l 22.398 69.617 20.387 71.633 20.387 74.117 c 20.387 100.746
 l 20.387 103.234 22.398 105.246 24.887 105.246 c 45.719 105.246 l 42.887
 131.258 l 12.406 131.258 l 9.922 131.258 7.906 133.27 7.906 135.758 c 7.906
 160.465 l 7.906 162.949 9.922 164.965 12.406 164.965 c 39.215 164.965 l
 16.559 373.059 l 16.27 375.719 18.355 378.047 21.031 378.047 c 55.938 378.047
 l 58.234 378.047 60.16 376.316 60.41 374.031 c 83.176 164.965 l 102.371
 164.965 l 102.371 167.832 l 97.273 170.145 94.523 175.734 95.793 181.184
 c 97.066 186.633 102.008 190.426 107.602 190.246 c 113.195 190.066 117.879
 185.961 118.797 180.438 c 119.715 174.918 116.605 169.52 111.371 167.539
 c 111.371 164.965 l 140.957 164.965 l 140.957 167.832 l 135.863 170.145
 133.109 175.734 134.383 181.184 c 135.656 186.633 140.598 190.426 146.188
 190.246 c 151.781 190.062 156.469 185.957 157.383 180.438 c 158.301 174.918
 155.191 169.52 149.957 167.539 c 149.957 164.965 l 179.543 164.965 l 179.543
 167.832 l 174.449 170.145 171.699 175.734 172.969 181.184 c 174.242 186.633
 179.184 190.426 184.777 190.246 c 190.367 190.062 195.055 185.957 195.973
 180.438 c 196.887 174.918 193.777 169.52 188.543 167.539 c 188.543 164.965
 l 218.133 164.965 l 218.133 167.832 l 213.039 170.145 210.285 175.734 211.559
 181.184 c 212.828 186.633 217.77 190.426 223.363 190.246 c 228.957 190.062
 233.641 185.957 234.559 180.438 c 235.477 174.918 232.367 169.52 227.133
 167.539 c 227.133 164.965 l 256.719 164.965 l 256.719 167.832 l 251.625
 170.145 248.871 175.734 250.145 181.184 c 251.418 186.633 256.359 190.426
 261.949 190.246 c 267.543 190.062 272.23 185.957 273.145 180.438 c 274.062
 174.918 270.953 169.52 265.719 167.539 c 265.719 164.965 l 291.773 164.965
 l 314.535 374.031 l 314.785 376.316 316.711 378.047 319.008 378.047 c 353.91
 378.047 l 356.59 378.047 358.676 375.719 358.387 373.059 c 335.73 164.965
 l 367.77 164.965 l 370.254 164.965 372.27 162.949 372.27 160.465 c 372.27
 135.758 l 372.27 133.27 370.254 131.258 367.77 131.258 c 332.059 131.258
 l 329.227 105.246 l 355.812 105.246 l 358.297 105.246 360.312 103.234 360.312
 100.746 c 360.312 74.117 l 360.312 71.633 358.297 69.617 355.812 69.617
 c 322.438 69.617 l 322.438 61.762 l 367.273 61.762 l 369.445 61.758 371.309
 60.203 371.695 58.062 c 380.176 11.258 l 380.754 8.066 377.871 5.332 374.715
 6.074 c h
16.906 155.965 m 16.906 140.258 l 41.906 140.258 l 40.195 155.965 l h
51.898 369.047 m 26.051 369.047 l 54.773 105.246 l 80.625 105.246 l h
107.219 181.234 m 104.785 181.234 103.562 178.293 105.285 176.57 c 107.004
 174.848 109.949 176.066 109.949 178.5 c 109.949 180.008 108.727 181.23 
107.219 181.234 c h
145.809 181.234 m 143.371 181.234 142.152 178.293 143.875 176.57 c 145.594
 174.848 148.539 176.066 148.539 178.5 c 148.539 180.008 147.316 181.234
 145.805 181.234 c h
184.395 181.234 m 181.961 181.234 180.738 178.293 182.461 176.57 c 184.18
 174.848 187.125 176.066 187.125 178.5 c 187.125 180.008 185.902 181.23 
184.395 181.234 c h
222.98 181.234 m 220.547 181.234 219.328 178.293 221.047 176.57 c 222.77
 174.848 225.711 176.066 225.715 178.5 c 225.711 180.008 224.488 181.23 
222.98 181.234 c h
261.57 181.234 m 259.137 181.234 257.914 178.293 259.633 176.57 c 261.355
 174.848 264.297 176.066 264.301 178.5 c 264.297 180.008 263.078 181.23 
261.57 181.234 c h
84.148 155.965 m 85.859 140.258 l 289.082 140.258 l 290.793 155.965 l h
86.84 131.258 m 89.672 105.246 l 285.273 105.246 l 288.102 131.258 l h
363.266 140.258 m 363.266 155.965 l 334.75 155.965 l 333.039 140.258 l 
h
348.895 369.047 m 323.047 369.047 l 294.324 105.246 l 320.176 105.246 l
 h
351.312 78.617 m 351.312 96.246 l 29.387 96.246 l 29.387 78.617 l h
363.512 52.762 m 114.449 52.762 l 108.449 52.762 108.449 61.762 114.449
 61.762 c 313.434 61.762 l 313.434 69.617 l 68.219 69.617 l 68.219 61.762
 l 84.449 61.762 l 90.449 61.762 90.449 52.762 84.449 52.762 c 17.352 52.762
 l 13.363 15.883 l 29.043 18.441 74.434 25.293 132.035 29.055 c 196.25 33.25
 288.918 34.344 370.105 16.363 c h
363.512 52.762 m f
61.184 148.789 m 61.352 148.805 61.52 148.816 61.691 148.816 c 63.98 148.812
 65.902 147.09 66.156 144.816 c 66.383 142.805 l 67.047 136.844 58.102 135.84
 57.438 141.805 c 57.211 143.816 l 56.934 146.285 58.715 148.512 61.184 
148.789 c h
61.184 148.789 m f
52.34 227.852 m 52.508 227.867 52.68 227.879 52.848 227.879 c 55.137 227.875
 57.059 226.152 57.312 223.879 c 64.543 159.246 l 64.828 156.773 63.047 
154.539 60.57 154.262 c 58.094 153.984 55.867 155.773 55.598 158.25 c 48.367
 222.879 l 48.094 225.348 49.871 227.574 52.34 227.852 c h
52.34 227.852 m f
Q Q
showpage
%%Trailer
end
%%EOF
