%!PS-Adobe-3.0 EPSF-3.0
%%Creator: cairo 1.16.0 (https://cairographics.org)
%%CreationDate: Tue Feb  2 14:48:19 2021
%%Pages: 1
%%DocumentData: Clean7Bit
%%LanguageLevel: 2
%%BoundingBox: 3 14 381 370
%%EndComments
%%BeginProlog
50 dict begin
/q { gsave } bind def
/Q { grestore } bind def
/cm { 6 array astore concat } bind def
/w { setlinewidth } bind def
/J { setlinecap } bind def
/j { setlinejoin } bind def
/M { setmiterlimit } bind def
/d { setdash } bind def
/m { moveto } bind def
/l { lineto } bind def
/c { curveto } bind def
/h { closepath } bind def
/re { exch dup neg 3 1 roll 5 3 roll moveto 0 rlineto
      0 exch rlineto 0 rlineto closepath } bind def
/S { stroke } bind def
/f { fill } bind def
/f* { eofill } bind def
/n { newpath } bind def
/W { clip } bind def
/W* { eoclip } bind def
/BT { } bind def
/ET { } bind def
/BDC { mark 3 1 roll /BDC pdfmark } bind def
/EMC { mark /EMC pdfmark } bind def
/cairo_store_point { /cairo_point_y exch def /cairo_point_x exch def } def
/Tj { show currentpoint cairo_store_point } bind def
/TJ {
  {
    dup
    type /stringtype eq
    { show } { -0.001 mul 0 cairo_font_matrix dtransform rmoveto } ifelse
  } forall
  currentpoint cairo_store_point
} bind def
/cairo_selectfont { cairo_font_matrix aload pop pop pop 0 0 6 array astore
    cairo_font exch selectfont cairo_point_x cairo_point_y moveto } bind def
/Tf { pop /cairo_font exch def /cairo_font_matrix where
      { pop cairo_selectfont } if } bind def
/Td { matrix translate cairo_font_matrix matrix concatmatrix dup
      /cairo_font_matrix exch def dup 4 get exch 5 get cairo_store_point
      /cairo_font where { pop cairo_selectfont } if } bind def
/Tm { 2 copy 8 2 roll 6 array astore /cairo_font_matrix exch def
      cairo_store_point /cairo_font where { pop cairo_selectfont } if } bind def
/g { setgray } bind def
/rg { setrgbcolor } bind def
/d1 { setcachedevice } bind def
/cairo_data_source {
  CairoDataIndex CairoData length lt
    { CairoData CairoDataIndex get /CairoDataIndex CairoDataIndex 1 add def }
    { () } ifelse
} def
/cairo_flush_ascii85_file { cairo_ascii85_file status { cairo_ascii85_file flushfile } if } def
/cairo_image { image cairo_flush_ascii85_file } def
/cairo_imagemask { imagemask cairo_flush_ascii85_file } def
%%EndProlog
%%BeginSetup
%%EndSetup
%%Page: 1 1
%%BeginPageSetup
%%PageBoundingBox: 3 14 381 370
%%EndPageSetup
q 3 14 378 356 rectclip
1 0 0 -1 0 384 cm q
0.882353 0.717647 0.639216 rg
143.926 303.309 96.148 15.555 re f
0.780392 0.603922 0.513726 rg
143.926 318.863 96.148 15.555 re f
0.882353 0.717647 0.639216 rg
121.738 334.418 140.523 15.156 re f
0.780392 0.603922 0.513726 rg
121.738 349.574 140.523 15.152 re f
0.807843 0.678431 0.419608 rg
12.766 334.363 m 10.27 334.355 8.246 336.379 8.25 338.871 c 8.25 360.219
 l 8.25 362.707 10.27 364.727 12.758 364.727 c 121.738 364.727 l 121.738
 334.418 l h
12.766 334.363 m f
371.234 334.363 m 262.262 334.418 l 262.262 364.727 l 371.242 364.727 l
 373.73 364.727 375.75 362.707 375.75 360.219 c 375.75 338.871 l 375.75 
336.379 373.727 334.359 371.234 334.363 c h
371.234 334.363 m f
0.952941 0.807843 0.490196 rg
345.457 303.309 m 240.074 303.309 l 240.074 334.418 l 350.031 334.418 l
 350.031 307.883 l 350.031 305.355 347.984 303.309 345.457 303.309 c h
345.457 303.309 m f
38.543 303.309 m 36.016 303.309 33.969 305.355 33.969 307.883 c 33.969 
334.418 l 143.926 334.418 l 143.926 303.309 l h
38.543 303.309 m f
0.411765 0.580392 0.996078 rg
300 274.117 m 84.039 274.117 l 84.039 245.48 95.414 218.012 115.664 197.762
 c 135.914 177.512 163.379 166.137 192.02 166.137 c 220.656 166.137 248.121
 177.512 268.371 197.762 c 288.625 218.012 300 245.48 300 274.117 c h
300 274.117 m f
0.952941 0.807843 0.490196 rg
217.746 169.043 m 217.746 169.059 l 200.832 164.918 183.168 164.918 166.254
 169.059 c 166.254 148.957 l 217.746 148.957 l h
217.746 169.043 m f
199.598 59.543 m 216.211 134.168 l 167.789 134.168 l 184.402 59.543 l 184.402
 59.512 l 184.621 59.535 184.844 59.543 185.062 59.543 c 198.938 59.543 
l 199.156 59.543 199.379 59.535 199.598 59.512 c h
199.598 59.543 m f
0.917647 0.87451 0.32549 rg
225.578 136.375 m 224.176 135 222.285 134.234 220.32 134.25 c 163.68 134.25
 l 161.723 134.242 159.844 135.012 158.457 136.391 c 157.066 137.77 156.285
 139.648 156.285 141.605 c 156.281 143.602 157.059 145.523 158.453 146.957
 c 159.824 148.379 161.703 149.203 163.68 149.25 c 220.445 149.25 l 224.539
 149.184 227.816 145.824 227.777 141.73 c 227.77 139.727 226.98 137.805 
225.578 136.375 c h
225.578 136.375 m f
184.402 59.25 m 199.598 59.25 l 201.207 59.211 202.734 58.535 203.852 57.375
 c 205.148 56.117 205.883 54.387 205.883 52.582 c 205.879 50.75 205.141 
49 203.836 47.715 c 202.531 46.434 200.766 45.727 198.938 45.75 c 185.062
 45.75 l 183.227 45.73 181.457 46.445 180.148 47.738 c 178.852 48.977 178.117
 50.695 178.117 52.492 c 178.117 56.102 180.879 59.25 184.402 59.25 c h
184.402 59.25 m f
0.396078 0.541176 0.839216 rg
188.754 168.875 m 193.523 167.734 198.367 166.926 203.25 166.453 c 199.512
 166.078 195.758 165.895 192 165.906 c 183.332 165.848 174.684 166.836 166.254
 168.852 c 119.062 180.445 84.039 223.5 84.039 273.75 c 106.539 273.75 l
 106.539 223.5 141.562 180.469 188.754 168.875 c h
188.754 168.875 m f
0.431373 0.568627 0.717647 rg
306.195 274.117 m 77.805 274.117 l 75.316 274.113 73.297 276.129 73.297
 278.617 c 73.297 303.309 l 310.703 303.309 l 310.703 278.617 l 310.703 
276.129 308.684 274.113 306.195 274.117 c h
306.195 274.117 m f
0.329412 0.45098 0.556863 rg
100.305 273.75 m 77.805 273.75 l 75.316 273.75 73.5 276.129 73.5 278.617
 c 73.5 303 l 96 303 l 96 278.617 l 96 276.129 97.816 273.75 100.305 273.75
 c h
100.305 273.75 m f
0.658824 0.54902 0.356863 rg
30.75 360.219 m 30.75 338.871 l 30.746 336.469 32.637 334.484 35.039 334.371
 c 12.766 334.363 l 10.27 334.355 8.246 336.379 8.25 338.871 c 8.25 360.219
 l 8.27 362.664 10.312 364.605 12.758 364.5 c 35.258 364.5 l 32.812 364.605
 30.77 362.664 30.75 360.219 c h
30.75 360.219 m f
0.807843 0.686275 0.447059 rg
61.043 303 m 38.543 303 l 35.914 303.125 33.828 305.254 33.75 307.883 c
 33.75 334.5 l 56.25 334.5 l 56.25 307.883 l 56.328 305.254 58.414 303.125
 61.043 303 c h
61.043 303 m f
0.156863 0.258824 0.407843 rg
156.285 199.375 m 157.062 199.375 157.824 199.176 158.496 198.793 c 159.719
 198.102 160.965 197.43 162.199 196.793 c 164.426 195.664 165.305 192.945
 164.168 190.727 c 163.027 188.508 160.305 187.641 158.09 188.789 c 156.746
 189.477 155.391 190.211 154.066 190.961 c 150.035 193.238 151.656 199.383
 156.285 199.375 c h
156.285 199.375 m f
147.52 205.961 m 152.328 202.367 146.941 195.16 142.133 198.75 c 129.395
 208.297 118.797 220.398 111.016 234.285 c 109.77 236.461 110.535 239.234
 112.727 240.457 c 114.914 241.68 117.68 240.875 118.875 238.672 c 126.039
 225.891 135.793 214.746 147.52 205.961 c h
147.52 205.961 m f
371.246 329.867 m 371.223 329.867 l 354.531 329.91 l 354.531 307.883 l 
354.527 302.875 350.469 298.816 345.461 298.812 c 315.203 298.812 l 315.203
 278.617 l 315.203 276.23 314.258 273.941 312.566 272.25 c 310.879 270.562
 308.59 269.613 306.199 269.613 c 304.402 269.613 l 302.41 220.816 269.254
 178.836 222.246 165.594 c 222.246 153.285 l 228.359 152.289 232.684 146.766
 232.18 140.59 c 231.68 134.418 226.52 129.664 220.324 129.672 c 219.816
 129.672 l 204.84 62.383 l 209.246 59.734 211.344 54.473 209.965 49.52 c
 208.59 44.566 204.078 41.141 198.938 41.148 c 196.5 41.148 l 196.5 19.273
 l 196.5 13.273 187.5 13.273 187.5 19.273 c 187.5 41.148 l 185.062 41.148
 l 179.922 41.141 175.41 44.566 174.035 49.52 c 172.656 54.473 174.754 59.734
 179.16 62.383 c 164.184 129.676 l 163.68 129.676 l 157.484 129.668 152.324
 134.422 151.82 140.594 c 151.32 146.77 155.645 152.293 161.758 153.289 
c 161.758 165.602 l 114.762 178.852 81.621 220.828 79.637 269.613 c 77.801
 269.613 l 72.828 269.613 68.797 273.648 68.797 278.621 c 68.797 298.812
 l 38.539 298.812 l 33.531 298.816 29.473 302.875 29.469 307.883 c 29.469
 329.906 l 12.777 329.867 l 12.758 329.867 l 10.367 329.867 8.078 330.816
 6.387 332.504 c 4.699 334.191 3.75 336.48 3.75 338.871 c 3.75 360.227 l
 3.758 365.195 7.785 369.219 12.758 369.227 c 371.242 369.227 l 376.215 
369.219 380.242 365.195 380.25 360.227 c 380.25 338.871 l 380.246 333.898
 376.215 329.871 371.246 329.871 c h
345.461 307.812 m 345.5 307.812 345.531 307.844 345.531 307.883 c 345.531
 329.918 l 244.574 329.918 l 244.574 307.812 l h
185.062 50.148 m 198.938 50.148 l 200.309 50.125 201.43 51.227 201.43 52.594
 c 201.43 53.961 200.309 55.066 198.938 55.039 c 185.062 55.039 l 183.695
 55.066 182.574 53.961 182.574 52.594 c 182.574 51.227 183.695 50.125 185.062
 50.148 c h
188.012 64.039 m 195.988 64.039 l 210.594 129.676 l 173.406 129.676 l h
160.781 141.562 m 160.785 139.965 162.082 138.672 163.68 138.672 c 220.32
 138.672 l 221.918 138.672 223.215 139.965 223.215 141.562 c 223.215 143.16
 221.918 144.453 220.32 144.453 c 163.68 144.453 l 162.082 144.453 160.785
 143.16 160.781 141.562 c h
213.242 153.453 m 213.242 163.477 l 199.211 160.777 184.789 160.777 170.758
 163.477 c 170.758 153.453 l h
77.801 278.613 m 102.238 278.613 l 108.238 278.613 108.238 269.613 102.238
 269.613 c 88.641 269.613 l 91 214.535 136.457 170.453 192 170.453 c 247.562
 170.453 293.031 214.535 295.395 269.613 c 132.238 269.613 l 129.754 269.613
 127.738 271.629 127.738 274.113 c 127.738 276.598 129.754 278.613 132.238
 278.613 c 306.203 278.613 l 306.203 298.809 l 77.797 298.809 l h
148.426 314.363 m 148.426 307.812 l 235.574 307.812 l 235.574 314.363 l
 h
235.574 323.363 m 235.574 329.918 l 148.426 329.918 l 148.426 323.363 l
 h
38.469 307.883 m 38.469 307.844 38.5 307.812 38.539 307.812 c 139.426 307.812
 l 139.426 329.918 l 38.469 329.918 l h
117.238 360.227 m 12.75 360.227 l 12.758 338.871 l 117.238 338.922 l h
257.762 360.227 m 126.238 360.227 l 126.238 354.074 l 257.762 354.074 l
 h
257.762 345.074 m 126.238 345.074 l 126.238 338.926 l 257.762 338.926 l
 h
371.242 360.227 m 266.762 360.227 l 266.762 338.918 l 371.25 338.871 l 
h
371.242 360.227 m f
Q Q
showpage
%%Trailer
end
%%EOF
