%!PS-Adobe-3.0 EPSF-3.0
%%Creator: cairo 1.16.0 (https://cairographics.org)
%%CreationDate: Tue Feb  2 14:48:21 2021
%%Pages: 1
%%DocumentData: Clean7Bit
%%LanguageLevel: 2
%%BoundingBox: 54 3 330 381
%%EndComments
%%BeginProlog
50 dict begin
/q { gsave } bind def
/Q { grestore } bind def
/cm { 6 array astore concat } bind def
/w { setlinewidth } bind def
/J { setlinecap } bind def
/j { setlinejoin } bind def
/M { setmiterlimit } bind def
/d { setdash } bind def
/m { moveto } bind def
/l { lineto } bind def
/c { curveto } bind def
/h { closepath } bind def
/re { exch dup neg 3 1 roll 5 3 roll moveto 0 rlineto
      0 exch rlineto 0 rlineto closepath } bind def
/S { stroke } bind def
/f { fill } bind def
/f* { eofill } bind def
/n { newpath } bind def
/W { clip } bind def
/W* { eoclip } bind def
/BT { } bind def
/ET { } bind def
/BDC { mark 3 1 roll /BDC pdfmark } bind def
/EMC { mark /EMC pdfmark } bind def
/cairo_store_point { /cairo_point_y exch def /cairo_point_x exch def } def
/Tj { show currentpoint cairo_store_point } bind def
/TJ {
  {
    dup
    type /stringtype eq
    { show } { -0.001 mul 0 cairo_font_matrix dtransform rmoveto } ifelse
  } forall
  currentpoint cairo_store_point
} bind def
/cairo_selectfont { cairo_font_matrix aload pop pop pop 0 0 6 array astore
    cairo_font exch selectfont cairo_point_x cairo_point_y moveto } bind def
/Tf { pop /cairo_font exch def /cairo_font_matrix where
      { pop cairo_selectfont } if } bind def
/Td { matrix translate cairo_font_matrix matrix concatmatrix dup
      /cairo_font_matrix exch def dup 4 get exch 5 get cairo_store_point
      /cairo_font where { pop cairo_selectfont } if } bind def
/Tm { 2 copy 8 2 roll 6 array astore /cairo_font_matrix exch def
      cairo_store_point /cairo_font where { pop cairo_selectfont } if } bind def
/g { setgray } bind def
/rg { setrgbcolor } bind def
/d1 { setcachedevice } bind def
/cairo_data_source {
  CairoDataIndex CairoData length lt
    { CairoData CairoDataIndex get /CairoDataIndex CairoDataIndex 1 add def }
    { () } ifelse
} def
/cairo_flush_ascii85_file { cairo_ascii85_file status { cairo_ascii85_file flushfile } if } def
/cairo_image { image cairo_flush_ascii85_file } def
/cairo_imagemask { imagemask cairo_flush_ascii85_file } def
%%EndProlog
%%BeginSetup
%%EndSetup
%%Page: 1 1
%%BeginPageSetup
%%PageBoundingBox: 54 3 330 381
%%EndPageSetup
q 54 3 276 378 rectclip
1 0 0 -1 0 384 cm q
0.780392 0.603922 0.513726 rg
323.602 373.027 m 322.246 371.031 l 319.543 367.07 318.098 362.387 318.098
 357.594 c 318.098 357.016 318.121 356.445 318.164 355.867 c 58.996 355.914
 l 59.492 367.008 68.633 375.75 79.738 375.75 c 322.254 375.75 l 323.656
 375.75 324.449 374.145 323.602 373.027 c h
323.602 373.027 m f
0.882353 0.717647 0.639216 rg
79.738 334.164 m 74.227 334.164 68.941 336.355 65.043 340.258 c 61.148 
344.156 58.961 349.445 58.965 354.961 c 58.965 355.281 58.973 355.598 58.996
 355.914 c 318.164 355.867 l 318.527 350.738 320.543 345.863 323.91 341.977
 c 324.496 341.203 324.816 340.262 324.816 339.293 c 324.816 334.164 l h
79.738 334.164 m f
0.545098 0.701961 0.921569 rg
310.246 8.25 m 314.168 8.25 317.934 9.809 320.707 12.582 c 323.48 15.359
 325.039 19.125 325.035 23.047 c 324.816 334.164 l 101.43 334.164 l 101.43
 8.25 l h
310.246 8.25 m f
0.466667 0.286275 0.262745 rg
101.43 8.25 m 101.43 334.164 l 79.738 334.164 l 74.227 334.164 68.941 336.355
 65.043 340.258 c 61.148 344.156 58.961 349.445 58.965 354.961 c 58.965 
23.047 l 58.965 19.121 60.523 15.359 63.297 12.582 c 66.074 9.809 69.836
 8.25 73.762 8.25 c h
101.43 8.25 m f
1 0.878431 0.490196 rg
210.051 81.227 m 248.98 82.023 280.012 114.012 279.629 152.949 c 279.25
 191.883 247.594 223.254 208.656 223.289 c 208.215 223.289 207.773 223.281
 207.336 223.273 c 226.734 223.23 243.434 207.172 243.434 187.754 c 243.434
 168.316 228.082 152.25 208.656 152.25 c 189.711 150.156 178.672 139.395
 178.344 119.961 c 178.094 105.668 185.676 85.074 210.051 81.227 c h
210.051 81.227 m f
0.901961 0.392157 0.431373 rg
208.656 152.25 m 228.082 152.25 243.434 168.316 243.434 187.754 c 243.434
 207.172 226.734 223.23 207.336 223.273 c 207.262 223.273 l 168.332 222.477
 137.301 190.488 137.684 151.551 c 138.066 112.617 169.719 81.246 208.656
 81.211 c 209.121 81.211 209.586 81.219 210.051 81.227 c 185.676 85.074 
178.094 105.668 178.344 119.961 c 178.672 139.395 189.711 150.156 208.656
 152.25 c h
208.656 152.25 m f
215.07 100.875 m 220.109 100.871 224.652 103.906 226.586 108.559 c 228.516
 113.215 227.449 118.574 223.891 122.137 c 220.328 125.703 214.969 126.77
 210.312 124.844 c 205.656 122.914 202.621 118.371 202.621 113.332 c 202.617
 110.027 203.93 106.859 206.266 104.523 c 208.598 102.188 211.766 100.875
 215.07 100.875 c h
215.07 100.875 m f
1 0.878431 0.490196 rg
204.996 173.453 m 210.039 173.445 214.586 176.477 216.516 181.133 c 218.449
 185.785 217.387 191.148 213.828 194.715 c 210.266 198.281 204.906 199.348
 200.25 197.422 c 195.594 195.492 192.555 190.949 192.555 185.91 c 192.555
 179.035 198.121 173.461 204.996 173.453 c h
204.996 173.453 m f
0.34902 0.219608 0.207843 rg
96.262 8.25 m 73.762 8.25 l 69.867 8.258 66.137 9.832 63.41 12.613 c 60.684
 15.395 59.184 19.152 59.25 23.047 c 59.25 354.961 l 59.191 349.512 61.336
 344.27 65.191 340.418 c 69.047 336.57 74.293 334.434 79.738 334.5 c 81.75
 334.5 l 81.75 23.047 l 81.684 19.152 83.184 15.395 85.91 12.613 c 88.637
 9.832 92.367 8.258 96.262 8.25 c h
96.262 8.25 m f
0.717647 0.337255 0.384314 rg
160.176 152.25 m 160.152 132.449 168.414 113.539 182.961 100.105 c 187.574
 91.195 196.031 83.438 210.051 81.227 c 209.586 81.219 209.121 81.211 208.656
 81.211 c 169.453 81.211 137.676 113.129 137.676 152.363 c 137.656 191.059
 168.578 222.668 207.262 223.5 c 207.336 223.5 l 210.629 223.453 213.895
 222.945 217.043 221.992 c 183.93 215.199 160.164 186.055 160.176 152.25
 c h
160.176 152.25 m f
0.156863 0.258824 0.407843 rg
207.262 227.77 m 207.344 227.77 l 207.781 227.777 208.219 227.785 208.66
 227.785 c 250.363 227.941 284.348 194.359 284.695 152.652 c 285.039 110.949
 251.617 76.809 209.914 76.273 c 168.211 75.734 133.918 109 133.188 150.699
 c 132.457 192.398 165.566 226.848 207.262 227.77 c h
210.418 85.734 m 240.523 86.562 266.316 107.5 273.316 136.789 c 280.312
 166.082 266.766 196.418 240.289 210.762 c 245.219 204.102 247.898 196.043
 247.938 187.754 c 247.938 165.781 230.457 147.895 208.922 147.75 c 191.895
 145.797 183.125 136.422 182.844 119.883 c 182.609 106.234 189.707 89.176
 210.418 85.734 c h
184.035 90.445 m 176.906 98.809 173.668 109.711 173.844 120.039 c 174.207
 141.293 186.395 154.32 208.164 156.723 c 208.328 156.742 208.492 156.75
 208.66 156.75 c 225.352 156.75 238.938 170.66 238.938 187.758 c 238.938
 204.543 224.477 218.727 207.344 218.77 c 175.703 218.117 148.902 195.27
 143.25 164.133 c 137.594 132.996 154.648 102.188 184.035 90.445 c h
184.035 90.445 m f
205 202.867 m 211.859 202.871 218.043 198.742 220.672 192.406 c 223.297
 186.07 221.852 178.777 217 173.926 c 212.152 169.074 204.859 167.621 198.523
 170.246 c 192.184 172.871 188.055 179.051 188.055 185.91 c 188.062 195.27
 195.641 202.855 205 202.867 c h
205 177.957 m 208.219 177.953 211.121 179.887 212.355 182.859 c 213.59 
185.832 212.914 189.258 210.637 191.535 c 208.363 193.812 204.941 194.492
 201.965 193.262 c 198.992 192.031 197.055 189.129 197.055 185.91 c 197.055
 181.523 200.609 177.965 205 177.957 c h
205 177.957 m f
215.066 130.289 m 221.926 130.293 228.113 126.164 230.738 119.828 c 233.367
 113.492 231.918 106.199 227.07 101.348 c 222.223 96.496 214.93 95.043 208.59
 97.664 c 202.254 100.289 198.121 106.473 198.121 113.332 c 198.129 122.688
 205.711 130.273 215.066 130.289 c h
215.066 105.375 m 218.285 105.371 221.191 107.309 222.426 110.281 c 223.66
 113.254 222.98 116.676 220.707 118.953 c 218.434 121.23 215.008 121.914
 212.035 120.684 c 209.062 119.453 207.121 116.551 207.121 113.332 c 207.125
 108.941 210.676 105.383 215.066 105.375 c h
215.066 105.375 m f
280.035 250.508 m 146.426 250.508 l 140.426 250.508 140.426 259.508 146.426
 259.508 c 280.035 259.508 l 286.035 259.508 286.035 250.508 280.035 250.508
 c h
280.035 250.508 m f
280.035 267.008 m 146.426 267.008 l 140.426 267.008 140.426 276.008 146.426
 276.008 c 280.035 276.008 l 286.035 276.008 286.035 267.008 280.035 267.008
 c h
280.035 267.008 m f
280.035 283.508 m 146.426 283.508 l 140.426 283.508 140.426 292.508 146.426
 292.508 c 280.035 292.508 l 286.035 292.508 286.035 283.508 280.035 283.508
 c h
280.035 283.508 m f
79.742 380.25 m 322.258 380.25 l 324.582 380.25 326.715 378.945 327.773
 376.871 c 328.832 374.801 328.637 372.309 327.273 370.426 c 325.961 368.5
 l 321.02 361.238 321.578 351.566 327.312 344.918 c 327.371 344.848 327.43
 344.781 327.484 344.711 c 328.668 343.152 329.312 341.25 329.316 339.297
 c 329.535 23.051 l 329.539 17.934 327.508 13.023 323.891 9.402 c 320.273
 5.785 315.367 3.75 310.246 3.75 c 73.766 3.75 l 63.109 3.762 54.477 12.395
 54.465 23.051 c 54.465 354.957 l 54.477 368.914 65.785 380.23 79.742 380.25
 c h
79.742 371.25 m 72.836 371.238 66.684 366.879 64.391 360.363 c 313.758 
360.363 l 314.121 364.184 315.258 367.887 317.102 371.25 c h
320.336 339.23 m 317.375 342.727 315.309 346.891 314.312 351.363 c 63.871
 351.363 l 65.551 343.949 72.137 338.68 79.742 338.664 c 320.336 338.664
 l h
63.465 23.051 m 63.473 17.363 68.078 12.758 73.766 12.75 c 96.926 12.75
 l 96.926 47.133 l 96.926 53.133 105.926 53.133 105.926 47.133 c 105.926
 12.75 l 310.246 12.75 l 312.977 12.75 315.594 13.836 317.523 15.766 c 319.453
 17.695 320.535 20.316 320.535 23.043 c 320.344 329.664 l 105.926 329.664
 l 105.926 77.133 l 105.926 71.133 96.926 71.133 96.926 77.133 c 96.926 
329.664 l 79.742 329.664 l 73.781 329.66 68.016 331.77 63.465 335.621 c 
h
63.465 23.051 m f
81 36.535 m 83.484 36.535 85.5 34.523 85.5 32.035 c 85.5 30.012 l 85.5 
24.012 76.5 24.012 76.5 30.012 c 76.5 32.035 l 76.5 34.523 78.516 36.535
 81 36.535 c h
81 36.535 m f
85.5 111.59 m 85.5 46.559 l 85.5 40.559 76.5 40.559 76.5 46.559 c 76.5 
111.59 l 76.5 117.59 85.5 117.59 85.5 111.59 c h
85.5 111.59 m f
Q Q
showpage
%%Trailer
end
%%EOF
